{
  "transcript": "WHILE THE CARRIAGE LAY WEDGED AGAINST THE WALL AND THE DRIVER SCREAMED PITIFULLY FROM HIS DANGEROUS POSITION MIDWAY BETWEEN SEA AND SKY",
  "words": [
    {
      "alignedWord": "while",
      "case": "success",
      "end": 0.43000000000000005,
      "endOffset": 5,
      "phones": [
        {
          "duration": 0.12,
          "phone": "hh_B"
        },
        {
          "duration": 0.04,
          "phone": "w_I"
        },
        {
          "duration": 0.04,
          "phone": "ay_I"
        },
        {
          "duration": 0.07,
          "phone": "l_E"
        }
      ],
      "start": 0.16,
      "startOffset": 0,
      "word": "WHILE"
    },
    {
      "alignedWord": "the",
      "case": "success",
      "end": 0.52,
      "endOffset": 9,
      "phones": [
        {
          "duration": 0.02,
          "phone": "dh_B"
        },
        {
          "duration": 0.07,
          "phone": "iy_E"
        }
      ],
      "start": 0.43,
      "startOffset": 6,
      "word": "THE"
    },
    {
      "alignedWord": "carriage",
      "case": "success",
      "end": 0.96,
      "endOffset": 18,
      "phones": [
        {
          "duration": 0.1,
          "phone": "k_B"
        },
        {
          "duration": 0.07,
          "phone": "eh_I"
        },
        {
          "duration": 0.08,
          "phone": "r_I"
        },
        {
          "duration": 0.06,
          "phone": "ah_I"
        },
        {
          "duration": 0.13,
          "phone": "jh_E"
        }
      ],
      "start": 0.52,
      "startOffset": 10,
      "word": "CARRIAGE"
    },
    {
      "alignedWord": "lay",
      "case": "success",
      "end": 1.16,
      "endOffset": 22,
      "phones": [
        {
          "duration": 0.09,
          "phone": "l_B"
        },
        {
          "duration": 0.11,
          "phone": "ey_E"
        }
      ],
      "start": 0.96,
      "startOffset": 19,
      "word": "LAY"
    },
    {
      "alignedWord": "<unk>",
      "case": "success",
      "end": 1.56,
      "endOffset": 29,
      "phones": [
        {
          "duration": 0.4,
          "phone": "oov_S"
        }
      ],
      "start": 1.16,
      "startOffset": 23,
      "word": "WEDGED"
    },
    {
      "alignedWord": "against",
      "case": "success",
      "end": 1.86,
      "endOffset": 37,
      "phones": [
        {
          "duration": 0.01,
          "phone": "ah_B"
        },
        {
          "duration": 0.08,
          "phone": "g_I"
        },
        {
          "duration": 0.06,
          "phone": "eh_I"
        },
        {
          "duration": 0.05,
          "phone": "n_I"
        },
        {
          "duration": 0.07,
          "phone": "s_I"
        },
        {
          "duration": 0.03,
          "phone": "t_E"
        }
      ],
      "start": 1.56,
      "startOffset": 30,
      "word": "AGAINST"
    },
    {
      "alignedWord": "the",
      "case": "success",
      "end": 1.9500000000000002,
      "endOffset": 41,
      "phones": [
        {
          "duration": 0.04,
          "phone": "dh_B"
        },
        {
          "duration": 0.05,
          "phone": "ah_E"
        }
      ],
      "start": 1.86,
      "startOffset": 38,
      "word": "THE"
    },
    {
      "alignedWord": "wall",
      "case": "success",
      "end": 2.32,
      "endOffset": 46,
      "phones": [
        {
          "duration": 0.08,
          "phone": "w_B"
        },
        {
          "duration": 0.19,
          "phone": "ao_I"
        },
        {
          "duration": 0.1,
          "phone": "l_E"
        }
      ],
      "start": 1.95,
      "startOffset": 42,
      "word": "WALL"
    },
    {
      "alignedWord": "and",
      "case": "success",
      "end": 2.48,
      "endOffset": 50,
      "phones": [
        {
          "duration": 0.04,
          "phone": "ah_B"
        },
        {
          "duration": 0.06,
          "phone": "n_I"
        },
        {
          "duration": 0.04,
          "phone": "d_E"
        }
      ],
      "start": 2.34,
      "startOffset": 47,
      "word": "AND"
    },
    {
      "alignedWord": "the",
      "case": "success",
      "end": 2.54,
      "endOffset": 54,
      "phones": [
        {
          "duration": 0.01,
          "phone": "dh_B"
        },
        {
          "duration": 0.05,
          "phone": "ah_E"
        }
      ],
      "start": 2.48,
      "startOffset": 51,
      "word": "THE"
    },
    {
      "alignedWord": "driver",
      "case": "success",
      "end": 2.91,
      "endOffset": 61,
      "phones": [
        {
          "duration": 0.07,
          "phone": "d_B"
        },
        {
          "duration": 0.06,
          "phone": "r_I"
        },
        {
          "duration": 0.09,
          "phone": "ay_I"
        },
        {
          "duration": 0.08,
          "phone": "v_I"
        },
        {
          "duration": 0.07,
          "phone": "er_E"
        }
      ],
      "start": 2.54,
      "startOffset": 55,
      "word": "DRIVER"
    },
    {
      "alignedWord": "screamed",
      "case": "success",
      "end": 3.3600000000000003,
      "endOffset": 70,
      "phones": [
        {
          "duration": 0.1,
          "phone": "s_B"
        },
        {
          "duration": 0.07,
          "phone": "k_I"
        },
        {
          "duration": 0.08,
          "phone": "r_I"
        },
        {
          "duration": 0.09,
          "phone": "iy_I"
        },
        {
          "duration": 0.1,
          "phone": "m_I"
        },
        {
          "duration": 0.01,
          "phone": "d_E"
        }
      ],
      "start": 2.91,
      "startOffset": 62,
      "word": "SCREAMED"
    },
    {
      "alignedWord": "<unk>",
      "case": "success",
      "end": 3.98,
      "endOffset": 80,
      "phones": [
        {
          "duration": 0.56,
          "phone": "oov_S"
        }
      ],
      "start": 3.42,
      "startOffset": 71,
      "word": "PITIFULLY"
    },
    {
      "alignedWord": "from",
      "case": "success",
      "end": 4.17,
      "endOffset": 85,
      "phones": [
        {
          "duration": 0.08,
          "phone": "f_B"
        },
        {
          "duration": 0.04,
          "phone": "er_I"
        },
        {
          "duration": 0.06,
          "phone": "m_E"
        }
      ],
      "start": 3.99,
      "startOffset": 81,
      "word": "FROM"
    },
    {
      "alignedWord": "his",
      "case": "success",
      "end": 4.32,
      "endOffset": 89,
      "phones": [
        {
          "duration": 0.05,
          "phone": "hh_B"
        },
        {
          "duration": 0.02,
          "phone": "ih_I"
        },
        {
          "duration": 0.08,
          "phone": "z_E"
        }
      ],
      "start": 4.17,
      "startOffset": 86,
      "word": "HIS"
    },
    {
      "alignedWord": "dangerous",
      "case": "success",
      "end": 4.86,
      "endOffset": 99,
      "phones": [
        {
          "duration": 0.09,
          "phone": "d_B"
        },
        {
          "duration": 0.1,
          "phone": "ey_I"
        },
        {
          "duration": 0.08,
          "phone": "n_I"
        },
        {
          "duration": 0.07,
          "phone": "jh_I"
        },
        {
          "duration": 0.05,
          "phone": "er_I"
        },
        {
          "duration": 0.07,
          "phone": "ah_I"
        },
        {
          "duration": 0.08,
          "phone": "s_E"
        }
      ],
      "start": 4.32,
      "startOffset": 90,
      "word": "DANGEROUS"
    },
    {
      "alignedWord": "position",
      "case": "success",
      "end": 5.390000000000001,
      "endOffset": 108,
      "phones": [
        {
          "duration": 0.05,
          "phone": "p_B"
        },
        {
          "duration": 0.06,
          "phone": "ah_I"
        },
        {
          "duration": 0.07,
          "phone": "z_I"
        },
        {
          "duration": 0.07,
          "phone": "ih_I"
        },
        {
          "duration": 0.12,
          "phone": "sh_I"
        },
        {
          "duration": 0.08,
          "phone": "ah_I"
        },
        {
          "duration": 0.07,
          "phone": "n_E"
        }
      ],
      "start": 4.87,
      "startOffset": 100,
      "word": "POSITION"
    },
    {
      "alignedWord": "midway",
      "case": "success",
      "end": 5.779999999999999,
      "endOffset": 115,
      "phones": [
        {
          "duration": 0.01,
          "phone": "m_B"
        },
        {
          "duration": 0.1,
          "phone": "ih_I"
        },
        {
          "duration": 0.08,
          "phone": "d_I"
        },
        {
          "duration": 0.09,
          "phone": "w_I"
        },
        {
          "duration": 0.11,
          "phone": "ey_E"
        }
      ],
      "start": 5.39,
      "startOffset": 109,
      "word": "MIDWAY"
    },
    {
      "alignedWord": "between",
      "case": "success",
      "end": 6.24,
      "endOffset": 123,
      "phones": [
        {
          "duration": 0.06,
          "phone": "b_B"
        },
        {
          "duration": 0.06,
          "phone": "iy_I"
        },
        {
          "duration": 0.09,
          "phone": "t_I"
        },
        {
          "duration": 0.05,
          "phone": "w_I"
        },
        {
          "duration": 0.06,
          "phone": "iy_I"
        },
        {
          "duration": 0.14,
          "phone": "n_E"
        }
      ],
      "start": 5.78,
      "startOffset": 116,
      "word": "BETWEEN"
    },
    {
      "alignedWord": "sea",
      "case": "success",
      "end": 6.55,
      "endOffset": 127,
      "phones": [
        {
          "duration": 0.16,
          "phone": "s_B"
        },
        {
          "duration": 0.14,
          "phone": "iy_E"
        }
      ],
      "start": 6.25,
      "startOffset": 124,
      "word": "SEA"
    },
    {
      "alignedWord": "and",
      "case": "success",
      "end": 6.76,
      "endOffset": 131,
      "phones": [
        {
          "duration": 0.05,
          "phone": "ae_B"
        },
        {
          "duration": 0.1,
          "phone": "n_I"
        },
        {
          "duration": 0.06,
          "phone": "d_E"
        }
      ],
      "start": 6.55,
      "startOffset": 128,
      "word": "AND"
    },
    {
      "alignedWord": "sky",
      "case": "success",
      "end": 7.22,
      "endOffset": 135,
      "phones": [
        {
          "duration": 0.12,
          "phone": "s_B"
        },
        {
          "duration": 0.08,
          "phone": "k_I"
        },
        {
          "duration": 0.25,
          "phone": "ay_E"
        }
      ],
      "start": 6.77,
      "startOffset": 132,
      "word": "SKY"
    }
  ]
}