{
  "transcript": "BEING VERY FOND OF ONE ANOTHER PEEP WAS A MOST INQUISITIVE CHICKEN POKING HER HEAD INTO EVERY NOOK AND CORNER AND NEVER SATISFIED TILL SHE HAD SEEN ALL THERE WAS TO SEE PECK WAS A GLUTTON",
  "words": [
    {
      "alignedWord": "being",
      "case": "success",
      "end": 0.42000000000000004,
      "endOffset": 5,
      "phones": [
        {
          "duration": 0.09,
          "phone": "b_B"
        },
        {
          "duration": 0.05,
          "phone": "iy_I"
        },
        {
          "duration": 0.06,
          "phone": "ih_I"
        },
        {
          "duration": 0.06,
          "phone": "ng_E"
        }
      ],
      "start": 0.16,
      "startOffset": 0,
      "word": "BEING"
    },
    {
      "alignedWord": "very",
      "case": "success",
      "end": 0.75,
      "endOffset": 10,
      "phones": [
        {
          "duration": 0.07,
          "phone": "v_B"
        },
        {
          "duration": 0.08,
          "phone": "eh_I"
        },
        {
          "duration": 0.1,
          "phone": "r_I"
        },
        {
          "duration": 0.08,
          "phone": "iy_E"
        }
      ],
      "start": 0.42,
      "startOffset": 6,
      "word": "VERY"
    },
    {
      "alignedWord": "fond",
      "case": "success",
      "end": 1.1400000000000001,
      "endOffset": 15,
      "phones": [
        {
          "duration": 0.13,
          "phone": "f_B"
        },
        {
          "duration": 0.15,
          "phone": "aa_I"
        },
        {
          "duration": 0.09,
          "phone": "n_I"
        },
        {
          "duration": 0.02,
          "phone": "d_E"
        }
      ],
      "start": 0.75,
      "startOffset": 11,
      "word": "FOND"
    },
    {
      "alignedWord": "of",
      "case": "success",
      "end": 1.2599999999999998,
      "endOffset": 18,
      "phones": [
        {
          "duration": 0.06,
          "phone": "ah_B"
        },
        {
          "duration": 0.06,
          "phone": "v_E"
        }
      ],
      "start": 1.14,
      "startOffset": 16,
      "word": "OF"
    },
    {
      "alignedWord": "one",
      "case": "success",
      "end": 1.46,
      "endOffset": 22,
      "phones": [
        {
          "duration": 0.07,
          "phone": "w_B"
        },
        {
          "duration": 0.07,
          "phone": "ah_I"
        },
        {
          "duration": 0.06,
          "phone": "n_E"
        }
      ],
      "start": 1.26,
      "startOffset": 19,
      "word": "ONE"
    },
    {
      "alignedWord": "another",
      "case": "success",
      "end": 1.97,
      "endOffset": 30,
      "phones": [
        {
          "duration": 0.05,
          "phone": "ah_B"
        },
        {
          "duration": 0.07,
          "phone": "n_I"
        },
        {
          "duration": 0.07,
          "phone": "ah_I"
        },
        {
          "duration": 0.09,
          "phone": "dh_I"
        },
        {
          "duration": 0.23,
          "phone": "er_E"
        }
      ],
      "start": 1.46,
      "startOffset": 23,
      "word": "ANOTHER"
    },
    {
      "alignedWord": "peep",
      "case": "success",
      "end": 3.06,
      "endOffset": 35,
      "phones": [
        {
          "duration": 0.08,
          "phone": "p_B"
        },
        {
          "duration": 0.1,
          "phone": "iy_I"
        },
        {
          "duration": 0.09,
          "phone": "p_E"
        }
      ],
      "start": 2.79,
      "startOffset": 31,
      "word": "PEEP"
    },
    {
      "alignedWord": "was",
      "case": "success",
      "end": 3.29,
      "endOffset": 39,
      "phones": [
        {
          "duration": 0.08,
          "phone": "w_B"
        },
        {
          "duration": 0.06,
          "phone": "ah_I"
        },
        {
          "duration": 0.08,
          "phone": "z_E"
        }
      ],
      "start": 3.07,
      "startOffset": 36,
      "word": "WAS"
    },
    {
      "alignedWord": "a",
      "case": "success",
      "end": 3.4,
      "endOffset": 41,
      "phones": [
        {
          "duration": 0.11,
          "phone": "ey_S"
        }
      ],
      "start": 3.29,
      "startOffset": 40,
      "word": "A"
    },
    {
      "alignedWord": "most",
      "case": "success",
      "end": 3.79,
      "endOffset": 46,
      "phones": [
        {
          "duration": 0.1,
          "phone": "m_B"
        },
        {
          "duration": 0.12,
          "phone": "ow_I"
        },
        {
          "duration": 0.09,
          "phone": "s_I"
        },
        {
          "duration": 0.07,
          "phone": "t_E"
        }
      ],
      "start": 3.41,
      "startOffset": 42,
      "word": "MOST"
    },
    {
      "alignedWord": "inquisitive",
      "case": "success",
      "end": 4.44,
      "endOffset": 58,
      "phones": [
        {
          "duration": 0.04,
          "phone": "ih_B"
        },
        {
          "duration": 0.09,
          "phone": "n_I"
        },
        {
          "duration": 0.06,
          "phone": "k_I"
        },
        {
          "duration": 0.04,
          "phone": "w_I"
        },
        {
          "duration": 0.07,
          "phone": "ih_I"
        },
        {
          "duration": 0.05,
          "phone": "z_I"
        },
        {
          "duration": 0.08,
          "phone": "ih_I"
        },
        {
          "duration": 0.05,
          "phone": "t_I"
        },
        {
          "duration": 0.08,
          "phone": "ih_I"
        },
        {
          "duration": 0.09,
          "phone": "v_E"
        }
      ],
      "start": 3.79,
      "startOffset": 47,
      "word": "INQUISITIVE"
    },
    {
      "alignedWord": "chicken",
      "case": "success",
      "end": 4.92,
      "endOffset": 66,
      "phones": [
        {
          "duration": 0.11,
          "phone": "ch_B"
        },
        {
          "duration": 0.1,
          "phone": "ih_I"
        },
        {
          "duration": 0.01,
          "phone": "k_I"
        },
        {
          "duration": 0.08,
          "phone": "ah_I"
        },
        {
          "duration": 0.18,
          "phone": "n_E"
        }
      ],
      "start": 4.44,
      "startOffset": 59,
      "word": "CHICKEN"
    },
    {
      "alignedWord": "poking",
      "case": "success",
      "end": 5.640000000000001,
      "endOffset": 73,
      "phones": [
        {
          "duration": 0.09,
          "phone": "p_B"
        },
        {
          "duration": 0.08,
          "phone": "ow_I"
        },
        {
          "duration": 0.08,
          "phone": "k_I"
        },
        {
          "duration": 0.07,
          "phone": "ih_I"
        },
        {
          "duration": 0.08,
          "phone": "ng_E"
        }
      ],
      "start": 5.24,
      "startOffset": 67,
      "word": "POKING"
    },
    {
      "alignedWord": "her",
      "case": "success",
      "end": 5.83,
      "endOffset": 77,
      "phones": [
        {
          "duration": 0.09,
          "phone": "hh_B"
        },
        {
          "duration": 0.09,
          "phone": "er_E"
        }
      ],
      "start": 5.65,
      "startOffset": 74,
      "word": "HER"
    },
    {
      "alignedWord": "head",
      "case": "success",
      "end": 6.17,
      "endOffset": 82,
      "phones": [
        {
          "duration": 0.11,
          "phone": "hh_B"
        },
        {
          "duration": 0.12,
          "phone": "eh_I"
        },
        {
          "duration": 0.11,
          "phone": "d_E"
        }
      ],
      "start": 5.83,
      "startOffset": 78,
      "word": "HEAD"
    },
    {
      "alignedWord": "into",
      "case": "success",
      "end": 6.590000000000001,
      "endOffset": 87,
      "phones": [
        {
          "duration": 0.13,
          "phone": "ih_B"
        },
        {
          "duration": 0.07,
          "phone": "n_I"
        },
        {
          "duration": 0.09,
          "phone": "t_I"
        },
        {
          "duration": 0.11,
          "phone": "uw_E"
        }
      ],
      "start": 6.19,
      "startOffset": 83,
      "word": "INTO"
    },
    {
      "alignedWord": "every",
      "case": "success",
      "end": 6.989999999999999,
      "endOffset": 93,
      "phones": [
        {
          "duration": 0.11,
          "phone": "eh_B"
        },
        {
          "duration": 0.09,
          "phone": "v_I"
        },
        {
          "duration": 0.06,
          "phone": "r_I"
        },
        {
          "duration": 0.09,
          "phone": "iy_E"
        }
      ],
      "start": 6.64,
      "startOffset": 88,
      "word": "EVERY"
    },
    {
      "alignedWord": "nook",
      "case": "success",
      "end": 7.3100000000000005,
      "endOffset": 98,
      "phones": [
        {
          "duration": 0.14,
          "phone": "n_B"
        },
        {
          "duration": 0.06,
          "phone": "uh_I"
        },
        {
          "duration": 0.12,
          "phone": "k_E"
        }
      ],
      "start": 6.99,
      "startOffset": 94,
      "word": "NOOK"
    },
    {
      "alignedWord": "and",
      "case": "success",
      "end": 7.55,
      "endOffset": 102,
      "phones": [
        {
          "duration": 0.06,
          "phone": "ae_B"
        },
        {
          "duration": 0.05,
          "phone": "n_I"
        },
        {
          "duration": 0.1,
          "phone": "d_E"
        }
      ],
      "start": 7.34,
      "startOffset": 99,
      "word": "AND"
    },
    {
      "alignedWord": "corner",
      "case": "success",
      "end": 8.02,
      "endOffset": 109,
      "phones": [
        {
          "duration": 0.08,
          "phone": "k_B"
        },
        {
          "duration": 0.08,
          "phone": "ao_I"
        },
        {
          "duration": 0.08,
          "phone": "r_I"
        },
        {
          "duration": 0.05,
          "phone": "n_I"
        },
        {
          "duration": 0.18,
          "phone": "er_E"
        }
      ],
      "start": 7.55,
      "startOffset": 103,
      "word": "CORNER"
    },
    {
      "alignedWord": "and",
      "case": "success",
      "end": 8.510000000000002,
      "endOffset": 113,
      "phones": [
        {
          "duration": 0.08,
          "phone": "ae_B"
        },
        {
          "duration": 0.06,
          "phone": "n_I"
        },
        {
          "duration": 0.07,
          "phone": "d_E"
        }
      ],
      "start": 8.3,
      "startOffset": 110,
      "word": "AND"
    },
    {
      "alignedWord": "never",
      "case": "success",
      "end": 8.799999999999999,
      "endOffset": 119,
      "phones": [
        {
          "duration": 0.04,
          "phone": "n_B"
        },
        {
          "duration": 0.09,
          "phone": "eh_I"
        },
        {
          "duration": 0.08,
          "phone": "v_I"
        },
        {
          "duration": 0.08,
          "phone": "er_E"
        }
      ],
      "start": 8.51,
      "startOffset": 114,
      "word": "NEVER"
    },
    {
      "alignedWord": "satisfied",
      "case": "success",
      "end": 9.600000000000001,
      "endOffset": 129,
      "phones": [
        {
          "duration": 0.12,
          "phone": "s_B"
        },
        {
          "duration": 0.1,
          "phone": "ae_I"
        },
        {
          "duration": 0.06,
          "phone": "t_I"
        },
        {
          "duration": 0.06,
          "phone": "ih_I"
        },
        {
          "duration": 0.07,
          "phone": "s_I"
        },
        {
          "duration": 0.11,
          "phone": "f_I"
        },
        {
          "duration": 0.16,
          "phone": "ay_I"
        },
        {
          "duration": 0.12,
          "phone": "d_E"
        }
      ],
      "start": 8.8,
      "startOffset": 120,
      "word": "SATISFIED"
    },
    {
      "alignedWord": "till",
      "case": "success",
      "end": 9.819999000000001,
      "endOffset": 134,
      "phones": [
        {
          "duration": 0.05,
          "phone": "t_B"
        },
        {
          "duration": 0.07,
          "phone": "ih_I"
        },
        {
          "duration": 0.1,
          "phone": "l_E"
        }
      ],
      "start": 9.599999,
      "startOffset": 130,
      "word": "TILL"
    },
    {
      "alignedWord": "she",
      "case": "success",
      "end": 10.030000000000001,
      "endOffset": 138,
      "phones": [
        {
          "duration": 0.13,
          "phone": "sh_B"
        },
        {
          "duration": 0.08,
          "phone": "iy_E"
        }
      ],
      "start": 9.82,
      "startOffset": 135,
      "word": "SHE"
    },
    {
      "alignedWord": "had",
      "case": "success",
      "end": 10.25,
      "endOffset": 142,
      "phones": [
        {
          "duration": 0.07,
          "phone": "hh_B"
        },
        {
          "duration": 0.06,
          "phone": "ae_I"
        },
        {
          "duration": 0.08,
          "phone": "d_E"
        }
      ],
      "start": 10.04,
      "startOffset": 139,
      "word": "HAD"
    },
    {
      "alignedWord": "seen",
      "case": "success",
      "end": 10.58,
      "endOffset": 147,
      "phones": [
        {
          "duration": 0.13,
          "phone": "s_B"
        },
        {
          "duration": 0.11,
          "phone": "iy_I"
        },
        {
          "duration": 0.09,
          "phone": "n_E"
        }
      ],
      "start": 10.25,
      "startOffset": 143,
      "word": "SEEN"
    },
    {
      "alignedWord": "all",
      "case": "success",
      "end": 10.879999999999999,
      "endOffset": 151,
      "phones": [
        {
          "duration": 0.17,
          "phone": "ao_B"
        },
        {
          "duration": 0.1,
          "phone": "l_E"
        }
      ],
      "start": 10.61,
      "startOffset": 148,
      "word": "ALL"
    },
    {
      "alignedWord": "there",
      "case": "success",
      "end": 11.020000000000001,
      "endOffset": 157,
      "phones": [
        {
          "duration": 0.06,
          "phone": "dh_B"
        },
        {
          "duration": 0.03,
          "phone": "eh_I"
        },
        {
          "duration": 0.05,
          "phone": "r_E"
        }
      ],
      "start": 10.88,
      "startOffset": 152,
      "word": "THERE"
    },
    {
      "alignedWord": "was",
      "case": "success",
      "end": 11.299999999999999,
      "endOffset": 161,
      "phones": [
        {
          "duration": 0.08,
          "phone": "w_B"
        },
        {
          "duration": 0.09,
          "phone": "aa_I"
        },
        {
          "duration": 0.11,
          "phone": "z_E"
        }
      ],
      "start": 11.02,
      "startOffset": 158,
      "word": "WAS"
    },
    {
      "alignedWord": "to",
      "case": "success",
      "end": 11.49,
      "endOffset": 164,
      "phones": [
        {
          "duration": 0.08,
          "phone": "t_B"
        },
        {
          "duration": 0.09,
          "phone": "ih_E"
        }
      ],
      "start": 11.32,
      "startOffset": 162,
      "word": "TO"
    },
    {
      "alignedWord": "see",
      "case": "success",
      "end": 12.06,
      "endOffset": 168,
      "phones": [
        {
          "duration": 0.16,
          "phone": "s_B"
        },
        {
          "duration": 0.41,
          "phone": "iy_E"
        }
      ],
      "start": 11.49,
      "startOffset": 165,
      "word": "SEE"
    },
    {
      "alignedWord": "peck",
      "case": "success",
      "end": 13.24,
      "endOffset": 173,
      "phones": [
        {
          "duration": 0.08,
          "phone": "p_B"
        },
        {
          "duration": 0.12,
          "phone": "eh_I"
        },
        {
          "duration": 0.13,
          "phone": "k_E"
        }
      ],
      "start": 12.91,
      "startOffset": 169,
      "word": "PECK"
    },
    {
      "alignedWord": "was",
      "case": "success",
      "end": 13.53,
      "endOffset": 177,
      "phones": [
        {
          "duration": 0.12,
          "phone": "w_B"
        },
        {
          "duration": 0.06,
          "phone": "ah_I"
        },
        {
          "duration": 0.08,
          "phone": "z_E"
        }
      ],
      "start": 13.27,
      "startOffset": 174,
      "word": "WAS"
    },
    {
      "alignedWord": "a",
      "case": "success",
      "end": 13.54,
      "endOffset": 179,
      "phones": [
        {
          "duration": 0.01,
          "phone": "ah_S"
        }
      ],
      "start": 13.53,
      "startOffset": 178,
      "word": "A"
    },
    {
      "alignedWord": "<unk>",
      "case": "success",
      "end": 13.82,
      "endOffset": 187,
      "phones": [
        {
          "duration": 0.19,
          "phone": "oov_S"
        }
      ],
      "start": 13.629999999999999,
      "startOffset": 180,
      "word": "GLUTTON"
    }
  ]
}