{
  "transcript": "AND WHO WERE ALLOWING THE INSURRECTION TO FRY IN ITS OWN FAT TO USE THE CELEBRATED EXPRESSION OF ONE OF THEM FOR HIS PART HE THOUGHT THE BARRICADE RIPE AND AS THAT WHICH IS RIPE OUGHT TO FALL HE MADE THE ATTEMPT",
  "words": [
    {
      "alignedWord": "and",
      "case": "success",
      "end": 0.4,
      "endOffset": 3,
      "phones": [
        {
          "duration": 0.09,
          "phone": "ae_B"
        },
        {
          "duration": 0.06,
          "phone": "n_I"
        },
        {
          "duration": 0.05,
          "phone": "d_E"
        }
      ],
      "start": 0.2,
      "startOffset": 0,
      "word": "AND"
    },
    {
      "alignedWord": "who",
      "case": "success",
      "end": 0.52,
      "endOffset": 7,
      "phones": [
        {
          "duration": 0.07,
          "phone": "hh_B"
        },
        {
          "duration": 0.05,
          "phone": "uw_E"
        }
      ],
      "start": 0.4,
      "startOffset": 4,
      "word": "WHO"
    },
    {
      "alignedWord": "were",
      "case": "success",
      "end": 0.6900000000000001,
      "endOffset": 12,
      "phones": [
        {
          "duration": 0.09,
          "phone": "w_B"
        },
        {
          "duration": 0.08,
          "phone": "er_E"
        }
      ],
      "start": 0.52,
      "startOffset": 8,
      "word": "WERE"
    },
    {
      "alignedWord": "allowing",
      "case": "success",
      "end": 1.16,
      "endOffset": 21,
      "phones": [
        {
          "duration": 0.06,
          "phone": "ah_B"
        },
        {
          "duration": 0.09,
          "phone": "l_I"
        },
        {
          "duration": 0.14,
          "phone": "aw_I"
        },
        {
          "duration": 0.07,
          "phone": "ih_I"
        },
        {
          "duration": 0.11,
          "phone": "ng_E"
        }
      ],
      "start": 0.69,
      "startOffset": 13,
      "word": "ALLOWING"
    },
    {
      "alignedWord": "the",
      "case": "success",
      "end": 1.46,
      "endOffset": 25,
      "phones": [
        {
          "duration": 0.13,
          "phone": "dh_B"
        },
        {
          "duration": 0.11,
          "phone": "iy_E"
        }
      ],
      "start": 1.22,
      "startOffset": 22,
      "word": "THE"
    },
    {
      "alignedWord": "insurrection",
      "case": "success",
      "end": 2.16,
      "endOffset": 38,
      "phones": [
        {
          "duration": 0.08,
          "phone": "ih_B"
        },
        {
          "duration": 0.11,
          "phone": "n_I"
        },
        {
          "duration": 0.1,
          "phone": "s_I"
        },
        {
          "duration": 0.08,
          "phone": "er_I"
        },
        {
          "duration": 0.07,
          "phone": "eh_I"
        },
        {
          "duration": 0.08,
          "phone": "k_I"
        },
        {
          "duration": 0.08,
          "phone": "sh_I"
        },
        {
          "duration": 0.06,
          "phone": "ah_I"
        },
        {
          "duration": 0.04,
          "phone": "n_E"
        }
      ],
      "start": 1.46,
      "startOffset": 26,
      "word": "INSURRECTION"
    },
    {
      "alignedWord": "to",
      "case": "success",
      "end": 2.2800000000000002,
      "endOffset": 41,
      "phones": [
        {
          "duration": 0.07,
          "phone": "t_B"
        },
        {
          "duration": 0.05,
          "phone": "ah_E"
        }
      ],
      "start": 2.16,
      "startOffset": 39,
      "word": "TO"
    },
    {
      "alignedWord": "fry",
      "case": "success",
      "end": 2.5799999999999996,
      "endOffset": 45,
      "phones": [
        {
          "duration": 0.07,
          "phone": "f_B"
        },
        {
          "duration": 0.09,
          "phone": "r_I"
        },
        {
          "duration": 0.14,
          "phone": "ay_E"
        }
      ],
      "start": 2.28,
      "startOffset": 42,
      "word": "FRY"
    },
    {
      "alignedWord": "in",
      "case": "success",
      "end": 2.6399999999999997,
      "endOffset": 48,
      "phones": [
        {
          "duration": 0.01,
          "phone": "ih_B"
        },
        {
          "duration": 0.04,
          "phone": "n_E"
        }
      ],
      "start": 2.59,
      "startOffset": 46,
      "word": "IN"
    },
    {
      "alignedWord": "its",
      "case": "success",
      "end": 2.81,
      "endOffset": 52,
      "phones": [
        {
          "duration": 0.06,
          "phone": "ih_B"
        },
        {
          "duration": 0.04,
          "phone": "t_I"
        },
        {
          "duration": 0.07,
          "phone": "s_E"
        }
      ],
      "start": 2.64,
      "startOffset": 49,
      "word": "ITS"
    },
    {
      "alignedWord": "own",
      "case": "success",
      "end": 3.02,
      "endOffset": 56,
      "phones": [
        {
          "duration": 0.11,
          "phone": "ow_B"
        },
        {
          "duration": 0.1,
          "phone": "n_E"
        }
      ],
      "start": 2.81,
      "startOffset": 53,
      "word": "OWN"
    },
    {
      "alignedWord": "fat",
      "case": "success",
      "end": 3.4699999999999998,
      "endOffset": 60,
      "phones": [
        {
          "duration": 0.15,
          "phone": "f_B"
        },
        {
          "duration": 0.15,
          "phone": "ae_I"
        },
        {
          "duration": 0.14,
          "phone": "t_E"
        }
      ],
      "start": 3.03,
      "startOffset": 57,
      "word": "FAT"
    },
    {
      "alignedWord": "to",
      "case": "success",
      "end": 3.94,
      "endOffset": 63,
      "phones": [
        {
          "duration": 0.07,
          "phone": "t_B"
        },
        {
          "duration": 0.08,
          "phone": "uw_E"
        }
      ],
      "start": 3.79,
      "startOffset": 61,
      "word": "TO"
    },
    {
      "alignedWord": "use",
      "case": "success",
      "end": 4.18,
      "endOffset": 67,
      "phones": [
        {
          "duration": 0.09,
          "phone": "y_B"
        },
        {
          "duration": 0.06,
          "phone": "uw_I"
        },
        {
          "duration": 0.09,
          "phone": "z_E"
        }
      ],
      "start": 3.94,
      "startOffset": 64,
      "word": "USE"
    },
    {
      "alignedWord": "the",
      "case": "success",
      "end": 4.279999999999999,
      "endOffset": 71,
      "phones": [
        {
          "duration": 0.04,
          "phone": "dh_B"
        },
        {
          "duration": 0.06,
          "phone": "ah_E"
        }
      ],
      "start": 4.18,
      "startOffset": 68,
      "word": "THE"
    },
    {
      "alignedWord": "celebrated",
      "case": "success",
      "end": 4.83,
      "endOffset": 82,
      "phones": [
        {
          "duration": 0.07,
          "phone": "s_B"
        },
        {
          "duration": 0.06,
          "phone": "eh_I"
        },
        {
          "duration": 0.08,
          "phone": "l_I"
        },
        {
          "duration": 0.05,
          "phone": "ah_I"
        },
        {
          "duration": 0.04,
          "phone": "b_I"
        },
        {
          "duration": 0.06,
          "phone": "r_I"
        },
        {
          "duration": 0.04,
          "phone": "ey_I"
        },
        {
          "duration": 0.05,
          "phone": "t_I"
        },
        {
          "duration": 0.06,
          "phone": "ah_I"
        },
        {
          "duration": 0.04,
          "phone": "d_E"
        }
      ],
      "start": 4.28,
      "startOffset": 72,
      "word": "CELEBRATED"
    },
    {
      "alignedWord": "expression",
      "case": "success",
      "end": 5.37,
      "endOffset": 93,
      "phones": [
        {
          "duration": 0.06,
          "phone": "ih_B"
        },
        {
          "duration": 0.08,
          "phone": "k_I"
        },
        {
          "duration": 0.06,
          "phone": "s_I"
        },
        {
          "duration": 0.06,
          "phone": "p_I"
        },
        {
          "duration": 0.04,
          "phone": "r_I"
        },
        {
          "duration": 0.05,
          "phone": "eh_I"
        },
        {
          "duration": 0.09,
          "phone": "sh_I"
        },
        {
          "duration": 0.05,
          "phone": "ah_I"
        },
        {
          "duration": 0.05,
          "phone": "n_E"
        }
      ],
      "start": 4.83,
      "startOffset": 83,
      "word": "EXPRESSION"
    },
    {
      "alignedWord": "of",
      "case": "success",
      "end": 5.49,
      "endOffset": 96,
      "phones": [
        {
          "duration": 0.06,
          "phone": "ah_B"
        },
        {
          "duration": 0.06,
          "phone": "v_E"
        }
      ],
      "start": 5.37,
      "startOffset": 94,
      "word": "OF"
    },
    {
      "alignedWord": "one",
      "case": "success",
      "end": 5.63,
      "endOffset": 100,
      "phones": [
        {
          "duration": 0.05,
          "phone": "w_B"
        },
        {
          "duration": 0.05,
          "phone": "ah_I"
        },
        {
          "duration": 0.04,
          "phone": "n_E"
        }
      ],
      "start": 5.49,
      "startOffset": 97,
      "word": "ONE"
    },
    {
      "alignedWord": "of",
      "case": "success",
      "end": 5.77,
      "endOffset": 103,
      "phones": [
        {
          "duration": 0.04,
          "phone": "ah_B"
        },
        {
          "duration": 0.1,
          "phone": "v_E"
        }
      ],
      "start": 5.63,
      "startOffset": 101,
      "word": "OF"
    },
    {
      "alignedWord": "them",
      "case": "success",
      "end": 5.949999999999999,
      "endOffset": 108,
      "phones": [
        {
          "duration": 0.01,
          "phone": "dh_B"
        },
        {
          "duration": 0.08,
          "phone": "ah_I"
        },
        {
          "duration": 0.09,
          "phone": "m_E"
        }
      ],
      "start": 5.77,
      "startOffset": 104,
      "word": "THEM"
    },
    {
      "alignedWord": "for",
      "case": "success",
      "end": 6.71,
      "endOffset": 112,
      "phones": [
        {
          "duration": 0.11,
          "phone": "f_B"
        },
        {
          "duration": 0.05,
          "phone": "er_E"
        }
      ],
      "start": 6.55,
      "startOffset": 109,
      "word": "FOR"
    },
    {
      "alignedWord": "his",
      "case": "success",
      "end": 6.94,
      "endOffset": 116,
      "phones": [
        {
          "duration": 0.09,
          "phone": "hh_B"
        },
        {
          "duration": 0.06,
          "phone": "ih_I"
        },
        {
          "duration": 0.08,
          "phone": "z_E"
        }
      ],
      "start": 6.71,
      "startOffset": 113,
      "word": "HIS"
    },
    {
      "alignedWord": "part",
      "case": "success",
      "end": 7.22,
      "endOffset": 121,
      "phones": [
        {
          "duration": 0.08,
          "phone": "p_B"
        },
        {
          "duration": 0.08,
          "phone": "aa_I"
        },
        {
          "duration": 0.05,
          "phone": "r_I"
        },
        {
          "duration": 0.05,
          "phone": "t_E"
        }
      ],
      "start": 6.96,
      "startOffset": 117,
      "word": "PART"
    },
    {
      "alignedWord": "he",
      "case": "success",
      "end": 7.420000000000001,
      "endOffset": 124,
      "phones": [
        {
          "duration": 0.12,
          "phone": "hh_B"
        },
        {
          "duration": 0.07,
          "phone": "iy_E"
        }
      ],
      "start": 7.23,
      "startOffset": 122,
      "word": "HE"
    },
    {
      "alignedWord": "thought",
      "case": "success",
      "end": 7.71,
      "endOffset": 132,
      "phones": [
        {
          "duration": 0.12,
          "phone": "th_B"
        },
        {
          "duration": 0.09,
          "phone": "ao_I"
        },
        {
          "duration": 0.08,
          "phone": "t_E"
        }
      ],
      "start": 7.42,
      "startOffset": 125,
      "word": "THOUGHT"
    },
    {
      "alignedWord": "the",
      "case": "success",
      "end": 7.81,
      "endOffset": 136,
      "phones": [
        {
          "duration": 0.05,
          "phone": "dh_B"
        },
        {
          "duration": 0.05,
          "phone": "ah_E"
        }
      ],
      "start": 7.71,
      "startOffset": 133,
      "word": "THE"
    },
    {
      "alignedWord": "barricade",
      "case": "success",
      "end": 8.34,
      "endOffset": 146,
      "phones": [
        {
          "duration": 0.06,
          "phone": "b_B"
        },
        {
          "duration": 0.06,
          "phone": "eh_I"
        },
        {
          "duration": 0.07,
          "phone": "r_I"
        },
        {
          "duration": 0.06,
          "phone": "ah_I"
        },
        {
          "duration": 0.11,
          "phone": "k_I"
        },
        {
          "duration": 0.08,
          "phone": "ey_I"
        },
        {
          "duration": 0.09,
          "phone": "d_E"
        }
      ],
      "start": 7.81,
      "startOffset": 137,
      "word": "BARRICADE"
    },
    {
      "alignedWord": "ripe",
      "case": "success",
      "end": 8.72,
      "endOffset": 151,
      "phones": [
        {
          "duration": 0.08,
          "phone": "r_B"
        },
        {
          "duration": 0.12,
          "phone": "ay_I"
        },
        {
          "duration": 0.18,
          "phone": "p_E"
        }
      ],
      "start": 8.34,
      "startOffset": 147,
      "word": "RIPE"
    },
    {
      "alignedWord": "and",
      "case": "success",
      "end": 9.36,
      "endOffset": 155,
      "phones": [
        {
          "duration": 0.13,
          "phone": "ae_B"
        },
        {
          "duration": 0.1,
          "phone": "n_I"
        },
        {
          "duration": 0.13,
          "phone": "d_E"
        }
      ],
      "start": 9.0,
      "startOffset": 152,
      "word": "AND"
    },
    {
      "alignedWord": "as",
      "case": "success",
      "end": 9.67,
      "endOffset": 158,
      "phones": [
        {
          "duration": 0.18,
          "phone": "ae_B"
        },
        {
          "duration": 0.08,
          "phone": "z_E"
        }
      ],
      "start": 9.41,
      "startOffset": 156,
      "word": "AS"
    },
    {
      "alignedWord": "that",
      "case": "success",
      "end": 9.899999000000001,
      "endOffset": 163,
      "phones": [
        {
          "duration": 0.06,
          "phone": "dh_B"
        },
        {
          "duration": 0.08,
          "phone": "ae_I"
        },
        {
          "duration": 0.08,
          "phone": "t_E"
        }
      ],
      "start": 9.679999,
      "startOffset": 159,
      "word": "THAT"
    },
    {
      "alignedWord": "which",
      "case": "success",
      "end": 10.07,
      "endOffset": 169,
      "phones": [
        {
          "duration": 0.04,
          "phone": "w_B"
        },
        {
          "duration": 0.06,
          "phone": "ih_I"
        },
        {
          "duration": 0.07,
          "phone": "ch_E"
        }
      ],
      "start": 9.9,
      "startOffset": 164,
      "word": "WHICH"
    },
    {
      "alignedWord": "is",
      "case": "success",
      "end": 10.25,
      "endOffset": 172,
      "phones": [
        {
          "duration": 0.06,
          "phone": "ih_B"
        },
        {
          "duration": 0.12,
          "phone": "z_E"
        }
      ],
      "start": 10.07,
      "startOffset": 170,
      "word": "IS"
    },
    {
      "alignedWord": "ripe",
      "case": "success",
      "end": 10.54,
      "endOffset": 177,
      "phones": [
        {
          "duration": 0.09,
          "phone": "r_B"
        },
        {
          "duration": 0.11,
          "phone": "ay_I"
        },
        {
          "duration": 0.09,
          "phone": "p_E"
        }
      ],
      "start": 10.25,
      "startOffset": 173,
      "word": "RIPE"
    },
    {
      "alignedWord": "ought",
      "case": "success",
      "end": 10.780000000000001,
      "endOffset": 183,
      "phones": [
        {
          "duration": 0.12,
          "phone": "ao_B"
        },
        {
          "duration": 0.09,
          "phone": "t_E"
        }
      ],
      "start": 10.57,
      "startOffset": 178,
      "word": "OUGHT"
    },
    {
      "alignedWord": "to",
      "case": "success",
      "end": 10.889999999999999,
      "endOffset": 186,
      "phones": [
        {
          "duration": 0.04,
          "phone": "t_B"
        },
        {
          "duration": 0.07,
          "phone": "ah_E"
        }
      ],
      "start": 10.78,
      "startOffset": 184,
      "word": "TO"
    },
    {
      "alignedWord": "fall",
      "case": "success",
      "end": 11.349999,
      "endOffset": 191,
      "phones": [
        {
          "duration": 0.1,
          "phone": "f_B"
        },
        {
          "duration": 0.15,
          "phone": "ao_I"
        },
        {
          "duration": 0.21,
          "phone": "l_E"
        }
      ],
      "start": 10.889999,
      "startOffset": 187,
      "word": "FALL"
    },
    {
      "alignedWord": "he",
      "case": "success",
      "end": 11.85,
      "endOffset": 194,
      "phones": [
        {
          "duration": 0.12,
          "phone": "hh_B"
        },
        {
          "duration": 0.08,
          "phone": "iy_E"
        }
      ],
      "start": 11.65,
      "startOffset": 192,
      "word": "HE"
    },
    {
      "alignedWord": "made",
      "case": "success",
      "end": 12.109999,
      "endOffset": 199,
      "phones": [
        {
          "duration": 0.08,
          "phone": "m_B"
        },
        {
          "duration": 0.09,
          "phone": "ey_I"
        },
        {
          "duration": 0.09,
          "phone": "d_E"
        }
      ],
      "start": 11.849999,
      "startOffset": 195,
      "word": "MADE"
    },
    {
      "alignedWord": "the",
      "case": "success",
      "end": 12.2,
      "endOffset": 203,
      "phones": [
        {
          "duration": 0.03,
          "phone": "dh_B"
        },
        {
          "duration": 0.06,
          "phone": "iy_E"
        }
      ],
      "start": 12.11,
      "startOffset": 200,
      "word": "THE"
    },
    {
      "alignedWord": "attempt",
      "case": "success",
      "end": 12.83,
      "endOffset": 211,
      "phones": [
        {
          "duration": 0.06,
          "phone": "ah_B"
        },
        {
          "duration": 0.08,
          "phone": "t_I"
        },
        {
          "duration": 0.14,
          "phone": "eh_I"
        },
        {
          "duration": 0.01,
          "phone": "m_I"
        },
        {
          "duration": 0.14,
          "phone": "p_I"
        },
        {
          "duration": 0.2,
          "phone": "t_E"
        }
      ],
      "start": 12.2,
      "startOffset": 204,
      "word": "ATTEMPT"
    }
  ]
}