{
  "transcript": "THIS IS THE BARGAIN I'LL MAKE WITH YOU KING O'TOOLE WILL YOU GI ME ALL THE GROUND THE GOOSE FLIES OVER THE FIRST OFFER AFTER I MAKE HER AS GOOD AS NEW I WILL SAYS THE KING YOU WON'T GO BACK O YOUR WORD SAYS SAINT KAVIN",
  "words": [
    {
      "alignedWord": "this",
      "case": "success",
      "end": 0.71,
      "endOffset": 4,
      "phones": [
        {
          "duration": 0.11,
          "phone": "dh_B"
        },
        {
          "duration": 0.09,
          "phone": "ih_I"
        },
        {
          "duration": 0.08,
          "phone": "s_E"
        }
      ],
      "start": 0.43,
      "startOffset": 0,
      "word": "THIS"
    },
    {
      "alignedWord": "is",
      "case": "success",
      "end": 0.8099999999999999,
      "endOffset": 7,
      "phones": [
        {
          "duration": 0.05,
          "phone": "ih_B"
        },
        {
          "duration": 0.05,
          "phone": "z_E"
        }
      ],
      "start": 0.71,
      "startOffset": 5,
      "word": "IS"
    },
    {
      "alignedWord": "the",
      "case": "success",
      "end": 0.8800000000000001,
      "endOffset": 11,
      "phones": [
        {
          "duration": 0.03,
          "phone": "dh_B"
        },
        {
          "duration": 0.04,
          "phone": "ah_E"
        }
      ],
      "start": 0.81,
      "startOffset": 8,
      "word": "THE"
    },
    {
      "alignedWord": "bargain",
      "case": "success",
      "end": 1.21,
      "endOffset": 19,
      "phones": [
        {
          "duration": 0.07,
          "phone": "b_B"
        },
        {
          "duration": 0.07,
          "phone": "aa_I"
        },
        {
          "duration": 0.03,
          "phone": "r_I"
        },
        {
          "duration": 0.07,
          "phone": "g_I"
        },
        {
          "duration": 0.05,
          "phone": "ah_I"
        },
        {
          "duration": 0.04,
          "phone": "n_E"
        }
      ],
      "start": 0.88,
      "startOffset": 12,
      "word": "BARGAIN"
    },
    {
      "alignedWord": "i'll",
      "case": "success",
      "end": 1.3,
      "endOffset": 24,
      "phones": [
        {
          "duration": 0.07,
          "phone": "ay_B"
        },
        {
          "duration": 0.02,
          "phone": "l_E"
        }
      ],
      "start": 1.21,
      "startOffset": 20,
      "word": "I'LL"
    },
    {
      "alignedWord": "make",
      "case": "success",
      "end": 1.55,
      "endOffset": 29,
      "phones": [
        {
          "duration": 0.08,
          "phone": "m_B"
        },
        {
          "duration": 0.12,
          "phone": "ey_I"
        },
        {
          "duration": 0.05,
          "phone": "k_E"
        }
      ],
      "start": 1.3,
      "startOffset": 25,
      "word": "MAKE"
    },
    {
      "alignedWord": "with",
      "case": "success",
      "end": 1.6800000000000002,
      "endOffset": 34,
      "phones": [
        {
          "duration": 0.05,
          "phone": "w_B"
        },
        {
          "duration": 0.02,
          "phone": "ih_I"
        },
        {
          "duration": 0.06,
          "phone": "th_E"
        }
      ],
      "start": 1.55,
      "startOffset": 30,
      "word": "WITH"
    },
    {
      "alignedWord": "you",
      "case": "success",
      "end": 1.78,
      "endOffset": 38,
      "phones": [
        {
          "duration": 0.04,
          "phone": "y_B"
        },
        {
          "duration": 0.06,
          "phone": "uw_E"
        }
      ],
      "start": 1.68,
      "startOffset": 35,
      "word": "YOU"
    },
    {
      "alignedWord": "king",
      "case": "success",
      "end": 1.99,
      "endOffset": 43,
      "phones": [
        {
          "duration": 0.06,
          "phone": "k_B"
        },
        {
          "duration": 0.08,
          "phone": "ih_I"
        },
        {
          "duration": 0.07,
          "phone": "ng_E"
        }
      ],
      "start": 1.78,
      "startOffset": 39,
      "word": "KING"
    },
    {
      "alignedWord": "<unk>",
      "case": "success",
      "end": 2.36,
      "endOffset": 51,
      "phones": [
        {
          "duration": 0.37,
          "phone": "oov_S"
        }
      ],
      "start": 1.99,
      "startOffset": 44,
      "word": "O'TOOLE"
    },
    {
      "alignedWord": "will",
      "case": "success",
      "end": 2.52,
      "endOffset": 56,
      "phones": [
        {
          "duration": 0.01,
          "phone": "w_B"
        },
        {
          "duration": 0.01,
          "phone": "ah_I"
        },
        {
          "duration": 0.14,
          "phone": "l_E"
        }
      ],
      "start": 2.36,
      "startOffset": 52,
      "word": "WILL"
    },
    {
      "alignedWord": "you",
      "case": "success",
      "end": 3.25,
      "endOffset": 60,
      "phones": [
        {
          "duration": 0.14,
          "phone": "y_B"
        },
        {
          "duration": 0.08,
          "phone": "uw_E"
        }
      ],
      "start": 3.03,
      "startOffset": 57,
      "word": "YOU"
    },
    {
      "alignedWord": "<unk>",
      "case": "success",
      "end": 3.35,
      "endOffset": 63,
      "phones": [
        {
          "duration": 0.1,
          "phone": "oov_S"
        }
      ],
      "start": 3.25,
      "startOffset": 61,
      "word": "GI"
    },
    {
      "alignedWord": "me",
      "case": "success",
      "end": 3.49,
      "endOffset": 66,
      "phones": [
        {
          "duration": 0.06,
          "phone": "m_B"
        },
        {
          "duration": 0.08,
          "phone": "iy_E"
        }
      ],
      "start": 3.35,
      "startOffset": 64,
      "word": "ME"
    },
    {
      "alignedWord": "all",
      "case": "success",
      "end": 3.75,
      "endOffset": 70,
      "phones": [
        {
          "duration": 0.17,
          "phone": "ao_B"
        },
        {
          "duration": 0.08,
          "phone": "l_E"
        }
      ],
      "start": 3.5,
      "startOffset": 67,
      "word": "ALL"
    },
    {
      "alignedWord": "the",
      "case": "success",
      "end": 3.8499999999999996,
      "endOffset": 74,
      "phones": [
        {
          "duration": 0.04,
          "phone": "dh_B"
        },
        {
          "duration": 0.05,
          "phone": "ah_E"
        }
      ],
      "start": 3.76,
      "startOffset": 71,
      "word": "THE"
    },
    {
      "alignedWord": "ground",
      "case": "success",
      "end": 4.19,
      "endOffset": 81,
      "phones": [
        {
          "duration": 0.04,
          "phone": "g_B"
        },
        {
          "duration": 0.09,
          "phone": "r_I"
        },
        {
          "duration": 0.13,
          "phone": "aw_I"
        },
        {
          "duration": 0.05,
          "phone": "n_I"
        },
        {
          "duration": 0.03,
          "phone": "d_E"
        }
      ],
      "start": 3.85,
      "startOffset": 75,
      "word": "GROUND"
    },
    {
      "alignedWord": "the",
      "case": "success",
      "end": 4.29,
      "endOffset": 85,
      "phones": [
        {
          "duration": 0.04,
          "phone": "dh_B"
        },
        {
          "duration": 0.02,
          "phone": "ah_E"
        }
      ],
      "start": 4.23,
      "startOffset": 82,
      "word": "THE"
    },
    {
      "alignedWord": "goose",
      "case": "success",
      "end": 4.5600000000000005,
      "endOffset": 91,
      "phones": [
        {
          "duration": 0.1,
          "phone": "g_B"
        },
        {
          "duration": 0.09,
          "phone": "uw_I"
        },
        {
          "duration": 0.08,
          "phone": "s_E"
        }
      ],
      "start": 4.29,
      "startOffset": 86,
      "word": "GOOSE"
    },
    {
      "alignedWord": "flies",
      "case": "success",
      "end": 4.88,
      "endOffset": 97,
      "phones": [
        {
          "duration": 0.07,
          "phone": "f_B"
        },
        {
          "duration": 0.08,
          "phone": "l_I"
        },
        {
          "duration": 0.07,
          "phone": "ay_I"
        },
        {
          "duration": 0.1,
          "phone": "z_E"
        }
      ],
      "start": 4.56,
      "startOffset": 92,
      "word": "FLIES"
    },
    {
      "alignedWord": "over",
      "case": "success",
      "end": 5.17,
      "endOffset": 102,
      "phones": [
        {
          "duration": 0.07,
          "phone": "ow_B"
        },
        {
          "duration": 0.13,
          "phone": "v_I"
        },
        {
          "duration": 0.09,
          "phone": "er_E"
        }
      ],
      "start": 4.88,
      "startOffset": 98,
      "word": "OVER"
    },
    {
      "alignedWord": "the",
      "case": "success",
      "end": 5.35,
      "endOffset": 106,
      "phones": [
        {
          "duration": 0.06,
          "phone": "dh_B"
        },
        {
          "duration": 0.12,
          "phone": "ah_E"
        }
      ],
      "start": 5.17,
      "startOffset": 103,
      "word": "THE"
    },
    {
      "alignedWord": "first",
      "case": "success",
      "end": 5.71,
      "endOffset": 112,
      "phones": [
        {
          "duration": 0.11,
          "phone": "f_B"
        },
        {
          "duration": 0.13,
          "phone": "er_I"
        },
        {
          "duration": 0.06,
          "phone": "s_I"
        },
        {
          "duration": 0.05,
          "phone": "t_E"
        }
      ],
      "start": 5.36,
      "startOffset": 107,
      "word": "FIRST"
    },
    {
      "alignedWord": "offer",
      "case": "success",
      "end": 6.18,
      "endOffset": 118,
      "phones": [
        {
          "duration": 0.16,
          "phone": "ao_B"
        },
        {
          "duration": 0.11,
          "phone": "f_I"
        },
        {
          "duration": 0.19,
          "phone": "er_E"
        }
      ],
      "start": 5.72,
      "startOffset": 113,
      "word": "OFFER"
    },
    {
      "alignedWord": "after",
      "case": "success",
      "end": 6.78,
      "endOffset": 124,
      "phones": [
        {
          "duration": 0.11,
          "phone": "ae_B"
        },
        {
          "duration": 0.08,
          "phone": "f_I"
        },
        {
          "duration": 0.07,
          "phone": "t_I"
        },
        {
          "duration": 0.1,
          "phone": "er_E"
        }
      ],
      "start": 6.42,
      "startOffset": 119,
      "word": "AFTER"
    },
    {
      "alignedWord": "i",
      "case": "success",
      "end": 6.86,
      "endOffset": 126,
      "phones": [
        {
          "duration": 0.08,
          "phone": "ay_S"
        }
      ],
      "start": 6.78,
      "startOffset": 125,
      "word": "I"
    },
    {
      "alignedWord": "make",
      "case": "success",
      "end": 7.1000000000000005,
      "endOffset": 131,
      "phones": [
        {
          "duration": 0.08,
          "phone": "m_B"
        },
        {
          "duration": 0.1,
          "phone": "ey_I"
        },
        {
          "duration": 0.06,
          "phone": "k_E"
        }
      ],
      "start": 6.86,
      "startOffset": 127,
      "word": "MAKE"
    },
    {
      "alignedWord": "her",
      "case": "success",
      "end": 7.2299999999999995,
      "endOffset": 135,
      "phones": [
        {
          "duration": 0.08,
          "phone": "hh_B"
        },
        {
          "duration": 0.05,
          "phone": "er_E"
        }
      ],
      "start": 7.1,
      "startOffset": 132,
      "word": "HER"
    },
    {
      "alignedWord": "as",
      "case": "success",
      "end": 7.36,
      "endOffset": 138,
      "phones": [
        {
          "duration": 0.05,
          "phone": "eh_B"
        },
        {
          "duration": 0.08,
          "phone": "z_E"
        }
      ],
      "start": 7.23,
      "startOffset": 136,
      "word": "AS"
    },
    {
      "alignedWord": "good",
      "case": "success",
      "end": 7.510000000000001,
      "endOffset": 143,
      "phones": [
        {
          "duration": 0.04,
          "phone": "g_B"
        },
        {
          "duration": 0.07,
          "phone": "uh_I"
        },
        {
          "duration": 0.04,
          "phone": "d_E"
        }
      ],
      "start": 7.36,
      "startOffset": 139,
      "word": "GOOD"
    },
    {
      "alignedWord": "as",
      "case": "success",
      "end": 7.609999999999999,
      "endOffset": 146,
      "phones": [
        {
          "duration": 0.05,
          "phone": "eh_B"
        },
        {
          "duration": 0.05,
          "phone": "z_E"
        }
      ],
      "start": 7.51,
      "startOffset": 144,
      "word": "AS"
    },
    {
      "alignedWord": "new",
      "case": "success",
      "end": 7.94,
      "endOffset": 150,
      "phones": [
        {
          "duration": 0.03,
          "phone": "n_B"
        },
        {
          "duration": 0.07,
          "phone": "y_I"
        },
        {
          "duration": 0.23,
          "phone": "uw_E"
        }
      ],
      "start": 7.61,
      "startOffset": 147,
      "word": "NEW"
    },
    {
      "alignedWord": "i",
      "case": "success",
      "end": 8.52,
      "endOffset": 152,
      "phones": [
        {
          "duration": 0.11,
          "phone": "ay_S"
        }
      ],
      "start": 8.41,
      "startOffset": 151,
      "word": "I"
    },
    {
      "alignedWord": "will",
      "case": "success",
      "end": 8.94,
      "endOffset": 157,
      "phones": [
        {
          "duration": 0.08,
          "phone": "w_B"
        },
        {
          "duration": 0.19,
          "phone": "ih_I"
        },
        {
          "duration": 0.15,
          "phone": "l_E"
        }
      ],
      "start": 8.52,
      "startOffset": 153,
      "word": "WILL"
    },
    {
      "alignedWord": "says",
      "case": "success",
      "end": 9.270000000000001,
      "endOffset": 162,
      "phones": [
        {
          "duration": 0.09,
          "phone": "s_B"
        },
        {
          "duration": 0.08,
          "phone": "eh_I"
        },
        {
          "duration": 0.05,
          "phone": "z_E"
        }
      ],
      "start": 9.05,
      "startOffset": 158,
      "word": "SAYS"
    },
    {
      "alignedWord": "the",
      "case": "success",
      "end": 9.36,
      "endOffset": 166,
      "phones": [
        {
          "duration": 0.05,
          "phone": "dh_B"
        },
        {
          "duration": 0.04,
          "phone": "ah_E"
        }
      ],
      "start": 9.27,
      "startOffset": 163,
      "word": "THE"
    },
    {
      "alignedWord": "king",
      "case": "success",
      "end": 9.75,
      "endOffset": 171,
      "phones": [
        {
          "duration": 0.08,
          "phone": "k_B"
        },
        {
          "duration": 0.1,
          "phone": "ih_I"
        },
        {
          "duration": 0.21,
          "phone": "ng_E"
        }
      ],
      "start": 9.36,
      "startOffset": 167,
      "word": "KING"
    },
    {
      "alignedWord": "you",
      "case": "success",
      "end": 10.4,
      "endOffset": 175,
      "phones": [
        {
          "duration": 0.07,
          "phone": "y_B"
        },
        {
          "duration": 0.07,
          "phone": "uw_E"
        }
      ],
      "start": 10.26,
      "startOffset": 172,
      "word": "YOU"
    },
    {
      "alignedWord": "won't",
      "case": "success",
      "end": 10.59,
      "endOffset": 181,
      "phones": [
        {
          "duration": 0.05,
          "phone": "w_B"
        },
        {
          "duration": 0.07,
          "phone": "ow_I"
        },
        {
          "duration": 0.04,
          "phone": "n_I"
        },
        {
          "duration": 0.03,
          "phone": "t_E"
        }
      ],
      "start": 10.4,
      "startOffset": 176,
      "word": "WON'T"
    },
    {
      "alignedWord": "go",
      "case": "success",
      "end": 10.72,
      "endOffset": 184,
      "phones": [
        {
          "duration": 0.08,
          "phone": "g_B"
        },
        {
          "duration": 0.05,
          "phone": "ow_E"
        }
      ],
      "start": 10.59,
      "startOffset": 182,
      "word": "GO"
    },
    {
      "alignedWord": "back",
      "case": "success",
      "end": 10.999998999999999,
      "endOffset": 189,
      "phones": [
        {
          "duration": 0.06,
          "phone": "b_B"
        },
        {
          "duration": 0.11,
          "phone": "ae_I"
        },
        {
          "duration": 0.11,
          "phone": "k_E"
        }
      ],
      "start": 10.719999,
      "startOffset": 185,
      "word": "BACK"
    },
    {
      "alignedWord": "o",
      "case": "success",
      "end": 11.01,
      "endOffset": 191,
      "phones": [
        {
          "duration": 0.01,
          "phone": "ow_S"
        }
      ],
      "start": 11.0,
      "startOffset": 190,
      "word": "O"
    },
    {
      "alignedWord": "your",
      "case": "success",
      "end": 11.19,
      "endOffset": 196,
      "phones": [
        {
          "duration": 0.08,
          "phone": "y_B"
        },
        {
          "duration": 0.04,
          "phone": "uh_I"
        },
        {
          "duration": 0.05,
          "phone": "r_E"
        }
      ],
      "start": 11.02,
      "startOffset": 192,
      "word": "YOUR"
    },
    {
      "alignedWord": "word",
      "case": "success",
      "end": 11.67,
      "endOffset": 201,
      "phones": [
        {
          "duration": 0.13,
          "phone": "w_B"
        },
        {
          "duration": 0.18,
          "phone": "er_I"
        },
        {
          "duration": 0.17,
          "phone": "d_E"
        }
      ],
      "start": 11.19,
      "startOffset": 197,
      "word": "WORD"
    },
    {
      "alignedWord": "says",
      "case": "success",
      "end": 12.46,
      "endOffset": 206,
      "phones": [
        {
          "duration": 0.09,
          "phone": "s_B"
        },
        {
          "duration": 0.09,
          "phone": "eh_I"
        },
        {
          "duration": 0.04,
          "phone": "z_E"
        }
      ],
      "start": 12.24,
      "startOffset": 202,
      "word": "SAYS"
    },
    {
      "alignedWord": "saint",
      "case": "success",
      "end": 12.71,
      "endOffset": 212,
      "phones": [
        {
          "duration": 0.09,
          "phone": "s_B"
        },
        {
          "duration": 0.06,
          "phone": "ey_I"
        },
        {
          "duration": 0.08,
          "phone": "n_I"
        },
        {
          "duration": 0.02,
          "phone": "t_E"
        }
      ],
      "start": 12.46,
      "startOffset": 207,
      "word": "SAINT"
    },
    {
      "alignedWord": "<unk>",
      "case": "success",
      "end": 13.110000000000001,
      "endOffset": 218,
      "phones": [
        {
          "duration": 0.4,
          "phone": "oov_S"
        }
      ],
      "start": 12.71,
      "startOffset": 213,
      "word": "KAVIN"
    }
  ]
}