{
  "transcript": "THE WIND WHICH HAD FALLEN IN THE SOUTH NOW ROSE WITH GREAT VIOLENCE IN THE WEST THE MOON HAD REACHED HER SUMMIT IN THE HEAVENS AND WAS BEGINNING TO DESCEND",
  "words": [
    {
      "alignedWord": "the",
      "case": "success",
      "end": 0.67,
      "endOffset": 3,
      "phones": [
        {
          "duration": 0.08,
          "phone": "dh_B"
        },
        {
          "duration": 0.07,
          "phone": "ah_E"
        }
      ],
      "start": 0.52,
      "startOffset": 0,
      "word": "THE"
    },
    {
      "alignedWord": "wind",
      "case": "success",
      "end": 1.28,
      "endOffset": 8,
      "phones": [
        {
          "duration": 0.12,
          "phone": "w_B"
        },
        {
          "duration": 0.14,
          "phone": "ih_I"
        },
        {
          "duration": 0.18,
          "phone": "n_I"
        },
        {
          "duration": 0.17,
          "phone": "d_E"
        }
      ],
      "start": 0.67,
      "startOffset": 4,
      "word": "WIND"
    },
    {
      "alignedWord": "which",
      "case": "success",
      "end": 1.52,
      "endOffset": 14,
      "phones": [
        {
          "duration": 0.07,
          "phone": "w_B"
        },
        {
          "duration": 0.05,
          "phone": "ih_I"
        },
        {
          "duration": 0.06,
          "phone": "ch_E"
        }
      ],
      "start": 1.34,
      "startOffset": 9,
      "word": "WHICH"
    },
    {
      "alignedWord": "had",
      "case": "success",
      "end": 1.6600000000000001,
      "endOffset": 18,
      "phones": [
        {
          "duration": 0.03,
          "phone": "hh_B"
        },
        {
          "duration": 0.02,
          "phone": "ae_I"
        },
        {
          "duration": 0.09,
          "phone": "d_E"
        }
      ],
      "start": 1.52,
      "startOffset": 15,
      "word": "HAD"
    },
    {
      "alignedWord": "fallen",
      "case": "success",
      "end": 1.99,
      "endOffset": 25,
      "phones": [
        {
          "duration": 0.08,
          "phone": "f_B"
        },
        {
          "duration": 0.07,
          "phone": "aa_I"
        },
        {
          "duration": 0.08,
          "phone": "l_I"
        },
        {
          "duration": 0.06,
          "phone": "ah_I"
        },
        {
          "duration": 0.04,
          "phone": "n_E"
        }
      ],
      "start": 1.66,
      "startOffset": 19,
      "word": "FALLEN"
    },
    {
      "alignedWord": "in",
      "case": "success",
      "end": 2.09,
      "endOffset": 28,
      "phones": [
        {
          "duration": 0.04,
          "phone": "ih_B"
        },
        {
          "duration": 0.06,
          "phone": "n_E"
        }
      ],
      "start": 1.99,
      "startOffset": 26,
      "word": "IN"
    },
    {
      "alignedWord": "the",
      "case": "success",
      "end": 2.2199999999999998,
      "endOffset": 32,
      "phones": [
        {
          "duration": 0.06,
          "phone": "dh_B"
        },
        {
          "duration": 0.07,
          "phone": "ah_E"
        }
      ],
      "start": 2.09,
      "startOffset": 29,
      "word": "THE"
    },
    {
      "alignedWord": "south",
      "case": "success",
      "end": 2.8400000000000003,
      "endOffset": 38,
      "phones": [
        {
          "duration": 0.14,
          "phone": "s_B"
        },
        {
          "duration": 0.22,
          "phone": "aw_I"
        },
        {
          "duration": 0.26,
          "phone": "th_E"
        }
      ],
      "start": 2.22,
      "startOffset": 33,
      "word": "SOUTH"
    },
    {
      "alignedWord": "now",
      "case": "success",
      "end": 3.69,
      "endOffset": 42,
      "phones": [
        {
          "duration": 0.12,
          "phone": "n_B"
        },
        {
          "duration": 0.15,
          "phone": "aw_E"
        }
      ],
      "start": 3.42,
      "startOffset": 39,
      "word": "NOW"
    },
    {
      "alignedWord": "rose",
      "case": "success",
      "end": 4.08,
      "endOffset": 47,
      "phones": [
        {
          "duration": 0.12,
          "phone": "r_B"
        },
        {
          "duration": 0.16,
          "phone": "ow_I"
        },
        {
          "duration": 0.11,
          "phone": "z_E"
        }
      ],
      "start": 3.69,
      "startOffset": 43,
      "word": "ROSE"
    },
    {
      "alignedWord": "with",
      "case": "success",
      "end": 4.29,
      "endOffset": 52,
      "phones": [
        {
          "duration": 0.08,
          "phone": "w_B"
        },
        {
          "duration": 0.03,
          "phone": "ih_I"
        },
        {
          "duration": 0.09,
          "phone": "th_E"
        }
      ],
      "start": 4.09,
      "startOffset": 48,
      "word": "WITH"
    },
    {
      "alignedWord": "great",
      "case": "success",
      "end": 4.63,
      "endOffset": 58,
      "phones": [
        {
          "duration": 0.04,
          "phone": "g_B"
        },
        {
          "duration": 0.09,
          "phone": "r_I"
        },
        {
          "duration": 0.06,
          "phone": "ey_I"
        },
        {
          "duration": 0.09,
          "phone": "t_E"
        }
      ],
      "start": 4.35,
      "startOffset": 53,
      "word": "GREAT"
    },
    {
      "alignedWord": "violence",
      "case": "success",
      "end": 5.25,
      "endOffset": 67,
      "phones": [
        {
          "duration": 0.17,
          "phone": "v_B"
        },
        {
          "duration": 0.07,
          "phone": "ay_I"
        },
        {
          "duration": 0.07,
          "phone": "ah_I"
        },
        {
          "duration": 0.05,
          "phone": "l_I"
        },
        {
          "duration": 0.07,
          "phone": "ah_I"
        },
        {
          "duration": 0.08,
          "phone": "n_I"
        },
        {
          "duration": 0.09,
          "phone": "s_E"
        }
      ],
      "start": 4.65,
      "startOffset": 59,
      "word": "VIOLENCE"
    },
    {
      "alignedWord": "in",
      "case": "success",
      "end": 5.359999999999999,
      "endOffset": 70,
      "phones": [
        {
          "duration": 0.06,
          "phone": "ih_B"
        },
        {
          "duration": 0.04,
          "phone": "n_E"
        }
      ],
      "start": 5.26,
      "startOffset": 68,
      "word": "IN"
    },
    {
      "alignedWord": "the",
      "case": "success",
      "end": 5.470000000000001,
      "endOffset": 74,
      "phones": [
        {
          "duration": 0.05,
          "phone": "dh_B"
        },
        {
          "duration": 0.06,
          "phone": "ah_E"
        }
      ],
      "start": 5.36,
      "startOffset": 71,
      "word": "THE"
    },
    {
      "alignedWord": "west",
      "case": "success",
      "end": 6.029999999999999,
      "endOffset": 79,
      "phones": [
        {
          "duration": 0.06,
          "phone": "w_B"
        },
        {
          "duration": 0.13,
          "phone": "eh_I"
        },
        {
          "duration": 0.19,
          "phone": "s_I"
        },
        {
          "duration": 0.18,
          "phone": "t_E"
        }
      ],
      "start": 5.47,
      "startOffset": 75,
      "word": "WEST"
    },
    {
      "alignedWord": "the",
      "case": "success",
      "end": 6.86,
      "endOffset": 83,
      "phones": [
        {
          "duration": 0.07,
          "phone": "dh_B"
        },
        {
          "duration": 0.06,
          "phone": "ah_E"
        }
      ],
      "start": 6.73,
      "startOffset": 80,
      "word": "THE"
    },
    {
      "alignedWord": "moon",
      "case": "success",
      "end": 7.2,
      "endOffset": 88,
      "phones": [
        {
          "duration": 0.1,
          "phone": "m_B"
        },
        {
          "duration": 0.16,
          "phone": "uw_I"
        },
        {
          "duration": 0.08,
          "phone": "n_E"
        }
      ],
      "start": 6.86,
      "startOffset": 84,
      "word": "MOON"
    },
    {
      "alignedWord": "had",
      "case": "success",
      "end": 7.37,
      "endOffset": 92,
      "phones": [
        {
          "duration": 0.06,
          "phone": "hh_B"
        },
        {
          "duration": 0.02,
          "phone": "ae_I"
        },
        {
          "duration": 0.08,
          "phone": "d_E"
        }
      ],
      "start": 7.21,
      "startOffset": 89,
      "word": "HAD"
    },
    {
      "alignedWord": "reached",
      "case": "success",
      "end": 7.69,
      "endOffset": 100,
      "phones": [
        {
          "duration": 0.08,
          "phone": "r_B"
        },
        {
          "duration": 0.09,
          "phone": "iy_I"
        },
        {
          "duration": 0.11,
          "phone": "ch_I"
        },
        {
          "duration": 0.04,
          "phone": "t_E"
        }
      ],
      "start": 7.37,
      "startOffset": 93,
      "word": "REACHED"
    },
    {
      "alignedWord": "her",
      "case": "success",
      "end": 7.83,
      "endOffset": 104,
      "phones": [
        {
          "duration": 0.07,
          "phone": "hh_B"
        },
        {
          "duration": 0.07,
          "phone": "er_E"
        }
      ],
      "start": 7.69,
      "startOffset": 101,
      "word": "HER"
    },
    {
      "alignedWord": "summit",
      "case": "success",
      "end": 8.26,
      "endOffset": 111,
      "phones": [
        {
          "duration": 0.15,
          "phone": "s_B"
        },
        {
          "duration": 0.06,
          "phone": "ah_I"
        },
        {
          "duration": 0.08,
          "phone": "m_I"
        },
        {
          "duration": 0.07,
          "phone": "ah_I"
        },
        {
          "duration": 0.06,
          "phone": "t_E"
        }
      ],
      "start": 7.84,
      "startOffset": 105,
      "word": "SUMMIT"
    },
    {
      "alignedWord": "in",
      "case": "success",
      "end": 8.63,
      "endOffset": 114,
      "phones": [
        {
          "duration": 0.08,
          "phone": "ih_B"
        },
        {
          "duration": 0.05,
          "phone": "n_E"
        }
      ],
      "start": 8.5,
      "startOffset": 112,
      "word": "IN"
    },
    {
      "alignedWord": "the",
      "case": "success",
      "end": 8.75,
      "endOffset": 118,
      "phones": [
        {
          "duration": 0.05,
          "phone": "dh_B"
        },
        {
          "duration": 0.07,
          "phone": "iy_E"
        }
      ],
      "start": 8.63,
      "startOffset": 115,
      "word": "THE"
    },
    {
      "alignedWord": "heavens",
      "case": "success",
      "end": 9.35,
      "endOffset": 126,
      "phones": [
        {
          "duration": 0.08,
          "phone": "hh_B"
        },
        {
          "duration": 0.08,
          "phone": "eh_I"
        },
        {
          "duration": 0.04,
          "phone": "v_I"
        },
        {
          "duration": 0.07,
          "phone": "ah_I"
        },
        {
          "duration": 0.12,
          "phone": "n_I"
        },
        {
          "duration": 0.2,
          "phone": "z_E"
        }
      ],
      "start": 8.76,
      "startOffset": 119,
      "word": "HEAVENS"
    },
    {
      "alignedWord": "and",
      "case": "success",
      "end": 9.55,
      "endOffset": 130,
      "phones": [
        {
          "duration": 0.03,
          "phone": "ah_B"
        },
        {
          "duration": 0.02,
          "phone": "n_I"
        },
        {
          "duration": 0.08,
          "phone": "d_E"
        }
      ],
      "start": 9.42,
      "startOffset": 127,
      "word": "AND"
    },
    {
      "alignedWord": "was",
      "case": "success",
      "end": 9.72,
      "endOffset": 134,
      "phones": [
        {
          "duration": 0.03,
          "phone": "w_B"
        },
        {
          "duration": 0.05,
          "phone": "ah_I"
        },
        {
          "duration": 0.09,
          "phone": "z_E"
        }
      ],
      "start": 9.55,
      "startOffset": 131,
      "word": "WAS"
    },
    {
      "alignedWord": "beginning",
      "case": "success",
      "end": 10.119999,
      "endOffset": 144,
      "phones": [
        {
          "duration": 0.04,
          "phone": "b_B"
        },
        {
          "duration": 0.07,
          "phone": "ih_I"
        },
        {
          "duration": 0.06,
          "phone": "g_I"
        },
        {
          "duration": 0.05,
          "phone": "ih_I"
        },
        {
          "duration": 0.02,
          "phone": "n_I"
        },
        {
          "duration": 0.07,
          "phone": "ih_I"
        },
        {
          "duration": 0.09,
          "phone": "ng_E"
        }
      ],
      "start": 9.719999,
      "startOffset": 135,
      "word": "BEGINNING"
    },
    {
      "alignedWord": "to",
      "case": "success",
      "end": 10.229999999999999,
      "endOffset": 147,
      "phones": [
        {
          "duration": 0.04,
          "phone": "t_B"
        },
        {
          "duration": 0.07,
          "phone": "ih_E"
        }
      ],
      "start": 10.12,
      "startOffset": 145,
      "word": "TO"
    },
    {
      "alignedWord": "<unk>",
      "case": "success",
      "end": 10.620000000000001,
      "endOffset": 155,
      "phones": [
        {
          "duration": 0.38,
          "phone": "oov_S"
        }
      ],
      "start": 10.24,
      "startOffset": 148,
      "word": "DESCEND"
    }
  ]
}