{
  "transcript": "HAD FLED FROM HIS FATHER'S HOUSE AND HAD TAKEN THE VOWS IN THE CLOISTER OF DOMINICAN MONKS AT FLORENCE THERE WHERE HE WAS APPOINTED BY HIS SUPERIORS TO GIVE LESSONS IN PHILOSOPHY THE YOUNG NOVICE HAD FROM THE FIRST TO BATTLE AGAINST THE DEFECTS OF A VOICE THAT WAS BOTH HARSH AND WEAK",
  "words": [
    {
      "alignedWord": "had",
      "case": "success",
      "end": 0.4,
      "endOffset": 3,
      "phones": [
        {
          "duration": 0.09,
          "phone": "hh_B"
        },
        {
          "duration": 0.05,
          "phone": "ae_I"
        },
        {
          "duration": 0.08,
          "phone": "d_E"
        }
      ],
      "start": 0.18,
      "startOffset": 0,
      "word": "HAD"
    },
    {
      "alignedWord": "fled",
      "case": "success",
      "end": 0.66,
      "endOffset": 8,
      "phones": [
        {
          "duration": 0.08,
          "phone": "f_B"
        },
        {
          "duration": 0.04,
          "phone": "l_I"
        },
        {
          "duration": 0.07,
          "phone": "eh_I"
        },
        {
          "duration": 0.07,
          "phone": "d_E"
        }
      ],
      "start": 0.4,
      "startOffset": 4,
      "word": "FLED"
    },
    {
      "alignedWord": "from",
      "case": "success",
      "end": 0.8400000000000001,
      "endOffset": 13,
      "phones": [
        {
          "duration": 0.05,
          "phone": "f_B"
        },
        {
          "duration": 0.06,
          "phone": "er_I"
        },
        {
          "duration": 0.07,
          "phone": "m_E"
        }
      ],
      "start": 0.66,
      "startOffset": 9,
      "word": "FROM"
    },
    {
      "alignedWord": "his",
      "case": "success",
      "end": 0.96,
      "endOffset": 17,
      "phones": [
        {
          "duration": 0.03,
          "phone": "hh_B"
        },
        {
          "duration": 0.02,
          "phone": "ih_I"
        },
        {
          "duration": 0.07,
          "phone": "z_E"
        }
      ],
      "start": 0.84,
      "startOffset": 14,
      "word": "HIS"
    },
    {
      "alignedWord": "father's",
      "case": "success",
      "end": 1.35,
      "endOffset": 26,
      "phones": [
        {
          "duration": 0.07,
          "phone": "f_B"
        },
        {
          "duration": 0.11,
          "phone": "aa_I"
        },
        {
          "duration": 0.08,
          "phone": "dh_I"
        },
        {
          "duration": 0.05,
          "phone": "er_I"
        },
        {
          "duration": 0.07,
          "phone": "z_E"
        }
      ],
      "start": 0.97,
      "startOffset": 18,
      "word": "FATHER'S"
    },
    {
      "alignedWord": "house",
      "case": "success",
      "end": 1.77,
      "endOffset": 32,
      "phones": [
        {
          "duration": 0.08,
          "phone": "hh_B"
        },
        {
          "duration": 0.18,
          "phone": "aw_I"
        },
        {
          "duration": 0.16,
          "phone": "s_E"
        }
      ],
      "start": 1.35,
      "startOffset": 27,
      "word": "HOUSE"
    },
    {
      "alignedWord": "and",
      "case": "success",
      "end": 2.23,
      "endOffset": 36,
      "phones": [
        {
          "duration": 0.11,
          "phone": "ae_B"
        },
        {
          "duration": 0.04,
          "phone": "n_I"
        },
        {
          "duration": 0.05,
          "phone": "d_E"
        }
      ],
      "start": 2.03,
      "startOffset": 33,
      "word": "AND"
    },
    {
      "alignedWord": "had",
      "case": "success",
      "end": 2.41,
      "endOffset": 40,
      "phones": [
        {
          "duration": 0.05,
          "phone": "hh_B"
        },
        {
          "duration": 0.06,
          "phone": "ae_I"
        },
        {
          "duration": 0.07,
          "phone": "d_E"
        }
      ],
      "start": 2.23,
      "startOffset": 37,
      "word": "HAD"
    },
    {
      "alignedWord": "taken",
      "case": "success",
      "end": 2.74,
      "endOffset": 46,
      "phones": [
        {
          "duration": 0.08,
          "phone": "t_B"
        },
        {
          "duration": 0.11,
          "phone": "ey_I"
        },
        {
          "duration": 0.05,
          "phone": "k_I"
        },
        {
          "duration": 0.04,
          "phone": "ah_I"
        },
        {
          "duration": 0.05,
          "phone": "n_E"
        }
      ],
      "start": 2.41,
      "startOffset": 41,
      "word": "TAKEN"
    },
    {
      "alignedWord": "the",
      "case": "success",
      "end": 2.85,
      "endOffset": 50,
      "phones": [
        {
          "duration": 0.05,
          "phone": "dh_B"
        },
        {
          "duration": 0.06,
          "phone": "ah_E"
        }
      ],
      "start": 2.74,
      "startOffset": 47,
      "word": "THE"
    },
    {
      "alignedWord": "vows",
      "case": "success",
      "end": 3.31,
      "endOffset": 55,
      "phones": [
        {
          "duration": 0.11,
          "phone": "v_B"
        },
        {
          "duration": 0.25,
          "phone": "aw_I"
        },
        {
          "duration": 0.1,
          "phone": "z_E"
        }
      ],
      "start": 2.85,
      "startOffset": 51,
      "word": "VOWS"
    },
    {
      "alignedWord": "in",
      "case": "success",
      "end": 3.4899999999999998,
      "endOffset": 58,
      "phones": [
        {
          "duration": 0.1,
          "phone": "ih_B"
        },
        {
          "duration": 0.05,
          "phone": "n_E"
        }
      ],
      "start": 3.34,
      "startOffset": 56,
      "word": "IN"
    },
    {
      "alignedWord": "the",
      "case": "success",
      "end": 3.5900000000000003,
      "endOffset": 62,
      "phones": [
        {
          "duration": 0.04,
          "phone": "dh_B"
        },
        {
          "duration": 0.06,
          "phone": "ah_E"
        }
      ],
      "start": 3.49,
      "startOffset": 59,
      "word": "THE"
    },
    {
      "alignedWord": "<unk>",
      "case": "success",
      "end": 4.06,
      "endOffset": 71,
      "phones": [
        {
          "duration": 0.47,
          "phone": "oov_S"
        }
      ],
      "start": 3.59,
      "startOffset": 63,
      "word": "CLOISTER"
    },
    {
      "alignedWord": "of",
      "case": "success",
      "end": 4.2299999999999995,
      "endOffset": 74,
      "phones": [
        {
          "duration": 0.08,
          "phone": "ah_B"
        },
        {
          "duration": 0.06,
          "phone": "v_E"
        }
      ],
      "start": 4.09,
      "startOffset": 72,
      "word": "OF"
    },
    {
      "alignedWord": "dominican",
      "case": "success",
      "end": 4.710000000000001,
      "endOffset": 84,
      "phones": [
        {
          "duration": 0.02,
          "phone": "d_B"
        },
        {
          "duration": 0.08,
          "phone": "ah_I"
        },
        {
          "duration": 0.02,
          "phone": "m_I"
        },
        {
          "duration": 0.08,
          "phone": "ih_I"
        },
        {
          "duration": 0.04,
          "phone": "n_I"
        },
        {
          "duration": 0.06,
          "phone": "ah_I"
        },
        {
          "duration": 0.05,
          "phone": "k_I"
        },
        {
          "duration": 0.05,
          "phone": "ah_I"
        },
        {
          "duration": 0.08,
          "phone": "n_E"
        }
      ],
      "start": 4.23,
      "startOffset": 75,
      "word": "DOMINICAN"
    },
    {
      "alignedWord": "monks",
      "case": "success",
      "end": 4.98,
      "endOffset": 90,
      "phones": [
        {
          "duration": 0.07,
          "phone": "m_B"
        },
        {
          "duration": 0.07,
          "phone": "ah_I"
        },
        {
          "duration": 0.06,
          "phone": "ng_I"
        },
        {
          "duration": 0.03,
          "phone": "k_I"
        },
        {
          "duration": 0.04,
          "phone": "s_E"
        }
      ],
      "start": 4.71,
      "startOffset": 85,
      "word": "MONKS"
    },
    {
      "alignedWord": "at",
      "case": "success",
      "end": 5.11,
      "endOffset": 93,
      "phones": [
        {
          "duration": 0.07,
          "phone": "ae_B"
        },
        {
          "duration": 0.06,
          "phone": "t_E"
        }
      ],
      "start": 4.98,
      "startOffset": 91,
      "word": "AT"
    },
    {
      "alignedWord": "florence",
      "case": "success",
      "end": 5.66,
      "endOffset": 102,
      "phones": [
        {
          "duration": 0.08,
          "phone": "f_B"
        },
        {
          "duration": 0.05,
          "phone": "l_I"
        },
        {
          "duration": 0.06,
          "phone": "ao_I"
        },
        {
          "duration": 0.06,
          "phone": "r_I"
        },
        {
          "duration": 0.05,
          "phone": "ah_I"
        },
        {
          "duration": 0.08,
          "phone": "n_I"
        },
        {
          "duration": 0.17,
          "phone": "s_E"
        }
      ],
      "start": 5.11,
      "startOffset": 94,
      "word": "FLORENCE"
    },
    {
      "alignedWord": "there",
      "case": "success",
      "end": 6.7700000000000005,
      "endOffset": 108,
      "phones": [
        {
          "duration": 0.1,
          "phone": "dh_B"
        },
        {
          "duration": 0.14,
          "phone": "eh_I"
        },
        {
          "duration": 0.16,
          "phone": "r_E"
        }
      ],
      "start": 6.37,
      "startOffset": 103,
      "word": "THERE"
    },
    {
      "alignedWord": "where",
      "case": "success",
      "end": 6.95,
      "endOffset": 114,
      "phones": [
        {
          "duration": 0.07,
          "phone": "w_B"
        },
        {
          "duration": 0.06,
          "phone": "eh_I"
        },
        {
          "duration": 0.03,
          "phone": "r_E"
        }
      ],
      "start": 6.79,
      "startOffset": 109,
      "word": "WHERE"
    },
    {
      "alignedWord": "he",
      "case": "success",
      "end": 7.11,
      "endOffset": 117,
      "phones": [
        {
          "duration": 0.08,
          "phone": "hh_B"
        },
        {
          "duration": 0.08,
          "phone": "iy_E"
        }
      ],
      "start": 6.95,
      "startOffset": 115,
      "word": "HE"
    },
    {
      "alignedWord": "was",
      "case": "success",
      "end": 7.28,
      "endOffset": 121,
      "phones": [
        {
          "duration": 0.05,
          "phone": "w_B"
        },
        {
          "duration": 0.06,
          "phone": "ah_I"
        },
        {
          "duration": 0.06,
          "phone": "z_E"
        }
      ],
      "start": 7.11,
      "startOffset": 118,
      "word": "WAS"
    },
    {
      "alignedWord": "appointed",
      "case": "success",
      "end": 7.75,
      "endOffset": 131,
      "phones": [
        {
          "duration": 0.05,
          "phone": "ah_B"
        },
        {
          "duration": 0.11,
          "phone": "p_I"
        },
        {
          "duration": 0.11,
          "phone": "oy_I"
        },
        {
          "duration": 0.03,
          "phone": "n_I"
        },
        {
          "duration": 0.04,
          "phone": "t_I"
        },
        {
          "duration": 0.05,
          "phone": "ih_I"
        },
        {
          "duration": 0.08,
          "phone": "d_E"
        }
      ],
      "start": 7.28,
      "startOffset": 122,
      "word": "APPOINTED"
    },
    {
      "alignedWord": "by",
      "case": "success",
      "end": 7.93,
      "endOffset": 134,
      "phones": [
        {
          "duration": 0.08,
          "phone": "b_B"
        },
        {
          "duration": 0.1,
          "phone": "ay_E"
        }
      ],
      "start": 7.75,
      "startOffset": 132,
      "word": "BY"
    },
    {
      "alignedWord": "his",
      "case": "success",
      "end": 8.09,
      "endOffset": 138,
      "phones": [
        {
          "duration": 0.07,
          "phone": "hh_B"
        },
        {
          "duration": 0.05,
          "phone": "ih_I"
        },
        {
          "duration": 0.04,
          "phone": "z_E"
        }
      ],
      "start": 7.93,
      "startOffset": 135,
      "word": "HIS"
    },
    {
      "alignedWord": "superiors",
      "case": "success",
      "end": 8.82,
      "endOffset": 148,
      "phones": [
        {
          "duration": 0.05,
          "phone": "s_B"
        },
        {
          "duration": 0.06,
          "phone": "uw_I"
        },
        {
          "duration": 0.08,
          "phone": "p_I"
        },
        {
          "duration": 0.11,
          "phone": "ih_I"
        },
        {
          "duration": 0.08,
          "phone": "r_I"
        },
        {
          "duration": 0.12,
          "phone": "iy_I"
        },
        {
          "duration": 0.1,
          "phone": "er_I"
        },
        {
          "duration": 0.13,
          "phone": "z_E"
        }
      ],
      "start": 8.09,
      "startOffset": 139,
      "word": "SUPERIORS"
    },
    {
      "alignedWord": "to",
      "case": "success",
      "end": 8.969999,
      "endOffset": 151,
      "phones": [
        {
          "duration": 0.07,
          "phone": "t_B"
        },
        {
          "duration": 0.05,
          "phone": "ih_E"
        }
      ],
      "start": 8.849999,
      "startOffset": 149,
      "word": "TO"
    },
    {
      "alignedWord": "give",
      "case": "success",
      "end": 9.180000000000001,
      "endOffset": 156,
      "phones": [
        {
          "duration": 0.05,
          "phone": "g_B"
        },
        {
          "duration": 0.07,
          "phone": "ih_I"
        },
        {
          "duration": 0.09,
          "phone": "v_E"
        }
      ],
      "start": 8.97,
      "startOffset": 152,
      "word": "GIVE"
    },
    {
      "alignedWord": "lessons",
      "case": "success",
      "end": 9.539999,
      "endOffset": 164,
      "phones": [
        {
          "duration": 0.06,
          "phone": "l_B"
        },
        {
          "duration": 0.08,
          "phone": "eh_I"
        },
        {
          "duration": 0.06,
          "phone": "s_I"
        },
        {
          "duration": 0.05,
          "phone": "ah_I"
        },
        {
          "duration": 0.05,
          "phone": "n_I"
        },
        {
          "duration": 0.06,
          "phone": "z_E"
        }
      ],
      "start": 9.179999,
      "startOffset": 157,
      "word": "LESSONS"
    },
    {
      "alignedWord": "in",
      "case": "success",
      "end": 9.67,
      "endOffset": 167,
      "phones": [
        {
          "duration": 0.05,
          "phone": "ih_B"
        },
        {
          "duration": 0.08,
          "phone": "n_E"
        }
      ],
      "start": 9.54,
      "startOffset": 165,
      "word": "IN"
    },
    {
      "alignedWord": "philosophy",
      "case": "success",
      "end": 10.44,
      "endOffset": 178,
      "phones": [
        {
          "duration": 0.05,
          "phone": "f_B"
        },
        {
          "duration": 0.07,
          "phone": "ah_I"
        },
        {
          "duration": 0.06,
          "phone": "l_I"
        },
        {
          "duration": 0.11,
          "phone": "aa_I"
        },
        {
          "duration": 0.11,
          "phone": "s_I"
        },
        {
          "duration": 0.05,
          "phone": "ah_I"
        },
        {
          "duration": 0.11,
          "phone": "f_I"
        },
        {
          "duration": 0.21,
          "phone": "iy_E"
        }
      ],
      "start": 9.67,
      "startOffset": 168,
      "word": "PHILOSOPHY"
    },
    {
      "alignedWord": "the",
      "case": "success",
      "end": 10.84,
      "endOffset": 182,
      "phones": [
        {
          "duration": 0.09,
          "phone": "dh_B"
        },
        {
          "duration": 0.01,
          "phone": "iy_E"
        }
      ],
      "start": 10.74,
      "startOffset": 179,
      "word": "THE"
    },
    {
      "alignedWord": "young",
      "case": "success",
      "end": 11.11,
      "endOffset": 188,
      "phones": [
        {
          "duration": 0.07,
          "phone": "y_B"
        },
        {
          "duration": 0.1,
          "phone": "ah_I"
        },
        {
          "duration": 0.1,
          "phone": "ng_E"
        }
      ],
      "start": 10.84,
      "startOffset": 183,
      "word": "YOUNG"
    },
    {
      "alignedWord": "novice",
      "case": "success",
      "end": 11.459999999999999,
      "endOffset": 195,
      "phones": [
        {
          "duration": 0.04,
          "phone": "n_B"
        },
        {
          "duration": 0.1,
          "phone": "aa_I"
        },
        {
          "duration": 0.1,
          "phone": "v_I"
        },
        {
          "duration": 0.05,
          "phone": "ah_I"
        },
        {
          "duration": 0.06,
          "phone": "s_E"
        }
      ],
      "start": 11.11,
      "startOffset": 189,
      "word": "NOVICE"
    },
    {
      "alignedWord": "had",
      "case": "success",
      "end": 11.759998999999999,
      "endOffset": 199,
      "phones": [
        {
          "duration": 0.12,
          "phone": "hh_B"
        },
        {
          "duration": 0.1,
          "phone": "ae_I"
        },
        {
          "duration": 0.07,
          "phone": "d_E"
        }
      ],
      "start": 11.469999,
      "startOffset": 196,
      "word": "HAD"
    },
    {
      "alignedWord": "from",
      "case": "success",
      "end": 11.939999,
      "endOffset": 204,
      "phones": [
        {
          "duration": 0.05,
          "phone": "f_B"
        },
        {
          "duration": 0.06,
          "phone": "er_I"
        },
        {
          "duration": 0.07,
          "phone": "m_E"
        }
      ],
      "start": 11.759999,
      "startOffset": 200,
      "word": "FROM"
    },
    {
      "alignedWord": "the",
      "case": "success",
      "end": 12.04,
      "endOffset": 208,
      "phones": [
        {
          "duration": 0.04,
          "phone": "dh_B"
        },
        {
          "duration": 0.06,
          "phone": "ah_E"
        }
      ],
      "start": 11.94,
      "startOffset": 205,
      "word": "THE"
    },
    {
      "alignedWord": "first",
      "case": "success",
      "end": 12.37,
      "endOffset": 214,
      "phones": [
        {
          "duration": 0.1,
          "phone": "f_B"
        },
        {
          "duration": 0.15,
          "phone": "er_I"
        },
        {
          "duration": 0.07,
          "phone": "s_I"
        },
        {
          "duration": 0.01,
          "phone": "t_E"
        }
      ],
      "start": 12.04,
      "startOffset": 209,
      "word": "FIRST"
    },
    {
      "alignedWord": "to",
      "case": "success",
      "end": 12.5,
      "endOffset": 217,
      "phones": [
        {
          "duration": 0.06,
          "phone": "t_B"
        },
        {
          "duration": 0.06,
          "phone": "ah_E"
        }
      ],
      "start": 12.38,
      "startOffset": 215,
      "word": "TO"
    },
    {
      "alignedWord": "battle",
      "case": "success",
      "end": 12.86,
      "endOffset": 224,
      "phones": [
        {
          "duration": 0.1,
          "phone": "b_B"
        },
        {
          "duration": 0.1,
          "phone": "ae_I"
        },
        {
          "duration": 0.03,
          "phone": "t_I"
        },
        {
          "duration": 0.05,
          "phone": "ah_I"
        },
        {
          "duration": 0.08,
          "phone": "l_E"
        }
      ],
      "start": 12.5,
      "startOffset": 218,
      "word": "BATTLE"
    },
    {
      "alignedWord": "against",
      "case": "success",
      "end": 13.260000000000002,
      "endOffset": 232,
      "phones": [
        {
          "duration": 0.08,
          "phone": "ah_B"
        },
        {
          "duration": 0.1,
          "phone": "g_I"
        },
        {
          "duration": 0.07,
          "phone": "eh_I"
        },
        {
          "duration": 0.04,
          "phone": "n_I"
        },
        {
          "duration": 0.08,
          "phone": "s_I"
        },
        {
          "duration": 0.01,
          "phone": "t_E"
        }
      ],
      "start": 12.88,
      "startOffset": 225,
      "word": "AGAINST"
    },
    {
      "alignedWord": "the",
      "case": "success",
      "end": 13.379999,
      "endOffset": 236,
      "phones": [
        {
          "duration": 0.06,
          "phone": "dh_B"
        },
        {
          "duration": 0.06,
          "phone": "ah_E"
        }
      ],
      "start": 13.259999,
      "startOffset": 233,
      "word": "THE"
    },
    {
      "alignedWord": "defects",
      "case": "success",
      "end": 13.850000000000001,
      "endOffset": 244,
      "phones": [
        {
          "duration": 0.06,
          "phone": "d_B"
        },
        {
          "duration": 0.12,
          "phone": "ih_I"
        },
        {
          "duration": 0.1,
          "phone": "f_I"
        },
        {
          "duration": 0.06,
          "phone": "eh_I"
        },
        {
          "duration": 0.04,
          "phone": "k_I"
        },
        {
          "duration": 0.03,
          "phone": "t_I"
        },
        {
          "duration": 0.06,
          "phone": "s_E"
        }
      ],
      "start": 13.38,
      "startOffset": 237,
      "word": "DEFECTS"
    },
    {
      "alignedWord": "of",
      "case": "success",
      "end": 14.02,
      "endOffset": 247,
      "phones": [
        {
          "duration": 0.08,
          "phone": "ah_B"
        },
        {
          "duration": 0.07,
          "phone": "v_E"
        }
      ],
      "start": 13.87,
      "startOffset": 245,
      "word": "OF"
    },
    {
      "alignedWord": "a",
      "case": "success",
      "end": 14.07,
      "endOffset": 249,
      "phones": [
        {
          "duration": 0.05,
          "phone": "ah_S"
        }
      ],
      "start": 14.02,
      "startOffset": 248,
      "word": "A"
    },
    {
      "alignedWord": "voice",
      "case": "success",
      "end": 14.48,
      "endOffset": 255,
      "phones": [
        {
          "duration": 0.13,
          "phone": "v_B"
        },
        {
          "duration": 0.18,
          "phone": "oy_I"
        },
        {
          "duration": 0.1,
          "phone": "s_E"
        }
      ],
      "start": 14.07,
      "startOffset": 250,
      "word": "VOICE"
    },
    {
      "alignedWord": "that",
      "case": "success",
      "end": 14.65,
      "endOffset": 260,
      "phones": [
        {
          "duration": 0.06,
          "phone": "dh_B"
        },
        {
          "duration": 0.04,
          "phone": "ae_I"
        },
        {
          "duration": 0.06,
          "phone": "t_E"
        }
      ],
      "start": 14.49,
      "startOffset": 256,
      "word": "THAT"
    },
    {
      "alignedWord": "was",
      "case": "success",
      "end": 14.82,
      "endOffset": 264,
      "phones": [
        {
          "duration": 0.03,
          "phone": "w_B"
        },
        {
          "duration": 0.07,
          "phone": "ah_I"
        },
        {
          "duration": 0.07,
          "phone": "z_E"
        }
      ],
      "start": 14.65,
      "startOffset": 261,
      "word": "WAS"
    },
    {
      "alignedWord": "both",
      "case": "success",
      "end": 15.01,
      "endOffset": 269,
      "phones": [
        {
          "duration": 0.08,
          "phone": "b_B"
        },
        {
          "duration": 0.1,
          "phone": "ow_I"
        },
        {
          "duration": 0.01,
          "phone": "th_E"
        }
      ],
      "start": 14.82,
      "startOffset": 265,
      "word": "BOTH"
    },
    {
      "alignedWord": "harsh",
      "case": "success",
      "end": 15.42,
      "endOffset": 275,
      "phones": [
        {
          "duration": 0.08,
          "phone": "hh_B"
        },
        {
          "duration": 0.09,
          "phone": "aa_I"
        },
        {
          "duration": 0.1,
          "phone": "r_I"
        },
        {
          "duration": 0.11,
          "phone": "sh_E"
        }
      ],
      "start": 15.04,
      "startOffset": 270,
      "word": "HARSH"
    },
    {
      "alignedWord": "and",
      "case": "success",
      "end": 15.629999999999999,
      "endOffset": 279,
      "phones": [
        {
          "duration": 0.07,
          "phone": "ae_B"
        },
        {
          "duration": 0.05,
          "phone": "n_I"
        },
        {
          "duration": 0.07,
          "phone": "d_E"
        }
      ],
      "start": 15.44,
      "startOffset": 276,
      "word": "AND"
    },
    {
      "alignedWord": "weak",
      "case": "success",
      "end": 15.9,
      "endOffset": 284,
      "phones": [
        {
          "duration": 0.06,
          "phone": "w_B"
        },
        {
          "duration": 0.13,
          "phone": "iy_I"
        },
        {
          "duration": 0.08,
          "phone": "k_E"
        }
      ],
      "start": 15.63,
      "startOffset": 280,
      "word": "WEAK"
    }
  ]
}