{
  "transcript": "TO WHAT A DEGREE OF UNFORGIVINGNESS IT MIGHT WITH PROPRIETY LEAD NOR TO WHAT RIGOURS OF RUDENESS IN RETURN IT MIGHT JUSTLY MAKE HER AMENABLE DEJECTED AND HUMBLED SHE HAD EVEN SOME THOUGHTS OF NOT GOING WITH THE OTHERS TO THE THEATRE THAT NIGHT",
  "words": [
    {
      "alignedWord": "to",
      "case": "success",
      "end": 0.36,
      "endOffset": 2,
      "phones": [
        {
          "duration": 0.09,
          "phone": "t_B"
        },
        {
          "duration": 0.08,
          "phone": "uw_E"
        }
      ],
      "start": 0.19,
      "startOffset": 0,
      "word": "TO"
    },
    {
      "alignedWord": "what",
      "case": "success",
      "end": 0.55,
      "endOffset": 7,
      "phones": [
        {
          "duration": 0.06,
          "phone": "w_B"
        },
        {
          "duration": 0.08,
          "phone": "ah_I"
        },
        {
          "duration": 0.05,
          "phone": "t_E"
        }
      ],
      "start": 0.36,
      "startOffset": 3,
      "word": "WHAT"
    },
    {
      "alignedWord": "a",
      "case": "success",
      "end": 0.6200000000000001,
      "endOffset": 9,
      "phones": [
        {
          "duration": 0.07,
          "phone": "ah_S"
        }
      ],
      "start": 0.55,
      "startOffset": 8,
      "word": "A"
    },
    {
      "alignedWord": "degree",
      "case": "success",
      "end": 0.96,
      "endOffset": 16,
      "phones": [
        {
          "duration": 0.06,
          "phone": "d_B"
        },
        {
          "duration": 0.07,
          "phone": "ih_I"
        },
        {
          "duration": 0.07,
          "phone": "g_I"
        },
        {
          "duration": 0.08,
          "phone": "r_I"
        },
        {
          "duration": 0.06,
          "phone": "iy_E"
        }
      ],
      "start": 0.62,
      "startOffset": 10,
      "word": "DEGREE"
    },
    {
      "alignedWord": "of",
      "case": "success",
      "end": 1.08,
      "endOffset": 19,
      "phones": [
        {
          "duration": 0.05,
          "phone": "ah_B"
        },
        {
          "duration": 0.07,
          "phone": "v_E"
        }
      ],
      "start": 0.96,
      "startOffset": 17,
      "word": "OF"
    },
    {
      "alignedWord": "<unk>",
      "case": "success",
      "end": 2.02,
      "endOffset": 35,
      "phones": [
        {
          "duration": 0.91,
          "phone": "oov_S"
        }
      ],
      "start": 1.11,
      "startOffset": 20,
      "word": "UNFORGIVINGNESS"
    },
    {
      "alignedWord": "it",
      "case": "success",
      "end": 2.08,
      "endOffset": 38,
      "phones": [
        {
          "duration": 0.01,
          "phone": "ih_B"
        },
        {
          "duration": 0.05,
          "phone": "t_E"
        }
      ],
      "start": 2.02,
      "startOffset": 36,
      "word": "IT"
    },
    {
      "alignedWord": "might",
      "case": "success",
      "end": 2.2600000000000002,
      "endOffset": 44,
      "phones": [
        {
          "duration": 0.01,
          "phone": "m_B"
        },
        {
          "duration": 0.1,
          "phone": "ay_I"
        },
        {
          "duration": 0.07,
          "phone": "t_E"
        }
      ],
      "start": 2.08,
      "startOffset": 39,
      "word": "MIGHT"
    },
    {
      "alignedWord": "with",
      "case": "success",
      "end": 2.3899999999999997,
      "endOffset": 49,
      "phones": [
        {
          "duration": 0.03,
          "phone": "w_B"
        },
        {
          "duration": 0.04,
          "phone": "ih_I"
        },
        {
          "duration": 0.06,
          "phone": "th_E"
        }
      ],
      "start": 2.26,
      "startOffset": 45,
      "word": "WITH"
    },
    {
      "alignedWord": "<unk>",
      "case": "success",
      "end": 3.0100000000000002,
      "endOffset": 59,
      "phones": [
        {
          "duration": 0.6,
          "phone": "oov_S"
        }
      ],
      "start": 2.41,
      "startOffset": 50,
      "word": "PROPRIETY"
    },
    {
      "alignedWord": "lead",
      "case": "success",
      "end": 3.34,
      "endOffset": 64,
      "phones": [
        {
          "duration": 0.1,
          "phone": "l_B"
        },
        {
          "duration": 0.13,
          "phone": "iy_I"
        },
        {
          "duration": 0.1,
          "phone": "d_E"
        }
      ],
      "start": 3.01,
      "startOffset": 60,
      "word": "LEAD"
    },
    {
      "alignedWord": "nor",
      "case": "success",
      "end": 3.85,
      "endOffset": 68,
      "phones": [
        {
          "duration": 0.09,
          "phone": "n_B"
        },
        {
          "duration": 0.06,
          "phone": "ao_I"
        },
        {
          "duration": 0.04,
          "phone": "r_E"
        }
      ],
      "start": 3.66,
      "startOffset": 65,
      "word": "NOR"
    },
    {
      "alignedWord": "to",
      "case": "success",
      "end": 3.98,
      "endOffset": 71,
      "phones": [
        {
          "duration": 0.05,
          "phone": "t_B"
        },
        {
          "duration": 0.08,
          "phone": "uw_E"
        }
      ],
      "start": 3.85,
      "startOffset": 69,
      "word": "TO"
    },
    {
      "alignedWord": "what",
      "case": "success",
      "end": 4.18,
      "endOffset": 76,
      "phones": [
        {
          "duration": 0.05,
          "phone": "w_B"
        },
        {
          "duration": 0.07,
          "phone": "ah_I"
        },
        {
          "duration": 0.08,
          "phone": "t_E"
        }
      ],
      "start": 3.98,
      "startOffset": 72,
      "word": "WHAT"
    },
    {
      "alignedWord": "<unk>",
      "case": "success",
      "end": 4.52,
      "endOffset": 84,
      "phones": [
        {
          "duration": 0.34,
          "phone": "oov_S"
        }
      ],
      "start": 4.18,
      "startOffset": 77,
      "word": "RIGOURS"
    },
    {
      "alignedWord": "of",
      "case": "success",
      "end": 4.69,
      "endOffset": 87,
      "phones": [
        {
          "duration": 0.06,
          "phone": "ah_B"
        },
        {
          "duration": 0.1,
          "phone": "v_E"
        }
      ],
      "start": 4.53,
      "startOffset": 85,
      "word": "OF"
    },
    {
      "alignedWord": "rudeness",
      "case": "success",
      "end": 5.050000000000001,
      "endOffset": 96,
      "phones": [
        {
          "duration": 0.07,
          "phone": "r_B"
        },
        {
          "duration": 0.04,
          "phone": "uw_I"
        },
        {
          "duration": 0.05,
          "phone": "d_I"
        },
        {
          "duration": 0.04,
          "phone": "n_I"
        },
        {
          "duration": 0.08,
          "phone": "ah_I"
        },
        {
          "duration": 0.08,
          "phone": "s_E"
        }
      ],
      "start": 4.69,
      "startOffset": 88,
      "word": "RUDENESS"
    },
    {
      "alignedWord": "in",
      "case": "success",
      "end": 5.21,
      "endOffset": 99,
      "phones": [
        {
          "duration": 0.06,
          "phone": "ih_B"
        },
        {
          "duration": 0.08,
          "phone": "n_E"
        }
      ],
      "start": 5.07,
      "startOffset": 97,
      "word": "IN"
    },
    {
      "alignedWord": "return",
      "case": "success",
      "end": 5.56,
      "endOffset": 106,
      "phones": [
        {
          "duration": 0.04,
          "phone": "r_B"
        },
        {
          "duration": 0.07,
          "phone": "iy_I"
        },
        {
          "duration": 0.09,
          "phone": "t_I"
        },
        {
          "duration": 0.1,
          "phone": "er_I"
        },
        {
          "duration": 0.05,
          "phone": "n_E"
        }
      ],
      "start": 5.21,
      "startOffset": 100,
      "word": "RETURN"
    },
    {
      "alignedWord": "it",
      "case": "success",
      "end": 5.6899999999999995,
      "endOffset": 109,
      "phones": [
        {
          "duration": 0.07,
          "phone": "ih_B"
        },
        {
          "duration": 0.06,
          "phone": "t_E"
        }
      ],
      "start": 5.56,
      "startOffset": 107,
      "word": "IT"
    },
    {
      "alignedWord": "might",
      "case": "success",
      "end": 5.91,
      "endOffset": 115,
      "phones": [
        {
          "duration": 0.02,
          "phone": "m_B"
        },
        {
          "duration": 0.13,
          "phone": "ay_I"
        },
        {
          "duration": 0.07,
          "phone": "t_E"
        }
      ],
      "start": 5.69,
      "startOffset": 110,
      "word": "MIGHT"
    },
    {
      "alignedWord": "<unk>",
      "case": "success",
      "end": 6.26,
      "endOffset": 122,
      "phones": [
        {
          "duration": 0.35,
          "phone": "oov_S"
        }
      ],
      "start": 5.91,
      "startOffset": 116,
      "word": "JUSTLY"
    },
    {
      "alignedWord": "make",
      "case": "success",
      "end": 6.489999999999999,
      "endOffset": 127,
      "phones": [
        {
          "duration": 0.06,
          "phone": "m_B"
        },
        {
          "duration": 0.08,
          "phone": "ey_I"
        },
        {
          "duration": 0.08,
          "phone": "k_E"
        }
      ],
      "start": 6.27,
      "startOffset": 123,
      "word": "MAKE"
    },
    {
      "alignedWord": "her",
      "case": "success",
      "end": 6.63,
      "endOffset": 131,
      "phones": [
        {
          "duration": 0.09,
          "phone": "hh_B"
        },
        {
          "duration": 0.05,
          "phone": "er_E"
        }
      ],
      "start": 6.49,
      "startOffset": 128,
      "word": "HER"
    },
    {
      "alignedWord": "amenable",
      "case": "success",
      "end": 7.22,
      "endOffset": 140,
      "phones": [
        {
          "duration": 0.06,
          "phone": "ah_B"
        },
        {
          "duration": 0.06,
          "phone": "m_I"
        },
        {
          "duration": 0.09,
          "phone": "eh_I"
        },
        {
          "duration": 0.06,
          "phone": "n_I"
        },
        {
          "duration": 0.06,
          "phone": "ah_I"
        },
        {
          "duration": 0.04,
          "phone": "b_I"
        },
        {
          "duration": 0.05,
          "phone": "ah_I"
        },
        {
          "duration": 0.17,
          "phone": "l_E"
        }
      ],
      "start": 6.63,
      "startOffset": 132,
      "word": "AMENABLE"
    },
    {
      "alignedWord": "dejected",
      "case": "success",
      "end": 8.540000000000001,
      "endOffset": 149,
      "phones": [
        {
          "duration": 0.1,
          "phone": "d_B"
        },
        {
          "duration": 0.08,
          "phone": "ih_I"
        },
        {
          "duration": 0.09,
          "phone": "jh_I"
        },
        {
          "duration": 0.07,
          "phone": "eh_I"
        },
        {
          "duration": 0.09,
          "phone": "k_I"
        },
        {
          "duration": 0.06,
          "phone": "t_I"
        },
        {
          "duration": 0.09,
          "phone": "ih_I"
        },
        {
          "duration": 0.09,
          "phone": "d_E"
        }
      ],
      "start": 7.87,
      "startOffset": 141,
      "word": "DEJECTED"
    },
    {
      "alignedWord": "and",
      "case": "success",
      "end": 8.749998999999999,
      "endOffset": 153,
      "phones": [
        {
          "duration": 0.07,
          "phone": "ae_B"
        },
        {
          "duration": 0.06,
          "phone": "n_I"
        },
        {
          "duration": 0.06,
          "phone": "d_E"
        }
      ],
      "start": 8.559999,
      "startOffset": 150,
      "word": "AND"
    },
    {
      "alignedWord": "<unk>",
      "case": "success",
      "end": 9.21,
      "endOffset": 161,
      "phones": [
        {
          "duration": 0.46,
          "phone": "oov_S"
        }
      ],
      "start": 8.75,
      "startOffset": 154,
      "word": "HUMBLED"
    },
    {
      "alignedWord": "she",
      "case": "success",
      "end": 9.599999,
      "endOffset": 165,
      "phones": [
        {
          "duration": 0.12,
          "phone": "sh_B"
        },
        {
          "duration": 0.05,
          "phone": "iy_E"
        }
      ],
      "start": 9.429999,
      "startOffset": 162,
      "word": "SHE"
    },
    {
      "alignedWord": "had",
      "case": "success",
      "end": 9.729999000000001,
      "endOffset": 169,
      "phones": [
        {
          "duration": 0.01,
          "phone": "hh_B"
        },
        {
          "duration": 0.04,
          "phone": "ae_I"
        },
        {
          "duration": 0.08,
          "phone": "d_E"
        }
      ],
      "start": 9.599999,
      "startOffset": 166,
      "word": "HAD"
    },
    {
      "alignedWord": "even",
      "case": "success",
      "end": 10.09,
      "endOffset": 174,
      "phones": [
        {
          "duration": 0.13,
          "phone": "iy_B"
        },
        {
          "duration": 0.07,
          "phone": "v_I"
        },
        {
          "duration": 0.06,
          "phone": "ih_I"
        },
        {
          "duration": 0.09,
          "phone": "n_E"
        }
      ],
      "start": 9.74,
      "startOffset": 170,
      "word": "EVEN"
    },
    {
      "alignedWord": "some",
      "case": "success",
      "end": 10.27,
      "endOffset": 179,
      "phones": [
        {
          "duration": 0.06,
          "phone": "s_B"
        },
        {
          "duration": 0.06,
          "phone": "ah_I"
        },
        {
          "duration": 0.06,
          "phone": "m_E"
        }
      ],
      "start": 10.09,
      "startOffset": 175,
      "word": "SOME"
    },
    {
      "alignedWord": "thoughts",
      "case": "success",
      "end": 10.66,
      "endOffset": 188,
      "phones": [
        {
          "duration": 0.11,
          "phone": "th_B"
        },
        {
          "duration": 0.14,
          "phone": "ao_I"
        },
        {
          "duration": 0.09,
          "phone": "t_I"
        },
        {
          "duration": 0.05,
          "phone": "s_E"
        }
      ],
      "start": 10.27,
      "startOffset": 180,
      "word": "THOUGHTS"
    },
    {
      "alignedWord": "of",
      "case": "success",
      "end": 10.81,
      "endOffset": 191,
      "phones": [
        {
          "duration": 0.07,
          "phone": "ah_B"
        },
        {
          "duration": 0.08,
          "phone": "v_E"
        }
      ],
      "start": 10.66,
      "startOffset": 189,
      "word": "OF"
    },
    {
      "alignedWord": "not",
      "case": "success",
      "end": 11.049999,
      "endOffset": 195,
      "phones": [
        {
          "duration": 0.03,
          "phone": "n_B"
        },
        {
          "duration": 0.12,
          "phone": "aa_I"
        },
        {
          "duration": 0.09,
          "phone": "t_E"
        }
      ],
      "start": 10.809999,
      "startOffset": 192,
      "word": "NOT"
    },
    {
      "alignedWord": "going",
      "case": "success",
      "end": 11.39,
      "endOffset": 201,
      "phones": [
        {
          "duration": 0.06,
          "phone": "g_B"
        },
        {
          "duration": 0.08,
          "phone": "ow_I"
        },
        {
          "duration": 0.1,
          "phone": "ih_I"
        },
        {
          "duration": 0.1,
          "phone": "ng_E"
        }
      ],
      "start": 11.05,
      "startOffset": 196,
      "word": "GOING"
    },
    {
      "alignedWord": "with",
      "case": "success",
      "end": 11.549999,
      "endOffset": 206,
      "phones": [
        {
          "duration": 0.05,
          "phone": "w_B"
        },
        {
          "duration": 0.05,
          "phone": "ih_I"
        },
        {
          "duration": 0.06,
          "phone": "th_E"
        }
      ],
      "start": 11.389999,
      "startOffset": 202,
      "word": "WITH"
    },
    {
      "alignedWord": "the",
      "case": "success",
      "end": 11.67,
      "endOffset": 210,
      "phones": [
        {
          "duration": 0.05,
          "phone": "dh_B"
        },
        {
          "duration": 0.07,
          "phone": "iy_E"
        }
      ],
      "start": 11.55,
      "startOffset": 207,
      "word": "THE"
    },
    {
      "alignedWord": "others",
      "case": "success",
      "end": 12.02,
      "endOffset": 217,
      "phones": [
        {
          "duration": 0.07,
          "phone": "ah_B"
        },
        {
          "duration": 0.1,
          "phone": "dh_I"
        },
        {
          "duration": 0.09,
          "phone": "er_I"
        },
        {
          "duration": 0.09,
          "phone": "z_E"
        }
      ],
      "start": 11.67,
      "startOffset": 211,
      "word": "OTHERS"
    },
    {
      "alignedWord": "to",
      "case": "success",
      "end": 12.15,
      "endOffset": 220,
      "phones": [
        {
          "duration": 0.07,
          "phone": "t_B"
        },
        {
          "duration": 0.06,
          "phone": "ih_E"
        }
      ],
      "start": 12.02,
      "startOffset": 218,
      "word": "TO"
    },
    {
      "alignedWord": "the",
      "case": "success",
      "end": 12.280000000000001,
      "endOffset": 224,
      "phones": [
        {
          "duration": 0.06,
          "phone": "dh_B"
        },
        {
          "duration": 0.07,
          "phone": "ah_E"
        }
      ],
      "start": 12.15,
      "startOffset": 221,
      "word": "THE"
    },
    {
      "alignedWord": "theatre",
      "case": "success",
      "end": 12.729999999999999,
      "endOffset": 232,
      "phones": [
        {
          "duration": 0.11,
          "phone": "th_B"
        },
        {
          "duration": 0.07,
          "phone": "iy_I"
        },
        {
          "duration": 0.05,
          "phone": "ah_I"
        },
        {
          "duration": 0.12,
          "phone": "t_I"
        },
        {
          "duration": 0.1,
          "phone": "er_E"
        }
      ],
      "start": 12.28,
      "startOffset": 225,
      "word": "THEATRE"
    },
    {
      "alignedWord": "that",
      "case": "success",
      "end": 12.96,
      "endOffset": 237,
      "phones": [
        {
          "duration": 0.07,
          "phone": "dh_B"
        },
        {
          "duration": 0.08,
          "phone": "ae_I"
        },
        {
          "duration": 0.08,
          "phone": "t_E"
        }
      ],
      "start": 12.73,
      "startOffset": 233,
      "word": "THAT"
    },
    {
      "alignedWord": "night",
      "case": "success",
      "end": 13.3,
      "endOffset": 243,
      "phones": [
        {
          "duration": 0.04,
          "phone": "n_B"
        },
        {
          "duration": 0.12,
          "phone": "ay_I"
        },
        {
          "duration": 0.18,
          "phone": "t_E"
        }
      ],
      "start": 12.96,
      "startOffset": 238,
      "word": "NIGHT"
    }
  ]
}