{
  "transcript": "CATHERINE IN DEEP MORTIFICATION PROCEEDED ON HER WAY SHE COULD ALMOST BE ANGRY HERSELF AT SUCH ANGRY INCIVILITY BUT SHE CHECKED THE RESENTFUL SENSATION SHE REMEMBERED HER OWN IGNORANCE SHE KNEW NOT HOW SUCH AN OFFENCE AS HERS MIGHT BE CLASSED BY THE LAWS OF WORLDLY POLITENESS",
  "words": [
    {
      "alignedWord": "catherine",
      "case": "success",
      "end": 0.69,
      "endOffset": 9,
      "phones": [
        {
          "duration": 0.11,
          "phone": "k_B"
        },
        {
          "duration": 0.1,
          "phone": "ae_I"
        },
        {
          "duration": 0.12,
          "phone": "th_I"
        },
        {
          "duration": 0.03,
          "phone": "r_I"
        },
        {
          "duration": 0.07,
          "phone": "ih_I"
        },
        {
          "duration": 0.08,
          "phone": "n_E"
        }
      ],
      "start": 0.18,
      "startOffset": 0,
      "word": "CATHERINE"
    },
    {
      "alignedWord": "in",
      "case": "success",
      "end": 0.83,
      "endOffset": 12,
      "phones": [
        {
          "duration": 0.07,
          "phone": "ih_B"
        },
        {
          "duration": 0.06,
          "phone": "n_E"
        }
      ],
      "start": 0.7,
      "startOffset": 10,
      "word": "IN"
    },
    {
      "alignedWord": "deep",
      "case": "success",
      "end": 1.06,
      "endOffset": 17,
      "phones": [
        {
          "duration": 0.06,
          "phone": "d_B"
        },
        {
          "duration": 0.08,
          "phone": "iy_I"
        },
        {
          "duration": 0.09,
          "phone": "p_E"
        }
      ],
      "start": 0.83,
      "startOffset": 13,
      "word": "DEEP"
    },
    {
      "alignedWord": "<unk>",
      "case": "success",
      "end": 2.09,
      "endOffset": 31,
      "phones": [
        {
          "duration": 1.03,
          "phone": "oov_S"
        }
      ],
      "start": 1.06,
      "startOffset": 18,
      "word": "MORTIFICATION"
    },
    {
      "alignedWord": "proceeded",
      "case": "success",
      "end": 2.75,
      "endOffset": 41,
      "phones": [
        {
          "duration": 0.05,
          "phone": "p_B"
        },
        {
          "duration": 0.05,
          "phone": "r_I"
        },
        {
          "duration": 0.04,
          "phone": "ah_I"
        },
        {
          "duration": 0.08,
          "phone": "s_I"
        },
        {
          "duration": 0.06,
          "phone": "iy_I"
        },
        {
          "duration": 0.03,
          "phone": "d_I"
        },
        {
          "duration": 0.07,
          "phone": "ah_I"
        },
        {
          "duration": 0.06,
          "phone": "d_E"
        }
      ],
      "start": 2.31,
      "startOffset": 32,
      "word": "PROCEEDED"
    },
    {
      "alignedWord": "on",
      "case": "success",
      "end": 2.91,
      "endOffset": 44,
      "phones": [
        {
          "duration": 0.1,
          "phone": "aa_B"
        },
        {
          "duration": 0.06,
          "phone": "n_E"
        }
      ],
      "start": 2.75,
      "startOffset": 42,
      "word": "ON"
    },
    {
      "alignedWord": "her",
      "case": "success",
      "end": 3.0300000000000002,
      "endOffset": 48,
      "phones": [
        {
          "duration": 0.07,
          "phone": "hh_B"
        },
        {
          "duration": 0.05,
          "phone": "er_E"
        }
      ],
      "start": 2.91,
      "startOffset": 45,
      "word": "HER"
    },
    {
      "alignedWord": "way",
      "case": "success",
      "end": 3.4299999999999997,
      "endOffset": 52,
      "phones": [
        {
          "duration": 0.11,
          "phone": "w_B"
        },
        {
          "duration": 0.29,
          "phone": "ey_E"
        }
      ],
      "start": 3.03,
      "startOffset": 49,
      "word": "WAY"
    },
    {
      "alignedWord": "she",
      "case": "success",
      "end": 3.98,
      "endOffset": 56,
      "phones": [
        {
          "duration": 0.11,
          "phone": "sh_B"
        },
        {
          "duration": 0.06,
          "phone": "iy_E"
        }
      ],
      "start": 3.81,
      "startOffset": 53,
      "word": "SHE"
    },
    {
      "alignedWord": "could",
      "case": "success",
      "end": 4.12,
      "endOffset": 62,
      "phones": [
        {
          "duration": 0.03,
          "phone": "k_B"
        },
        {
          "duration": 0.05,
          "phone": "uh_I"
        },
        {
          "duration": 0.06,
          "phone": "d_E"
        }
      ],
      "start": 3.98,
      "startOffset": 57,
      "word": "COULD"
    },
    {
      "alignedWord": "almost",
      "case": "success",
      "end": 4.4,
      "endOffset": 69,
      "phones": [
        {
          "duration": 0.05,
          "phone": "ao_B"
        },
        {
          "duration": 0.05,
          "phone": "l_I"
        },
        {
          "duration": 0.03,
          "phone": "m_I"
        },
        {
          "duration": 0.02,
          "phone": "ow_I"
        },
        {
          "duration": 0.08,
          "phone": "s_I"
        },
        {
          "duration": 0.04,
          "phone": "t_E"
        }
      ],
      "start": 4.13,
      "startOffset": 63,
      "word": "ALMOST"
    },
    {
      "alignedWord": "be",
      "case": "success",
      "end": 4.5600000000000005,
      "endOffset": 72,
      "phones": [
        {
          "duration": 0.08,
          "phone": "b_B"
        },
        {
          "duration": 0.07,
          "phone": "iy_E"
        }
      ],
      "start": 4.41,
      "startOffset": 70,
      "word": "BE"
    },
    {
      "alignedWord": "angry",
      "case": "success",
      "end": 4.859999999999999,
      "endOffset": 78,
      "phones": [
        {
          "duration": 0.06,
          "phone": "ae_B"
        },
        {
          "duration": 0.08,
          "phone": "ng_I"
        },
        {
          "duration": 0.04,
          "phone": "g_I"
        },
        {
          "duration": 0.07,
          "phone": "r_I"
        },
        {
          "duration": 0.05,
          "phone": "iy_E"
        }
      ],
      "start": 4.56,
      "startOffset": 73,
      "word": "ANGRY"
    },
    {
      "alignedWord": "herself",
      "case": "success",
      "end": 5.300000000000001,
      "endOffset": 86,
      "phones": [
        {
          "duration": 0.08,
          "phone": "hh_B"
        },
        {
          "duration": 0.02,
          "phone": "er_I"
        },
        {
          "duration": 0.11,
          "phone": "s_I"
        },
        {
          "duration": 0.09,
          "phone": "eh_I"
        },
        {
          "duration": 0.06,
          "phone": "l_I"
        },
        {
          "duration": 0.08,
          "phone": "f_E"
        }
      ],
      "start": 4.86,
      "startOffset": 79,
      "word": "HERSELF"
    },
    {
      "alignedWord": "at",
      "case": "success",
      "end": 5.470000000000001,
      "endOffset": 89,
      "phones": [
        {
          "duration": 0.08,
          "phone": "ae_B"
        },
        {
          "duration": 0.07,
          "phone": "t_E"
        }
      ],
      "start": 5.32,
      "startOffset": 87,
      "word": "AT"
    },
    {
      "alignedWord": "such",
      "case": "success",
      "end": 5.6899999999999995,
      "endOffset": 94,
      "phones": [
        {
          "duration": 0.04,
          "phone": "s_B"
        },
        {
          "duration": 0.09,
          "phone": "ah_I"
        },
        {
          "duration": 0.09,
          "phone": "ch_E"
        }
      ],
      "start": 5.47,
      "startOffset": 90,
      "word": "SUCH"
    },
    {
      "alignedWord": "angry",
      "case": "success",
      "end": 6.05,
      "endOffset": 100,
      "phones": [
        {
          "duration": 0.08,
          "phone": "ae_B"
        },
        {
          "duration": 0.09,
          "phone": "ng_I"
        },
        {
          "duration": 0.05,
          "phone": "g_I"
        },
        {
          "duration": 0.06,
          "phone": "r_I"
        },
        {
          "duration": 0.07,
          "phone": "iy_E"
        }
      ],
      "start": 5.7,
      "startOffset": 95,
      "word": "ANGRY"
    },
    {
      "alignedWord": "<unk>",
      "case": "success",
      "end": 6.85,
      "endOffset": 111,
      "phones": [
        {
          "duration": 0.79,
          "phone": "oov_S"
        }
      ],
      "start": 6.06,
      "startOffset": 101,
      "word": "INCIVILITY"
    },
    {
      "alignedWord": "but",
      "case": "success",
      "end": 7.25,
      "endOffset": 115,
      "phones": [
        {
          "duration": 0.04,
          "phone": "b_B"
        },
        {
          "duration": 0.05,
          "phone": "ah_I"
        },
        {
          "duration": 0.04,
          "phone": "t_E"
        }
      ],
      "start": 7.12,
      "startOffset": 112,
      "word": "BUT"
    },
    {
      "alignedWord": "she",
      "case": "success",
      "end": 7.38,
      "endOffset": 119,
      "phones": [
        {
          "duration": 0.07,
          "phone": "sh_B"
        },
        {
          "duration": 0.06,
          "phone": "iy_E"
        }
      ],
      "start": 7.25,
      "startOffset": 116,
      "word": "SHE"
    },
    {
      "alignedWord": "checked",
      "case": "success",
      "end": 7.62,
      "endOffset": 127,
      "phones": [
        {
          "duration": 0.11,
          "phone": "ch_B"
        },
        {
          "duration": 0.05,
          "phone": "eh_I"
        },
        {
          "duration": 0.07,
          "phone": "k_I"
        },
        {
          "duration": 0.01,
          "phone": "t_E"
        }
      ],
      "start": 7.38,
      "startOffset": 120,
      "word": "CHECKED"
    },
    {
      "alignedWord": "the",
      "case": "success",
      "end": 7.72,
      "endOffset": 131,
      "phones": [
        {
          "duration": 0.04,
          "phone": "dh_B"
        },
        {
          "duration": 0.06,
          "phone": "ah_E"
        }
      ],
      "start": 7.62,
      "startOffset": 128,
      "word": "THE"
    },
    {
      "alignedWord": "resentful",
      "case": "success",
      "end": 8.18,
      "endOffset": 141,
      "phones": [
        {
          "duration": 0.03,
          "phone": "r_B"
        },
        {
          "duration": 0.07,
          "phone": "ih_I"
        },
        {
          "duration": 0.06,
          "phone": "z_I"
        },
        {
          "duration": 0.06,
          "phone": "eh_I"
        },
        {
          "duration": 0.06,
          "phone": "n_I"
        },
        {
          "duration": 0.04,
          "phone": "t_I"
        },
        {
          "duration": 0.06,
          "phone": "f_I"
        },
        {
          "duration": 0.01,
          "phone": "ah_I"
        },
        {
          "duration": 0.07,
          "phone": "l_E"
        }
      ],
      "start": 7.72,
      "startOffset": 132,
      "word": "RESENTFUL"
    },
    {
      "alignedWord": "sensation",
      "case": "success",
      "end": 8.819999000000001,
      "endOffset": 151,
      "phones": [
        {
          "duration": 0.07,
          "phone": "s_B"
        },
        {
          "duration": 0.06,
          "phone": "eh_I"
        },
        {
          "duration": 0.08,
          "phone": "n_I"
        },
        {
          "duration": 0.08,
          "phone": "s_I"
        },
        {
          "duration": 0.07,
          "phone": "ey_I"
        },
        {
          "duration": 0.12,
          "phone": "sh_I"
        },
        {
          "duration": 0.06,
          "phone": "ah_I"
        },
        {
          "duration": 0.1,
          "phone": "n_E"
        }
      ],
      "start": 8.179999,
      "startOffset": 142,
      "word": "SENSATION"
    },
    {
      "alignedWord": "she",
      "case": "success",
      "end": 9.32,
      "endOffset": 155,
      "phones": [
        {
          "duration": 0.11,
          "phone": "sh_B"
        },
        {
          "duration": 0.06,
          "phone": "iy_E"
        }
      ],
      "start": 9.15,
      "startOffset": 152,
      "word": "SHE"
    },
    {
      "alignedWord": "remembered",
      "case": "success",
      "end": 9.74,
      "endOffset": 166,
      "phones": [
        {
          "duration": 0.01,
          "phone": "r_B"
        },
        {
          "duration": 0.11,
          "phone": "ih_I"
        },
        {
          "duration": 0.01,
          "phone": "m_I"
        },
        {
          "duration": 0.1,
          "phone": "eh_I"
        },
        {
          "duration": 0.03,
          "phone": "m_I"
        },
        {
          "duration": 0.05,
          "phone": "b_I"
        },
        {
          "duration": 0.06,
          "phone": "er_I"
        },
        {
          "duration": 0.05,
          "phone": "d_E"
        }
      ],
      "start": 9.32,
      "startOffset": 156,
      "word": "REMEMBERED"
    },
    {
      "alignedWord": "her",
      "case": "success",
      "end": 9.9,
      "endOffset": 170,
      "phones": [
        {
          "duration": 0.07,
          "phone": "hh_B"
        },
        {
          "duration": 0.09,
          "phone": "er_E"
        }
      ],
      "start": 9.74,
      "startOffset": 167,
      "word": "HER"
    },
    {
      "alignedWord": "own",
      "case": "success",
      "end": 10.06,
      "endOffset": 174,
      "phones": [
        {
          "duration": 0.09,
          "phone": "ow_B"
        },
        {
          "duration": 0.07,
          "phone": "n_E"
        }
      ],
      "start": 9.9,
      "startOffset": 171,
      "word": "OWN"
    },
    {
      "alignedWord": "ignorance",
      "case": "success",
      "end": 10.579998999999999,
      "endOffset": 184,
      "phones": [
        {
          "duration": 0.07,
          "phone": "ih_B"
        },
        {
          "duration": 0.07,
          "phone": "g_I"
        },
        {
          "duration": 0.05,
          "phone": "n_I"
        },
        {
          "duration": 0.08,
          "phone": "er_I"
        },
        {
          "duration": 0.06,
          "phone": "ah_I"
        },
        {
          "duration": 0.08,
          "phone": "n_I"
        },
        {
          "duration": 0.11,
          "phone": "s_E"
        }
      ],
      "start": 10.059999,
      "startOffset": 175,
      "word": "IGNORANCE"
    },
    {
      "alignedWord": "she",
      "case": "success",
      "end": 11.350000000000001,
      "endOffset": 188,
      "phones": [
        {
          "duration": 0.14,
          "phone": "sh_B"
        },
        {
          "duration": 0.08,
          "phone": "iy_E"
        }
      ],
      "start": 11.13,
      "startOffset": 185,
      "word": "SHE"
    },
    {
      "alignedWord": "knew",
      "case": "success",
      "end": 11.509999,
      "endOffset": 193,
      "phones": [
        {
          "duration": 0.07,
          "phone": "n_B"
        },
        {
          "duration": 0.09,
          "phone": "uw_E"
        }
      ],
      "start": 11.349999,
      "startOffset": 189,
      "word": "KNEW"
    },
    {
      "alignedWord": "not",
      "case": "success",
      "end": 11.719999000000001,
      "endOffset": 197,
      "phones": [
        {
          "duration": 0.05,
          "phone": "n_B"
        },
        {
          "duration": 0.1,
          "phone": "aa_I"
        },
        {
          "duration": 0.06,
          "phone": "t_E"
        }
      ],
      "start": 11.509999,
      "startOffset": 194,
      "word": "NOT"
    },
    {
      "alignedWord": "how",
      "case": "success",
      "end": 11.99,
      "endOffset": 201,
      "phones": [
        {
          "duration": 0.13,
          "phone": "hh_B"
        },
        {
          "duration": 0.13,
          "phone": "aw_E"
        }
      ],
      "start": 11.73,
      "startOffset": 198,
      "word": "HOW"
    },
    {
      "alignedWord": "such",
      "case": "success",
      "end": 12.23,
      "endOffset": 206,
      "phones": [
        {
          "duration": 0.08,
          "phone": "s_B"
        },
        {
          "duration": 0.09,
          "phone": "ah_I"
        },
        {
          "duration": 0.07,
          "phone": "ch_E"
        }
      ],
      "start": 11.99,
      "startOffset": 202,
      "word": "SUCH"
    },
    {
      "alignedWord": "an",
      "case": "success",
      "end": 12.41,
      "endOffset": 209,
      "phones": [
        {
          "duration": 0.04,
          "phone": "ah_B"
        },
        {
          "duration": 0.14,
          "phone": "n_E"
        }
      ],
      "start": 12.23,
      "startOffset": 207,
      "word": "AN"
    },
    {
      "alignedWord": "<unk>",
      "case": "success",
      "end": 12.75,
      "endOffset": 217,
      "phones": [
        {
          "duration": 0.31,
          "phone": "oov_S"
        }
      ],
      "start": 12.44,
      "startOffset": 210,
      "word": "OFFENCE"
    },
    {
      "alignedWord": "as",
      "case": "success",
      "end": 12.9,
      "endOffset": 220,
      "phones": [
        {
          "duration": 0.07,
          "phone": "eh_B"
        },
        {
          "duration": 0.08,
          "phone": "z_E"
        }
      ],
      "start": 12.75,
      "startOffset": 218,
      "word": "AS"
    },
    {
      "alignedWord": "hers",
      "case": "success",
      "end": 13.15,
      "endOffset": 225,
      "phones": [
        {
          "duration": 0.08,
          "phone": "hh_B"
        },
        {
          "duration": 0.09,
          "phone": "er_I"
        },
        {
          "duration": 0.08,
          "phone": "z_E"
        }
      ],
      "start": 12.9,
      "startOffset": 221,
      "word": "HERS"
    },
    {
      "alignedWord": "might",
      "case": "success",
      "end": 13.34,
      "endOffset": 231,
      "phones": [
        {
          "duration": 0.04,
          "phone": "m_B"
        },
        {
          "duration": 0.08,
          "phone": "ay_I"
        },
        {
          "duration": 0.07,
          "phone": "t_E"
        }
      ],
      "start": 13.15,
      "startOffset": 226,
      "word": "MIGHT"
    },
    {
      "alignedWord": "be",
      "case": "success",
      "end": 13.459999999999999,
      "endOffset": 234,
      "phones": [
        {
          "duration": 0.04,
          "phone": "b_B"
        },
        {
          "duration": 0.08,
          "phone": "iy_E"
        }
      ],
      "start": 13.34,
      "startOffset": 232,
      "word": "BE"
    },
    {
      "alignedWord": "classed",
      "case": "success",
      "end": 13.850000000000001,
      "endOffset": 242,
      "phones": [
        {
          "duration": 0.09,
          "phone": "k_B"
        },
        {
          "duration": 0.08,
          "phone": "l_I"
        },
        {
          "duration": 0.09,
          "phone": "ae_I"
        },
        {
          "duration": 0.06,
          "phone": "s_I"
        },
        {
          "duration": 0.07,
          "phone": "t_E"
        }
      ],
      "start": 13.46,
      "startOffset": 235,
      "word": "CLASSED"
    },
    {
      "alignedWord": "by",
      "case": "success",
      "end": 13.969999,
      "endOffset": 245,
      "phones": [
        {
          "duration": 0.07,
          "phone": "b_B"
        },
        {
          "duration": 0.05,
          "phone": "ay_E"
        }
      ],
      "start": 13.849999,
      "startOffset": 243,
      "word": "BY"
    },
    {
      "alignedWord": "the",
      "case": "success",
      "end": 14.089998999999999,
      "endOffset": 249,
      "phones": [
        {
          "duration": 0.07,
          "phone": "dh_B"
        },
        {
          "duration": 0.05,
          "phone": "ah_E"
        }
      ],
      "start": 13.969999,
      "startOffset": 246,
      "word": "THE"
    },
    {
      "alignedWord": "laws",
      "case": "success",
      "end": 14.44,
      "endOffset": 254,
      "phones": [
        {
          "duration": 0.11,
          "phone": "l_B"
        },
        {
          "duration": 0.15,
          "phone": "ao_I"
        },
        {
          "duration": 0.09,
          "phone": "z_E"
        }
      ],
      "start": 14.09,
      "startOffset": 250,
      "word": "LAWS"
    },
    {
      "alignedWord": "of",
      "case": "success",
      "end": 14.64,
      "endOffset": 257,
      "phones": [
        {
          "duration": 0.08,
          "phone": "ah_B"
        },
        {
          "duration": 0.1,
          "phone": "v_E"
        }
      ],
      "start": 14.46,
      "startOffset": 255,
      "word": "OF"
    },
    {
      "alignedWord": "worldly",
      "case": "success",
      "end": 14.989999,
      "endOffset": 265,
      "phones": [
        {
          "duration": 0.04,
          "phone": "w_B"
        },
        {
          "duration": 0.05,
          "phone": "er_I"
        },
        {
          "duration": 0.07,
          "phone": "l_I"
        },
        {
          "duration": 0.08,
          "phone": "d_I"
        },
        {
          "duration": 0.04,
          "phone": "l_I"
        },
        {
          "duration": 0.07,
          "phone": "iy_E"
        }
      ],
      "start": 14.639999,
      "startOffset": 258,
      "word": "WORLDLY"
    },
    {
      "alignedWord": "politeness",
      "case": "success",
      "end": 15.68,
      "endOffset": 276,
      "phones": [
        {
          "duration": 0.08,
          "phone": "p_B"
        },
        {
          "duration": 0.07,
          "phone": "ah_I"
        },
        {
          "duration": 0.09,
          "phone": "l_I"
        },
        {
          "duration": 0.08,
          "phone": "ay_I"
        },
        {
          "duration": 0.07,
          "phone": "t_I"
        },
        {
          "duration": 0.04,
          "phone": "n_I"
        },
        {
          "duration": 0.09,
          "phone": "ah_I"
        },
        {
          "duration": 0.17,
          "phone": "s_E"
        }
      ],
      "start": 14.99,
      "startOffset": 266,
      "word": "POLITENESS"
    }
  ]
}