{
  "transcript": "WONDER WHAT HUMBIRD'S BODY LOOKED LIKE NOW IF HE HIMSELF HADN'T BEEN BAYONET INSTRUCTOR HE'D HAVE GONE UP TO LINE THREE MONTHS SOONER PROBABLY BEEN KILLED WHERE'S THE DARNED BELL",
  "words": [
    {
      "alignedWord": "wonder",
      "case": "success",
      "end": 0.62,
      "endOffset": 6,
      "phones": [
        {
          "duration": 0.15,
          "phone": "w_B"
        },
        {
          "duration": 0.08,
          "phone": "ah_I"
        },
        {
          "duration": 0.03,
          "phone": "n_I"
        },
        {
          "duration": 0.06,
          "phone": "d_I"
        },
        {
          "duration": 0.06,
          "phone": "er_E"
        }
      ],
      "start": 0.24,
      "startOffset": 0,
      "word": "WONDER"
    },
    {
      "alignedWord": "what",
      "case": "success",
      "end": 0.79,
      "endOffset": 11,
      "phones": [
        {
          "duration": 0.05,
          "phone": "w_B"
        },
        {
          "duration": 0.05,
          "phone": "ah_I"
        },
        {
          "duration": 0.07,
          "phone": "t_E"
        }
      ],
      "start": 0.62,
      "startOffset": 7,
      "word": "WHAT"
    },
    {
      "alignedWord": "<unk>",
      "case": "success",
      "end": 1.28,
      "endOffset": 21,
      "phones": [
        {
          "duration": 0.49,
          "phone": "oov_S"
        }
      ],
      "start": 0.79,
      "startOffset": 12,
      "word": "HUMBIRD'S"
    },
    {
      "alignedWord": "body",
      "case": "success",
      "end": 1.62,
      "endOffset": 26,
      "phones": [
        {
          "duration": 0.09,
          "phone": "b_B"
        },
        {
          "duration": 0.09,
          "phone": "aa_I"
        },
        {
          "duration": 0.06,
          "phone": "d_I"
        },
        {
          "duration": 0.08,
          "phone": "iy_E"
        }
      ],
      "start": 1.3,
      "startOffset": 22,
      "word": "BODY"
    },
    {
      "alignedWord": "looked",
      "case": "success",
      "end": 1.86,
      "endOffset": 33,
      "phones": [
        {
          "duration": 0.06,
          "phone": "l_B"
        },
        {
          "duration": 0.04,
          "phone": "uh_I"
        },
        {
          "duration": 0.05,
          "phone": "k_I"
        },
        {
          "duration": 0.09,
          "phone": "t_E"
        }
      ],
      "start": 1.62,
      "startOffset": 27,
      "word": "LOOKED"
    },
    {
      "alignedWord": "like",
      "case": "success",
      "end": 2.0500000000000003,
      "endOffset": 38,
      "phones": [
        {
          "duration": 0.03,
          "phone": "l_B"
        },
        {
          "duration": 0.08,
          "phone": "ay_I"
        },
        {
          "duration": 0.08,
          "phone": "k_E"
        }
      ],
      "start": 1.86,
      "startOffset": 34,
      "word": "LIKE"
    },
    {
      "alignedWord": "now",
      "case": "success",
      "end": 2.4299999999999997,
      "endOffset": 42,
      "phones": [
        {
          "duration": 0.07,
          "phone": "n_B"
        },
        {
          "duration": 0.31,
          "phone": "aw_E"
        }
      ],
      "start": 2.05,
      "startOffset": 39,
      "word": "NOW"
    },
    {
      "alignedWord": "if",
      "case": "success",
      "end": 3.5100000000000002,
      "endOffset": 45,
      "phones": [
        {
          "duration": 0.15,
          "phone": "ih_B"
        },
        {
          "duration": 0.07,
          "phone": "f_E"
        }
      ],
      "start": 3.29,
      "startOffset": 43,
      "word": "IF"
    },
    {
      "alignedWord": "he",
      "case": "success",
      "end": 3.76,
      "endOffset": 48,
      "phones": [
        {
          "duration": 0.11,
          "phone": "hh_B"
        },
        {
          "duration": 0.14,
          "phone": "iy_E"
        }
      ],
      "start": 3.51,
      "startOffset": 46,
      "word": "HE"
    },
    {
      "alignedWord": "himself",
      "case": "success",
      "end": 4.279999999999999,
      "endOffset": 56,
      "phones": [
        {
          "duration": 0.01,
          "phone": "hh_B"
        },
        {
          "duration": 0.08,
          "phone": "ih_I"
        },
        {
          "duration": 0.08,
          "phone": "m_I"
        },
        {
          "duration": 0.09,
          "phone": "s_I"
        },
        {
          "duration": 0.11,
          "phone": "eh_I"
        },
        {
          "duration": 0.07,
          "phone": "l_I"
        },
        {
          "duration": 0.08,
          "phone": "f_E"
        }
      ],
      "start": 3.76,
      "startOffset": 49,
      "word": "HIMSELF"
    },
    {
      "alignedWord": "hadn't",
      "case": "success",
      "end": 4.59,
      "endOffset": 63,
      "phones": [
        {
          "duration": 0.06,
          "phone": "hh_B"
        },
        {
          "duration": 0.07,
          "phone": "ae_I"
        },
        {
          "duration": 0.03,
          "phone": "d_I"
        },
        {
          "duration": 0.07,
          "phone": "ah_I"
        },
        {
          "duration": 0.08,
          "phone": "n_E"
        }
      ],
      "start": 4.28,
      "startOffset": 57,
      "word": "HADN'T"
    },
    {
      "alignedWord": "been",
      "case": "success",
      "end": 4.85,
      "endOffset": 68,
      "phones": [
        {
          "duration": 0.06,
          "phone": "b_B"
        },
        {
          "duration": 0.1,
          "phone": "ih_I"
        },
        {
          "duration": 0.1,
          "phone": "n_E"
        }
      ],
      "start": 4.59,
      "startOffset": 64,
      "word": "BEEN"
    },
    {
      "alignedWord": "<unk>",
      "case": "success",
      "end": 5.38,
      "endOffset": 76,
      "phones": [
        {
          "duration": 0.53,
          "phone": "oov_S"
        }
      ],
      "start": 4.85,
      "startOffset": 69,
      "word": "BAYONET"
    },
    {
      "alignedWord": "instructor",
      "case": "success",
      "end": 6.06,
      "endOffset": 87,
      "phones": [
        {
          "duration": 0.01,
          "phone": "ih_B"
        },
        {
          "duration": 0.07,
          "phone": "n_I"
        },
        {
          "duration": 0.05,
          "phone": "s_I"
        },
        {
          "duration": 0.1,
          "phone": "t_I"
        },
        {
          "duration": 0.05,
          "phone": "r_I"
        },
        {
          "duration": 0.05,
          "phone": "ah_I"
        },
        {
          "duration": 0.07,
          "phone": "k_I"
        },
        {
          "duration": 0.09,
          "phone": "t_I"
        },
        {
          "duration": 0.19,
          "phone": "er_E"
        }
      ],
      "start": 5.38,
      "startOffset": 77,
      "word": "INSTRUCTOR"
    },
    {
      "alignedWord": "he'd",
      "case": "success",
      "end": 6.76,
      "endOffset": 92,
      "phones": [
        {
          "duration": 0.22,
          "phone": "hh_B"
        },
        {
          "duration": 0.06,
          "phone": "iy_I"
        },
        {
          "duration": 0.02,
          "phone": "d_E"
        }
      ],
      "start": 6.46,
      "startOffset": 88,
      "word": "HE'D"
    },
    {
      "alignedWord": "have",
      "case": "success",
      "end": 6.92,
      "endOffset": 97,
      "phones": [
        {
          "duration": 0.02,
          "phone": "hh_B"
        },
        {
          "duration": 0.04,
          "phone": "ae_I"
        },
        {
          "duration": 0.1,
          "phone": "v_E"
        }
      ],
      "start": 6.76,
      "startOffset": 93,
      "word": "HAVE"
    },
    {
      "alignedWord": "gone",
      "case": "success",
      "end": 7.17,
      "endOffset": 102,
      "phones": [
        {
          "duration": 0.06,
          "phone": "g_B"
        },
        {
          "duration": 0.12,
          "phone": "ao_I"
        },
        {
          "duration": 0.07,
          "phone": "n_E"
        }
      ],
      "start": 6.92,
      "startOffset": 98,
      "word": "GONE"
    },
    {
      "alignedWord": "up",
      "case": "success",
      "end": 7.33,
      "endOffset": 105,
      "phones": [
        {
          "duration": 0.06,
          "phone": "ah_B"
        },
        {
          "duration": 0.1,
          "phone": "p_E"
        }
      ],
      "start": 7.17,
      "startOffset": 103,
      "word": "UP"
    },
    {
      "alignedWord": "to",
      "case": "success",
      "end": 7.51,
      "endOffset": 108,
      "phones": [
        {
          "duration": 0.12,
          "phone": "t_B"
        },
        {
          "duration": 0.06,
          "phone": "uw_E"
        }
      ],
      "start": 7.33,
      "startOffset": 106,
      "word": "TO"
    },
    {
      "alignedWord": "line",
      "case": "success",
      "end": 7.84,
      "endOffset": 113,
      "phones": [
        {
          "duration": 0.1,
          "phone": "l_B"
        },
        {
          "duration": 0.12,
          "phone": "ay_I"
        },
        {
          "duration": 0.11,
          "phone": "n_E"
        }
      ],
      "start": 7.51,
      "startOffset": 109,
      "word": "LINE"
    },
    {
      "alignedWord": "three",
      "case": "success",
      "end": 8.16,
      "endOffset": 119,
      "phones": [
        {
          "duration": 0.12,
          "phone": "th_B"
        },
        {
          "duration": 0.08,
          "phone": "r_I"
        },
        {
          "duration": 0.11,
          "phone": "iy_E"
        }
      ],
      "start": 7.85,
      "startOffset": 114,
      "word": "THREE"
    },
    {
      "alignedWord": "months",
      "case": "success",
      "end": 8.479999999999999,
      "endOffset": 126,
      "phones": [
        {
          "duration": 0.08,
          "phone": "m_B"
        },
        {
          "duration": 0.07,
          "phone": "ah_I"
        },
        {
          "duration": 0.06,
          "phone": "n_I"
        },
        {
          "duration": 0.07,
          "phone": "th_I"
        },
        {
          "duration": 0.01,
          "phone": "s_E"
        }
      ],
      "start": 8.19,
      "startOffset": 120,
      "word": "MONTHS"
    },
    {
      "alignedWord": "sooner",
      "case": "success",
      "end": 8.98,
      "endOffset": 133,
      "phones": [
        {
          "duration": 0.16,
          "phone": "s_B"
        },
        {
          "duration": 0.13,
          "phone": "uw_I"
        },
        {
          "duration": 0.01,
          "phone": "n_I"
        },
        {
          "duration": 0.2,
          "phone": "er_E"
        }
      ],
      "start": 8.48,
      "startOffset": 127,
      "word": "SOONER"
    },
    {
      "alignedWord": "probably",
      "case": "success",
      "end": 9.5,
      "endOffset": 142,
      "phones": [
        {
          "duration": 0.09,
          "phone": "p_B"
        },
        {
          "duration": 0.06,
          "phone": "r_I"
        },
        {
          "duration": 0.07,
          "phone": "aa_I"
        },
        {
          "duration": 0.06,
          "phone": "b_I"
        },
        {
          "duration": 0.07,
          "phone": "ah_I"
        },
        {
          "duration": 0.04,
          "phone": "b_I"
        },
        {
          "duration": 0.06,
          "phone": "l_I"
        },
        {
          "duration": 0.06,
          "phone": "iy_E"
        }
      ],
      "start": 8.99,
      "startOffset": 134,
      "word": "PROBABLY"
    },
    {
      "alignedWord": "been",
      "case": "success",
      "end": 9.68,
      "endOffset": 147,
      "phones": [
        {
          "duration": 0.05,
          "phone": "b_B"
        },
        {
          "duration": 0.05,
          "phone": "ih_I"
        },
        {
          "duration": 0.08,
          "phone": "n_E"
        }
      ],
      "start": 9.5,
      "startOffset": 143,
      "word": "BEEN"
    },
    {
      "alignedWord": "killed",
      "case": "success",
      "end": 10.309999000000001,
      "endOffset": 154,
      "phones": [
        {
          "duration": 0.09,
          "phone": "k_B"
        },
        {
          "duration": 0.12,
          "phone": "ih_I"
        },
        {
          "duration": 0.13,
          "phone": "l_I"
        },
        {
          "duration": 0.29,
          "phone": "d_E"
        }
      ],
      "start": 9.679999,
      "startOffset": 148,
      "word": "KILLED"
    },
    {
      "alignedWord": "where's",
      "case": "success",
      "end": 11.02,
      "endOffset": 162,
      "phones": [
        {
          "duration": 0.11,
          "phone": "w_B"
        },
        {
          "duration": 0.08,
          "phone": "eh_I"
        },
        {
          "duration": 0.07,
          "phone": "r_I"
        },
        {
          "duration": 0.09,
          "phone": "z_E"
        }
      ],
      "start": 10.67,
      "startOffset": 155,
      "word": "WHERE'S"
    },
    {
      "alignedWord": "the",
      "case": "success",
      "end": 11.129999999999999,
      "endOffset": 166,
      "phones": [
        {
          "duration": 0.05,
          "phone": "dh_B"
        },
        {
          "duration": 0.06,
          "phone": "ah_E"
        }
      ],
      "start": 11.02,
      "startOffset": 163,
      "word": "THE"
    },
    {
      "alignedWord": "darned",
      "case": "success",
      "end": 11.520000000000001,
      "endOffset": 173,
      "phones": [
        {
          "duration": 0.12,
          "phone": "d_B"
        },
        {
          "duration": 0.09,
          "phone": "aa_I"
        },
        {
          "duration": 0.08,
          "phone": "r_I"
        },
        {
          "duration": 0.04,
          "phone": "n_I"
        },
        {
          "duration": 0.06,
          "phone": "d_E"
        }
      ],
      "start": 11.13,
      "startOffset": 167,
      "word": "DARNED"
    },
    {
      "alignedWord": "bell",
      "case": "success",
      "end": 11.909999,
      "endOffset": 178,
      "phones": [
        {
          "duration": 0.08,
          "phone": "b_B"
        },
        {
          "duration": 0.14,
          "phone": "eh_I"
        },
        {
          "duration": 0.13,
          "phone": "l_E"
        }
      ],
      "start": 11.559999,
      "startOffset": 174,
      "word": "BELL"
    }
  ]
}