{
  "transcript": "WHICH WAS UPWARDS OF A WEEK AGO I HAD BEEN MAKING DAILY EFFORTS TO MEET ITS MISTRESS IN HER WALKS AND ALWAYS DISAPPOINTED SHE MUST HAVE MANAGED IT SO ON PURPOSE HAD NIGHTLY KEPT REVOLVING IN MY MIND SOME PRETEXT FOR ANOTHER CALL",
  "words": [
    {
      "alignedWord": "which",
      "case": "success",
      "end": 0.36,
      "endOffset": 5,
      "phones": [
        {
          "duration": 0.07,
          "phone": "w_B"
        },
        {
          "duration": 0.05,
          "phone": "ih_I"
        },
        {
          "duration": 0.08,
          "phone": "ch_E"
        }
      ],
      "start": 0.16,
      "startOffset": 0,
      "word": "WHICH"
    },
    {
      "alignedWord": "was",
      "case": "success",
      "end": 0.55,
      "endOffset": 9,
      "phones": [
        {
          "duration": 0.05,
          "phone": "w_B"
        },
        {
          "duration": 0.06,
          "phone": "ah_I"
        },
        {
          "duration": 0.08,
          "phone": "z_E"
        }
      ],
      "start": 0.36,
      "startOffset": 6,
      "word": "WAS"
    },
    {
      "alignedWord": "upwards",
      "case": "success",
      "end": 0.99,
      "endOffset": 17,
      "phones": [
        {
          "duration": 0.12,
          "phone": "ah_B"
        },
        {
          "duration": 0.09,
          "phone": "p_I"
        },
        {
          "duration": 0.07,
          "phone": "w_I"
        },
        {
          "duration": 0.05,
          "phone": "er_I"
        },
        {
          "duration": 0.08,
          "phone": "d_I"
        },
        {
          "duration": 0.02,
          "phone": "z_E"
        }
      ],
      "start": 0.56,
      "startOffset": 10,
      "word": "UPWARDS"
    },
    {
      "alignedWord": "of",
      "case": "success",
      "end": 1.1099999999999999,
      "endOffset": 20,
      "phones": [
        {
          "duration": 0.06,
          "phone": "ah_B"
        },
        {
          "duration": 0.06,
          "phone": "v_E"
        }
      ],
      "start": 0.99,
      "startOffset": 18,
      "word": "OF"
    },
    {
      "alignedWord": "a",
      "case": "success",
      "end": 1.1700000000000002,
      "endOffset": 22,
      "phones": [
        {
          "duration": 0.06,
          "phone": "ah_S"
        }
      ],
      "start": 1.11,
      "startOffset": 21,
      "word": "A"
    },
    {
      "alignedWord": "week",
      "case": "success",
      "end": 1.4,
      "endOffset": 27,
      "phones": [
        {
          "duration": 0.07,
          "phone": "w_B"
        },
        {
          "duration": 0.09,
          "phone": "iy_I"
        },
        {
          "duration": 0.07,
          "phone": "k_E"
        }
      ],
      "start": 1.17,
      "startOffset": 23,
      "word": "WEEK"
    },
    {
      "alignedWord": "ago",
      "case": "success",
      "end": 1.8699999999999999,
      "endOffset": 31,
      "phones": [
        {
          "duration": 0.06,
          "phone": "ah_B"
        },
        {
          "duration": 0.1,
          "phone": "g_I"
        },
        {
          "duration": 0.31,
          "phone": "ow_E"
        }
      ],
      "start": 1.4,
      "startOffset": 28,
      "word": "AGO"
    },
    {
      "alignedWord": "i",
      "case": "success",
      "end": 2.34,
      "endOffset": 33,
      "phones": [
        {
          "duration": 0.15,
          "phone": "ay_S"
        }
      ],
      "start": 2.19,
      "startOffset": 32,
      "word": "I"
    },
    {
      "alignedWord": "had",
      "case": "success",
      "end": 2.51,
      "endOffset": 37,
      "phones": [
        {
          "duration": 0.06,
          "phone": "hh_B"
        },
        {
          "duration": 0.06,
          "phone": "ae_I"
        },
        {
          "duration": 0.05,
          "phone": "d_E"
        }
      ],
      "start": 2.34,
      "startOffset": 34,
      "word": "HAD"
    },
    {
      "alignedWord": "been",
      "case": "success",
      "end": 2.67,
      "endOffset": 42,
      "phones": [
        {
          "duration": 0.05,
          "phone": "b_B"
        },
        {
          "duration": 0.05,
          "phone": "ih_I"
        },
        {
          "duration": 0.06,
          "phone": "n_E"
        }
      ],
      "start": 2.51,
      "startOffset": 38,
      "word": "BEEN"
    },
    {
      "alignedWord": "making",
      "case": "success",
      "end": 3.05,
      "endOffset": 49,
      "phones": [
        {
          "duration": 0.05,
          "phone": "m_B"
        },
        {
          "duration": 0.1,
          "phone": "ey_I"
        },
        {
          "duration": 0.06,
          "phone": "k_I"
        },
        {
          "duration": 0.09,
          "phone": "ih_I"
        },
        {
          "duration": 0.08,
          "phone": "ng_E"
        }
      ],
      "start": 2.67,
      "startOffset": 43,
      "word": "MAKING"
    },
    {
      "alignedWord": "daily",
      "case": "success",
      "end": 3.44,
      "endOffset": 55,
      "phones": [
        {
          "duration": 0.09,
          "phone": "d_B"
        },
        {
          "duration": 0.11,
          "phone": "ey_I"
        },
        {
          "duration": 0.08,
          "phone": "l_I"
        },
        {
          "duration": 0.11,
          "phone": "iy_E"
        }
      ],
      "start": 3.05,
      "startOffset": 50,
      "word": "DAILY"
    },
    {
      "alignedWord": "efforts",
      "case": "success",
      "end": 3.8800000000000003,
      "endOffset": 63,
      "phones": [
        {
          "duration": 0.11,
          "phone": "eh_B"
        },
        {
          "duration": 0.11,
          "phone": "f_I"
        },
        {
          "duration": 0.05,
          "phone": "er_I"
        },
        {
          "duration": 0.07,
          "phone": "t_I"
        },
        {
          "duration": 0.07,
          "phone": "s_E"
        }
      ],
      "start": 3.47,
      "startOffset": 56,
      "word": "EFFORTS"
    },
    {
      "alignedWord": "to",
      "case": "success",
      "end": 4.02,
      "endOffset": 66,
      "phones": [
        {
          "duration": 0.06,
          "phone": "t_B"
        },
        {
          "duration": 0.08,
          "phone": "ih_E"
        }
      ],
      "start": 3.88,
      "startOffset": 64,
      "word": "TO"
    },
    {
      "alignedWord": "meet",
      "case": "success",
      "end": 4.2299999999999995,
      "endOffset": 71,
      "phones": [
        {
          "duration": 0.09,
          "phone": "m_B"
        },
        {
          "duration": 0.08,
          "phone": "iy_I"
        },
        {
          "duration": 0.04,
          "phone": "t_E"
        }
      ],
      "start": 4.02,
      "startOffset": 67,
      "word": "MEET"
    },
    {
      "alignedWord": "its",
      "case": "success",
      "end": 4.46,
      "endOffset": 75,
      "phones": [
        {
          "duration": 0.07,
          "phone": "ih_B"
        },
        {
          "duration": 0.07,
          "phone": "t_I"
        },
        {
          "duration": 0.08,
          "phone": "s_E"
        }
      ],
      "start": 4.24,
      "startOffset": 72,
      "word": "ITS"
    },
    {
      "alignedWord": "mistress",
      "case": "success",
      "end": 4.9399999999999995,
      "endOffset": 84,
      "phones": [
        {
          "duration": 0.08,
          "phone": "m_B"
        },
        {
          "duration": 0.08,
          "phone": "ih_I"
        },
        {
          "duration": 0.06,
          "phone": "s_I"
        },
        {
          "duration": 0.06,
          "phone": "t_I"
        },
        {
          "duration": 0.07,
          "phone": "r_I"
        },
        {
          "duration": 0.07,
          "phone": "ah_I"
        },
        {
          "duration": 0.06,
          "phone": "s_E"
        }
      ],
      "start": 4.46,
      "startOffset": 76,
      "word": "MISTRESS"
    },
    {
      "alignedWord": "in",
      "case": "success",
      "end": 5.07,
      "endOffset": 87,
      "phones": [
        {
          "duration": 0.07,
          "phone": "ih_B"
        },
        {
          "duration": 0.06,
          "phone": "n_E"
        }
      ],
      "start": 4.94,
      "startOffset": 85,
      "word": "IN"
    },
    {
      "alignedWord": "her",
      "case": "success",
      "end": 5.2,
      "endOffset": 91,
      "phones": [
        {
          "duration": 0.07,
          "phone": "hh_B"
        },
        {
          "duration": 0.06,
          "phone": "er_E"
        }
      ],
      "start": 5.07,
      "startOffset": 88,
      "word": "HER"
    },
    {
      "alignedWord": "walks",
      "case": "success",
      "end": 5.87,
      "endOffset": 97,
      "phones": [
        {
          "duration": 0.1,
          "phone": "w_B"
        },
        {
          "duration": 0.19,
          "phone": "ao_I"
        },
        {
          "duration": 0.18,
          "phone": "k_I"
        },
        {
          "duration": 0.2,
          "phone": "s_E"
        }
      ],
      "start": 5.2,
      "startOffset": 92,
      "word": "WALKS"
    },
    {
      "alignedWord": "and",
      "case": "success",
      "end": 6.46,
      "endOffset": 101,
      "phones": [
        {
          "duration": 0.07,
          "phone": "ae_B"
        },
        {
          "duration": 0.05,
          "phone": "n_I"
        },
        {
          "duration": 0.05,
          "phone": "d_E"
        }
      ],
      "start": 6.29,
      "startOffset": 98,
      "word": "AND"
    },
    {
      "alignedWord": "always",
      "case": "success",
      "end": 6.78,
      "endOffset": 108,
      "phones": [
        {
          "duration": 0.07,
          "phone": "ao_B"
        },
        {
          "duration": 0.05,
          "phone": "l_I"
        },
        {
          "duration": 0.08,
          "phone": "w_I"
        },
        {
          "duration": 0.06,
          "phone": "iy_I"
        },
        {
          "duration": 0.06,
          "phone": "z_E"
        }
      ],
      "start": 6.46,
      "startOffset": 102,
      "word": "ALWAYS"
    },
    {
      "alignedWord": "disappointed",
      "case": "success",
      "end": 7.71,
      "endOffset": 121,
      "phones": [
        {
          "duration": 0.07,
          "phone": "d_B"
        },
        {
          "duration": 0.07,
          "phone": "ih_I"
        },
        {
          "duration": 0.06,
          "phone": "s_I"
        },
        {
          "duration": 0.06,
          "phone": "ah_I"
        },
        {
          "duration": 0.1,
          "phone": "p_I"
        },
        {
          "duration": 0.1,
          "phone": "oy_I"
        },
        {
          "duration": 0.07,
          "phone": "n_I"
        },
        {
          "duration": 0.1,
          "phone": "t_I"
        },
        {
          "duration": 0.13,
          "phone": "ih_I"
        },
        {
          "duration": 0.17,
          "phone": "d_E"
        }
      ],
      "start": 6.78,
      "startOffset": 109,
      "word": "DISAPPOINTED"
    },
    {
      "alignedWord": "she",
      "case": "success",
      "end": 8.31,
      "endOffset": 125,
      "phones": [
        {
          "duration": 0.17,
          "phone": "sh_B"
        },
        {
          "duration": 0.06,
          "phone": "iy_E"
        }
      ],
      "start": 8.08,
      "startOffset": 122,
      "word": "SHE"
    },
    {
      "alignedWord": "must",
      "case": "success",
      "end": 8.569999,
      "endOffset": 130,
      "phones": [
        {
          "duration": 0.05,
          "phone": "m_B"
        },
        {
          "duration": 0.1,
          "phone": "ah_I"
        },
        {
          "duration": 0.03,
          "phone": "s_I"
        },
        {
          "duration": 0.08,
          "phone": "t_E"
        }
      ],
      "start": 8.309999,
      "startOffset": 126,
      "word": "MUST"
    },
    {
      "alignedWord": "have",
      "case": "success",
      "end": 8.71,
      "endOffset": 135,
      "phones": [
        {
          "duration": 0.04,
          "phone": "hh_B"
        },
        {
          "duration": 0.02,
          "phone": "ae_I"
        },
        {
          "duration": 0.08,
          "phone": "v_E"
        }
      ],
      "start": 8.57,
      "startOffset": 131,
      "word": "HAVE"
    },
    {
      "alignedWord": "managed",
      "case": "success",
      "end": 9.22,
      "endOffset": 143,
      "phones": [
        {
          "duration": 0.08,
          "phone": "m_B"
        },
        {
          "duration": 0.1,
          "phone": "ae_I"
        },
        {
          "duration": 0.04,
          "phone": "n_I"
        },
        {
          "duration": 0.1,
          "phone": "ih_I"
        },
        {
          "duration": 0.12,
          "phone": "jh_I"
        },
        {
          "duration": 0.07,
          "phone": "d_E"
        }
      ],
      "start": 8.71,
      "startOffset": 136,
      "word": "MANAGED"
    },
    {
      "alignedWord": "it",
      "case": "success",
      "end": 9.34,
      "endOffset": 146,
      "phones": [
        {
          "duration": 0.05,
          "phone": "ih_B"
        },
        {
          "duration": 0.07,
          "phone": "t_E"
        }
      ],
      "start": 9.22,
      "startOffset": 144,
      "word": "IT"
    },
    {
      "alignedWord": "so",
      "case": "success",
      "end": 9.54,
      "endOffset": 149,
      "phones": [
        {
          "duration": 0.09,
          "phone": "s_B"
        },
        {
          "duration": 0.11,
          "phone": "ow_E"
        }
      ],
      "start": 9.34,
      "startOffset": 147,
      "word": "SO"
    },
    {
      "alignedWord": "on",
      "case": "success",
      "end": 9.7,
      "endOffset": 152,
      "phones": [
        {
          "duration": 0.09,
          "phone": "ao_B"
        },
        {
          "duration": 0.07,
          "phone": "n_E"
        }
      ],
      "start": 9.54,
      "startOffset": 150,
      "word": "ON"
    },
    {
      "alignedWord": "purpose",
      "case": "success",
      "end": 10.319999999999999,
      "endOffset": 160,
      "phones": [
        {
          "duration": 0.08,
          "phone": "p_B"
        },
        {
          "duration": 0.08,
          "phone": "er_I"
        },
        {
          "duration": 0.12,
          "phone": "p_I"
        },
        {
          "duration": 0.15,
          "phone": "ah_I"
        },
        {
          "duration": 0.19,
          "phone": "s_E"
        }
      ],
      "start": 9.7,
      "startOffset": 153,
      "word": "PURPOSE"
    },
    {
      "alignedWord": "had",
      "case": "success",
      "end": 10.78,
      "endOffset": 164,
      "phones": [
        {
          "duration": 0.1,
          "phone": "hh_B"
        },
        {
          "duration": 0.08,
          "phone": "ae_I"
        },
        {
          "duration": 0.06,
          "phone": "d_E"
        }
      ],
      "start": 10.54,
      "startOffset": 161,
      "word": "HAD"
    },
    {
      "alignedWord": "nightly",
      "case": "success",
      "end": 11.219999999999999,
      "endOffset": 172,
      "phones": [
        {
          "duration": 0.08,
          "phone": "n_B"
        },
        {
          "duration": 0.11,
          "phone": "ay_I"
        },
        {
          "duration": 0.08,
          "phone": "t_I"
        },
        {
          "duration": 0.08,
          "phone": "l_I"
        },
        {
          "duration": 0.09,
          "phone": "iy_E"
        }
      ],
      "start": 10.78,
      "startOffset": 165,
      "word": "NIGHTLY"
    },
    {
      "alignedWord": "kept",
      "case": "success",
      "end": 11.519999,
      "endOffset": 177,
      "phones": [
        {
          "duration": 0.09,
          "phone": "k_B"
        },
        {
          "duration": 0.06,
          "phone": "eh_I"
        },
        {
          "duration": 0.07,
          "phone": "p_I"
        },
        {
          "duration": 0.08,
          "phone": "t_E"
        }
      ],
      "start": 11.219999,
      "startOffset": 173,
      "word": "KEPT"
    },
    {
      "alignedWord": "revolving",
      "case": "success",
      "end": 12.09,
      "endOffset": 187,
      "phones": [
        {
          "duration": 0.06,
          "phone": "r_B"
        },
        {
          "duration": 0.07,
          "phone": "iy_I"
        },
        {
          "duration": 0.08,
          "phone": "v_I"
        },
        {
          "duration": 0.08,
          "phone": "aa_I"
        },
        {
          "duration": 0.08,
          "phone": "l_I"
        },
        {
          "duration": 0.05,
          "phone": "v_I"
        },
        {
          "duration": 0.07,
          "phone": "ih_I"
        },
        {
          "duration": 0.08,
          "phone": "ng_E"
        }
      ],
      "start": 11.52,
      "startOffset": 178,
      "word": "REVOLVING"
    },
    {
      "alignedWord": "in",
      "case": "success",
      "end": 12.239999000000001,
      "endOffset": 190,
      "phones": [
        {
          "duration": 0.07,
          "phone": "ih_B"
        },
        {
          "duration": 0.07,
          "phone": "n_E"
        }
      ],
      "start": 12.099999,
      "startOffset": 188,
      "word": "IN"
    },
    {
      "alignedWord": "my",
      "case": "success",
      "end": 12.41,
      "endOffset": 193,
      "phones": [
        {
          "duration": 0.06,
          "phone": "m_B"
        },
        {
          "duration": 0.11,
          "phone": "ay_E"
        }
      ],
      "start": 12.24,
      "startOffset": 191,
      "word": "MY"
    },
    {
      "alignedWord": "mind",
      "case": "success",
      "end": 12.84,
      "endOffset": 198,
      "phones": [
        {
          "duration": 0.1,
          "phone": "m_B"
        },
        {
          "duration": 0.18,
          "phone": "ay_I"
        },
        {
          "duration": 0.06,
          "phone": "n_I"
        },
        {
          "duration": 0.09,
          "phone": "d_E"
        }
      ],
      "start": 12.41,
      "startOffset": 194,
      "word": "MIND"
    },
    {
      "alignedWord": "some",
      "case": "success",
      "end": 13.12,
      "endOffset": 203,
      "phones": [
        {
          "duration": 0.09,
          "phone": "s_B"
        },
        {
          "duration": 0.09,
          "phone": "ah_I"
        },
        {
          "duration": 0.1,
          "phone": "m_E"
        }
      ],
      "start": 12.84,
      "startOffset": 199,
      "word": "SOME"
    },
    {
      "alignedWord": "pretext",
      "case": "success",
      "end": 13.79,
      "endOffset": 211,
      "phones": [
        {
          "duration": 0.08,
          "phone": "p_B"
        },
        {
          "duration": 0.1,
          "phone": "r_I"
        },
        {
          "duration": 0.06,
          "phone": "iy_I"
        },
        {
          "duration": 0.1,
          "phone": "t_I"
        },
        {
          "duration": 0.12,
          "phone": "eh_I"
        },
        {
          "duration": 0.11,
          "phone": "k_I"
        },
        {
          "duration": 0.04,
          "phone": "s_I"
        },
        {
          "duration": 0.06,
          "phone": "t_E"
        }
      ],
      "start": 13.12,
      "startOffset": 204,
      "word": "PRETEXT"
    },
    {
      "alignedWord": "for",
      "case": "success",
      "end": 13.969999,
      "endOffset": 215,
      "phones": [
        {
          "duration": 0.09,
          "phone": "f_B"
        },
        {
          "duration": 0.08,
          "phone": "er_E"
        }
      ],
      "start": 13.799999,
      "startOffset": 212,
      "word": "FOR"
    },
    {
      "alignedWord": "another",
      "case": "success",
      "end": 14.309999,
      "endOffset": 223,
      "phones": [
        {
          "duration": 0.05,
          "phone": "ah_B"
        },
        {
          "duration": 0.08,
          "phone": "n_I"
        },
        {
          "duration": 0.05,
          "phone": "ah_I"
        },
        {
          "duration": 0.08,
          "phone": "dh_I"
        },
        {
          "duration": 0.08,
          "phone": "er_E"
        }
      ],
      "start": 13.969999,
      "startOffset": 216,
      "word": "ANOTHER"
    },
    {
      "alignedWord": "call",
      "case": "success",
      "end": 14.829998999999999,
      "endOffset": 228,
      "phones": [
        {
          "duration": 0.08,
          "phone": "k_B"
        },
        {
          "duration": 0.21,
          "phone": "ao_I"
        },
        {
          "duration": 0.23,
          "phone": "l_E"
        }
      ],
      "start": 14.309999,
      "startOffset": 224,
      "word": "CALL"
    }
  ]
}