{
  "transcript": "STOP THE ENGINES INSTEAD OF MAKING A ROW ABOUT IT ON DECK I HEARD HIM SAY GET UP RUN FLY HE SWORE ALSO THE ENGINEER SLID DOWN THE STARBOARD LADDER AND BOLTED ROUND THE SKYLIGHT TO THE ENGINE ROOM COMPANION",
  "words": [
    {
      "alignedWord": "stop",
      "case": "success",
      "end": 0.44999999999999996,
      "endOffset": 4,
      "phones": [
        {
          "duration": 0.06,
          "phone": "s_B"
        },
        {
          "duration": 0.08,
          "phone": "t_I"
        },
        {
          "duration": 0.07,
          "phone": "aa_I"
        },
        {
          "duration": 0.09,
          "phone": "p_E"
        }
      ],
      "start": 0.15,
      "startOffset": 0,
      "word": "STOP"
    },
    {
      "alignedWord": "the",
      "case": "success",
      "end": 0.62,
      "endOffset": 8,
      "phones": [
        {
          "duration": 0.07,
          "phone": "dh_B"
        },
        {
          "duration": 0.1,
          "phone": "iy_E"
        }
      ],
      "start": 0.45,
      "startOffset": 5,
      "word": "THE"
    },
    {
      "alignedWord": "engines",
      "case": "success",
      "end": 1.0899999999999999,
      "endOffset": 16,
      "phones": [
        {
          "duration": 0.08,
          "phone": "eh_B"
        },
        {
          "duration": 0.1,
          "phone": "n_I"
        },
        {
          "duration": 0.05,
          "phone": "jh_I"
        },
        {
          "duration": 0.08,
          "phone": "ah_I"
        },
        {
          "duration": 0.1,
          "phone": "n_I"
        },
        {
          "duration": 0.06,
          "phone": "z_E"
        }
      ],
      "start": 0.62,
      "startOffset": 9,
      "word": "ENGINES"
    },
    {
      "alignedWord": "instead",
      "case": "success",
      "end": 1.4000000000000001,
      "endOffset": 24,
      "phones": [
        {
          "duration": 0.06,
          "phone": "ih_B"
        },
        {
          "duration": 0.05,
          "phone": "n_I"
        },
        {
          "duration": 0.06,
          "phone": "s_I"
        },
        {
          "duration": 0.06,
          "phone": "t_I"
        },
        {
          "duration": 0.07,
          "phone": "eh_I"
        },
        {
          "duration": 0.01,
          "phone": "d_E"
        }
      ],
      "start": 1.09,
      "startOffset": 17,
      "word": "INSTEAD"
    },
    {
      "alignedWord": "of",
      "case": "success",
      "end": 1.5499999999999998,
      "endOffset": 27,
      "phones": [
        {
          "duration": 0.07,
          "phone": "ah_B"
        },
        {
          "duration": 0.08,
          "phone": "v_E"
        }
      ],
      "start": 1.4,
      "startOffset": 25,
      "word": "OF"
    },
    {
      "alignedWord": "making",
      "case": "success",
      "end": 1.87,
      "endOffset": 34,
      "phones": [
        {
          "duration": 0.06,
          "phone": "m_B"
        },
        {
          "duration": 0.08,
          "phone": "ey_I"
        },
        {
          "duration": 0.05,
          "phone": "k_I"
        },
        {
          "duration": 0.06,
          "phone": "ih_I"
        },
        {
          "duration": 0.07,
          "phone": "ng_E"
        }
      ],
      "start": 1.55,
      "startOffset": 28,
      "word": "MAKING"
    },
    {
      "alignedWord": "a",
      "case": "success",
      "end": 1.9600000000000002,
      "endOffset": 36,
      "phones": [
        {
          "duration": 0.09,
          "phone": "ah_S"
        }
      ],
      "start": 1.87,
      "startOffset": 35,
      "word": "A"
    },
    {
      "alignedWord": "row",
      "case": "success",
      "end": 2.27,
      "endOffset": 40,
      "phones": [
        {
          "duration": 0.12,
          "phone": "r_B"
        },
        {
          "duration": 0.19,
          "phone": "ow_E"
        }
      ],
      "start": 1.96,
      "startOffset": 37,
      "word": "ROW"
    },
    {
      "alignedWord": "about",
      "case": "success",
      "end": 2.55,
      "endOffset": 46,
      "phones": [
        {
          "duration": 0.05,
          "phone": "ah_B"
        },
        {
          "duration": 0.09,
          "phone": "b_I"
        },
        {
          "duration": 0.09,
          "phone": "aw_I"
        },
        {
          "duration": 0.05,
          "phone": "t_E"
        }
      ],
      "start": 2.27,
      "startOffset": 41,
      "word": "ABOUT"
    },
    {
      "alignedWord": "it",
      "case": "success",
      "end": 2.65,
      "endOffset": 49,
      "phones": [
        {
          "duration": 0.05,
          "phone": "ih_B"
        },
        {
          "duration": 0.05,
          "phone": "t_E"
        }
      ],
      "start": 2.55,
      "startOffset": 47,
      "word": "IT"
    },
    {
      "alignedWord": "on",
      "case": "success",
      "end": 2.81,
      "endOffset": 52,
      "phones": [
        {
          "duration": 0.09,
          "phone": "aa_B"
        },
        {
          "duration": 0.07,
          "phone": "n_E"
        }
      ],
      "start": 2.65,
      "startOffset": 50,
      "word": "ON"
    },
    {
      "alignedWord": "deck",
      "case": "success",
      "end": 3.24,
      "endOffset": 57,
      "phones": [
        {
          "duration": 0.1,
          "phone": "d_B"
        },
        {
          "duration": 0.12,
          "phone": "eh_I"
        },
        {
          "duration": 0.21,
          "phone": "k_E"
        }
      ],
      "start": 2.81,
      "startOffset": 53,
      "word": "DECK"
    },
    {
      "alignedWord": "i",
      "case": "success",
      "end": 4.2,
      "endOffset": 59,
      "phones": [
        {
          "duration": 0.19,
          "phone": "ay_S"
        }
      ],
      "start": 4.01,
      "startOffset": 58,
      "word": "I"
    },
    {
      "alignedWord": "heard",
      "case": "success",
      "end": 4.44,
      "endOffset": 65,
      "phones": [
        {
          "duration": 0.07,
          "phone": "hh_B"
        },
        {
          "duration": 0.11,
          "phone": "er_I"
        },
        {
          "duration": 0.06,
          "phone": "d_E"
        }
      ],
      "start": 4.2,
      "startOffset": 60,
      "word": "HEARD"
    },
    {
      "alignedWord": "him",
      "case": "success",
      "end": 4.6000000000000005,
      "endOffset": 69,
      "phones": [
        {
          "duration": 0.07,
          "phone": "ih_B"
        },
        {
          "duration": 0.09,
          "phone": "m_E"
        }
      ],
      "start": 4.44,
      "startOffset": 66,
      "word": "HIM"
    },
    {
      "alignedWord": "say",
      "case": "success",
      "end": 4.9399999999999995,
      "endOffset": 73,
      "phones": [
        {
          "duration": 0.11,
          "phone": "s_B"
        },
        {
          "duration": 0.23,
          "phone": "ey_E"
        }
      ],
      "start": 4.6,
      "startOffset": 70,
      "word": "SAY"
    },
    {
      "alignedWord": "get",
      "case": "success",
      "end": 5.3999999999999995,
      "endOffset": 77,
      "phones": [
        {
          "duration": 0.1,
          "phone": "g_B"
        },
        {
          "duration": 0.08,
          "phone": "eh_I"
        },
        {
          "duration": 0.04,
          "phone": "t_E"
        }
      ],
      "start": 5.18,
      "startOffset": 74,
      "word": "GET"
    },
    {
      "alignedWord": "up",
      "case": "success",
      "end": 5.71,
      "endOffset": 80,
      "phones": [
        {
          "duration": 0.09,
          "phone": "ah_B"
        },
        {
          "duration": 0.22,
          "phone": "p_E"
        }
      ],
      "start": 5.4,
      "startOffset": 78,
      "word": "UP"
    },
    {
      "alignedWord": "run",
      "case": "success",
      "end": 6.27,
      "endOffset": 84,
      "phones": [
        {
          "duration": 0.16,
          "phone": "r_B"
        },
        {
          "duration": 0.13,
          "phone": "ah_I"
        },
        {
          "duration": 0.21,
          "phone": "n_E"
        }
      ],
      "start": 5.77,
      "startOffset": 81,
      "word": "RUN"
    },
    {
      "alignedWord": "fly",
      "case": "success",
      "end": 6.93,
      "endOffset": 88,
      "phones": [
        {
          "duration": 0.11,
          "phone": "f_B"
        },
        {
          "duration": 0.09,
          "phone": "l_I"
        },
        {
          "duration": 0.36,
          "phone": "ay_E"
        }
      ],
      "start": 6.37,
      "startOffset": 85,
      "word": "FLY"
    },
    {
      "alignedWord": "he",
      "case": "success",
      "end": 7.79,
      "endOffset": 91,
      "phones": [
        {
          "duration": 0.11,
          "phone": "hh_B"
        },
        {
          "duration": 0.1,
          "phone": "iy_E"
        }
      ],
      "start": 7.58,
      "startOffset": 89,
      "word": "HE"
    },
    {
      "alignedWord": "swore",
      "case": "success",
      "end": 8.18,
      "endOffset": 97,
      "phones": [
        {
          "duration": 0.09,
          "phone": "s_B"
        },
        {
          "duration": 0.07,
          "phone": "w_I"
        },
        {
          "duration": 0.16,
          "phone": "ao_I"
        },
        {
          "duration": 0.07,
          "phone": "r_E"
        }
      ],
      "start": 7.79,
      "startOffset": 92,
      "word": "SWORE"
    },
    {
      "alignedWord": "also",
      "case": "success",
      "end": 8.769999,
      "endOffset": 102,
      "phones": [
        {
          "duration": 0.09,
          "phone": "ao_B"
        },
        {
          "duration": 0.1,
          "phone": "l_I"
        },
        {
          "duration": 0.13,
          "phone": "s_I"
        },
        {
          "duration": 0.27,
          "phone": "ow_E"
        }
      ],
      "start": 8.179999,
      "startOffset": 98,
      "word": "ALSO"
    },
    {
      "alignedWord": "the",
      "case": "success",
      "end": 9.639999,
      "endOffset": 106,
      "phones": [
        {
          "duration": 0.1,
          "phone": "dh_B"
        },
        {
          "duration": 0.07,
          "phone": "iy_E"
        }
      ],
      "start": 9.469999,
      "startOffset": 103,
      "word": "THE"
    },
    {
      "alignedWord": "engineer",
      "case": "success",
      "end": 10.159999,
      "endOffset": 115,
      "phones": [
        {
          "duration": 0.06,
          "phone": "eh_B"
        },
        {
          "duration": 0.08,
          "phone": "n_I"
        },
        {
          "duration": 0.04,
          "phone": "jh_I"
        },
        {
          "duration": 0.07,
          "phone": "ah_I"
        },
        {
          "duration": 0.05,
          "phone": "n_I"
        },
        {
          "duration": 0.13,
          "phone": "ih_I"
        },
        {
          "duration": 0.09,
          "phone": "r_E"
        }
      ],
      "start": 9.639999,
      "startOffset": 107,
      "word": "ENGINEER"
    },
    {
      "alignedWord": "slid",
      "case": "success",
      "end": 10.48,
      "endOffset": 120,
      "phones": [
        {
          "duration": 0.12,
          "phone": "s_B"
        },
        {
          "duration": 0.06,
          "phone": "l_I"
        },
        {
          "duration": 0.06,
          "phone": "ih_I"
        },
        {
          "duration": 0.08,
          "phone": "d_E"
        }
      ],
      "start": 10.16,
      "startOffset": 116,
      "word": "SLID"
    },
    {
      "alignedWord": "down",
      "case": "success",
      "end": 10.74,
      "endOffset": 125,
      "phones": [
        {
          "duration": 0.06,
          "phone": "d_B"
        },
        {
          "duration": 0.13,
          "phone": "aw_I"
        },
        {
          "duration": 0.07,
          "phone": "n_E"
        }
      ],
      "start": 10.48,
      "startOffset": 121,
      "word": "DOWN"
    },
    {
      "alignedWord": "the",
      "case": "success",
      "end": 10.82,
      "endOffset": 129,
      "phones": [
        {
          "duration": 0.04,
          "phone": "dh_B"
        },
        {
          "duration": 0.04,
          "phone": "ah_E"
        }
      ],
      "start": 10.74,
      "startOffset": 126,
      "word": "THE"
    },
    {
      "alignedWord": "<unk>",
      "case": "success",
      "end": 10.83,
      "endOffset": 139,
      "phones": [
        {
          "duration": 0.01,
          "phone": "oov_S"
        }
      ],
      "start": 10.82,
      "startOffset": 130,
      "word": "STARBOARD"
    },
    {
      "alignedWord": "ladder",
      "case": "success",
      "end": 11.769999,
      "endOffset": 146,
      "phones": [
        {
          "duration": 0.12,
          "phone": "l_B"
        },
        {
          "duration": 0.11,
          "phone": "ae_I"
        },
        {
          "duration": 0.09,
          "phone": "d_I"
        },
        {
          "duration": 0.14,
          "phone": "er_E"
        }
      ],
      "start": 11.309999,
      "startOffset": 140,
      "word": "LADDER"
    },
    {
      "alignedWord": "and",
      "case": "success",
      "end": 11.94,
      "endOffset": 150,
      "phones": [
        {
          "duration": 0.04,
          "phone": "ae_B"
        },
        {
          "duration": 0.07,
          "phone": "n_I"
        },
        {
          "duration": 0.06,
          "phone": "d_E"
        }
      ],
      "start": 11.77,
      "startOffset": 147,
      "word": "AND"
    },
    {
      "alignedWord": "<unk>",
      "case": "success",
      "end": 12.32,
      "endOffset": 157,
      "phones": [
        {
          "duration": 0.38,
          "phone": "oov_S"
        }
      ],
      "start": 11.94,
      "startOffset": 151,
      "word": "BOLTED"
    },
    {
      "alignedWord": "round",
      "case": "success",
      "end": 12.62,
      "endOffset": 163,
      "phones": [
        {
          "duration": 0.11,
          "phone": "r_B"
        },
        {
          "duration": 0.09,
          "phone": "aw_I"
        },
        {
          "duration": 0.05,
          "phone": "n_I"
        },
        {
          "duration": 0.04,
          "phone": "d_E"
        }
      ],
      "start": 12.33,
      "startOffset": 158,
      "word": "ROUND"
    },
    {
      "alignedWord": "the",
      "case": "success",
      "end": 12.7,
      "endOffset": 167,
      "phones": [
        {
          "duration": 0.01,
          "phone": "dh_B"
        },
        {
          "duration": 0.07,
          "phone": "ah_E"
        }
      ],
      "start": 12.62,
      "startOffset": 164,
      "word": "THE"
    },
    {
      "alignedWord": "skylight",
      "case": "success",
      "end": 13.239999999999998,
      "endOffset": 176,
      "phones": [
        {
          "duration": 0.09,
          "phone": "s_B"
        },
        {
          "duration": 0.05,
          "phone": "k_I"
        },
        {
          "duration": 0.12,
          "phone": "ay_I"
        },
        {
          "duration": 0.1,
          "phone": "l_I"
        },
        {
          "duration": 0.09,
          "phone": "ay_I"
        },
        {
          "duration": 0.09,
          "phone": "t_E"
        }
      ],
      "start": 12.7,
      "startOffset": 168,
      "word": "SKYLIGHT"
    },
    {
      "alignedWord": "to",
      "case": "success",
      "end": 13.659999999999998,
      "endOffset": 179,
      "phones": [
        {
          "duration": 0.07,
          "phone": "t_B"
        },
        {
          "duration": 0.05,
          "phone": "ih_E"
        }
      ],
      "start": 13.54,
      "startOffset": 177,
      "word": "TO"
    },
    {
      "alignedWord": "the",
      "case": "success",
      "end": 13.8,
      "endOffset": 183,
      "phones": [
        {
          "duration": 0.06,
          "phone": "dh_B"
        },
        {
          "duration": 0.08,
          "phone": "iy_E"
        }
      ],
      "start": 13.66,
      "startOffset": 180,
      "word": "THE"
    },
    {
      "alignedWord": "engine",
      "case": "success",
      "end": 14.119999,
      "endOffset": 190,
      "phones": [
        {
          "duration": 0.06,
          "phone": "eh_B"
        },
        {
          "duration": 0.08,
          "phone": "n_I"
        },
        {
          "duration": 0.03,
          "phone": "jh_I"
        },
        {
          "duration": 0.07,
          "phone": "ah_I"
        },
        {
          "duration": 0.08,
          "phone": "n_E"
        }
      ],
      "start": 13.799999,
      "startOffset": 184,
      "word": "ENGINE"
    },
    {
      "alignedWord": "room",
      "case": "success",
      "end": 14.319999999999999,
      "endOffset": 195,
      "phones": [
        {
          "duration": 0.05,
          "phone": "r_B"
        },
        {
          "duration": 0.08,
          "phone": "uw_I"
        },
        {
          "duration": 0.07,
          "phone": "m_E"
        }
      ],
      "start": 14.12,
      "startOffset": 191,
      "word": "ROOM"
    },
    {
      "alignedWord": "companion",
      "case": "success",
      "end": 15.02,
      "endOffset": 205,
      "phones": [
        {
          "duration": 0.05,
          "phone": "k_B"
        },
        {
          "duration": 0.05,
          "phone": "ah_I"
        },
        {
          "duration": 0.04,
          "phone": "m_I"
        },
        {
          "duration": 0.1,
          "phone": "p_I"
        },
        {
          "duration": 0.12,
          "phone": "ae_I"
        },
        {
          "duration": 0.06,
          "phone": "n_I"
        },
        {
          "duration": 0.06,
          "phone": "y_I"
        },
        {
          "duration": 0.07,
          "phone": "ah_I"
        },
        {
          "duration": 0.15,
          "phone": "n_E"
        }
      ],
      "start": 14.32,
      "startOffset": 196,
      "word": "COMPANION"
    }
  ]
}