{
  "transcript": "JUST AT THE END OF THIS FLAT LEDGE FARTHEST FROM WHERE THE BRIDLE PATH LEADS DOWN BUT NOT A HUNDRED YARDS FROM WHERE WE STAND THERE IS A SHEEP TRACK LEADING UP THE CLIFF IT STARTS",
  "words": [
    {
      "alignedWord": "just",
      "case": "success",
      "end": 0.89,
      "endOffset": 4,
      "phones": [
        {
          "duration": 0.15,
          "phone": "jh_B"
        },
        {
          "duration": 0.08,
          "phone": "ah_I"
        },
        {
          "duration": 0.08,
          "phone": "s_I"
        },
        {
          "duration": 0.07,
          "phone": "t_E"
        }
      ],
      "start": 0.51,
      "startOffset": 0,
      "word": "JUST"
    },
    {
      "alignedWord": "at",
      "case": "success",
      "end": 1.0,
      "endOffset": 7,
      "phones": [
        {
          "duration": 0.05,
          "phone": "ae_B"
        },
        {
          "duration": 0.06,
          "phone": "t_E"
        }
      ],
      "start": 0.89,
      "startOffset": 5,
      "word": "AT"
    },
    {
      "alignedWord": "the",
      "case": "success",
      "end": 1.17,
      "endOffset": 11,
      "phones": [
        {
          "duration": 0.06,
          "phone": "dh_B"
        },
        {
          "duration": 0.11,
          "phone": "iy_E"
        }
      ],
      "start": 1.0,
      "startOffset": 8,
      "word": "THE"
    },
    {
      "alignedWord": "end",
      "case": "success",
      "end": 1.3699999999999999,
      "endOffset": 15,
      "phones": [
        {
          "duration": 0.08,
          "phone": "eh_B"
        },
        {
          "duration": 0.1,
          "phone": "n_I"
        },
        {
          "duration": 0.02,
          "phone": "d_E"
        }
      ],
      "start": 1.17,
      "startOffset": 12,
      "word": "END"
    },
    {
      "alignedWord": "of",
      "case": "success",
      "end": 1.5100000000000002,
      "endOffset": 18,
      "phones": [
        {
          "duration": 0.04,
          "phone": "ah_B"
        },
        {
          "duration": 0.1,
          "phone": "v_E"
        }
      ],
      "start": 1.37,
      "startOffset": 16,
      "word": "OF"
    },
    {
      "alignedWord": "this",
      "case": "success",
      "end": 1.69,
      "endOffset": 23,
      "phones": [
        {
          "duration": 0.01,
          "phone": "dh_B"
        },
        {
          "duration": 0.11,
          "phone": "ih_I"
        },
        {
          "duration": 0.06,
          "phone": "s_E"
        }
      ],
      "start": 1.51,
      "startOffset": 19,
      "word": "THIS"
    },
    {
      "alignedWord": "flat",
      "case": "success",
      "end": 2.01,
      "endOffset": 28,
      "phones": [
        {
          "duration": 0.08,
          "phone": "f_B"
        },
        {
          "duration": 0.07,
          "phone": "l_I"
        },
        {
          "duration": 0.08,
          "phone": "ae_I"
        },
        {
          "duration": 0.09,
          "phone": "t_E"
        }
      ],
      "start": 1.69,
      "startOffset": 24,
      "word": "FLAT"
    },
    {
      "alignedWord": "ledge",
      "case": "success",
      "end": 2.5999999999999996,
      "endOffset": 34,
      "phones": [
        {
          "duration": 0.09,
          "phone": "l_B"
        },
        {
          "duration": 0.18,
          "phone": "eh_I"
        },
        {
          "duration": 0.32,
          "phone": "jh_E"
        }
      ],
      "start": 2.01,
      "startOffset": 29,
      "word": "LEDGE"
    },
    {
      "alignedWord": "farthest",
      "case": "success",
      "end": 3.5599999999999996,
      "endOffset": 43,
      "phones": [
        {
          "duration": 0.11,
          "phone": "f_B"
        },
        {
          "duration": 0.07,
          "phone": "aa_I"
        },
        {
          "duration": 0.08,
          "phone": "r_I"
        },
        {
          "duration": 0.04,
          "phone": "dh_I"
        },
        {
          "duration": 0.06,
          "phone": "ah_I"
        },
        {
          "duration": 0.08,
          "phone": "s_I"
        },
        {
          "duration": 0.05,
          "phone": "t_E"
        }
      ],
      "start": 3.07,
      "startOffset": 35,
      "word": "FARTHEST"
    },
    {
      "alignedWord": "from",
      "case": "success",
      "end": 3.7,
      "endOffset": 48,
      "phones": [
        {
          "duration": 0.04,
          "phone": "f_B"
        },
        {
          "duration": 0.04,
          "phone": "er_I"
        },
        {
          "duration": 0.06,
          "phone": "m_E"
        }
      ],
      "start": 3.56,
      "startOffset": 44,
      "word": "FROM"
    },
    {
      "alignedWord": "where",
      "case": "success",
      "end": 3.81,
      "endOffset": 54,
      "phones": [
        {
          "duration": 0.03,
          "phone": "w_B"
        },
        {
          "duration": 0.03,
          "phone": "eh_I"
        },
        {
          "duration": 0.05,
          "phone": "r_E"
        }
      ],
      "start": 3.7,
      "startOffset": 49,
      "word": "WHERE"
    },
    {
      "alignedWord": "the",
      "case": "success",
      "end": 3.93,
      "endOffset": 58,
      "phones": [
        {
          "duration": 0.05,
          "phone": "dh_B"
        },
        {
          "duration": 0.07,
          "phone": "ah_E"
        }
      ],
      "start": 3.81,
      "startOffset": 55,
      "word": "THE"
    },
    {
      "alignedWord": "<unk>",
      "case": "success",
      "end": 4.21,
      "endOffset": 65,
      "phones": [
        {
          "duration": 0.28,
          "phone": "oov_S"
        }
      ],
      "start": 3.93,
      "startOffset": 59,
      "word": "BRIDLE"
    },
    {
      "alignedWord": "path",
      "case": "success",
      "end": 4.55,
      "endOffset": 70,
      "phones": [
        {
          "duration": 0.11,
          "phone": "p_B"
        },
        {
          "duration": 0.13,
          "phone": "ae_I"
        },
        {
          "duration": 0.1,
          "phone": "th_E"
        }
      ],
      "start": 4.21,
      "startOffset": 66,
      "word": "PATH"
    },
    {
      "alignedWord": "leads",
      "case": "success",
      "end": 4.83,
      "endOffset": 76,
      "phones": [
        {
          "duration": 0.07,
          "phone": "l_B"
        },
        {
          "duration": 0.08,
          "phone": "iy_I"
        },
        {
          "duration": 0.06,
          "phone": "d_I"
        },
        {
          "duration": 0.07,
          "phone": "z_E"
        }
      ],
      "start": 4.55,
      "startOffset": 71,
      "word": "LEADS"
    },
    {
      "alignedWord": "down",
      "case": "success",
      "end": 5.42,
      "endOffset": 81,
      "phones": [
        {
          "duration": 0.09,
          "phone": "d_B"
        },
        {
          "duration": 0.25,
          "phone": "aw_I"
        },
        {
          "duration": 0.25,
          "phone": "n_E"
        }
      ],
      "start": 4.83,
      "startOffset": 77,
      "word": "DOWN"
    },
    {
      "alignedWord": "but",
      "case": "success",
      "end": 5.84,
      "endOffset": 85,
      "phones": [
        {
          "duration": 0.08,
          "phone": "b_B"
        },
        {
          "duration": 0.06,
          "phone": "ah_I"
        },
        {
          "duration": 0.08,
          "phone": "t_E"
        }
      ],
      "start": 5.62,
      "startOffset": 82,
      "word": "BUT"
    },
    {
      "alignedWord": "not",
      "case": "success",
      "end": 6.04,
      "endOffset": 89,
      "phones": [
        {
          "duration": 0.05,
          "phone": "n_B"
        },
        {
          "duration": 0.08,
          "phone": "aa_I"
        },
        {
          "duration": 0.07,
          "phone": "t_E"
        }
      ],
      "start": 5.84,
      "startOffset": 86,
      "word": "NOT"
    },
    {
      "alignedWord": "a",
      "case": "success",
      "end": 6.08,
      "endOffset": 91,
      "phones": [
        {
          "duration": 0.04,
          "phone": "ah_S"
        }
      ],
      "start": 6.04,
      "startOffset": 90,
      "word": "A"
    },
    {
      "alignedWord": "hundred",
      "case": "success",
      "end": 6.33,
      "endOffset": 99,
      "phones": [
        {
          "duration": 0.03,
          "phone": "hh_B"
        },
        {
          "duration": 0.03,
          "phone": "ah_I"
        },
        {
          "duration": 0.06,
          "phone": "n_I"
        },
        {
          "duration": 0.06,
          "phone": "er_I"
        },
        {
          "duration": 0.07,
          "phone": "d_E"
        }
      ],
      "start": 6.08,
      "startOffset": 92,
      "word": "HUNDRED"
    },
    {
      "alignedWord": "yards",
      "case": "success",
      "end": 6.73,
      "endOffset": 105,
      "phones": [
        {
          "duration": 0.07,
          "phone": "y_B"
        },
        {
          "duration": 0.1,
          "phone": "aa_I"
        },
        {
          "duration": 0.1,
          "phone": "r_I"
        },
        {
          "duration": 0.07,
          "phone": "d_I"
        },
        {
          "duration": 0.06,
          "phone": "z_E"
        }
      ],
      "start": 6.33,
      "startOffset": 100,
      "word": "YARDS"
    },
    {
      "alignedWord": "from",
      "case": "success",
      "end": 6.91,
      "endOffset": 110,
      "phones": [
        {
          "duration": 0.05,
          "phone": "f_B"
        },
        {
          "duration": 0.06,
          "phone": "er_I"
        },
        {
          "duration": 0.07,
          "phone": "m_E"
        }
      ],
      "start": 6.73,
      "startOffset": 106,
      "word": "FROM"
    },
    {
      "alignedWord": "where",
      "case": "success",
      "end": 7.08,
      "endOffset": 116,
      "phones": [
        {
          "duration": 0.04,
          "phone": "w_B"
        },
        {
          "duration": 0.08,
          "phone": "eh_I"
        },
        {
          "duration": 0.05,
          "phone": "r_E"
        }
      ],
      "start": 6.91,
      "startOffset": 111,
      "word": "WHERE"
    },
    {
      "alignedWord": "we",
      "case": "success",
      "end": 7.21,
      "endOffset": 119,
      "phones": [
        {
          "duration": 0.07,
          "phone": "w_B"
        },
        {
          "duration": 0.06,
          "phone": "iy_E"
        }
      ],
      "start": 7.08,
      "startOffset": 117,
      "word": "WE"
    },
    {
      "alignedWord": "stand",
      "case": "success",
      "end": 7.82,
      "endOffset": 125,
      "phones": [
        {
          "duration": 0.07,
          "phone": "s_B"
        },
        {
          "duration": 0.09,
          "phone": "t_I"
        },
        {
          "duration": 0.19,
          "phone": "ae_I"
        },
        {
          "duration": 0.11,
          "phone": "n_I"
        },
        {
          "duration": 0.15,
          "phone": "d_E"
        }
      ],
      "start": 7.21,
      "startOffset": 120,
      "word": "STAND"
    },
    {
      "alignedWord": "there",
      "case": "success",
      "end": 8.75,
      "endOffset": 131,
      "phones": [
        {
          "duration": 0.07,
          "phone": "dh_B"
        },
        {
          "duration": 0.05,
          "phone": "eh_I"
        },
        {
          "duration": 0.05,
          "phone": "r_E"
        }
      ],
      "start": 8.58,
      "startOffset": 126,
      "word": "THERE"
    },
    {
      "alignedWord": "is",
      "case": "success",
      "end": 8.86,
      "endOffset": 134,
      "phones": [
        {
          "duration": 0.05,
          "phone": "ih_B"
        },
        {
          "duration": 0.06,
          "phone": "z_E"
        }
      ],
      "start": 8.75,
      "startOffset": 132,
      "word": "IS"
    },
    {
      "alignedWord": "a",
      "case": "success",
      "end": 8.93,
      "endOffset": 136,
      "phones": [
        {
          "duration": 0.07,
          "phone": "ah_S"
        }
      ],
      "start": 8.86,
      "startOffset": 135,
      "word": "A"
    },
    {
      "alignedWord": "sheep",
      "case": "success",
      "end": 9.219999,
      "endOffset": 142,
      "phones": [
        {
          "duration": 0.15,
          "phone": "sh_B"
        },
        {
          "duration": 0.07,
          "phone": "iy_I"
        },
        {
          "duration": 0.07,
          "phone": "p_E"
        }
      ],
      "start": 8.929999,
      "startOffset": 137,
      "word": "SHEEP"
    },
    {
      "alignedWord": "track",
      "case": "success",
      "end": 9.600000000000001,
      "endOffset": 148,
      "phones": [
        {
          "duration": 0.07,
          "phone": "t_B"
        },
        {
          "duration": 0.09,
          "phone": "r_I"
        },
        {
          "duration": 0.1,
          "phone": "ae_I"
        },
        {
          "duration": 0.12,
          "phone": "k_E"
        }
      ],
      "start": 9.22,
      "startOffset": 143,
      "word": "TRACK"
    },
    {
      "alignedWord": "leading",
      "case": "success",
      "end": 9.930000000000001,
      "endOffset": 156,
      "phones": [
        {
          "duration": 0.09,
          "phone": "l_B"
        },
        {
          "duration": 0.06,
          "phone": "iy_I"
        },
        {
          "duration": 0.03,
          "phone": "d_I"
        },
        {
          "duration": 0.06,
          "phone": "ih_I"
        },
        {
          "duration": 0.06,
          "phone": "ng_E"
        }
      ],
      "start": 9.63,
      "startOffset": 149,
      "word": "LEADING"
    },
    {
      "alignedWord": "up",
      "case": "success",
      "end": 10.029999,
      "endOffset": 159,
      "phones": [
        {
          "duration": 0.03,
          "phone": "ah_B"
        },
        {
          "duration": 0.07,
          "phone": "p_E"
        }
      ],
      "start": 9.929999,
      "startOffset": 157,
      "word": "UP"
    },
    {
      "alignedWord": "the",
      "case": "success",
      "end": 10.139999999999999,
      "endOffset": 163,
      "phones": [
        {
          "duration": 0.05,
          "phone": "dh_B"
        },
        {
          "duration": 0.06,
          "phone": "ah_E"
        }
      ],
      "start": 10.03,
      "startOffset": 160,
      "word": "THE"
    },
    {
      "alignedWord": "cliff",
      "case": "success",
      "end": 10.709999,
      "endOffset": 169,
      "phones": [
        {
          "duration": 0.1,
          "phone": "k_B"
        },
        {
          "duration": 0.06,
          "phone": "l_I"
        },
        {
          "duration": 0.12,
          "phone": "ih_I"
        },
        {
          "duration": 0.29,
          "phone": "f_E"
        }
      ],
      "start": 10.139999,
      "startOffset": 164,
      "word": "CLIFF"
    },
    {
      "alignedWord": "it",
      "case": "success",
      "end": 11.91,
      "endOffset": 172,
      "phones": [
        {
          "duration": 0.13,
          "phone": "ih_B"
        },
        {
          "duration": 0.07,
          "phone": "t_E"
        }
      ],
      "start": 11.71,
      "startOffset": 170,
      "word": "IT"
    },
    {
      "alignedWord": "starts",
      "case": "success",
      "end": 12.71,
      "endOffset": 179,
      "phones": [
        {
          "duration": 0.11,
          "phone": "s_B"
        },
        {
          "duration": 0.07,
          "phone": "t_I"
        },
        {
          "duration": 0.07,
          "phone": "aa_I"
        },
        {
          "duration": 0.06,
          "phone": "r_I"
        },
        {
          "duration": 0.09,
          "phone": "t_I"
        },
        {
          "duration": 0.39,
          "phone": "s_E"
        }
      ],
      "start": 11.92,
      "startOffset": 173,
      "word": "STARTS"
    }
  ]
}