{
  "transcript": "THUS HE WENT ON FOR A TIME THAT SEEMED WITHOUT END AND YET WAS REALLY BUT A MINUTE OR TWO AND BY DEGREES I FELT THE WIND THAT WE COULD SCARCE PERCEIVE AT ALL ON THE UNDER CLIFF BLOW FRESHER AND COLD ON THE CLIFF SIDE",
  "words": [
    {
      "alignedWord": "thus",
      "case": "success",
      "end": 1.13,
      "endOffset": 4,
      "phones": [
        {
          "duration": 0.16,
          "phone": "dh_B"
        },
        {
          "duration": 0.1,
          "phone": "ah_I"
        },
        {
          "duration": 0.34,
          "phone": "s_E"
        }
      ],
      "start": 0.53,
      "startOffset": 0,
      "word": "THUS"
    },
    {
      "alignedWord": "he",
      "case": "success",
      "end": 1.38,
      "endOffset": 7,
      "phones": [
        {
          "duration": 0.13,
          "phone": "hh_B"
        },
        {
          "duration": 0.04,
          "phone": "iy_E"
        }
      ],
      "start": 1.21,
      "startOffset": 5,
      "word": "HE"
    },
    {
      "alignedWord": "went",
      "case": "success",
      "end": 1.5899999999999999,
      "endOffset": 12,
      "phones": [
        {
          "duration": 0.06,
          "phone": "w_B"
        },
        {
          "duration": 0.05,
          "phone": "eh_I"
        },
        {
          "duration": 0.05,
          "phone": "n_I"
        },
        {
          "duration": 0.05,
          "phone": "t_E"
        }
      ],
      "start": 1.38,
      "startOffset": 8,
      "word": "WENT"
    },
    {
      "alignedWord": "on",
      "case": "success",
      "end": 1.78,
      "endOffset": 15,
      "phones": [
        {
          "duration": 0.11,
          "phone": "aa_B"
        },
        {
          "duration": 0.08,
          "phone": "n_E"
        }
      ],
      "start": 1.59,
      "startOffset": 13,
      "word": "ON"
    },
    {
      "alignedWord": "for",
      "case": "success",
      "end": 1.95,
      "endOffset": 19,
      "phones": [
        {
          "duration": 0.1,
          "phone": "f_B"
        },
        {
          "duration": 0.07,
          "phone": "er_E"
        }
      ],
      "start": 1.78,
      "startOffset": 16,
      "word": "FOR"
    },
    {
      "alignedWord": "a",
      "case": "success",
      "end": 2.02,
      "endOffset": 21,
      "phones": [
        {
          "duration": 0.07,
          "phone": "ah_S"
        }
      ],
      "start": 1.95,
      "startOffset": 20,
      "word": "A"
    },
    {
      "alignedWord": "time",
      "case": "success",
      "end": 2.39,
      "endOffset": 26,
      "phones": [
        {
          "duration": 0.11,
          "phone": "t_B"
        },
        {
          "duration": 0.18,
          "phone": "ay_I"
        },
        {
          "duration": 0.08,
          "phone": "m_E"
        }
      ],
      "start": 2.02,
      "startOffset": 22,
      "word": "TIME"
    },
    {
      "alignedWord": "that",
      "case": "success",
      "end": 2.5300000000000002,
      "endOffset": 31,
      "phones": [
        {
          "duration": 0.03,
          "phone": "dh_B"
        },
        {
          "duration": 0.04,
          "phone": "ah_I"
        },
        {
          "duration": 0.07,
          "phone": "t_E"
        }
      ],
      "start": 2.39,
      "startOffset": 27,
      "word": "THAT"
    },
    {
      "alignedWord": "seemed",
      "case": "success",
      "end": 2.8,
      "endOffset": 38,
      "phones": [
        {
          "duration": 0.13,
          "phone": "s_B"
        },
        {
          "duration": 0.08,
          "phone": "iy_I"
        },
        {
          "duration": 0.05,
          "phone": "m_I"
        },
        {
          "duration": 0.01,
          "phone": "d_E"
        }
      ],
      "start": 2.53,
      "startOffset": 32,
      "word": "SEEMED"
    },
    {
      "alignedWord": "without",
      "case": "success",
      "end": 3.15,
      "endOffset": 46,
      "phones": [
        {
          "duration": 0.07,
          "phone": "w_B"
        },
        {
          "duration": 0.04,
          "phone": "ih_I"
        },
        {
          "duration": 0.08,
          "phone": "th_I"
        },
        {
          "duration": 0.08,
          "phone": "aw_I"
        },
        {
          "duration": 0.07,
          "phone": "t_E"
        }
      ],
      "start": 2.81,
      "startOffset": 39,
      "word": "WITHOUT"
    },
    {
      "alignedWord": "end",
      "case": "success",
      "end": 3.58,
      "endOffset": 50,
      "phones": [
        {
          "duration": 0.17,
          "phone": "eh_B"
        },
        {
          "duration": 0.12,
          "phone": "n_I"
        },
        {
          "duration": 0.14,
          "phone": "d_E"
        }
      ],
      "start": 3.15,
      "startOffset": 47,
      "word": "END"
    },
    {
      "alignedWord": "and",
      "case": "success",
      "end": 3.8000000000000003,
      "endOffset": 54,
      "phones": [
        {
          "duration": 0.07,
          "phone": "ae_B"
        },
        {
          "duration": 0.04,
          "phone": "n_I"
        },
        {
          "duration": 0.05,
          "phone": "d_E"
        }
      ],
      "start": 3.64,
      "startOffset": 51,
      "word": "AND"
    },
    {
      "alignedWord": "yet",
      "case": "success",
      "end": 4.279999999999999,
      "endOffset": 58,
      "phones": [
        {
          "duration": 0.07,
          "phone": "y_B"
        },
        {
          "duration": 0.11,
          "phone": "eh_I"
        },
        {
          "duration": 0.3,
          "phone": "t_E"
        }
      ],
      "start": 3.8,
      "startOffset": 55,
      "word": "YET"
    },
    {
      "alignedWord": "was",
      "case": "success",
      "end": 4.87,
      "endOffset": 62,
      "phones": [
        {
          "duration": 0.11,
          "phone": "w_B"
        },
        {
          "duration": 0.07,
          "phone": "ah_I"
        },
        {
          "duration": 0.11,
          "phone": "z_E"
        }
      ],
      "start": 4.58,
      "startOffset": 59,
      "word": "WAS"
    },
    {
      "alignedWord": "really",
      "case": "success",
      "end": 5.13,
      "endOffset": 69,
      "phones": [
        {
          "duration": 0.05,
          "phone": "r_B"
        },
        {
          "duration": 0.06,
          "phone": "ih_I"
        },
        {
          "duration": 0.08,
          "phone": "l_I"
        },
        {
          "duration": 0.07,
          "phone": "iy_E"
        }
      ],
      "start": 4.87,
      "startOffset": 63,
      "word": "REALLY"
    },
    {
      "alignedWord": "but",
      "case": "success",
      "end": 5.29,
      "endOffset": 73,
      "phones": [
        {
          "duration": 0.07,
          "phone": "b_B"
        },
        {
          "duration": 0.06,
          "phone": "ah_I"
        },
        {
          "duration": 0.03,
          "phone": "t_E"
        }
      ],
      "start": 5.13,
      "startOffset": 70,
      "word": "BUT"
    },
    {
      "alignedWord": "a",
      "case": "success",
      "end": 5.34,
      "endOffset": 75,
      "phones": [
        {
          "duration": 0.05,
          "phone": "ah_S"
        }
      ],
      "start": 5.29,
      "startOffset": 74,
      "word": "A"
    },
    {
      "alignedWord": "minute",
      "case": "success",
      "end": 5.64,
      "endOffset": 82,
      "phones": [
        {
          "duration": 0.06,
          "phone": "m_B"
        },
        {
          "duration": 0.08,
          "phone": "ih_I"
        },
        {
          "duration": 0.04,
          "phone": "n_I"
        },
        {
          "duration": 0.09,
          "phone": "ah_I"
        },
        {
          "duration": 0.03,
          "phone": "t_E"
        }
      ],
      "start": 5.34,
      "startOffset": 76,
      "word": "MINUTE"
    },
    {
      "alignedWord": "or",
      "case": "success",
      "end": 5.77,
      "endOffset": 85,
      "phones": [
        {
          "duration": 0.08,
          "phone": "ao_B"
        },
        {
          "duration": 0.05,
          "phone": "r_E"
        }
      ],
      "start": 5.64,
      "startOffset": 83,
      "word": "OR"
    },
    {
      "alignedWord": "two",
      "case": "success",
      "end": 6.239999999999999,
      "endOffset": 89,
      "phones": [
        {
          "duration": 0.13,
          "phone": "t_B"
        },
        {
          "duration": 0.34,
          "phone": "uw_E"
        }
      ],
      "start": 5.77,
      "startOffset": 86,
      "word": "TWO"
    },
    {
      "alignedWord": "and",
      "case": "success",
      "end": 7.49,
      "endOffset": 93,
      "phones": [
        {
          "duration": 0.1,
          "phone": "ae_B"
        },
        {
          "duration": 0.05,
          "phone": "n_I"
        },
        {
          "duration": 0.05,
          "phone": "d_E"
        }
      ],
      "start": 7.29,
      "startOffset": 90,
      "word": "AND"
    },
    {
      "alignedWord": "by",
      "case": "success",
      "end": 7.63,
      "endOffset": 96,
      "phones": [
        {
          "duration": 0.06,
          "phone": "b_B"
        },
        {
          "duration": 0.08,
          "phone": "ay_E"
        }
      ],
      "start": 7.49,
      "startOffset": 94,
      "word": "BY"
    },
    {
      "alignedWord": "degrees",
      "case": "success",
      "end": 8.23,
      "endOffset": 104,
      "phones": [
        {
          "duration": 0.05,
          "phone": "d_B"
        },
        {
          "duration": 0.06,
          "phone": "ih_I"
        },
        {
          "duration": 0.07,
          "phone": "g_I"
        },
        {
          "duration": 0.1,
          "phone": "r_I"
        },
        {
          "duration": 0.19,
          "phone": "iy_I"
        },
        {
          "duration": 0.13,
          "phone": "z_E"
        }
      ],
      "start": 7.63,
      "startOffset": 97,
      "word": "DEGREES"
    },
    {
      "alignedWord": "i",
      "case": "success",
      "end": 8.31,
      "endOffset": 106,
      "phones": [
        {
          "duration": 0.08,
          "phone": "ay_S"
        }
      ],
      "start": 8.23,
      "startOffset": 105,
      "word": "I"
    },
    {
      "alignedWord": "felt",
      "case": "success",
      "end": 8.539999,
      "endOffset": 111,
      "phones": [
        {
          "duration": 0.07,
          "phone": "f_B"
        },
        {
          "duration": 0.06,
          "phone": "eh_I"
        },
        {
          "duration": 0.05,
          "phone": "l_I"
        },
        {
          "duration": 0.05,
          "phone": "t_E"
        }
      ],
      "start": 8.309999,
      "startOffset": 107,
      "word": "FELT"
    },
    {
      "alignedWord": "the",
      "case": "success",
      "end": 8.649999999999999,
      "endOffset": 115,
      "phones": [
        {
          "duration": 0.05,
          "phone": "dh_B"
        },
        {
          "duration": 0.06,
          "phone": "ah_E"
        }
      ],
      "start": 8.54,
      "startOffset": 112,
      "word": "THE"
    },
    {
      "alignedWord": "wind",
      "case": "success",
      "end": 9.27,
      "endOffset": 120,
      "phones": [
        {
          "duration": 0.09,
          "phone": "w_B"
        },
        {
          "duration": 0.17,
          "phone": "ih_I"
        },
        {
          "duration": 0.22,
          "phone": "n_I"
        },
        {
          "duration": 0.14,
          "phone": "d_E"
        }
      ],
      "start": 8.65,
      "startOffset": 116,
      "word": "WIND"
    },
    {
      "alignedWord": "that",
      "case": "success",
      "end": 9.509999,
      "endOffset": 125,
      "phones": [
        {
          "duration": 0.08,
          "phone": "dh_B"
        },
        {
          "duration": 0.03,
          "phone": "ah_I"
        },
        {
          "duration": 0.05,
          "phone": "t_E"
        }
      ],
      "start": 9.349999,
      "startOffset": 121,
      "word": "THAT"
    },
    {
      "alignedWord": "we",
      "case": "success",
      "end": 9.64,
      "endOffset": 128,
      "phones": [
        {
          "duration": 0.04,
          "phone": "w_B"
        },
        {
          "duration": 0.09,
          "phone": "iy_E"
        }
      ],
      "start": 9.51,
      "startOffset": 126,
      "word": "WE"
    },
    {
      "alignedWord": "could",
      "case": "success",
      "end": 9.819999,
      "endOffset": 134,
      "phones": [
        {
          "duration": 0.05,
          "phone": "k_B"
        },
        {
          "duration": 0.05,
          "phone": "uh_I"
        },
        {
          "duration": 0.08,
          "phone": "d_E"
        }
      ],
      "start": 9.639999,
      "startOffset": 129,
      "word": "COULD"
    },
    {
      "alignedWord": "scarce",
      "case": "success",
      "end": 10.18,
      "endOffset": 141,
      "phones": [
        {
          "duration": 0.08,
          "phone": "s_B"
        },
        {
          "duration": 0.07,
          "phone": "k_I"
        },
        {
          "duration": 0.07,
          "phone": "eh_I"
        },
        {
          "duration": 0.08,
          "phone": "r_I"
        },
        {
          "duration": 0.06,
          "phone": "s_E"
        }
      ],
      "start": 9.82,
      "startOffset": 135,
      "word": "SCARCE"
    },
    {
      "alignedWord": "perceive",
      "case": "success",
      "end": 10.489999000000001,
      "endOffset": 150,
      "phones": [
        {
          "duration": 0.07,
          "phone": "p_B"
        },
        {
          "duration": 0.04,
          "phone": "er_I"
        },
        {
          "duration": 0.09,
          "phone": "s_I"
        },
        {
          "duration": 0.06,
          "phone": "iy_I"
        },
        {
          "duration": 0.05,
          "phone": "v_E"
        }
      ],
      "start": 10.179999,
      "startOffset": 142,
      "word": "PERCEIVE"
    },
    {
      "alignedWord": "at",
      "case": "success",
      "end": 10.59,
      "endOffset": 153,
      "phones": [
        {
          "duration": 0.05,
          "phone": "ae_B"
        },
        {
          "duration": 0.05,
          "phone": "t_E"
        }
      ],
      "start": 10.49,
      "startOffset": 151,
      "word": "AT"
    },
    {
      "alignedWord": "all",
      "case": "success",
      "end": 10.72,
      "endOffset": 157,
      "phones": [
        {
          "duration": 0.07,
          "phone": "ao_B"
        },
        {
          "duration": 0.06,
          "phone": "l_E"
        }
      ],
      "start": 10.59,
      "startOffset": 154,
      "word": "ALL"
    },
    {
      "alignedWord": "on",
      "case": "success",
      "end": 10.839998999999999,
      "endOffset": 160,
      "phones": [
        {
          "duration": 0.05,
          "phone": "ao_B"
        },
        {
          "duration": 0.07,
          "phone": "n_E"
        }
      ],
      "start": 10.719999,
      "startOffset": 158,
      "word": "ON"
    },
    {
      "alignedWord": "the",
      "case": "success",
      "end": 10.95,
      "endOffset": 164,
      "phones": [
        {
          "duration": 0.05,
          "phone": "dh_B"
        },
        {
          "duration": 0.06,
          "phone": "ah_E"
        }
      ],
      "start": 10.84,
      "startOffset": 161,
      "word": "THE"
    },
    {
      "alignedWord": "under",
      "case": "success",
      "end": 11.18,
      "endOffset": 170,
      "phones": [
        {
          "duration": 0.06,
          "phone": "ah_B"
        },
        {
          "duration": 0.05,
          "phone": "n_I"
        },
        {
          "duration": 0.06,
          "phone": "d_I"
        },
        {
          "duration": 0.06,
          "phone": "er_E"
        }
      ],
      "start": 10.95,
      "startOffset": 165,
      "word": "UNDER"
    },
    {
      "alignedWord": "cliff",
      "case": "success",
      "end": 11.649999000000001,
      "endOffset": 176,
      "phones": [
        {
          "duration": 0.09,
          "phone": "k_B"
        },
        {
          "duration": 0.05,
          "phone": "l_I"
        },
        {
          "duration": 0.11,
          "phone": "ih_I"
        },
        {
          "duration": 0.22,
          "phone": "f_E"
        }
      ],
      "start": 11.179999,
      "startOffset": 171,
      "word": "CLIFF"
    },
    {
      "alignedWord": "blow",
      "case": "success",
      "end": 12.379999,
      "endOffset": 181,
      "phones": [
        {
          "duration": 0.07,
          "phone": "b_B"
        },
        {
          "duration": 0.08,
          "phone": "l_I"
        },
        {
          "duration": 0.09,
          "phone": "ow_E"
        }
      ],
      "start": 12.139999,
      "startOffset": 177,
      "word": "BLOW"
    },
    {
      "alignedWord": "fresher",
      "case": "success",
      "end": 13.05,
      "endOffset": 189,
      "phones": [
        {
          "duration": 0.1,
          "phone": "f_B"
        },
        {
          "duration": 0.08,
          "phone": "r_I"
        },
        {
          "duration": 0.07,
          "phone": "eh_I"
        },
        {
          "duration": 0.13,
          "phone": "sh_I"
        },
        {
          "duration": 0.29,
          "phone": "er_E"
        }
      ],
      "start": 12.38,
      "startOffset": 182,
      "word": "FRESHER"
    },
    {
      "alignedWord": "and",
      "case": "success",
      "end": 13.689999,
      "endOffset": 193,
      "phones": [
        {
          "duration": 0.08,
          "phone": "ae_B"
        },
        {
          "duration": 0.06,
          "phone": "n_I"
        },
        {
          "duration": 0.08,
          "phone": "d_E"
        }
      ],
      "start": 13.469999,
      "startOffset": 190,
      "word": "AND"
    },
    {
      "alignedWord": "cold",
      "case": "success",
      "end": 14.11,
      "endOffset": 198,
      "phones": [
        {
          "duration": 0.12,
          "phone": "k_B"
        },
        {
          "duration": 0.08,
          "phone": "ow_I"
        },
        {
          "duration": 0.14,
          "phone": "l_I"
        },
        {
          "duration": 0.08,
          "phone": "d_E"
        }
      ],
      "start": 13.69,
      "startOffset": 194,
      "word": "COLD"
    },
    {
      "alignedWord": "on",
      "case": "success",
      "end": 14.19,
      "endOffset": 201,
      "phones": [
        {
          "duration": 0.05,
          "phone": "aa_B"
        },
        {
          "duration": 0.03,
          "phone": "n_E"
        }
      ],
      "start": 14.11,
      "startOffset": 199,
      "word": "ON"
    },
    {
      "alignedWord": "the",
      "case": "success",
      "end": 14.29,
      "endOffset": 205,
      "phones": [
        {
          "duration": 0.06,
          "phone": "dh_B"
        },
        {
          "duration": 0.04,
          "phone": "ah_E"
        }
      ],
      "start": 14.19,
      "startOffset": 202,
      "word": "THE"
    },
    {
      "alignedWord": "cliff",
      "case": "success",
      "end": 14.559999999999999,
      "endOffset": 211,
      "phones": [
        {
          "duration": 0.09,
          "phone": "k_B"
        },
        {
          "duration": 0.05,
          "phone": "l_I"
        },
        {
          "duration": 0.05,
          "phone": "ih_I"
        },
        {
          "duration": 0.08,
          "phone": "f_E"
        }
      ],
      "start": 14.29,
      "startOffset": 206,
      "word": "CLIFF"
    },
    {
      "alignedWord": "side",
      "case": "success",
      "end": 15.049999,
      "endOffset": 216,
      "phones": [
        {
          "duration": 0.12,
          "phone": "s_B"
        },
        {
          "duration": 0.19,
          "phone": "ay_I"
        },
        {
          "duration": 0.18,
          "phone": "d_E"
        }
      ],
      "start": 14.559999,
      "startOffset": 212,
      "word": "SIDE"
    }
  ]
}