{
  "transcript": "PRESENTLY AS HE MADE HIS WAY THROUGH A THICKET HE SAW A PIGEON WHICH HE THOUGHT WOULD MAKE A GOOD DINNER SO HE FIRED A PELLET AT IT FROM HIS GALAIL BUT MISSED THE PIGEON WHICH FLUTTERED AWAY WITH A STARTLED CLATTER AT THE SAME INSTANT HE HEARD A GREAT CLAMOUR FROM BEYOND THE THICKET",
  "words": [
    {
      "alignedWord": "presently",
      "case": "success",
      "end": 0.75,
      "endOffset": 9,
      "phones": [
        {
          "duration": 0.03,
          "phone": "p_B"
        },
        {
          "duration": 0.04,
          "phone": "r_I"
        },
        {
          "duration": 0.08,
          "phone": "eh_I"
        },
        {
          "duration": 0.02,
          "phone": "z_I"
        },
        {
          "duration": 0.07,
          "phone": "ah_I"
        },
        {
          "duration": 0.03,
          "phone": "n_I"
        },
        {
          "duration": 0.06,
          "phone": "t_I"
        },
        {
          "duration": 0.08,
          "phone": "l_I"
        },
        {
          "duration": 0.15,
          "phone": "iy_E"
        }
      ],
      "start": 0.19,
      "startOffset": 0,
      "word": "PRESENTLY"
    },
    {
      "alignedWord": "as",
      "case": "success",
      "end": 0.93,
      "endOffset": 12,
      "phones": [
        {
          "duration": 0.1,
          "phone": "ae_B"
        },
        {
          "duration": 0.07,
          "phone": "z_E"
        }
      ],
      "start": 0.76,
      "startOffset": 10,
      "word": "AS"
    },
    {
      "alignedWord": "he",
      "case": "success",
      "end": 1.04,
      "endOffset": 15,
      "phones": [
        {
          "duration": 0.04,
          "phone": "hh_B"
        },
        {
          "duration": 0.07,
          "phone": "iy_E"
        }
      ],
      "start": 0.93,
      "startOffset": 13,
      "word": "HE"
    },
    {
      "alignedWord": "made",
      "case": "success",
      "end": 1.24,
      "endOffset": 20,
      "phones": [
        {
          "duration": 0.08,
          "phone": "m_B"
        },
        {
          "duration": 0.08,
          "phone": "ey_I"
        },
        {
          "duration": 0.04,
          "phone": "d_E"
        }
      ],
      "start": 1.04,
      "startOffset": 16,
      "word": "MADE"
    },
    {
      "alignedWord": "his",
      "case": "success",
      "end": 1.37,
      "endOffset": 24,
      "phones": [
        {
          "duration": 0.02,
          "phone": "hh_B"
        },
        {
          "duration": 0.03,
          "phone": "ih_I"
        },
        {
          "duration": 0.08,
          "phone": "z_E"
        }
      ],
      "start": 1.24,
      "startOffset": 21,
      "word": "HIS"
    },
    {
      "alignedWord": "way",
      "case": "success",
      "end": 1.55,
      "endOffset": 28,
      "phones": [
        {
          "duration": 0.11,
          "phone": "w_B"
        },
        {
          "duration": 0.07,
          "phone": "ey_E"
        }
      ],
      "start": 1.37,
      "startOffset": 25,
      "word": "WAY"
    },
    {
      "alignedWord": "through",
      "case": "success",
      "end": 1.77,
      "endOffset": 36,
      "phones": [
        {
          "duration": 0.09,
          "phone": "th_B"
        },
        {
          "duration": 0.06,
          "phone": "r_I"
        },
        {
          "duration": 0.07,
          "phone": "uw_E"
        }
      ],
      "start": 1.55,
      "startOffset": 29,
      "word": "THROUGH"
    },
    {
      "alignedWord": "a",
      "case": "success",
      "end": 1.8800000000000001,
      "endOffset": 38,
      "phones": [
        {
          "duration": 0.11,
          "phone": "ah_S"
        }
      ],
      "start": 1.77,
      "startOffset": 37,
      "word": "A"
    },
    {
      "alignedWord": "<unk>",
      "case": "success",
      "end": 2.26,
      "endOffset": 46,
      "phones": [
        {
          "duration": 0.38,
          "phone": "oov_S"
        }
      ],
      "start": 1.88,
      "startOffset": 39,
      "word": "THICKET"
    },
    {
      "alignedWord": "he",
      "case": "success",
      "end": 2.7,
      "endOffset": 49,
      "phones": [
        {
          "duration": 0.13,
          "phone": "hh_B"
        },
        {
          "duration": 0.08,
          "phone": "iy_E"
        }
      ],
      "start": 2.49,
      "startOffset": 47,
      "word": "HE"
    },
    {
      "alignedWord": "saw",
      "case": "success",
      "end": 3.0300000000000002,
      "endOffset": 53,
      "phones": [
        {
          "duration": 0.09,
          "phone": "s_B"
        },
        {
          "duration": 0.24,
          "phone": "ao_E"
        }
      ],
      "start": 2.7,
      "startOffset": 50,
      "word": "SAW"
    },
    {
      "alignedWord": "a",
      "case": "success",
      "end": 3.05,
      "endOffset": 55,
      "phones": [
        {
          "duration": 0.01,
          "phone": "ah_S"
        }
      ],
      "start": 3.04,
      "startOffset": 54,
      "word": "A"
    },
    {
      "alignedWord": "pigeon",
      "case": "success",
      "end": 3.48,
      "endOffset": 62,
      "phones": [
        {
          "duration": 0.11,
          "phone": "p_B"
        },
        {
          "duration": 0.1,
          "phone": "ih_I"
        },
        {
          "duration": 0.06,
          "phone": "jh_I"
        },
        {
          "duration": 0.07,
          "phone": "ah_I"
        },
        {
          "duration": 0.09,
          "phone": "n_E"
        }
      ],
      "start": 3.05,
      "startOffset": 56,
      "word": "PIGEON"
    },
    {
      "alignedWord": "which",
      "case": "success",
      "end": 3.64,
      "endOffset": 68,
      "phones": [
        {
          "duration": 0.06,
          "phone": "w_B"
        },
        {
          "duration": 0.03,
          "phone": "ih_I"
        },
        {
          "duration": 0.07,
          "phone": "ch_E"
        }
      ],
      "start": 3.48,
      "startOffset": 63,
      "word": "WHICH"
    },
    {
      "alignedWord": "he",
      "case": "success",
      "end": 3.74,
      "endOffset": 71,
      "phones": [
        {
          "duration": 0.03,
          "phone": "hh_B"
        },
        {
          "duration": 0.07,
          "phone": "iy_E"
        }
      ],
      "start": 3.64,
      "startOffset": 69,
      "word": "HE"
    },
    {
      "alignedWord": "thought",
      "case": "success",
      "end": 3.9600000000000004,
      "endOffset": 79,
      "phones": [
        {
          "duration": 0.09,
          "phone": "th_B"
        },
        {
          "duration": 0.06,
          "phone": "ao_I"
        },
        {
          "duration": 0.07,
          "phone": "t_E"
        }
      ],
      "start": 3.74,
      "startOffset": 72,
      "word": "THOUGHT"
    },
    {
      "alignedWord": "would",
      "case": "success",
      "end": 4.11,
      "endOffset": 85,
      "phones": [
        {
          "duration": 0.04,
          "phone": "w_B"
        },
        {
          "duration": 0.04,
          "phone": "uh_I"
        },
        {
          "duration": 0.07,
          "phone": "d_E"
        }
      ],
      "start": 3.96,
      "startOffset": 80,
      "word": "WOULD"
    },
    {
      "alignedWord": "make",
      "case": "success",
      "end": 4.28,
      "endOffset": 90,
      "phones": [
        {
          "duration": 0.04,
          "phone": "m_B"
        },
        {
          "duration": 0.07,
          "phone": "ey_I"
        },
        {
          "duration": 0.06,
          "phone": "k_E"
        }
      ],
      "start": 4.11,
      "startOffset": 86,
      "word": "MAKE"
    },
    {
      "alignedWord": "a",
      "case": "success",
      "end": 4.36,
      "endOffset": 92,
      "phones": [
        {
          "duration": 0.08,
          "phone": "ah_S"
        }
      ],
      "start": 4.28,
      "startOffset": 91,
      "word": "A"
    },
    {
      "alignedWord": "good",
      "case": "success",
      "end": 4.590000000000001,
      "endOffset": 97,
      "phones": [
        {
          "duration": 0.1,
          "phone": "g_B"
        },
        {
          "duration": 0.08,
          "phone": "uh_I"
        },
        {
          "duration": 0.05,
          "phone": "d_E"
        }
      ],
      "start": 4.36,
      "startOffset": 93,
      "word": "GOOD"
    },
    {
      "alignedWord": "dinner",
      "case": "success",
      "end": 5.02,
      "endOffset": 104,
      "phones": [
        {
          "duration": 0.08,
          "phone": "d_B"
        },
        {
          "duration": 0.09,
          "phone": "ih_I"
        },
        {
          "duration": 0.07,
          "phone": "n_I"
        },
        {
          "duration": 0.18,
          "phone": "er_E"
        }
      ],
      "start": 4.6,
      "startOffset": 98,
      "word": "DINNER"
    },
    {
      "alignedWord": "so",
      "case": "success",
      "end": 5.49,
      "endOffset": 107,
      "phones": [
        {
          "duration": 0.16,
          "phone": "s_B"
        },
        {
          "duration": 0.11,
          "phone": "ow_E"
        }
      ],
      "start": 5.22,
      "startOffset": 105,
      "word": "SO"
    },
    {
      "alignedWord": "he",
      "case": "success",
      "end": 5.66,
      "endOffset": 110,
      "phones": [
        {
          "duration": 0.09,
          "phone": "hh_B"
        },
        {
          "duration": 0.08,
          "phone": "iy_E"
        }
      ],
      "start": 5.49,
      "startOffset": 108,
      "word": "HE"
    },
    {
      "alignedWord": "fired",
      "case": "success",
      "end": 6.0200000000000005,
      "endOffset": 116,
      "phones": [
        {
          "duration": 0.15,
          "phone": "f_B"
        },
        {
          "duration": 0.1,
          "phone": "ay_I"
        },
        {
          "duration": 0.05,
          "phone": "er_I"
        },
        {
          "duration": 0.06,
          "phone": "d_E"
        }
      ],
      "start": 5.66,
      "startOffset": 111,
      "word": "FIRED"
    },
    {
      "alignedWord": "a",
      "case": "success",
      "end": 6.1,
      "endOffset": 118,
      "phones": [
        {
          "duration": 0.08,
          "phone": "ah_S"
        }
      ],
      "start": 6.02,
      "startOffset": 117,
      "word": "A"
    },
    {
      "alignedWord": "pellet",
      "case": "success",
      "end": 6.46,
      "endOffset": 125,
      "phones": [
        {
          "duration": 0.14,
          "phone": "p_B"
        },
        {
          "duration": 0.06,
          "phone": "eh_I"
        },
        {
          "duration": 0.06,
          "phone": "l_I"
        },
        {
          "duration": 0.07,
          "phone": "ah_I"
        },
        {
          "duration": 0.03,
          "phone": "t_E"
        }
      ],
      "start": 6.1,
      "startOffset": 119,
      "word": "PELLET"
    },
    {
      "alignedWord": "at",
      "case": "success",
      "end": 6.64,
      "endOffset": 128,
      "phones": [
        {
          "duration": 0.09,
          "phone": "ae_B"
        },
        {
          "duration": 0.05,
          "phone": "t_E"
        }
      ],
      "start": 6.5,
      "startOffset": 126,
      "word": "AT"
    },
    {
      "alignedWord": "it",
      "case": "success",
      "end": 6.779999999999999,
      "endOffset": 131,
      "phones": [
        {
          "duration": 0.06,
          "phone": "ih_B"
        },
        {
          "duration": 0.08,
          "phone": "t_E"
        }
      ],
      "start": 6.64,
      "startOffset": 129,
      "word": "IT"
    },
    {
      "alignedWord": "from",
      "case": "success",
      "end": 6.930000000000001,
      "endOffset": 136,
      "phones": [
        {
          "duration": 0.05,
          "phone": "f_B"
        },
        {
          "duration": 0.05,
          "phone": "er_I"
        },
        {
          "duration": 0.05,
          "phone": "m_E"
        }
      ],
      "start": 6.78,
      "startOffset": 132,
      "word": "FROM"
    },
    {
      "alignedWord": "his",
      "case": "success",
      "end": 7.12,
      "endOffset": 140,
      "phones": [
        {
          "duration": 0.04,
          "phone": "hh_B"
        },
        {
          "duration": 0.06,
          "phone": "ih_I"
        },
        {
          "duration": 0.09,
          "phone": "z_E"
        }
      ],
      "start": 6.93,
      "startOffset": 137,
      "word": "HIS"
    },
    {
      "alignedWord": "<unk>",
      "case": "success",
      "end": 7.6,
      "endOffset": 147,
      "phones": [
        {
          "duration": 0.48,
          "phone": "oov_S"
        }
      ],
      "start": 7.12,
      "startOffset": 141,
      "word": "GALAIL"
    },
    {
      "alignedWord": "but",
      "case": "success",
      "end": 7.98,
      "endOffset": 151,
      "phones": [
        {
          "duration": 0.06,
          "phone": "b_B"
        },
        {
          "duration": 0.07,
          "phone": "ah_I"
        },
        {
          "duration": 0.07,
          "phone": "t_E"
        }
      ],
      "start": 7.78,
      "startOffset": 148,
      "word": "BUT"
    },
    {
      "alignedWord": "missed",
      "case": "success",
      "end": 8.3,
      "endOffset": 158,
      "phones": [
        {
          "duration": 0.08,
          "phone": "m_B"
        },
        {
          "duration": 0.09,
          "phone": "ih_I"
        },
        {
          "duration": 0.08,
          "phone": "s_I"
        },
        {
          "duration": 0.07,
          "phone": "t_E"
        }
      ],
      "start": 7.98,
      "startOffset": 152,
      "word": "MISSED"
    },
    {
      "alignedWord": "the",
      "case": "success",
      "end": 8.459999,
      "endOffset": 162,
      "phones": [
        {
          "duration": 0.08,
          "phone": "dh_B"
        },
        {
          "duration": 0.07,
          "phone": "ah_E"
        }
      ],
      "start": 8.309999,
      "startOffset": 159,
      "word": "THE"
    },
    {
      "alignedWord": "pigeon",
      "case": "success",
      "end": 8.840000000000002,
      "endOffset": 169,
      "phones": [
        {
          "duration": 0.09,
          "phone": "p_B"
        },
        {
          "duration": 0.08,
          "phone": "ih_I"
        },
        {
          "duration": 0.05,
          "phone": "jh_I"
        },
        {
          "duration": 0.07,
          "phone": "ah_I"
        },
        {
          "duration": 0.09,
          "phone": "n_E"
        }
      ],
      "start": 8.46,
      "startOffset": 163,
      "word": "PIGEON"
    },
    {
      "alignedWord": "which",
      "case": "success",
      "end": 9.06,
      "endOffset": 175,
      "phones": [
        {
          "duration": 0.05,
          "phone": "w_B"
        },
        {
          "duration": 0.04,
          "phone": "ih_I"
        },
        {
          "duration": 0.13,
          "phone": "ch_E"
        }
      ],
      "start": 8.84,
      "startOffset": 170,
      "word": "WHICH"
    },
    {
      "alignedWord": "<unk>",
      "case": "success",
      "end": 9.41,
      "endOffset": 185,
      "phones": [
        {
          "duration": 0.33,
          "phone": "oov_S"
        }
      ],
      "start": 9.08,
      "startOffset": 176,
      "word": "FLUTTERED"
    },
    {
      "alignedWord": "away",
      "case": "success",
      "end": 9.71,
      "endOffset": 190,
      "phones": [
        {
          "duration": 0.01,
          "phone": "ah_B"
        },
        {
          "duration": 0.15,
          "phone": "w_I"
        },
        {
          "duration": 0.14,
          "phone": "ey_E"
        }
      ],
      "start": 9.41,
      "startOffset": 186,
      "word": "AWAY"
    },
    {
      "alignedWord": "with",
      "case": "success",
      "end": 9.860000000000001,
      "endOffset": 195,
      "phones": [
        {
          "duration": 0.05,
          "phone": "w_B"
        },
        {
          "duration": 0.05,
          "phone": "ih_I"
        },
        {
          "duration": 0.05,
          "phone": "th_E"
        }
      ],
      "start": 9.71,
      "startOffset": 191,
      "word": "WITH"
    },
    {
      "alignedWord": "a",
      "case": "success",
      "end": 9.93,
      "endOffset": 197,
      "phones": [
        {
          "duration": 0.07,
          "phone": "ah_S"
        }
      ],
      "start": 9.86,
      "startOffset": 196,
      "word": "A"
    },
    {
      "alignedWord": "startled",
      "case": "success",
      "end": 10.369999,
      "endOffset": 206,
      "phones": [
        {
          "duration": 0.07,
          "phone": "s_B"
        },
        {
          "duration": 0.07,
          "phone": "t_I"
        },
        {
          "duration": 0.08,
          "phone": "aa_I"
        },
        {
          "duration": 0.02,
          "phone": "r_I"
        },
        {
          "duration": 0.05,
          "phone": "t_I"
        },
        {
          "duration": 0.04,
          "phone": "ah_I"
        },
        {
          "duration": 0.05,
          "phone": "l_I"
        },
        {
          "duration": 0.06,
          "phone": "d_E"
        }
      ],
      "start": 9.929999,
      "startOffset": 198,
      "word": "STARTLED"
    },
    {
      "alignedWord": "<unk>",
      "case": "success",
      "end": 10.9,
      "endOffset": 214,
      "phones": [
        {
          "duration": 0.5,
          "phone": "oov_S"
        }
      ],
      "start": 10.4,
      "startOffset": 207,
      "word": "CLATTER"
    },
    {
      "alignedWord": "at",
      "case": "success",
      "end": 11.389999000000001,
      "endOffset": 217,
      "phones": [
        {
          "duration": 0.12,
          "phone": "ae_B"
        },
        {
          "duration": 0.09,
          "phone": "t_E"
        }
      ],
      "start": 11.179999,
      "startOffset": 215,
      "word": "AT"
    },
    {
      "alignedWord": "the",
      "case": "success",
      "end": 11.479999,
      "endOffset": 221,
      "phones": [
        {
          "duration": 0.02,
          "phone": "dh_B"
        },
        {
          "duration": 0.07,
          "phone": "ah_E"
        }
      ],
      "start": 11.389999,
      "startOffset": 218,
      "word": "THE"
    },
    {
      "alignedWord": "same",
      "case": "success",
      "end": 11.76,
      "endOffset": 226,
      "phones": [
        {
          "duration": 0.12,
          "phone": "s_B"
        },
        {
          "duration": 0.1,
          "phone": "ey_I"
        },
        {
          "duration": 0.06,
          "phone": "m_E"
        }
      ],
      "start": 11.48,
      "startOffset": 222,
      "word": "SAME"
    },
    {
      "alignedWord": "instant",
      "case": "success",
      "end": 12.209999,
      "endOffset": 234,
      "phones": [
        {
          "duration": 0.08,
          "phone": "ih_B"
        },
        {
          "duration": 0.05,
          "phone": "n_I"
        },
        {
          "duration": 0.07,
          "phone": "s_I"
        },
        {
          "duration": 0.06,
          "phone": "t_I"
        },
        {
          "duration": 0.04,
          "phone": "ah_I"
        },
        {
          "duration": 0.05,
          "phone": "n_I"
        },
        {
          "duration": 0.1,
          "phone": "t_E"
        }
      ],
      "start": 11.759999,
      "startOffset": 227,
      "word": "INSTANT"
    },
    {
      "alignedWord": "he",
      "case": "success",
      "end": 12.389999,
      "endOffset": 237,
      "phones": [
        {
          "duration": 0.1,
          "phone": "hh_B"
        },
        {
          "duration": 0.07,
          "phone": "iy_E"
        }
      ],
      "start": 12.219999,
      "startOffset": 235,
      "word": "HE"
    },
    {
      "alignedWord": "heard",
      "case": "success",
      "end": 12.549999,
      "endOffset": 243,
      "phones": [
        {
          "duration": 0.06,
          "phone": "hh_B"
        },
        {
          "duration": 0.07,
          "phone": "er_I"
        },
        {
          "duration": 0.03,
          "phone": "d_E"
        }
      ],
      "start": 12.389999,
      "startOffset": 238,
      "word": "HEARD"
    },
    {
      "alignedWord": "a",
      "case": "success",
      "end": 12.620000000000001,
      "endOffset": 245,
      "phones": [
        {
          "duration": 0.07,
          "phone": "ah_S"
        }
      ],
      "start": 12.55,
      "startOffset": 244,
      "word": "A"
    },
    {
      "alignedWord": "great",
      "case": "success",
      "end": 12.86,
      "endOffset": 251,
      "phones": [
        {
          "duration": 0.05,
          "phone": "g_B"
        },
        {
          "duration": 0.07,
          "phone": "r_I"
        },
        {
          "duration": 0.04,
          "phone": "ey_I"
        },
        {
          "duration": 0.08,
          "phone": "t_E"
        }
      ],
      "start": 12.62,
      "startOffset": 246,
      "word": "GREAT"
    },
    {
      "alignedWord": "<unk>",
      "case": "success",
      "end": 13.319999,
      "endOffset": 259,
      "phones": [
        {
          "duration": 0.43,
          "phone": "oov_S"
        }
      ],
      "start": 12.889999,
      "startOffset": 252,
      "word": "CLAMOUR"
    },
    {
      "alignedWord": "from",
      "case": "success",
      "end": 13.53,
      "endOffset": 264,
      "phones": [
        {
          "duration": 0.08,
          "phone": "f_B"
        },
        {
          "duration": 0.05,
          "phone": "er_I"
        },
        {
          "duration": 0.07,
          "phone": "m_E"
        }
      ],
      "start": 13.33,
      "startOffset": 260,
      "word": "FROM"
    },
    {
      "alignedWord": "beyond",
      "case": "success",
      "end": 13.91,
      "endOffset": 271,
      "phones": [
        {
          "duration": 0.05,
          "phone": "b_B"
        },
        {
          "duration": 0.08,
          "phone": "iy_I"
        },
        {
          "duration": 0.11,
          "phone": "ao_I"
        },
        {
          "duration": 0.06,
          "phone": "n_I"
        },
        {
          "duration": 0.08,
          "phone": "d_E"
        }
      ],
      "start": 13.53,
      "startOffset": 265,
      "word": "BEYOND"
    },
    {
      "alignedWord": "the",
      "case": "success",
      "end": 14.07,
      "endOffset": 275,
      "phones": [
        {
          "duration": 0.06,
          "phone": "dh_B"
        },
        {
          "duration": 0.09,
          "phone": "ah_E"
        }
      ],
      "start": 13.92,
      "startOffset": 272,
      "word": "THE"
    },
    {
      "alignedWord": "<unk>",
      "case": "success",
      "end": 14.38,
      "endOffset": 283,
      "phones": [
        {
          "duration": 0.3,
          "phone": "oov_S"
        }
      ],
      "start": 14.08,
      "startOffset": 276,
      "word": "THICKET"
    }
  ]
}