{
  "transcript": "THE KING SAID HE HAD PLENTY OF SERVANTS AND WANTED NO MORE",
  "words": [
    {
      "alignedWord": "the",
      "case": "success",
      "end": 0.28,
      "endOffset": 3,
      "phones": [
        {
          "duration": 0.06,
          "phone": "dh_B"
        },
        {
          "duration": 0.06,
          "phone": "ah_E"
        }
      ],
      "start": 0.16,
      "startOffset": 0,
      "word": "THE"
    },
    {
      "alignedWord": "king",
      "case": "success",
      "end": 0.52,
      "endOffset": 8,
      "phones": [
        {
          "duration": 0.08,
          "phone": "k_B"
        },
        {
          "duration": 0.07,
          "phone": "ih_I"
        },
        {
          "duration": 0.09,
          "phone": "ng_E"
        }
      ],
      "start": 0.28,
      "startOffset": 4,
      "word": "KING"
    },
    {
      "alignedWord": "said",
      "case": "success",
      "end": 0.76,
      "endOffset": 13,
      "phones": [
        {
          "duration": 0.09,
          "phone": "s_B"
        },
        {
          "duration": 0.07,
          "phone": "eh_I"
        },
        {
          "duration": 0.05,
          "phone": "d_E"
        }
      ],
      "start": 0.55,
      "startOffset": 9,
      "word": "SAID"
    },
    {
      "alignedWord": "he",
      "case": "success",
      "end": 0.84,
      "endOffset": 16,
      "phones": [
        {
          "duration": 0.02,
          "phone": "hh_B"
        },
        {
          "duration": 0.06,
          "phone": "iy_E"
        }
      ],
      "start": 0.76,
      "startOffset": 14,
      "word": "HE"
    },
    {
      "alignedWord": "had",
      "case": "success",
      "end": 1.0,
      "endOffset": 20,
      "phones": [
        {
          "duration": 0.01,
          "phone": "hh_B"
        },
        {
          "duration": 0.06,
          "phone": "ae_I"
        },
        {
          "duration": 0.09,
          "phone": "d_E"
        }
      ],
      "start": 0.84,
      "startOffset": 17,
      "word": "HAD"
    },
    {
      "alignedWord": "plenty",
      "case": "success",
      "end": 1.29,
      "endOffset": 27,
      "phones": [
        {
          "duration": 0.05,
          "phone": "p_B"
        },
        {
          "duration": 0.06,
          "phone": "l_I"
        },
        {
          "duration": 0.04,
          "phone": "eh_I"
        },
        {
          "duration": 0.03,
          "phone": "n_I"
        },
        {
          "duration": 0.08,
          "phone": "iy_E"
        }
      ],
      "start": 1.03,
      "startOffset": 21,
      "word": "PLENTY"
    },
    {
      "alignedWord": "of",
      "case": "success",
      "end": 1.4100000000000001,
      "endOffset": 30,
      "phones": [
        {
          "duration": 0.06,
          "phone": "ah_B"
        },
        {
          "duration": 0.06,
          "phone": "v_E"
        }
      ],
      "start": 1.29,
      "startOffset": 28,
      "word": "OF"
    },
    {
      "alignedWord": "servants",
      "case": "success",
      "end": 1.8499999999999999,
      "endOffset": 39,
      "phones": [
        {
          "duration": 0.12,
          "phone": "s_B"
        },
        {
          "duration": 0.11,
          "phone": "er_I"
        },
        {
          "duration": 0.03,
          "phone": "v_I"
        },
        {
          "duration": 0.03,
          "phone": "ah_I"
        },
        {
          "duration": 0.06,
          "phone": "n_I"
        },
        {
          "duration": 0.04,
          "phone": "t_I"
        },
        {
          "duration": 0.05,
          "phone": "s_E"
        }
      ],
      "start": 1.41,
      "startOffset": 31,
      "word": "SERVANTS"
    },
    {
      "alignedWord": "and",
      "case": "success",
      "end": 2.0,
      "endOffset": 43,
      "phones": [
        {
          "duration": 0.06,
          "phone": "ae_B"
        },
        {
          "duration": 0.02,
          "phone": "n_I"
        },
        {
          "duration": 0.07,
          "phone": "d_E"
        }
      ],
      "start": 1.85,
      "startOffset": 40,
      "word": "AND"
    },
    {
      "alignedWord": "wanted",
      "case": "success",
      "end": 2.31,
      "endOffset": 50,
      "phones": [
        {
          "duration": 0.05,
          "phone": "w_B"
        },
        {
          "duration": 0.06,
          "phone": "ao_I"
        },
        {
          "duration": 0.04,
          "phone": "n_I"
        },
        {
          "duration": 0.04,
          "phone": "t_I"
        },
        {
          "duration": 0.05,
          "phone": "ih_I"
        },
        {
          "duration": 0.07,
          "phone": "d_E"
        }
      ],
      "start": 2.0,
      "startOffset": 44,
      "word": "WANTED"
    },
    {
      "alignedWord": "no",
      "case": "success",
      "end": 2.48,
      "endOffset": 53,
      "phones": [
        {
          "duration": 0.08,
          "phone": "n_B"
        },
        {
          "duration": 0.09,
          "phone": "ow_E"
        }
      ],
      "start": 2.31,
      "startOffset": 51,
      "word": "NO"
    },
    {
      "alignedWord": "more",
      "case": "success",
      "end": 2.86,
      "endOffset": 58,
      "phones": [
        {
          "duration": 0.1,
          "phone": "m_B"
        },
        {
          "duration": 0.17,
          "phone": "ao_I"
        },
        {
          "duration": 0.11,
          "phone": "r_E"
        }
      ],
      "start": 2.48,
      "startOffset": 54,
      "word": "MORE"
    }
  ]
}