{
  "transcript": "DARKENING THY POWER TO LEND BASE SUBJECTS LIGHT RETURN FORGETFUL MUSE AND STRAIGHT REDEEM IN GENTLE NUMBERS TIME SO IDLY SPENT",
  "words": [
    {
      "alignedWord": "darkening",
      "case": "success",
      "end": 0.87,
      "endOffset": 9,
      "phones": [
        {
          "duration": 0.1,
          "phone": "d_B"
        },
        {
          "duration": 0.07,
          "phone": "aa_I"
        },
        {
          "duration": 0.09,
          "phone": "r_I"
        },
        {
          "duration": 0.04,
          "phone": "k_I"
        },
        {
          "duration": 0.07,
          "phone": "ah_I"
        },
        {
          "duration": 0.03,
          "phone": "n_I"
        },
        {
          "duration": 0.1,
          "phone": "ih_I"
        },
        {
          "duration": 0.12,
          "phone": "ng_E"
        }
      ],
      "start": 0.25,
      "startOffset": 0,
      "word": "DARKENING"
    },
    {
      "alignedWord": "thy",
      "case": "success",
      "end": 1.07,
      "endOffset": 13,
      "phones": [
        {
          "duration": 0.04,
          "phone": "dh_B"
        },
        {
          "duration": 0.16,
          "phone": "ay_E"
        }
      ],
      "start": 0.87,
      "startOffset": 10,
      "word": "THY"
    },
    {
      "alignedWord": "power",
      "case": "success",
      "end": 1.56,
      "endOffset": 19,
      "phones": [
        {
          "duration": 0.15,
          "phone": "p_B"
        },
        {
          "duration": 0.25,
          "phone": "aw_I"
        },
        {
          "duration": 0.09,
          "phone": "er_E"
        }
      ],
      "start": 1.07,
      "startOffset": 14,
      "word": "POWER"
    },
    {
      "alignedWord": "to",
      "case": "success",
      "end": 1.73,
      "endOffset": 22,
      "phones": [
        {
          "duration": 0.1,
          "phone": "t_B"
        },
        {
          "duration": 0.07,
          "phone": "ah_E"
        }
      ],
      "start": 1.56,
      "startOffset": 20,
      "word": "TO"
    },
    {
      "alignedWord": "lend",
      "case": "success",
      "end": 2.12,
      "endOffset": 27,
      "phones": [
        {
          "duration": 0.08,
          "phone": "l_B"
        },
        {
          "duration": 0.13,
          "phone": "eh_I"
        },
        {
          "duration": 0.09,
          "phone": "n_I"
        },
        {
          "duration": 0.09,
          "phone": "d_E"
        }
      ],
      "start": 1.73,
      "startOffset": 23,
      "word": "LEND"
    },
    {
      "alignedWord": "base",
      "case": "success",
      "end": 2.52,
      "endOffset": 32,
      "phones": [
        {
          "duration": 0.12,
          "phone": "b_B"
        },
        {
          "duration": 0.13,
          "phone": "ey_I"
        },
        {
          "duration": 0.14,
          "phone": "s_E"
        }
      ],
      "start": 2.13,
      "startOffset": 28,
      "word": "BASE"
    },
    {
      "alignedWord": "subjects",
      "case": "success",
      "end": 3.2199999999999998,
      "endOffset": 41,
      "phones": [
        {
          "duration": 0.11,
          "phone": "s_B"
        },
        {
          "duration": 0.08,
          "phone": "ah_I"
        },
        {
          "duration": 0.07,
          "phone": "b_I"
        },
        {
          "duration": 0.1,
          "phone": "jh_I"
        },
        {
          "duration": 0.09,
          "phone": "eh_I"
        },
        {
          "duration": 0.1,
          "phone": "k_I"
        },
        {
          "duration": 0.14,
          "phone": "s_E"
        }
      ],
      "start": 2.53,
      "startOffset": 33,
      "word": "SUBJECTS"
    },
    {
      "alignedWord": "light",
      "case": "success",
      "end": 3.76,
      "endOffset": 47,
      "phones": [
        {
          "duration": 0.11,
          "phone": "l_B"
        },
        {
          "duration": 0.12,
          "phone": "ay_I"
        },
        {
          "duration": 0.27,
          "phone": "t_E"
        }
      ],
      "start": 3.26,
      "startOffset": 42,
      "word": "LIGHT"
    },
    {
      "alignedWord": "return",
      "case": "success",
      "end": 6.31,
      "endOffset": 54,
      "phones": [
        {
          "duration": 0.14,
          "phone": "r_B"
        },
        {
          "duration": 0.08,
          "phone": "iy_I"
        },
        {
          "duration": 0.13,
          "phone": "t_I"
        },
        {
          "duration": 0.24,
          "phone": "er_I"
        },
        {
          "duration": 0.12,
          "phone": "n_E"
        }
      ],
      "start": 5.6,
      "startOffset": 48,
      "word": "RETURN"
    },
    {
      "alignedWord": "forgetful",
      "case": "success",
      "end": 6.86,
      "endOffset": 64,
      "phones": [
        {
          "duration": 0.09,
          "phone": "f_B"
        },
        {
          "duration": 0.07,
          "phone": "er_I"
        },
        {
          "duration": 0.07,
          "phone": "g_I"
        },
        {
          "duration": 0.07,
          "phone": "eh_I"
        },
        {
          "duration": 0.08,
          "phone": "t_I"
        },
        {
          "duration": 0.06,
          "phone": "f_I"
        },
        {
          "duration": 0.04,
          "phone": "ah_I"
        },
        {
          "duration": 0.06,
          "phone": "l_E"
        }
      ],
      "start": 6.32,
      "startOffset": 55,
      "word": "FORGETFUL"
    },
    {
      "alignedWord": "<unk>",
      "case": "success",
      "end": 7.42,
      "endOffset": 69,
      "phones": [
        {
          "duration": 0.54,
          "phone": "oov_S"
        }
      ],
      "start": 6.88,
      "startOffset": 65,
      "word": "MUSE"
    },
    {
      "alignedWord": "and",
      "case": "success",
      "end": 8.120000000000001,
      "endOffset": 73,
      "phones": [
        {
          "duration": 0.12,
          "phone": "ae_B"
        },
        {
          "duration": 0.06,
          "phone": "n_I"
        },
        {
          "duration": 0.07,
          "phone": "d_E"
        }
      ],
      "start": 7.87,
      "startOffset": 70,
      "word": "AND"
    },
    {
      "alignedWord": "straight",
      "case": "success",
      "end": 8.629999999999999,
      "endOffset": 82,
      "phones": [
        {
          "duration": 0.08,
          "phone": "s_B"
        },
        {
          "duration": 0.09,
          "phone": "t_I"
        },
        {
          "duration": 0.11,
          "phone": "r_I"
        },
        {
          "duration": 0.07,
          "phone": "ey_I"
        },
        {
          "duration": 0.16,
          "phone": "t_E"
        }
      ],
      "start": 8.12,
      "startOffset": 74,
      "word": "STRAIGHT"
    },
    {
      "alignedWord": "redeem",
      "case": "success",
      "end": 9.269999,
      "endOffset": 89,
      "phones": [
        {
          "duration": 0.11,
          "phone": "r_B"
        },
        {
          "duration": 0.08,
          "phone": "ih_I"
        },
        {
          "duration": 0.1,
          "phone": "d_I"
        },
        {
          "duration": 0.22,
          "phone": "iy_I"
        },
        {
          "duration": 0.08,
          "phone": "m_E"
        }
      ],
      "start": 8.679999,
      "startOffset": 83,
      "word": "REDEEM"
    },
    {
      "alignedWord": "in",
      "case": "success",
      "end": 9.459999999999999,
      "endOffset": 92,
      "phones": [
        {
          "duration": 0.08,
          "phone": "ih_B"
        },
        {
          "duration": 0.11,
          "phone": "n_E"
        }
      ],
      "start": 9.27,
      "startOffset": 90,
      "word": "IN"
    },
    {
      "alignedWord": "gentle",
      "case": "success",
      "end": 9.860000000000001,
      "endOffset": 99,
      "phones": [
        {
          "duration": 0.08,
          "phone": "jh_B"
        },
        {
          "duration": 0.07,
          "phone": "eh_I"
        },
        {
          "duration": 0.07,
          "phone": "n_I"
        },
        {
          "duration": 0.07,
          "phone": "t_I"
        },
        {
          "duration": 0.05,
          "phone": "ah_I"
        },
        {
          "duration": 0.06,
          "phone": "l_E"
        }
      ],
      "start": 9.46,
      "startOffset": 93,
      "word": "GENTLE"
    },
    {
      "alignedWord": "numbers",
      "case": "success",
      "end": 10.35,
      "endOffset": 107,
      "phones": [
        {
          "duration": 0.05,
          "phone": "n_B"
        },
        {
          "duration": 0.09,
          "phone": "ah_I"
        },
        {
          "duration": 0.06,
          "phone": "m_I"
        },
        {
          "duration": 0.07,
          "phone": "b_I"
        },
        {
          "duration": 0.12,
          "phone": "er_I"
        },
        {
          "duration": 0.1,
          "phone": "z_E"
        }
      ],
      "start": 9.86,
      "startOffset": 100,
      "word": "NUMBERS"
    },
    {
      "alignedWord": "time",
      "case": "success",
      "end": 10.959999,
      "endOffset": 112,
      "phones": [
        {
          "duration": 0.13,
          "phone": "t_B"
        },
        {
          "duration": 0.36,
          "phone": "ay_I"
        },
        {
          "duration": 0.12,
          "phone": "m_E"
        }
      ],
      "start": 10.349999,
      "startOffset": 108,
      "word": "TIME"
    },
    {
      "alignedWord": "so",
      "case": "success",
      "end": 11.420000000000002,
      "endOffset": 115,
      "phones": [
        {
          "duration": 0.2,
          "phone": "s_B"
        },
        {
          "duration": 0.26,
          "phone": "ow_E"
        }
      ],
      "start": 10.96,
      "startOffset": 113,
      "word": "SO"
    },
    {
      "alignedWord": "idly",
      "case": "success",
      "end": 12.0,
      "endOffset": 120,
      "phones": [
        {
          "duration": 0.23,
          "phone": "ay_B"
        },
        {
          "duration": 0.13,
          "phone": "d_I"
        },
        {
          "duration": 0.07,
          "phone": "l_I"
        },
        {
          "duration": 0.12,
          "phone": "iy_E"
        }
      ],
      "start": 11.45,
      "startOffset": 116,
      "word": "IDLY"
    },
    {
      "alignedWord": "spent",
      "case": "success",
      "end": 12.53,
      "endOffset": 126,
      "phones": [
        {
          "duration": 0.09,
          "phone": "s_B"
        },
        {
          "duration": 0.06,
          "phone": "p_I"
        },
        {
          "duration": 0.1,
          "phone": "eh_I"
        },
        {
          "duration": 0.07,
          "phone": "n_I"
        },
        {
          "duration": 0.21,
          "phone": "t_E"
        }
      ],
      "start": 12.0,
      "startOffset": 121,
      "word": "SPENT"
    }
  ]
}