{
  "transcript": "IF ANYBODY TELLS YOU THAT IT'S ONLY JUST TO PUT YOU OFF",
  "words": [
    {
      "alignedWord": "if",
      "case": "success",
      "end": 0.35,
      "endOffset": 2,
      "phones": [
        {
          "duration": 0.11,
          "phone": "ih_B"
        },
        {
          "duration": 0.07,
          "phone": "f_E"
        }
      ],
      "start": 0.17,
      "startOffset": 0,
      "word": "IF"
    },
    {
      "alignedWord": "anybody",
      "case": "success",
      "end": 0.83,
      "endOffset": 10,
      "phones": [
        {
          "duration": 0.06,
          "phone": "eh_B"
        },
        {
          "duration": 0.06,
          "phone": "n_I"
        },
        {
          "duration": 0.07,
          "phone": "iy_I"
        },
        {
          "duration": 0.06,
          "phone": "b_I"
        },
        {
          "duration": 0.1,
          "phone": "ah_I"
        },
        {
          "duration": 0.05,
          "phone": "d_I"
        },
        {
          "duration": 0.08,
          "phone": "iy_E"
        }
      ],
      "start": 0.35,
      "startOffset": 3,
      "word": "ANYBODY"
    },
    {
      "alignedWord": "tells",
      "case": "success",
      "end": 1.14,
      "endOffset": 16,
      "phones": [
        {
          "duration": 0.08,
          "phone": "t_B"
        },
        {
          "duration": 0.1,
          "phone": "eh_I"
        },
        {
          "duration": 0.06,
          "phone": "l_I"
        },
        {
          "duration": 0.07,
          "phone": "z_E"
        }
      ],
      "start": 0.83,
      "startOffset": 11,
      "word": "TELLS"
    },
    {
      "alignedWord": "you",
      "case": "success",
      "end": 1.27,
      "endOffset": 20,
      "phones": [
        {
          "duration": 0.05,
          "phone": "y_B"
        },
        {
          "duration": 0.08,
          "phone": "uw_E"
        }
      ],
      "start": 1.14,
      "startOffset": 17,
      "word": "YOU"
    },
    {
      "alignedWord": "that",
      "case": "success",
      "end": 1.59,
      "endOffset": 25,
      "phones": [
        {
          "duration": 0.07,
          "phone": "dh_B"
        },
        {
          "duration": 0.15,
          "phone": "ae_I"
        },
        {
          "duration": 0.1,
          "phone": "t_E"
        }
      ],
      "start": 1.27,
      "startOffset": 21,
      "word": "THAT"
    },
    {
      "alignedWord": "it's",
      "case": "success",
      "end": 1.86,
      "endOffset": 30,
      "phones": [
        {
          "duration": 0.08,
          "phone": "ih_B"
        },
        {
          "duration": 0.09,
          "phone": "t_I"
        },
        {
          "duration": 0.07,
          "phone": "s_E"
        }
      ],
      "start": 1.62,
      "startOffset": 26,
      "word": "IT'S"
    },
    {
      "alignedWord": "only",
      "case": "success",
      "end": 2.2600000000000002,
      "endOffset": 35,
      "phones": [
        {
          "duration": 0.16,
          "phone": "ow_B"
        },
        {
          "duration": 0.07,
          "phone": "n_I"
        },
        {
          "duration": 0.08,
          "phone": "l_I"
        },
        {
          "duration": 0.08,
          "phone": "iy_E"
        }
      ],
      "start": 1.87,
      "startOffset": 31,
      "word": "ONLY"
    },
    {
      "alignedWord": "just",
      "case": "success",
      "end": 2.54,
      "endOffset": 40,
      "phones": [
        {
          "duration": 0.1,
          "phone": "jh_B"
        },
        {
          "duration": 0.08,
          "phone": "ah_I"
        },
        {
          "duration": 0.07,
          "phone": "s_I"
        },
        {
          "duration": 0.03,
          "phone": "t_E"
        }
      ],
      "start": 2.26,
      "startOffset": 36,
      "word": "JUST"
    },
    {
      "alignedWord": "to",
      "case": "success",
      "end": 2.65,
      "endOffset": 43,
      "phones": [
        {
          "duration": 0.05,
          "phone": "t_B"
        },
        {
          "duration": 0.05,
          "phone": "ah_E"
        }
      ],
      "start": 2.55,
      "startOffset": 41,
      "word": "TO"
    },
    {
      "alignedWord": "put",
      "case": "success",
      "end": 2.86,
      "endOffset": 47,
      "phones": [
        {
          "duration": 0.05,
          "phone": "p_B"
        },
        {
          "duration": 0.07,
          "phone": "uh_I"
        },
        {
          "duration": 0.09,
          "phone": "t_E"
        }
      ],
      "start": 2.65,
      "startOffset": 44,
      "word": "PUT"
    },
    {
      "alignedWord": "you",
      "case": "success",
      "end": 3.04,
      "endOffset": 51,
      "phones": [
        {
          "duration": 0.05,
          "phone": "y_B"
        },
        {
          "duration": 0.13,
          "phone": "uw_E"
        }
      ],
      "start": 2.86,
      "startOffset": 48,
      "word": "YOU"
    },
    {
      "alignedWord": "off",
      "case": "success",
      "end": 3.24,
      "endOffset": 55,
      "phones": [
        {
          "duration": 0.14,
          "phone": "ao_B"
        },
        {
          "duration": 0.06,
          "phone": "f_E"
        }
      ],
      "start": 3.04,
      "startOffset": 52,
      "word": "OFF"
    }
  ]
}