{
  "transcript": "I TOO HAVE HAD MY DREAM I TOO HAVE MEDITATED I TOO HAVE SIGHED I TOO HAVE HAD A MOONLIGHT SOUL LOVE IS A CHILD SIX THOUSAND YEARS OLD LOVE HAS THE RIGHT TO A LONG WHITE BEARD",
  "words": [
    {
      "alignedWord": "i",
      "case": "success",
      "end": 0.52,
      "endOffset": 1,
      "phones": [
        {
          "duration": 0.29,
          "phone": "ay_S"
        }
      ],
      "start": 0.23,
      "startOffset": 0,
      "word": "I"
    },
    {
      "alignedWord": "too",
      "case": "success",
      "end": 0.91,
      "endOffset": 5,
      "phones": [
        {
          "duration": 0.15,
          "phone": "t_B"
        },
        {
          "duration": 0.2,
          "phone": "uw_E"
        }
      ],
      "start": 0.56,
      "startOffset": 2,
      "word": "TOO"
    },
    {
      "alignedWord": "have",
      "case": "success",
      "end": 1.1,
      "endOffset": 10,
      "phones": [
        {
          "duration": 0.07,
          "phone": "hh_B"
        },
        {
          "duration": 0.05,
          "phone": "ae_I"
        },
        {
          "duration": 0.06,
          "phone": "v_E"
        }
      ],
      "start": 0.92,
      "startOffset": 6,
      "word": "HAVE"
    },
    {
      "alignedWord": "had",
      "case": "success",
      "end": 1.34,
      "endOffset": 14,
      "phones": [
        {
          "duration": 0.06,
          "phone": "hh_B"
        },
        {
          "duration": 0.09,
          "phone": "ae_I"
        },
        {
          "duration": 0.09,
          "phone": "d_E"
        }
      ],
      "start": 1.1,
      "startOffset": 11,
      "word": "HAD"
    },
    {
      "alignedWord": "my",
      "case": "success",
      "end": 1.53,
      "endOffset": 17,
      "phones": [
        {
          "duration": 0.06,
          "phone": "m_B"
        },
        {
          "duration": 0.13,
          "phone": "ay_E"
        }
      ],
      "start": 1.34,
      "startOffset": 15,
      "word": "MY"
    },
    {
      "alignedWord": "dream",
      "case": "success",
      "end": 2.02,
      "endOffset": 23,
      "phones": [
        {
          "duration": 0.08,
          "phone": "d_B"
        },
        {
          "duration": 0.1,
          "phone": "r_I"
        },
        {
          "duration": 0.14,
          "phone": "iy_I"
        },
        {
          "duration": 0.17,
          "phone": "m_E"
        }
      ],
      "start": 1.53,
      "startOffset": 18,
      "word": "DREAM"
    },
    {
      "alignedWord": "i",
      "case": "success",
      "end": 2.56,
      "endOffset": 25,
      "phones": [
        {
          "duration": 0.22,
          "phone": "ay_S"
        }
      ],
      "start": 2.34,
      "startOffset": 24,
      "word": "I"
    },
    {
      "alignedWord": "too",
      "case": "success",
      "end": 2.77,
      "endOffset": 29,
      "phones": [
        {
          "duration": 0.1,
          "phone": "t_B"
        },
        {
          "duration": 0.11,
          "phone": "uw_E"
        }
      ],
      "start": 2.56,
      "startOffset": 26,
      "word": "TOO"
    },
    {
      "alignedWord": "have",
      "case": "success",
      "end": 2.94,
      "endOffset": 34,
      "phones": [
        {
          "duration": 0.06,
          "phone": "hh_B"
        },
        {
          "duration": 0.04,
          "phone": "ae_I"
        },
        {
          "duration": 0.06,
          "phone": "v_E"
        }
      ],
      "start": 2.78,
      "startOffset": 30,
      "word": "HAVE"
    },
    {
      "alignedWord": "<unk>",
      "case": "success",
      "end": 3.62,
      "endOffset": 44,
      "phones": [
        {
          "duration": 0.68,
          "phone": "oov_S"
        }
      ],
      "start": 2.94,
      "startOffset": 35,
      "word": "MEDITATED"
    },
    {
      "alignedWord": "i",
      "case": "success",
      "end": 4.140000000000001,
      "endOffset": 46,
      "phones": [
        {
          "duration": 0.23,
          "phone": "ay_S"
        }
      ],
      "start": 3.91,
      "startOffset": 45,
      "word": "I"
    },
    {
      "alignedWord": "too",
      "case": "success",
      "end": 4.449999999999999,
      "endOffset": 50,
      "phones": [
        {
          "duration": 0.13,
          "phone": "t_B"
        },
        {
          "duration": 0.18,
          "phone": "uw_E"
        }
      ],
      "start": 4.14,
      "startOffset": 47,
      "word": "TOO"
    },
    {
      "alignedWord": "have",
      "case": "success",
      "end": 4.62,
      "endOffset": 55,
      "phones": [
        {
          "duration": 0.06,
          "phone": "hh_B"
        },
        {
          "duration": 0.04,
          "phone": "ae_I"
        },
        {
          "duration": 0.06,
          "phone": "v_E"
        }
      ],
      "start": 4.46,
      "startOffset": 51,
      "word": "HAVE"
    },
    {
      "alignedWord": "<unk>",
      "case": "success",
      "end": 5.42,
      "endOffset": 62,
      "phones": [
        {
          "duration": 0.8,
          "phone": "oov_S"
        }
      ],
      "start": 4.62,
      "startOffset": 56,
      "word": "SIGHED"
    },
    {
      "alignedWord": "i",
      "case": "success",
      "end": 6.91,
      "endOffset": 64,
      "phones": [
        {
          "duration": 0.41,
          "phone": "ay_S"
        }
      ],
      "start": 6.5,
      "startOffset": 63,
      "word": "I"
    },
    {
      "alignedWord": "too",
      "case": "success",
      "end": 7.31,
      "endOffset": 68,
      "phones": [
        {
          "duration": 0.13,
          "phone": "t_B"
        },
        {
          "duration": 0.26,
          "phone": "uw_E"
        }
      ],
      "start": 6.92,
      "startOffset": 65,
      "word": "TOO"
    },
    {
      "alignedWord": "have",
      "case": "success",
      "end": 7.53,
      "endOffset": 73,
      "phones": [
        {
          "duration": 0.08,
          "phone": "hh_B"
        },
        {
          "duration": 0.06,
          "phone": "ae_I"
        },
        {
          "duration": 0.07,
          "phone": "v_E"
        }
      ],
      "start": 7.32,
      "startOffset": 69,
      "word": "HAVE"
    },
    {
      "alignedWord": "had",
      "case": "success",
      "end": 7.75,
      "endOffset": 77,
      "phones": [
        {
          "duration": 0.08,
          "phone": "hh_B"
        },
        {
          "duration": 0.09,
          "phone": "ae_I"
        },
        {
          "duration": 0.05,
          "phone": "d_E"
        }
      ],
      "start": 7.53,
      "startOffset": 74,
      "word": "HAD"
    },
    {
      "alignedWord": "a",
      "case": "success",
      "end": 7.81,
      "endOffset": 79,
      "phones": [
        {
          "duration": 0.06,
          "phone": "ah_S"
        }
      ],
      "start": 7.75,
      "startOffset": 78,
      "word": "A"
    },
    {
      "alignedWord": "moonlight",
      "case": "success",
      "end": 8.32,
      "endOffset": 89,
      "phones": [
        {
          "duration": 0.08,
          "phone": "m_B"
        },
        {
          "duration": 0.1,
          "phone": "uw_I"
        },
        {
          "duration": 0.06,
          "phone": "n_I"
        },
        {
          "duration": 0.07,
          "phone": "l_I"
        },
        {
          "duration": 0.09,
          "phone": "ay_I"
        },
        {
          "duration": 0.11,
          "phone": "t_E"
        }
      ],
      "start": 7.81,
      "startOffset": 80,
      "word": "MOONLIGHT"
    },
    {
      "alignedWord": "soul",
      "case": "success",
      "end": 8.83,
      "endOffset": 94,
      "phones": [
        {
          "duration": 0.12,
          "phone": "s_B"
        },
        {
          "duration": 0.18,
          "phone": "ow_I"
        },
        {
          "duration": 0.21,
          "phone": "l_E"
        }
      ],
      "start": 8.32,
      "startOffset": 90,
      "word": "SOUL"
    },
    {
      "alignedWord": "love",
      "case": "success",
      "end": 9.75,
      "endOffset": 99,
      "phones": [
        {
          "duration": 0.15,
          "phone": "l_B"
        },
        {
          "duration": 0.1,
          "phone": "ah_I"
        },
        {
          "duration": 0.06,
          "phone": "v_E"
        }
      ],
      "start": 9.44,
      "startOffset": 95,
      "word": "LOVE"
    },
    {
      "alignedWord": "is",
      "case": "success",
      "end": 9.91,
      "endOffset": 102,
      "phones": [
        {
          "duration": 0.09,
          "phone": "ih_B"
        },
        {
          "duration": 0.07,
          "phone": "z_E"
        }
      ],
      "start": 9.75,
      "startOffset": 100,
      "word": "IS"
    },
    {
      "alignedWord": "a",
      "case": "success",
      "end": 9.97,
      "endOffset": 104,
      "phones": [
        {
          "duration": 0.06,
          "phone": "ah_S"
        }
      ],
      "start": 9.91,
      "startOffset": 103,
      "word": "A"
    },
    {
      "alignedWord": "child",
      "case": "success",
      "end": 10.569999,
      "endOffset": 110,
      "phones": [
        {
          "duration": 0.15,
          "phone": "ch_B"
        },
        {
          "duration": 0.2,
          "phone": "ay_I"
        },
        {
          "duration": 0.08,
          "phone": "l_I"
        },
        {
          "duration": 0.17,
          "phone": "d_E"
        }
      ],
      "start": 9.969999,
      "startOffset": 105,
      "word": "CHILD"
    },
    {
      "alignedWord": "six",
      "case": "success",
      "end": 10.94,
      "endOffset": 114,
      "phones": [
        {
          "duration": 0.13,
          "phone": "s_B"
        },
        {
          "duration": 0.07,
          "phone": "ih_I"
        },
        {
          "duration": 0.09,
          "phone": "k_I"
        },
        {
          "duration": 0.04,
          "phone": "s_E"
        }
      ],
      "start": 10.61,
      "startOffset": 111,
      "word": "SIX"
    },
    {
      "alignedWord": "thousand",
      "case": "success",
      "end": 11.37,
      "endOffset": 123,
      "phones": [
        {
          "duration": 0.09,
          "phone": "th_B"
        },
        {
          "duration": 0.13,
          "phone": "aw_I"
        },
        {
          "duration": 0.06,
          "phone": "z_I"
        },
        {
          "duration": 0.05,
          "phone": "ah_I"
        },
        {
          "duration": 0.06,
          "phone": "n_I"
        },
        {
          "duration": 0.04,
          "phone": "d_E"
        }
      ],
      "start": 10.94,
      "startOffset": 115,
      "word": "THOUSAND"
    },
    {
      "alignedWord": "years",
      "case": "success",
      "end": 11.71,
      "endOffset": 129,
      "phones": [
        {
          "duration": 0.12,
          "phone": "y_B"
        },
        {
          "duration": 0.08,
          "phone": "ih_I"
        },
        {
          "duration": 0.07,
          "phone": "r_I"
        },
        {
          "duration": 0.06,
          "phone": "z_E"
        }
      ],
      "start": 11.38,
      "startOffset": 124,
      "word": "YEARS"
    },
    {
      "alignedWord": "old",
      "case": "success",
      "end": 12.120000000000001,
      "endOffset": 133,
      "phones": [
        {
          "duration": 0.14,
          "phone": "ow_B"
        },
        {
          "duration": 0.13,
          "phone": "l_I"
        },
        {
          "duration": 0.14,
          "phone": "d_E"
        }
      ],
      "start": 11.71,
      "startOffset": 130,
      "word": "OLD"
    },
    {
      "alignedWord": "love",
      "case": "success",
      "end": 12.790000000000001,
      "endOffset": 138,
      "phones": [
        {
          "duration": 0.15,
          "phone": "l_B"
        },
        {
          "duration": 0.07,
          "phone": "ah_I"
        },
        {
          "duration": 0.08,
          "phone": "v_E"
        }
      ],
      "start": 12.49,
      "startOffset": 134,
      "word": "LOVE"
    },
    {
      "alignedWord": "has",
      "case": "success",
      "end": 12.989999999999998,
      "endOffset": 142,
      "phones": [
        {
          "duration": 0.06,
          "phone": "hh_B"
        },
        {
          "duration": 0.08,
          "phone": "ae_I"
        },
        {
          "duration": 0.06,
          "phone": "z_E"
        }
      ],
      "start": 12.79,
      "startOffset": 139,
      "word": "HAS"
    },
    {
      "alignedWord": "the",
      "case": "success",
      "end": 13.1,
      "endOffset": 146,
      "phones": [
        {
          "duration": 0.06,
          "phone": "dh_B"
        },
        {
          "duration": 0.05,
          "phone": "ah_E"
        }
      ],
      "start": 12.99,
      "startOffset": 143,
      "word": "THE"
    },
    {
      "alignedWord": "right",
      "case": "success",
      "end": 13.359999,
      "endOffset": 152,
      "phones": [
        {
          "duration": 0.08,
          "phone": "r_B"
        },
        {
          "duration": 0.08,
          "phone": "ay_I"
        },
        {
          "duration": 0.1,
          "phone": "t_E"
        }
      ],
      "start": 13.099999,
      "startOffset": 147,
      "word": "RIGHT"
    },
    {
      "alignedWord": "to",
      "case": "success",
      "end": 13.5,
      "endOffset": 155,
      "phones": [
        {
          "duration": 0.07,
          "phone": "t_B"
        },
        {
          "duration": 0.07,
          "phone": "uw_E"
        }
      ],
      "start": 13.36,
      "startOffset": 153,
      "word": "TO"
    },
    {
      "alignedWord": "a",
      "case": "success",
      "end": 13.58,
      "endOffset": 157,
      "phones": [
        {
          "duration": 0.08,
          "phone": "ah_S"
        }
      ],
      "start": 13.5,
      "startOffset": 156,
      "word": "A"
    },
    {
      "alignedWord": "long",
      "case": "success",
      "end": 13.94,
      "endOffset": 162,
      "phones": [
        {
          "duration": 0.08,
          "phone": "l_B"
        },
        {
          "duration": 0.14,
          "phone": "ao_I"
        },
        {
          "duration": 0.14,
          "phone": "ng_E"
        }
      ],
      "start": 13.58,
      "startOffset": 158,
      "word": "LONG"
    },
    {
      "alignedWord": "white",
      "case": "success",
      "end": 14.299999999999999,
      "endOffset": 168,
      "phones": [
        {
          "duration": 0.13,
          "phone": "w_B"
        },
        {
          "duration": 0.12,
          "phone": "ay_I"
        },
        {
          "duration": 0.1,
          "phone": "t_E"
        }
      ],
      "start": 13.95,
      "startOffset": 163,
      "word": "WHITE"
    },
    {
      "alignedWord": "beard",
      "case": "success",
      "end": 14.809999,
      "endOffset": 174,
      "phones": [
        {
          "duration": 0.06,
          "phone": "b_B"
        },
        {
          "duration": 0.17,
          "phone": "ih_I"
        },
        {
          "duration": 0.12,
          "phone": "r_I"
        },
        {
          "duration": 0.16,
          "phone": "d_E"
        }
      ],
      "start": 14.299999,
      "startOffset": 169,
      "word": "BEARD"
    }
  ]
}