{
  "transcript": "THERE HAS BEEN THE IMPERIAL SCEPTRE SURMOUNTED BY A GLOBE THERE HAS BEEN THE SCEPTRE OF CHARLEMAGNE WHICH WAS OF IRON THERE HAS BEEN THE SCEPTRE OF LOUIS THE GREAT WHICH WAS OF GOLD THE REVOLUTION TWISTED THEM BETWEEN ITS THUMB AND FOREFINGER",
  "words": [
    {
      "alignedWord": "there",
      "case": "success",
      "end": 0.43000000000000005,
      "endOffset": 5,
      "phones": [
        {
          "duration": 0.07,
          "phone": "dh_B"
        },
        {
          "duration": 0.06,
          "phone": "eh_I"
        },
        {
          "duration": 0.03,
          "phone": "r_E"
        }
      ],
      "start": 0.27,
      "startOffset": 0,
      "word": "THERE"
    },
    {
      "alignedWord": "has",
      "case": "success",
      "end": 0.5700000000000001,
      "endOffset": 9,
      "phones": [
        {
          "duration": 0.04,
          "phone": "hh_B"
        },
        {
          "duration": 0.04,
          "phone": "ah_I"
        },
        {
          "duration": 0.06,
          "phone": "z_E"
        }
      ],
      "start": 0.43,
      "startOffset": 6,
      "word": "HAS"
    },
    {
      "alignedWord": "been",
      "case": "success",
      "end": 0.73,
      "endOffset": 14,
      "phones": [
        {
          "duration": 0.04,
          "phone": "b_B"
        },
        {
          "duration": 0.06,
          "phone": "ih_I"
        },
        {
          "duration": 0.06,
          "phone": "n_E"
        }
      ],
      "start": 0.57,
      "startOffset": 10,
      "word": "BEEN"
    },
    {
      "alignedWord": "the",
      "case": "success",
      "end": 0.8,
      "endOffset": 18,
      "phones": [
        {
          "duration": 0.03,
          "phone": "dh_B"
        },
        {
          "duration": 0.04,
          "phone": "iy_E"
        }
      ],
      "start": 0.73,
      "startOffset": 15,
      "word": "THE"
    },
    {
      "alignedWord": "imperial",
      "case": "success",
      "end": 1.4,
      "endOffset": 27,
      "phones": [
        {
          "duration": 0.02,
          "phone": "ih_B"
        },
        {
          "duration": 0.1,
          "phone": "m_I"
        },
        {
          "duration": 0.09,
          "phone": "p_I"
        },
        {
          "duration": 0.11,
          "phone": "ih_I"
        },
        {
          "duration": 0.08,
          "phone": "r_I"
        },
        {
          "duration": 0.06,
          "phone": "iy_I"
        },
        {
          "duration": 0.06,
          "phone": "ah_I"
        },
        {
          "duration": 0.08,
          "phone": "l_E"
        }
      ],
      "start": 0.8,
      "startOffset": 19,
      "word": "IMPERIAL"
    },
    {
      "case": "not-found-in-audio",
      "endOffset": 35,
      "startOffset": 28,
      "word": "SCEPTRE"
    },
    {
      "alignedWord": "<unk>",
      "case": "success",
      "end": 2.38,
      "endOffset": 46,
      "phones": [
        {
          "duration": 0.98,
          "phone": "oov_S"
        }
      ],
      "start": 1.4,
      "startOffset": 36,
      "word": "SURMOUNTED"
    },
    {
      "alignedWord": "by",
      "case": "success",
      "end": 2.5900000000000003,
      "endOffset": 49,
      "phones": [
        {
          "duration": 0.09,
          "phone": "b_B"
        },
        {
          "duration": 0.11,
          "phone": "ay_E"
        }
      ],
      "start": 2.39,
      "startOffset": 47,
      "word": "BY"
    },
    {
      "alignedWord": "a",
      "case": "success",
      "end": 2.6599999999999997,
      "endOffset": 51,
      "phones": [
        {
          "duration": 0.07,
          "phone": "ah_S"
        }
      ],
      "start": 2.59,
      "startOffset": 50,
      "word": "A"
    },
    {
      "alignedWord": "globe",
      "case": "success",
      "end": 3.23,
      "endOffset": 57,
      "phones": [
        {
          "duration": 0.09,
          "phone": "g_B"
        },
        {
          "duration": 0.09,
          "phone": "l_I"
        },
        {
          "duration": 0.19,
          "phone": "ow_I"
        },
        {
          "duration": 0.2,
          "phone": "b_E"
        }
      ],
      "start": 2.66,
      "startOffset": 52,
      "word": "GLOBE"
    },
    {
      "alignedWord": "there",
      "case": "success",
      "end": 3.97,
      "endOffset": 63,
      "phones": [
        {
          "duration": 0.08,
          "phone": "dh_B"
        },
        {
          "duration": 0.06,
          "phone": "eh_I"
        },
        {
          "duration": 0.04,
          "phone": "r_E"
        }
      ],
      "start": 3.79,
      "startOffset": 58,
      "word": "THERE"
    },
    {
      "alignedWord": "has",
      "case": "success",
      "end": 4.15,
      "endOffset": 67,
      "phones": [
        {
          "duration": 0.07,
          "phone": "hh_B"
        },
        {
          "duration": 0.05,
          "phone": "ah_I"
        },
        {
          "duration": 0.06,
          "phone": "z_E"
        }
      ],
      "start": 3.97,
      "startOffset": 64,
      "word": "HAS"
    },
    {
      "alignedWord": "been",
      "case": "success",
      "end": 4.29,
      "endOffset": 72,
      "phones": [
        {
          "duration": 0.05,
          "phone": "b_B"
        },
        {
          "duration": 0.05,
          "phone": "ih_I"
        },
        {
          "duration": 0.04,
          "phone": "n_E"
        }
      ],
      "start": 4.15,
      "startOffset": 68,
      "word": "BEEN"
    },
    {
      "alignedWord": "the",
      "case": "success",
      "end": 4.39,
      "endOffset": 76,
      "phones": [
        {
          "duration": 0.04,
          "phone": "dh_B"
        },
        {
          "duration": 0.06,
          "phone": "ah_E"
        }
      ],
      "start": 4.29,
      "startOffset": 73,
      "word": "THE"
    },
    {
      "alignedWord": "<unk>",
      "case": "success",
      "end": 4.75,
      "endOffset": 84,
      "phones": [
        {
          "duration": 0.36,
          "phone": "oov_S"
        }
      ],
      "start": 4.39,
      "startOffset": 77,
      "word": "SCEPTRE"
    },
    {
      "alignedWord": "of",
      "case": "success",
      "end": 4.88,
      "endOffset": 87,
      "phones": [
        {
          "duration": 0.06,
          "phone": "ah_B"
        },
        {
          "duration": 0.06,
          "phone": "v_E"
        }
      ],
      "start": 4.76,
      "startOffset": 85,
      "word": "OF"
    },
    {
      "alignedWord": "<unk>",
      "case": "success",
      "end": 5.64,
      "endOffset": 99,
      "phones": [
        {
          "duration": 0.76,
          "phone": "oov_S"
        }
      ],
      "start": 4.88,
      "startOffset": 88,
      "word": "CHARLEMAGNE"
    },
    {
      "alignedWord": "which",
      "case": "success",
      "end": 6.109999999999999,
      "endOffset": 105,
      "phones": [
        {
          "duration": 0.04,
          "phone": "hh_B"
        },
        {
          "duration": 0.07,
          "phone": "w_I"
        },
        {
          "duration": 0.03,
          "phone": "ih_I"
        },
        {
          "duration": 0.08,
          "phone": "ch_E"
        }
      ],
      "start": 5.89,
      "startOffset": 100,
      "word": "WHICH"
    },
    {
      "alignedWord": "was",
      "case": "success",
      "end": 6.28,
      "endOffset": 109,
      "phones": [
        {
          "duration": 0.06,
          "phone": "w_B"
        },
        {
          "duration": 0.06,
          "phone": "ah_I"
        },
        {
          "duration": 0.05,
          "phone": "z_E"
        }
      ],
      "start": 6.11,
      "startOffset": 106,
      "word": "WAS"
    },
    {
      "alignedWord": "of",
      "case": "success",
      "end": 6.430000000000001,
      "endOffset": 112,
      "phones": [
        {
          "duration": 0.05,
          "phone": "ah_B"
        },
        {
          "duration": 0.1,
          "phone": "v_E"
        }
      ],
      "start": 6.28,
      "startOffset": 110,
      "word": "OF"
    },
    {
      "alignedWord": "iron",
      "case": "success",
      "end": 6.85,
      "endOffset": 117,
      "phones": [
        {
          "duration": 0.14,
          "phone": "ay_B"
        },
        {
          "duration": 0.11,
          "phone": "er_I"
        },
        {
          "duration": 0.17,
          "phone": "n_E"
        }
      ],
      "start": 6.43,
      "startOffset": 113,
      "word": "IRON"
    },
    {
      "alignedWord": "there",
      "case": "success",
      "end": 7.27,
      "endOffset": 123,
      "phones": [
        {
          "duration": 0.08,
          "phone": "dh_B"
        },
        {
          "duration": 0.05,
          "phone": "eh_I"
        },
        {
          "duration": 0.04,
          "phone": "r_E"
        }
      ],
      "start": 7.1,
      "startOffset": 118,
      "word": "THERE"
    },
    {
      "alignedWord": "has",
      "case": "success",
      "end": 7.43,
      "endOffset": 127,
      "phones": [
        {
          "duration": 0.05,
          "phone": "hh_B"
        },
        {
          "duration": 0.05,
          "phone": "ah_I"
        },
        {
          "duration": 0.06,
          "phone": "z_E"
        }
      ],
      "start": 7.27,
      "startOffset": 124,
      "word": "HAS"
    },
    {
      "alignedWord": "been",
      "case": "success",
      "end": 7.54,
      "endOffset": 132,
      "phones": [
        {
          "duration": 0.03,
          "phone": "b_B"
        },
        {
          "duration": 0.05,
          "phone": "ih_I"
        },
        {
          "duration": 0.03,
          "phone": "n_E"
        }
      ],
      "start": 7.43,
      "startOffset": 128,
      "word": "BEEN"
    },
    {
      "alignedWord": "the",
      "case": "success",
      "end": 7.65,
      "endOffset": 136,
      "phones": [
        {
          "duration": 0.05,
          "phone": "dh_B"
        },
        {
          "duration": 0.06,
          "phone": "ah_E"
        }
      ],
      "start": 7.54,
      "startOffset": 133,
      "word": "THE"
    },
    {
      "alignedWord": "<unk>",
      "case": "success",
      "end": 7.98,
      "endOffset": 144,
      "phones": [
        {
          "duration": 0.33,
          "phone": "oov_S"
        }
      ],
      "start": 7.65,
      "startOffset": 137,
      "word": "SCEPTRE"
    },
    {
      "alignedWord": "of",
      "case": "success",
      "end": 8.09,
      "endOffset": 147,
      "phones": [
        {
          "duration": 0.01,
          "phone": "ah_B"
        },
        {
          "duration": 0.1,
          "phone": "v_E"
        }
      ],
      "start": 7.98,
      "startOffset": 145,
      "word": "OF"
    },
    {
      "alignedWord": "louis",
      "case": "success",
      "end": 8.33,
      "endOffset": 153,
      "phones": [
        {
          "duration": 0.08,
          "phone": "l_B"
        },
        {
          "duration": 0.13,
          "phone": "uw_I"
        },
        {
          "duration": 0.03,
          "phone": "iy_E"
        }
      ],
      "start": 8.09,
      "startOffset": 148,
      "word": "LOUIS"
    },
    {
      "alignedWord": "the",
      "case": "success",
      "end": 8.45,
      "endOffset": 157,
      "phones": [
        {
          "duration": 0.05,
          "phone": "dh_B"
        },
        {
          "duration": 0.07,
          "phone": "ah_E"
        }
      ],
      "start": 8.33,
      "startOffset": 154,
      "word": "THE"
    },
    {
      "alignedWord": "great",
      "case": "success",
      "end": 8.93,
      "endOffset": 163,
      "phones": [
        {
          "duration": 0.07,
          "phone": "g_B"
        },
        {
          "duration": 0.09,
          "phone": "r_I"
        },
        {
          "duration": 0.08,
          "phone": "ey_I"
        },
        {
          "duration": 0.24,
          "phone": "t_E"
        }
      ],
      "start": 8.45,
      "startOffset": 158,
      "word": "GREAT"
    },
    {
      "alignedWord": "which",
      "case": "success",
      "end": 9.24,
      "endOffset": 169,
      "phones": [
        {
          "duration": 0.05,
          "phone": "hh_B"
        },
        {
          "duration": 0.07,
          "phone": "w_I"
        },
        {
          "duration": 0.05,
          "phone": "ih_I"
        },
        {
          "duration": 0.08,
          "phone": "ch_E"
        }
      ],
      "start": 8.99,
      "startOffset": 164,
      "word": "WHICH"
    },
    {
      "alignedWord": "was",
      "case": "success",
      "end": 9.42,
      "endOffset": 173,
      "phones": [
        {
          "duration": 0.06,
          "phone": "w_B"
        },
        {
          "duration": 0.07,
          "phone": "ah_I"
        },
        {
          "duration": 0.05,
          "phone": "z_E"
        }
      ],
      "start": 9.24,
      "startOffset": 170,
      "word": "WAS"
    },
    {
      "alignedWord": "of",
      "case": "success",
      "end": 9.56,
      "endOffset": 176,
      "phones": [
        {
          "duration": 0.05,
          "phone": "ah_B"
        },
        {
          "duration": 0.09,
          "phone": "v_E"
        }
      ],
      "start": 9.42,
      "startOffset": 174,
      "word": "OF"
    },
    {
      "alignedWord": "gold",
      "case": "success",
      "end": 10.049999,
      "endOffset": 181,
      "phones": [
        {
          "duration": 0.05,
          "phone": "g_B"
        },
        {
          "duration": 0.1,
          "phone": "ow_I"
        },
        {
          "duration": 0.17,
          "phone": "l_I"
        },
        {
          "duration": 0.17,
          "phone": "d_E"
        }
      ],
      "start": 9.559999,
      "startOffset": 177,
      "word": "GOLD"
    },
    {
      "alignedWord": "the",
      "case": "success",
      "end": 10.67,
      "endOffset": 185,
      "phones": [
        {
          "duration": 0.08,
          "phone": "dh_B"
        },
        {
          "duration": 0.07,
          "phone": "ah_E"
        }
      ],
      "start": 10.52,
      "startOffset": 182,
      "word": "THE"
    },
    {
      "alignedWord": "revolution",
      "case": "success",
      "end": 11.3,
      "endOffset": 196,
      "phones": [
        {
          "duration": 0.09,
          "phone": "r_B"
        },
        {
          "duration": 0.04,
          "phone": "eh_I"
        },
        {
          "duration": 0.04,
          "phone": "v_I"
        },
        {
          "duration": 0.07,
          "phone": "ah_I"
        },
        {
          "duration": 0.07,
          "phone": "l_I"
        },
        {
          "duration": 0.08,
          "phone": "uw_I"
        },
        {
          "duration": 0.07,
          "phone": "sh_I"
        },
        {
          "duration": 0.06,
          "phone": "ah_I"
        },
        {
          "duration": 0.11,
          "phone": "n_E"
        }
      ],
      "start": 10.67,
      "startOffset": 186,
      "word": "REVOLUTION"
    },
    {
      "alignedWord": "twisted",
      "case": "success",
      "end": 11.780000000000001,
      "endOffset": 204,
      "phones": [
        {
          "duration": 0.08,
          "phone": "t_B"
        },
        {
          "duration": 0.06,
          "phone": "w_I"
        },
        {
          "duration": 0.07,
          "phone": "ih_I"
        },
        {
          "duration": 0.04,
          "phone": "s_I"
        },
        {
          "duration": 0.08,
          "phone": "t_I"
        },
        {
          "duration": 0.05,
          "phone": "ih_I"
        },
        {
          "duration": 0.08,
          "phone": "d_E"
        }
      ],
      "start": 11.32,
      "startOffset": 197,
      "word": "TWISTED"
    },
    {
      "alignedWord": "them",
      "case": "success",
      "end": 11.99,
      "endOffset": 209,
      "phones": [
        {
          "duration": 0.01,
          "phone": "dh_B"
        },
        {
          "duration": 0.14,
          "phone": "eh_I"
        },
        {
          "duration": 0.06,
          "phone": "m_E"
        }
      ],
      "start": 11.78,
      "startOffset": 205,
      "word": "THEM"
    },
    {
      "alignedWord": "between",
      "case": "success",
      "end": 12.35,
      "endOffset": 217,
      "phones": [
        {
          "duration": 0.04,
          "phone": "b_B"
        },
        {
          "duration": 0.07,
          "phone": "ih_I"
        },
        {
          "duration": 0.1,
          "phone": "t_I"
        },
        {
          "duration": 0.05,
          "phone": "w_I"
        },
        {
          "duration": 0.06,
          "phone": "iy_I"
        },
        {
          "duration": 0.04,
          "phone": "n_E"
        }
      ],
      "start": 11.99,
      "startOffset": 210,
      "word": "BETWEEN"
    },
    {
      "alignedWord": "its",
      "case": "success",
      "end": 12.559999000000001,
      "endOffset": 221,
      "phones": [
        {
          "duration": 0.05,
          "phone": "ih_B"
        },
        {
          "duration": 0.07,
          "phone": "t_I"
        },
        {
          "duration": 0.09,
          "phone": "s_E"
        }
      ],
      "start": 12.349999,
      "startOffset": 218,
      "word": "ITS"
    },
    {
      "alignedWord": "thumb",
      "case": "success",
      "end": 12.939999,
      "endOffset": 227,
      "phones": [
        {
          "duration": 0.1,
          "phone": "th_B"
        },
        {
          "duration": 0.13,
          "phone": "ah_I"
        },
        {
          "duration": 0.15,
          "phone": "m_E"
        }
      ],
      "start": 12.559999,
      "startOffset": 222,
      "word": "THUMB"
    },
    {
      "alignedWord": "and",
      "case": "success",
      "end": 13.260000000000002,
      "endOffset": 231,
      "phones": [
        {
          "duration": 0.13,
          "phone": "ae_B"
        },
        {
          "duration": 0.08,
          "phone": "n_I"
        },
        {
          "duration": 0.09,
          "phone": "d_E"
        }
      ],
      "start": 12.96,
      "startOffset": 228,
      "word": "AND"
    },
    {
      "alignedWord": "<unk>",
      "case": "success",
      "end": 13.959999999999999,
      "endOffset": 242,
      "phones": [
        {
          "duration": 0.69,
          "phone": "oov_S"
        }
      ],
      "start": 13.27,
      "startOffset": 232,
      "word": "FOREFINGER"
    }
  ]
}