{
  "transcript": "FOR JUST AS HE UNDERSTOOD THE SPIRITUAL ALCHEMY THAT CAN TRANSMUTE EVIL FORCES BY RAISING THEM INTO HIGHER CHANNELS SO HE KNEW FROM LONG STUDY THE OCCULT USE OF SOUND AND ITS DIRECT EFFECT UPON THE PLASTIC REGION",
  "words": [
    {
      "alignedWord": "for",
      "case": "success",
      "end": 0.45999999999999996,
      "endOffset": 3,
      "phones": [
        {
          "duration": 0.1,
          "phone": "f_B"
        },
        {
          "duration": 0.07,
          "phone": "er_E"
        }
      ],
      "start": 0.29,
      "startOffset": 0,
      "word": "FOR"
    },
    {
      "alignedWord": "just",
      "case": "success",
      "end": 0.8,
      "endOffset": 8,
      "phones": [
        {
          "duration": 0.13,
          "phone": "jh_B"
        },
        {
          "duration": 0.08,
          "phone": "ah_I"
        },
        {
          "duration": 0.06,
          "phone": "s_I"
        },
        {
          "duration": 0.07,
          "phone": "t_E"
        }
      ],
      "start": 0.46,
      "startOffset": 4,
      "word": "JUST"
    },
    {
      "alignedWord": "as",
      "case": "success",
      "end": 0.93,
      "endOffset": 11,
      "phones": [
        {
          "duration": 0.07,
          "phone": "ae_B"
        },
        {
          "duration": 0.06,
          "phone": "z_E"
        }
      ],
      "start": 0.8,
      "startOffset": 9,
      "word": "AS"
    },
    {
      "alignedWord": "he",
      "case": "success",
      "end": 1.04,
      "endOffset": 14,
      "phones": [
        {
          "duration": 0.04,
          "phone": "hh_B"
        },
        {
          "duration": 0.07,
          "phone": "iy_E"
        }
      ],
      "start": 0.93,
      "startOffset": 12,
      "word": "HE"
    },
    {
      "alignedWord": "understood",
      "case": "success",
      "end": 1.65,
      "endOffset": 25,
      "phones": [
        {
          "duration": 0.05,
          "phone": "ah_B"
        },
        {
          "duration": 0.06,
          "phone": "n_I"
        },
        {
          "duration": 0.06,
          "phone": "d_I"
        },
        {
          "duration": 0.05,
          "phone": "er_I"
        },
        {
          "duration": 0.12,
          "phone": "s_I"
        },
        {
          "duration": 0.05,
          "phone": "t_I"
        },
        {
          "duration": 0.11,
          "phone": "uh_I"
        },
        {
          "duration": 0.11,
          "phone": "d_E"
        }
      ],
      "start": 1.04,
      "startOffset": 15,
      "word": "UNDERSTOOD"
    },
    {
      "alignedWord": "the",
      "case": "success",
      "end": 1.9300000000000002,
      "endOffset": 29,
      "phones": [
        {
          "duration": 0.06,
          "phone": "dh_B"
        },
        {
          "duration": 0.07,
          "phone": "ah_E"
        }
      ],
      "start": 1.8,
      "startOffset": 26,
      "word": "THE"
    },
    {
      "alignedWord": "spiritual",
      "case": "success",
      "end": 2.49,
      "endOffset": 39,
      "phones": [
        {
          "duration": 0.09,
          "phone": "s_B"
        },
        {
          "duration": 0.08,
          "phone": "p_I"
        },
        {
          "duration": 0.1,
          "phone": "ih_I"
        },
        {
          "duration": 0.04,
          "phone": "r_I"
        },
        {
          "duration": 0.05,
          "phone": "ih_I"
        },
        {
          "duration": 0.07,
          "phone": "ch_I"
        },
        {
          "duration": 0.02,
          "phone": "ah_I"
        },
        {
          "duration": 0.01,
          "phone": "w_I"
        },
        {
          "duration": 0.03,
          "phone": "ah_I"
        },
        {
          "duration": 0.07,
          "phone": "l_E"
        }
      ],
      "start": 1.93,
      "startOffset": 30,
      "word": "SPIRITUAL"
    },
    {
      "alignedWord": "<unk>",
      "case": "success",
      "end": 3.0,
      "endOffset": 47,
      "phones": [
        {
          "duration": 0.47,
          "phone": "oov_S"
        }
      ],
      "start": 2.53,
      "startOffset": 40,
      "word": "ALCHEMY"
    },
    {
      "alignedWord": "that",
      "case": "success",
      "end": 3.23,
      "endOffset": 52,
      "phones": [
        {
          "duration": 0.07,
          "phone": "dh_B"
        },
        {
          "duration": 0.05,
          "phone": "ae_I"
        },
        {
          "duration": 0.1,
          "phone": "t_E"
        }
      ],
      "start": 3.01,
      "startOffset": 48,
      "word": "THAT"
    },
    {
      "alignedWord": "can",
      "case": "success",
      "end": 3.4,
      "endOffset": 56,
      "phones": [
        {
          "duration": 0.04,
          "phone": "k_B"
        },
        {
          "duration": 0.06,
          "phone": "ah_I"
        },
        {
          "duration": 0.07,
          "phone": "n_E"
        }
      ],
      "start": 3.23,
      "startOffset": 53,
      "word": "CAN"
    },
    {
      "alignedWord": "<unk>",
      "case": "success",
      "end": 4.06,
      "endOffset": 66,
      "phones": [
        {
          "duration": 0.66,
          "phone": "oov_S"
        }
      ],
      "start": 3.4,
      "startOffset": 57,
      "word": "TRANSMUTE"
    },
    {
      "alignedWord": "evil",
      "case": "success",
      "end": 4.409999999999999,
      "endOffset": 71,
      "phones": [
        {
          "duration": 0.13,
          "phone": "iy_B"
        },
        {
          "duration": 0.08,
          "phone": "v_I"
        },
        {
          "duration": 0.04,
          "phone": "ah_I"
        },
        {
          "duration": 0.06,
          "phone": "l_E"
        }
      ],
      "start": 4.1,
      "startOffset": 67,
      "word": "EVIL"
    },
    {
      "alignedWord": "forces",
      "case": "success",
      "end": 4.98,
      "endOffset": 78,
      "phones": [
        {
          "duration": 0.09,
          "phone": "f_B"
        },
        {
          "duration": 0.12,
          "phone": "ao_I"
        },
        {
          "duration": 0.08,
          "phone": "r_I"
        },
        {
          "duration": 0.08,
          "phone": "s_I"
        },
        {
          "duration": 0.08,
          "phone": "ih_I"
        },
        {
          "duration": 0.12,
          "phone": "z_E"
        }
      ],
      "start": 4.41,
      "startOffset": 72,
      "word": "FORCES"
    },
    {
      "alignedWord": "by",
      "case": "success",
      "end": 5.44,
      "endOffset": 81,
      "phones": [
        {
          "duration": 0.1,
          "phone": "b_B"
        },
        {
          "duration": 0.1,
          "phone": "ay_E"
        }
      ],
      "start": 5.24,
      "startOffset": 79,
      "word": "BY"
    },
    {
      "alignedWord": "raising",
      "case": "success",
      "end": 5.79,
      "endOffset": 89,
      "phones": [
        {
          "duration": 0.11,
          "phone": "r_B"
        },
        {
          "duration": 0.07,
          "phone": "ey_I"
        },
        {
          "duration": 0.05,
          "phone": "z_I"
        },
        {
          "duration": 0.05,
          "phone": "ih_I"
        },
        {
          "duration": 0.07,
          "phone": "ng_E"
        }
      ],
      "start": 5.44,
      "startOffset": 82,
      "word": "RAISING"
    },
    {
      "alignedWord": "them",
      "case": "success",
      "end": 5.93,
      "endOffset": 94,
      "phones": [
        {
          "duration": 0.02,
          "phone": "dh_B"
        },
        {
          "duration": 0.07,
          "phone": "eh_I"
        },
        {
          "duration": 0.05,
          "phone": "m_E"
        }
      ],
      "start": 5.79,
      "startOffset": 90,
      "word": "THEM"
    },
    {
      "alignedWord": "into",
      "case": "success",
      "end": 6.13,
      "endOffset": 99,
      "phones": [
        {
          "duration": 0.03,
          "phone": "ih_B"
        },
        {
          "duration": 0.05,
          "phone": "n_I"
        },
        {
          "duration": 0.07,
          "phone": "t_I"
        },
        {
          "duration": 0.05,
          "phone": "ah_E"
        }
      ],
      "start": 5.93,
      "startOffset": 95,
      "word": "INTO"
    },
    {
      "alignedWord": "higher",
      "case": "success",
      "end": 6.49,
      "endOffset": 106,
      "phones": [
        {
          "duration": 0.11,
          "phone": "hh_B"
        },
        {
          "duration": 0.14,
          "phone": "ay_I"
        },
        {
          "duration": 0.11,
          "phone": "er_E"
        }
      ],
      "start": 6.13,
      "startOffset": 100,
      "word": "HIGHER"
    },
    {
      "alignedWord": "channels",
      "case": "success",
      "end": 7.08,
      "endOffset": 115,
      "phones": [
        {
          "duration": 0.16,
          "phone": "ch_B"
        },
        {
          "duration": 0.08,
          "phone": "ae_I"
        },
        {
          "duration": 0.05,
          "phone": "n_I"
        },
        {
          "duration": 0.1,
          "phone": "ah_I"
        },
        {
          "duration": 0.05,
          "phone": "l_I"
        },
        {
          "duration": 0.14,
          "phone": "z_E"
        }
      ],
      "start": 6.5,
      "startOffset": 107,
      "word": "CHANNELS"
    },
    {
      "alignedWord": "so",
      "case": "success",
      "end": 7.79,
      "endOffset": 118,
      "phones": [
        {
          "duration": 0.15,
          "phone": "s_B"
        },
        {
          "duration": 0.13,
          "phone": "ow_E"
        }
      ],
      "start": 7.51,
      "startOffset": 116,
      "word": "SO"
    },
    {
      "alignedWord": "he",
      "case": "success",
      "end": 7.96,
      "endOffset": 121,
      "phones": [
        {
          "duration": 0.09,
          "phone": "hh_B"
        },
        {
          "duration": 0.08,
          "phone": "iy_E"
        }
      ],
      "start": 7.79,
      "startOffset": 119,
      "word": "HE"
    },
    {
      "alignedWord": "knew",
      "case": "success",
      "end": 8.2,
      "endOffset": 126,
      "phones": [
        {
          "duration": 0.02,
          "phone": "n_B"
        },
        {
          "duration": 0.09,
          "phone": "y_I"
        },
        {
          "duration": 0.13,
          "phone": "uw_E"
        }
      ],
      "start": 7.96,
      "startOffset": 122,
      "word": "KNEW"
    },
    {
      "alignedWord": "from",
      "case": "success",
      "end": 8.46,
      "endOffset": 131,
      "phones": [
        {
          "duration": 0.07,
          "phone": "f_B"
        },
        {
          "duration": 0.05,
          "phone": "er_I"
        },
        {
          "duration": 0.11,
          "phone": "m_E"
        }
      ],
      "start": 8.23,
      "startOffset": 127,
      "word": "FROM"
    },
    {
      "alignedWord": "long",
      "case": "success",
      "end": 8.75,
      "endOffset": 136,
      "phones": [
        {
          "duration": 0.06,
          "phone": "l_B"
        },
        {
          "duration": 0.13,
          "phone": "ao_I"
        },
        {
          "duration": 0.1,
          "phone": "ng_E"
        }
      ],
      "start": 8.46,
      "startOffset": 132,
      "word": "LONG"
    },
    {
      "alignedWord": "study",
      "case": "success",
      "end": 9.25,
      "endOffset": 142,
      "phones": [
        {
          "duration": 0.09,
          "phone": "s_B"
        },
        {
          "duration": 0.08,
          "phone": "t_I"
        },
        {
          "duration": 0.08,
          "phone": "ah_I"
        },
        {
          "duration": 0.06,
          "phone": "d_I"
        },
        {
          "duration": 0.17,
          "phone": "iy_E"
        }
      ],
      "start": 8.77,
      "startOffset": 137,
      "word": "STUDY"
    },
    {
      "alignedWord": "the",
      "case": "success",
      "end": 9.569999000000001,
      "endOffset": 146,
      "phones": [
        {
          "duration": 0.08,
          "phone": "dh_B"
        },
        {
          "duration": 0.06,
          "phone": "iy_E"
        }
      ],
      "start": 9.429999,
      "startOffset": 143,
      "word": "THE"
    },
    {
      "alignedWord": "occult",
      "case": "success",
      "end": 9.96,
      "endOffset": 153,
      "phones": [
        {
          "duration": 0.07,
          "phone": "ah_B"
        },
        {
          "duration": 0.1,
          "phone": "k_I"
        },
        {
          "duration": 0.08,
          "phone": "ah_I"
        },
        {
          "duration": 0.08,
          "phone": "l_I"
        },
        {
          "duration": 0.06,
          "phone": "t_E"
        }
      ],
      "start": 9.57,
      "startOffset": 147,
      "word": "OCCULT"
    },
    {
      "alignedWord": "use",
      "case": "success",
      "end": 10.169998999999999,
      "endOffset": 157,
      "phones": [
        {
          "duration": 0.07,
          "phone": "y_B"
        },
        {
          "duration": 0.08,
          "phone": "uw_I"
        },
        {
          "duration": 0.05,
          "phone": "z_E"
        }
      ],
      "start": 9.969999,
      "startOffset": 154,
      "word": "USE"
    },
    {
      "alignedWord": "of",
      "case": "success",
      "end": 10.3,
      "endOffset": 160,
      "phones": [
        {
          "duration": 0.06,
          "phone": "ah_B"
        },
        {
          "duration": 0.07,
          "phone": "v_E"
        }
      ],
      "start": 10.17,
      "startOffset": 158,
      "word": "OF"
    },
    {
      "alignedWord": "sound",
      "case": "success",
      "end": 10.84,
      "endOffset": 166,
      "phones": [
        {
          "duration": 0.18,
          "phone": "s_B"
        },
        {
          "duration": 0.2,
          "phone": "aw_I"
        },
        {
          "duration": 0.06,
          "phone": "n_I"
        },
        {
          "duration": 0.1,
          "phone": "d_E"
        }
      ],
      "start": 10.3,
      "startOffset": 161,
      "word": "SOUND"
    },
    {
      "alignedWord": "and",
      "case": "success",
      "end": 11.209999999999999,
      "endOffset": 170,
      "phones": [
        {
          "duration": 0.1,
          "phone": "ae_B"
        },
        {
          "duration": 0.05,
          "phone": "n_I"
        },
        {
          "duration": 0.03,
          "phone": "d_E"
        }
      ],
      "start": 11.03,
      "startOffset": 167,
      "word": "AND"
    },
    {
      "alignedWord": "its",
      "case": "success",
      "end": 11.420000000000002,
      "endOffset": 174,
      "phones": [
        {
          "duration": 0.05,
          "phone": "ih_B"
        },
        {
          "duration": 0.07,
          "phone": "t_I"
        },
        {
          "duration": 0.09,
          "phone": "s_E"
        }
      ],
      "start": 11.21,
      "startOffset": 171,
      "word": "ITS"
    },
    {
      "alignedWord": "direct",
      "case": "success",
      "end": 11.86,
      "endOffset": 181,
      "phones": [
        {
          "duration": 0.08,
          "phone": "d_B"
        },
        {
          "duration": 0.08,
          "phone": "ay_I"
        },
        {
          "duration": 0.09,
          "phone": "r_I"
        },
        {
          "duration": 0.07,
          "phone": "eh_I"
        },
        {
          "duration": 0.06,
          "phone": "k_I"
        },
        {
          "duration": 0.06,
          "phone": "t_E"
        }
      ],
      "start": 11.42,
      "startOffset": 175,
      "word": "DIRECT"
    },
    {
      "alignedWord": "effect",
      "case": "success",
      "end": 12.29,
      "endOffset": 188,
      "phones": [
        {
          "duration": 0.07,
          "phone": "ah_B"
        },
        {
          "duration": 0.13,
          "phone": "f_I"
        },
        {
          "duration": 0.11,
          "phone": "eh_I"
        },
        {
          "duration": 0.06,
          "phone": "k_I"
        },
        {
          "duration": 0.06,
          "phone": "t_E"
        }
      ],
      "start": 11.86,
      "startOffset": 182,
      "word": "EFFECT"
    },
    {
      "alignedWord": "upon",
      "case": "success",
      "end": 12.62,
      "endOffset": 193,
      "phones": [
        {
          "duration": 0.07,
          "phone": "ah_B"
        },
        {
          "duration": 0.1,
          "phone": "p_I"
        },
        {
          "duration": 0.1,
          "phone": "aa_I"
        },
        {
          "duration": 0.06,
          "phone": "n_E"
        }
      ],
      "start": 12.29,
      "startOffset": 189,
      "word": "UPON"
    },
    {
      "alignedWord": "the",
      "case": "success",
      "end": 12.709999999999999,
      "endOffset": 197,
      "phones": [
        {
          "duration": 0.06,
          "phone": "dh_B"
        },
        {
          "duration": 0.03,
          "phone": "ah_E"
        }
      ],
      "start": 12.62,
      "startOffset": 194,
      "word": "THE"
    },
    {
      "alignedWord": "plastic",
      "case": "success",
      "end": 13.24,
      "endOffset": 205,
      "phones": [
        {
          "duration": 0.08,
          "phone": "p_B"
        },
        {
          "duration": 0.09,
          "phone": "l_I"
        },
        {
          "duration": 0.1,
          "phone": "ae_I"
        },
        {
          "duration": 0.06,
          "phone": "s_I"
        },
        {
          "duration": 0.06,
          "phone": "t_I"
        },
        {
          "duration": 0.06,
          "phone": "ih_I"
        },
        {
          "duration": 0.08,
          "phone": "k_E"
        }
      ],
      "start": 12.71,
      "startOffset": 198,
      "word": "PLASTIC"
    },
    {
      "alignedWord": "region",
      "case": "success",
      "end": 13.52,
      "endOffset": 212,
      "phones": [
        {
          "duration": 0.05,
          "phone": "r_B"
        },
        {
          "duration": 0.08,
          "phone": "iy_I"
        },
        {
          "duration": 0.06,
          "phone": "jh_I"
        },
        {
          "duration": 0.07,
          "phone": "ah_I"
        },
        {
          "duration": 0.02,
          "phone": "n_E"
        }
      ],
      "start": 13.24,
      "startOffset": 206,
      "word": "REGION"
    }
  ]
}