{
  "transcript": "OF GOLD RINGS AND SILVER CROSSES GATHERED IN HARVEST TIME IN FURROWS SOWN WITH CORPSES DID NOT AMOUNT TO A LARGE TOTAL AND DID NOT CARRY THIS SUTLER TURNED EATING HOUSE KEEPER VERY FAR",
  "words": [
    {
      "alignedWord": "of",
      "case": "success",
      "end": 0.35,
      "endOffset": 2,
      "phones": [
        {
          "duration": 0.1,
          "phone": "ah_B"
        },
        {
          "duration": 0.08,
          "phone": "v_E"
        }
      ],
      "start": 0.17,
      "startOffset": 0,
      "word": "OF"
    },
    {
      "alignedWord": "gold",
      "case": "success",
      "end": 0.6499999999999999,
      "endOffset": 7,
      "phones": [
        {
          "duration": 0.05,
          "phone": "g_B"
        },
        {
          "duration": 0.08,
          "phone": "ow_I"
        },
        {
          "duration": 0.08,
          "phone": "l_I"
        },
        {
          "duration": 0.09,
          "phone": "d_E"
        }
      ],
      "start": 0.35,
      "startOffset": 3,
      "word": "GOLD"
    },
    {
      "alignedWord": "rings",
      "case": "success",
      "end": 1.06,
      "endOffset": 13,
      "phones": [
        {
          "duration": 0.07,
          "phone": "r_B"
        },
        {
          "duration": 0.12,
          "phone": "ih_I"
        },
        {
          "duration": 0.15,
          "phone": "ng_I"
        },
        {
          "duration": 0.07,
          "phone": "z_E"
        }
      ],
      "start": 0.65,
      "startOffset": 8,
      "word": "RINGS"
    },
    {
      "alignedWord": "and",
      "case": "success",
      "end": 1.23,
      "endOffset": 17,
      "phones": [
        {
          "duration": 0.04,
          "phone": "ae_B"
        },
        {
          "duration": 0.05,
          "phone": "n_I"
        },
        {
          "duration": 0.08,
          "phone": "d_E"
        }
      ],
      "start": 1.06,
      "startOffset": 14,
      "word": "AND"
    },
    {
      "alignedWord": "silver",
      "case": "success",
      "end": 1.62,
      "endOffset": 24,
      "phones": [
        {
          "duration": 0.07,
          "phone": "s_B"
        },
        {
          "duration": 0.08,
          "phone": "ih_I"
        },
        {
          "duration": 0.09,
          "phone": "l_I"
        },
        {
          "duration": 0.08,
          "phone": "v_I"
        },
        {
          "duration": 0.06,
          "phone": "er_E"
        }
      ],
      "start": 1.24,
      "startOffset": 18,
      "word": "SILVER"
    },
    {
      "alignedWord": "crosses",
      "case": "success",
      "end": 2.41,
      "endOffset": 32,
      "phones": [
        {
          "duration": 0.13,
          "phone": "k_B"
        },
        {
          "duration": 0.07,
          "phone": "r_I"
        },
        {
          "duration": 0.13,
          "phone": "ao_I"
        },
        {
          "duration": 0.11,
          "phone": "s_I"
        },
        {
          "duration": 0.12,
          "phone": "ih_I"
        },
        {
          "duration": 0.23,
          "phone": "z_E"
        }
      ],
      "start": 1.62,
      "startOffset": 25,
      "word": "CROSSES"
    },
    {
      "alignedWord": "gathered",
      "case": "success",
      "end": 2.88,
      "endOffset": 41,
      "phones": [
        {
          "duration": 0.11,
          "phone": "g_B"
        },
        {
          "duration": 0.08,
          "phone": "ae_I"
        },
        {
          "duration": 0.08,
          "phone": "dh_I"
        },
        {
          "duration": 0.05,
          "phone": "er_I"
        },
        {
          "duration": 0.05,
          "phone": "d_E"
        }
      ],
      "start": 2.51,
      "startOffset": 33,
      "word": "GATHERED"
    },
    {
      "alignedWord": "in",
      "case": "success",
      "end": 3.02,
      "endOffset": 44,
      "phones": [
        {
          "duration": 0.06,
          "phone": "ih_B"
        },
        {
          "duration": 0.08,
          "phone": "n_E"
        }
      ],
      "start": 2.88,
      "startOffset": 42,
      "word": "IN"
    },
    {
      "alignedWord": "harvest",
      "case": "success",
      "end": 3.4699999999999998,
      "endOffset": 52,
      "phones": [
        {
          "duration": 0.1,
          "phone": "hh_B"
        },
        {
          "duration": 0.06,
          "phone": "aa_I"
        },
        {
          "duration": 0.06,
          "phone": "r_I"
        },
        {
          "duration": 0.05,
          "phone": "v_I"
        },
        {
          "duration": 0.06,
          "phone": "ah_I"
        },
        {
          "duration": 0.07,
          "phone": "s_I"
        },
        {
          "duration": 0.04,
          "phone": "t_E"
        }
      ],
      "start": 3.03,
      "startOffset": 45,
      "word": "HARVEST"
    },
    {
      "alignedWord": "time",
      "case": "success",
      "end": 3.84,
      "endOffset": 57,
      "phones": [
        {
          "duration": 0.08,
          "phone": "t_B"
        },
        {
          "duration": 0.2,
          "phone": "ay_I"
        },
        {
          "duration": 0.08,
          "phone": "m_E"
        }
      ],
      "start": 3.48,
      "startOffset": 53,
      "word": "TIME"
    },
    {
      "alignedWord": "in",
      "case": "success",
      "end": 4.01,
      "endOffset": 60,
      "phones": [
        {
          "duration": 0.07,
          "phone": "ih_B"
        },
        {
          "duration": 0.1,
          "phone": "n_E"
        }
      ],
      "start": 3.84,
      "startOffset": 58,
      "word": "IN"
    },
    {
      "alignedWord": "<unk>",
      "case": "success",
      "end": 4.45,
      "endOffset": 68,
      "phones": [
        {
          "duration": 0.44,
          "phone": "oov_S"
        }
      ],
      "start": 4.01,
      "startOffset": 61,
      "word": "FURROWS"
    },
    {
      "alignedWord": "sown",
      "case": "success",
      "end": 4.75,
      "endOffset": 73,
      "phones": [
        {
          "duration": 0.13,
          "phone": "s_B"
        },
        {
          "duration": 0.09,
          "phone": "ow_I"
        },
        {
          "duration": 0.08,
          "phone": "n_E"
        }
      ],
      "start": 4.45,
      "startOffset": 69,
      "word": "SOWN"
    },
    {
      "alignedWord": "with",
      "case": "success",
      "end": 4.89,
      "endOffset": 78,
      "phones": [
        {
          "duration": 0.03,
          "phone": "w_B"
        },
        {
          "duration": 0.03,
          "phone": "ih_I"
        },
        {
          "duration": 0.07,
          "phone": "th_E"
        }
      ],
      "start": 4.76,
      "startOffset": 74,
      "word": "WITH"
    },
    {
      "alignedWord": "corpses",
      "case": "success",
      "end": 5.56,
      "endOffset": 86,
      "phones": [
        {
          "duration": 0.11,
          "phone": "k_B"
        },
        {
          "duration": 0.09,
          "phone": "ao_I"
        },
        {
          "duration": 0.05,
          "phone": "r_I"
        },
        {
          "duration": 0.06,
          "phone": "p_I"
        },
        {
          "duration": 0.06,
          "phone": "s_I"
        },
        {
          "duration": 0.1,
          "phone": "ih_I"
        },
        {
          "duration": 0.16,
          "phone": "z_E"
        }
      ],
      "start": 4.93,
      "startOffset": 79,
      "word": "CORPSES"
    },
    {
      "alignedWord": "did",
      "case": "success",
      "end": 6.1899999999999995,
      "endOffset": 90,
      "phones": [
        {
          "duration": 0.07,
          "phone": "d_B"
        },
        {
          "duration": 0.06,
          "phone": "ih_I"
        },
        {
          "duration": 0.05,
          "phone": "d_E"
        }
      ],
      "start": 6.01,
      "startOffset": 87,
      "word": "DID"
    },
    {
      "alignedWord": "not",
      "case": "success",
      "end": 6.41,
      "endOffset": 94,
      "phones": [
        {
          "duration": 0.04,
          "phone": "n_B"
        },
        {
          "duration": 0.11,
          "phone": "aa_I"
        },
        {
          "duration": 0.07,
          "phone": "t_E"
        }
      ],
      "start": 6.19,
      "startOffset": 91,
      "word": "NOT"
    },
    {
      "alignedWord": "amount",
      "case": "success",
      "end": 6.75,
      "endOffset": 101,
      "phones": [
        {
          "duration": 0.05,
          "phone": "ah_B"
        },
        {
          "duration": 0.07,
          "phone": "m_I"
        },
        {
          "duration": 0.12,
          "phone": "aw_I"
        },
        {
          "duration": 0.04,
          "phone": "n_I"
        },
        {
          "duration": 0.06,
          "phone": "t_E"
        }
      ],
      "start": 6.41,
      "startOffset": 95,
      "word": "AMOUNT"
    },
    {
      "alignedWord": "to",
      "case": "success",
      "end": 6.92,
      "endOffset": 104,
      "phones": [
        {
          "duration": 0.07,
          "phone": "t_B"
        },
        {
          "duration": 0.09,
          "phone": "uw_E"
        }
      ],
      "start": 6.76,
      "startOffset": 102,
      "word": "TO"
    },
    {
      "alignedWord": "a",
      "case": "success",
      "end": 6.99,
      "endOffset": 106,
      "phones": [
        {
          "duration": 0.07,
          "phone": "ah_S"
        }
      ],
      "start": 6.92,
      "startOffset": 105,
      "word": "A"
    },
    {
      "alignedWord": "large",
      "case": "success",
      "end": 7.34,
      "endOffset": 112,
      "phones": [
        {
          "duration": 0.07,
          "phone": "l_B"
        },
        {
          "duration": 0.1,
          "phone": "aa_I"
        },
        {
          "duration": 0.06,
          "phone": "r_I"
        },
        {
          "duration": 0.12,
          "phone": "jh_E"
        }
      ],
      "start": 6.99,
      "startOffset": 107,
      "word": "LARGE"
    },
    {
      "alignedWord": "total",
      "case": "success",
      "end": 7.9,
      "endOffset": 118,
      "phones": [
        {
          "duration": 0.1,
          "phone": "t_B"
        },
        {
          "duration": 0.12,
          "phone": "ow_I"
        },
        {
          "duration": 0.03,
          "phone": "t_I"
        },
        {
          "duration": 0.08,
          "phone": "ah_I"
        },
        {
          "duration": 0.23,
          "phone": "l_E"
        }
      ],
      "start": 7.34,
      "startOffset": 113,
      "word": "TOTAL"
    },
    {
      "alignedWord": "and",
      "case": "success",
      "end": 8.13,
      "endOffset": 122,
      "phones": [
        {
          "duration": 0.07,
          "phone": "ae_B"
        },
        {
          "duration": 0.03,
          "phone": "n_I"
        },
        {
          "duration": 0.05,
          "phone": "d_E"
        }
      ],
      "start": 7.98,
      "startOffset": 119,
      "word": "AND"
    },
    {
      "alignedWord": "did",
      "case": "success",
      "end": 8.25,
      "endOffset": 126,
      "phones": [
        {
          "duration": 0.03,
          "phone": "d_B"
        },
        {
          "duration": 0.04,
          "phone": "ih_I"
        },
        {
          "duration": 0.05,
          "phone": "d_E"
        }
      ],
      "start": 8.13,
      "startOffset": 123,
      "word": "DID"
    },
    {
      "alignedWord": "not",
      "case": "success",
      "end": 8.47,
      "endOffset": 130,
      "phones": [
        {
          "duration": 0.02,
          "phone": "n_B"
        },
        {
          "duration": 0.13,
          "phone": "aa_I"
        },
        {
          "duration": 0.07,
          "phone": "t_E"
        }
      ],
      "start": 8.25,
      "startOffset": 127,
      "word": "NOT"
    },
    {
      "alignedWord": "carry",
      "case": "success",
      "end": 8.81,
      "endOffset": 136,
      "phones": [
        {
          "duration": 0.12,
          "phone": "k_B"
        },
        {
          "duration": 0.06,
          "phone": "eh_I"
        },
        {
          "duration": 0.07,
          "phone": "r_I"
        },
        {
          "duration": 0.08,
          "phone": "iy_E"
        }
      ],
      "start": 8.48,
      "startOffset": 131,
      "word": "CARRY"
    },
    {
      "alignedWord": "this",
      "case": "success",
      "end": 9.049999,
      "endOffset": 141,
      "phones": [
        {
          "duration": 0.06,
          "phone": "dh_B"
        },
        {
          "duration": 0.09,
          "phone": "ih_I"
        },
        {
          "duration": 0.09,
          "phone": "s_E"
        }
      ],
      "start": 8.809999,
      "startOffset": 137,
      "word": "THIS"
    },
    {
      "alignedWord": "<unk>",
      "case": "success",
      "end": 9.549999,
      "endOffset": 148,
      "phones": [
        {
          "duration": 0.49,
          "phone": "oov_S"
        }
      ],
      "start": 9.059999,
      "startOffset": 142,
      "word": "SUTLER"
    },
    {
      "alignedWord": "turned",
      "case": "success",
      "end": 9.959999,
      "endOffset": 155,
      "phones": [
        {
          "duration": 0.1,
          "phone": "t_B"
        },
        {
          "duration": 0.13,
          "phone": "er_I"
        },
        {
          "duration": 0.05,
          "phone": "n_I"
        },
        {
          "duration": 0.08,
          "phone": "d_E"
        }
      ],
      "start": 9.599999,
      "startOffset": 149,
      "word": "TURNED"
    },
    {
      "alignedWord": "eating",
      "case": "success",
      "end": 10.279999,
      "endOffset": 162,
      "phones": [
        {
          "duration": 0.12,
          "phone": "iy_B"
        },
        {
          "duration": 0.04,
          "phone": "t_I"
        },
        {
          "duration": 0.06,
          "phone": "ih_I"
        },
        {
          "duration": 0.09,
          "phone": "ng_E"
        }
      ],
      "start": 9.969999,
      "startOffset": 156,
      "word": "EATING"
    },
    {
      "alignedWord": "house",
      "case": "success",
      "end": 10.61,
      "endOffset": 168,
      "phones": [
        {
          "duration": 0.08,
          "phone": "hh_B"
        },
        {
          "duration": 0.15,
          "phone": "aw_I"
        },
        {
          "duration": 0.1,
          "phone": "s_E"
        }
      ],
      "start": 10.28,
      "startOffset": 163,
      "word": "HOUSE"
    },
    {
      "alignedWord": "keeper",
      "case": "success",
      "end": 10.930000000000001,
      "endOffset": 175,
      "phones": [
        {
          "duration": 0.08,
          "phone": "k_B"
        },
        {
          "duration": 0.09,
          "phone": "iy_I"
        },
        {
          "duration": 0.08,
          "phone": "p_I"
        },
        {
          "duration": 0.05,
          "phone": "er_E"
        }
      ],
      "start": 10.63,
      "startOffset": 169,
      "word": "KEEPER"
    },
    {
      "alignedWord": "very",
      "case": "success",
      "end": 11.279999,
      "endOffset": 180,
      "phones": [
        {
          "duration": 0.08,
          "phone": "v_B"
        },
        {
          "duration": 0.08,
          "phone": "eh_I"
        },
        {
          "duration": 0.1,
          "phone": "r_I"
        },
        {
          "duration": 0.09,
          "phone": "iy_E"
        }
      ],
      "start": 10.929999,
      "startOffset": 176,
      "word": "VERY"
    },
    {
      "alignedWord": "far",
      "case": "success",
      "end": 11.79,
      "endOffset": 184,
      "phones": [
        {
          "duration": 0.13,
          "phone": "f_B"
        },
        {
          "duration": 0.17,
          "phone": "aa_I"
        },
        {
          "duration": 0.21,
          "phone": "r_E"
        }
      ],
      "start": 11.28,
      "startOffset": 181,
      "word": "FAR"
    }
  ]
}