{
  "transcript": "WHAT ARE YOU DOING WITH THAT DAGGER THE BOY'S BREAST HEAVED AND HIS DIRTY FINGERS CLENCHED TIGHT AROUND THE WHITTLED STICK DON'T YOU TALK TO ME THAT A WAY HE SAID WITH AN OMINOUS SHAKE OF HIS HEAD I'LL GUT YE THE FISHERMAN THREW BACK HIS HEAD",
  "words": [
    {
      "alignedWord": "what",
      "case": "success",
      "end": 0.63,
      "endOffset": 4,
      "phones": [
        {
          "duration": 0.07,
          "phone": "hh_B"
        },
        {
          "duration": 0.19,
          "phone": "w_I"
        },
        {
          "duration": 0.09,
          "phone": "ah_I"
        },
        {
          "duration": 0.02,
          "phone": "t_E"
        }
      ],
      "start": 0.26,
      "startOffset": 0,
      "word": "WHAT"
    },
    {
      "alignedWord": "are",
      "case": "success",
      "end": 0.71,
      "endOffset": 8,
      "phones": [
        {
          "duration": 0.08,
          "phone": "er_S"
        }
      ],
      "start": 0.63,
      "startOffset": 5,
      "word": "ARE"
    },
    {
      "alignedWord": "you",
      "case": "success",
      "end": 0.86,
      "endOffset": 12,
      "phones": [
        {
          "duration": 0.06,
          "phone": "y_B"
        },
        {
          "duration": 0.09,
          "phone": "uw_E"
        }
      ],
      "start": 0.71,
      "startOffset": 9,
      "word": "YOU"
    },
    {
      "alignedWord": "doing",
      "case": "success",
      "end": 1.2,
      "endOffset": 18,
      "phones": [
        {
          "duration": 0.07,
          "phone": "d_B"
        },
        {
          "duration": 0.13,
          "phone": "uw_I"
        },
        {
          "duration": 0.07,
          "phone": "ih_I"
        },
        {
          "duration": 0.07,
          "phone": "ng_E"
        }
      ],
      "start": 0.86,
      "startOffset": 13,
      "word": "DOING"
    },
    {
      "alignedWord": "with",
      "case": "success",
      "end": 1.3499999999999999,
      "endOffset": 23,
      "phones": [
        {
          "duration": 0.04,
          "phone": "w_B"
        },
        {
          "duration": 0.04,
          "phone": "ih_I"
        },
        {
          "duration": 0.07,
          "phone": "th_E"
        }
      ],
      "start": 1.2,
      "startOffset": 19,
      "word": "WITH"
    },
    {
      "alignedWord": "that",
      "case": "success",
      "end": 1.51,
      "endOffset": 28,
      "phones": [
        {
          "duration": 0.02,
          "phone": "dh_B"
        },
        {
          "duration": 0.07,
          "phone": "ae_I"
        },
        {
          "duration": 0.07,
          "phone": "t_E"
        }
      ],
      "start": 1.35,
      "startOffset": 24,
      "word": "THAT"
    },
    {
      "alignedWord": "dagger",
      "case": "success",
      "end": 1.97,
      "endOffset": 35,
      "phones": [
        {
          "duration": 0.07,
          "phone": "d_B"
        },
        {
          "duration": 0.14,
          "phone": "ae_I"
        },
        {
          "duration": 0.1,
          "phone": "g_I"
        },
        {
          "duration": 0.15,
          "phone": "er_E"
        }
      ],
      "start": 1.51,
      "startOffset": 29,
      "word": "DAGGER"
    },
    {
      "alignedWord": "the",
      "case": "success",
      "end": 2.94,
      "endOffset": 39,
      "phones": [
        {
          "duration": 0.07,
          "phone": "dh_B"
        },
        {
          "duration": 0.05,
          "phone": "ah_E"
        }
      ],
      "start": 2.82,
      "startOffset": 36,
      "word": "THE"
    },
    {
      "alignedWord": "boy's",
      "case": "success",
      "end": 3.33,
      "endOffset": 45,
      "phones": [
        {
          "duration": 0.09,
          "phone": "b_B"
        },
        {
          "duration": 0.22,
          "phone": "oy_I"
        },
        {
          "duration": 0.08,
          "phone": "z_E"
        }
      ],
      "start": 2.94,
      "startOffset": 40,
      "word": "BOY'S"
    },
    {
      "alignedWord": "breast",
      "case": "success",
      "end": 3.71,
      "endOffset": 52,
      "phones": [
        {
          "duration": 0.07,
          "phone": "b_B"
        },
        {
          "duration": 0.05,
          "phone": "r_I"
        },
        {
          "duration": 0.09,
          "phone": "eh_I"
        },
        {
          "duration": 0.06,
          "phone": "s_I"
        },
        {
          "duration": 0.1,
          "phone": "t_E"
        }
      ],
      "start": 3.34,
      "startOffset": 46,
      "word": "BREAST"
    },
    {
      "alignedWord": "heaved",
      "case": "success",
      "end": 4.18,
      "endOffset": 59,
      "phones": [
        {
          "duration": 0.06,
          "phone": "hh_B"
        },
        {
          "duration": 0.22,
          "phone": "iy_I"
        },
        {
          "duration": 0.08,
          "phone": "v_I"
        },
        {
          "duration": 0.11,
          "phone": "d_E"
        }
      ],
      "start": 3.71,
      "startOffset": 53,
      "word": "HEAVED"
    },
    {
      "alignedWord": "and",
      "case": "success",
      "end": 4.470000000000001,
      "endOffset": 63,
      "phones": [
        {
          "duration": 0.1,
          "phone": "ae_B"
        },
        {
          "duration": 0.06,
          "phone": "n_I"
        },
        {
          "duration": 0.03,
          "phone": "d_E"
        }
      ],
      "start": 4.28,
      "startOffset": 60,
      "word": "AND"
    },
    {
      "alignedWord": "his",
      "case": "success",
      "end": 4.6,
      "endOffset": 67,
      "phones": [
        {
          "duration": 0.01,
          "phone": "hh_B"
        },
        {
          "duration": 0.04,
          "phone": "ih_I"
        },
        {
          "duration": 0.08,
          "phone": "z_E"
        }
      ],
      "start": 4.47,
      "startOffset": 64,
      "word": "HIS"
    },
    {
      "alignedWord": "dirty",
      "case": "success",
      "end": 4.909999999999999,
      "endOffset": 73,
      "phones": [
        {
          "duration": 0.07,
          "phone": "d_B"
        },
        {
          "duration": 0.1,
          "phone": "er_I"
        },
        {
          "duration": 0.06,
          "phone": "t_I"
        },
        {
          "duration": 0.08,
          "phone": "iy_E"
        }
      ],
      "start": 4.6,
      "startOffset": 68,
      "word": "DIRTY"
    },
    {
      "alignedWord": "fingers",
      "case": "success",
      "end": 5.34,
      "endOffset": 81,
      "phones": [
        {
          "duration": 0.09,
          "phone": "f_B"
        },
        {
          "duration": 0.05,
          "phone": "ih_I"
        },
        {
          "duration": 0.08,
          "phone": "ng_I"
        },
        {
          "duration": 0.05,
          "phone": "g_I"
        },
        {
          "duration": 0.07,
          "phone": "er_I"
        },
        {
          "duration": 0.09,
          "phone": "z_E"
        }
      ],
      "start": 4.91,
      "startOffset": 74,
      "word": "FINGERS"
    },
    {
      "alignedWord": "clenched",
      "case": "success",
      "end": 5.68,
      "endOffset": 90,
      "phones": [
        {
          "duration": 0.08,
          "phone": "k_B"
        },
        {
          "duration": 0.04,
          "phone": "l_I"
        },
        {
          "duration": 0.06,
          "phone": "eh_I"
        },
        {
          "duration": 0.04,
          "phone": "n_I"
        },
        {
          "duration": 0.11,
          "phone": "ch_I"
        },
        {
          "duration": 0.01,
          "phone": "t_E"
        }
      ],
      "start": 5.34,
      "startOffset": 82,
      "word": "CLENCHED"
    },
    {
      "alignedWord": "tight",
      "case": "success",
      "end": 6.03,
      "endOffset": 96,
      "phones": [
        {
          "duration": 0.15,
          "phone": "t_B"
        },
        {
          "duration": 0.12,
          "phone": "ay_I"
        },
        {
          "duration": 0.07,
          "phone": "t_E"
        }
      ],
      "start": 5.69,
      "startOffset": 91,
      "word": "TIGHT"
    },
    {
      "alignedWord": "around",
      "case": "success",
      "end": 6.2700000000000005,
      "endOffset": 103,
      "phones": [
        {
          "duration": 0.11,
          "phone": "er_B"
        },
        {
          "duration": 0.08,
          "phone": "aw_I"
        },
        {
          "duration": 0.05,
          "phone": "n_E"
        }
      ],
      "start": 6.03,
      "startOffset": 97,
      "word": "AROUND"
    },
    {
      "alignedWord": "the",
      "case": "success",
      "end": 6.35,
      "endOffset": 107,
      "phones": [
        {
          "duration": 0.04,
          "phone": "dh_B"
        },
        {
          "duration": 0.04,
          "phone": "ah_E"
        }
      ],
      "start": 6.27,
      "startOffset": 104,
      "word": "THE"
    },
    {
      "alignedWord": "whittled",
      "case": "success",
      "end": 6.68,
      "endOffset": 116,
      "phones": [
        {
          "duration": 0.06,
          "phone": "w_B"
        },
        {
          "duration": 0.09,
          "phone": "ih_I"
        },
        {
          "duration": 0.02,
          "phone": "t_I"
        },
        {
          "duration": 0.04,
          "phone": "ah_I"
        },
        {
          "duration": 0.03,
          "phone": "l_I"
        },
        {
          "duration": 0.09,
          "phone": "d_E"
        }
      ],
      "start": 6.35,
      "startOffset": 108,
      "word": "WHITTLED"
    },
    {
      "alignedWord": "stick",
      "case": "success",
      "end": 7.12,
      "endOffset": 122,
      "phones": [
        {
          "duration": 0.09,
          "phone": "s_B"
        },
        {
          "duration": 0.08,
          "phone": "t_I"
        },
        {
          "duration": 0.1,
          "phone": "ih_I"
        },
        {
          "duration": 0.17,
          "phone": "k_E"
        }
      ],
      "start": 6.68,
      "startOffset": 117,
      "word": "STICK"
    },
    {
      "alignedWord": "don't",
      "case": "success",
      "end": 8.17,
      "endOffset": 128,
      "phones": [
        {
          "duration": 0.07,
          "phone": "d_B"
        },
        {
          "duration": 0.07,
          "phone": "ow_I"
        },
        {
          "duration": 0.04,
          "phone": "n_I"
        },
        {
          "duration": 0.09,
          "phone": "t_E"
        }
      ],
      "start": 7.9,
      "startOffset": 123,
      "word": "DON'T"
    },
    {
      "alignedWord": "you",
      "case": "success",
      "end": 8.32,
      "endOffset": 132,
      "phones": [
        {
          "duration": 0.06,
          "phone": "y_B"
        },
        {
          "duration": 0.09,
          "phone": "uw_E"
        }
      ],
      "start": 8.17,
      "startOffset": 129,
      "word": "YOU"
    },
    {
      "alignedWord": "talk",
      "case": "success",
      "end": 8.6,
      "endOffset": 137,
      "phones": [
        {
          "duration": 0.11,
          "phone": "t_B"
        },
        {
          "duration": 0.11,
          "phone": "ao_I"
        },
        {
          "duration": 0.06,
          "phone": "k_E"
        }
      ],
      "start": 8.32,
      "startOffset": 133,
      "word": "TALK"
    },
    {
      "alignedWord": "to",
      "case": "success",
      "end": 8.709999999999999,
      "endOffset": 140,
      "phones": [
        {
          "duration": 0.05,
          "phone": "t_B"
        },
        {
          "duration": 0.05,
          "phone": "ih_E"
        }
      ],
      "start": 8.61,
      "startOffset": 138,
      "word": "TO"
    },
    {
      "alignedWord": "me",
      "case": "success",
      "end": 8.920000000000002,
      "endOffset": 143,
      "phones": [
        {
          "duration": 0.11,
          "phone": "m_B"
        },
        {
          "duration": 0.1,
          "phone": "iy_E"
        }
      ],
      "start": 8.71,
      "startOffset": 141,
      "word": "ME"
    },
    {
      "alignedWord": "that",
      "case": "success",
      "end": 9.14,
      "endOffset": 148,
      "phones": [
        {
          "duration": 0.07,
          "phone": "dh_B"
        },
        {
          "duration": 0.09,
          "phone": "ae_I"
        },
        {
          "duration": 0.06,
          "phone": "t_E"
        }
      ],
      "start": 8.92,
      "startOffset": 144,
      "word": "THAT"
    },
    {
      "alignedWord": "a",
      "case": "success",
      "end": 9.199999,
      "endOffset": 150,
      "phones": [
        {
          "duration": 0.06,
          "phone": "ah_S"
        }
      ],
      "start": 9.139999,
      "startOffset": 149,
      "word": "A"
    },
    {
      "alignedWord": "way",
      "case": "success",
      "end": 9.58,
      "endOffset": 154,
      "phones": [
        {
          "duration": 0.13,
          "phone": "w_B"
        },
        {
          "duration": 0.25,
          "phone": "ey_E"
        }
      ],
      "start": 9.2,
      "startOffset": 151,
      "word": "WAY"
    },
    {
      "alignedWord": "he",
      "case": "success",
      "end": 10.17,
      "endOffset": 157,
      "phones": [
        {
          "duration": 0.08,
          "phone": "hh_B"
        },
        {
          "duration": 0.1,
          "phone": "iy_E"
        }
      ],
      "start": 9.99,
      "startOffset": 155,
      "word": "HE"
    },
    {
      "alignedWord": "said",
      "case": "success",
      "end": 10.479999999999999,
      "endOffset": 162,
      "phones": [
        {
          "duration": 0.12,
          "phone": "s_B"
        },
        {
          "duration": 0.09,
          "phone": "eh_I"
        },
        {
          "duration": 0.08,
          "phone": "d_E"
        }
      ],
      "start": 10.19,
      "startOffset": 158,
      "word": "SAID"
    },
    {
      "alignedWord": "with",
      "case": "success",
      "end": 10.63,
      "endOffset": 167,
      "phones": [
        {
          "duration": 0.04,
          "phone": "w_B"
        },
        {
          "duration": 0.04,
          "phone": "ih_I"
        },
        {
          "duration": 0.07,
          "phone": "th_E"
        }
      ],
      "start": 10.48,
      "startOffset": 163,
      "word": "WITH"
    },
    {
      "alignedWord": "an",
      "case": "success",
      "end": 10.75,
      "endOffset": 170,
      "phones": [
        {
          "duration": 0.02,
          "phone": "ah_B"
        },
        {
          "duration": 0.1,
          "phone": "n_E"
        }
      ],
      "start": 10.63,
      "startOffset": 168,
      "word": "AN"
    },
    {
      "alignedWord": "ominous",
      "case": "success",
      "end": 11.2,
      "endOffset": 178,
      "phones": [
        {
          "duration": 0.15,
          "phone": "aa_B"
        },
        {
          "duration": 0.06,
          "phone": "m_I"
        },
        {
          "duration": 0.04,
          "phone": "ah_I"
        },
        {
          "duration": 0.07,
          "phone": "n_I"
        },
        {
          "duration": 0.05,
          "phone": "ah_I"
        },
        {
          "duration": 0.07,
          "phone": "s_E"
        }
      ],
      "start": 10.76,
      "startOffset": 171,
      "word": "OMINOUS"
    },
    {
      "alignedWord": "shake",
      "case": "success",
      "end": 11.489999999999998,
      "endOffset": 184,
      "phones": [
        {
          "duration": 0.14,
          "phone": "sh_B"
        },
        {
          "duration": 0.1,
          "phone": "ey_I"
        },
        {
          "duration": 0.05,
          "phone": "k_E"
        }
      ],
      "start": 11.2,
      "startOffset": 179,
      "word": "SHAKE"
    },
    {
      "alignedWord": "of",
      "case": "success",
      "end": 11.58,
      "endOffset": 187,
      "phones": [
        {
          "duration": 0.04,
          "phone": "ah_B"
        },
        {
          "duration": 0.05,
          "phone": "v_E"
        }
      ],
      "start": 11.49,
      "startOffset": 185,
      "word": "OF"
    },
    {
      "alignedWord": "his",
      "case": "success",
      "end": 11.69,
      "endOffset": 191,
      "phones": [
        {
          "duration": 0.03,
          "phone": "hh_B"
        },
        {
          "duration": 0.02,
          "phone": "ih_I"
        },
        {
          "duration": 0.06,
          "phone": "z_E"
        }
      ],
      "start": 11.58,
      "startOffset": 188,
      "word": "HIS"
    },
    {
      "alignedWord": "head",
      "case": "success",
      "end": 12.02,
      "endOffset": 196,
      "phones": [
        {
          "duration": 0.05,
          "phone": "hh_B"
        },
        {
          "duration": 0.13,
          "phone": "eh_I"
        },
        {
          "duration": 0.15,
          "phone": "d_E"
        }
      ],
      "start": 11.69,
      "startOffset": 192,
      "word": "HEAD"
    },
    {
      "alignedWord": "i'll",
      "case": "success",
      "end": 12.969999999999999,
      "endOffset": 201,
      "phones": [
        {
          "duration": 0.3,
          "phone": "ay_B"
        },
        {
          "duration": 0.14,
          "phone": "l_E"
        }
      ],
      "start": 12.53,
      "startOffset": 197,
      "word": "I'LL"
    },
    {
      "alignedWord": "gut",
      "case": "success",
      "end": 13.41,
      "endOffset": 205,
      "phones": [
        {
          "duration": 0.18,
          "phone": "g_B"
        },
        {
          "duration": 0.1,
          "phone": "ah_I"
        },
        {
          "duration": 0.14,
          "phone": "t_E"
        }
      ],
      "start": 12.99,
      "startOffset": 202,
      "word": "GUT"
    },
    {
      "alignedWord": "ye",
      "case": "success",
      "end": 13.72,
      "endOffset": 208,
      "phones": [
        {
          "duration": 0.1,
          "phone": "y_B"
        },
        {
          "duration": 0.21,
          "phone": "iy_E"
        }
      ],
      "start": 13.41,
      "startOffset": 206,
      "word": "YE"
    },
    {
      "alignedWord": "the",
      "case": "success",
      "end": 14.799999,
      "endOffset": 212,
      "phones": [
        {
          "duration": 0.07,
          "phone": "dh_B"
        },
        {
          "duration": 0.05,
          "phone": "ah_E"
        }
      ],
      "start": 14.679999,
      "startOffset": 209,
      "word": "THE"
    },
    {
      "alignedWord": "fisherman",
      "case": "success",
      "end": 15.209999,
      "endOffset": 222,
      "phones": [
        {
          "duration": 0.07,
          "phone": "f_B"
        },
        {
          "duration": 0.07,
          "phone": "ih_I"
        },
        {
          "duration": 0.1,
          "phone": "sh_I"
        },
        {
          "duration": 0.02,
          "phone": "er_I"
        },
        {
          "duration": 0.03,
          "phone": "m_I"
        },
        {
          "duration": 0.06,
          "phone": "ah_I"
        },
        {
          "duration": 0.06,
          "phone": "n_E"
        }
      ],
      "start": 14.799999,
      "startOffset": 213,
      "word": "FISHERMAN"
    },
    {
      "alignedWord": "threw",
      "case": "success",
      "end": 15.420000000000002,
      "endOffset": 228,
      "phones": [
        {
          "duration": 0.06,
          "phone": "th_B"
        },
        {
          "duration": 0.08,
          "phone": "r_I"
        },
        {
          "duration": 0.07,
          "phone": "uw_E"
        }
      ],
      "start": 15.21,
      "startOffset": 223,
      "word": "THREW"
    },
    {
      "alignedWord": "back",
      "case": "success",
      "end": 15.67,
      "endOffset": 233,
      "phones": [
        {
          "duration": 0.06,
          "phone": "b_B"
        },
        {
          "duration": 0.11,
          "phone": "ae_I"
        },
        {
          "duration": 0.08,
          "phone": "k_E"
        }
      ],
      "start": 15.42,
      "startOffset": 229,
      "word": "BACK"
    },
    {
      "alignedWord": "his",
      "case": "success",
      "end": 15.82,
      "endOffset": 237,
      "phones": [
        {
          "duration": 0.04,
          "phone": "hh_B"
        },
        {
          "duration": 0.04,
          "phone": "ih_I"
        },
        {
          "duration": 0.07,
          "phone": "z_E"
        }
      ],
      "start": 15.67,
      "startOffset": 234,
      "word": "HIS"
    },
    {
      "alignedWord": "head",
      "case": "success",
      "end": 16.15,
      "endOffset": 242,
      "phones": [
        {
          "duration": 0.06,
          "phone": "hh_B"
        },
        {
          "duration": 0.16,
          "phone": "eh_I"
        },
        {
          "duration": 0.11,
          "phone": "d_E"
        }
      ],
      "start": 15.82,
      "startOffset": 238,
      "word": "HEAD"
    }
  ]
}