{
  "transcript": "AND AS HE HAD LEFT HIS HORSE BELOW AND HIS GUN SHE WAITED FOR HIM TO COME BACK WHICH HE DID BY AND BY DRIPPING AND SOAKED TO HIS KNEES THEN SHE SAW HIM UNTIE THE QUEER GUN ON HIS SADDLE PULL IT OUT OF A CASE AND",
  "words": [
    {
      "alignedWord": "and",
      "case": "success",
      "end": 0.42000000000000004,
      "endOffset": 3,
      "phones": [
        {
          "duration": 0.05,
          "phone": "ae_B"
        },
        {
          "duration": 0.07,
          "phone": "n_I"
        },
        {
          "duration": 0.04,
          "phone": "d_E"
        }
      ],
      "start": 0.26,
      "startOffset": 0,
      "word": "AND"
    },
    {
      "alignedWord": "as",
      "case": "success",
      "end": 0.63,
      "endOffset": 6,
      "phones": [
        {
          "duration": 0.13,
          "phone": "ae_B"
        },
        {
          "duration": 0.08,
          "phone": "z_E"
        }
      ],
      "start": 0.42,
      "startOffset": 4,
      "word": "AS"
    },
    {
      "alignedWord": "he",
      "case": "success",
      "end": 0.78,
      "endOffset": 9,
      "phones": [
        {
          "duration": 0.07,
          "phone": "hh_B"
        },
        {
          "duration": 0.08,
          "phone": "iy_E"
        }
      ],
      "start": 0.63,
      "startOffset": 7,
      "word": "HE"
    },
    {
      "alignedWord": "had",
      "case": "success",
      "end": 0.92,
      "endOffset": 13,
      "phones": [
        {
          "duration": 0.01,
          "phone": "hh_B"
        },
        {
          "duration": 0.04,
          "phone": "ae_I"
        },
        {
          "duration": 0.09,
          "phone": "d_E"
        }
      ],
      "start": 0.78,
      "startOffset": 10,
      "word": "HAD"
    },
    {
      "alignedWord": "left",
      "case": "success",
      "end": 1.19,
      "endOffset": 18,
      "phones": [
        {
          "duration": 0.06,
          "phone": "l_B"
        },
        {
          "duration": 0.08,
          "phone": "eh_I"
        },
        {
          "duration": 0.08,
          "phone": "f_I"
        },
        {
          "duration": 0.05,
          "phone": "t_E"
        }
      ],
      "start": 0.92,
      "startOffset": 14,
      "word": "LEFT"
    },
    {
      "alignedWord": "his",
      "case": "success",
      "end": 1.3199999999999998,
      "endOffset": 22,
      "phones": [
        {
          "duration": 0.02,
          "phone": "hh_B"
        },
        {
          "duration": 0.05,
          "phone": "ih_I"
        },
        {
          "duration": 0.06,
          "phone": "z_E"
        }
      ],
      "start": 1.19,
      "startOffset": 19,
      "word": "HIS"
    },
    {
      "alignedWord": "horse",
      "case": "success",
      "end": 1.6300000000000001,
      "endOffset": 28,
      "phones": [
        {
          "duration": 0.06,
          "phone": "hh_B"
        },
        {
          "duration": 0.09,
          "phone": "ao_I"
        },
        {
          "duration": 0.07,
          "phone": "r_I"
        },
        {
          "duration": 0.09,
          "phone": "s_E"
        }
      ],
      "start": 1.32,
      "startOffset": 23,
      "word": "HORSE"
    },
    {
      "alignedWord": "below",
      "case": "success",
      "end": 2.05,
      "endOffset": 34,
      "phones": [
        {
          "duration": 0.04,
          "phone": "b_B"
        },
        {
          "duration": 0.06,
          "phone": "ih_I"
        },
        {
          "duration": 0.13,
          "phone": "l_I"
        },
        {
          "duration": 0.19,
          "phone": "ow_E"
        }
      ],
      "start": 1.63,
      "startOffset": 29,
      "word": "BELOW"
    },
    {
      "alignedWord": "and",
      "case": "success",
      "end": 2.25,
      "endOffset": 38,
      "phones": [
        {
          "duration": 0.08,
          "phone": "ae_B"
        },
        {
          "duration": 0.08,
          "phone": "n_I"
        },
        {
          "duration": 0.04,
          "phone": "d_E"
        }
      ],
      "start": 2.05,
      "startOffset": 35,
      "word": "AND"
    },
    {
      "alignedWord": "his",
      "case": "success",
      "end": 2.4,
      "endOffset": 42,
      "phones": [
        {
          "duration": 0.01,
          "phone": "hh_B"
        },
        {
          "duration": 0.05,
          "phone": "ih_I"
        },
        {
          "duration": 0.09,
          "phone": "z_E"
        }
      ],
      "start": 2.25,
      "startOffset": 39,
      "word": "HIS"
    },
    {
      "alignedWord": "gun",
      "case": "success",
      "end": 2.8200000000000003,
      "endOffset": 46,
      "phones": [
        {
          "duration": 0.1,
          "phone": "g_B"
        },
        {
          "duration": 0.14,
          "phone": "ah_I"
        },
        {
          "duration": 0.17,
          "phone": "n_E"
        }
      ],
      "start": 2.41,
      "startOffset": 43,
      "word": "GUN"
    },
    {
      "alignedWord": "she",
      "case": "success",
      "end": 3.4,
      "endOffset": 50,
      "phones": [
        {
          "duration": 0.15,
          "phone": "sh_B"
        },
        {
          "duration": 0.06,
          "phone": "iy_E"
        }
      ],
      "start": 3.19,
      "startOffset": 47,
      "word": "SHE"
    },
    {
      "alignedWord": "waited",
      "case": "success",
      "end": 3.75,
      "endOffset": 57,
      "phones": [
        {
          "duration": 0.12,
          "phone": "w_B"
        },
        {
          "duration": 0.07,
          "phone": "ey_I"
        },
        {
          "duration": 0.04,
          "phone": "t_I"
        },
        {
          "duration": 0.06,
          "phone": "ih_I"
        },
        {
          "duration": 0.06,
          "phone": "d_E"
        }
      ],
      "start": 3.4,
      "startOffset": 51,
      "word": "WAITED"
    },
    {
      "alignedWord": "for",
      "case": "success",
      "end": 3.85,
      "endOffset": 61,
      "phones": [
        {
          "duration": 0.05,
          "phone": "f_B"
        },
        {
          "duration": 0.05,
          "phone": "er_E"
        }
      ],
      "start": 3.75,
      "startOffset": 58,
      "word": "FOR"
    },
    {
      "alignedWord": "him",
      "case": "success",
      "end": 4.03,
      "endOffset": 65,
      "phones": [
        {
          "duration": 0.06,
          "phone": "hh_B"
        },
        {
          "duration": 0.07,
          "phone": "ih_I"
        },
        {
          "duration": 0.05,
          "phone": "m_E"
        }
      ],
      "start": 3.85,
      "startOffset": 62,
      "word": "HIM"
    },
    {
      "alignedWord": "to",
      "case": "success",
      "end": 4.13,
      "endOffset": 68,
      "phones": [
        {
          "duration": 0.05,
          "phone": "t_B"
        },
        {
          "duration": 0.05,
          "phone": "ah_E"
        }
      ],
      "start": 4.03,
      "startOffset": 66,
      "word": "TO"
    },
    {
      "alignedWord": "come",
      "case": "success",
      "end": 4.32,
      "endOffset": 73,
      "phones": [
        {
          "duration": 0.04,
          "phone": "k_B"
        },
        {
          "duration": 0.08,
          "phone": "ah_I"
        },
        {
          "duration": 0.07,
          "phone": "m_E"
        }
      ],
      "start": 4.13,
      "startOffset": 69,
      "word": "COME"
    },
    {
      "alignedWord": "back",
      "case": "success",
      "end": 4.73,
      "endOffset": 78,
      "phones": [
        {
          "duration": 0.05,
          "phone": "b_B"
        },
        {
          "duration": 0.16,
          "phone": "ae_I"
        },
        {
          "duration": 0.2,
          "phone": "k_E"
        }
      ],
      "start": 4.32,
      "startOffset": 74,
      "word": "BACK"
    },
    {
      "alignedWord": "which",
      "case": "success",
      "end": 5.180000000000001,
      "endOffset": 84,
      "phones": [
        {
          "duration": 0.04,
          "phone": "hh_B"
        },
        {
          "duration": 0.07,
          "phone": "w_I"
        },
        {
          "duration": 0.04,
          "phone": "ih_I"
        },
        {
          "duration": 0.08,
          "phone": "ch_E"
        }
      ],
      "start": 4.95,
      "startOffset": 79,
      "word": "WHICH"
    },
    {
      "alignedWord": "he",
      "case": "success",
      "end": 5.3,
      "endOffset": 87,
      "phones": [
        {
          "duration": 0.03,
          "phone": "hh_B"
        },
        {
          "duration": 0.09,
          "phone": "iy_E"
        }
      ],
      "start": 5.18,
      "startOffset": 85,
      "word": "HE"
    },
    {
      "alignedWord": "did",
      "case": "success",
      "end": 5.64,
      "endOffset": 91,
      "phones": [
        {
          "duration": 0.07,
          "phone": "d_B"
        },
        {
          "duration": 0.17,
          "phone": "ih_I"
        },
        {
          "duration": 0.1,
          "phone": "d_E"
        }
      ],
      "start": 5.3,
      "startOffset": 88,
      "word": "DID"
    },
    {
      "alignedWord": "by",
      "case": "success",
      "end": 5.9,
      "endOffset": 94,
      "phones": [
        {
          "duration": 0.11,
          "phone": "b_B"
        },
        {
          "duration": 0.14,
          "phone": "ay_E"
        }
      ],
      "start": 5.65,
      "startOffset": 92,
      "word": "BY"
    },
    {
      "alignedWord": "and",
      "case": "success",
      "end": 6.04,
      "endOffset": 98,
      "phones": [
        {
          "duration": 0.06,
          "phone": "ah_B"
        },
        {
          "duration": 0.02,
          "phone": "n_I"
        },
        {
          "duration": 0.06,
          "phone": "d_E"
        }
      ],
      "start": 5.9,
      "startOffset": 95,
      "word": "AND"
    },
    {
      "alignedWord": "by",
      "case": "success",
      "end": 6.44,
      "endOffset": 101,
      "phones": [
        {
          "duration": 0.07,
          "phone": "b_B"
        },
        {
          "duration": 0.33,
          "phone": "ay_E"
        }
      ],
      "start": 6.04,
      "startOffset": 99,
      "word": "BY"
    },
    {
      "alignedWord": "dripping",
      "case": "success",
      "end": 7.460000000000001,
      "endOffset": 110,
      "phones": [
        {
          "duration": 0.11,
          "phone": "d_B"
        },
        {
          "duration": 0.08,
          "phone": "r_I"
        },
        {
          "duration": 0.07,
          "phone": "ih_I"
        },
        {
          "duration": 0.08,
          "phone": "p_I"
        },
        {
          "duration": 0.08,
          "phone": "ih_I"
        },
        {
          "duration": 0.1,
          "phone": "ng_E"
        }
      ],
      "start": 6.94,
      "startOffset": 102,
      "word": "DRIPPING"
    },
    {
      "alignedWord": "and",
      "case": "success",
      "end": 7.65,
      "endOffset": 114,
      "phones": [
        {
          "duration": 0.05,
          "phone": "ae_B"
        },
        {
          "duration": 0.06,
          "phone": "n_I"
        },
        {
          "duration": 0.08,
          "phone": "d_E"
        }
      ],
      "start": 7.46,
      "startOffset": 111,
      "word": "AND"
    },
    {
      "alignedWord": "soaked",
      "case": "success",
      "end": 7.94,
      "endOffset": 121,
      "phones": [
        {
          "duration": 0.11,
          "phone": "s_B"
        },
        {
          "duration": 0.11,
          "phone": "ow_I"
        },
        {
          "duration": 0.06,
          "phone": "k_I"
        },
        {
          "duration": 0.01,
          "phone": "t_E"
        }
      ],
      "start": 7.65,
      "startOffset": 115,
      "word": "SOAKED"
    },
    {
      "alignedWord": "to",
      "case": "success",
      "end": 8.13,
      "endOffset": 124,
      "phones": [
        {
          "duration": 0.09,
          "phone": "t_B"
        },
        {
          "duration": 0.09,
          "phone": "uw_E"
        }
      ],
      "start": 7.95,
      "startOffset": 122,
      "word": "TO"
    },
    {
      "alignedWord": "his",
      "case": "success",
      "end": 8.280000000000001,
      "endOffset": 128,
      "phones": [
        {
          "duration": 0.04,
          "phone": "hh_B"
        },
        {
          "duration": 0.03,
          "phone": "ih_I"
        },
        {
          "duration": 0.08,
          "phone": "z_E"
        }
      ],
      "start": 8.13,
      "startOffset": 125,
      "word": "HIS"
    },
    {
      "alignedWord": "knees",
      "case": "success",
      "end": 8.83,
      "endOffset": 134,
      "phones": [
        {
          "duration": 0.09,
          "phone": "n_B"
        },
        {
          "duration": 0.24,
          "phone": "iy_I"
        },
        {
          "duration": 0.22,
          "phone": "z_E"
        }
      ],
      "start": 8.28,
      "startOffset": 129,
      "word": "KNEES"
    },
    {
      "alignedWord": "then",
      "case": "success",
      "end": 9.799999999999999,
      "endOffset": 139,
      "phones": [
        {
          "duration": 0.11,
          "phone": "dh_B"
        },
        {
          "duration": 0.07,
          "phone": "eh_I"
        },
        {
          "duration": 0.08,
          "phone": "n_E"
        }
      ],
      "start": 9.54,
      "startOffset": 135,
      "word": "THEN"
    },
    {
      "alignedWord": "she",
      "case": "success",
      "end": 9.96,
      "endOffset": 143,
      "phones": [
        {
          "duration": 0.08,
          "phone": "sh_B"
        },
        {
          "duration": 0.08,
          "phone": "iy_E"
        }
      ],
      "start": 9.8,
      "startOffset": 140,
      "word": "SHE"
    },
    {
      "alignedWord": "saw",
      "case": "success",
      "end": 10.190000000000001,
      "endOffset": 147,
      "phones": [
        {
          "duration": 0.1,
          "phone": "s_B"
        },
        {
          "duration": 0.13,
          "phone": "ao_E"
        }
      ],
      "start": 9.96,
      "startOffset": 144,
      "word": "SAW"
    },
    {
      "alignedWord": "him",
      "case": "success",
      "end": 10.309999999999999,
      "endOffset": 151,
      "phones": [
        {
          "duration": 0.06,
          "phone": "ih_B"
        },
        {
          "duration": 0.06,
          "phone": "m_E"
        }
      ],
      "start": 10.19,
      "startOffset": 148,
      "word": "HIM"
    },
    {
      "alignedWord": "untie",
      "case": "success",
      "end": 10.759998999999999,
      "endOffset": 157,
      "phones": [
        {
          "duration": 0.1,
          "phone": "ah_B"
        },
        {
          "duration": 0.08,
          "phone": "n_I"
        },
        {
          "duration": 0.1,
          "phone": "t_I"
        },
        {
          "duration": 0.17,
          "phone": "ay_E"
        }
      ],
      "start": 10.309999,
      "startOffset": 152,
      "word": "UNTIE"
    },
    {
      "alignedWord": "the",
      "case": "success",
      "end": 10.879999999999999,
      "endOffset": 161,
      "phones": [
        {
          "duration": 0.06,
          "phone": "dh_B"
        },
        {
          "duration": 0.05,
          "phone": "ah_E"
        }
      ],
      "start": 10.77,
      "startOffset": 158,
      "word": "THE"
    },
    {
      "alignedWord": "queer",
      "case": "success",
      "end": 11.23,
      "endOffset": 167,
      "phones": [
        {
          "duration": 0.08,
          "phone": "k_B"
        },
        {
          "duration": 0.09,
          "phone": "w_I"
        },
        {
          "duration": 0.09,
          "phone": "ih_I"
        },
        {
          "duration": 0.09,
          "phone": "r_E"
        }
      ],
      "start": 10.88,
      "startOffset": 162,
      "word": "QUEER"
    },
    {
      "alignedWord": "gun",
      "case": "success",
      "end": 11.6,
      "endOffset": 171,
      "phones": [
        {
          "duration": 0.12,
          "phone": "g_B"
        },
        {
          "duration": 0.17,
          "phone": "ah_I"
        },
        {
          "duration": 0.08,
          "phone": "n_E"
        }
      ],
      "start": 11.23,
      "startOffset": 168,
      "word": "GUN"
    },
    {
      "alignedWord": "on",
      "case": "success",
      "end": 11.75,
      "endOffset": 174,
      "phones": [
        {
          "duration": 0.08,
          "phone": "ao_B"
        },
        {
          "duration": 0.06,
          "phone": "n_E"
        }
      ],
      "start": 11.61,
      "startOffset": 172,
      "word": "ON"
    },
    {
      "alignedWord": "his",
      "case": "success",
      "end": 11.87,
      "endOffset": 178,
      "phones": [
        {
          "duration": 0.03,
          "phone": "hh_B"
        },
        {
          "duration": 0.03,
          "phone": "ih_I"
        },
        {
          "duration": 0.06,
          "phone": "z_E"
        }
      ],
      "start": 11.75,
      "startOffset": 175,
      "word": "HIS"
    },
    {
      "alignedWord": "saddle",
      "case": "success",
      "end": 12.399999999999999,
      "endOffset": 185,
      "phones": [
        {
          "duration": 0.12,
          "phone": "s_B"
        },
        {
          "duration": 0.15,
          "phone": "ae_I"
        },
        {
          "duration": 0.05,
          "phone": "d_I"
        },
        {
          "duration": 0.06,
          "phone": "ah_I"
        },
        {
          "duration": 0.15,
          "phone": "l_E"
        }
      ],
      "start": 11.87,
      "startOffset": 179,
      "word": "SADDLE"
    },
    {
      "alignedWord": "pull",
      "case": "success",
      "end": 13.09,
      "endOffset": 190,
      "phones": [
        {
          "duration": 0.05,
          "phone": "p_B"
        },
        {
          "duration": 0.09,
          "phone": "uh_I"
        },
        {
          "duration": 0.05,
          "phone": "l_E"
        }
      ],
      "start": 12.9,
      "startOffset": 186,
      "word": "PULL"
    },
    {
      "alignedWord": "it",
      "case": "success",
      "end": 13.209999999999999,
      "endOffset": 193,
      "phones": [
        {
          "duration": 0.07,
          "phone": "ih_B"
        },
        {
          "duration": 0.05,
          "phone": "t_E"
        }
      ],
      "start": 13.09,
      "startOffset": 191,
      "word": "IT"
    },
    {
      "alignedWord": "out",
      "case": "success",
      "end": 13.3,
      "endOffset": 197,
      "phones": [
        {
          "duration": 0.06,
          "phone": "aw_B"
        },
        {
          "duration": 0.03,
          "phone": "t_E"
        }
      ],
      "start": 13.21,
      "startOffset": 194,
      "word": "OUT"
    },
    {
      "alignedWord": "of",
      "case": "success",
      "end": 13.419998999999999,
      "endOffset": 200,
      "phones": [
        {
          "duration": 0.06,
          "phone": "ah_B"
        },
        {
          "duration": 0.06,
          "phone": "v_E"
        }
      ],
      "start": 13.299999,
      "startOffset": 198,
      "word": "OF"
    },
    {
      "alignedWord": "a",
      "case": "success",
      "end": 13.5,
      "endOffset": 202,
      "phones": [
        {
          "duration": 0.08,
          "phone": "ey_S"
        }
      ],
      "start": 13.42,
      "startOffset": 201,
      "word": "A"
    },
    {
      "alignedWord": "case",
      "case": "success",
      "end": 13.93,
      "endOffset": 207,
      "phones": [
        {
          "duration": 0.13,
          "phone": "k_B"
        },
        {
          "duration": 0.2,
          "phone": "ey_I"
        },
        {
          "duration": 0.1,
          "phone": "s_E"
        }
      ],
      "start": 13.5,
      "startOffset": 203,
      "word": "CASE"
    },
    {
      "alignedWord": "and",
      "case": "success",
      "end": 14.309999000000001,
      "endOffset": 211,
      "phones": [
        {
          "duration": 0.13,
          "phone": "ae_B"
        },
        {
          "duration": 0.1,
          "phone": "n_I"
        },
        {
          "duration": 0.15,
          "phone": "d_E"
        }
      ],
      "start": 13.929999,
      "startOffset": 208,
      "word": "AND"
    }
  ]
}