{
  "transcript": "WILLIAM HENSHAW DREW A LONG BREATH WELL BY JOVE BILLY THE NEXT TIME I TAKE YOU CURIO HUNTING IT WON'T BE TO THIS PLACE HE FUMED WASN'T IT AWFUL CHOKED BILLY AWFUL",
  "words": [
    {
      "alignedWord": "william",
      "case": "success",
      "end": 0.54,
      "endOffset": 7,
      "phones": [
        {
          "duration": 0.07,
          "phone": "w_B"
        },
        {
          "duration": 0.08,
          "phone": "ih_I"
        },
        {
          "duration": 0.03,
          "phone": "l_I"
        },
        {
          "duration": 0.08,
          "phone": "y_I"
        },
        {
          "duration": 0.06,
          "phone": "ah_I"
        },
        {
          "duration": 0.07,
          "phone": "m_E"
        }
      ],
      "start": 0.15,
      "startOffset": 0,
      "word": "WILLIAM"
    },
    {
      "alignedWord": "<unk>",
      "case": "success",
      "end": 0.97,
      "endOffset": 15,
      "phones": [
        {
          "duration": 0.43,
          "phone": "oov_S"
        }
      ],
      "start": 0.54,
      "startOffset": 8,
      "word": "HENSHAW"
    },
    {
      "alignedWord": "drew",
      "case": "success",
      "end": 1.2,
      "endOffset": 20,
      "phones": [
        {
          "duration": 0.08,
          "phone": "d_B"
        },
        {
          "duration": 0.07,
          "phone": "r_I"
        },
        {
          "duration": 0.06,
          "phone": "uw_E"
        }
      ],
      "start": 0.99,
      "startOffset": 16,
      "word": "DREW"
    },
    {
      "alignedWord": "a",
      "case": "success",
      "end": 1.26,
      "endOffset": 22,
      "phones": [
        {
          "duration": 0.06,
          "phone": "ah_S"
        }
      ],
      "start": 1.2,
      "startOffset": 21,
      "word": "A"
    },
    {
      "alignedWord": "long",
      "case": "success",
      "end": 1.56,
      "endOffset": 27,
      "phones": [
        {
          "duration": 0.09,
          "phone": "l_B"
        },
        {
          "duration": 0.11,
          "phone": "ao_I"
        },
        {
          "duration": 0.1,
          "phone": "ng_E"
        }
      ],
      "start": 1.26,
      "startOffset": 23,
      "word": "LONG"
    },
    {
      "alignedWord": "breath",
      "case": "success",
      "end": 2.02,
      "endOffset": 34,
      "phones": [
        {
          "duration": 0.08,
          "phone": "b_B"
        },
        {
          "duration": 0.06,
          "phone": "r_I"
        },
        {
          "duration": 0.08,
          "phone": "eh_I"
        },
        {
          "duration": 0.23,
          "phone": "th_E"
        }
      ],
      "start": 1.57,
      "startOffset": 28,
      "word": "BREATH"
    },
    {
      "alignedWord": "well",
      "case": "success",
      "end": 2.9699999999999998,
      "endOffset": 39,
      "phones": [
        {
          "duration": 0.12,
          "phone": "w_B"
        },
        {
          "duration": 0.08,
          "phone": "eh_I"
        },
        {
          "duration": 0.12,
          "phone": "l_E"
        }
      ],
      "start": 2.65,
      "startOffset": 35,
      "word": "WELL"
    },
    {
      "alignedWord": "by",
      "case": "success",
      "end": 3.34,
      "endOffset": 42,
      "phones": [
        {
          "duration": 0.14,
          "phone": "b_B"
        },
        {
          "duration": 0.22,
          "phone": "ay_E"
        }
      ],
      "start": 2.98,
      "startOffset": 40,
      "word": "BY"
    },
    {
      "alignedWord": "<unk>",
      "case": "success",
      "end": 3.85,
      "endOffset": 47,
      "phones": [
        {
          "duration": 0.5,
          "phone": "oov_S"
        }
      ],
      "start": 3.35,
      "startOffset": 43,
      "word": "JOVE"
    },
    {
      "alignedWord": "billy",
      "case": "success",
      "end": 4.409999999999999,
      "endOffset": 53,
      "phones": [
        {
          "duration": 0.07,
          "phone": "b_B"
        },
        {
          "duration": 0.1,
          "phone": "ih_I"
        },
        {
          "duration": 0.07,
          "phone": "l_I"
        },
        {
          "duration": 0.15,
          "phone": "iy_E"
        }
      ],
      "start": 4.02,
      "startOffset": 48,
      "word": "BILLY"
    },
    {
      "alignedWord": "the",
      "case": "success",
      "end": 4.53,
      "endOffset": 57,
      "phones": [
        {
          "duration": 0.06,
          "phone": "dh_B"
        },
        {
          "duration": 0.05,
          "phone": "ah_E"
        }
      ],
      "start": 4.42,
      "startOffset": 54,
      "word": "THE"
    },
    {
      "alignedWord": "next",
      "case": "success",
      "end": 4.84,
      "endOffset": 62,
      "phones": [
        {
          "duration": 0.09,
          "phone": "n_B"
        },
        {
          "duration": 0.06,
          "phone": "eh_I"
        },
        {
          "duration": 0.09,
          "phone": "k_I"
        },
        {
          "duration": 0.07,
          "phone": "s_E"
        }
      ],
      "start": 4.53,
      "startOffset": 58,
      "word": "NEXT"
    },
    {
      "alignedWord": "time",
      "case": "success",
      "end": 5.13,
      "endOffset": 67,
      "phones": [
        {
          "duration": 0.08,
          "phone": "t_B"
        },
        {
          "duration": 0.1,
          "phone": "ay_I"
        },
        {
          "duration": 0.1,
          "phone": "m_E"
        }
      ],
      "start": 4.85,
      "startOffset": 63,
      "word": "TIME"
    },
    {
      "alignedWord": "i",
      "case": "success",
      "end": 5.25,
      "endOffset": 69,
      "phones": [
        {
          "duration": 0.12,
          "phone": "ay_S"
        }
      ],
      "start": 5.13,
      "startOffset": 68,
      "word": "I"
    },
    {
      "alignedWord": "take",
      "case": "success",
      "end": 5.5200000000000005,
      "endOffset": 74,
      "phones": [
        {
          "duration": 0.07,
          "phone": "t_B"
        },
        {
          "duration": 0.09,
          "phone": "ey_I"
        },
        {
          "duration": 0.08,
          "phone": "k_E"
        }
      ],
      "start": 5.28,
      "startOffset": 70,
      "word": "TAKE"
    },
    {
      "alignedWord": "you",
      "case": "success",
      "end": 5.68,
      "endOffset": 78,
      "phones": [
        {
          "duration": 0.06,
          "phone": "y_B"
        },
        {
          "duration": 0.1,
          "phone": "uw_E"
        }
      ],
      "start": 5.52,
      "startOffset": 75,
      "word": "YOU"
    },
    {
      "alignedWord": "curio",
      "case": "success",
      "end": 6.13,
      "endOffset": 84,
      "phones": [
        {
          "duration": 0.12,
          "phone": "k_B"
        },
        {
          "duration": 0.01,
          "phone": "y_I"
        },
        {
          "duration": 0.06,
          "phone": "uh_I"
        },
        {
          "duration": 0.1,
          "phone": "r_I"
        },
        {
          "duration": 0.08,
          "phone": "iy_I"
        },
        {
          "duration": 0.08,
          "phone": "ow_E"
        }
      ],
      "start": 5.68,
      "startOffset": 79,
      "word": "CURIO"
    },
    {
      "alignedWord": "hunting",
      "case": "success",
      "end": 6.5,
      "endOffset": 92,
      "phones": [
        {
          "duration": 0.08,
          "phone": "hh_B"
        },
        {
          "duration": 0.08,
          "phone": "ah_I"
        },
        {
          "duration": 0.01,
          "phone": "n_I"
        },
        {
          "duration": 0.09,
          "phone": "t_I"
        },
        {
          "duration": 0.04,
          "phone": "ih_I"
        },
        {
          "duration": 0.07,
          "phone": "ng_E"
        }
      ],
      "start": 6.13,
      "startOffset": 85,
      "word": "HUNTING"
    },
    {
      "alignedWord": "it",
      "case": "success",
      "end": 6.59,
      "endOffset": 95,
      "phones": [
        {
          "duration": 0.05,
          "phone": "ih_B"
        },
        {
          "duration": 0.04,
          "phone": "t_E"
        }
      ],
      "start": 6.5,
      "startOffset": 93,
      "word": "IT"
    },
    {
      "alignedWord": "won't",
      "case": "success",
      "end": 6.81,
      "endOffset": 101,
      "phones": [
        {
          "duration": 0.07,
          "phone": "w_B"
        },
        {
          "duration": 0.08,
          "phone": "ow_I"
        },
        {
          "duration": 0.04,
          "phone": "n_I"
        },
        {
          "duration": 0.02,
          "phone": "t_E"
        }
      ],
      "start": 6.6,
      "startOffset": 96,
      "word": "WON'T"
    },
    {
      "alignedWord": "be",
      "case": "success",
      "end": 6.99,
      "endOffset": 104,
      "phones": [
        {
          "duration": 0.09,
          "phone": "b_B"
        },
        {
          "duration": 0.08,
          "phone": "iy_E"
        }
      ],
      "start": 6.82,
      "startOffset": 102,
      "word": "BE"
    },
    {
      "alignedWord": "to",
      "case": "success",
      "end": 7.11,
      "endOffset": 107,
      "phones": [
        {
          "duration": 0.06,
          "phone": "t_B"
        },
        {
          "duration": 0.06,
          "phone": "ih_E"
        }
      ],
      "start": 6.99,
      "startOffset": 105,
      "word": "TO"
    },
    {
      "alignedWord": "this",
      "case": "success",
      "end": 7.37,
      "endOffset": 112,
      "phones": [
        {
          "duration": 0.05,
          "phone": "dh_B"
        },
        {
          "duration": 0.11,
          "phone": "ih_I"
        },
        {
          "duration": 0.1,
          "phone": "s_E"
        }
      ],
      "start": 7.11,
      "startOffset": 108,
      "word": "THIS"
    },
    {
      "alignedWord": "place",
      "case": "success",
      "end": 7.88,
      "endOffset": 118,
      "phones": [
        {
          "duration": 0.1,
          "phone": "p_B"
        },
        {
          "duration": 0.11,
          "phone": "l_I"
        },
        {
          "duration": 0.11,
          "phone": "ey_I"
        },
        {
          "duration": 0.19,
          "phone": "s_E"
        }
      ],
      "start": 7.37,
      "startOffset": 113,
      "word": "PLACE"
    },
    {
      "alignedWord": "he",
      "case": "success",
      "end": 8.340000000000002,
      "endOffset": 121,
      "phones": [
        {
          "duration": 0.11,
          "phone": "hh_B"
        },
        {
          "duration": 0.1,
          "phone": "iy_E"
        }
      ],
      "start": 8.13,
      "startOffset": 119,
      "word": "HE"
    },
    {
      "alignedWord": "<unk>",
      "case": "success",
      "end": 8.83,
      "endOffset": 127,
      "phones": [
        {
          "duration": 0.49,
          "phone": "oov_S"
        }
      ],
      "start": 8.34,
      "startOffset": 122,
      "word": "FUMED"
    },
    {
      "alignedWord": "wasn't",
      "case": "success",
      "end": 9.75,
      "endOffset": 134,
      "phones": [
        {
          "duration": 0.1,
          "phone": "w_B"
        },
        {
          "duration": 0.08,
          "phone": "aa_I"
        },
        {
          "duration": 0.03,
          "phone": "z_I"
        },
        {
          "duration": 0.03,
          "phone": "ah_I"
        },
        {
          "duration": 0.06,
          "phone": "n_I"
        },
        {
          "duration": 0.07,
          "phone": "t_E"
        }
      ],
      "start": 9.38,
      "startOffset": 128,
      "word": "WASN'T"
    },
    {
      "alignedWord": "it",
      "case": "success",
      "end": 9.88,
      "endOffset": 137,
      "phones": [
        {
          "duration": 0.06,
          "phone": "ih_B"
        },
        {
          "duration": 0.07,
          "phone": "t_E"
        }
      ],
      "start": 9.75,
      "startOffset": 135,
      "word": "IT"
    },
    {
      "alignedWord": "awful",
      "case": "success",
      "end": 10.529999,
      "endOffset": 143,
      "phones": [
        {
          "duration": 0.21,
          "phone": "ao_B"
        },
        {
          "duration": 0.1,
          "phone": "f_I"
        },
        {
          "duration": 0.08,
          "phone": "ah_I"
        },
        {
          "duration": 0.21,
          "phone": "l_E"
        }
      ],
      "start": 9.929999,
      "startOffset": 138,
      "word": "AWFUL"
    },
    {
      "alignedWord": "choked",
      "case": "success",
      "end": 11.03,
      "endOffset": 150,
      "phones": [
        {
          "duration": 0.14,
          "phone": "ch_B"
        },
        {
          "duration": 0.07,
          "phone": "ow_I"
        },
        {
          "duration": 0.08,
          "phone": "k_I"
        },
        {
          "duration": 0.07,
          "phone": "t_E"
        }
      ],
      "start": 10.67,
      "startOffset": 144,
      "word": "CHOKED"
    },
    {
      "alignedWord": "billy",
      "case": "success",
      "end": 11.459999,
      "endOffset": 156,
      "phones": [
        {
          "duration": 0.06,
          "phone": "b_B"
        },
        {
          "duration": 0.06,
          "phone": "ih_I"
        },
        {
          "duration": 0.08,
          "phone": "l_I"
        },
        {
          "duration": 0.2,
          "phone": "iy_E"
        }
      ],
      "start": 11.059999,
      "startOffset": 151,
      "word": "BILLY"
    },
    {
      "alignedWord": "awful",
      "case": "success",
      "end": 12.409999000000001,
      "endOffset": 162,
      "phones": [
        {
          "duration": 0.2,
          "phone": "ao_B"
        },
        {
          "duration": 0.12,
          "phone": "f_I"
        },
        {
          "duration": 0.06,
          "phone": "ah_I"
        },
        {
          "duration": 0.1,
          "phone": "l_E"
        }
      ],
      "start": 11.929999,
      "startOffset": 157,
      "word": "AWFUL"
    }
  ]
}