{
  "transcript": "BROUGHT OF COURSE IF IT'S WORTH THAT TO YOU SHE PAUSED SUDDENLY A QUICK STEP HAD SOUNDED IN THE HALL OUTSIDE THE NEXT MOMENT THE DOOR FLEW OPEN",
  "words": [
    {
      "alignedWord": "brought",
      "case": "success",
      "end": 0.68,
      "endOffset": 7,
      "phones": [
        {
          "duration": 0.1,
          "phone": "b_B"
        },
        {
          "duration": 0.06,
          "phone": "r_I"
        },
        {
          "duration": 0.11,
          "phone": "ao_I"
        },
        {
          "duration": 0.25,
          "phone": "t_E"
        }
      ],
      "start": 0.16,
      "startOffset": 0,
      "word": "BROUGHT"
    },
    {
      "alignedWord": "of",
      "case": "success",
      "end": 1.64,
      "endOffset": 10,
      "phones": [
        {
          "duration": 0.09,
          "phone": "ah_B"
        },
        {
          "duration": 0.08,
          "phone": "v_E"
        }
      ],
      "start": 1.47,
      "startOffset": 8,
      "word": "OF"
    },
    {
      "alignedWord": "course",
      "case": "success",
      "end": 1.8699999999999999,
      "endOffset": 17,
      "phones": [
        {
          "duration": 0.08,
          "phone": "k_B"
        },
        {
          "duration": 0.03,
          "phone": "ao_I"
        },
        {
          "duration": 0.08,
          "phone": "r_I"
        },
        {
          "duration": 0.04,
          "phone": "s_E"
        }
      ],
      "start": 1.64,
      "startOffset": 11,
      "word": "COURSE"
    },
    {
      "alignedWord": "if",
      "case": "success",
      "end": 1.9900000000000002,
      "endOffset": 20,
      "phones": [
        {
          "duration": 0.07,
          "phone": "ih_B"
        },
        {
          "duration": 0.05,
          "phone": "f_E"
        }
      ],
      "start": 1.87,
      "startOffset": 18,
      "word": "IF"
    },
    {
      "alignedWord": "it's",
      "case": "success",
      "end": 2.14,
      "endOffset": 25,
      "phones": [
        {
          "duration": 0.05,
          "phone": "ih_B"
        },
        {
          "duration": 0.04,
          "phone": "t_I"
        },
        {
          "duration": 0.06,
          "phone": "s_E"
        }
      ],
      "start": 1.99,
      "startOffset": 21,
      "word": "IT'S"
    },
    {
      "alignedWord": "worth",
      "case": "success",
      "end": 2.37,
      "endOffset": 31,
      "phones": [
        {
          "duration": 0.12,
          "phone": "w_B"
        },
        {
          "duration": 0.08,
          "phone": "er_I"
        },
        {
          "duration": 0.03,
          "phone": "th_E"
        }
      ],
      "start": 2.14,
      "startOffset": 26,
      "word": "WORTH"
    },
    {
      "alignedWord": "that",
      "case": "success",
      "end": 2.61,
      "endOffset": 36,
      "phones": [
        {
          "duration": 0.07,
          "phone": "dh_B"
        },
        {
          "duration": 0.07,
          "phone": "ae_I"
        },
        {
          "duration": 0.09,
          "phone": "t_E"
        }
      ],
      "start": 2.38,
      "startOffset": 32,
      "word": "THAT"
    },
    {
      "alignedWord": "to",
      "case": "success",
      "end": 2.71,
      "endOffset": 39,
      "phones": [
        {
          "duration": 0.02,
          "phone": "t_B"
        },
        {
          "duration": 0.08,
          "phone": "uw_E"
        }
      ],
      "start": 2.61,
      "startOffset": 37,
      "word": "TO"
    },
    {
      "alignedWord": "you",
      "case": "success",
      "end": 3.27,
      "endOffset": 43,
      "phones": [
        {
          "duration": 0.16,
          "phone": "y_B"
        },
        {
          "duration": 0.4,
          "phone": "uw_E"
        }
      ],
      "start": 2.71,
      "startOffset": 40,
      "word": "YOU"
    },
    {
      "alignedWord": "she",
      "case": "success",
      "end": 3.96,
      "endOffset": 47,
      "phones": [
        {
          "duration": 0.14,
          "phone": "sh_B"
        },
        {
          "duration": 0.06,
          "phone": "iy_E"
        }
      ],
      "start": 3.76,
      "startOffset": 44,
      "word": "SHE"
    },
    {
      "alignedWord": "paused",
      "case": "success",
      "end": 4.3,
      "endOffset": 54,
      "phones": [
        {
          "duration": 0.12,
          "phone": "p_B"
        },
        {
          "duration": 0.14,
          "phone": "ao_I"
        },
        {
          "duration": 0.07,
          "phone": "z_I"
        },
        {
          "duration": 0.01,
          "phone": "d_E"
        }
      ],
      "start": 3.96,
      "startOffset": 48,
      "word": "PAUSED"
    },
    {
      "alignedWord": "suddenly",
      "case": "success",
      "end": 4.87,
      "endOffset": 63,
      "phones": [
        {
          "duration": 0.05,
          "phone": "s_B"
        },
        {
          "duration": 0.1,
          "phone": "ah_I"
        },
        {
          "duration": 0.01,
          "phone": "d_I"
        },
        {
          "duration": 0.04,
          "phone": "ah_I"
        },
        {
          "duration": 0.09,
          "phone": "n_I"
        },
        {
          "duration": 0.08,
          "phone": "l_I"
        },
        {
          "duration": 0.2,
          "phone": "iy_E"
        }
      ],
      "start": 4.3,
      "startOffset": 55,
      "word": "SUDDENLY"
    },
    {
      "alignedWord": "a",
      "case": "success",
      "end": 5.720000000000001,
      "endOffset": 65,
      "phones": [
        {
          "duration": 0.11,
          "phone": "ah_S"
        }
      ],
      "start": 5.61,
      "startOffset": 64,
      "word": "A"
    },
    {
      "alignedWord": "quick",
      "case": "success",
      "end": 6.029999999999999,
      "endOffset": 71,
      "phones": [
        {
          "duration": 0.08,
          "phone": "k_B"
        },
        {
          "duration": 0.06,
          "phone": "w_I"
        },
        {
          "duration": 0.08,
          "phone": "ih_I"
        },
        {
          "duration": 0.09,
          "phone": "k_E"
        }
      ],
      "start": 5.72,
      "startOffset": 66,
      "word": "QUICK"
    },
    {
      "alignedWord": "step",
      "case": "success",
      "end": 6.42,
      "endOffset": 76,
      "phones": [
        {
          "duration": 0.11,
          "phone": "s_B"
        },
        {
          "duration": 0.08,
          "phone": "t_I"
        },
        {
          "duration": 0.09,
          "phone": "eh_I"
        },
        {
          "duration": 0.11,
          "phone": "p_E"
        }
      ],
      "start": 6.03,
      "startOffset": 72,
      "word": "STEP"
    },
    {
      "alignedWord": "had",
      "case": "success",
      "end": 6.57,
      "endOffset": 80,
      "phones": [
        {
          "duration": 0.03,
          "phone": "hh_B"
        },
        {
          "duration": 0.03,
          "phone": "ae_I"
        },
        {
          "duration": 0.09,
          "phone": "d_E"
        }
      ],
      "start": 6.42,
      "startOffset": 77,
      "word": "HAD"
    },
    {
      "alignedWord": "sounded",
      "case": "success",
      "end": 6.930000000000001,
      "endOffset": 88,
      "phones": [
        {
          "duration": 0.09,
          "phone": "s_B"
        },
        {
          "duration": 0.08,
          "phone": "aw_I"
        },
        {
          "duration": 0.06,
          "phone": "n_I"
        },
        {
          "duration": 0.03,
          "phone": "d_I"
        },
        {
          "duration": 0.05,
          "phone": "ih_I"
        },
        {
          "duration": 0.05,
          "phone": "d_E"
        }
      ],
      "start": 6.57,
      "startOffset": 81,
      "word": "SOUNDED"
    },
    {
      "alignedWord": "in",
      "case": "success",
      "end": 7.02,
      "endOffset": 91,
      "phones": [
        {
          "duration": 0.04,
          "phone": "ih_B"
        },
        {
          "duration": 0.05,
          "phone": "n_E"
        }
      ],
      "start": 6.93,
      "startOffset": 89,
      "word": "IN"
    },
    {
      "alignedWord": "the",
      "case": "success",
      "end": 7.109999999999999,
      "endOffset": 95,
      "phones": [
        {
          "duration": 0.05,
          "phone": "dh_B"
        },
        {
          "duration": 0.04,
          "phone": "ah_E"
        }
      ],
      "start": 7.02,
      "startOffset": 92,
      "word": "THE"
    },
    {
      "alignedWord": "hall",
      "case": "success",
      "end": 7.4,
      "endOffset": 100,
      "phones": [
        {
          "duration": 0.06,
          "phone": "hh_B"
        },
        {
          "duration": 0.12,
          "phone": "ao_I"
        },
        {
          "duration": 0.11,
          "phone": "l_E"
        }
      ],
      "start": 7.11,
      "startOffset": 96,
      "word": "HALL"
    },
    {
      "alignedWord": "outside",
      "case": "success",
      "end": 8.030000000000001,
      "endOffset": 108,
      "phones": [
        {
          "duration": 0.07,
          "phone": "aw_B"
        },
        {
          "duration": 0.09,
          "phone": "t_I"
        },
        {
          "duration": 0.13,
          "phone": "s_I"
        },
        {
          "duration": 0.19,
          "phone": "ay_I"
        },
        {
          "duration": 0.15,
          "phone": "d_E"
        }
      ],
      "start": 7.4,
      "startOffset": 101,
      "word": "OUTSIDE"
    },
    {
      "alignedWord": "the",
      "case": "success",
      "end": 8.5,
      "endOffset": 112,
      "phones": [
        {
          "duration": 0.07,
          "phone": "dh_B"
        },
        {
          "duration": 0.05,
          "phone": "ah_E"
        }
      ],
      "start": 8.38,
      "startOffset": 109,
      "word": "THE"
    },
    {
      "alignedWord": "next",
      "case": "success",
      "end": 8.79,
      "endOffset": 117,
      "phones": [
        {
          "duration": 0.07,
          "phone": "n_B"
        },
        {
          "duration": 0.06,
          "phone": "eh_I"
        },
        {
          "duration": 0.08,
          "phone": "k_I"
        },
        {
          "duration": 0.08,
          "phone": "s_E"
        }
      ],
      "start": 8.5,
      "startOffset": 113,
      "word": "NEXT"
    },
    {
      "alignedWord": "moment",
      "case": "success",
      "end": 9.09,
      "endOffset": 124,
      "phones": [
        {
          "duration": 0.05,
          "phone": "m_B"
        },
        {
          "duration": 0.07,
          "phone": "ow_I"
        },
        {
          "duration": 0.04,
          "phone": "m_I"
        },
        {
          "duration": 0.06,
          "phone": "ah_I"
        },
        {
          "duration": 0.03,
          "phone": "n_I"
        },
        {
          "duration": 0.05,
          "phone": "t_E"
        }
      ],
      "start": 8.79,
      "startOffset": 118,
      "word": "MOMENT"
    },
    {
      "alignedWord": "the",
      "case": "success",
      "end": 9.17,
      "endOffset": 128,
      "phones": [
        {
          "duration": 0.03,
          "phone": "dh_B"
        },
        {
          "duration": 0.05,
          "phone": "ah_E"
        }
      ],
      "start": 9.09,
      "startOffset": 125,
      "word": "THE"
    },
    {
      "alignedWord": "door",
      "case": "success",
      "end": 9.42,
      "endOffset": 133,
      "phones": [
        {
          "duration": 0.07,
          "phone": "d_B"
        },
        {
          "duration": 0.09,
          "phone": "ao_I"
        },
        {
          "duration": 0.09,
          "phone": "r_E"
        }
      ],
      "start": 9.17,
      "startOffset": 129,
      "word": "DOOR"
    },
    {
      "alignedWord": "flew",
      "case": "success",
      "end": 9.75,
      "endOffset": 138,
      "phones": [
        {
          "duration": 0.12,
          "phone": "f_B"
        },
        {
          "duration": 0.09,
          "phone": "l_I"
        },
        {
          "duration": 0.12,
          "phone": "uw_E"
        }
      ],
      "start": 9.42,
      "startOffset": 134,
      "word": "FLEW"
    },
    {
      "alignedWord": "open",
      "case": "success",
      "end": 10.06,
      "endOffset": 143,
      "phones": [
        {
          "duration": 0.08,
          "phone": "ow_B"
        },
        {
          "duration": 0.09,
          "phone": "p_I"
        },
        {
          "duration": 0.07,
          "phone": "ah_I"
        },
        {
          "duration": 0.07,
          "phone": "n_E"
        }
      ],
      "start": 9.75,
      "startOffset": 139,
      "word": "OPEN"
    }
  ]
}