{
  "transcript": "THE IDENTITY OF THE DEAD MAN WAS PROVED BY HIS WIFE THE FIRST WITNESS CALLED FROM WHOM THE CORONER AFTER SOME INQUIRY INTO THE HEALTH AND CIRCUMSTANCES OF THE DECEASED",
  "words": [
    {
      "alignedWord": "the",
      "case": "success",
      "end": 0.8600000000000001,
      "endOffset": 3,
      "phones": [
        {
          "duration": 0.13,
          "phone": "dh_B"
        },
        {
          "duration": 0.18,
          "phone": "iy_E"
        }
      ],
      "start": 0.55,
      "startOffset": 0,
      "word": "THE"
    },
    {
      "alignedWord": "identity",
      "case": "success",
      "end": 1.71,
      "endOffset": 12,
      "phones": [
        {
          "duration": 0.18,
          "phone": "ay_B"
        },
        {
          "duration": 0.1,
          "phone": "d_I"
        },
        {
          "duration": 0.07,
          "phone": "eh_I"
        },
        {
          "duration": 0.06,
          "phone": "n_I"
        },
        {
          "duration": 0.05,
          "phone": "t_I"
        },
        {
          "duration": 0.07,
          "phone": "ah_I"
        },
        {
          "duration": 0.09,
          "phone": "t_I"
        },
        {
          "duration": 0.2,
          "phone": "iy_E"
        }
      ],
      "start": 0.89,
      "startOffset": 4,
      "word": "IDENTITY"
    },
    {
      "alignedWord": "of",
      "case": "success",
      "end": 1.89,
      "endOffset": 15,
      "phones": [
        {
          "duration": 0.07,
          "phone": "ah_B"
        },
        {
          "duration": 0.09,
          "phone": "v_E"
        }
      ],
      "start": 1.73,
      "startOffset": 13,
      "word": "OF"
    },
    {
      "alignedWord": "the",
      "case": "success",
      "end": 1.95,
      "endOffset": 19,
      "phones": [
        {
          "duration": 0.01,
          "phone": "dh_B"
        },
        {
          "duration": 0.05,
          "phone": "ah_E"
        }
      ],
      "start": 1.89,
      "startOffset": 16,
      "word": "THE"
    },
    {
      "alignedWord": "dead",
      "case": "success",
      "end": 2.17,
      "endOffset": 24,
      "phones": [
        {
          "duration": 0.07,
          "phone": "d_B"
        },
        {
          "duration": 0.08,
          "phone": "eh_I"
        },
        {
          "duration": 0.07,
          "phone": "d_E"
        }
      ],
      "start": 1.95,
      "startOffset": 20,
      "word": "DEAD"
    },
    {
      "alignedWord": "man",
      "case": "success",
      "end": 2.4899999999999998,
      "endOffset": 28,
      "phones": [
        {
          "duration": 0.08,
          "phone": "m_B"
        },
        {
          "duration": 0.14,
          "phone": "ae_I"
        },
        {
          "duration": 0.1,
          "phone": "n_E"
        }
      ],
      "start": 2.17,
      "startOffset": 25,
      "word": "MAN"
    },
    {
      "alignedWord": "was",
      "case": "success",
      "end": 2.72,
      "endOffset": 32,
      "phones": [
        {
          "duration": 0.06,
          "phone": "w_B"
        },
        {
          "duration": 0.07,
          "phone": "ah_I"
        },
        {
          "duration": 0.1,
          "phone": "z_E"
        }
      ],
      "start": 2.49,
      "startOffset": 29,
      "word": "WAS"
    },
    {
      "alignedWord": "proved",
      "case": "success",
      "end": 3.15,
      "endOffset": 39,
      "phones": [
        {
          "duration": 0.08,
          "phone": "p_B"
        },
        {
          "duration": 0.11,
          "phone": "r_I"
        },
        {
          "duration": 0.09,
          "phone": "uw_I"
        },
        {
          "duration": 0.06,
          "phone": "v_I"
        },
        {
          "duration": 0.08,
          "phone": "d_E"
        }
      ],
      "start": 2.73,
      "startOffset": 33,
      "word": "PROVED"
    },
    {
      "alignedWord": "by",
      "case": "success",
      "end": 3.4000000000000004,
      "endOffset": 42,
      "phones": [
        {
          "duration": 0.09,
          "phone": "b_B"
        },
        {
          "duration": 0.13,
          "phone": "ay_E"
        }
      ],
      "start": 3.18,
      "startOffset": 40,
      "word": "BY"
    },
    {
      "alignedWord": "his",
      "case": "success",
      "end": 3.6500000000000004,
      "endOffset": 46,
      "phones": [
        {
          "duration": 0.08,
          "phone": "hh_B"
        },
        {
          "duration": 0.07,
          "phone": "ih_I"
        },
        {
          "duration": 0.09,
          "phone": "z_E"
        }
      ],
      "start": 3.41,
      "startOffset": 43,
      "word": "HIS"
    },
    {
      "alignedWord": "wife",
      "case": "success",
      "end": 4.16,
      "endOffset": 51,
      "phones": [
        {
          "duration": 0.14,
          "phone": "w_B"
        },
        {
          "duration": 0.13,
          "phone": "ay_I"
        },
        {
          "duration": 0.24,
          "phone": "f_E"
        }
      ],
      "start": 3.65,
      "startOffset": 47,
      "word": "WIFE"
    },
    {
      "alignedWord": "the",
      "case": "success",
      "end": 4.44,
      "endOffset": 55,
      "phones": [
        {
          "duration": 0.16,
          "phone": "dh_B"
        },
        {
          "duration": 0.07,
          "phone": "ah_E"
        }
      ],
      "start": 4.21,
      "startOffset": 52,
      "word": "THE"
    },
    {
      "alignedWord": "first",
      "case": "success",
      "end": 4.8100000000000005,
      "endOffset": 61,
      "phones": [
        {
          "duration": 0.09,
          "phone": "f_B"
        },
        {
          "duration": 0.12,
          "phone": "er_I"
        },
        {
          "duration": 0.07,
          "phone": "s_I"
        },
        {
          "duration": 0.09,
          "phone": "t_E"
        }
      ],
      "start": 4.44,
      "startOffset": 56,
      "word": "FIRST"
    },
    {
      "alignedWord": "witness",
      "case": "success",
      "end": 5.22,
      "endOffset": 69,
      "phones": [
        {
          "duration": 0.03,
          "phone": "w_B"
        },
        {
          "duration": 0.08,
          "phone": "ih_I"
        },
        {
          "duration": 0.06,
          "phone": "t_I"
        },
        {
          "duration": 0.05,
          "phone": "n_I"
        },
        {
          "duration": 0.08,
          "phone": "ah_I"
        },
        {
          "duration": 0.11,
          "phone": "s_E"
        }
      ],
      "start": 4.81,
      "startOffset": 62,
      "word": "WITNESS"
    },
    {
      "alignedWord": "called",
      "case": "success",
      "end": 5.6899999999999995,
      "endOffset": 76,
      "phones": [
        {
          "duration": 0.1,
          "phone": "k_B"
        },
        {
          "duration": 0.17,
          "phone": "ao_I"
        },
        {
          "duration": 0.1,
          "phone": "l_I"
        },
        {
          "duration": 0.1,
          "phone": "d_E"
        }
      ],
      "start": 5.22,
      "startOffset": 70,
      "word": "CALLED"
    },
    {
      "alignedWord": "from",
      "case": "success",
      "end": 6.47,
      "endOffset": 81,
      "phones": [
        {
          "duration": 0.11,
          "phone": "f_B"
        },
        {
          "duration": 0.06,
          "phone": "r_I"
        },
        {
          "duration": 0.08,
          "phone": "ah_I"
        },
        {
          "duration": 0.12,
          "phone": "m_E"
        }
      ],
      "start": 6.1,
      "startOffset": 77,
      "word": "FROM"
    },
    {
      "alignedWord": "whom",
      "case": "success",
      "end": 6.74,
      "endOffset": 86,
      "phones": [
        {
          "duration": 0.07,
          "phone": "hh_B"
        },
        {
          "duration": 0.11,
          "phone": "uw_I"
        },
        {
          "duration": 0.09,
          "phone": "m_E"
        }
      ],
      "start": 6.47,
      "startOffset": 82,
      "word": "WHOM"
    },
    {
      "alignedWord": "the",
      "case": "success",
      "end": 6.87,
      "endOffset": 90,
      "phones": [
        {
          "duration": 0.01,
          "phone": "dh_B"
        },
        {
          "duration": 0.12,
          "phone": "ah_E"
        }
      ],
      "start": 6.74,
      "startOffset": 87,
      "word": "THE"
    },
    {
      "alignedWord": "coroner",
      "case": "success",
      "end": 7.5,
      "endOffset": 98,
      "phones": [
        {
          "duration": 0.12,
          "phone": "k_B"
        },
        {
          "duration": 0.08,
          "phone": "ao_I"
        },
        {
          "duration": 0.08,
          "phone": "r_I"
        },
        {
          "duration": 0.05,
          "phone": "ah_I"
        },
        {
          "duration": 0.08,
          "phone": "n_I"
        },
        {
          "duration": 0.21,
          "phone": "er_E"
        }
      ],
      "start": 6.88,
      "startOffset": 91,
      "word": "CORONER"
    },
    {
      "alignedWord": "after",
      "case": "success",
      "end": 7.9,
      "endOffset": 104,
      "phones": [
        {
          "duration": 0.13,
          "phone": "ae_B"
        },
        {
          "duration": 0.1,
          "phone": "f_I"
        },
        {
          "duration": 0.07,
          "phone": "t_I"
        },
        {
          "duration": 0.07,
          "phone": "er_E"
        }
      ],
      "start": 7.53,
      "startOffset": 99,
      "word": "AFTER"
    },
    {
      "alignedWord": "some",
      "case": "success",
      "end": 8.19,
      "endOffset": 109,
      "phones": [
        {
          "duration": 0.1,
          "phone": "s_B"
        },
        {
          "duration": 0.09,
          "phone": "ah_I"
        },
        {
          "duration": 0.1,
          "phone": "m_E"
        }
      ],
      "start": 7.9,
      "startOffset": 105,
      "word": "SOME"
    },
    {
      "alignedWord": "inquiry",
      "case": "success",
      "end": 8.9,
      "endOffset": 117,
      "phones": [
        {
          "duration": 0.15,
          "phone": "ih_B"
        },
        {
          "duration": 0.09,
          "phone": "n_I"
        },
        {
          "duration": 0.11,
          "phone": "k_I"
        },
        {
          "duration": 0.03,
          "phone": "w_I"
        },
        {
          "duration": 0.06,
          "phone": "ay_I"
        },
        {
          "duration": 0.1,
          "phone": "r_I"
        },
        {
          "duration": 0.15,
          "phone": "iy_E"
        }
      ],
      "start": 8.21,
      "startOffset": 110,
      "word": "INQUIRY"
    },
    {
      "alignedWord": "into",
      "case": "success",
      "end": 9.16,
      "endOffset": 122,
      "phones": [
        {
          "duration": 0.06,
          "phone": "ih_B"
        },
        {
          "duration": 0.08,
          "phone": "n_I"
        },
        {
          "duration": 0.06,
          "phone": "t_I"
        },
        {
          "duration": 0.06,
          "phone": "ah_E"
        }
      ],
      "start": 8.9,
      "startOffset": 118,
      "word": "INTO"
    },
    {
      "alignedWord": "the",
      "case": "success",
      "end": 9.23,
      "endOffset": 126,
      "phones": [
        {
          "duration": 0.02,
          "phone": "dh_B"
        },
        {
          "duration": 0.05,
          "phone": "ah_E"
        }
      ],
      "start": 9.16,
      "startOffset": 123,
      "word": "THE"
    },
    {
      "alignedWord": "health",
      "case": "success",
      "end": 9.64,
      "endOffset": 133,
      "phones": [
        {
          "duration": 0.1,
          "phone": "hh_B"
        },
        {
          "duration": 0.08,
          "phone": "eh_I"
        },
        {
          "duration": 0.1,
          "phone": "l_I"
        },
        {
          "duration": 0.12,
          "phone": "th_E"
        }
      ],
      "start": 9.24,
      "startOffset": 127,
      "word": "HEALTH"
    },
    {
      "alignedWord": "and",
      "case": "success",
      "end": 9.85,
      "endOffset": 137,
      "phones": [
        {
          "duration": 0.06,
          "phone": "ah_B"
        },
        {
          "duration": 0.06,
          "phone": "n_I"
        },
        {
          "duration": 0.07,
          "phone": "d_E"
        }
      ],
      "start": 9.66,
      "startOffset": 134,
      "word": "AND"
    },
    {
      "alignedWord": "circumstances",
      "case": "success",
      "end": 10.769999,
      "endOffset": 151,
      "phones": [
        {
          "duration": 0.13,
          "phone": "s_B"
        },
        {
          "duration": 0.09,
          "phone": "er_I"
        },
        {
          "duration": 0.03,
          "phone": "k_I"
        },
        {
          "duration": 0.06,
          "phone": "ah_I"
        },
        {
          "duration": 0.08,
          "phone": "m_I"
        },
        {
          "duration": 0.07,
          "phone": "s_I"
        },
        {
          "duration": 0.08,
          "phone": "t_I"
        },
        {
          "duration": 0.09,
          "phone": "ae_I"
        },
        {
          "duration": 0.08,
          "phone": "n_I"
        },
        {
          "duration": 0.08,
          "phone": "s_I"
        },
        {
          "duration": 0.06,
          "phone": "ih_I"
        },
        {
          "duration": 0.07,
          "phone": "z_E"
        }
      ],
      "start": 9.849999,
      "startOffset": 138,
      "word": "CIRCUMSTANCES"
    },
    {
      "alignedWord": "of",
      "case": "success",
      "end": 10.95,
      "endOffset": 154,
      "phones": [
        {
          "duration": 0.08,
          "phone": "ah_B"
        },
        {
          "duration": 0.1,
          "phone": "v_E"
        }
      ],
      "start": 10.77,
      "startOffset": 152,
      "word": "OF"
    },
    {
      "alignedWord": "the",
      "case": "success",
      "end": 11.03,
      "endOffset": 158,
      "phones": [
        {
          "duration": 0.02,
          "phone": "dh_B"
        },
        {
          "duration": 0.06,
          "phone": "ah_E"
        }
      ],
      "start": 10.95,
      "startOffset": 155,
      "word": "THE"
    },
    {
      "alignedWord": "deceased",
      "case": "success",
      "end": 11.68,
      "endOffset": 167,
      "phones": [
        {
          "duration": 0.07,
          "phone": "d_B"
        },
        {
          "duration": 0.08,
          "phone": "ih_I"
        },
        {
          "duration": 0.14,
          "phone": "s_I"
        },
        {
          "duration": 0.15,
          "phone": "iy_I"
        },
        {
          "duration": 0.08,
          "phone": "s_I"
        },
        {
          "duration": 0.13,
          "phone": "t_E"
        }
      ],
      "start": 11.03,
      "startOffset": 159,
      "word": "DECEASED"
    }
  ]
}