{
  "transcript": "HE DID EXPLAIN WHY I REMEMBER VERY WELL WHAT HE SAID BECAUSE SHE STOPPED WITH A LITTLE APPEARANCE OF CONFUSION BECAUSE THE CORONER INSISTED GENTLY",
  "words": [
    {
      "alignedWord": "he",
      "case": "success",
      "end": 0.4,
      "endOffset": 2,
      "phones": [
        {
          "duration": 0.12,
          "phone": "hh_B"
        },
        {
          "duration": 0.09,
          "phone": "iy_E"
        }
      ],
      "start": 0.19,
      "startOffset": 0,
      "word": "HE"
    },
    {
      "alignedWord": "did",
      "case": "success",
      "end": 0.65,
      "endOffset": 6,
      "phones": [
        {
          "duration": 0.05,
          "phone": "d_B"
        },
        {
          "duration": 0.11,
          "phone": "ih_I"
        },
        {
          "duration": 0.09,
          "phone": "d_E"
        }
      ],
      "start": 0.4,
      "startOffset": 3,
      "word": "DID"
    },
    {
      "alignedWord": "explain",
      "case": "success",
      "end": 1.12,
      "endOffset": 14,
      "phones": [
        {
          "duration": 0.04,
          "phone": "ih_B"
        },
        {
          "duration": 0.06,
          "phone": "k_I"
        },
        {
          "duration": 0.03,
          "phone": "s_I"
        },
        {
          "duration": 0.08,
          "phone": "p_I"
        },
        {
          "duration": 0.07,
          "phone": "l_I"
        },
        {
          "duration": 0.09,
          "phone": "ey_I"
        },
        {
          "duration": 0.09,
          "phone": "n_E"
        }
      ],
      "start": 0.66,
      "startOffset": 7,
      "word": "EXPLAIN"
    },
    {
      "alignedWord": "why",
      "case": "success",
      "end": 1.48,
      "endOffset": 18,
      "phones": [
        {
          "duration": 0.1,
          "phone": "w_B"
        },
        {
          "duration": 0.26,
          "phone": "ay_E"
        }
      ],
      "start": 1.12,
      "startOffset": 15,
      "word": "WHY"
    },
    {
      "alignedWord": "i",
      "case": "success",
      "end": 2.26,
      "endOffset": 20,
      "phones": [
        {
          "duration": 0.17,
          "phone": "ay_S"
        }
      ],
      "start": 2.09,
      "startOffset": 19,
      "word": "I"
    },
    {
      "alignedWord": "remember",
      "case": "success",
      "end": 2.6399999999999997,
      "endOffset": 29,
      "phones": [
        {
          "duration": 0.07,
          "phone": "r_B"
        },
        {
          "duration": 0.07,
          "phone": "ih_I"
        },
        {
          "duration": 0.02,
          "phone": "m_I"
        },
        {
          "duration": 0.08,
          "phone": "eh_I"
        },
        {
          "duration": 0.05,
          "phone": "m_I"
        },
        {
          "duration": 0.04,
          "phone": "b_I"
        },
        {
          "duration": 0.05,
          "phone": "er_E"
        }
      ],
      "start": 2.26,
      "startOffset": 21,
      "word": "REMEMBER"
    },
    {
      "alignedWord": "very",
      "case": "success",
      "end": 2.94,
      "endOffset": 34,
      "phones": [
        {
          "duration": 0.09,
          "phone": "v_B"
        },
        {
          "duration": 0.08,
          "phone": "eh_I"
        },
        {
          "duration": 0.08,
          "phone": "r_I"
        },
        {
          "duration": 0.05,
          "phone": "iy_E"
        }
      ],
      "start": 2.64,
      "startOffset": 30,
      "word": "VERY"
    },
    {
      "alignedWord": "well",
      "case": "success",
      "end": 3.23,
      "endOffset": 39,
      "phones": [
        {
          "duration": 0.1,
          "phone": "w_B"
        },
        {
          "duration": 0.1,
          "phone": "eh_I"
        },
        {
          "duration": 0.09,
          "phone": "l_E"
        }
      ],
      "start": 2.94,
      "startOffset": 35,
      "word": "WELL"
    },
    {
      "alignedWord": "what",
      "case": "success",
      "end": 3.39,
      "endOffset": 44,
      "phones": [
        {
          "duration": 0.05,
          "phone": "w_B"
        },
        {
          "duration": 0.06,
          "phone": "ah_I"
        },
        {
          "duration": 0.05,
          "phone": "t_E"
        }
      ],
      "start": 3.23,
      "startOffset": 40,
      "word": "WHAT"
    },
    {
      "alignedWord": "he",
      "case": "success",
      "end": 3.5100000000000002,
      "endOffset": 47,
      "phones": [
        {
          "duration": 0.02,
          "phone": "hh_B"
        },
        {
          "duration": 0.1,
          "phone": "iy_E"
        }
      ],
      "start": 3.39,
      "startOffset": 45,
      "word": "HE"
    },
    {
      "alignedWord": "said",
      "case": "success",
      "end": 3.91,
      "endOffset": 52,
      "phones": [
        {
          "duration": 0.12,
          "phone": "s_B"
        },
        {
          "duration": 0.12,
          "phone": "eh_I"
        },
        {
          "duration": 0.15,
          "phone": "d_E"
        }
      ],
      "start": 3.52,
      "startOffset": 48,
      "word": "SAID"
    },
    {
      "alignedWord": "because",
      "case": "success",
      "end": 4.6000000000000005,
      "endOffset": 60,
      "phones": [
        {
          "duration": 0.08,
          "phone": "b_B"
        },
        {
          "duration": 0.08,
          "phone": "ih_I"
        },
        {
          "duration": 0.11,
          "phone": "k_I"
        },
        {
          "duration": 0.11,
          "phone": "aa_I"
        },
        {
          "duration": 0.29,
          "phone": "z_E"
        }
      ],
      "start": 3.93,
      "startOffset": 53,
      "word": "BECAUSE"
    },
    {
      "alignedWord": "she",
      "case": "success",
      "end": 5.64,
      "endOffset": 64,
      "phones": [
        {
          "duration": 0.21,
          "phone": "sh_B"
        },
        {
          "duration": 0.12,
          "phone": "iy_E"
        }
      ],
      "start": 5.31,
      "startOffset": 61,
      "word": "SHE"
    },
    {
      "alignedWord": "stopped",
      "case": "success",
      "end": 6.28,
      "endOffset": 72,
      "phones": [
        {
          "duration": 0.12,
          "phone": "s_B"
        },
        {
          "duration": 0.09,
          "phone": "t_I"
        },
        {
          "duration": 0.14,
          "phone": "aa_I"
        },
        {
          "duration": 0.11,
          "phone": "p_I"
        },
        {
          "duration": 0.17,
          "phone": "t_E"
        }
      ],
      "start": 5.65,
      "startOffset": 65,
      "word": "STOPPED"
    },
    {
      "alignedWord": "with",
      "case": "success",
      "end": 6.54,
      "endOffset": 77,
      "phones": [
        {
          "duration": 0.08,
          "phone": "w_B"
        },
        {
          "duration": 0.06,
          "phone": "ih_I"
        },
        {
          "duration": 0.09,
          "phone": "th_E"
        }
      ],
      "start": 6.31,
      "startOffset": 73,
      "word": "WITH"
    },
    {
      "alignedWord": "a",
      "case": "success",
      "end": 6.680000000000001,
      "endOffset": 79,
      "phones": [
        {
          "duration": 0.11,
          "phone": "ah_S"
        }
      ],
      "start": 6.57,
      "startOffset": 78,
      "word": "A"
    },
    {
      "alignedWord": "little",
      "case": "success",
      "end": 6.949999999999999,
      "endOffset": 86,
      "phones": [
        {
          "duration": 0.07,
          "phone": "l_B"
        },
        {
          "duration": 0.03,
          "phone": "ih_I"
        },
        {
          "duration": 0.05,
          "phone": "t_I"
        },
        {
          "duration": 0.04,
          "phone": "ah_I"
        },
        {
          "duration": 0.08,
          "phone": "l_E"
        }
      ],
      "start": 6.68,
      "startOffset": 80,
      "word": "LITTLE"
    },
    {
      "alignedWord": "appearance",
      "case": "success",
      "end": 7.53,
      "endOffset": 97,
      "phones": [
        {
          "duration": 0.06,
          "phone": "ah_B"
        },
        {
          "duration": 0.11,
          "phone": "p_I"
        },
        {
          "duration": 0.09,
          "phone": "ih_I"
        },
        {
          "duration": 0.06,
          "phone": "r_I"
        },
        {
          "duration": 0.05,
          "phone": "ah_I"
        },
        {
          "duration": 0.09,
          "phone": "n_I"
        },
        {
          "duration": 0.12,
          "phone": "s_E"
        }
      ],
      "start": 6.95,
      "startOffset": 87,
      "word": "APPEARANCE"
    },
    {
      "alignedWord": "of",
      "case": "success",
      "end": 7.76,
      "endOffset": 100,
      "phones": [
        {
          "duration": 0.11,
          "phone": "ah_B"
        },
        {
          "duration": 0.1,
          "phone": "v_E"
        }
      ],
      "start": 7.55,
      "startOffset": 98,
      "word": "OF"
    },
    {
      "alignedWord": "confusion",
      "case": "success",
      "end": 8.65,
      "endOffset": 110,
      "phones": [
        {
          "duration": 0.07,
          "phone": "k_B"
        },
        {
          "duration": 0.08,
          "phone": "ah_I"
        },
        {
          "duration": 0.08,
          "phone": "n_I"
        },
        {
          "duration": 0.11,
          "phone": "f_I"
        },
        {
          "duration": 0.09,
          "phone": "y_I"
        },
        {
          "duration": 0.09,
          "phone": "uw_I"
        },
        {
          "duration": 0.08,
          "phone": "zh_I"
        },
        {
          "duration": 0.08,
          "phone": "ah_I"
        },
        {
          "duration": 0.19,
          "phone": "n_E"
        }
      ],
      "start": 7.78,
      "startOffset": 101,
      "word": "CONFUSION"
    },
    {
      "alignedWord": "because",
      "case": "success",
      "end": 10.5,
      "endOffset": 118,
      "phones": [
        {
          "duration": 0.14,
          "phone": "b_B"
        },
        {
          "duration": 0.17,
          "phone": "ih_I"
        },
        {
          "duration": 0.18,
          "phone": "k_I"
        },
        {
          "duration": 0.34,
          "phone": "aa_I"
        },
        {
          "duration": 0.33,
          "phone": "z_E"
        }
      ],
      "start": 9.34,
      "startOffset": 111,
      "word": "BECAUSE"
    },
    {
      "alignedWord": "the",
      "case": "success",
      "end": 10.770000000000001,
      "endOffset": 122,
      "phones": [
        {
          "duration": 0.07,
          "phone": "dh_B"
        },
        {
          "duration": 0.07,
          "phone": "ah_E"
        }
      ],
      "start": 10.63,
      "startOffset": 119,
      "word": "THE"
    },
    {
      "alignedWord": "coroner",
      "case": "success",
      "end": 11.23,
      "endOffset": 130,
      "phones": [
        {
          "duration": 0.13,
          "phone": "k_B"
        },
        {
          "duration": 0.08,
          "phone": "ao_I"
        },
        {
          "duration": 0.05,
          "phone": "r_I"
        },
        {
          "duration": 0.05,
          "phone": "ah_I"
        },
        {
          "duration": 0.07,
          "phone": "n_I"
        },
        {
          "duration": 0.08,
          "phone": "er_E"
        }
      ],
      "start": 10.77,
      "startOffset": 123,
      "word": "CORONER"
    },
    {
      "alignedWord": "insisted",
      "case": "success",
      "end": 11.72,
      "endOffset": 139,
      "phones": [
        {
          "duration": 0.08,
          "phone": "ih_B"
        },
        {
          "duration": 0.06,
          "phone": "n_I"
        },
        {
          "duration": 0.07,
          "phone": "s_I"
        },
        {
          "duration": 0.08,
          "phone": "ih_I"
        },
        {
          "duration": 0.07,
          "phone": "s_I"
        },
        {
          "duration": 0.05,
          "phone": "t_I"
        },
        {
          "duration": 0.05,
          "phone": "ah_I"
        },
        {
          "duration": 0.03,
          "phone": "d_E"
        }
      ],
      "start": 11.23,
      "startOffset": 131,
      "word": "INSISTED"
    },
    {
      "alignedWord": "gently",
      "case": "success",
      "end": 12.33,
      "endOffset": 146,
      "phones": [
        {
          "duration": 0.13,
          "phone": "jh_B"
        },
        {
          "duration": 0.08,
          "phone": "eh_I"
        },
        {
          "duration": 0.05,
          "phone": "n_I"
        },
        {
          "duration": 0.07,
          "phone": "t_I"
        },
        {
          "duration": 0.07,
          "phone": "l_I"
        },
        {
          "duration": 0.2,
          "phone": "iy_E"
        }
      ],
      "start": 11.73,
      "startOffset": 140,
      "word": "GENTLY"
    }
  ]
}