{
  "transcript": "WAS A KIND OF REVELATION TO HELEN FOR WHILE HIS INTELLECT WAS HANGING ABOUT THE DOOR ASKING QUESTIONS AND UNEASILY SHIFTING HITHER AND THITHER IN ITS UNLOVED PERPLEXITIES",
  "words": [
    {
      "alignedWord": "was",
      "case": "success",
      "end": 0.5700000000000001,
      "endOffset": 3,
      "phones": [
        {
          "duration": 0.12,
          "phone": "w_B"
        },
        {
          "duration": 0.06,
          "phone": "ah_I"
        },
        {
          "duration": 0.07,
          "phone": "z_E"
        }
      ],
      "start": 0.32,
      "startOffset": 0,
      "word": "WAS"
    },
    {
      "alignedWord": "a",
      "case": "success",
      "end": 0.6599999999999999,
      "endOffset": 5,
      "phones": [
        {
          "duration": 0.09,
          "phone": "ah_S"
        }
      ],
      "start": 0.57,
      "startOffset": 4,
      "word": "A"
    },
    {
      "alignedWord": "kind",
      "case": "success",
      "end": 1.06,
      "endOffset": 10,
      "phones": [
        {
          "duration": 0.12,
          "phone": "k_B"
        },
        {
          "duration": 0.16,
          "phone": "ay_I"
        },
        {
          "duration": 0.07,
          "phone": "n_I"
        },
        {
          "duration": 0.05,
          "phone": "d_E"
        }
      ],
      "start": 0.66,
      "startOffset": 6,
      "word": "KIND"
    },
    {
      "alignedWord": "of",
      "case": "success",
      "end": 1.1800000000000002,
      "endOffset": 13,
      "phones": [
        {
          "duration": 0.05,
          "phone": "ah_B"
        },
        {
          "duration": 0.07,
          "phone": "v_E"
        }
      ],
      "start": 1.06,
      "startOffset": 11,
      "word": "OF"
    },
    {
      "alignedWord": "revelation",
      "case": "success",
      "end": 1.8399999999999999,
      "endOffset": 24,
      "phones": [
        {
          "duration": 0.07,
          "phone": "r_B"
        },
        {
          "duration": 0.06,
          "phone": "eh_I"
        },
        {
          "duration": 0.03,
          "phone": "v_I"
        },
        {
          "duration": 0.09,
          "phone": "ah_I"
        },
        {
          "duration": 0.12,
          "phone": "l_I"
        },
        {
          "duration": 0.07,
          "phone": "ey_I"
        },
        {
          "duration": 0.1,
          "phone": "sh_I"
        },
        {
          "duration": 0.06,
          "phone": "ah_I"
        },
        {
          "duration": 0.06,
          "phone": "n_E"
        }
      ],
      "start": 1.18,
      "startOffset": 14,
      "word": "REVELATION"
    },
    {
      "alignedWord": "to",
      "case": "success",
      "end": 1.98,
      "endOffset": 27,
      "phones": [
        {
          "duration": 0.07,
          "phone": "t_B"
        },
        {
          "duration": 0.07,
          "phone": "ah_E"
        }
      ],
      "start": 1.84,
      "startOffset": 25,
      "word": "TO"
    },
    {
      "alignedWord": "helen",
      "case": "success",
      "end": 2.5,
      "endOffset": 33,
      "phones": [
        {
          "duration": 0.08,
          "phone": "hh_B"
        },
        {
          "duration": 0.1,
          "phone": "eh_I"
        },
        {
          "duration": 0.07,
          "phone": "l_I"
        },
        {
          "duration": 0.07,
          "phone": "ah_I"
        },
        {
          "duration": 0.2,
          "phone": "n_E"
        }
      ],
      "start": 1.98,
      "startOffset": 28,
      "word": "HELEN"
    },
    {
      "alignedWord": "for",
      "case": "success",
      "end": 3.43,
      "endOffset": 37,
      "phones": [
        {
          "duration": 0.11,
          "phone": "f_B"
        },
        {
          "duration": 0.1,
          "phone": "er_E"
        }
      ],
      "start": 3.22,
      "startOffset": 34,
      "word": "FOR"
    },
    {
      "alignedWord": "while",
      "case": "success",
      "end": 3.74,
      "endOffset": 43,
      "phones": [
        {
          "duration": 0.11,
          "phone": "w_B"
        },
        {
          "duration": 0.12,
          "phone": "ay_I"
        },
        {
          "duration": 0.08,
          "phone": "l_E"
        }
      ],
      "start": 3.43,
      "startOffset": 38,
      "word": "WHILE"
    },
    {
      "alignedWord": "his",
      "case": "success",
      "end": 3.9800000000000004,
      "endOffset": 47,
      "phones": [
        {
          "duration": 0.07,
          "phone": "hh_B"
        },
        {
          "duration": 0.06,
          "phone": "ih_I"
        },
        {
          "duration": 0.11,
          "phone": "z_E"
        }
      ],
      "start": 3.74,
      "startOffset": 44,
      "word": "HIS"
    },
    {
      "alignedWord": "intellect",
      "case": "success",
      "end": 4.57,
      "endOffset": 57,
      "phones": [
        {
          "duration": 0.08,
          "phone": "ih_B"
        },
        {
          "duration": 0.06,
          "phone": "n_I"
        },
        {
          "duration": 0.06,
          "phone": "t_I"
        },
        {
          "duration": 0.05,
          "phone": "ah_I"
        },
        {
          "duration": 0.08,
          "phone": "l_I"
        },
        {
          "duration": 0.08,
          "phone": "eh_I"
        },
        {
          "duration": 0.05,
          "phone": "k_I"
        },
        {
          "duration": 0.08,
          "phone": "t_E"
        }
      ],
      "start": 4.03,
      "startOffset": 48,
      "word": "INTELLECT"
    },
    {
      "alignedWord": "was",
      "case": "success",
      "end": 4.720000000000001,
      "endOffset": 61,
      "phones": [
        {
          "duration": 0.01,
          "phone": "w_B"
        },
        {
          "duration": 0.07,
          "phone": "ah_I"
        },
        {
          "duration": 0.07,
          "phone": "z_E"
        }
      ],
      "start": 4.57,
      "startOffset": 58,
      "word": "WAS"
    },
    {
      "alignedWord": "hanging",
      "case": "success",
      "end": 5.0600000000000005,
      "endOffset": 69,
      "phones": [
        {
          "duration": 0.06,
          "phone": "hh_B"
        },
        {
          "duration": 0.07,
          "phone": "ae_I"
        },
        {
          "duration": 0.05,
          "phone": "ng_I"
        },
        {
          "duration": 0.08,
          "phone": "ih_I"
        },
        {
          "duration": 0.07,
          "phone": "ng_E"
        }
      ],
      "start": 4.73,
      "startOffset": 62,
      "word": "HANGING"
    },
    {
      "alignedWord": "about",
      "case": "success",
      "end": 5.4,
      "endOffset": 75,
      "phones": [
        {
          "duration": 0.06,
          "phone": "ah_B"
        },
        {
          "duration": 0.1,
          "phone": "b_I"
        },
        {
          "duration": 0.08,
          "phone": "aw_I"
        },
        {
          "duration": 0.09,
          "phone": "t_E"
        }
      ],
      "start": 5.07,
      "startOffset": 70,
      "word": "ABOUT"
    },
    {
      "alignedWord": "the",
      "case": "success",
      "end": 5.54,
      "endOffset": 79,
      "phones": [
        {
          "duration": 0.07,
          "phone": "dh_B"
        },
        {
          "duration": 0.07,
          "phone": "ah_E"
        }
      ],
      "start": 5.4,
      "startOffset": 76,
      "word": "THE"
    },
    {
      "alignedWord": "door",
      "case": "success",
      "end": 6.02,
      "endOffset": 84,
      "phones": [
        {
          "duration": 0.11,
          "phone": "d_B"
        },
        {
          "duration": 0.2,
          "phone": "ao_I"
        },
        {
          "duration": 0.17,
          "phone": "r_E"
        }
      ],
      "start": 5.54,
      "startOffset": 80,
      "word": "DOOR"
    },
    {
      "alignedWord": "asking",
      "case": "success",
      "end": 6.75,
      "endOffset": 91,
      "phones": [
        {
          "duration": 0.14,
          "phone": "ae_B"
        },
        {
          "duration": 0.09,
          "phone": "s_I"
        },
        {
          "duration": 0.07,
          "phone": "k_I"
        },
        {
          "duration": 0.07,
          "phone": "ih_I"
        },
        {
          "duration": 0.07,
          "phone": "ng_E"
        }
      ],
      "start": 6.31,
      "startOffset": 85,
      "word": "ASKING"
    },
    {
      "alignedWord": "questions",
      "case": "success",
      "end": 7.47,
      "endOffset": 101,
      "phones": [
        {
          "duration": 0.09,
          "phone": "k_B"
        },
        {
          "duration": 0.05,
          "phone": "w_I"
        },
        {
          "duration": 0.09,
          "phone": "eh_I"
        },
        {
          "duration": 0.1,
          "phone": "s_I"
        },
        {
          "duration": 0.11,
          "phone": "ch_I"
        },
        {
          "duration": 0.06,
          "phone": "ah_I"
        },
        {
          "duration": 0.09,
          "phone": "n_I"
        },
        {
          "duration": 0.13,
          "phone": "z_E"
        }
      ],
      "start": 6.75,
      "startOffset": 92,
      "word": "QUESTIONS"
    },
    {
      "alignedWord": "and",
      "case": "success",
      "end": 7.9,
      "endOffset": 105,
      "phones": [
        {
          "duration": 0.11,
          "phone": "ae_B"
        },
        {
          "duration": 0.06,
          "phone": "n_I"
        },
        {
          "duration": 0.06,
          "phone": "d_E"
        }
      ],
      "start": 7.67,
      "startOffset": 102,
      "word": "AND"
    },
    {
      "alignedWord": "<unk>",
      "case": "success",
      "end": 8.64,
      "endOffset": 114,
      "phones": [
        {
          "duration": 0.71,
          "phone": "oov_S"
        }
      ],
      "start": 7.93,
      "startOffset": 106,
      "word": "UNEASILY"
    },
    {
      "alignedWord": "shifting",
      "case": "success",
      "end": 9.109999,
      "endOffset": 123,
      "phones": [
        {
          "duration": 0.11,
          "phone": "sh_B"
        },
        {
          "duration": 0.07,
          "phone": "ih_I"
        },
        {
          "duration": 0.07,
          "phone": "f_I"
        },
        {
          "duration": 0.05,
          "phone": "t_I"
        },
        {
          "duration": 0.08,
          "phone": "ih_I"
        },
        {
          "duration": 0.09,
          "phone": "ng_E"
        }
      ],
      "start": 8.639999,
      "startOffset": 115,
      "word": "SHIFTING"
    },
    {
      "alignedWord": "hither",
      "case": "success",
      "end": 9.459999999999999,
      "endOffset": 130,
      "phones": [
        {
          "duration": 0.09,
          "phone": "hh_B"
        },
        {
          "duration": 0.08,
          "phone": "ih_I"
        },
        {
          "duration": 0.08,
          "phone": "dh_I"
        },
        {
          "duration": 0.09,
          "phone": "er_E"
        }
      ],
      "start": 9.12,
      "startOffset": 124,
      "word": "HITHER"
    },
    {
      "alignedWord": "and",
      "case": "success",
      "end": 9.65,
      "endOffset": 134,
      "phones": [
        {
          "duration": 0.09,
          "phone": "ah_B"
        },
        {
          "duration": 0.03,
          "phone": "n_I"
        },
        {
          "duration": 0.07,
          "phone": "d_E"
        }
      ],
      "start": 9.46,
      "startOffset": 131,
      "word": "AND"
    },
    {
      "alignedWord": "<unk>",
      "case": "success",
      "end": 10.030000000000001,
      "endOffset": 142,
      "phones": [
        {
          "duration": 0.38,
          "phone": "oov_S"
        }
      ],
      "start": 9.65,
      "startOffset": 135,
      "word": "THITHER"
    },
    {
      "alignedWord": "in",
      "case": "success",
      "end": 10.53,
      "endOffset": 145,
      "phones": [
        {
          "duration": 0.13,
          "phone": "ih_B"
        },
        {
          "duration": 0.06,
          "phone": "n_E"
        }
      ],
      "start": 10.34,
      "startOffset": 143,
      "word": "IN"
    },
    {
      "alignedWord": "its",
      "case": "success",
      "end": 10.7,
      "endOffset": 149,
      "phones": [
        {
          "duration": 0.06,
          "phone": "ih_B"
        },
        {
          "duration": 0.05,
          "phone": "t_I"
        },
        {
          "duration": 0.06,
          "phone": "s_E"
        }
      ],
      "start": 10.53,
      "startOffset": 146,
      "word": "ITS"
    },
    {
      "alignedWord": "unloved",
      "case": "success",
      "end": 11.24,
      "endOffset": 157,
      "phones": [
        {
          "duration": 0.14,
          "phone": "ah_B"
        },
        {
          "duration": 0.1,
          "phone": "n_I"
        },
        {
          "duration": 0.11,
          "phone": "l_I"
        },
        {
          "duration": 0.05,
          "phone": "ah_I"
        },
        {
          "duration": 0.1,
          "phone": "v_I"
        },
        {
          "duration": 0.01,
          "phone": "d_E"
        }
      ],
      "start": 10.73,
      "startOffset": 150,
      "word": "UNLOVED"
    },
    {
      "alignedWord": "<unk>",
      "case": "success",
      "end": 12.149999999999999,
      "endOffset": 170,
      "phones": [
        {
          "duration": 0.87,
          "phone": "oov_S"
        }
      ],
      "start": 11.28,
      "startOffset": 158,
      "word": "PERPLEXITIES"
    }
  ]
}