{
  "transcript": "THERE HE LAY FOR MORE THAN TWO HOURS WHEN HE FINALLY AWOKE HE STARTED UP AS IF SOME DETERMINATION HAD COME TO HIM IN HIS SLEEP A PART OF THE HELPLESSNESS OF HIS INTOXICATION HAD GONE BUT HIS FIRST ACT WAS TO CALL FOR MORE WHISKEY",
  "words": [
    {
      "alignedWord": "there",
      "case": "success",
      "end": 0.75,
      "endOffset": 5,
      "phones": [
        {
          "duration": 0.1,
          "phone": "dh_B"
        },
        {
          "duration": 0.08,
          "phone": "eh_I"
        },
        {
          "duration": 0.07,
          "phone": "r_E"
        }
      ],
      "start": 0.5,
      "startOffset": 0,
      "word": "THERE"
    },
    {
      "alignedWord": "he",
      "case": "success",
      "end": 0.89,
      "endOffset": 8,
      "phones": [
        {
          "duration": 0.07,
          "phone": "hh_B"
        },
        {
          "duration": 0.07,
          "phone": "iy_E"
        }
      ],
      "start": 0.75,
      "startOffset": 6,
      "word": "HE"
    },
    {
      "alignedWord": "lay",
      "case": "success",
      "end": 1.1600000000000001,
      "endOffset": 12,
      "phones": [
        {
          "duration": 0.09,
          "phone": "l_B"
        },
        {
          "duration": 0.18,
          "phone": "ey_E"
        }
      ],
      "start": 0.89,
      "startOffset": 9,
      "word": "LAY"
    },
    {
      "alignedWord": "for",
      "case": "success",
      "end": 1.3299999999999998,
      "endOffset": 16,
      "phones": [
        {
          "duration": 0.09,
          "phone": "f_B"
        },
        {
          "duration": 0.07,
          "phone": "er_E"
        }
      ],
      "start": 1.17,
      "startOffset": 13,
      "word": "FOR"
    },
    {
      "alignedWord": "more",
      "case": "success",
      "end": 1.6,
      "endOffset": 21,
      "phones": [
        {
          "duration": 0.1,
          "phone": "m_B"
        },
        {
          "duration": 0.1,
          "phone": "ao_I"
        },
        {
          "duration": 0.07,
          "phone": "r_E"
        }
      ],
      "start": 1.33,
      "startOffset": 17,
      "word": "MORE"
    },
    {
      "alignedWord": "than",
      "case": "success",
      "end": 1.75,
      "endOffset": 26,
      "phones": [
        {
          "duration": 0.03,
          "phone": "dh_B"
        },
        {
          "duration": 0.07,
          "phone": "ah_I"
        },
        {
          "duration": 0.05,
          "phone": "n_E"
        }
      ],
      "start": 1.6,
      "startOffset": 22,
      "word": "THAN"
    },
    {
      "alignedWord": "two",
      "case": "success",
      "end": 2.02,
      "endOffset": 30,
      "phones": [
        {
          "duration": 0.12,
          "phone": "t_B"
        },
        {
          "duration": 0.15,
          "phone": "uw_E"
        }
      ],
      "start": 1.75,
      "startOffset": 27,
      "word": "TWO"
    },
    {
      "alignedWord": "hours",
      "case": "success",
      "end": 2.52,
      "endOffset": 36,
      "phones": [
        {
          "duration": 0.2,
          "phone": "aw_B"
        },
        {
          "duration": 0.1,
          "phone": "er_I"
        },
        {
          "duration": 0.2,
          "phone": "z_E"
        }
      ],
      "start": 2.02,
      "startOffset": 31,
      "word": "HOURS"
    },
    {
      "alignedWord": "when",
      "case": "success",
      "end": 3.41,
      "endOffset": 41,
      "phones": [
        {
          "duration": 0.11,
          "phone": "w_B"
        },
        {
          "duration": 0.06,
          "phone": "eh_I"
        },
        {
          "duration": 0.05,
          "phone": "n_E"
        }
      ],
      "start": 3.19,
      "startOffset": 37,
      "word": "WHEN"
    },
    {
      "alignedWord": "he",
      "case": "success",
      "end": 3.52,
      "endOffset": 44,
      "phones": [
        {
          "duration": 0.05,
          "phone": "hh_B"
        },
        {
          "duration": 0.06,
          "phone": "iy_E"
        }
      ],
      "start": 3.41,
      "startOffset": 42,
      "word": "HE"
    },
    {
      "alignedWord": "finally",
      "case": "success",
      "end": 3.97,
      "endOffset": 52,
      "phones": [
        {
          "duration": 0.09,
          "phone": "f_B"
        },
        {
          "duration": 0.09,
          "phone": "ay_I"
        },
        {
          "duration": 0.03,
          "phone": "n_I"
        },
        {
          "duration": 0.09,
          "phone": "ah_I"
        },
        {
          "duration": 0.08,
          "phone": "l_I"
        },
        {
          "duration": 0.07,
          "phone": "iy_E"
        }
      ],
      "start": 3.52,
      "startOffset": 45,
      "word": "FINALLY"
    },
    {
      "alignedWord": "awoke",
      "case": "success",
      "end": 4.430000000000001,
      "endOffset": 58,
      "phones": [
        {
          "duration": 0.06,
          "phone": "ah_B"
        },
        {
          "duration": 0.11,
          "phone": "w_I"
        },
        {
          "duration": 0.11,
          "phone": "ow_I"
        },
        {
          "duration": 0.18,
          "phone": "k_E"
        }
      ],
      "start": 3.97,
      "startOffset": 53,
      "word": "AWOKE"
    },
    {
      "alignedWord": "he",
      "case": "success",
      "end": 4.71,
      "endOffset": 61,
      "phones": [
        {
          "duration": 0.07,
          "phone": "hh_B"
        },
        {
          "duration": 0.06,
          "phone": "iy_E"
        }
      ],
      "start": 4.58,
      "startOffset": 59,
      "word": "HE"
    },
    {
      "alignedWord": "started",
      "case": "success",
      "end": 5.09,
      "endOffset": 69,
      "phones": [
        {
          "duration": 0.07,
          "phone": "s_B"
        },
        {
          "duration": 0.05,
          "phone": "t_I"
        },
        {
          "duration": 0.07,
          "phone": "aa_I"
        },
        {
          "duration": 0.01,
          "phone": "r_I"
        },
        {
          "duration": 0.07,
          "phone": "t_I"
        },
        {
          "duration": 0.05,
          "phone": "ih_I"
        },
        {
          "duration": 0.06,
          "phone": "d_E"
        }
      ],
      "start": 4.71,
      "startOffset": 62,
      "word": "STARTED"
    },
    {
      "alignedWord": "up",
      "case": "success",
      "end": 5.27,
      "endOffset": 72,
      "phones": [
        {
          "duration": 0.08,
          "phone": "ah_B"
        },
        {
          "duration": 0.1,
          "phone": "p_E"
        }
      ],
      "start": 5.09,
      "startOffset": 70,
      "word": "UP"
    },
    {
      "alignedWord": "as",
      "case": "success",
      "end": 5.5,
      "endOffset": 75,
      "phones": [
        {
          "duration": 0.14,
          "phone": "ae_B"
        },
        {
          "duration": 0.06,
          "phone": "z_E"
        }
      ],
      "start": 5.3,
      "startOffset": 73,
      "word": "AS"
    },
    {
      "alignedWord": "if",
      "case": "success",
      "end": 5.64,
      "endOffset": 78,
      "phones": [
        {
          "duration": 0.06,
          "phone": "ih_B"
        },
        {
          "duration": 0.08,
          "phone": "f_E"
        }
      ],
      "start": 5.5,
      "startOffset": 76,
      "word": "IF"
    },
    {
      "alignedWord": "some",
      "case": "success",
      "end": 5.88,
      "endOffset": 83,
      "phones": [
        {
          "duration": 0.08,
          "phone": "s_B"
        },
        {
          "duration": 0.09,
          "phone": "ah_I"
        },
        {
          "duration": 0.07,
          "phone": "m_E"
        }
      ],
      "start": 5.64,
      "startOffset": 79,
      "word": "SOME"
    },
    {
      "alignedWord": "determination",
      "case": "success",
      "end": 6.6,
      "endOffset": 97,
      "phones": [
        {
          "duration": 0.04,
          "phone": "d_B"
        },
        {
          "duration": 0.09,
          "phone": "ih_I"
        },
        {
          "duration": 0.09,
          "phone": "t_I"
        },
        {
          "duration": 0.08,
          "phone": "er_I"
        },
        {
          "duration": 0.04,
          "phone": "m_I"
        },
        {
          "duration": 0.03,
          "phone": "ah_I"
        },
        {
          "duration": 0.06,
          "phone": "n_I"
        },
        {
          "duration": 0.07,
          "phone": "ey_I"
        },
        {
          "duration": 0.09,
          "phone": "sh_I"
        },
        {
          "duration": 0.06,
          "phone": "ah_I"
        },
        {
          "duration": 0.07,
          "phone": "n_E"
        }
      ],
      "start": 5.88,
      "startOffset": 84,
      "word": "DETERMINATION"
    },
    {
      "alignedWord": "had",
      "case": "success",
      "end": 6.78,
      "endOffset": 101,
      "phones": [
        {
          "duration": 0.04,
          "phone": "hh_B"
        },
        {
          "duration": 0.05,
          "phone": "ae_I"
        },
        {
          "duration": 0.08,
          "phone": "d_E"
        }
      ],
      "start": 6.61,
      "startOffset": 98,
      "word": "HAD"
    },
    {
      "alignedWord": "come",
      "case": "success",
      "end": 6.99,
      "endOffset": 106,
      "phones": [
        {
          "duration": 0.05,
          "phone": "k_B"
        },
        {
          "duration": 0.08,
          "phone": "ah_I"
        },
        {
          "duration": 0.08,
          "phone": "m_E"
        }
      ],
      "start": 6.78,
      "startOffset": 102,
      "word": "COME"
    },
    {
      "alignedWord": "to",
      "case": "success",
      "end": 7.13,
      "endOffset": 109,
      "phones": [
        {
          "duration": 0.06,
          "phone": "t_B"
        },
        {
          "duration": 0.08,
          "phone": "uw_E"
        }
      ],
      "start": 6.99,
      "startOffset": 107,
      "word": "TO"
    },
    {
      "alignedWord": "him",
      "case": "success",
      "end": 7.35,
      "endOffset": 113,
      "phones": [
        {
          "duration": 0.06,
          "phone": "hh_B"
        },
        {
          "duration": 0.07,
          "phone": "ih_I"
        },
        {
          "duration": 0.09,
          "phone": "m_E"
        }
      ],
      "start": 7.13,
      "startOffset": 110,
      "word": "HIM"
    },
    {
      "alignedWord": "in",
      "case": "success",
      "end": 7.53,
      "endOffset": 116,
      "phones": [
        {
          "duration": 0.12,
          "phone": "ih_B"
        },
        {
          "duration": 0.05,
          "phone": "n_E"
        }
      ],
      "start": 7.36,
      "startOffset": 114,
      "word": "IN"
    },
    {
      "alignedWord": "his",
      "case": "success",
      "end": 7.680000000000001,
      "endOffset": 120,
      "phones": [
        {
          "duration": 0.03,
          "phone": "hh_B"
        },
        {
          "duration": 0.06,
          "phone": "ih_I"
        },
        {
          "duration": 0.06,
          "phone": "z_E"
        }
      ],
      "start": 7.53,
      "startOffset": 117,
      "word": "HIS"
    },
    {
      "alignedWord": "sleep",
      "case": "success",
      "end": 8.1,
      "endOffset": 126,
      "phones": [
        {
          "duration": 0.1,
          "phone": "s_B"
        },
        {
          "duration": 0.1,
          "phone": "l_I"
        },
        {
          "duration": 0.08,
          "phone": "iy_I"
        },
        {
          "duration": 0.14,
          "phone": "p_E"
        }
      ],
      "start": 7.68,
      "startOffset": 121,
      "word": "SLEEP"
    },
    {
      "alignedWord": "a",
      "case": "success",
      "end": 8.8,
      "endOffset": 128,
      "phones": [
        {
          "duration": 0.14,
          "phone": "ey_S"
        }
      ],
      "start": 8.66,
      "startOffset": 127,
      "word": "A"
    },
    {
      "alignedWord": "part",
      "case": "success",
      "end": 9.05,
      "endOffset": 133,
      "phones": [
        {
          "duration": 0.08,
          "phone": "p_B"
        },
        {
          "duration": 0.08,
          "phone": "aa_I"
        },
        {
          "duration": 0.04,
          "phone": "r_I"
        },
        {
          "duration": 0.05,
          "phone": "t_E"
        }
      ],
      "start": 8.8,
      "startOffset": 129,
      "word": "PART"
    },
    {
      "alignedWord": "of",
      "case": "success",
      "end": 9.189999,
      "endOffset": 136,
      "phones": [
        {
          "duration": 0.06,
          "phone": "ah_B"
        },
        {
          "duration": 0.07,
          "phone": "v_E"
        }
      ],
      "start": 9.059999,
      "startOffset": 134,
      "word": "OF"
    },
    {
      "alignedWord": "the",
      "case": "success",
      "end": 9.29,
      "endOffset": 140,
      "phones": [
        {
          "duration": 0.02,
          "phone": "dh_B"
        },
        {
          "duration": 0.08,
          "phone": "ah_E"
        }
      ],
      "start": 9.19,
      "startOffset": 137,
      "word": "THE"
    },
    {
      "alignedWord": "helplessness",
      "case": "success",
      "end": 9.879999999999999,
      "endOffset": 153,
      "phones": [
        {
          "duration": 0.03,
          "phone": "hh_B"
        },
        {
          "duration": 0.05,
          "phone": "eh_I"
        },
        {
          "duration": 0.06,
          "phone": "l_I"
        },
        {
          "duration": 0.07,
          "phone": "p_I"
        },
        {
          "duration": 0.05,
          "phone": "l_I"
        },
        {
          "duration": 0.06,
          "phone": "ah_I"
        },
        {
          "duration": 0.08,
          "phone": "s_I"
        },
        {
          "duration": 0.04,
          "phone": "n_I"
        },
        {
          "duration": 0.1,
          "phone": "ah_I"
        },
        {
          "duration": 0.05,
          "phone": "s_E"
        }
      ],
      "start": 9.29,
      "startOffset": 141,
      "word": "HELPLESSNESS"
    },
    {
      "alignedWord": "of",
      "case": "success",
      "end": 10.010000000000002,
      "endOffset": 156,
      "phones": [
        {
          "duration": 0.07,
          "phone": "ah_B"
        },
        {
          "duration": 0.06,
          "phone": "v_E"
        }
      ],
      "start": 9.88,
      "startOffset": 154,
      "word": "OF"
    },
    {
      "alignedWord": "his",
      "case": "success",
      "end": 10.209999999999999,
      "endOffset": 160,
      "phones": [
        {
          "duration": 0.07,
          "phone": "hh_B"
        },
        {
          "duration": 0.05,
          "phone": "ih_I"
        },
        {
          "duration": 0.07,
          "phone": "z_E"
        }
      ],
      "start": 10.02,
      "startOffset": 157,
      "word": "HIS"
    },
    {
      "alignedWord": "intoxication",
      "case": "success",
      "end": 11.14,
      "endOffset": 173,
      "phones": [
        {
          "duration": 0.03,
          "phone": "ih_B"
        },
        {
          "duration": 0.06,
          "phone": "n_I"
        },
        {
          "duration": 0.07,
          "phone": "t_I"
        },
        {
          "duration": 0.1,
          "phone": "aa_I"
        },
        {
          "duration": 0.07,
          "phone": "k_I"
        },
        {
          "duration": 0.06,
          "phone": "s_I"
        },
        {
          "duration": 0.07,
          "phone": "ah_I"
        },
        {
          "duration": 0.1,
          "phone": "k_I"
        },
        {
          "duration": 0.1,
          "phone": "ey_I"
        },
        {
          "duration": 0.1,
          "phone": "sh_I"
        },
        {
          "duration": 0.07,
          "phone": "ah_I"
        },
        {
          "duration": 0.07,
          "phone": "n_E"
        }
      ],
      "start": 10.24,
      "startOffset": 161,
      "word": "INTOXICATION"
    },
    {
      "alignedWord": "had",
      "case": "success",
      "end": 11.33,
      "endOffset": 177,
      "phones": [
        {
          "duration": 0.06,
          "phone": "hh_B"
        },
        {
          "duration": 0.04,
          "phone": "ae_I"
        },
        {
          "duration": 0.08,
          "phone": "d_E"
        }
      ],
      "start": 11.15,
      "startOffset": 174,
      "word": "HAD"
    },
    {
      "alignedWord": "gone",
      "case": "success",
      "end": 11.75,
      "endOffset": 182,
      "phones": [
        {
          "duration": 0.07,
          "phone": "g_B"
        },
        {
          "duration": 0.21,
          "phone": "ao_I"
        },
        {
          "duration": 0.14,
          "phone": "n_E"
        }
      ],
      "start": 11.33,
      "startOffset": 178,
      "word": "GONE"
    },
    {
      "alignedWord": "but",
      "case": "success",
      "end": 12.41,
      "endOffset": 186,
      "phones": [
        {
          "duration": 0.09,
          "phone": "b_B"
        },
        {
          "duration": 0.06,
          "phone": "ah_I"
        },
        {
          "duration": 0.05,
          "phone": "t_E"
        }
      ],
      "start": 12.21,
      "startOffset": 183,
      "word": "BUT"
    },
    {
      "alignedWord": "his",
      "case": "success",
      "end": 12.59,
      "endOffset": 190,
      "phones": [
        {
          "duration": 0.05,
          "phone": "hh_B"
        },
        {
          "duration": 0.05,
          "phone": "ih_I"
        },
        {
          "duration": 0.08,
          "phone": "z_E"
        }
      ],
      "start": 12.41,
      "startOffset": 187,
      "word": "HIS"
    },
    {
      "alignedWord": "first",
      "case": "success",
      "end": 12.92,
      "endOffset": 196,
      "phones": [
        {
          "duration": 0.08,
          "phone": "f_B"
        },
        {
          "duration": 0.11,
          "phone": "er_I"
        },
        {
          "duration": 0.06,
          "phone": "s_I"
        },
        {
          "duration": 0.08,
          "phone": "t_E"
        }
      ],
      "start": 12.59,
      "startOffset": 191,
      "word": "FIRST"
    },
    {
      "alignedWord": "act",
      "case": "success",
      "end": 13.279999,
      "endOffset": 200,
      "phones": [
        {
          "duration": 0.17,
          "phone": "ae_B"
        },
        {
          "duration": 0.08,
          "phone": "k_I"
        },
        {
          "duration": 0.1,
          "phone": "t_E"
        }
      ],
      "start": 12.929999,
      "startOffset": 197,
      "word": "ACT"
    },
    {
      "alignedWord": "was",
      "case": "success",
      "end": 13.499998999999999,
      "endOffset": 204,
      "phones": [
        {
          "duration": 0.08,
          "phone": "w_B"
        },
        {
          "duration": 0.05,
          "phone": "ah_I"
        },
        {
          "duration": 0.07,
          "phone": "z_E"
        }
      ],
      "start": 13.299999,
      "startOffset": 201,
      "word": "WAS"
    },
    {
      "alignedWord": "to",
      "case": "success",
      "end": 13.63,
      "endOffset": 207,
      "phones": [
        {
          "duration": 0.05,
          "phone": "t_B"
        },
        {
          "duration": 0.08,
          "phone": "uw_E"
        }
      ],
      "start": 13.5,
      "startOffset": 205,
      "word": "TO"
    },
    {
      "alignedWord": "call",
      "case": "success",
      "end": 13.840000000000002,
      "endOffset": 212,
      "phones": [
        {
          "duration": 0.06,
          "phone": "k_B"
        },
        {
          "duration": 0.08,
          "phone": "ao_I"
        },
        {
          "duration": 0.07,
          "phone": "l_E"
        }
      ],
      "start": 13.63,
      "startOffset": 208,
      "word": "CALL"
    },
    {
      "alignedWord": "for",
      "case": "success",
      "end": 14.01,
      "endOffset": 216,
      "phones": [
        {
          "duration": 0.1,
          "phone": "f_B"
        },
        {
          "duration": 0.07,
          "phone": "er_E"
        }
      ],
      "start": 13.84,
      "startOffset": 213,
      "word": "FOR"
    },
    {
      "alignedWord": "more",
      "case": "success",
      "end": 14.249999,
      "endOffset": 221,
      "phones": [
        {
          "duration": 0.08,
          "phone": "m_B"
        },
        {
          "duration": 0.08,
          "phone": "ao_I"
        },
        {
          "duration": 0.08,
          "phone": "r_E"
        }
      ],
      "start": 14.009999,
      "startOffset": 217,
      "word": "MORE"
    },
    {
      "alignedWord": "whiskey",
      "case": "success",
      "end": 14.7,
      "endOffset": 229,
      "phones": [
        {
          "duration": 0.06,
          "phone": "w_B"
        },
        {
          "duration": 0.08,
          "phone": "ih_I"
        },
        {
          "duration": 0.08,
          "phone": "s_I"
        },
        {
          "duration": 0.07,
          "phone": "k_I"
        },
        {
          "duration": 0.16,
          "phone": "iy_E"
        }
      ],
      "start": 14.25,
      "startOffset": 222,
      "word": "WHISKEY"
    }
  ]
}