{
  "transcript": "SHE FELL UPON HER KNEES AT THE FEET OF HER HUSBAND AND CRIED OUT THERE IS BUT ONE GOD MOHAMMED IS GOD'S PROPHET MOHAMMED THEN TOLD THE STORY TO OTHER MEMBERS OF HIS FAMILY SOME OF THEM BELIEVED AND BECAME HIS FIRST FOLLOWERS",
  "words": [
    {
      "alignedWord": "she",
      "case": "success",
      "end": 0.48,
      "endOffset": 3,
      "phones": [
        {
          "duration": 0.14,
          "phone": "sh_B"
        },
        {
          "duration": 0.09,
          "phone": "iy_E"
        }
      ],
      "start": 0.25,
      "startOffset": 0,
      "word": "SHE"
    },
    {
      "alignedWord": "fell",
      "case": "success",
      "end": 0.71,
      "endOffset": 8,
      "phones": [
        {
          "duration": 0.09,
          "phone": "f_B"
        },
        {
          "duration": 0.07,
          "phone": "eh_I"
        },
        {
          "duration": 0.07,
          "phone": "l_E"
        }
      ],
      "start": 0.48,
      "startOffset": 4,
      "word": "FELL"
    },
    {
      "alignedWord": "upon",
      "case": "success",
      "end": 1.02,
      "endOffset": 13,
      "phones": [
        {
          "duration": 0.05,
          "phone": "ah_B"
        },
        {
          "duration": 0.09,
          "phone": "p_I"
        },
        {
          "duration": 0.09,
          "phone": "aa_I"
        },
        {
          "duration": 0.08,
          "phone": "n_E"
        }
      ],
      "start": 0.71,
      "startOffset": 9,
      "word": "UPON"
    },
    {
      "alignedWord": "her",
      "case": "success",
      "end": 1.1400000000000001,
      "endOffset": 17,
      "phones": [
        {
          "duration": 0.05,
          "phone": "hh_B"
        },
        {
          "duration": 0.07,
          "phone": "er_E"
        }
      ],
      "start": 1.02,
      "startOffset": 14,
      "word": "HER"
    },
    {
      "alignedWord": "knees",
      "case": "success",
      "end": 1.4899999999999998,
      "endOffset": 23,
      "phones": [
        {
          "duration": 0.11,
          "phone": "n_B"
        },
        {
          "duration": 0.18,
          "phone": "iy_I"
        },
        {
          "duration": 0.06,
          "phone": "z_E"
        }
      ],
      "start": 1.14,
      "startOffset": 18,
      "word": "KNEES"
    },
    {
      "alignedWord": "at",
      "case": "success",
      "end": 1.6,
      "endOffset": 26,
      "phones": [
        {
          "duration": 0.06,
          "phone": "ae_B"
        },
        {
          "duration": 0.05,
          "phone": "t_E"
        }
      ],
      "start": 1.49,
      "startOffset": 24,
      "word": "AT"
    },
    {
      "alignedWord": "the",
      "case": "success",
      "end": 1.6700000000000002,
      "endOffset": 30,
      "phones": [
        {
          "duration": 0.02,
          "phone": "dh_B"
        },
        {
          "duration": 0.05,
          "phone": "ah_E"
        }
      ],
      "start": 1.6,
      "startOffset": 27,
      "word": "THE"
    },
    {
      "alignedWord": "feet",
      "case": "success",
      "end": 1.8699999999999999,
      "endOffset": 35,
      "phones": [
        {
          "duration": 0.1,
          "phone": "f_B"
        },
        {
          "duration": 0.07,
          "phone": "iy_I"
        },
        {
          "duration": 0.03,
          "phone": "t_E"
        }
      ],
      "start": 1.67,
      "startOffset": 31,
      "word": "FEET"
    },
    {
      "alignedWord": "of",
      "case": "success",
      "end": 1.9400000000000002,
      "endOffset": 38,
      "phones": [
        {
          "duration": 0.04,
          "phone": "ah_B"
        },
        {
          "duration": 0.03,
          "phone": "v_E"
        }
      ],
      "start": 1.87,
      "startOffset": 36,
      "word": "OF"
    },
    {
      "alignedWord": "her",
      "case": "success",
      "end": 2.09,
      "endOffset": 42,
      "phones": [
        {
          "duration": 0.07,
          "phone": "hh_B"
        },
        {
          "duration": 0.08,
          "phone": "er_E"
        }
      ],
      "start": 1.94,
      "startOffset": 39,
      "word": "HER"
    },
    {
      "alignedWord": "husband",
      "case": "success",
      "end": 2.58,
      "endOffset": 50,
      "phones": [
        {
          "duration": 0.08,
          "phone": "hh_B"
        },
        {
          "duration": 0.08,
          "phone": "ah_I"
        },
        {
          "duration": 0.11,
          "phone": "z_I"
        },
        {
          "duration": 0.01,
          "phone": "b_I"
        },
        {
          "duration": 0.08,
          "phone": "ah_I"
        },
        {
          "duration": 0.05,
          "phone": "n_I"
        },
        {
          "duration": 0.08,
          "phone": "d_E"
        }
      ],
      "start": 2.09,
      "startOffset": 43,
      "word": "HUSBAND"
    },
    {
      "alignedWord": "and",
      "case": "success",
      "end": 2.7600000000000002,
      "endOffset": 54,
      "phones": [
        {
          "duration": 0.08,
          "phone": "ae_B"
        },
        {
          "duration": 0.03,
          "phone": "n_I"
        },
        {
          "duration": 0.07,
          "phone": "d_E"
        }
      ],
      "start": 2.58,
      "startOffset": 51,
      "word": "AND"
    },
    {
      "alignedWord": "cried",
      "case": "success",
      "end": 3.03,
      "endOffset": 60,
      "phones": [
        {
          "duration": 0.07,
          "phone": "k_B"
        },
        {
          "duration": 0.06,
          "phone": "r_I"
        },
        {
          "duration": 0.08,
          "phone": "ay_I"
        },
        {
          "duration": 0.06,
          "phone": "d_E"
        }
      ],
      "start": 2.76,
      "startOffset": 55,
      "word": "CRIED"
    },
    {
      "alignedWord": "out",
      "case": "success",
      "end": 3.3,
      "endOffset": 64,
      "phones": [
        {
          "duration": 0.15,
          "phone": "aw_B"
        },
        {
          "duration": 0.12,
          "phone": "t_E"
        }
      ],
      "start": 3.03,
      "startOffset": 61,
      "word": "OUT"
    },
    {
      "alignedWord": "there",
      "case": "success",
      "end": 3.79,
      "endOffset": 70,
      "phones": [
        {
          "duration": 0.09,
          "phone": "dh_B"
        },
        {
          "duration": 0.07,
          "phone": "eh_I"
        },
        {
          "duration": 0.06,
          "phone": "r_E"
        }
      ],
      "start": 3.57,
      "startOffset": 65,
      "word": "THERE"
    },
    {
      "alignedWord": "is",
      "case": "success",
      "end": 4.01,
      "endOffset": 73,
      "phones": [
        {
          "duration": 0.13,
          "phone": "ih_B"
        },
        {
          "duration": 0.09,
          "phone": "z_E"
        }
      ],
      "start": 3.79,
      "startOffset": 71,
      "word": "IS"
    },
    {
      "alignedWord": "but",
      "case": "success",
      "end": 4.24,
      "endOffset": 77,
      "phones": [
        {
          "duration": 0.07,
          "phone": "b_B"
        },
        {
          "duration": 0.07,
          "phone": "ah_I"
        },
        {
          "duration": 0.06,
          "phone": "t_E"
        }
      ],
      "start": 4.04,
      "startOffset": 74,
      "word": "BUT"
    },
    {
      "alignedWord": "one",
      "case": "success",
      "end": 4.55,
      "endOffset": 81,
      "phones": [
        {
          "duration": 0.1,
          "phone": "w_B"
        },
        {
          "duration": 0.09,
          "phone": "ah_I"
        },
        {
          "duration": 0.09,
          "phone": "n_E"
        }
      ],
      "start": 4.27,
      "startOffset": 78,
      "word": "ONE"
    },
    {
      "alignedWord": "god",
      "case": "success",
      "end": 5.029999999999999,
      "endOffset": 85,
      "phones": [
        {
          "duration": 0.08,
          "phone": "g_B"
        },
        {
          "duration": 0.23,
          "phone": "aa_I"
        },
        {
          "duration": 0.17,
          "phone": "d_E"
        }
      ],
      "start": 4.55,
      "startOffset": 82,
      "word": "GOD"
    },
    {
      "alignedWord": "mohammed",
      "case": "success",
      "end": 5.85,
      "endOffset": 94,
      "phones": [
        {
          "duration": 0.11,
          "phone": "m_B"
        },
        {
          "duration": 0.07,
          "phone": "ow_I"
        },
        {
          "duration": 0.08,
          "phone": "hh_I"
        },
        {
          "duration": 0.12,
          "phone": "ae_I"
        },
        {
          "duration": 0.04,
          "phone": "m_I"
        },
        {
          "duration": 0.08,
          "phone": "ih_I"
        },
        {
          "duration": 0.13,
          "phone": "d_E"
        }
      ],
      "start": 5.22,
      "startOffset": 86,
      "word": "MOHAMMED"
    },
    {
      "alignedWord": "is",
      "case": "success",
      "end": 6.1000000000000005,
      "endOffset": 97,
      "phones": [
        {
          "duration": 0.12,
          "phone": "ih_B"
        },
        {
          "duration": 0.08,
          "phone": "z_E"
        }
      ],
      "start": 5.9,
      "startOffset": 95,
      "word": "IS"
    },
    {
      "alignedWord": "god's",
      "case": "success",
      "end": 6.3999999999999995,
      "endOffset": 103,
      "phones": [
        {
          "duration": 0.08,
          "phone": "g_B"
        },
        {
          "duration": 0.1,
          "phone": "aa_I"
        },
        {
          "duration": 0.06,
          "phone": "d_I"
        },
        {
          "duration": 0.06,
          "phone": "z_E"
        }
      ],
      "start": 6.1,
      "startOffset": 98,
      "word": "GOD'S"
    },
    {
      "alignedWord": "prophet",
      "case": "success",
      "end": 6.94,
      "endOffset": 111,
      "phones": [
        {
          "duration": 0.06,
          "phone": "p_B"
        },
        {
          "duration": 0.09,
          "phone": "r_I"
        },
        {
          "duration": 0.08,
          "phone": "aa_I"
        },
        {
          "duration": 0.07,
          "phone": "f_I"
        },
        {
          "duration": 0.08,
          "phone": "ah_I"
        },
        {
          "duration": 0.16,
          "phone": "t_E"
        }
      ],
      "start": 6.4,
      "startOffset": 104,
      "word": "PROPHET"
    },
    {
      "alignedWord": "mohammed",
      "case": "success",
      "end": 8.59,
      "endOffset": 120,
      "phones": [
        {
          "duration": 0.13,
          "phone": "m_B"
        },
        {
          "duration": 0.04,
          "phone": "ow_I"
        },
        {
          "duration": 0.07,
          "phone": "hh_I"
        },
        {
          "duration": 0.11,
          "phone": "ae_I"
        },
        {
          "duration": 0.04,
          "phone": "m_I"
        },
        {
          "duration": 0.09,
          "phone": "ih_I"
        },
        {
          "duration": 0.15,
          "phone": "d_E"
        }
      ],
      "start": 7.96,
      "startOffset": 112,
      "word": "MOHAMMED"
    },
    {
      "alignedWord": "then",
      "case": "success",
      "end": 8.86,
      "endOffset": 125,
      "phones": [
        {
          "duration": 0.08,
          "phone": "dh_B"
        },
        {
          "duration": 0.05,
          "phone": "eh_I"
        },
        {
          "duration": 0.07,
          "phone": "n_E"
        }
      ],
      "start": 8.66,
      "startOffset": 121,
      "word": "THEN"
    },
    {
      "alignedWord": "told",
      "case": "success",
      "end": 9.09,
      "endOffset": 130,
      "phones": [
        {
          "duration": 0.07,
          "phone": "t_B"
        },
        {
          "duration": 0.06,
          "phone": "ow_I"
        },
        {
          "duration": 0.05,
          "phone": "l_I"
        },
        {
          "duration": 0.05,
          "phone": "d_E"
        }
      ],
      "start": 8.86,
      "startOffset": 126,
      "word": "TOLD"
    },
    {
      "alignedWord": "the",
      "case": "success",
      "end": 9.16,
      "endOffset": 134,
      "phones": [
        {
          "duration": 0.01,
          "phone": "dh_B"
        },
        {
          "duration": 0.06,
          "phone": "ah_E"
        }
      ],
      "start": 9.09,
      "startOffset": 131,
      "word": "THE"
    },
    {
      "alignedWord": "story",
      "case": "success",
      "end": 9.59,
      "endOffset": 140,
      "phones": [
        {
          "duration": 0.07,
          "phone": "s_B"
        },
        {
          "duration": 0.08,
          "phone": "t_I"
        },
        {
          "duration": 0.09,
          "phone": "ao_I"
        },
        {
          "duration": 0.1,
          "phone": "r_I"
        },
        {
          "duration": 0.09,
          "phone": "iy_E"
        }
      ],
      "start": 9.16,
      "startOffset": 135,
      "word": "STORY"
    },
    {
      "alignedWord": "to",
      "case": "success",
      "end": 9.83,
      "endOffset": 143,
      "phones": [
        {
          "duration": 0.08,
          "phone": "t_B"
        },
        {
          "duration": 0.16,
          "phone": "ah_E"
        }
      ],
      "start": 9.59,
      "startOffset": 141,
      "word": "TO"
    },
    {
      "alignedWord": "other",
      "case": "success",
      "end": 10.27,
      "endOffset": 149,
      "phones": [
        {
          "duration": 0.1,
          "phone": "ah_B"
        },
        {
          "duration": 0.09,
          "phone": "dh_I"
        },
        {
          "duration": 0.06,
          "phone": "er_E"
        }
      ],
      "start": 10.02,
      "startOffset": 144,
      "word": "OTHER"
    },
    {
      "alignedWord": "members",
      "case": "success",
      "end": 10.65,
      "endOffset": 157,
      "phones": [
        {
          "duration": 0.08,
          "phone": "m_B"
        },
        {
          "duration": 0.08,
          "phone": "eh_I"
        },
        {
          "duration": 0.05,
          "phone": "m_I"
        },
        {
          "duration": 0.03,
          "phone": "b_I"
        },
        {
          "duration": 0.08,
          "phone": "er_I"
        },
        {
          "duration": 0.06,
          "phone": "z_E"
        }
      ],
      "start": 10.27,
      "startOffset": 150,
      "word": "MEMBERS"
    },
    {
      "alignedWord": "of",
      "case": "success",
      "end": 10.79,
      "endOffset": 160,
      "phones": [
        {
          "duration": 0.05,
          "phone": "ah_B"
        },
        {
          "duration": 0.07,
          "phone": "v_E"
        }
      ],
      "start": 10.67,
      "startOffset": 158,
      "word": "OF"
    },
    {
      "alignedWord": "his",
      "case": "success",
      "end": 10.93,
      "endOffset": 164,
      "phones": [
        {
          "duration": 0.02,
          "phone": "hh_B"
        },
        {
          "duration": 0.04,
          "phone": "ih_I"
        },
        {
          "duration": 0.08,
          "phone": "z_E"
        }
      ],
      "start": 10.79,
      "startOffset": 161,
      "word": "HIS"
    },
    {
      "alignedWord": "family",
      "case": "success",
      "end": 11.409999000000001,
      "endOffset": 171,
      "phones": [
        {
          "duration": 0.08,
          "phone": "f_B"
        },
        {
          "duration": 0.14,
          "phone": "ae_I"
        },
        {
          "duration": 0.07,
          "phone": "m_I"
        },
        {
          "duration": 0.06,
          "phone": "l_I"
        },
        {
          "duration": 0.13,
          "phone": "iy_E"
        }
      ],
      "start": 10.929999,
      "startOffset": 165,
      "word": "FAMILY"
    },
    {
      "alignedWord": "some",
      "case": "success",
      "end": 11.93,
      "endOffset": 176,
      "phones": [
        {
          "duration": 0.13,
          "phone": "s_B"
        },
        {
          "duration": 0.08,
          "phone": "ah_I"
        },
        {
          "duration": 0.06,
          "phone": "m_E"
        }
      ],
      "start": 11.66,
      "startOffset": 172,
      "word": "SOME"
    },
    {
      "alignedWord": "of",
      "case": "success",
      "end": 12.069999000000001,
      "endOffset": 179,
      "phones": [
        {
          "duration": 0.06,
          "phone": "ah_B"
        },
        {
          "duration": 0.08,
          "phone": "v_E"
        }
      ],
      "start": 11.929999,
      "startOffset": 177,
      "word": "OF"
    },
    {
      "alignedWord": "them",
      "case": "success",
      "end": 12.25,
      "endOffset": 184,
      "phones": [
        {
          "duration": 0.01,
          "phone": "dh_B"
        },
        {
          "duration": 0.09,
          "phone": "eh_I"
        },
        {
          "duration": 0.08,
          "phone": "m_E"
        }
      ],
      "start": 12.07,
      "startOffset": 180,
      "word": "THEM"
    },
    {
      "alignedWord": "believed",
      "case": "success",
      "end": 12.7,
      "endOffset": 193,
      "phones": [
        {
          "duration": 0.03,
          "phone": "b_B"
        },
        {
          "duration": 0.04,
          "phone": "ih_I"
        },
        {
          "duration": 0.13,
          "phone": "l_I"
        },
        {
          "duration": 0.15,
          "phone": "iy_I"
        },
        {
          "duration": 0.05,
          "phone": "v_I"
        },
        {
          "duration": 0.05,
          "phone": "d_E"
        }
      ],
      "start": 12.25,
      "startOffset": 185,
      "word": "BELIEVED"
    },
    {
      "alignedWord": "and",
      "case": "success",
      "end": 12.83,
      "endOffset": 197,
      "phones": [
        {
          "duration": 0.04,
          "phone": "ae_B"
        },
        {
          "duration": 0.03,
          "phone": "n_I"
        },
        {
          "duration": 0.06,
          "phone": "d_E"
        }
      ],
      "start": 12.7,
      "startOffset": 194,
      "word": "AND"
    },
    {
      "alignedWord": "became",
      "case": "success",
      "end": 13.17,
      "endOffset": 204,
      "phones": [
        {
          "duration": 0.03,
          "phone": "b_B"
        },
        {
          "duration": 0.06,
          "phone": "ih_I"
        },
        {
          "duration": 0.09,
          "phone": "k_I"
        },
        {
          "duration": 0.09,
          "phone": "ey_I"
        },
        {
          "duration": 0.07,
          "phone": "m_E"
        }
      ],
      "start": 12.83,
      "startOffset": 198,
      "word": "BECAME"
    },
    {
      "alignedWord": "his",
      "case": "success",
      "end": 13.34,
      "endOffset": 208,
      "phones": [
        {
          "duration": 0.04,
          "phone": "hh_B"
        },
        {
          "duration": 0.02,
          "phone": "ih_I"
        },
        {
          "duration": 0.11,
          "phone": "z_E"
        }
      ],
      "start": 13.17,
      "startOffset": 205,
      "word": "HIS"
    },
    {
      "alignedWord": "first",
      "case": "success",
      "end": 13.649999000000001,
      "endOffset": 214,
      "phones": [
        {
          "duration": 0.08,
          "phone": "f_B"
        },
        {
          "duration": 0.11,
          "phone": "er_I"
        },
        {
          "duration": 0.06,
          "phone": "s_I"
        },
        {
          "duration": 0.05,
          "phone": "t_E"
        }
      ],
      "start": 13.349999,
      "startOffset": 209,
      "word": "FIRST"
    },
    {
      "alignedWord": "followers",
      "case": "success",
      "end": 14.31,
      "endOffset": 224,
      "phones": [
        {
          "duration": 0.08,
          "phone": "f_B"
        },
        {
          "duration": 0.06,
          "phone": "aa_I"
        },
        {
          "duration": 0.09,
          "phone": "l_I"
        },
        {
          "duration": 0.11,
          "phone": "ow_I"
        },
        {
          "duration": 0.1,
          "phone": "er_I"
        },
        {
          "duration": 0.22,
          "phone": "z_E"
        }
      ],
      "start": 13.65,
      "startOffset": 215,
      "word": "FOLLOWERS"
    }
  ]
}