{
  "transcript": "GRANDCOURT LIKE MANY OTHERS HAD TWO REMARKABLY DIFFERENT VOICES HITHERTO WE HAVE HEARD HIM SPEAKING IN A SUPERFICIAL INTERRUPTED DRAWL SUGGESTIVE CHIEFLY OF LANGUOR",
  "words": [
    {
      "alignedWord": "<unk>",
      "case": "success",
      "end": 1.1,
      "endOffset": 10,
      "phones": [
        {
          "duration": 0.6,
          "phone": "oov_S"
        }
      ],
      "start": 0.5,
      "startOffset": 0,
      "word": "GRANDCOURT"
    },
    {
      "alignedWord": "like",
      "case": "success",
      "end": 1.3800000000000001,
      "endOffset": 15,
      "phones": [
        {
          "duration": 0.09,
          "phone": "l_B"
        },
        {
          "duration": 0.08,
          "phone": "ay_I"
        },
        {
          "duration": 0.1,
          "phone": "k_E"
        }
      ],
      "start": 1.11,
      "startOffset": 11,
      "word": "LIKE"
    },
    {
      "alignedWord": "many",
      "case": "success",
      "end": 1.63,
      "endOffset": 20,
      "phones": [
        {
          "duration": 0.04,
          "phone": "m_B"
        },
        {
          "duration": 0.06,
          "phone": "eh_I"
        },
        {
          "duration": 0.06,
          "phone": "n_I"
        },
        {
          "duration": 0.09,
          "phone": "iy_E"
        }
      ],
      "start": 1.38,
      "startOffset": 16,
      "word": "MANY"
    },
    {
      "alignedWord": "others",
      "case": "success",
      "end": 2.01,
      "endOffset": 27,
      "phones": [
        {
          "duration": 0.09,
          "phone": "ah_B"
        },
        {
          "duration": 0.1,
          "phone": "dh_I"
        },
        {
          "duration": 0.1,
          "phone": "er_I"
        },
        {
          "duration": 0.09,
          "phone": "z_E"
        }
      ],
      "start": 1.63,
      "startOffset": 21,
      "word": "OTHERS"
    },
    {
      "alignedWord": "had",
      "case": "success",
      "end": 2.2199999999999998,
      "endOffset": 31,
      "phones": [
        {
          "duration": 0.06,
          "phone": "hh_B"
        },
        {
          "duration": 0.07,
          "phone": "ae_I"
        },
        {
          "duration": 0.08,
          "phone": "d_E"
        }
      ],
      "start": 2.01,
      "startOffset": 28,
      "word": "HAD"
    },
    {
      "alignedWord": "two",
      "case": "success",
      "end": 2.51,
      "endOffset": 35,
      "phones": [
        {
          "duration": 0.15,
          "phone": "t_B"
        },
        {
          "duration": 0.13,
          "phone": "uw_E"
        }
      ],
      "start": 2.23,
      "startOffset": 32,
      "word": "TWO"
    },
    {
      "alignedWord": "remarkably",
      "case": "success",
      "end": 3.17,
      "endOffset": 46,
      "phones": [
        {
          "duration": 0.07,
          "phone": "r_B"
        },
        {
          "duration": 0.07,
          "phone": "iy_I"
        },
        {
          "duration": 0.06,
          "phone": "m_I"
        },
        {
          "duration": 0.06,
          "phone": "aa_I"
        },
        {
          "duration": 0.07,
          "phone": "r_I"
        },
        {
          "duration": 0.07,
          "phone": "k_I"
        },
        {
          "duration": 0.05,
          "phone": "ah_I"
        },
        {
          "duration": 0.07,
          "phone": "b_I"
        },
        {
          "duration": 0.06,
          "phone": "l_I"
        },
        {
          "duration": 0.08,
          "phone": "iy_E"
        }
      ],
      "start": 2.51,
      "startOffset": 36,
      "word": "REMARKABLY"
    },
    {
      "alignedWord": "different",
      "case": "success",
      "end": 3.5,
      "endOffset": 56,
      "phones": [
        {
          "duration": 0.04,
          "phone": "d_B"
        },
        {
          "duration": 0.08,
          "phone": "ih_I"
        },
        {
          "duration": 0.07,
          "phone": "f_I"
        },
        {
          "duration": 0.01,
          "phone": "r_I"
        },
        {
          "duration": 0.07,
          "phone": "ah_I"
        },
        {
          "duration": 0.03,
          "phone": "n_I"
        },
        {
          "duration": 0.03,
          "phone": "t_E"
        }
      ],
      "start": 3.17,
      "startOffset": 47,
      "word": "DIFFERENT"
    },
    {
      "alignedWord": "voices",
      "case": "success",
      "end": 4.21,
      "endOffset": 63,
      "phones": [
        {
          "duration": 0.1,
          "phone": "v_B"
        },
        {
          "duration": 0.17,
          "phone": "oy_I"
        },
        {
          "duration": 0.1,
          "phone": "s_I"
        },
        {
          "duration": 0.12,
          "phone": "ih_I"
        },
        {
          "duration": 0.22,
          "phone": "z_E"
        }
      ],
      "start": 3.5,
      "startOffset": 57,
      "word": "VOICES"
    },
    {
      "alignedWord": "<unk>",
      "case": "success",
      "end": 5.39,
      "endOffset": 72,
      "phones": [
        {
          "duration": 0.55,
          "phone": "oov_S"
        }
      ],
      "start": 4.84,
      "startOffset": 64,
      "word": "HITHERTO"
    },
    {
      "alignedWord": "we",
      "case": "success",
      "end": 5.59,
      "endOffset": 75,
      "phones": [
        {
          "duration": 0.1,
          "phone": "w_B"
        },
        {
          "duration": 0.07,
          "phone": "iy_E"
        }
      ],
      "start": 5.42,
      "startOffset": 73,
      "word": "WE"
    },
    {
      "alignedWord": "have",
      "case": "success",
      "end": 5.75,
      "endOffset": 80,
      "phones": [
        {
          "duration": 0.03,
          "phone": "hh_B"
        },
        {
          "duration": 0.07,
          "phone": "ae_I"
        },
        {
          "duration": 0.06,
          "phone": "v_E"
        }
      ],
      "start": 5.59,
      "startOffset": 76,
      "word": "HAVE"
    },
    {
      "alignedWord": "heard",
      "case": "success",
      "end": 5.96,
      "endOffset": 86,
      "phones": [
        {
          "duration": 0.07,
          "phone": "hh_B"
        },
        {
          "duration": 0.08,
          "phone": "er_I"
        },
        {
          "duration": 0.06,
          "phone": "d_E"
        }
      ],
      "start": 5.75,
      "startOffset": 81,
      "word": "HEARD"
    },
    {
      "alignedWord": "him",
      "case": "success",
      "end": 6.15,
      "endOffset": 90,
      "phones": [
        {
          "duration": 0.03,
          "phone": "hh_B"
        },
        {
          "duration": 0.07,
          "phone": "ih_I"
        },
        {
          "duration": 0.09,
          "phone": "m_E"
        }
      ],
      "start": 5.96,
      "startOffset": 87,
      "word": "HIM"
    },
    {
      "alignedWord": "speaking",
      "case": "success",
      "end": 6.69,
      "endOffset": 99,
      "phones": [
        {
          "duration": 0.1,
          "phone": "s_B"
        },
        {
          "duration": 0.11,
          "phone": "p_I"
        },
        {
          "duration": 0.09,
          "phone": "iy_I"
        },
        {
          "duration": 0.09,
          "phone": "k_I"
        },
        {
          "duration": 0.09,
          "phone": "ih_I"
        },
        {
          "duration": 0.06,
          "phone": "ng_E"
        }
      ],
      "start": 6.15,
      "startOffset": 91,
      "word": "SPEAKING"
    },
    {
      "alignedWord": "in",
      "case": "success",
      "end": 6.8100000000000005,
      "endOffset": 102,
      "phones": [
        {
          "duration": 0.05,
          "phone": "ih_B"
        },
        {
          "duration": 0.07,
          "phone": "n_E"
        }
      ],
      "start": 6.69,
      "startOffset": 100,
      "word": "IN"
    },
    {
      "alignedWord": "a",
      "case": "success",
      "end": 6.93,
      "endOffset": 104,
      "phones": [
        {
          "duration": 0.12,
          "phone": "ah_S"
        }
      ],
      "start": 6.81,
      "startOffset": 103,
      "word": "A"
    },
    {
      "alignedWord": "superficial",
      "case": "success",
      "end": 7.8,
      "endOffset": 116,
      "phones": [
        {
          "duration": 0.16,
          "phone": "s_B"
        },
        {
          "duration": 0.08,
          "phone": "uw_I"
        },
        {
          "duration": 0.11,
          "phone": "p_I"
        },
        {
          "duration": 0.07,
          "phone": "er_I"
        },
        {
          "duration": 0.09,
          "phone": "f_I"
        },
        {
          "duration": 0.08,
          "phone": "ih_I"
        },
        {
          "duration": 0.09,
          "phone": "sh_I"
        },
        {
          "duration": 0.07,
          "phone": "ah_I"
        },
        {
          "duration": 0.12,
          "phone": "l_E"
        }
      ],
      "start": 6.93,
      "startOffset": 105,
      "word": "SUPERFICIAL"
    },
    {
      "alignedWord": "interrupted",
      "case": "success",
      "end": 8.75,
      "endOffset": 128,
      "phones": [
        {
          "duration": 0.13,
          "phone": "ih_B"
        },
        {
          "duration": 0.1,
          "phone": "n_I"
        },
        {
          "duration": 0.13,
          "phone": "t_I"
        },
        {
          "duration": 0.12,
          "phone": "er_I"
        },
        {
          "duration": 0.08,
          "phone": "ah_I"
        },
        {
          "duration": 0.12,
          "phone": "p_I"
        },
        {
          "duration": 0.08,
          "phone": "t_I"
        },
        {
          "duration": 0.08,
          "phone": "ih_I"
        },
        {
          "duration": 0.08,
          "phone": "d_E"
        }
      ],
      "start": 7.83,
      "startOffset": 117,
      "word": "INTERRUPTED"
    },
    {
      "alignedWord": "drawl",
      "case": "success",
      "end": 9.43,
      "endOffset": 134,
      "phones": [
        {
          "duration": 0.1,
          "phone": "d_B"
        },
        {
          "duration": 0.13,
          "phone": "r_I"
        },
        {
          "duration": 0.22,
          "phone": "ao_I"
        },
        {
          "duration": 0.22,
          "phone": "l_E"
        }
      ],
      "start": 8.76,
      "startOffset": 129,
      "word": "DRAWL"
    },
    {
      "alignedWord": "suggestive",
      "case": "success",
      "end": 10.139999999999999,
      "endOffset": 145,
      "phones": [
        {
          "duration": 0.08,
          "phone": "s_B"
        },
        {
          "duration": 0.09,
          "phone": "ah_I"
        },
        {
          "duration": 0.02,
          "phone": "g_I"
        },
        {
          "duration": 0.1,
          "phone": "jh_I"
        },
        {
          "duration": 0.09,
          "phone": "eh_I"
        },
        {
          "duration": 0.08,
          "phone": "s_I"
        },
        {
          "duration": 0.08,
          "phone": "t_I"
        },
        {
          "duration": 0.05,
          "phone": "ih_I"
        },
        {
          "duration": 0.11,
          "phone": "v_E"
        }
      ],
      "start": 9.44,
      "startOffset": 135,
      "word": "SUGGESTIVE"
    },
    {
      "alignedWord": "<unk>",
      "case": "success",
      "end": 10.769999,
      "endOffset": 153,
      "phones": [
        {
          "duration": 0.63,
          "phone": "oov_S"
        }
      ],
      "start": 10.139999,
      "startOffset": 146,
      "word": "CHIEFLY"
    },
    {
      "alignedWord": "of",
      "case": "success",
      "end": 10.989999,
      "endOffset": 156,
      "phones": [
        {
          "duration": 0.09,
          "phone": "ah_B"
        },
        {
          "duration": 0.09,
          "phone": "v_E"
        }
      ],
      "start": 10.809999,
      "startOffset": 154,
      "word": "OF"
    },
    {
      "alignedWord": "<unk>",
      "case": "success",
      "end": 11.59,
      "endOffset": 164,
      "phones": [
        {
          "duration": 0.59,
          "phone": "oov_S"
        }
      ],
      "start": 11.0,
      "startOffset": 157,
      "word": "LANGUOR"
    }
  ]
}