{
  "transcript": "SHE SAID SHE WAS NOT ABSOLUTELY CERTAIN OF THE WISDOM OF THE STEP SHE WAS ABOUT TO TAKE BECAUSE I WAS SO YOUNG AND PARENTS MIGHT POSSIBLY OBJECT TO A PROFESSOR LIKE ME FOR THEIR DAUGHTERS BUT IT IS OFTEN WELL TO ACT ON ONE'S OWN JUDGMENT SAID SHE",
  "words": [
    {
      "alignedWord": "she",
      "case": "success",
      "end": 0.41000000000000003,
      "endOffset": 3,
      "phones": [
        {
          "duration": 0.12,
          "phone": "sh_B"
        },
        {
          "duration": 0.08,
          "phone": "iy_E"
        }
      ],
      "start": 0.21,
      "startOffset": 0,
      "word": "SHE"
    },
    {
      "alignedWord": "said",
      "case": "success",
      "end": 0.6799999999999999,
      "endOffset": 8,
      "phones": [
        {
          "duration": 0.11,
          "phone": "s_B"
        },
        {
          "duration": 0.07,
          "phone": "eh_I"
        },
        {
          "duration": 0.08,
          "phone": "d_E"
        }
      ],
      "start": 0.42,
      "startOffset": 4,
      "word": "SAID"
    },
    {
      "alignedWord": "she",
      "case": "success",
      "end": 0.81,
      "endOffset": 12,
      "phones": [
        {
          "duration": 0.07,
          "phone": "sh_B"
        },
        {
          "duration": 0.06,
          "phone": "iy_E"
        }
      ],
      "start": 0.68,
      "startOffset": 9,
      "word": "SHE"
    },
    {
      "alignedWord": "was",
      "case": "success",
      "end": 1.0,
      "endOffset": 16,
      "phones": [
        {
          "duration": 0.06,
          "phone": "w_B"
        },
        {
          "duration": 0.06,
          "phone": "ah_I"
        },
        {
          "duration": 0.07,
          "phone": "z_E"
        }
      ],
      "start": 0.81,
      "startOffset": 13,
      "word": "WAS"
    },
    {
      "alignedWord": "not",
      "case": "success",
      "end": 1.22,
      "endOffset": 20,
      "phones": [
        {
          "duration": 0.06,
          "phone": "n_B"
        },
        {
          "duration": 0.09,
          "phone": "aa_I"
        },
        {
          "duration": 0.07,
          "phone": "t_E"
        }
      ],
      "start": 1.0,
      "startOffset": 17,
      "word": "NOT"
    },
    {
      "alignedWord": "absolutely",
      "case": "success",
      "end": 1.88,
      "endOffset": 31,
      "phones": [
        {
          "duration": 0.1,
          "phone": "ae_B"
        },
        {
          "duration": 0.1,
          "phone": "b_I"
        },
        {
          "duration": 0.06,
          "phone": "s_I"
        },
        {
          "duration": 0.05,
          "phone": "ah_I"
        },
        {
          "duration": 0.06,
          "phone": "l_I"
        },
        {
          "duration": 0.06,
          "phone": "uw_I"
        },
        {
          "duration": 0.05,
          "phone": "t_I"
        },
        {
          "duration": 0.07,
          "phone": "l_I"
        },
        {
          "duration": 0.08,
          "phone": "iy_E"
        }
      ],
      "start": 1.25,
      "startOffset": 21,
      "word": "ABSOLUTELY"
    },
    {
      "alignedWord": "certain",
      "case": "success",
      "end": 2.4299999999999997,
      "endOffset": 39,
      "phones": [
        {
          "duration": 0.13,
          "phone": "s_B"
        },
        {
          "duration": 0.09,
          "phone": "er_I"
        },
        {
          "duration": 0.08,
          "phone": "t_I"
        },
        {
          "duration": 0.08,
          "phone": "ah_I"
        },
        {
          "duration": 0.17,
          "phone": "n_E"
        }
      ],
      "start": 1.88,
      "startOffset": 32,
      "word": "CERTAIN"
    },
    {
      "alignedWord": "of",
      "case": "success",
      "end": 2.6300000000000003,
      "endOffset": 42,
      "phones": [
        {
          "duration": 0.08,
          "phone": "ah_B"
        },
        {
          "duration": 0.08,
          "phone": "v_E"
        }
      ],
      "start": 2.47,
      "startOffset": 40,
      "word": "OF"
    },
    {
      "alignedWord": "the",
      "case": "success",
      "end": 2.6999999999999997,
      "endOffset": 46,
      "phones": [
        {
          "duration": 0.01,
          "phone": "dh_B"
        },
        {
          "duration": 0.06,
          "phone": "ah_E"
        }
      ],
      "start": 2.63,
      "startOffset": 43,
      "word": "THE"
    },
    {
      "alignedWord": "wisdom",
      "case": "success",
      "end": 3.0500000000000003,
      "endOffset": 53,
      "phones": [
        {
          "duration": 0.05,
          "phone": "w_B"
        },
        {
          "duration": 0.08,
          "phone": "ih_I"
        },
        {
          "duration": 0.07,
          "phone": "z_I"
        },
        {
          "duration": 0.05,
          "phone": "d_I"
        },
        {
          "duration": 0.06,
          "phone": "ah_I"
        },
        {
          "duration": 0.04,
          "phone": "m_E"
        }
      ],
      "start": 2.7,
      "startOffset": 47,
      "word": "WISDOM"
    },
    {
      "alignedWord": "of",
      "case": "success",
      "end": 3.15,
      "endOffset": 56,
      "phones": [
        {
          "duration": 0.07,
          "phone": "ah_B"
        },
        {
          "duration": 0.03,
          "phone": "v_E"
        }
      ],
      "start": 3.05,
      "startOffset": 54,
      "word": "OF"
    },
    {
      "alignedWord": "the",
      "case": "success",
      "end": 3.3000000000000003,
      "endOffset": 60,
      "phones": [
        {
          "duration": 0.06,
          "phone": "dh_B"
        },
        {
          "duration": 0.08,
          "phone": "ah_E"
        }
      ],
      "start": 3.16,
      "startOffset": 57,
      "word": "THE"
    },
    {
      "alignedWord": "step",
      "case": "success",
      "end": 3.5999999999999996,
      "endOffset": 65,
      "phones": [
        {
          "duration": 0.07,
          "phone": "s_B"
        },
        {
          "duration": 0.09,
          "phone": "t_I"
        },
        {
          "duration": 0.06,
          "phone": "eh_I"
        },
        {
          "duration": 0.08,
          "phone": "p_E"
        }
      ],
      "start": 3.3,
      "startOffset": 61,
      "word": "STEP"
    },
    {
      "alignedWord": "she",
      "case": "success",
      "end": 3.7,
      "endOffset": 69,
      "phones": [
        {
          "duration": 0.05,
          "phone": "sh_B"
        },
        {
          "duration": 0.05,
          "phone": "iy_E"
        }
      ],
      "start": 3.6,
      "startOffset": 66,
      "word": "SHE"
    },
    {
      "alignedWord": "was",
      "case": "success",
      "end": 3.8400000000000003,
      "endOffset": 73,
      "phones": [
        {
          "duration": 0.04,
          "phone": "w_B"
        },
        {
          "duration": 0.05,
          "phone": "ah_I"
        },
        {
          "duration": 0.05,
          "phone": "z_E"
        }
      ],
      "start": 3.7,
      "startOffset": 70,
      "word": "WAS"
    },
    {
      "alignedWord": "about",
      "case": "success",
      "end": 4.1,
      "endOffset": 79,
      "phones": [
        {
          "duration": 0.05,
          "phone": "ah_B"
        },
        {
          "duration": 0.06,
          "phone": "b_I"
        },
        {
          "duration": 0.05,
          "phone": "aw_I"
        },
        {
          "duration": 0.1,
          "phone": "t_E"
        }
      ],
      "start": 3.84,
      "startOffset": 74,
      "word": "ABOUT"
    },
    {
      "alignedWord": "to",
      "case": "success",
      "end": 4.18,
      "endOffset": 82,
      "phones": [
        {
          "duration": 0.02,
          "phone": "t_B"
        },
        {
          "duration": 0.06,
          "phone": "ih_E"
        }
      ],
      "start": 4.1,
      "startOffset": 80,
      "word": "TO"
    },
    {
      "alignedWord": "take",
      "case": "success",
      "end": 4.59,
      "endOffset": 87,
      "phones": [
        {
          "duration": 0.1,
          "phone": "t_B"
        },
        {
          "duration": 0.14,
          "phone": "ey_I"
        },
        {
          "duration": 0.17,
          "phone": "k_E"
        }
      ],
      "start": 4.18,
      "startOffset": 83,
      "word": "TAKE"
    },
    {
      "alignedWord": "because",
      "case": "success",
      "end": 4.93,
      "endOffset": 95,
      "phones": [
        {
          "duration": 0.06,
          "phone": "b_B"
        },
        {
          "duration": 0.06,
          "phone": "ih_I"
        },
        {
          "duration": 0.06,
          "phone": "k_I"
        },
        {
          "duration": 0.06,
          "phone": "ah_I"
        },
        {
          "duration": 0.06,
          "phone": "z_E"
        }
      ],
      "start": 4.63,
      "startOffset": 88,
      "word": "BECAUSE"
    },
    {
      "alignedWord": "i",
      "case": "success",
      "end": 5.0,
      "endOffset": 97,
      "phones": [
        {
          "duration": 0.07,
          "phone": "ay_S"
        }
      ],
      "start": 4.93,
      "startOffset": 96,
      "word": "I"
    },
    {
      "alignedWord": "was",
      "case": "success",
      "end": 5.19,
      "endOffset": 101,
      "phones": [
        {
          "duration": 0.05,
          "phone": "w_B"
        },
        {
          "duration": 0.06,
          "phone": "ah_I"
        },
        {
          "duration": 0.08,
          "phone": "z_E"
        }
      ],
      "start": 5.0,
      "startOffset": 98,
      "word": "WAS"
    },
    {
      "alignedWord": "so",
      "case": "success",
      "end": 5.4,
      "endOffset": 104,
      "phones": [
        {
          "duration": 0.1,
          "phone": "s_B"
        },
        {
          "duration": 0.11,
          "phone": "ow_E"
        }
      ],
      "start": 5.19,
      "startOffset": 102,
      "word": "SO"
    },
    {
      "alignedWord": "young",
      "case": "success",
      "end": 5.8500000000000005,
      "endOffset": 110,
      "phones": [
        {
          "duration": 0.15,
          "phone": "y_B"
        },
        {
          "duration": 0.13,
          "phone": "ah_I"
        },
        {
          "duration": 0.17,
          "phone": "ng_E"
        }
      ],
      "start": 5.4,
      "startOffset": 105,
      "word": "YOUNG"
    },
    {
      "alignedWord": "and",
      "case": "success",
      "end": 6.45,
      "endOffset": 114,
      "phones": [
        {
          "duration": 0.11,
          "phone": "ae_B"
        },
        {
          "duration": 0.05,
          "phone": "n_I"
        },
        {
          "duration": 0.05,
          "phone": "d_E"
        }
      ],
      "start": 6.24,
      "startOffset": 111,
      "word": "AND"
    },
    {
      "alignedWord": "parents",
      "case": "success",
      "end": 6.87,
      "endOffset": 122,
      "phones": [
        {
          "duration": 0.07,
          "phone": "p_B"
        },
        {
          "duration": 0.06,
          "phone": "eh_I"
        },
        {
          "duration": 0.07,
          "phone": "r_I"
        },
        {
          "duration": 0.04,
          "phone": "ah_I"
        },
        {
          "duration": 0.05,
          "phone": "n_I"
        },
        {
          "duration": 0.05,
          "phone": "t_I"
        },
        {
          "duration": 0.08,
          "phone": "s_E"
        }
      ],
      "start": 6.45,
      "startOffset": 115,
      "word": "PARENTS"
    },
    {
      "alignedWord": "might",
      "case": "success",
      "end": 7.1000000000000005,
      "endOffset": 128,
      "phones": [
        {
          "duration": 0.04,
          "phone": "m_B"
        },
        {
          "duration": 0.1,
          "phone": "ay_I"
        },
        {
          "duration": 0.09,
          "phone": "t_E"
        }
      ],
      "start": 6.87,
      "startOffset": 123,
      "word": "MIGHT"
    },
    {
      "alignedWord": "possibly",
      "case": "success",
      "end": 7.55,
      "endOffset": 137,
      "phones": [
        {
          "duration": 0.08,
          "phone": "p_B"
        },
        {
          "duration": 0.09,
          "phone": "aa_I"
        },
        {
          "duration": 0.05,
          "phone": "s_I"
        },
        {
          "duration": 0.07,
          "phone": "ah_I"
        },
        {
          "duration": 0.06,
          "phone": "b_I"
        },
        {
          "duration": 0.03,
          "phone": "l_I"
        },
        {
          "duration": 0.07,
          "phone": "iy_E"
        }
      ],
      "start": 7.1,
      "startOffset": 129,
      "word": "POSSIBLY"
    },
    {
      "alignedWord": "object",
      "case": "success",
      "end": 7.91,
      "endOffset": 144,
      "phones": [
        {
          "duration": 0.04,
          "phone": "ah_B"
        },
        {
          "duration": 0.07,
          "phone": "b_I"
        },
        {
          "duration": 0.08,
          "phone": "jh_I"
        },
        {
          "duration": 0.09,
          "phone": "eh_I"
        },
        {
          "duration": 0.07,
          "phone": "k_I"
        },
        {
          "duration": 0.01,
          "phone": "t_E"
        }
      ],
      "start": 7.55,
      "startOffset": 138,
      "word": "OBJECT"
    },
    {
      "alignedWord": "to",
      "case": "success",
      "end": 8.08,
      "endOffset": 147,
      "phones": [
        {
          "duration": 0.09,
          "phone": "t_B"
        },
        {
          "duration": 0.06,
          "phone": "uw_E"
        }
      ],
      "start": 7.93,
      "startOffset": 145,
      "word": "TO"
    },
    {
      "alignedWord": "a",
      "case": "success",
      "end": 8.13,
      "endOffset": 149,
      "phones": [
        {
          "duration": 0.05,
          "phone": "ah_S"
        }
      ],
      "start": 8.08,
      "startOffset": 148,
      "word": "A"
    },
    {
      "alignedWord": "professor",
      "case": "success",
      "end": 8.65,
      "endOffset": 159,
      "phones": [
        {
          "duration": 0.06,
          "phone": "p_B"
        },
        {
          "duration": 0.05,
          "phone": "r_I"
        },
        {
          "duration": 0.05,
          "phone": "ah_I"
        },
        {
          "duration": 0.08,
          "phone": "f_I"
        },
        {
          "duration": 0.08,
          "phone": "eh_I"
        },
        {
          "duration": 0.11,
          "phone": "s_I"
        },
        {
          "duration": 0.09,
          "phone": "er_E"
        }
      ],
      "start": 8.13,
      "startOffset": 150,
      "word": "PROFESSOR"
    },
    {
      "alignedWord": "like",
      "case": "success",
      "end": 8.92,
      "endOffset": 164,
      "phones": [
        {
          "duration": 0.08,
          "phone": "l_B"
        },
        {
          "duration": 0.07,
          "phone": "ay_I"
        },
        {
          "duration": 0.1,
          "phone": "k_E"
        }
      ],
      "start": 8.67,
      "startOffset": 160,
      "word": "LIKE"
    },
    {
      "alignedWord": "me",
      "case": "success",
      "end": 9.14,
      "endOffset": 167,
      "phones": [
        {
          "duration": 0.08,
          "phone": "m_B"
        },
        {
          "duration": 0.14,
          "phone": "iy_E"
        }
      ],
      "start": 8.92,
      "startOffset": 165,
      "word": "ME"
    },
    {
      "alignedWord": "for",
      "case": "success",
      "end": 9.319999,
      "endOffset": 171,
      "phones": [
        {
          "duration": 0.09,
          "phone": "f_B"
        },
        {
          "duration": 0.02,
          "phone": "ao_I"
        },
        {
          "duration": 0.07,
          "phone": "r_E"
        }
      ],
      "start": 9.139999,
      "startOffset": 168,
      "word": "FOR"
    },
    {
      "alignedWord": "their",
      "case": "success",
      "end": 9.44,
      "endOffset": 177,
      "phones": [
        {
          "duration": 0.03,
          "phone": "dh_B"
        },
        {
          "duration": 0.06,
          "phone": "eh_I"
        },
        {
          "duration": 0.03,
          "phone": "r_E"
        }
      ],
      "start": 9.32,
      "startOffset": 172,
      "word": "THEIR"
    },
    {
      "alignedWord": "daughters",
      "case": "success",
      "end": 10.04,
      "endOffset": 187,
      "phones": [
        {
          "duration": 0.09,
          "phone": "d_B"
        },
        {
          "duration": 0.11,
          "phone": "ao_I"
        },
        {
          "duration": 0.11,
          "phone": "t_I"
        },
        {
          "duration": 0.09,
          "phone": "er_I"
        },
        {
          "duration": 0.2,
          "phone": "z_E"
        }
      ],
      "start": 9.44,
      "startOffset": 178,
      "word": "DAUGHTERS"
    },
    {
      "alignedWord": "but",
      "case": "success",
      "end": 11.370000000000001,
      "endOffset": 191,
      "phones": [
        {
          "duration": 0.18,
          "phone": "b_B"
        },
        {
          "duration": 0.1,
          "phone": "ah_I"
        },
        {
          "duration": 0.11,
          "phone": "t_E"
        }
      ],
      "start": 10.98,
      "startOffset": 188,
      "word": "BUT"
    },
    {
      "alignedWord": "it",
      "case": "success",
      "end": 11.829999999999998,
      "endOffset": 194,
      "phones": [
        {
          "duration": 0.18,
          "phone": "ih_B"
        },
        {
          "duration": 0.11,
          "phone": "t_E"
        }
      ],
      "start": 11.54,
      "startOffset": 192,
      "word": "IT"
    },
    {
      "alignedWord": "is",
      "case": "success",
      "end": 12.0,
      "endOffset": 197,
      "phones": [
        {
          "duration": 0.09,
          "phone": "ih_B"
        },
        {
          "duration": 0.08,
          "phone": "z_E"
        }
      ],
      "start": 11.83,
      "startOffset": 195,
      "word": "IS"
    },
    {
      "alignedWord": "often",
      "case": "success",
      "end": 12.3,
      "endOffset": 203,
      "phones": [
        {
          "duration": 0.08,
          "phone": "ao_B"
        },
        {
          "duration": 0.06,
          "phone": "f_I"
        },
        {
          "duration": 0.08,
          "phone": "ah_I"
        },
        {
          "duration": 0.08,
          "phone": "n_E"
        }
      ],
      "start": 12.0,
      "startOffset": 198,
      "word": "OFTEN"
    },
    {
      "alignedWord": "well",
      "case": "success",
      "end": 12.600000000000001,
      "endOffset": 208,
      "phones": [
        {
          "duration": 0.08,
          "phone": "w_B"
        },
        {
          "duration": 0.13,
          "phone": "eh_I"
        },
        {
          "duration": 0.09,
          "phone": "l_E"
        }
      ],
      "start": 12.3,
      "startOffset": 204,
      "word": "WELL"
    },
    {
      "alignedWord": "to",
      "case": "success",
      "end": 12.81,
      "endOffset": 211,
      "phones": [
        {
          "duration": 0.07,
          "phone": "t_B"
        },
        {
          "duration": 0.09,
          "phone": "uw_E"
        }
      ],
      "start": 12.65,
      "startOffset": 209,
      "word": "TO"
    },
    {
      "alignedWord": "act",
      "case": "success",
      "end": 13.079998999999999,
      "endOffset": 215,
      "phones": [
        {
          "duration": 0.1,
          "phone": "ae_B"
        },
        {
          "duration": 0.07,
          "phone": "k_I"
        },
        {
          "duration": 0.1,
          "phone": "t_E"
        }
      ],
      "start": 12.809999,
      "startOffset": 212,
      "word": "ACT"
    },
    {
      "alignedWord": "on",
      "case": "success",
      "end": 13.23,
      "endOffset": 218,
      "phones": [
        {
          "duration": 0.06,
          "phone": "aa_B"
        },
        {
          "duration": 0.09,
          "phone": "n_E"
        }
      ],
      "start": 13.08,
      "startOffset": 216,
      "word": "ON"
    },
    {
      "alignedWord": "one's",
      "case": "success",
      "end": 13.51,
      "endOffset": 224,
      "phones": [
        {
          "duration": 0.07,
          "phone": "w_B"
        },
        {
          "duration": 0.07,
          "phone": "ah_I"
        },
        {
          "duration": 0.07,
          "phone": "n_I"
        },
        {
          "duration": 0.07,
          "phone": "z_E"
        }
      ],
      "start": 13.23,
      "startOffset": 219,
      "word": "ONE'S"
    },
    {
      "alignedWord": "own",
      "case": "success",
      "end": 13.77,
      "endOffset": 228,
      "phones": [
        {
          "duration": 0.15,
          "phone": "ow_B"
        },
        {
          "duration": 0.08,
          "phone": "n_E"
        }
      ],
      "start": 13.54,
      "startOffset": 225,
      "word": "OWN"
    },
    {
      "alignedWord": "judgment",
      "case": "success",
      "end": 14.44,
      "endOffset": 237,
      "phones": [
        {
          "duration": 0.11,
          "phone": "jh_B"
        },
        {
          "duration": 0.1,
          "phone": "ah_I"
        },
        {
          "duration": 0.1,
          "phone": "jh_I"
        },
        {
          "duration": 0.05,
          "phone": "m_I"
        },
        {
          "duration": 0.04,
          "phone": "ah_I"
        },
        {
          "duration": 0.05,
          "phone": "n_I"
        },
        {
          "duration": 0.21,
          "phone": "t_E"
        }
      ],
      "start": 13.78,
      "startOffset": 229,
      "word": "JUDGMENT"
    },
    {
      "alignedWord": "said",
      "case": "success",
      "end": 15.059999999999999,
      "endOffset": 242,
      "phones": [
        {
          "duration": 0.13,
          "phone": "s_B"
        },
        {
          "duration": 0.07,
          "phone": "eh_I"
        },
        {
          "duration": 0.08,
          "phone": "d_E"
        }
      ],
      "start": 14.78,
      "startOffset": 238,
      "word": "SAID"
    },
    {
      "alignedWord": "she",
      "case": "success",
      "end": 15.459999,
      "endOffset": 246,
      "phones": [
        {
          "duration": 0.13,
          "phone": "sh_B"
        },
        {
          "duration": 0.27,
          "phone": "iy_E"
        }
      ],
      "start": 15.059999,
      "startOffset": 243,
      "word": "SHE"
    }
  ]
}