{
  "transcript": "HE KEPT POKING HIS FINGER INTO MONTGOMERY AS IF HE WERE ONE OF HIS HORSES I HEAR THAT THE MASTER WILL SCALE A HUNDRED AND SIXTY ODD AT THE RING SIDE BUT THERE'S SOME OF THAT WHICH HE'D LIKE WELL TO PULL OFF AND LEAVE BEHIND WI HIS SHIRT SAID PURVIS",
  "words": [
    {
      "alignedWord": "he",
      "case": "success",
      "end": 0.6,
      "endOffset": 2,
      "phones": [
        {
          "duration": 0.08,
          "phone": "hh_B"
        },
        {
          "duration": 0.09,
          "phone": "iy_E"
        }
      ],
      "start": 0.43,
      "startOffset": 0,
      "word": "HE"
    },
    {
      "alignedWord": "kept",
      "case": "success",
      "end": 0.84,
      "endOffset": 7,
      "phones": [
        {
          "duration": 0.09,
          "phone": "k_B"
        },
        {
          "duration": 0.03,
          "phone": "eh_I"
        },
        {
          "duration": 0.06,
          "phone": "p_I"
        },
        {
          "duration": 0.06,
          "phone": "t_E"
        }
      ],
      "start": 0.6,
      "startOffset": 3,
      "word": "KEPT"
    },
    {
      "alignedWord": "poking",
      "case": "success",
      "end": 1.23,
      "endOffset": 14,
      "phones": [
        {
          "duration": 0.09,
          "phone": "p_B"
        },
        {
          "duration": 0.07,
          "phone": "ow_I"
        },
        {
          "duration": 0.07,
          "phone": "k_I"
        },
        {
          "duration": 0.08,
          "phone": "ih_I"
        },
        {
          "duration": 0.06,
          "phone": "ng_E"
        }
      ],
      "start": 0.86,
      "startOffset": 8,
      "word": "POKING"
    },
    {
      "alignedWord": "his",
      "case": "success",
      "end": 1.39,
      "endOffset": 18,
      "phones": [
        {
          "duration": 0.03,
          "phone": "hh_B"
        },
        {
          "duration": 0.02,
          "phone": "ih_I"
        },
        {
          "duration": 0.11,
          "phone": "z_E"
        }
      ],
      "start": 1.23,
      "startOffset": 15,
      "word": "HIS"
    },
    {
      "alignedWord": "finger",
      "case": "success",
      "end": 1.69,
      "endOffset": 25,
      "phones": [
        {
          "duration": 0.05,
          "phone": "f_B"
        },
        {
          "duration": 0.03,
          "phone": "ih_I"
        },
        {
          "duration": 0.09,
          "phone": "ng_I"
        },
        {
          "duration": 0.05,
          "phone": "g_I"
        },
        {
          "duration": 0.06,
          "phone": "er_E"
        }
      ],
      "start": 1.41,
      "startOffset": 19,
      "word": "FINGER"
    },
    {
      "alignedWord": "into",
      "case": "success",
      "end": 1.88,
      "endOffset": 30,
      "phones": [
        {
          "duration": 0.06,
          "phone": "ih_B"
        },
        {
          "duration": 0.04,
          "phone": "n_I"
        },
        {
          "duration": 0.04,
          "phone": "t_I"
        },
        {
          "duration": 0.05,
          "phone": "ah_E"
        }
      ],
      "start": 1.69,
      "startOffset": 26,
      "word": "INTO"
    },
    {
      "alignedWord": "montgomery",
      "case": "success",
      "end": 2.37,
      "endOffset": 41,
      "phones": [
        {
          "duration": 0.05,
          "phone": "m_B"
        },
        {
          "duration": 0.04,
          "phone": "aa_I"
        },
        {
          "duration": 0.01,
          "phone": "n_I"
        },
        {
          "duration": 0.07,
          "phone": "t_I"
        },
        {
          "duration": 0.07,
          "phone": "g_I"
        },
        {
          "duration": 0.08,
          "phone": "ah_I"
        },
        {
          "duration": 0.08,
          "phone": "m_I"
        },
        {
          "duration": 0.05,
          "phone": "r_I"
        },
        {
          "duration": 0.04,
          "phone": "iy_E"
        }
      ],
      "start": 1.88,
      "startOffset": 31,
      "word": "MONTGOMERY"
    },
    {
      "alignedWord": "as",
      "case": "success",
      "end": 2.5,
      "endOffset": 44,
      "phones": [
        {
          "duration": 0.08,
          "phone": "eh_B"
        },
        {
          "duration": 0.05,
          "phone": "z_E"
        }
      ],
      "start": 2.37,
      "startOffset": 42,
      "word": "AS"
    },
    {
      "alignedWord": "if",
      "case": "success",
      "end": 2.63,
      "endOffset": 47,
      "phones": [
        {
          "duration": 0.08,
          "phone": "ih_B"
        },
        {
          "duration": 0.05,
          "phone": "f_E"
        }
      ],
      "start": 2.5,
      "startOffset": 45,
      "word": "IF"
    },
    {
      "alignedWord": "he",
      "case": "success",
      "end": 2.71,
      "endOffset": 50,
      "phones": [
        {
          "duration": 0.04,
          "phone": "hh_B"
        },
        {
          "duration": 0.04,
          "phone": "iy_E"
        }
      ],
      "start": 2.63,
      "startOffset": 48,
      "word": "HE"
    },
    {
      "alignedWord": "were",
      "case": "success",
      "end": 2.85,
      "endOffset": 55,
      "phones": [
        {
          "duration": 0.08,
          "phone": "w_B"
        },
        {
          "duration": 0.06,
          "phone": "er_E"
        }
      ],
      "start": 2.71,
      "startOffset": 51,
      "word": "WERE"
    },
    {
      "alignedWord": "one",
      "case": "success",
      "end": 3.02,
      "endOffset": 59,
      "phones": [
        {
          "duration": 0.06,
          "phone": "w_B"
        },
        {
          "duration": 0.07,
          "phone": "ah_I"
        },
        {
          "duration": 0.04,
          "phone": "n_E"
        }
      ],
      "start": 2.85,
      "startOffset": 56,
      "word": "ONE"
    },
    {
      "alignedWord": "of",
      "case": "success",
      "end": 3.09,
      "endOffset": 62,
      "phones": [
        {
          "duration": 0.04,
          "phone": "ah_B"
        },
        {
          "duration": 0.03,
          "phone": "v_E"
        }
      ],
      "start": 3.02,
      "startOffset": 60,
      "word": "OF"
    },
    {
      "alignedWord": "his",
      "case": "success",
      "end": 3.23,
      "endOffset": 66,
      "phones": [
        {
          "duration": 0.04,
          "phone": "hh_B"
        },
        {
          "duration": 0.05,
          "phone": "ih_I"
        },
        {
          "duration": 0.05,
          "phone": "z_E"
        }
      ],
      "start": 3.09,
      "startOffset": 63,
      "word": "HIS"
    },
    {
      "alignedWord": "horses",
      "case": "success",
      "end": 3.81,
      "endOffset": 73,
      "phones": [
        {
          "duration": 0.06,
          "phone": "hh_B"
        },
        {
          "duration": 0.08,
          "phone": "ao_I"
        },
        {
          "duration": 0.07,
          "phone": "r_I"
        },
        {
          "duration": 0.08,
          "phone": "s_I"
        },
        {
          "duration": 0.13,
          "phone": "ih_I"
        },
        {
          "duration": 0.16,
          "phone": "z_E"
        }
      ],
      "start": 3.23,
      "startOffset": 67,
      "word": "HORSES"
    },
    {
      "alignedWord": "i",
      "case": "success",
      "end": 4.97,
      "endOffset": 75,
      "phones": [
        {
          "duration": 0.21,
          "phone": "ay_S"
        }
      ],
      "start": 4.76,
      "startOffset": 74,
      "word": "I"
    },
    {
      "alignedWord": "hear",
      "case": "success",
      "end": 5.1899999999999995,
      "endOffset": 80,
      "phones": [
        {
          "duration": 0.07,
          "phone": "hh_B"
        },
        {
          "duration": 0.07,
          "phone": "iy_I"
        },
        {
          "duration": 0.08,
          "phone": "r_E"
        }
      ],
      "start": 4.97,
      "startOffset": 76,
      "word": "HEAR"
    },
    {
      "alignedWord": "that",
      "case": "success",
      "end": 5.33,
      "endOffset": 85,
      "phones": [
        {
          "duration": 0.04,
          "phone": "dh_B"
        },
        {
          "duration": 0.06,
          "phone": "ah_I"
        },
        {
          "duration": 0.04,
          "phone": "t_E"
        }
      ],
      "start": 5.19,
      "startOffset": 81,
      "word": "THAT"
    },
    {
      "alignedWord": "the",
      "case": "success",
      "end": 5.43,
      "endOffset": 89,
      "phones": [
        {
          "duration": 0.04,
          "phone": "dh_B"
        },
        {
          "duration": 0.06,
          "phone": "ah_E"
        }
      ],
      "start": 5.33,
      "startOffset": 86,
      "word": "THE"
    },
    {
      "alignedWord": "master",
      "case": "success",
      "end": 5.779999999999999,
      "endOffset": 96,
      "phones": [
        {
          "duration": 0.08,
          "phone": "m_B"
        },
        {
          "duration": 0.1,
          "phone": "ae_I"
        },
        {
          "duration": 0.05,
          "phone": "s_I"
        },
        {
          "duration": 0.06,
          "phone": "t_I"
        },
        {
          "duration": 0.06,
          "phone": "er_E"
        }
      ],
      "start": 5.43,
      "startOffset": 90,
      "word": "MASTER"
    },
    {
      "alignedWord": "will",
      "case": "success",
      "end": 5.91,
      "endOffset": 101,
      "phones": [
        {
          "duration": 0.08,
          "phone": "w_B"
        },
        {
          "duration": 0.01,
          "phone": "ah_I"
        },
        {
          "duration": 0.04,
          "phone": "l_E"
        }
      ],
      "start": 5.78,
      "startOffset": 97,
      "word": "WILL"
    },
    {
      "alignedWord": "scale",
      "case": "success",
      "end": 6.22,
      "endOffset": 107,
      "phones": [
        {
          "duration": 0.07,
          "phone": "s_B"
        },
        {
          "duration": 0.08,
          "phone": "k_I"
        },
        {
          "duration": 0.08,
          "phone": "ey_I"
        },
        {
          "duration": 0.08,
          "phone": "l_E"
        }
      ],
      "start": 5.91,
      "startOffset": 102,
      "word": "SCALE"
    },
    {
      "alignedWord": "a",
      "case": "success",
      "end": 6.27,
      "endOffset": 109,
      "phones": [
        {
          "duration": 0.05,
          "phone": "ah_S"
        }
      ],
      "start": 6.22,
      "startOffset": 108,
      "word": "A"
    },
    {
      "alignedWord": "hundred",
      "case": "success",
      "end": 6.55,
      "endOffset": 117,
      "phones": [
        {
          "duration": 0.09,
          "phone": "hh_B"
        },
        {
          "duration": 0.04,
          "phone": "ah_I"
        },
        {
          "duration": 0.01,
          "phone": "n_I"
        },
        {
          "duration": 0.03,
          "phone": "d_I"
        },
        {
          "duration": 0.06,
          "phone": "er_I"
        },
        {
          "duration": 0.05,
          "phone": "d_E"
        }
      ],
      "start": 6.27,
      "startOffset": 110,
      "word": "HUNDRED"
    },
    {
      "alignedWord": "and",
      "case": "success",
      "end": 6.6899999999999995,
      "endOffset": 121,
      "phones": [
        {
          "duration": 0.03,
          "phone": "ae_B"
        },
        {
          "duration": 0.05,
          "phone": "n_I"
        },
        {
          "duration": 0.06,
          "phone": "d_E"
        }
      ],
      "start": 6.55,
      "startOffset": 118,
      "word": "AND"
    },
    {
      "alignedWord": "sixty",
      "case": "success",
      "end": 7.07,
      "endOffset": 127,
      "phones": [
        {
          "duration": 0.08,
          "phone": "s_B"
        },
        {
          "duration": 0.05,
          "phone": "ih_I"
        },
        {
          "duration": 0.06,
          "phone": "k_I"
        },
        {
          "duration": 0.01,
          "phone": "s_I"
        },
        {
          "duration": 0.07,
          "phone": "t_I"
        },
        {
          "duration": 0.11,
          "phone": "iy_E"
        }
      ],
      "start": 6.69,
      "startOffset": 122,
      "word": "SIXTY"
    },
    {
      "alignedWord": "odd",
      "case": "success",
      "end": 7.2700000000000005,
      "endOffset": 131,
      "phones": [
        {
          "duration": 0.16,
          "phone": "aa_B"
        },
        {
          "duration": 0.04,
          "phone": "d_E"
        }
      ],
      "start": 7.07,
      "startOffset": 128,
      "word": "ODD"
    },
    {
      "alignedWord": "at",
      "case": "success",
      "end": 7.359999999999999,
      "endOffset": 134,
      "phones": [
        {
          "duration": 0.05,
          "phone": "ae_B"
        },
        {
          "duration": 0.04,
          "phone": "t_E"
        }
      ],
      "start": 7.27,
      "startOffset": 132,
      "word": "AT"
    },
    {
      "alignedWord": "the",
      "case": "success",
      "end": 7.46,
      "endOffset": 138,
      "phones": [
        {
          "duration": 0.03,
          "phone": "dh_B"
        },
        {
          "duration": 0.07,
          "phone": "ah_E"
        }
      ],
      "start": 7.36,
      "startOffset": 135,
      "word": "THE"
    },
    {
      "alignedWord": "ring",
      "case": "success",
      "end": 7.68,
      "endOffset": 143,
      "phones": [
        {
          "duration": 0.06,
          "phone": "r_B"
        },
        {
          "duration": 0.07,
          "phone": "ih_I"
        },
        {
          "duration": 0.09,
          "phone": "ng_E"
        }
      ],
      "start": 7.46,
      "startOffset": 139,
      "word": "RING"
    },
    {
      "alignedWord": "side",
      "case": "success",
      "end": 8.09,
      "endOffset": 148,
      "phones": [
        {
          "duration": 0.11,
          "phone": "s_B"
        },
        {
          "duration": 0.15,
          "phone": "ay_I"
        },
        {
          "duration": 0.15,
          "phone": "d_E"
        }
      ],
      "start": 7.68,
      "startOffset": 144,
      "word": "SIDE"
    },
    {
      "alignedWord": "but",
      "case": "success",
      "end": 9.16,
      "endOffset": 152,
      "phones": [
        {
          "duration": 0.08,
          "phone": "b_B"
        },
        {
          "duration": 0.05,
          "phone": "ah_I"
        },
        {
          "duration": 0.06,
          "phone": "t_E"
        }
      ],
      "start": 8.97,
      "startOffset": 149,
      "word": "BUT"
    },
    {
      "alignedWord": "there's",
      "case": "success",
      "end": 9.33,
      "endOffset": 160,
      "phones": [
        {
          "duration": 0.03,
          "phone": "dh_B"
        },
        {
          "duration": 0.04,
          "phone": "eh_I"
        },
        {
          "duration": 0.03,
          "phone": "r_I"
        },
        {
          "duration": 0.07,
          "phone": "z_E"
        }
      ],
      "start": 9.16,
      "startOffset": 153,
      "word": "THERE'S"
    },
    {
      "alignedWord": "some",
      "case": "success",
      "end": 9.52,
      "endOffset": 165,
      "phones": [
        {
          "duration": 0.06,
          "phone": "s_B"
        },
        {
          "duration": 0.07,
          "phone": "ah_I"
        },
        {
          "duration": 0.06,
          "phone": "m_E"
        }
      ],
      "start": 9.33,
      "startOffset": 161,
      "word": "SOME"
    },
    {
      "alignedWord": "of",
      "case": "success",
      "end": 9.629999999999999,
      "endOffset": 168,
      "phones": [
        {
          "duration": 0.05,
          "phone": "ah_B"
        },
        {
          "duration": 0.06,
          "phone": "v_E"
        }
      ],
      "start": 9.52,
      "startOffset": 166,
      "word": "OF"
    },
    {
      "alignedWord": "that",
      "case": "success",
      "end": 9.860000000000001,
      "endOffset": 173,
      "phones": [
        {
          "duration": 0.03,
          "phone": "dh_B"
        },
        {
          "duration": 0.13,
          "phone": "ae_I"
        },
        {
          "duration": 0.07,
          "phone": "t_E"
        }
      ],
      "start": 9.63,
      "startOffset": 169,
      "word": "THAT"
    },
    {
      "alignedWord": "which",
      "case": "success",
      "end": 10.08,
      "endOffset": 179,
      "phones": [
        {
          "duration": 0.07,
          "phone": "w_B"
        },
        {
          "duration": 0.06,
          "phone": "ih_I"
        },
        {
          "duration": 0.08,
          "phone": "ch_E"
        }
      ],
      "start": 9.87,
      "startOffset": 174,
      "word": "WHICH"
    },
    {
      "alignedWord": "he'd",
      "case": "success",
      "end": 10.28,
      "endOffset": 184,
      "phones": [
        {
          "duration": 0.05,
          "phone": "hh_B"
        },
        {
          "duration": 0.07,
          "phone": "iy_I"
        },
        {
          "duration": 0.08,
          "phone": "d_E"
        }
      ],
      "start": 10.08,
      "startOffset": 180,
      "word": "HE'D"
    },
    {
      "alignedWord": "like",
      "case": "success",
      "end": 10.5,
      "endOffset": 189,
      "phones": [
        {
          "duration": 0.08,
          "phone": "l_B"
        },
        {
          "duration": 0.08,
          "phone": "ay_I"
        },
        {
          "duration": 0.06,
          "phone": "k_E"
        }
      ],
      "start": 10.28,
      "startOffset": 185,
      "word": "LIKE"
    },
    {
      "alignedWord": "well",
      "case": "success",
      "end": 10.77,
      "endOffset": 194,
      "phones": [
        {
          "duration": 0.08,
          "phone": "w_B"
        },
        {
          "duration": 0.09,
          "phone": "eh_I"
        },
        {
          "duration": 0.09,
          "phone": "l_E"
        }
      ],
      "start": 10.51,
      "startOffset": 190,
      "word": "WELL"
    },
    {
      "alignedWord": "to",
      "case": "success",
      "end": 10.9,
      "endOffset": 197,
      "phones": [
        {
          "duration": 0.06,
          "phone": "t_B"
        },
        {
          "duration": 0.07,
          "phone": "ah_E"
        }
      ],
      "start": 10.77,
      "startOffset": 195,
      "word": "TO"
    },
    {
      "alignedWord": "pull",
      "case": "success",
      "end": 11.08,
      "endOffset": 202,
      "phones": [
        {
          "duration": 0.06,
          "phone": "p_B"
        },
        {
          "duration": 0.11,
          "phone": "uh_I"
        },
        {
          "duration": 0.01,
          "phone": "l_E"
        }
      ],
      "start": 10.9,
      "startOffset": 198,
      "word": "PULL"
    },
    {
      "alignedWord": "off",
      "case": "success",
      "end": 11.34,
      "endOffset": 206,
      "phones": [
        {
          "duration": 0.14,
          "phone": "ao_B"
        },
        {
          "duration": 0.09,
          "phone": "f_E"
        }
      ],
      "start": 11.11,
      "startOffset": 203,
      "word": "OFF"
    },
    {
      "alignedWord": "and",
      "case": "success",
      "end": 11.43,
      "endOffset": 210,
      "phones": [
        {
          "duration": 0.01,
          "phone": "ah_B"
        },
        {
          "duration": 0.05,
          "phone": "n_I"
        },
        {
          "duration": 0.01,
          "phone": "d_E"
        }
      ],
      "start": 11.36,
      "startOffset": 207,
      "word": "AND"
    },
    {
      "alignedWord": "leave",
      "case": "success",
      "end": 11.65,
      "endOffset": 216,
      "phones": [
        {
          "duration": 0.08,
          "phone": "l_B"
        },
        {
          "duration": 0.07,
          "phone": "iy_I"
        },
        {
          "duration": 0.06,
          "phone": "v_E"
        }
      ],
      "start": 11.44,
      "startOffset": 211,
      "word": "LEAVE"
    },
    {
      "alignedWord": "behind",
      "case": "success",
      "end": 11.950000000000001,
      "endOffset": 223,
      "phones": [
        {
          "duration": 0.01,
          "phone": "b_B"
        },
        {
          "duration": 0.07,
          "phone": "ih_I"
        },
        {
          "duration": 0.07,
          "phone": "hh_I"
        },
        {
          "duration": 0.1,
          "phone": "ay_I"
        },
        {
          "duration": 0.04,
          "phone": "n_I"
        },
        {
          "duration": 0.01,
          "phone": "d_E"
        }
      ],
      "start": 11.65,
      "startOffset": 217,
      "word": "BEHIND"
    },
    {
      "alignedWord": "<unk>",
      "case": "success",
      "end": 12.11,
      "endOffset": 226,
      "phones": [
        {
          "duration": 0.16,
          "phone": "oov_S"
        }
      ],
      "start": 11.95,
      "startOffset": 224,
      "word": "WI"
    },
    {
      "alignedWord": "his",
      "case": "success",
      "end": 12.209999999999999,
      "endOffset": 230,
      "phones": [
        {
          "duration": 0.01,
          "phone": "hh_B"
        },
        {
          "duration": 0.03,
          "phone": "ih_I"
        },
        {
          "duration": 0.06,
          "phone": "z_E"
        }
      ],
      "start": 12.11,
      "startOffset": 227,
      "word": "HIS"
    },
    {
      "alignedWord": "shirt",
      "case": "success",
      "end": 12.679999,
      "endOffset": 236,
      "phones": [
        {
          "duration": 0.14,
          "phone": "sh_B"
        },
        {
          "duration": 0.18,
          "phone": "er_I"
        },
        {
          "duration": 0.14,
          "phone": "t_E"
        }
      ],
      "start": 12.219999,
      "startOffset": 231,
      "word": "SHIRT"
    },
    {
      "alignedWord": "said",
      "case": "success",
      "end": 13.15,
      "endOffset": 241,
      "phones": [
        {
          "duration": 0.07,
          "phone": "s_B"
        },
        {
          "duration": 0.07,
          "phone": "eh_I"
        },
        {
          "duration": 0.05,
          "phone": "d_E"
        }
      ],
      "start": 12.96,
      "startOffset": 237,
      "word": "SAID"
    },
    {
      "alignedWord": "<unk>",
      "case": "success",
      "end": 13.459999999999999,
      "endOffset": 248,
      "phones": [
        {
          "duration": 0.29,
          "phone": "oov_S"
        }
      ],
      "start": 13.17,
      "startOffset": 242,
      "word": "PURVIS"
    }
  ]
}