{
  "transcript": "WIELD TRENCHANT BLADES OF DAMASCUS STEEL OR CLUBS STUDDED WITH SPIKES ALSO OF STEEL SUCH AS I HAVE MORE THAN ONCE SEEN",
  "words": [
    {
      "alignedWord": "wield",
      "case": "success",
      "end": 0.38,
      "endOffset": 5,
      "phones": [
        {
          "duration": 0.06,
          "phone": "w_B"
        },
        {
          "duration": 0.07,
          "phone": "iy_I"
        },
        {
          "duration": 0.05,
          "phone": "l_I"
        },
        {
          "duration": 0.06,
          "phone": "d_E"
        }
      ],
      "start": 0.14,
      "startOffset": 0,
      "word": "WIELD"
    },
    {
      "alignedWord": "<unk>",
      "case": "success",
      "end": 0.81,
      "endOffset": 15,
      "phones": [
        {
          "duration": 0.43,
          "phone": "oov_S"
        }
      ],
      "start": 0.38,
      "startOffset": 6,
      "word": "TRENCHANT"
    },
    {
      "alignedWord": "blades",
      "case": "success",
      "end": 1.16,
      "endOffset": 22,
      "phones": [
        {
          "duration": 0.08,
          "phone": "b_B"
        },
        {
          "duration": 0.08,
          "phone": "l_I"
        },
        {
          "duration": 0.1,
          "phone": "ey_I"
        },
        {
          "duration": 0.04,
          "phone": "d_I"
        },
        {
          "duration": 0.03,
          "phone": "z_E"
        }
      ],
      "start": 0.83,
      "startOffset": 16,
      "word": "BLADES"
    },
    {
      "alignedWord": "of",
      "case": "success",
      "end": 1.33,
      "endOffset": 25,
      "phones": [
        {
          "duration": 0.07,
          "phone": "ah_B"
        },
        {
          "duration": 0.07,
          "phone": "v_E"
        }
      ],
      "start": 1.19,
      "startOffset": 23,
      "word": "OF"
    },
    {
      "alignedWord": "damascus",
      "case": "success",
      "end": 1.84,
      "endOffset": 34,
      "phones": [
        {
          "duration": 0.01,
          "phone": "d_B"
        },
        {
          "duration": 0.07,
          "phone": "ah_I"
        },
        {
          "duration": 0.08,
          "phone": "m_I"
        },
        {
          "duration": 0.09,
          "phone": "ae_I"
        },
        {
          "duration": 0.09,
          "phone": "s_I"
        },
        {
          "duration": 0.07,
          "phone": "k_I"
        },
        {
          "duration": 0.05,
          "phone": "ah_I"
        },
        {
          "duration": 0.05,
          "phone": "s_E"
        }
      ],
      "start": 1.33,
      "startOffset": 26,
      "word": "DAMASCUS"
    },
    {
      "alignedWord": "steel",
      "case": "success",
      "end": 2.2600000000000002,
      "endOffset": 40,
      "phones": [
        {
          "duration": 0.06,
          "phone": "s_B"
        },
        {
          "duration": 0.07,
          "phone": "t_I"
        },
        {
          "duration": 0.11,
          "phone": "iy_I"
        },
        {
          "duration": 0.18,
          "phone": "l_E"
        }
      ],
      "start": 1.84,
      "startOffset": 35,
      "word": "STEEL"
    },
    {
      "alignedWord": "or",
      "case": "success",
      "end": 2.56,
      "endOffset": 43,
      "phones": [
        {
          "duration": 0.13,
          "phone": "er_S"
        }
      ],
      "start": 2.43,
      "startOffset": 41,
      "word": "OR"
    },
    {
      "alignedWord": "clubs",
      "case": "success",
      "end": 2.89,
      "endOffset": 49,
      "phones": [
        {
          "duration": 0.11,
          "phone": "k_B"
        },
        {
          "duration": 0.11,
          "phone": "l_I"
        },
        {
          "duration": 0.03,
          "phone": "ah_I"
        },
        {
          "duration": 0.07,
          "phone": "b_I"
        },
        {
          "duration": 0.01,
          "phone": "z_E"
        }
      ],
      "start": 2.56,
      "startOffset": 44,
      "word": "CLUBS"
    },
    {
      "alignedWord": "studded",
      "case": "success",
      "end": 3.26,
      "endOffset": 57,
      "phones": [
        {
          "duration": 0.07,
          "phone": "s_B"
        },
        {
          "duration": 0.08,
          "phone": "t_I"
        },
        {
          "duration": 0.06,
          "phone": "ah_I"
        },
        {
          "duration": 0.01,
          "phone": "d_I"
        },
        {
          "duration": 0.06,
          "phone": "ih_I"
        },
        {
          "duration": 0.08,
          "phone": "d_E"
        }
      ],
      "start": 2.9,
      "startOffset": 50,
      "word": "STUDDED"
    },
    {
      "alignedWord": "with",
      "case": "success",
      "end": 3.3699999999999997,
      "endOffset": 62,
      "phones": [
        {
          "duration": 0.03,
          "phone": "w_B"
        },
        {
          "duration": 0.03,
          "phone": "ih_I"
        },
        {
          "duration": 0.05,
          "phone": "th_E"
        }
      ],
      "start": 3.26,
      "startOffset": 58,
      "word": "WITH"
    },
    {
      "alignedWord": "spikes",
      "case": "success",
      "end": 3.81,
      "endOffset": 69,
      "phones": [
        {
          "duration": 0.11,
          "phone": "s_B"
        },
        {
          "duration": 0.08,
          "phone": "p_I"
        },
        {
          "duration": 0.14,
          "phone": "ay_I"
        },
        {
          "duration": 0.05,
          "phone": "k_I"
        },
        {
          "duration": 0.06,
          "phone": "s_E"
        }
      ],
      "start": 3.37,
      "startOffset": 63,
      "word": "SPIKES"
    },
    {
      "alignedWord": "also",
      "case": "success",
      "end": 4.15,
      "endOffset": 74,
      "phones": [
        {
          "duration": 0.08,
          "phone": "ao_B"
        },
        {
          "duration": 0.08,
          "phone": "l_I"
        },
        {
          "duration": 0.08,
          "phone": "s_I"
        },
        {
          "duration": 0.08,
          "phone": "ow_E"
        }
      ],
      "start": 3.83,
      "startOffset": 70,
      "word": "ALSO"
    },
    {
      "alignedWord": "of",
      "case": "success",
      "end": 4.28,
      "endOffset": 77,
      "phones": [
        {
          "duration": 0.05,
          "phone": "ah_B"
        },
        {
          "duration": 0.08,
          "phone": "v_E"
        }
      ],
      "start": 4.15,
      "startOffset": 75,
      "word": "OF"
    },
    {
      "alignedWord": "steel",
      "case": "success",
      "end": 4.7,
      "endOffset": 83,
      "phones": [
        {
          "duration": 0.06,
          "phone": "s_B"
        },
        {
          "duration": 0.07,
          "phone": "t_I"
        },
        {
          "duration": 0.12,
          "phone": "iy_I"
        },
        {
          "duration": 0.17,
          "phone": "l_E"
        }
      ],
      "start": 4.28,
      "startOffset": 78,
      "word": "STEEL"
    },
    {
      "alignedWord": "such",
      "case": "success",
      "end": 5.15,
      "endOffset": 88,
      "phones": [
        {
          "duration": 0.08,
          "phone": "s_B"
        },
        {
          "duration": 0.08,
          "phone": "ah_I"
        },
        {
          "duration": 0.05,
          "phone": "ch_E"
        }
      ],
      "start": 4.94,
      "startOffset": 84,
      "word": "SUCH"
    },
    {
      "alignedWord": "as",
      "case": "success",
      "end": 5.29,
      "endOffset": 91,
      "phones": [
        {
          "duration": 0.06,
          "phone": "eh_B"
        },
        {
          "duration": 0.08,
          "phone": "z_E"
        }
      ],
      "start": 5.15,
      "startOffset": 89,
      "word": "AS"
    },
    {
      "alignedWord": "i",
      "case": "success",
      "end": 5.43,
      "endOffset": 93,
      "phones": [
        {
          "duration": 0.14,
          "phone": "ay_S"
        }
      ],
      "start": 5.29,
      "startOffset": 92,
      "word": "I"
    },
    {
      "alignedWord": "have",
      "case": "success",
      "end": 5.74,
      "endOffset": 98,
      "phones": [
        {
          "duration": 0.1,
          "phone": "hh_B"
        },
        {
          "duration": 0.11,
          "phone": "ae_I"
        },
        {
          "duration": 0.09,
          "phone": "v_E"
        }
      ],
      "start": 5.44,
      "startOffset": 94,
      "word": "HAVE"
    },
    {
      "alignedWord": "more",
      "case": "success",
      "end": 5.98,
      "endOffset": 103,
      "phones": [
        {
          "duration": 0.09,
          "phone": "m_B"
        },
        {
          "duration": 0.07,
          "phone": "ao_I"
        },
        {
          "duration": 0.07,
          "phone": "r_E"
        }
      ],
      "start": 5.75,
      "startOffset": 99,
      "word": "MORE"
    },
    {
      "alignedWord": "than",
      "case": "success",
      "end": 6.130000000000001,
      "endOffset": 108,
      "phones": [
        {
          "duration": 0.03,
          "phone": "dh_B"
        },
        {
          "duration": 0.05,
          "phone": "ah_I"
        },
        {
          "duration": 0.07,
          "phone": "n_E"
        }
      ],
      "start": 5.98,
      "startOffset": 104,
      "word": "THAN"
    },
    {
      "alignedWord": "once",
      "case": "success",
      "end": 6.4,
      "endOffset": 113,
      "phones": [
        {
          "duration": 0.05,
          "phone": "w_B"
        },
        {
          "duration": 0.09,
          "phone": "ah_I"
        },
        {
          "duration": 0.08,
          "phone": "n_I"
        },
        {
          "duration": 0.05,
          "phone": "s_E"
        }
      ],
      "start": 6.13,
      "startOffset": 109,
      "word": "ONCE"
    },
    {
      "alignedWord": "seen",
      "case": "success",
      "end": 6.78,
      "endOffset": 118,
      "phones": [
        {
          "duration": 0.09,
          "phone": "s_B"
        },
        {
          "duration": 0.12,
          "phone": "iy_I"
        },
        {
          "duration": 0.16,
          "phone": "n_E"
        }
      ],
      "start": 6.41,
      "startOffset": 114,
      "word": "SEEN"
    }
  ]
}