{
  "transcript": "NO IT ISN'T PEG BOWEN IT'S SOMETHING THAT WALKS I KNOW A STORY ABOUT A GHOST SAID THE STORY GIRL THE RULING PASSION STRONG EVEN IN EXTREMITY IT IS ABOUT A GHOST WITH EYEHOLES BUT NO EYES",
  "words": [
    {
      "alignedWord": "no",
      "case": "success",
      "end": 0.41000000000000003,
      "endOffset": 2,
      "phones": [
        {
          "duration": 0.11,
          "phone": "n_B"
        },
        {
          "duration": 0.11,
          "phone": "ow_E"
        }
      ],
      "start": 0.19,
      "startOffset": 0,
      "word": "NO"
    },
    {
      "alignedWord": "it",
      "case": "success",
      "end": 0.51,
      "endOffset": 5,
      "phones": [
        {
          "duration": 0.04,
          "phone": "ih_B"
        },
        {
          "duration": 0.06,
          "phone": "t_E"
        }
      ],
      "start": 0.41,
      "startOffset": 3,
      "word": "IT"
    },
    {
      "alignedWord": "isn't",
      "case": "success",
      "end": 0.8400000000000001,
      "endOffset": 11,
      "phones": [
        {
          "duration": 0.07,
          "phone": "ih_B"
        },
        {
          "duration": 0.08,
          "phone": "z_I"
        },
        {
          "duration": 0.05,
          "phone": "ah_I"
        },
        {
          "duration": 0.06,
          "phone": "n_I"
        },
        {
          "duration": 0.06,
          "phone": "t_E"
        }
      ],
      "start": 0.52,
      "startOffset": 6,
      "word": "ISN'T"
    },
    {
      "alignedWord": "peg",
      "case": "success",
      "end": 0.9199999999999999,
      "endOffset": 15,
      "phones": [
        {
          "duration": 0.06,
          "phone": "p_B"
        },
        {
          "duration": 0.01,
          "phone": "eh_I"
        },
        {
          "duration": 0.01,
          "phone": "g_E"
        }
      ],
      "start": 0.84,
      "startOffset": 12,
      "word": "PEG"
    },
    {
      "alignedWord": "<unk>",
      "case": "success",
      "end": 1.48,
      "endOffset": 21,
      "phones": [
        {
          "duration": 0.56,
          "phone": "oov_S"
        }
      ],
      "start": 0.92,
      "startOffset": 16,
      "word": "BOWEN"
    },
    {
      "alignedWord": "it's",
      "case": "success",
      "end": 1.96,
      "endOffset": 26,
      "phones": [
        {
          "duration": 0.09,
          "phone": "ih_B"
        },
        {
          "duration": 0.08,
          "phone": "t_I"
        },
        {
          "duration": 0.05,
          "phone": "s_E"
        }
      ],
      "start": 1.74,
      "startOffset": 22,
      "word": "IT'S"
    },
    {
      "alignedWord": "something",
      "case": "success",
      "end": 2.64,
      "endOffset": 36,
      "phones": [
        {
          "duration": 0.11,
          "phone": "s_B"
        },
        {
          "duration": 0.08,
          "phone": "ah_I"
        },
        {
          "duration": 0.09,
          "phone": "m_I"
        },
        {
          "duration": 0.12,
          "phone": "th_I"
        },
        {
          "duration": 0.09,
          "phone": "ih_I"
        },
        {
          "duration": 0.18,
          "phone": "ng_E"
        }
      ],
      "start": 1.97,
      "startOffset": 27,
      "word": "SOMETHING"
    },
    {
      "alignedWord": "that",
      "case": "success",
      "end": 2.9000000000000004,
      "endOffset": 41,
      "phones": [
        {
          "duration": 0.11,
          "phone": "dh_B"
        },
        {
          "duration": 0.03,
          "phone": "ah_I"
        },
        {
          "duration": 0.08,
          "phone": "t_E"
        }
      ],
      "start": 2.68,
      "startOffset": 37,
      "word": "THAT"
    },
    {
      "alignedWord": "walks",
      "case": "success",
      "end": 3.45,
      "endOffset": 47,
      "phones": [
        {
          "duration": 0.08,
          "phone": "w_B"
        },
        {
          "duration": 0.19,
          "phone": "ao_I"
        },
        {
          "duration": 0.15,
          "phone": "k_I"
        },
        {
          "duration": 0.13,
          "phone": "s_E"
        }
      ],
      "start": 2.9,
      "startOffset": 42,
      "word": "WALKS"
    },
    {
      "alignedWord": "i",
      "case": "success",
      "end": 3.91,
      "endOffset": 49,
      "phones": [
        {
          "duration": 0.18,
          "phone": "ay_S"
        }
      ],
      "start": 3.73,
      "startOffset": 48,
      "word": "I"
    },
    {
      "alignedWord": "know",
      "case": "success",
      "end": 4.08,
      "endOffset": 54,
      "phones": [
        {
          "duration": 0.09,
          "phone": "n_B"
        },
        {
          "duration": 0.08,
          "phone": "ow_E"
        }
      ],
      "start": 3.91,
      "startOffset": 50,
      "word": "KNOW"
    },
    {
      "alignedWord": "a",
      "case": "success",
      "end": 4.17,
      "endOffset": 56,
      "phones": [
        {
          "duration": 0.09,
          "phone": "ah_S"
        }
      ],
      "start": 4.08,
      "startOffset": 55,
      "word": "A"
    },
    {
      "alignedWord": "story",
      "case": "success",
      "end": 4.52,
      "endOffset": 62,
      "phones": [
        {
          "duration": 0.07,
          "phone": "s_B"
        },
        {
          "duration": 0.09,
          "phone": "t_I"
        },
        {
          "duration": 0.07,
          "phone": "ao_I"
        },
        {
          "duration": 0.07,
          "phone": "r_I"
        },
        {
          "duration": 0.05,
          "phone": "iy_E"
        }
      ],
      "start": 4.17,
      "startOffset": 57,
      "word": "STORY"
    },
    {
      "alignedWord": "about",
      "case": "success",
      "end": 4.76,
      "endOffset": 68,
      "phones": [
        {
          "duration": 0.04,
          "phone": "ah_B"
        },
        {
          "duration": 0.06,
          "phone": "b_I"
        },
        {
          "duration": 0.07,
          "phone": "aw_I"
        },
        {
          "duration": 0.07,
          "phone": "t_E"
        }
      ],
      "start": 4.52,
      "startOffset": 63,
      "word": "ABOUT"
    },
    {
      "alignedWord": "a",
      "case": "success",
      "end": 4.83,
      "endOffset": 70,
      "phones": [
        {
          "duration": 0.07,
          "phone": "ah_S"
        }
      ],
      "start": 4.76,
      "startOffset": 69,
      "word": "A"
    },
    {
      "alignedWord": "ghost",
      "case": "success",
      "end": 5.14,
      "endOffset": 76,
      "phones": [
        {
          "duration": 0.1,
          "phone": "g_B"
        },
        {
          "duration": 0.17,
          "phone": "ow_I"
        },
        {
          "duration": 0.03,
          "phone": "s_I"
        },
        {
          "duration": 0.01,
          "phone": "t_E"
        }
      ],
      "start": 4.83,
      "startOffset": 71,
      "word": "GHOST"
    },
    {
      "alignedWord": "said",
      "case": "success",
      "end": 5.41,
      "endOffset": 81,
      "phones": [
        {
          "duration": 0.13,
          "phone": "s_B"
        },
        {
          "duration": 0.05,
          "phone": "eh_I"
        },
        {
          "duration": 0.08,
          "phone": "d_E"
        }
      ],
      "start": 5.15,
      "startOffset": 77,
      "word": "SAID"
    },
    {
      "alignedWord": "the",
      "case": "success",
      "end": 5.49,
      "endOffset": 85,
      "phones": [
        {
          "duration": 0.01,
          "phone": "dh_B"
        },
        {
          "duration": 0.07,
          "phone": "ah_E"
        }
      ],
      "start": 5.41,
      "startOffset": 82,
      "word": "THE"
    },
    {
      "alignedWord": "story",
      "case": "success",
      "end": 5.84,
      "endOffset": 91,
      "phones": [
        {
          "duration": 0.05,
          "phone": "s_B"
        },
        {
          "duration": 0.07,
          "phone": "t_I"
        },
        {
          "duration": 0.08,
          "phone": "ao_I"
        },
        {
          "duration": 0.08,
          "phone": "r_I"
        },
        {
          "duration": 0.07,
          "phone": "iy_E"
        }
      ],
      "start": 5.49,
      "startOffset": 86,
      "word": "STORY"
    },
    {
      "alignedWord": "girl",
      "case": "success",
      "end": 6.1,
      "endOffset": 96,
      "phones": [
        {
          "duration": 0.08,
          "phone": "g_B"
        },
        {
          "duration": 0.1,
          "phone": "er_I"
        },
        {
          "duration": 0.08,
          "phone": "l_E"
        }
      ],
      "start": 5.84,
      "startOffset": 92,
      "word": "GIRL"
    },
    {
      "alignedWord": "the",
      "case": "success",
      "end": 6.25,
      "endOffset": 100,
      "phones": [
        {
          "duration": 0.05,
          "phone": "dh_B"
        },
        {
          "duration": 0.08,
          "phone": "ah_E"
        }
      ],
      "start": 6.12,
      "startOffset": 97,
      "word": "THE"
    },
    {
      "alignedWord": "ruling",
      "case": "success",
      "end": 6.63,
      "endOffset": 107,
      "phones": [
        {
          "duration": 0.08,
          "phone": "r_B"
        },
        {
          "duration": 0.06,
          "phone": "uw_I"
        },
        {
          "duration": 0.08,
          "phone": "l_I"
        },
        {
          "duration": 0.07,
          "phone": "ih_I"
        },
        {
          "duration": 0.09,
          "phone": "ng_E"
        }
      ],
      "start": 6.25,
      "startOffset": 101,
      "word": "RULING"
    },
    {
      "alignedWord": "passion",
      "case": "success",
      "end": 7.1,
      "endOffset": 115,
      "phones": [
        {
          "duration": 0.08,
          "phone": "p_B"
        },
        {
          "duration": 0.11,
          "phone": "ae_I"
        },
        {
          "duration": 0.09,
          "phone": "sh_I"
        },
        {
          "duration": 0.09,
          "phone": "ah_I"
        },
        {
          "duration": 0.1,
          "phone": "n_E"
        }
      ],
      "start": 6.63,
      "startOffset": 108,
      "word": "PASSION"
    },
    {
      "alignedWord": "strong",
      "case": "success",
      "end": 7.6,
      "endOffset": 122,
      "phones": [
        {
          "duration": 0.08,
          "phone": "s_B"
        },
        {
          "duration": 0.1,
          "phone": "t_I"
        },
        {
          "duration": 0.06,
          "phone": "r_I"
        },
        {
          "duration": 0.14,
          "phone": "ao_I"
        },
        {
          "duration": 0.12,
          "phone": "ng_E"
        }
      ],
      "start": 7.1,
      "startOffset": 116,
      "word": "STRONG"
    },
    {
      "alignedWord": "even",
      "case": "success",
      "end": 7.95,
      "endOffset": 127,
      "phones": [
        {
          "duration": 0.18,
          "phone": "iy_B"
        },
        {
          "duration": 0.06,
          "phone": "v_I"
        },
        {
          "duration": 0.04,
          "phone": "ih_I"
        },
        {
          "duration": 0.06,
          "phone": "n_E"
        }
      ],
      "start": 7.61,
      "startOffset": 123,
      "word": "EVEN"
    },
    {
      "alignedWord": "in",
      "case": "success",
      "end": 8.08,
      "endOffset": 130,
      "phones": [
        {
          "duration": 0.06,
          "phone": "ih_B"
        },
        {
          "duration": 0.07,
          "phone": "n_E"
        }
      ],
      "start": 7.95,
      "startOffset": 128,
      "word": "IN"
    },
    {
      "alignedWord": "extremity",
      "case": "success",
      "end": 8.76,
      "endOffset": 140,
      "phones": [
        {
          "duration": 0.06,
          "phone": "eh_B"
        },
        {
          "duration": 0.1,
          "phone": "k_I"
        },
        {
          "duration": 0.02,
          "phone": "s_I"
        },
        {
          "duration": 0.1,
          "phone": "t_I"
        },
        {
          "duration": 0.02,
          "phone": "r_I"
        },
        {
          "duration": 0.07,
          "phone": "eh_I"
        },
        {
          "duration": 0.03,
          "phone": "m_I"
        },
        {
          "duration": 0.07,
          "phone": "ah_I"
        },
        {
          "duration": 0.05,
          "phone": "t_I"
        },
        {
          "duration": 0.16,
          "phone": "iy_E"
        }
      ],
      "start": 8.08,
      "startOffset": 131,
      "word": "EXTREMITY"
    },
    {
      "alignedWord": "it",
      "case": "success",
      "end": 9.440000000000001,
      "endOffset": 143,
      "phones": [
        {
          "duration": 0.15,
          "phone": "ih_B"
        },
        {
          "duration": 0.06,
          "phone": "t_E"
        }
      ],
      "start": 9.23,
      "startOffset": 141,
      "word": "IT"
    },
    {
      "alignedWord": "is",
      "case": "success",
      "end": 9.6,
      "endOffset": 146,
      "phones": [
        {
          "duration": 0.08,
          "phone": "ih_B"
        },
        {
          "duration": 0.08,
          "phone": "z_E"
        }
      ],
      "start": 9.44,
      "startOffset": 144,
      "word": "IS"
    },
    {
      "alignedWord": "about",
      "case": "success",
      "end": 9.889999,
      "endOffset": 152,
      "phones": [
        {
          "duration": 0.06,
          "phone": "ah_B"
        },
        {
          "duration": 0.1,
          "phone": "b_I"
        },
        {
          "duration": 0.06,
          "phone": "aw_I"
        },
        {
          "duration": 0.07,
          "phone": "t_E"
        }
      ],
      "start": 9.599999,
      "startOffset": 147,
      "word": "ABOUT"
    },
    {
      "alignedWord": "a",
      "case": "success",
      "end": 9.959999,
      "endOffset": 154,
      "phones": [
        {
          "duration": 0.07,
          "phone": "ah_S"
        }
      ],
      "start": 9.889999,
      "startOffset": 153,
      "word": "A"
    },
    {
      "alignedWord": "ghost",
      "case": "success",
      "end": 10.420000000000002,
      "endOffset": 160,
      "phones": [
        {
          "duration": 0.11,
          "phone": "g_B"
        },
        {
          "duration": 0.17,
          "phone": "ow_I"
        },
        {
          "duration": 0.09,
          "phone": "s_I"
        },
        {
          "duration": 0.09,
          "phone": "t_E"
        }
      ],
      "start": 9.96,
      "startOffset": 155,
      "word": "GHOST"
    },
    {
      "alignedWord": "with",
      "case": "success",
      "end": 10.62,
      "endOffset": 165,
      "phones": [
        {
          "duration": 0.07,
          "phone": "w_B"
        },
        {
          "duration": 0.03,
          "phone": "ih_I"
        },
        {
          "duration": 0.08,
          "phone": "th_E"
        }
      ],
      "start": 10.44,
      "startOffset": 161,
      "word": "WITH"
    },
    {
      "alignedWord": "<unk>",
      "case": "success",
      "end": 10.629999999999999,
      "endOffset": 174,
      "phones": [
        {
          "duration": 0.01,
          "phone": "oov_S"
        }
      ],
      "start": 10.62,
      "startOffset": 166,
      "word": "EYEHOLES"
    },
    {
      "alignedWord": "but",
      "case": "success",
      "end": 11.469999999999999,
      "endOffset": 178,
      "phones": [
        {
          "duration": 0.05,
          "phone": "b_B"
        },
        {
          "duration": 0.05,
          "phone": "ah_I"
        },
        {
          "duration": 0.08,
          "phone": "t_E"
        }
      ],
      "start": 11.29,
      "startOffset": 175,
      "word": "BUT"
    },
    {
      "alignedWord": "no",
      "case": "success",
      "end": 11.719999,
      "endOffset": 181,
      "phones": [
        {
          "duration": 0.08,
          "phone": "n_B"
        },
        {
          "duration": 0.17,
          "phone": "ow_E"
        }
      ],
      "start": 11.469999,
      "startOffset": 179,
      "word": "NO"
    },
    {
      "alignedWord": "eyes",
      "case": "success",
      "end": 12.179999,
      "endOffset": 186,
      "phones": [
        {
          "duration": 0.32,
          "phone": "ay_B"
        },
        {
          "duration": 0.1,
          "phone": "z_E"
        }
      ],
      "start": 11.759999,
      "startOffset": 182,
      "word": "EYES"
    }
  ]
}