{
  "transcript": "ALL AT ONCE SOMETHING LEAPED FROM THE BOUGH OF A TREE AND ALIGHTED BEFORE US WE SPLIT THE AIR WITH A SIMULTANEOUS SHRIEK",
  "words": [
    {
      "alignedWord": "all",
      "case": "success",
      "end": 0.33,
      "endOffset": 3,
      "phones": [
        {
          "duration": 0.13,
          "phone": "ao_B"
        },
        {
          "duration": 0.06,
          "phone": "l_E"
        }
      ],
      "start": 0.14,
      "startOffset": 0,
      "word": "ALL"
    },
    {
      "alignedWord": "at",
      "case": "success",
      "end": 0.45,
      "endOffset": 6,
      "phones": [
        {
          "duration": 0.05,
          "phone": "ae_B"
        },
        {
          "duration": 0.07,
          "phone": "t_E"
        }
      ],
      "start": 0.33,
      "startOffset": 4,
      "word": "AT"
    },
    {
      "alignedWord": "once",
      "case": "success",
      "end": 0.79,
      "endOffset": 11,
      "phones": [
        {
          "duration": 0.06,
          "phone": "w_B"
        },
        {
          "duration": 0.15,
          "phone": "ah_I"
        },
        {
          "duration": 0.09,
          "phone": "n_I"
        },
        {
          "duration": 0.04,
          "phone": "s_E"
        }
      ],
      "start": 0.45,
      "startOffset": 7,
      "word": "ONCE"
    },
    {
      "alignedWord": "something",
      "case": "success",
      "end": 1.59,
      "endOffset": 21,
      "phones": [
        {
          "duration": 0.23,
          "phone": "s_B"
        },
        {
          "duration": 0.07,
          "phone": "ah_I"
        },
        {
          "duration": 0.08,
          "phone": "m_I"
        },
        {
          "duration": 0.1,
          "phone": "th_I"
        },
        {
          "duration": 0.1,
          "phone": "ih_I"
        },
        {
          "duration": 0.21,
          "phone": "ng_E"
        }
      ],
      "start": 0.8,
      "startOffset": 12,
      "word": "SOMETHING"
    },
    {
      "alignedWord": "leaped",
      "case": "success",
      "end": 2.07,
      "endOffset": 28,
      "phones": [
        {
          "duration": 0.11,
          "phone": "l_B"
        },
        {
          "duration": 0.09,
          "phone": "iy_I"
        },
        {
          "duration": 0.07,
          "phone": "p_I"
        },
        {
          "duration": 0.08,
          "phone": "t_E"
        }
      ],
      "start": 1.72,
      "startOffset": 22,
      "word": "LEAPED"
    },
    {
      "alignedWord": "from",
      "case": "success",
      "end": 2.27,
      "endOffset": 33,
      "phones": [
        {
          "duration": 0.1,
          "phone": "f_B"
        },
        {
          "duration": 0.03,
          "phone": "er_I"
        },
        {
          "duration": 0.05,
          "phone": "m_E"
        }
      ],
      "start": 2.09,
      "startOffset": 29,
      "word": "FROM"
    },
    {
      "alignedWord": "the",
      "case": "success",
      "end": 2.37,
      "endOffset": 37,
      "phones": [
        {
          "duration": 0.04,
          "phone": "dh_B"
        },
        {
          "duration": 0.06,
          "phone": "ah_E"
        }
      ],
      "start": 2.27,
      "startOffset": 34,
      "word": "THE"
    },
    {
      "alignedWord": "bough",
      "case": "success",
      "end": 2.72,
      "endOffset": 43,
      "phones": [
        {
          "duration": 0.12,
          "phone": "b_B"
        },
        {
          "duration": 0.23,
          "phone": "aw_E"
        }
      ],
      "start": 2.37,
      "startOffset": 38,
      "word": "BOUGH"
    },
    {
      "alignedWord": "of",
      "case": "success",
      "end": 2.93,
      "endOffset": 46,
      "phones": [
        {
          "duration": 0.13,
          "phone": "ah_B"
        },
        {
          "duration": 0.08,
          "phone": "v_E"
        }
      ],
      "start": 2.72,
      "startOffset": 44,
      "word": "OF"
    },
    {
      "alignedWord": "a",
      "case": "success",
      "end": 2.99,
      "endOffset": 48,
      "phones": [
        {
          "duration": 0.06,
          "phone": "ah_S"
        }
      ],
      "start": 2.93,
      "startOffset": 47,
      "word": "A"
    },
    {
      "alignedWord": "tree",
      "case": "success",
      "end": 3.5,
      "endOffset": 53,
      "phones": [
        {
          "duration": 0.16,
          "phone": "t_B"
        },
        {
          "duration": 0.11,
          "phone": "r_I"
        },
        {
          "duration": 0.24,
          "phone": "iy_E"
        }
      ],
      "start": 2.99,
      "startOffset": 49,
      "word": "TREE"
    },
    {
      "alignedWord": "and",
      "case": "success",
      "end": 3.8600000000000003,
      "endOffset": 57,
      "phones": [
        {
          "duration": 0.07,
          "phone": "ae_B"
        },
        {
          "duration": 0.04,
          "phone": "n_I"
        },
        {
          "duration": 0.01,
          "phone": "d_E"
        }
      ],
      "start": 3.74,
      "startOffset": 54,
      "word": "AND"
    },
    {
      "alignedWord": "<unk>",
      "case": "success",
      "end": 4.39,
      "endOffset": 66,
      "phones": [
        {
          "duration": 0.53,
          "phone": "oov_S"
        }
      ],
      "start": 3.86,
      "startOffset": 58,
      "word": "ALIGHTED"
    },
    {
      "alignedWord": "before",
      "case": "success",
      "end": 4.79,
      "endOffset": 73,
      "phones": [
        {
          "duration": 0.07,
          "phone": "b_B"
        },
        {
          "duration": 0.07,
          "phone": "ih_I"
        },
        {
          "duration": 0.1,
          "phone": "f_I"
        },
        {
          "duration": 0.07,
          "phone": "ao_I"
        },
        {
          "duration": 0.07,
          "phone": "r_E"
        }
      ],
      "start": 4.41,
      "startOffset": 67,
      "word": "BEFORE"
    },
    {
      "alignedWord": "us",
      "case": "success",
      "end": 5.07,
      "endOffset": 76,
      "phones": [
        {
          "duration": 0.11,
          "phone": "ah_B"
        },
        {
          "duration": 0.17,
          "phone": "s_E"
        }
      ],
      "start": 4.79,
      "startOffset": 74,
      "word": "US"
    },
    {
      "alignedWord": "we",
      "case": "success",
      "end": 5.34,
      "endOffset": 79,
      "phones": [
        {
          "duration": 0.08,
          "phone": "w_B"
        },
        {
          "duration": 0.06,
          "phone": "iy_E"
        }
      ],
      "start": 5.2,
      "startOffset": 77,
      "word": "WE"
    },
    {
      "alignedWord": "split",
      "case": "success",
      "end": 5.62,
      "endOffset": 85,
      "phones": [
        {
          "duration": 0.07,
          "phone": "s_B"
        },
        {
          "duration": 0.06,
          "phone": "p_I"
        },
        {
          "duration": 0.06,
          "phone": "l_I"
        },
        {
          "duration": 0.02,
          "phone": "ih_I"
        },
        {
          "duration": 0.07,
          "phone": "t_E"
        }
      ],
      "start": 5.34,
      "startOffset": 80,
      "word": "SPLIT"
    },
    {
      "alignedWord": "the",
      "case": "success",
      "end": 5.8,
      "endOffset": 89,
      "phones": [
        {
          "duration": 0.06,
          "phone": "dh_B"
        },
        {
          "duration": 0.12,
          "phone": "iy_E"
        }
      ],
      "start": 5.62,
      "startOffset": 86,
      "word": "THE"
    },
    {
      "alignedWord": "air",
      "case": "success",
      "end": 6.010000000000001,
      "endOffset": 93,
      "phones": [
        {
          "duration": 0.11,
          "phone": "eh_B"
        },
        {
          "duration": 0.08,
          "phone": "r_E"
        }
      ],
      "start": 5.82,
      "startOffset": 90,
      "word": "AIR"
    },
    {
      "alignedWord": "with",
      "case": "success",
      "end": 6.1899999999999995,
      "endOffset": 98,
      "phones": [
        {
          "duration": 0.06,
          "phone": "w_B"
        },
        {
          "duration": 0.05,
          "phone": "ih_I"
        },
        {
          "duration": 0.07,
          "phone": "th_E"
        }
      ],
      "start": 6.01,
      "startOffset": 94,
      "word": "WITH"
    },
    {
      "alignedWord": "a",
      "case": "success",
      "end": 6.260000000000001,
      "endOffset": 100,
      "phones": [
        {
          "duration": 0.07,
          "phone": "ah_S"
        }
      ],
      "start": 6.19,
      "startOffset": 99,
      "word": "A"
    },
    {
      "alignedWord": "simultaneous",
      "case": "success",
      "end": 7.09,
      "endOffset": 113,
      "phones": [
        {
          "duration": 0.13,
          "phone": "s_B"
        },
        {
          "duration": 0.1,
          "phone": "ay_I"
        },
        {
          "duration": 0.05,
          "phone": "m_I"
        },
        {
          "duration": 0.05,
          "phone": "ah_I"
        },
        {
          "duration": 0.06,
          "phone": "l_I"
        },
        {
          "duration": 0.1,
          "phone": "t_I"
        },
        {
          "duration": 0.09,
          "phone": "ey_I"
        },
        {
          "duration": 0.07,
          "phone": "n_I"
        },
        {
          "duration": 0.07,
          "phone": "iy_I"
        },
        {
          "duration": 0.05,
          "phone": "ah_I"
        },
        {
          "duration": 0.06,
          "phone": "s_E"
        }
      ],
      "start": 6.26,
      "startOffset": 101,
      "word": "SIMULTANEOUS"
    },
    {
      "alignedWord": "shriek",
      "case": "success",
      "end": 7.51,
      "endOffset": 120,
      "phones": [
        {
          "duration": 0.18,
          "phone": "sh_B"
        },
        {
          "duration": 0.09,
          "phone": "r_I"
        },
        {
          "duration": 0.09,
          "phone": "iy_I"
        },
        {
          "duration": 0.06,
          "phone": "k_E"
        }
      ],
      "start": 7.09,
      "startOffset": 114,
      "word": "SHRIEK"
    }
  ]
}