{
  "transcript": "BUT FOUND NOTHING FURTHER TO REWARD THEIR SEARCH THE GROUND WAS TOO SOFT AND MARSHY TO RETAIN ANY TRACES OF FOOTSTEPS AND THE MARE AND SADDLE FURNISHED THE ONLY EVIDENCE THAT THE OBJECT OF THEIR QUEST HAD BEEN IN THE NEIGHBORHOOD OF THE SWAMP AND OF COURSE THIS EVIDENCE WAS OF THE MOST VAGUE AND INCONCLUSIVE CHARACTER",
  "words": [
    {
      "alignedWord": "but",
      "case": "success",
      "end": 0.26,
      "endOffset": 3,
      "phones": [
        {
          "duration": 0.08,
          "phone": "b_B"
        },
        {
          "duration": 0.02,
          "phone": "ah_I"
        },
        {
          "duration": 0.04,
          "phone": "t_E"
        }
      ],
      "start": 0.12,
      "startOffset": 0,
      "word": "BUT"
    },
    {
      "alignedWord": "found",
      "case": "success",
      "end": 0.53,
      "endOffset": 9,
      "phones": [
        {
          "duration": 0.09,
          "phone": "f_B"
        },
        {
          "duration": 0.08,
          "phone": "aw_I"
        },
        {
          "duration": 0.01,
          "phone": "n_I"
        },
        {
          "duration": 0.09,
          "phone": "d_E"
        }
      ],
      "start": 0.26,
      "startOffset": 4,
      "word": "FOUND"
    },
    {
      "alignedWord": "nothing",
      "case": "success",
      "end": 0.8600000000000001,
      "endOffset": 17,
      "phones": [
        {
          "duration": 0.01,
          "phone": "n_B"
        },
        {
          "duration": 0.09,
          "phone": "ah_I"
        },
        {
          "duration": 0.08,
          "phone": "th_I"
        },
        {
          "duration": 0.06,
          "phone": "ih_I"
        },
        {
          "duration": 0.09,
          "phone": "ng_E"
        }
      ],
      "start": 0.53,
      "startOffset": 10,
      "word": "NOTHING"
    },
    {
      "alignedWord": "further",
      "case": "success",
      "end": 1.21,
      "endOffset": 25,
      "phones": [
        {
          "duration": 0.06,
          "phone": "f_B"
        },
        {
          "duration": 0.15,
          "phone": "er_I"
        },
        {
          "duration": 0.06,
          "phone": "dh_I"
        },
        {
          "duration": 0.08,
          "phone": "er_E"
        }
      ],
      "start": 0.86,
      "startOffset": 18,
      "word": "FURTHER"
    },
    {
      "alignedWord": "to",
      "case": "success",
      "end": 1.3699999999999999,
      "endOffset": 28,
      "phones": [
        {
          "duration": 0.07,
          "phone": "t_B"
        },
        {
          "duration": 0.09,
          "phone": "ah_E"
        }
      ],
      "start": 1.21,
      "startOffset": 26,
      "word": "TO"
    },
    {
      "alignedWord": "reward",
      "case": "success",
      "end": 1.78,
      "endOffset": 35,
      "phones": [
        {
          "duration": 0.04,
          "phone": "r_B"
        },
        {
          "duration": 0.07,
          "phone": "iy_I"
        },
        {
          "duration": 0.08,
          "phone": "w_I"
        },
        {
          "duration": 0.09,
          "phone": "ao_I"
        },
        {
          "duration": 0.04,
          "phone": "r_I"
        },
        {
          "duration": 0.09,
          "phone": "d_E"
        }
      ],
      "start": 1.37,
      "startOffset": 29,
      "word": "REWARD"
    },
    {
      "alignedWord": "their",
      "case": "success",
      "end": 1.92,
      "endOffset": 41,
      "phones": [
        {
          "duration": 0.01,
          "phone": "dh_B"
        },
        {
          "duration": 0.06,
          "phone": "eh_I"
        },
        {
          "duration": 0.07,
          "phone": "r_E"
        }
      ],
      "start": 1.78,
      "startOffset": 36,
      "word": "THEIR"
    },
    {
      "alignedWord": "search",
      "case": "success",
      "end": 2.42,
      "endOffset": 48,
      "phones": [
        {
          "duration": 0.11,
          "phone": "s_B"
        },
        {
          "duration": 0.11,
          "phone": "er_I"
        },
        {
          "duration": 0.28,
          "phone": "ch_E"
        }
      ],
      "start": 1.92,
      "startOffset": 42,
      "word": "SEARCH"
    },
    {
      "alignedWord": "the",
      "case": "success",
      "end": 3.11,
      "endOffset": 52,
      "phones": [
        {
          "duration": 0.06,
          "phone": "dh_B"
        },
        {
          "duration": 0.05,
          "phone": "ah_E"
        }
      ],
      "start": 3.0,
      "startOffset": 49,
      "word": "THE"
    },
    {
      "alignedWord": "ground",
      "case": "success",
      "end": 3.3899999999999997,
      "endOffset": 59,
      "phones": [
        {
          "duration": 0.06,
          "phone": "g_B"
        },
        {
          "duration": 0.06,
          "phone": "r_I"
        },
        {
          "duration": 0.06,
          "phone": "aw_I"
        },
        {
          "duration": 0.05,
          "phone": "n_I"
        },
        {
          "duration": 0.05,
          "phone": "d_E"
        }
      ],
      "start": 3.11,
      "startOffset": 53,
      "word": "GROUND"
    },
    {
      "alignedWord": "was",
      "case": "success",
      "end": 3.5300000000000002,
      "endOffset": 63,
      "phones": [
        {
          "duration": 0.03,
          "phone": "w_B"
        },
        {
          "duration": 0.04,
          "phone": "ah_I"
        },
        {
          "duration": 0.07,
          "phone": "z_E"
        }
      ],
      "start": 3.39,
      "startOffset": 60,
      "word": "WAS"
    },
    {
      "alignedWord": "too",
      "case": "success",
      "end": 3.6999999999999997,
      "endOffset": 67,
      "phones": [
        {
          "duration": 0.09,
          "phone": "t_B"
        },
        {
          "duration": 0.08,
          "phone": "uw_E"
        }
      ],
      "start": 3.53,
      "startOffset": 64,
      "word": "TOO"
    },
    {
      "alignedWord": "soft",
      "case": "success",
      "end": 4.04,
      "endOffset": 72,
      "phones": [
        {
          "duration": 0.12,
          "phone": "s_B"
        },
        {
          "duration": 0.11,
          "phone": "aa_I"
        },
        {
          "duration": 0.07,
          "phone": "f_I"
        },
        {
          "duration": 0.04,
          "phone": "t_E"
        }
      ],
      "start": 3.7,
      "startOffset": 68,
      "word": "SOFT"
    },
    {
      "alignedWord": "and",
      "case": "success",
      "end": 4.11,
      "endOffset": 76,
      "phones": [
        {
          "duration": 0.01,
          "phone": "ah_B"
        },
        {
          "duration": 0.05,
          "phone": "n_I"
        },
        {
          "duration": 0.01,
          "phone": "d_E"
        }
      ],
      "start": 4.04,
      "startOffset": 73,
      "word": "AND"
    },
    {
      "alignedWord": "<unk>",
      "case": "success",
      "end": 4.470000000000001,
      "endOffset": 83,
      "phones": [
        {
          "duration": 0.36,
          "phone": "oov_S"
        }
      ],
      "start": 4.11,
      "startOffset": 77,
      "word": "MARSHY"
    },
    {
      "alignedWord": "to",
      "case": "success",
      "end": 4.6,
      "endOffset": 86,
      "phones": [
        {
          "duration": 0.06,
          "phone": "t_B"
        },
        {
          "duration": 0.07,
          "phone": "ah_E"
        }
      ],
      "start": 4.47,
      "startOffset": 84,
      "word": "TO"
    },
    {
      "alignedWord": "retain",
      "case": "success",
      "end": 4.9399999999999995,
      "endOffset": 93,
      "phones": [
        {
          "duration": 0.05,
          "phone": "r_B"
        },
        {
          "duration": 0.05,
          "phone": "ih_I"
        },
        {
          "duration": 0.1,
          "phone": "t_I"
        },
        {
          "duration": 0.07,
          "phone": "ey_I"
        },
        {
          "duration": 0.07,
          "phone": "n_E"
        }
      ],
      "start": 4.6,
      "startOffset": 87,
      "word": "RETAIN"
    },
    {
      "alignedWord": "any",
      "case": "success",
      "end": 5.15,
      "endOffset": 97,
      "phones": [
        {
          "duration": 0.07,
          "phone": "eh_B"
        },
        {
          "duration": 0.06,
          "phone": "n_I"
        },
        {
          "duration": 0.07,
          "phone": "iy_E"
        }
      ],
      "start": 4.95,
      "startOffset": 94,
      "word": "ANY"
    },
    {
      "alignedWord": "traces",
      "case": "success",
      "end": 5.5200000000000005,
      "endOffset": 104,
      "phones": [
        {
          "duration": 0.06,
          "phone": "t_B"
        },
        {
          "duration": 0.08,
          "phone": "r_I"
        },
        {
          "duration": 0.04,
          "phone": "ey_I"
        },
        {
          "duration": 0.07,
          "phone": "s_I"
        },
        {
          "duration": 0.06,
          "phone": "ih_I"
        },
        {
          "duration": 0.06,
          "phone": "z_E"
        }
      ],
      "start": 5.15,
      "startOffset": 98,
      "word": "TRACES"
    },
    {
      "alignedWord": "of",
      "case": "success",
      "end": 5.619999999999999,
      "endOffset": 107,
      "phones": [
        {
          "duration": 0.06,
          "phone": "ah_B"
        },
        {
          "duration": 0.04,
          "phone": "v_E"
        }
      ],
      "start": 5.52,
      "startOffset": 105,
      "word": "OF"
    },
    {
      "alignedWord": "footsteps",
      "case": "success",
      "end": 6.2700000000000005,
      "endOffset": 117,
      "phones": [
        {
          "duration": 0.1,
          "phone": "f_B"
        },
        {
          "duration": 0.05,
          "phone": "uh_I"
        },
        {
          "duration": 0.07,
          "phone": "t_I"
        },
        {
          "duration": 0.05,
          "phone": "s_I"
        },
        {
          "duration": 0.07,
          "phone": "t_I"
        },
        {
          "duration": 0.09,
          "phone": "eh_I"
        },
        {
          "duration": 0.09,
          "phone": "p_I"
        },
        {
          "duration": 0.13,
          "phone": "s_E"
        }
      ],
      "start": 5.62,
      "startOffset": 108,
      "word": "FOOTSTEPS"
    },
    {
      "alignedWord": "and",
      "case": "success",
      "end": 6.7700000000000005,
      "endOffset": 121,
      "phones": [
        {
          "duration": 0.1,
          "phone": "ae_B"
        },
        {
          "duration": 0.04,
          "phone": "n_I"
        },
        {
          "duration": 0.05,
          "phone": "d_E"
        }
      ],
      "start": 6.58,
      "startOffset": 118,
      "word": "AND"
    },
    {
      "alignedWord": "the",
      "case": "success",
      "end": 6.85,
      "endOffset": 125,
      "phones": [
        {
          "duration": 0.01,
          "phone": "dh_B"
        },
        {
          "duration": 0.07,
          "phone": "ah_E"
        }
      ],
      "start": 6.77,
      "startOffset": 122,
      "word": "THE"
    },
    {
      "alignedWord": "mare",
      "case": "success",
      "end": 7.159999999999999,
      "endOffset": 130,
      "phones": [
        {
          "duration": 0.1,
          "phone": "m_B"
        },
        {
          "duration": 0.13,
          "phone": "eh_I"
        },
        {
          "duration": 0.08,
          "phone": "r_E"
        }
      ],
      "start": 6.85,
      "startOffset": 126,
      "word": "MARE"
    },
    {
      "alignedWord": "and",
      "case": "success",
      "end": 7.34,
      "endOffset": 134,
      "phones": [
        {
          "duration": 0.06,
          "phone": "ae_B"
        },
        {
          "duration": 0.04,
          "phone": "n_I"
        },
        {
          "duration": 0.08,
          "phone": "d_E"
        }
      ],
      "start": 7.16,
      "startOffset": 131,
      "word": "AND"
    },
    {
      "alignedWord": "saddle",
      "case": "success",
      "end": 7.7,
      "endOffset": 141,
      "phones": [
        {
          "duration": 0.09,
          "phone": "s_B"
        },
        {
          "duration": 0.1,
          "phone": "ae_I"
        },
        {
          "duration": 0.05,
          "phone": "d_I"
        },
        {
          "duration": 0.07,
          "phone": "ah_I"
        },
        {
          "duration": 0.05,
          "phone": "l_E"
        }
      ],
      "start": 7.34,
      "startOffset": 135,
      "word": "SADDLE"
    },
    {
      "alignedWord": "furnished",
      "case": "success",
      "end": 8.08,
      "endOffset": 151,
      "phones": [
        {
          "duration": 0.1,
          "phone": "f_B"
        },
        {
          "duration": 0.09,
          "phone": "er_I"
        },
        {
          "duration": 0.05,
          "phone": "n_I"
        },
        {
          "duration": 0.04,
          "phone": "ih_I"
        },
        {
          "duration": 0.08,
          "phone": "sh_I"
        },
        {
          "duration": 0.02,
          "phone": "t_E"
        }
      ],
      "start": 7.7,
      "startOffset": 142,
      "word": "FURNISHED"
    },
    {
      "alignedWord": "the",
      "case": "success",
      "end": 8.21,
      "endOffset": 155,
      "phones": [
        {
          "duration": 0.06,
          "phone": "dh_B"
        },
        {
          "duration": 0.07,
          "phone": "iy_E"
        }
      ],
      "start": 8.08,
      "startOffset": 152,
      "word": "THE"
    },
    {
      "alignedWord": "only",
      "case": "success",
      "end": 8.47,
      "endOffset": 160,
      "phones": [
        {
          "duration": 0.06,
          "phone": "ow_B"
        },
        {
          "duration": 0.05,
          "phone": "n_I"
        },
        {
          "duration": 0.07,
          "phone": "l_I"
        },
        {
          "duration": 0.08,
          "phone": "iy_E"
        }
      ],
      "start": 8.21,
      "startOffset": 156,
      "word": "ONLY"
    },
    {
      "alignedWord": "evidence",
      "case": "success",
      "end": 8.930000000000001,
      "endOffset": 169,
      "phones": [
        {
          "duration": 0.11,
          "phone": "eh_B"
        },
        {
          "duration": 0.06,
          "phone": "v_I"
        },
        {
          "duration": 0.08,
          "phone": "ah_I"
        },
        {
          "duration": 0.01,
          "phone": "d_I"
        },
        {
          "duration": 0.07,
          "phone": "ah_I"
        },
        {
          "duration": 0.07,
          "phone": "n_I"
        },
        {
          "duration": 0.06,
          "phone": "s_E"
        }
      ],
      "start": 8.47,
      "startOffset": 161,
      "word": "EVIDENCE"
    },
    {
      "alignedWord": "that",
      "case": "success",
      "end": 9.049999,
      "endOffset": 174,
      "phones": [
        {
          "duration": 0.03,
          "phone": "dh_B"
        },
        {
          "duration": 0.05,
          "phone": "ah_I"
        },
        {
          "duration": 0.04,
          "phone": "t_E"
        }
      ],
      "start": 8.929999,
      "startOffset": 170,
      "word": "THAT"
    },
    {
      "alignedWord": "the",
      "case": "success",
      "end": 9.200000000000001,
      "endOffset": 178,
      "phones": [
        {
          "duration": 0.04,
          "phone": "dh_B"
        },
        {
          "duration": 0.11,
          "phone": "iy_E"
        }
      ],
      "start": 9.05,
      "startOffset": 175,
      "word": "THE"
    },
    {
      "alignedWord": "object",
      "case": "success",
      "end": 9.57,
      "endOffset": 185,
      "phones": [
        {
          "duration": 0.11,
          "phone": "aa_B"
        },
        {
          "duration": 0.08,
          "phone": "b_I"
        },
        {
          "duration": 0.04,
          "phone": "jh_I"
        },
        {
          "duration": 0.04,
          "phone": "eh_I"
        },
        {
          "duration": 0.03,
          "phone": "k_I"
        },
        {
          "duration": 0.06,
          "phone": "t_E"
        }
      ],
      "start": 9.21,
      "startOffset": 179,
      "word": "OBJECT"
    },
    {
      "alignedWord": "of",
      "case": "success",
      "end": 9.68,
      "endOffset": 188,
      "phones": [
        {
          "duration": 0.04,
          "phone": "ah_B"
        },
        {
          "duration": 0.07,
          "phone": "v_E"
        }
      ],
      "start": 9.57,
      "startOffset": 186,
      "word": "OF"
    },
    {
      "alignedWord": "their",
      "case": "success",
      "end": 9.789999,
      "endOffset": 194,
      "phones": [
        {
          "duration": 0.01,
          "phone": "dh_B"
        },
        {
          "duration": 0.06,
          "phone": "eh_I"
        },
        {
          "duration": 0.04,
          "phone": "r_E"
        }
      ],
      "start": 9.679999,
      "startOffset": 189,
      "word": "THEIR"
    },
    {
      "alignedWord": "quest",
      "case": "success",
      "end": 10.149999999999999,
      "endOffset": 200,
      "phones": [
        {
          "duration": 0.09,
          "phone": "k_B"
        },
        {
          "duration": 0.04,
          "phone": "w_I"
        },
        {
          "duration": 0.08,
          "phone": "eh_I"
        },
        {
          "duration": 0.06,
          "phone": "s_I"
        },
        {
          "duration": 0.09,
          "phone": "t_E"
        }
      ],
      "start": 9.79,
      "startOffset": 195,
      "word": "QUEST"
    },
    {
      "alignedWord": "had",
      "case": "success",
      "end": 10.27,
      "endOffset": 204,
      "phones": [
        {
          "duration": 0.03,
          "phone": "hh_B"
        },
        {
          "duration": 0.02,
          "phone": "ae_I"
        },
        {
          "duration": 0.07,
          "phone": "d_E"
        }
      ],
      "start": 10.15,
      "startOffset": 201,
      "word": "HAD"
    },
    {
      "alignedWord": "been",
      "case": "success",
      "end": 10.4,
      "endOffset": 209,
      "phones": [
        {
          "duration": 0.04,
          "phone": "b_B"
        },
        {
          "duration": 0.07,
          "phone": "ih_I"
        },
        {
          "duration": 0.02,
          "phone": "n_E"
        }
      ],
      "start": 10.27,
      "startOffset": 205,
      "word": "BEEN"
    },
    {
      "alignedWord": "in",
      "case": "success",
      "end": 10.47,
      "endOffset": 212,
      "phones": [
        {
          "duration": 0.05,
          "phone": "ih_B"
        },
        {
          "duration": 0.02,
          "phone": "n_E"
        }
      ],
      "start": 10.4,
      "startOffset": 210,
      "word": "IN"
    },
    {
      "alignedWord": "the",
      "case": "success",
      "end": 10.579998999999999,
      "endOffset": 216,
      "phones": [
        {
          "duration": 0.05,
          "phone": "dh_B"
        },
        {
          "duration": 0.06,
          "phone": "ah_E"
        }
      ],
      "start": 10.469999,
      "startOffset": 213,
      "word": "THE"
    },
    {
      "alignedWord": "neighborhood",
      "case": "success",
      "end": 10.97,
      "endOffset": 229,
      "phones": [
        {
          "duration": 0.07,
          "phone": "n_B"
        },
        {
          "duration": 0.07,
          "phone": "ey_I"
        },
        {
          "duration": 0.08,
          "phone": "b_I"
        },
        {
          "duration": 0.06,
          "phone": "er_I"
        },
        {
          "duration": 0.04,
          "phone": "hh_I"
        },
        {
          "duration": 0.04,
          "phone": "uh_I"
        },
        {
          "duration": 0.03,
          "phone": "d_E"
        }
      ],
      "start": 10.58,
      "startOffset": 217,
      "word": "NEIGHBORHOOD"
    },
    {
      "alignedWord": "of",
      "case": "success",
      "end": 11.109999,
      "endOffset": 232,
      "phones": [
        {
          "duration": 0.05,
          "phone": "ah_B"
        },
        {
          "duration": 0.09,
          "phone": "v_E"
        }
      ],
      "start": 10.969999,
      "startOffset": 230,
      "word": "OF"
    },
    {
      "alignedWord": "the",
      "case": "success",
      "end": 11.19,
      "endOffset": 236,
      "phones": [
        {
          "duration": 0.01,
          "phone": "dh_B"
        },
        {
          "duration": 0.07,
          "phone": "ah_E"
        }
      ],
      "start": 11.11,
      "startOffset": 233,
      "word": "THE"
    },
    {
      "alignedWord": "swamp",
      "case": "success",
      "end": 11.6,
      "endOffset": 242,
      "phones": [
        {
          "duration": 0.09,
          "phone": "s_B"
        },
        {
          "duration": 0.09,
          "phone": "w_I"
        },
        {
          "duration": 0.08,
          "phone": "aa_I"
        },
        {
          "duration": 0.02,
          "phone": "m_I"
        },
        {
          "duration": 0.13,
          "phone": "p_E"
        }
      ],
      "start": 11.19,
      "startOffset": 237,
      "word": "SWAMP"
    },
    {
      "alignedWord": "and",
      "case": "success",
      "end": 12.25,
      "endOffset": 246,
      "phones": [
        {
          "duration": 0.1,
          "phone": "ae_B"
        },
        {
          "duration": 0.05,
          "phone": "n_I"
        },
        {
          "duration": 0.01,
          "phone": "d_E"
        }
      ],
      "start": 12.09,
      "startOffset": 243,
      "word": "AND"
    },
    {
      "alignedWord": "of",
      "case": "success",
      "end": 12.36,
      "endOffset": 249,
      "phones": [
        {
          "duration": 0.04,
          "phone": "ah_B"
        },
        {
          "duration": 0.07,
          "phone": "v_E"
        }
      ],
      "start": 12.25,
      "startOffset": 247,
      "word": "OF"
    },
    {
      "alignedWord": "course",
      "case": "success",
      "end": 12.629999999999999,
      "endOffset": 256,
      "phones": [
        {
          "duration": 0.08,
          "phone": "k_B"
        },
        {
          "duration": 0.06,
          "phone": "ao_I"
        },
        {
          "duration": 0.06,
          "phone": "r_I"
        },
        {
          "duration": 0.07,
          "phone": "s_E"
        }
      ],
      "start": 12.36,
      "startOffset": 250,
      "word": "COURSE"
    },
    {
      "alignedWord": "this",
      "case": "success",
      "end": 12.780000000000001,
      "endOffset": 261,
      "phones": [
        {
          "duration": 0.02,
          "phone": "dh_B"
        },
        {
          "duration": 0.05,
          "phone": "ih_I"
        },
        {
          "duration": 0.08,
          "phone": "s_E"
        }
      ],
      "start": 12.63,
      "startOffset": 257,
      "word": "THIS"
    },
    {
      "alignedWord": "evidence",
      "case": "success",
      "end": 13.239999,
      "endOffset": 270,
      "phones": [
        {
          "duration": 0.08,
          "phone": "eh_B"
        },
        {
          "duration": 0.04,
          "phone": "v_I"
        },
        {
          "duration": 0.1,
          "phone": "ah_I"
        },
        {
          "duration": 0.01,
          "phone": "d_I"
        },
        {
          "duration": 0.05,
          "phone": "ah_I"
        },
        {
          "duration": 0.06,
          "phone": "n_I"
        },
        {
          "duration": 0.09,
          "phone": "s_E"
        }
      ],
      "start": 12.809999,
      "startOffset": 262,
      "word": "EVIDENCE"
    },
    {
      "alignedWord": "was",
      "case": "success",
      "end": 13.4,
      "endOffset": 274,
      "phones": [
        {
          "duration": 0.04,
          "phone": "w_B"
        },
        {
          "duration": 0.06,
          "phone": "ah_I"
        },
        {
          "duration": 0.06,
          "phone": "z_E"
        }
      ],
      "start": 13.24,
      "startOffset": 271,
      "word": "WAS"
    },
    {
      "alignedWord": "of",
      "case": "success",
      "end": 13.53,
      "endOffset": 277,
      "phones": [
        {
          "duration": 0.05,
          "phone": "ah_B"
        },
        {
          "duration": 0.07,
          "phone": "v_E"
        }
      ],
      "start": 13.41,
      "startOffset": 275,
      "word": "OF"
    },
    {
      "alignedWord": "the",
      "case": "success",
      "end": 13.59,
      "endOffset": 281,
      "phones": [
        {
          "duration": 0.01,
          "phone": "dh_B"
        },
        {
          "duration": 0.05,
          "phone": "ah_E"
        }
      ],
      "start": 13.53,
      "startOffset": 278,
      "word": "THE"
    },
    {
      "alignedWord": "most",
      "case": "success",
      "end": 13.879999999999999,
      "endOffset": 286,
      "phones": [
        {
          "duration": 0.06,
          "phone": "m_B"
        },
        {
          "duration": 0.08,
          "phone": "ow_I"
        },
        {
          "duration": 0.08,
          "phone": "s_I"
        },
        {
          "duration": 0.07,
          "phone": "t_E"
        }
      ],
      "start": 13.59,
      "startOffset": 282,
      "word": "MOST"
    },
    {
      "alignedWord": "vague",
      "case": "success",
      "end": 14.24,
      "endOffset": 292,
      "phones": [
        {
          "duration": 0.1,
          "phone": "v_B"
        },
        {
          "duration": 0.18,
          "phone": "ey_I"
        },
        {
          "duration": 0.08,
          "phone": "g_E"
        }
      ],
      "start": 13.88,
      "startOffset": 287,
      "word": "VAGUE"
    },
    {
      "alignedWord": "and",
      "case": "success",
      "end": 14.370000000000001,
      "endOffset": 296,
      "phones": [
        {
          "duration": 0.06,
          "phone": "ah_B"
        },
        {
          "duration": 0.03,
          "phone": "n_I"
        },
        {
          "duration": 0.04,
          "phone": "d_E"
        }
      ],
      "start": 14.24,
      "startOffset": 293,
      "word": "AND"
    },
    {
      "alignedWord": "inconclusive",
      "case": "success",
      "end": 15.09,
      "endOffset": 309,
      "phones": [
        {
          "duration": 0.09,
          "phone": "ih_B"
        },
        {
          "duration": 0.09,
          "phone": "n_I"
        },
        {
          "duration": 0.07,
          "phone": "k_I"
        },
        {
          "duration": 0.01,
          "phone": "ah_I"
        },
        {
          "duration": 0.08,
          "phone": "n_I"
        },
        {
          "duration": 0.07,
          "phone": "k_I"
        },
        {
          "duration": 0.06,
          "phone": "l_I"
        },
        {
          "duration": 0.06,
          "phone": "uw_I"
        },
        {
          "duration": 0.05,
          "phone": "s_I"
        },
        {
          "duration": 0.06,
          "phone": "ih_I"
        },
        {
          "duration": 0.07,
          "phone": "v_E"
        }
      ],
      "start": 14.38,
      "startOffset": 297,
      "word": "INCONCLUSIVE"
    },
    {
      "alignedWord": "character",
      "case": "success",
      "end": 15.649999000000001,
      "endOffset": 319,
      "phones": [
        {
          "duration": 0.09,
          "phone": "k_B"
        },
        {
          "duration": 0.08,
          "phone": "eh_I"
        },
        {
          "duration": 0.07,
          "phone": "r_I"
        },
        {
          "duration": 0.05,
          "phone": "ih_I"
        },
        {
          "duration": 0.03,
          "phone": "k_I"
        },
        {
          "duration": 0.08,
          "phone": "t_I"
        },
        {
          "duration": 0.16,
          "phone": "er_E"
        }
      ],
      "start": 15.089999,
      "startOffset": 310,
      "word": "CHARACTER"
    }
  ]
}