{
  "transcript": "TRADITIONS TEACHINGS EDUCATION ENVIRONMENT OF GENERATIONS OF THINKING HAVE DISFIGURED MORALLY BROKEN SIN BURDENED HUMANITY ALL ARE THOUGHT CREATED CONDITIONS THOUGHT MADE LIMITATIONS",
  "words": [
    {
      "alignedWord": "traditions",
      "case": "success",
      "end": 1.29,
      "endOffset": 10,
      "phones": [
        {
          "duration": 0.09,
          "phone": "t_B"
        },
        {
          "duration": 0.02,
          "phone": "r_I"
        },
        {
          "duration": 0.06,
          "phone": "ah_I"
        },
        {
          "duration": 0.09,
          "phone": "d_I"
        },
        {
          "duration": 0.1,
          "phone": "ih_I"
        },
        {
          "duration": 0.14,
          "phone": "sh_I"
        },
        {
          "duration": 0.09,
          "phone": "ah_I"
        },
        {
          "duration": 0.08,
          "phone": "n_I"
        },
        {
          "duration": 0.13,
          "phone": "z_E"
        }
      ],
      "start": 0.49,
      "startOffset": 0,
      "word": "TRADITIONS"
    },
    {
      "alignedWord": "teachings",
      "case": "success",
      "end": 1.96,
      "endOffset": 20,
      "phones": [
        {
          "duration": 0.13,
          "phone": "t_B"
        },
        {
          "duration": 0.11,
          "phone": "iy_I"
        },
        {
          "duration": 0.11,
          "phone": "ch_I"
        },
        {
          "duration": 0.11,
          "phone": "ih_I"
        },
        {
          "duration": 0.09,
          "phone": "ng_I"
        },
        {
          "duration": 0.1,
          "phone": "z_E"
        }
      ],
      "start": 1.31,
      "startOffset": 11,
      "word": "TEACHINGS"
    },
    {
      "alignedWord": "education",
      "case": "success",
      "end": 2.9099999999999997,
      "endOffset": 30,
      "phones": [
        {
          "duration": 0.11,
          "phone": "eh_B"
        },
        {
          "duration": 0.12,
          "phone": "jh_I"
        },
        {
          "duration": 0.02,
          "phone": "ah_I"
        },
        {
          "duration": 0.14,
          "phone": "k_I"
        },
        {
          "duration": 0.14,
          "phone": "ey_I"
        },
        {
          "duration": 0.14,
          "phone": "sh_I"
        },
        {
          "duration": 0.09,
          "phone": "ah_I"
        },
        {
          "duration": 0.12,
          "phone": "n_E"
        }
      ],
      "start": 2.03,
      "startOffset": 21,
      "word": "EDUCATION"
    },
    {
      "alignedWord": "environment",
      "case": "success",
      "end": 4.14,
      "endOffset": 42,
      "phones": [
        {
          "duration": 0.12,
          "phone": "ih_B"
        },
        {
          "duration": 0.05,
          "phone": "n_I"
        },
        {
          "duration": 0.1,
          "phone": "v_I"
        },
        {
          "duration": 0.17,
          "phone": "ay_I"
        },
        {
          "duration": 0.07,
          "phone": "r_I"
        },
        {
          "duration": 0.03,
          "phone": "ah_I"
        },
        {
          "duration": 0.07,
          "phone": "n_I"
        },
        {
          "duration": 0.01,
          "phone": "m_I"
        },
        {
          "duration": 0.08,
          "phone": "ah_I"
        },
        {
          "duration": 0.05,
          "phone": "n_I"
        },
        {
          "duration": 0.08,
          "phone": "t_E"
        }
      ],
      "start": 3.31,
      "startOffset": 31,
      "word": "ENVIRONMENT"
    },
    {
      "alignedWord": "of",
      "case": "success",
      "end": 4.26,
      "endOffset": 45,
      "phones": [
        {
          "duration": 0.04,
          "phone": "ah_B"
        },
        {
          "duration": 0.08,
          "phone": "v_E"
        }
      ],
      "start": 4.14,
      "startOffset": 43,
      "word": "OF"
    },
    {
      "alignedWord": "generations",
      "case": "success",
      "end": 5.01,
      "endOffset": 57,
      "phones": [
        {
          "duration": 0.1,
          "phone": "jh_B"
        },
        {
          "duration": 0.06,
          "phone": "eh_I"
        },
        {
          "duration": 0.07,
          "phone": "n_I"
        },
        {
          "duration": 0.14,
          "phone": "er_I"
        },
        {
          "duration": 0.12,
          "phone": "ey_I"
        },
        {
          "duration": 0.12,
          "phone": "sh_I"
        },
        {
          "duration": 0.05,
          "phone": "ah_I"
        },
        {
          "duration": 0.05,
          "phone": "n_I"
        },
        {
          "duration": 0.04,
          "phone": "z_E"
        }
      ],
      "start": 4.26,
      "startOffset": 46,
      "word": "GENERATIONS"
    },
    {
      "alignedWord": "of",
      "case": "success",
      "end": 5.16,
      "endOffset": 60,
      "phones": [
        {
          "duration": 0.07,
          "phone": "ah_B"
        },
        {
          "duration": 0.08,
          "phone": "v_E"
        }
      ],
      "start": 5.01,
      "startOffset": 58,
      "word": "OF"
    },
    {
      "alignedWord": "thinking",
      "case": "success",
      "end": 5.720000000000001,
      "endOffset": 69,
      "phones": [
        {
          "duration": 0.08,
          "phone": "th_B"
        },
        {
          "duration": 0.08,
          "phone": "ih_I"
        },
        {
          "duration": 0.07,
          "phone": "ng_I"
        },
        {
          "duration": 0.06,
          "phone": "k_I"
        },
        {
          "duration": 0.1,
          "phone": "ih_I"
        },
        {
          "duration": 0.17,
          "phone": "ng_E"
        }
      ],
      "start": 5.16,
      "startOffset": 61,
      "word": "THINKING"
    },
    {
      "alignedWord": "have",
      "case": "success",
      "end": 6.19,
      "endOffset": 74,
      "phones": [
        {
          "duration": 0.08,
          "phone": "hh_B"
        },
        {
          "duration": 0.05,
          "phone": "ae_I"
        },
        {
          "duration": 0.06,
          "phone": "v_E"
        }
      ],
      "start": 6.0,
      "startOffset": 70,
      "word": "HAVE"
    },
    {
      "alignedWord": "<unk>",
      "case": "success",
      "end": 7.0200000000000005,
      "endOffset": 85,
      "phones": [
        {
          "duration": 0.83,
          "phone": "oov_S"
        }
      ],
      "start": 6.19,
      "startOffset": 75,
      "word": "DISFIGURED"
    },
    {
      "alignedWord": "morally",
      "case": "success",
      "end": 7.83,
      "endOffset": 93,
      "phones": [
        {
          "duration": 0.1,
          "phone": "m_B"
        },
        {
          "duration": 0.1,
          "phone": "ao_I"
        },
        {
          "duration": 0.08,
          "phone": "r_I"
        },
        {
          "duration": 0.1,
          "phone": "ah_I"
        },
        {
          "duration": 0.08,
          "phone": "l_I"
        },
        {
          "duration": 0.08,
          "phone": "iy_E"
        }
      ],
      "start": 7.29,
      "startOffset": 86,
      "word": "MORALLY"
    },
    {
      "alignedWord": "broken",
      "case": "success",
      "end": 8.46,
      "endOffset": 100,
      "phones": [
        {
          "duration": 0.08,
          "phone": "b_B"
        },
        {
          "duration": 0.06,
          "phone": "r_I"
        },
        {
          "duration": 0.13,
          "phone": "ow_I"
        },
        {
          "duration": 0.1,
          "phone": "k_I"
        },
        {
          "duration": 0.1,
          "phone": "ah_I"
        },
        {
          "duration": 0.16,
          "phone": "n_E"
        }
      ],
      "start": 7.83,
      "startOffset": 94,
      "word": "BROKEN"
    },
    {
      "alignedWord": "sin",
      "case": "success",
      "end": 9.18,
      "endOffset": 104,
      "phones": [
        {
          "duration": 0.16,
          "phone": "s_B"
        },
        {
          "duration": 0.11,
          "phone": "ih_I"
        },
        {
          "duration": 0.12,
          "phone": "n_E"
        }
      ],
      "start": 8.79,
      "startOffset": 101,
      "word": "SIN"
    },
    {
      "alignedWord": "burdened",
      "case": "success",
      "end": 9.569999000000001,
      "endOffset": 113,
      "phones": [
        {
          "duration": 0.08,
          "phone": "b_B"
        },
        {
          "duration": 0.11,
          "phone": "er_I"
        },
        {
          "duration": 0.05,
          "phone": "d_I"
        },
        {
          "duration": 0.06,
          "phone": "ah_I"
        },
        {
          "duration": 0.01,
          "phone": "n_I"
        },
        {
          "duration": 0.08,
          "phone": "d_E"
        }
      ],
      "start": 9.179999,
      "startOffset": 105,
      "word": "BURDENED"
    },
    {
      "alignedWord": "humanity",
      "case": "success",
      "end": 10.36,
      "endOffset": 122,
      "phones": [
        {
          "duration": 0.06,
          "phone": "hh_B"
        },
        {
          "duration": 0.05,
          "phone": "y_I"
        },
        {
          "duration": 0.05,
          "phone": "uw_I"
        },
        {
          "duration": 0.08,
          "phone": "m_I"
        },
        {
          "duration": 0.14,
          "phone": "ae_I"
        },
        {
          "duration": 0.04,
          "phone": "n_I"
        },
        {
          "duration": 0.08,
          "phone": "ih_I"
        },
        {
          "duration": 0.06,
          "phone": "t_I"
        },
        {
          "duration": 0.22,
          "phone": "iy_E"
        }
      ],
      "start": 9.58,
      "startOffset": 114,
      "word": "HUMANITY"
    },
    {
      "alignedWord": "all",
      "case": "success",
      "end": 11.56,
      "endOffset": 126,
      "phones": [
        {
          "duration": 0.2,
          "phone": "ao_B"
        },
        {
          "duration": 0.11,
          "phone": "l_E"
        }
      ],
      "start": 11.25,
      "startOffset": 123,
      "word": "ALL"
    },
    {
      "alignedWord": "are",
      "case": "success",
      "end": 11.719999,
      "endOffset": 130,
      "phones": [
        {
          "duration": 0.07,
          "phone": "aa_B"
        },
        {
          "duration": 0.09,
          "phone": "r_E"
        }
      ],
      "start": 11.559999,
      "startOffset": 127,
      "word": "ARE"
    },
    {
      "alignedWord": "thought",
      "case": "success",
      "end": 12.039999,
      "endOffset": 138,
      "phones": [
        {
          "duration": 0.13,
          "phone": "th_B"
        },
        {
          "duration": 0.13,
          "phone": "ao_I"
        },
        {
          "duration": 0.06,
          "phone": "t_E"
        }
      ],
      "start": 11.719999,
      "startOffset": 131,
      "word": "THOUGHT"
    },
    {
      "alignedWord": "created",
      "case": "success",
      "end": 12.49,
      "endOffset": 146,
      "phones": [
        {
          "duration": 0.08,
          "phone": "k_B"
        },
        {
          "duration": 0.06,
          "phone": "r_I"
        },
        {
          "duration": 0.09,
          "phone": "iy_I"
        },
        {
          "duration": 0.07,
          "phone": "ey_I"
        },
        {
          "duration": 0.06,
          "phone": "t_I"
        },
        {
          "duration": 0.04,
          "phone": "ih_I"
        },
        {
          "duration": 0.04,
          "phone": "d_E"
        }
      ],
      "start": 12.05,
      "startOffset": 139,
      "word": "CREATED"
    },
    {
      "alignedWord": "conditions",
      "case": "success",
      "end": 13.31,
      "endOffset": 157,
      "phones": [
        {
          "duration": 0.07,
          "phone": "k_B"
        },
        {
          "duration": 0.06,
          "phone": "ah_I"
        },
        {
          "duration": 0.07,
          "phone": "n_I"
        },
        {
          "duration": 0.03,
          "phone": "d_I"
        },
        {
          "duration": 0.08,
          "phone": "ih_I"
        },
        {
          "duration": 0.14,
          "phone": "sh_I"
        },
        {
          "duration": 0.09,
          "phone": "ah_I"
        },
        {
          "duration": 0.06,
          "phone": "n_I"
        },
        {
          "duration": 0.21,
          "phone": "z_E"
        }
      ],
      "start": 12.5,
      "startOffset": 147,
      "word": "CONDITIONS"
    },
    {
      "alignedWord": "thought",
      "case": "success",
      "end": 14.109999,
      "endOffset": 165,
      "phones": [
        {
          "duration": 0.1,
          "phone": "th_B"
        },
        {
          "duration": 0.13,
          "phone": "ao_I"
        },
        {
          "duration": 0.08,
          "phone": "t_E"
        }
      ],
      "start": 13.799999,
      "startOffset": 158,
      "word": "THOUGHT"
    },
    {
      "alignedWord": "made",
      "case": "success",
      "end": 14.43,
      "endOffset": 170,
      "phones": [
        {
          "duration": 0.1,
          "phone": "m_B"
        },
        {
          "duration": 0.14,
          "phone": "ey_I"
        },
        {
          "duration": 0.08,
          "phone": "d_E"
        }
      ],
      "start": 14.11,
      "startOffset": 166,
      "word": "MADE"
    },
    {
      "alignedWord": "limitations",
      "case": "success",
      "end": 15.389999,
      "endOffset": 182,
      "phones": [
        {
          "duration": 0.06,
          "phone": "l_B"
        },
        {
          "duration": 0.08,
          "phone": "ih_I"
        },
        {
          "duration": 0.04,
          "phone": "m_I"
        },
        {
          "duration": 0.08,
          "phone": "ih_I"
        },
        {
          "duration": 0.12,
          "phone": "t_I"
        },
        {
          "duration": 0.16,
          "phone": "ey_I"
        },
        {
          "duration": 0.13,
          "phone": "sh_I"
        },
        {
          "duration": 0.08,
          "phone": "ah_I"
        },
        {
          "duration": 0.07,
          "phone": "n_I"
        },
        {
          "duration": 0.14,
          "phone": "z_E"
        }
      ],
      "start": 14.429999,
      "startOffset": 171,
      "word": "LIMITATIONS"
    }
  ]
}