{
  "transcript": "HE VIVIDLY IMAGINED WHAT THE MOSQUITOES BUZZED THIS WAY THIS WAY LADS HERE'S SOME ONE WE CAN EAT THEY BUZZED AND STUCK TO HIM AND IT WAS CLEAR TO HIM THAT HE WAS NOT A RUSSIAN NOBLEMAN A MEMBER OF MOSCOW SOCIETY",
  "words": [
    {
      "alignedWord": "he",
      "case": "success",
      "end": 0.51,
      "endOffset": 2,
      "phones": [
        {
          "duration": 0.15,
          "phone": "hh_B"
        },
        {
          "duration": 0.09,
          "phone": "iy_E"
        }
      ],
      "start": 0.27,
      "startOffset": 0,
      "word": "HE"
    },
    {
      "alignedWord": "vividly",
      "case": "success",
      "end": 1.04,
      "endOffset": 10,
      "phones": [
        {
          "duration": 0.08,
          "phone": "v_B"
        },
        {
          "duration": 0.07,
          "phone": "ih_I"
        },
        {
          "duration": 0.07,
          "phone": "v_I"
        },
        {
          "duration": 0.07,
          "phone": "ah_I"
        },
        {
          "duration": 0.07,
          "phone": "d_I"
        },
        {
          "duration": 0.07,
          "phone": "l_I"
        },
        {
          "duration": 0.09,
          "phone": "iy_E"
        }
      ],
      "start": 0.52,
      "startOffset": 3,
      "word": "VIVIDLY"
    },
    {
      "alignedWord": "imagined",
      "case": "success",
      "end": 1.6400000000000001,
      "endOffset": 19,
      "phones": [
        {
          "duration": 0.06,
          "phone": "ih_B"
        },
        {
          "duration": 0.1,
          "phone": "m_I"
        },
        {
          "duration": 0.13,
          "phone": "ae_I"
        },
        {
          "duration": 0.09,
          "phone": "jh_I"
        },
        {
          "duration": 0.06,
          "phone": "ah_I"
        },
        {
          "duration": 0.08,
          "phone": "n_I"
        },
        {
          "duration": 0.08,
          "phone": "d_E"
        }
      ],
      "start": 1.04,
      "startOffset": 11,
      "word": "IMAGINED"
    },
    {
      "alignedWord": "what",
      "case": "success",
      "end": 1.8399999999999999,
      "endOffset": 24,
      "phones": [
        {
          "duration": 0.08,
          "phone": "w_B"
        },
        {
          "duration": 0.06,
          "phone": "ah_I"
        },
        {
          "duration": 0.06,
          "phone": "t_E"
        }
      ],
      "start": 1.64,
      "startOffset": 20,
      "word": "WHAT"
    },
    {
      "alignedWord": "the",
      "case": "success",
      "end": 1.9400000000000002,
      "endOffset": 28,
      "phones": [
        {
          "duration": 0.04,
          "phone": "dh_B"
        },
        {
          "duration": 0.06,
          "phone": "ah_E"
        }
      ],
      "start": 1.84,
      "startOffset": 25,
      "word": "THE"
    },
    {
      "alignedWord": "mosquitoes",
      "case": "success",
      "end": 2.63,
      "endOffset": 39,
      "phones": [
        {
          "duration": 0.07,
          "phone": "m_B"
        },
        {
          "duration": 0.05,
          "phone": "ah_I"
        },
        {
          "duration": 0.12,
          "phone": "s_I"
        },
        {
          "duration": 0.08,
          "phone": "k_I"
        },
        {
          "duration": 0.07,
          "phone": "iy_I"
        },
        {
          "duration": 0.1,
          "phone": "t_I"
        },
        {
          "duration": 0.08,
          "phone": "ow_I"
        },
        {
          "duration": 0.12,
          "phone": "z_E"
        }
      ],
      "start": 1.94,
      "startOffset": 29,
      "word": "MOSQUITOES"
    },
    {
      "alignedWord": "buzzed",
      "case": "success",
      "end": 3.29,
      "endOffset": 46,
      "phones": [
        {
          "duration": 0.09,
          "phone": "b_B"
        },
        {
          "duration": 0.13,
          "phone": "ah_I"
        },
        {
          "duration": 0.2,
          "phone": "z_I"
        },
        {
          "duration": 0.21,
          "phone": "d_E"
        }
      ],
      "start": 2.66,
      "startOffset": 40,
      "word": "BUZZED"
    },
    {
      "alignedWord": "this",
      "case": "success",
      "end": 3.96,
      "endOffset": 51,
      "phones": [
        {
          "duration": 0.1,
          "phone": "dh_B"
        },
        {
          "duration": 0.09,
          "phone": "ih_I"
        },
        {
          "duration": 0.14,
          "phone": "s_E"
        }
      ],
      "start": 3.63,
      "startOffset": 47,
      "word": "THIS"
    },
    {
      "alignedWord": "way",
      "case": "success",
      "end": 4.19,
      "endOffset": 55,
      "phones": [
        {
          "duration": 0.09,
          "phone": "w_B"
        },
        {
          "duration": 0.14,
          "phone": "ey_E"
        }
      ],
      "start": 3.96,
      "startOffset": 52,
      "word": "WAY"
    },
    {
      "alignedWord": "this",
      "case": "success",
      "end": 4.5,
      "endOffset": 60,
      "phones": [
        {
          "duration": 0.06,
          "phone": "dh_B"
        },
        {
          "duration": 0.11,
          "phone": "ih_I"
        },
        {
          "duration": 0.12,
          "phone": "s_E"
        }
      ],
      "start": 4.21,
      "startOffset": 56,
      "word": "THIS"
    },
    {
      "alignedWord": "way",
      "case": "success",
      "end": 4.75,
      "endOffset": 64,
      "phones": [
        {
          "duration": 0.1,
          "phone": "w_B"
        },
        {
          "duration": 0.15,
          "phone": "ey_E"
        }
      ],
      "start": 4.5,
      "startOffset": 61,
      "word": "WAY"
    },
    {
      "alignedWord": "<unk>",
      "case": "success",
      "end": 5.41,
      "endOffset": 69,
      "phones": [
        {
          "duration": 0.65,
          "phone": "oov_S"
        }
      ],
      "start": 4.76,
      "startOffset": 65,
      "word": "LADS"
    },
    {
      "alignedWord": "here's",
      "case": "success",
      "end": 5.989999999999999,
      "endOffset": 76,
      "phones": [
        {
          "duration": 0.13,
          "phone": "hh_B"
        },
        {
          "duration": 0.08,
          "phone": "ih_I"
        },
        {
          "duration": 0.06,
          "phone": "r_I"
        },
        {
          "duration": 0.08,
          "phone": "z_E"
        }
      ],
      "start": 5.64,
      "startOffset": 70,
      "word": "HERE'S"
    },
    {
      "alignedWord": "some",
      "case": "success",
      "end": 6.28,
      "endOffset": 81,
      "phones": [
        {
          "duration": 0.13,
          "phone": "s_B"
        },
        {
          "duration": 0.08,
          "phone": "ah_I"
        },
        {
          "duration": 0.07,
          "phone": "m_E"
        }
      ],
      "start": 6.0,
      "startOffset": 77,
      "word": "SOME"
    },
    {
      "alignedWord": "one",
      "case": "success",
      "end": 6.5200000000000005,
      "endOffset": 85,
      "phones": [
        {
          "duration": 0.05,
          "phone": "w_B"
        },
        {
          "duration": 0.08,
          "phone": "ah_I"
        },
        {
          "duration": 0.11,
          "phone": "n_E"
        }
      ],
      "start": 6.28,
      "startOffset": 82,
      "word": "ONE"
    },
    {
      "alignedWord": "we",
      "case": "success",
      "end": 6.64,
      "endOffset": 88,
      "phones": [
        {
          "duration": 0.04,
          "phone": "w_B"
        },
        {
          "duration": 0.08,
          "phone": "iy_E"
        }
      ],
      "start": 6.52,
      "startOffset": 86,
      "word": "WE"
    },
    {
      "alignedWord": "can",
      "case": "success",
      "end": 6.83,
      "endOffset": 92,
      "phones": [
        {
          "duration": 0.04,
          "phone": "k_B"
        },
        {
          "duration": 0.05,
          "phone": "ah_I"
        },
        {
          "duration": 0.1,
          "phone": "n_E"
        }
      ],
      "start": 6.64,
      "startOffset": 89,
      "word": "CAN"
    },
    {
      "alignedWord": "eat",
      "case": "success",
      "end": 7.19,
      "endOffset": 96,
      "phones": [
        {
          "duration": 0.14,
          "phone": "iy_B"
        },
        {
          "duration": 0.22,
          "phone": "t_E"
        }
      ],
      "start": 6.83,
      "startOffset": 93,
      "word": "EAT"
    },
    {
      "alignedWord": "they",
      "case": "success",
      "end": 7.83,
      "endOffset": 101,
      "phones": [
        {
          "duration": 0.09,
          "phone": "dh_B"
        },
        {
          "duration": 0.15,
          "phone": "ey_E"
        }
      ],
      "start": 7.59,
      "startOffset": 97,
      "word": "THEY"
    },
    {
      "alignedWord": "buzzed",
      "case": "success",
      "end": 8.370000000000001,
      "endOffset": 108,
      "phones": [
        {
          "duration": 0.09,
          "phone": "b_B"
        },
        {
          "duration": 0.18,
          "phone": "ah_I"
        },
        {
          "duration": 0.18,
          "phone": "z_I"
        },
        {
          "duration": 0.06,
          "phone": "d_E"
        }
      ],
      "start": 7.86,
      "startOffset": 102,
      "word": "BUZZED"
    },
    {
      "alignedWord": "and",
      "case": "success",
      "end": 8.569999999999999,
      "endOffset": 112,
      "phones": [
        {
          "duration": 0.05,
          "phone": "ae_B"
        },
        {
          "duration": 0.08,
          "phone": "n_I"
        },
        {
          "duration": 0.07,
          "phone": "d_E"
        }
      ],
      "start": 8.37,
      "startOffset": 109,
      "word": "AND"
    },
    {
      "alignedWord": "stuck",
      "case": "success",
      "end": 8.92,
      "endOffset": 118,
      "phones": [
        {
          "duration": 0.13,
          "phone": "s_B"
        },
        {
          "duration": 0.07,
          "phone": "t_I"
        },
        {
          "duration": 0.07,
          "phone": "ah_I"
        },
        {
          "duration": 0.07,
          "phone": "k_E"
        }
      ],
      "start": 8.58,
      "startOffset": 113,
      "word": "STUCK"
    },
    {
      "alignedWord": "to",
      "case": "success",
      "end": 9.05,
      "endOffset": 121,
      "phones": [
        {
          "duration": 0.05,
          "phone": "t_B"
        },
        {
          "duration": 0.08,
          "phone": "ih_E"
        }
      ],
      "start": 8.92,
      "startOffset": 119,
      "word": "TO"
    },
    {
      "alignedWord": "him",
      "case": "success",
      "end": 9.34,
      "endOffset": 125,
      "phones": [
        {
          "duration": 0.04,
          "phone": "hh_B"
        },
        {
          "duration": 0.09,
          "phone": "ih_I"
        },
        {
          "duration": 0.16,
          "phone": "m_E"
        }
      ],
      "start": 9.05,
      "startOffset": 122,
      "word": "HIM"
    },
    {
      "alignedWord": "and",
      "case": "success",
      "end": 9.87,
      "endOffset": 129,
      "phones": [
        {
          "duration": 0.08,
          "phone": "ae_B"
        },
        {
          "duration": 0.06,
          "phone": "n_I"
        },
        {
          "duration": 0.04,
          "phone": "d_E"
        }
      ],
      "start": 9.69,
      "startOffset": 126,
      "word": "AND"
    },
    {
      "alignedWord": "it",
      "case": "success",
      "end": 9.969999999999999,
      "endOffset": 132,
      "phones": [
        {
          "duration": 0.03,
          "phone": "ih_B"
        },
        {
          "duration": 0.07,
          "phone": "t_E"
        }
      ],
      "start": 9.87,
      "startOffset": 130,
      "word": "IT"
    },
    {
      "alignedWord": "was",
      "case": "success",
      "end": 10.199999,
      "endOffset": 136,
      "phones": [
        {
          "duration": 0.05,
          "phone": "w_B"
        },
        {
          "duration": 0.07,
          "phone": "ah_I"
        },
        {
          "duration": 0.11,
          "phone": "z_E"
        }
      ],
      "start": 9.969999,
      "startOffset": 133,
      "word": "WAS"
    },
    {
      "alignedWord": "clear",
      "case": "success",
      "end": 10.489999999999998,
      "endOffset": 142,
      "phones": [
        {
          "duration": 0.09,
          "phone": "k_B"
        },
        {
          "duration": 0.06,
          "phone": "l_I"
        },
        {
          "duration": 0.06,
          "phone": "ih_I"
        },
        {
          "duration": 0.08,
          "phone": "r_E"
        }
      ],
      "start": 10.2,
      "startOffset": 137,
      "word": "CLEAR"
    },
    {
      "alignedWord": "to",
      "case": "success",
      "end": 10.64,
      "endOffset": 145,
      "phones": [
        {
          "duration": 0.06,
          "phone": "t_B"
        },
        {
          "duration": 0.09,
          "phone": "ih_E"
        }
      ],
      "start": 10.49,
      "startOffset": 143,
      "word": "TO"
    },
    {
      "alignedWord": "him",
      "case": "success",
      "end": 10.929998999999999,
      "endOffset": 149,
      "phones": [
        {
          "duration": 0.05,
          "phone": "hh_B"
        },
        {
          "duration": 0.1,
          "phone": "ih_I"
        },
        {
          "duration": 0.14,
          "phone": "m_E"
        }
      ],
      "start": 10.639999,
      "startOffset": 146,
      "word": "HIM"
    },
    {
      "alignedWord": "that",
      "case": "success",
      "end": 11.12,
      "endOffset": 154,
      "phones": [
        {
          "duration": 0.07,
          "phone": "dh_B"
        },
        {
          "duration": 0.06,
          "phone": "ah_I"
        },
        {
          "duration": 0.05,
          "phone": "t_E"
        }
      ],
      "start": 10.94,
      "startOffset": 150,
      "word": "THAT"
    },
    {
      "alignedWord": "he",
      "case": "success",
      "end": 11.239999999999998,
      "endOffset": 157,
      "phones": [
        {
          "duration": 0.05,
          "phone": "hh_B"
        },
        {
          "duration": 0.07,
          "phone": "iy_E"
        }
      ],
      "start": 11.12,
      "startOffset": 155,
      "word": "HE"
    },
    {
      "alignedWord": "was",
      "case": "success",
      "end": 11.47,
      "endOffset": 161,
      "phones": [
        {
          "duration": 0.08,
          "phone": "w_B"
        },
        {
          "duration": 0.07,
          "phone": "ah_I"
        },
        {
          "duration": 0.08,
          "phone": "z_E"
        }
      ],
      "start": 11.24,
      "startOffset": 158,
      "word": "WAS"
    },
    {
      "alignedWord": "not",
      "case": "success",
      "end": 11.819999,
      "endOffset": 165,
      "phones": [
        {
          "duration": 0.08,
          "phone": "n_B"
        },
        {
          "duration": 0.16,
          "phone": "aa_I"
        },
        {
          "duration": 0.11,
          "phone": "t_E"
        }
      ],
      "start": 11.469999,
      "startOffset": 162,
      "word": "NOT"
    },
    {
      "alignedWord": "a",
      "case": "success",
      "end": 11.959999,
      "endOffset": 167,
      "phones": [
        {
          "duration": 0.11,
          "phone": "ah_S"
        }
      ],
      "start": 11.849999,
      "startOffset": 166,
      "word": "A"
    },
    {
      "alignedWord": "russian",
      "case": "success",
      "end": 12.39,
      "endOffset": 175,
      "phones": [
        {
          "duration": 0.12,
          "phone": "r_B"
        },
        {
          "duration": 0.04,
          "phone": "ah_I"
        },
        {
          "duration": 0.1,
          "phone": "sh_I"
        },
        {
          "duration": 0.07,
          "phone": "ah_I"
        },
        {
          "duration": 0.1,
          "phone": "n_E"
        }
      ],
      "start": 11.96,
      "startOffset": 168,
      "word": "RUSSIAN"
    },
    {
      "alignedWord": "<unk>",
      "case": "success",
      "end": 12.97,
      "endOffset": 184,
      "phones": [
        {
          "duration": 0.57,
          "phone": "oov_S"
        }
      ],
      "start": 12.4,
      "startOffset": 176,
      "word": "NOBLEMAN"
    },
    {
      "alignedWord": "a",
      "case": "success",
      "end": 13.26,
      "endOffset": 186,
      "phones": [
        {
          "duration": 0.14,
          "phone": "ah_S"
        }
      ],
      "start": 13.12,
      "startOffset": 185,
      "word": "A"
    },
    {
      "alignedWord": "member",
      "case": "success",
      "end": 13.719999000000001,
      "endOffset": 193,
      "phones": [
        {
          "duration": 0.12,
          "phone": "m_B"
        },
        {
          "duration": 0.09,
          "phone": "eh_I"
        },
        {
          "duration": 0.07,
          "phone": "m_I"
        },
        {
          "duration": 0.08,
          "phone": "b_I"
        },
        {
          "duration": 0.1,
          "phone": "er_E"
        }
      ],
      "start": 13.259999,
      "startOffset": 187,
      "word": "MEMBER"
    },
    {
      "alignedWord": "of",
      "case": "success",
      "end": 13.839998999999999,
      "endOffset": 196,
      "phones": [
        {
          "duration": 0.06,
          "phone": "ah_B"
        },
        {
          "duration": 0.06,
          "phone": "v_E"
        }
      ],
      "start": 13.719999,
      "startOffset": 194,
      "word": "OF"
    },
    {
      "alignedWord": "moscow",
      "case": "success",
      "end": 14.41,
      "endOffset": 203,
      "phones": [
        {
          "duration": 0.11,
          "phone": "m_B"
        },
        {
          "duration": 0.12,
          "phone": "aa_I"
        },
        {
          "duration": 0.1,
          "phone": "s_I"
        },
        {
          "duration": 0.08,
          "phone": "k_I"
        },
        {
          "duration": 0.14,
          "phone": "ow_E"
        }
      ],
      "start": 13.86,
      "startOffset": 197,
      "word": "MOSCOW"
    },
    {
      "alignedWord": "society",
      "case": "success",
      "end": 15.119999,
      "endOffset": 211,
      "phones": [
        {
          "duration": 0.07,
          "phone": "s_B"
        },
        {
          "duration": 0.06,
          "phone": "ah_I"
        },
        {
          "duration": 0.14,
          "phone": "s_I"
        },
        {
          "duration": 0.17,
          "phone": "ay_I"
        },
        {
          "duration": 0.08,
          "phone": "ah_I"
        },
        {
          "duration": 0.08,
          "phone": "t_I"
        },
        {
          "duration": 0.09,
          "phone": "iy_E"
        }
      ],
      "start": 14.429999,
      "startOffset": 204,
      "word": "SOCIETY"
    }
  ]
}