{
  "transcript": "HE WAS SO GLAD AND EXCITED WHEN HE HAD DISCOVERED THIS AS IT SEEMED TO HIM NEW TRUTH THAT HE JUMPED UP AND BEGAN IMPATIENTLY SEEKING SOME ONE TO SACRIFICE HIMSELF FOR TO DO GOOD TO AND TO LOVE",
  "words": [
    {
      "alignedWord": "he",
      "case": "success",
      "end": 0.45,
      "endOffset": 2,
      "phones": [
        {
          "duration": 0.1,
          "phone": "hh_B"
        },
        {
          "duration": 0.08,
          "phone": "iy_E"
        }
      ],
      "start": 0.27,
      "startOffset": 0,
      "word": "HE"
    },
    {
      "alignedWord": "was",
      "case": "success",
      "end": 0.66,
      "endOffset": 6,
      "phones": [
        {
          "duration": 0.07,
          "phone": "w_B"
        },
        {
          "duration": 0.07,
          "phone": "ah_I"
        },
        {
          "duration": 0.07,
          "phone": "z_E"
        }
      ],
      "start": 0.45,
      "startOffset": 3,
      "word": "WAS"
    },
    {
      "alignedWord": "so",
      "case": "success",
      "end": 0.9400000000000001,
      "endOffset": 9,
      "phones": [
        {
          "duration": 0.12,
          "phone": "s_B"
        },
        {
          "duration": 0.16,
          "phone": "ow_E"
        }
      ],
      "start": 0.66,
      "startOffset": 7,
      "word": "SO"
    },
    {
      "alignedWord": "glad",
      "case": "success",
      "end": 1.49,
      "endOffset": 14,
      "phones": [
        {
          "duration": 0.11,
          "phone": "g_B"
        },
        {
          "duration": 0.1,
          "phone": "l_I"
        },
        {
          "duration": 0.24,
          "phone": "ae_I"
        },
        {
          "duration": 0.1,
          "phone": "d_E"
        }
      ],
      "start": 0.94,
      "startOffset": 10,
      "word": "GLAD"
    },
    {
      "alignedWord": "and",
      "case": "success",
      "end": 1.63,
      "endOffset": 18,
      "phones": [
        {
          "duration": 0.03,
          "phone": "ah_B"
        },
        {
          "duration": 0.06,
          "phone": "n_I"
        },
        {
          "duration": 0.04,
          "phone": "d_E"
        }
      ],
      "start": 1.5,
      "startOffset": 15,
      "word": "AND"
    },
    {
      "alignedWord": "excited",
      "case": "success",
      "end": 2.2199999999999998,
      "endOffset": 26,
      "phones": [
        {
          "duration": 0.04,
          "phone": "ih_B"
        },
        {
          "duration": 0.07,
          "phone": "k_I"
        },
        {
          "duration": 0.1,
          "phone": "s_I"
        },
        {
          "duration": 0.11,
          "phone": "ay_I"
        },
        {
          "duration": 0.1,
          "phone": "t_I"
        },
        {
          "duration": 0.09,
          "phone": "ih_I"
        },
        {
          "duration": 0.08,
          "phone": "d_E"
        }
      ],
      "start": 1.63,
      "startOffset": 19,
      "word": "EXCITED"
    },
    {
      "alignedWord": "when",
      "case": "success",
      "end": 2.46,
      "endOffset": 31,
      "phones": [
        {
          "duration": 0.08,
          "phone": "w_B"
        },
        {
          "duration": 0.05,
          "phone": "eh_I"
        },
        {
          "duration": 0.06,
          "phone": "n_E"
        }
      ],
      "start": 2.27,
      "startOffset": 27,
      "word": "WHEN"
    },
    {
      "alignedWord": "he",
      "case": "success",
      "end": 2.57,
      "endOffset": 34,
      "phones": [
        {
          "duration": 0.07,
          "phone": "hh_B"
        },
        {
          "duration": 0.04,
          "phone": "iy_E"
        }
      ],
      "start": 2.46,
      "startOffset": 32,
      "word": "HE"
    },
    {
      "alignedWord": "had",
      "case": "success",
      "end": 2.6999999999999997,
      "endOffset": 38,
      "phones": [
        {
          "duration": 0.01,
          "phone": "hh_B"
        },
        {
          "duration": 0.07,
          "phone": "ae_I"
        },
        {
          "duration": 0.05,
          "phone": "d_E"
        }
      ],
      "start": 2.57,
      "startOffset": 35,
      "word": "HAD"
    },
    {
      "alignedWord": "discovered",
      "case": "success",
      "end": 3.24,
      "endOffset": 49,
      "phones": [
        {
          "duration": 0.04,
          "phone": "d_B"
        },
        {
          "duration": 0.08,
          "phone": "ih_I"
        },
        {
          "duration": 0.08,
          "phone": "s_I"
        },
        {
          "duration": 0.06,
          "phone": "k_I"
        },
        {
          "duration": 0.08,
          "phone": "ah_I"
        },
        {
          "duration": 0.03,
          "phone": "v_I"
        },
        {
          "duration": 0.09,
          "phone": "er_I"
        },
        {
          "duration": 0.08,
          "phone": "d_E"
        }
      ],
      "start": 2.7,
      "startOffset": 39,
      "word": "DISCOVERED"
    },
    {
      "alignedWord": "this",
      "case": "success",
      "end": 3.5900000000000003,
      "endOffset": 54,
      "phones": [
        {
          "duration": 0.01,
          "phone": "dh_B"
        },
        {
          "duration": 0.11,
          "phone": "ih_I"
        },
        {
          "duration": 0.23,
          "phone": "s_E"
        }
      ],
      "start": 3.24,
      "startOffset": 50,
      "word": "THIS"
    },
    {
      "alignedWord": "as",
      "case": "success",
      "end": 3.8400000000000003,
      "endOffset": 57,
      "phones": [
        {
          "duration": 0.12,
          "phone": "ae_B"
        },
        {
          "duration": 0.06,
          "phone": "z_E"
        }
      ],
      "start": 3.66,
      "startOffset": 55,
      "word": "AS"
    },
    {
      "alignedWord": "it",
      "case": "success",
      "end": 3.9499999999999997,
      "endOffset": 60,
      "phones": [
        {
          "duration": 0.06,
          "phone": "ih_B"
        },
        {
          "duration": 0.05,
          "phone": "t_E"
        }
      ],
      "start": 3.84,
      "startOffset": 58,
      "word": "IT"
    },
    {
      "alignedWord": "seemed",
      "case": "success",
      "end": 4.25,
      "endOffset": 67,
      "phones": [
        {
          "duration": 0.11,
          "phone": "s_B"
        },
        {
          "duration": 0.1,
          "phone": "iy_I"
        },
        {
          "duration": 0.08,
          "phone": "m_I"
        },
        {
          "duration": 0.01,
          "phone": "d_E"
        }
      ],
      "start": 3.95,
      "startOffset": 61,
      "word": "SEEMED"
    },
    {
      "alignedWord": "to",
      "case": "success",
      "end": 4.38,
      "endOffset": 70,
      "phones": [
        {
          "duration": 0.04,
          "phone": "t_B"
        },
        {
          "duration": 0.08,
          "phone": "ih_E"
        }
      ],
      "start": 4.26,
      "startOffset": 68,
      "word": "TO"
    },
    {
      "alignedWord": "him",
      "case": "success",
      "end": 4.77,
      "endOffset": 74,
      "phones": [
        {
          "duration": 0.07,
          "phone": "hh_B"
        },
        {
          "duration": 0.13,
          "phone": "ih_I"
        },
        {
          "duration": 0.19,
          "phone": "m_E"
        }
      ],
      "start": 4.38,
      "startOffset": 71,
      "word": "HIM"
    },
    {
      "alignedWord": "new",
      "case": "success",
      "end": 5.140000000000001,
      "endOffset": 78,
      "phones": [
        {
          "duration": 0.14,
          "phone": "n_B"
        },
        {
          "duration": 0.08,
          "phone": "y_I"
        },
        {
          "duration": 0.1,
          "phone": "uw_E"
        }
      ],
      "start": 4.82,
      "startOffset": 75,
      "word": "NEW"
    },
    {
      "alignedWord": "truth",
      "case": "success",
      "end": 5.67,
      "endOffset": 84,
      "phones": [
        {
          "duration": 0.11,
          "phone": "t_B"
        },
        {
          "duration": 0.1,
          "phone": "r_I"
        },
        {
          "duration": 0.14,
          "phone": "uw_I"
        },
        {
          "duration": 0.18,
          "phone": "th_E"
        }
      ],
      "start": 5.14,
      "startOffset": 79,
      "word": "TRUTH"
    },
    {
      "alignedWord": "that",
      "case": "success",
      "end": 6.180000000000001,
      "endOffset": 89,
      "phones": [
        {
          "duration": 0.08,
          "phone": "dh_B"
        },
        {
          "duration": 0.05,
          "phone": "ae_I"
        },
        {
          "duration": 0.06,
          "phone": "t_E"
        }
      ],
      "start": 5.99,
      "startOffset": 85,
      "word": "THAT"
    },
    {
      "alignedWord": "he",
      "case": "success",
      "end": 6.35,
      "endOffset": 92,
      "phones": [
        {
          "duration": 0.06,
          "phone": "hh_B"
        },
        {
          "duration": 0.11,
          "phone": "iy_E"
        }
      ],
      "start": 6.18,
      "startOffset": 90,
      "word": "HE"
    },
    {
      "alignedWord": "jumped",
      "case": "success",
      "end": 6.739999999999999,
      "endOffset": 99,
      "phones": [
        {
          "duration": 0.09,
          "phone": "jh_B"
        },
        {
          "duration": 0.13,
          "phone": "ah_I"
        },
        {
          "duration": 0.02,
          "phone": "m_I"
        },
        {
          "duration": 0.07,
          "phone": "p_I"
        },
        {
          "duration": 0.08,
          "phone": "t_E"
        }
      ],
      "start": 6.35,
      "startOffset": 93,
      "word": "JUMPED"
    },
    {
      "alignedWord": "up",
      "case": "success",
      "end": 7.1499999999999995,
      "endOffset": 102,
      "phones": [
        {
          "duration": 0.13,
          "phone": "ah_B"
        },
        {
          "duration": 0.21,
          "phone": "p_E"
        }
      ],
      "start": 6.81,
      "startOffset": 100,
      "word": "UP"
    },
    {
      "alignedWord": "and",
      "case": "success",
      "end": 7.4799999999999995,
      "endOffset": 106,
      "phones": [
        {
          "duration": 0.1,
          "phone": "ae_B"
        },
        {
          "duration": 0.07,
          "phone": "n_I"
        },
        {
          "duration": 0.05,
          "phone": "d_E"
        }
      ],
      "start": 7.26,
      "startOffset": 103,
      "word": "AND"
    },
    {
      "alignedWord": "began",
      "case": "success",
      "end": 7.99,
      "endOffset": 112,
      "phones": [
        {
          "duration": 0.05,
          "phone": "b_B"
        },
        {
          "duration": 0.09,
          "phone": "ih_I"
        },
        {
          "duration": 0.12,
          "phone": "g_I"
        },
        {
          "duration": 0.13,
          "phone": "ae_I"
        },
        {
          "duration": 0.12,
          "phone": "n_E"
        }
      ],
      "start": 7.48,
      "startOffset": 107,
      "word": "BEGAN"
    },
    {
      "alignedWord": "<unk>",
      "case": "success",
      "end": 8.209999999999999,
      "endOffset": 124,
      "phones": [
        {
          "duration": 0.19,
          "phone": "oov_S"
        }
      ],
      "start": 8.02,
      "startOffset": 113,
      "word": "IMPATIENTLY"
    },
    {
      "alignedWord": "seeking",
      "case": "success",
      "end": 9.42,
      "endOffset": 132,
      "phones": [
        {
          "duration": 0.13,
          "phone": "s_B"
        },
        {
          "duration": 0.09,
          "phone": "iy_I"
        },
        {
          "duration": 0.06,
          "phone": "k_I"
        },
        {
          "duration": 0.08,
          "phone": "ih_I"
        },
        {
          "duration": 0.14,
          "phone": "ng_E"
        }
      ],
      "start": 8.92,
      "startOffset": 125,
      "word": "SEEKING"
    },
    {
      "alignedWord": "some",
      "case": "success",
      "end": 9.719999,
      "endOffset": 137,
      "phones": [
        {
          "duration": 0.12,
          "phone": "s_B"
        },
        {
          "duration": 0.08,
          "phone": "ah_I"
        },
        {
          "duration": 0.09,
          "phone": "m_E"
        }
      ],
      "start": 9.429999,
      "startOffset": 133,
      "word": "SOME"
    },
    {
      "alignedWord": "one",
      "case": "success",
      "end": 9.999998999999999,
      "endOffset": 141,
      "phones": [
        {
          "duration": 0.06,
          "phone": "w_B"
        },
        {
          "duration": 0.08,
          "phone": "ah_I"
        },
        {
          "duration": 0.14,
          "phone": "n_E"
        }
      ],
      "start": 9.719999,
      "startOffset": 138,
      "word": "ONE"
    },
    {
      "alignedWord": "to",
      "case": "success",
      "end": 10.18,
      "endOffset": 144,
      "phones": [
        {
          "duration": 0.08,
          "phone": "t_B"
        },
        {
          "duration": 0.07,
          "phone": "ih_E"
        }
      ],
      "start": 10.03,
      "startOffset": 142,
      "word": "TO"
    },
    {
      "alignedWord": "sacrifice",
      "case": "success",
      "end": 10.86,
      "endOffset": 154,
      "phones": [
        {
          "duration": 0.15,
          "phone": "s_B"
        },
        {
          "duration": 0.08,
          "phone": "ae_I"
        },
        {
          "duration": 0.06,
          "phone": "k_I"
        },
        {
          "duration": 0.04,
          "phone": "r_I"
        },
        {
          "duration": 0.05,
          "phone": "ah_I"
        },
        {
          "duration": 0.1,
          "phone": "f_I"
        },
        {
          "duration": 0.11,
          "phone": "ay_I"
        },
        {
          "duration": 0.08,
          "phone": "s_E"
        }
      ],
      "start": 10.19,
      "startOffset": 145,
      "word": "SACRIFICE"
    },
    {
      "alignedWord": "himself",
      "case": "success",
      "end": 11.26,
      "endOffset": 162,
      "phones": [
        {
          "duration": 0.03,
          "phone": "hh_B"
        },
        {
          "duration": 0.05,
          "phone": "ih_I"
        },
        {
          "duration": 0.06,
          "phone": "m_I"
        },
        {
          "duration": 0.07,
          "phone": "s_I"
        },
        {
          "duration": 0.08,
          "phone": "eh_I"
        },
        {
          "duration": 0.07,
          "phone": "l_I"
        },
        {
          "duration": 0.04,
          "phone": "f_E"
        }
      ],
      "start": 10.86,
      "startOffset": 155,
      "word": "HIMSELF"
    },
    {
      "alignedWord": "for",
      "case": "success",
      "end": 11.76,
      "endOffset": 166,
      "phones": [
        {
          "duration": 0.14,
          "phone": "f_B"
        },
        {
          "duration": 0.16,
          "phone": "ao_I"
        },
        {
          "duration": 0.19,
          "phone": "r_E"
        }
      ],
      "start": 11.27,
      "startOffset": 163,
      "word": "FOR"
    },
    {
      "alignedWord": "to",
      "case": "success",
      "end": 12.120000000000001,
      "endOffset": 169,
      "phones": [
        {
          "duration": 0.08,
          "phone": "t_B"
        },
        {
          "duration": 0.06,
          "phone": "ih_E"
        }
      ],
      "start": 11.98,
      "startOffset": 167,
      "word": "TO"
    },
    {
      "alignedWord": "do",
      "case": "success",
      "end": 12.319999999999999,
      "endOffset": 172,
      "phones": [
        {
          "duration": 0.08,
          "phone": "d_B"
        },
        {
          "duration": 0.12,
          "phone": "uw_E"
        }
      ],
      "start": 12.12,
      "startOffset": 170,
      "word": "DO"
    },
    {
      "alignedWord": "good",
      "case": "success",
      "end": 12.620000000000001,
      "endOffset": 177,
      "phones": [
        {
          "duration": 0.1,
          "phone": "g_B"
        },
        {
          "duration": 0.1,
          "phone": "uh_I"
        },
        {
          "duration": 0.1,
          "phone": "d_E"
        }
      ],
      "start": 12.32,
      "startOffset": 173,
      "word": "GOOD"
    },
    {
      "alignedWord": "to",
      "case": "success",
      "end": 13.02,
      "endOffset": 180,
      "phones": [
        {
          "duration": 0.09,
          "phone": "t_B"
        },
        {
          "duration": 0.31,
          "phone": "uw_E"
        }
      ],
      "start": 12.62,
      "startOffset": 178,
      "word": "TO"
    },
    {
      "alignedWord": "and",
      "case": "success",
      "end": 13.33,
      "endOffset": 184,
      "phones": [
        {
          "duration": 0.1,
          "phone": "ae_B"
        },
        {
          "duration": 0.04,
          "phone": "n_I"
        },
        {
          "duration": 0.08,
          "phone": "d_E"
        }
      ],
      "start": 13.11,
      "startOffset": 181,
      "word": "AND"
    },
    {
      "alignedWord": "to",
      "case": "success",
      "end": 13.42,
      "endOffset": 187,
      "phones": [
        {
          "duration": 0.01,
          "phone": "t_B"
        },
        {
          "duration": 0.08,
          "phone": "ah_E"
        }
      ],
      "start": 13.33,
      "startOffset": 185,
      "word": "TO"
    },
    {
      "alignedWord": "love",
      "case": "success",
      "end": 13.94,
      "endOffset": 192,
      "phones": [
        {
          "duration": 0.13,
          "phone": "l_B"
        },
        {
          "duration": 0.09,
          "phone": "ah_I"
        },
        {
          "duration": 0.3,
          "phone": "v_E"
        }
      ],
      "start": 13.42,
      "startOffset": 188,
      "word": "LOVE"
    }
  ]
}