{
  "transcript": "GRASS WILL GROW AND NOTHING MORE BUT WHAT THOUGH THE GRASS DOES GROW HE CONTINUED THINKING STILL I MUST LIVE AND BE HAPPY BECAUSE HAPPINESS IS ALL I DESIRE",
  "words": [
    {
      "alignedWord": "grass",
      "case": "success",
      "end": 0.69,
      "endOffset": 5,
      "phones": [
        {
          "duration": 0.09,
          "phone": "g_B"
        },
        {
          "duration": 0.09,
          "phone": "r_I"
        },
        {
          "duration": 0.14,
          "phone": "ae_I"
        },
        {
          "duration": 0.18,
          "phone": "s_E"
        }
      ],
      "start": 0.19,
      "startOffset": 0,
      "word": "GRASS"
    },
    {
      "alignedWord": "will",
      "case": "success",
      "end": 0.85,
      "endOffset": 10,
      "phones": [
        {
          "duration": 0.03,
          "phone": "w_B"
        },
        {
          "duration": 0.07,
          "phone": "ih_I"
        },
        {
          "duration": 0.06,
          "phone": "l_E"
        }
      ],
      "start": 0.69,
      "startOffset": 6,
      "word": "WILL"
    },
    {
      "alignedWord": "grow",
      "case": "success",
      "end": 1.3199999999999998,
      "endOffset": 15,
      "phones": [
        {
          "duration": 0.08,
          "phone": "g_B"
        },
        {
          "duration": 0.08,
          "phone": "r_I"
        },
        {
          "duration": 0.31,
          "phone": "ow_E"
        }
      ],
      "start": 0.85,
      "startOffset": 11,
      "word": "GROW"
    },
    {
      "alignedWord": "and",
      "case": "success",
      "end": 1.6300000000000001,
      "endOffset": 19,
      "phones": [
        {
          "duration": 0.1,
          "phone": "ah_B"
        },
        {
          "duration": 0.07,
          "phone": "n_I"
        },
        {
          "duration": 0.11,
          "phone": "d_E"
        }
      ],
      "start": 1.35,
      "startOffset": 16,
      "word": "AND"
    },
    {
      "alignedWord": "nothing",
      "case": "success",
      "end": 1.9899999999999998,
      "endOffset": 27,
      "phones": [
        {
          "duration": 0.01,
          "phone": "n_B"
        },
        {
          "duration": 0.11,
          "phone": "ah_I"
        },
        {
          "duration": 0.08,
          "phone": "th_I"
        },
        {
          "duration": 0.08,
          "phone": "ih_I"
        },
        {
          "duration": 0.08,
          "phone": "ng_E"
        }
      ],
      "start": 1.63,
      "startOffset": 20,
      "word": "NOTHING"
    },
    {
      "alignedWord": "more",
      "case": "success",
      "end": 2.38,
      "endOffset": 32,
      "phones": [
        {
          "duration": 0.07,
          "phone": "m_B"
        },
        {
          "duration": 0.12,
          "phone": "ao_I"
        },
        {
          "duration": 0.2,
          "phone": "r_E"
        }
      ],
      "start": 1.99,
      "startOffset": 28,
      "word": "MORE"
    },
    {
      "alignedWord": "but",
      "case": "success",
      "end": 3.21,
      "endOffset": 36,
      "phones": [
        {
          "duration": 0.06,
          "phone": "b_B"
        },
        {
          "duration": 0.04,
          "phone": "ah_I"
        },
        {
          "duration": 0.02,
          "phone": "t_E"
        }
      ],
      "start": 3.09,
      "startOffset": 33,
      "word": "BUT"
    },
    {
      "alignedWord": "what",
      "case": "success",
      "end": 3.58,
      "endOffset": 41,
      "phones": [
        {
          "duration": 0.01,
          "phone": "hh_B"
        },
        {
          "duration": 0.15,
          "phone": "w_I"
        },
        {
          "duration": 0.07,
          "phone": "ah_I"
        },
        {
          "duration": 0.14,
          "phone": "t_E"
        }
      ],
      "start": 3.21,
      "startOffset": 37,
      "word": "WHAT"
    },
    {
      "alignedWord": "though",
      "case": "success",
      "end": 3.83,
      "endOffset": 48,
      "phones": [
        {
          "duration": 0.11,
          "phone": "dh_B"
        },
        {
          "duration": 0.11,
          "phone": "ow_E"
        }
      ],
      "start": 3.61,
      "startOffset": 42,
      "word": "THOUGH"
    },
    {
      "alignedWord": "the",
      "case": "success",
      "end": 3.96,
      "endOffset": 52,
      "phones": [
        {
          "duration": 0.07,
          "phone": "dh_B"
        },
        {
          "duration": 0.06,
          "phone": "ah_E"
        }
      ],
      "start": 3.83,
      "startOffset": 49,
      "word": "THE"
    },
    {
      "alignedWord": "grass",
      "case": "success",
      "end": 4.42,
      "endOffset": 58,
      "phones": [
        {
          "duration": 0.07,
          "phone": "g_B"
        },
        {
          "duration": 0.08,
          "phone": "r_I"
        },
        {
          "duration": 0.17,
          "phone": "ae_I"
        },
        {
          "duration": 0.14,
          "phone": "s_E"
        }
      ],
      "start": 3.96,
      "startOffset": 53,
      "word": "GRASS"
    },
    {
      "alignedWord": "does",
      "case": "success",
      "end": 4.76,
      "endOffset": 63,
      "phones": [
        {
          "duration": 0.09,
          "phone": "d_B"
        },
        {
          "duration": 0.15,
          "phone": "ah_I"
        },
        {
          "duration": 0.1,
          "phone": "z_E"
        }
      ],
      "start": 4.42,
      "startOffset": 59,
      "word": "DOES"
    },
    {
      "alignedWord": "grow",
      "case": "success",
      "end": 5.16,
      "endOffset": 68,
      "phones": [
        {
          "duration": 0.07,
          "phone": "g_B"
        },
        {
          "duration": 0.07,
          "phone": "r_I"
        },
        {
          "duration": 0.26,
          "phone": "ow_E"
        }
      ],
      "start": 4.76,
      "startOffset": 64,
      "word": "GROW"
    },
    {
      "alignedWord": "he",
      "case": "success",
      "end": 5.6499999999999995,
      "endOffset": 71,
      "phones": [
        {
          "duration": 0.09,
          "phone": "hh_B"
        },
        {
          "duration": 0.09,
          "phone": "iy_E"
        }
      ],
      "start": 5.47,
      "startOffset": 69,
      "word": "HE"
    },
    {
      "alignedWord": "continued",
      "case": "success",
      "end": 6.15,
      "endOffset": 81,
      "phones": [
        {
          "duration": 0.06,
          "phone": "k_B"
        },
        {
          "duration": 0.06,
          "phone": "ah_I"
        },
        {
          "duration": 0.04,
          "phone": "n_I"
        },
        {
          "duration": 0.07,
          "phone": "t_I"
        },
        {
          "duration": 0.07,
          "phone": "ih_I"
        },
        {
          "duration": 0.04,
          "phone": "n_I"
        },
        {
          "duration": 0.08,
          "phone": "y_I"
        },
        {
          "duration": 0.05,
          "phone": "uw_I"
        },
        {
          "duration": 0.03,
          "phone": "d_E"
        }
      ],
      "start": 5.65,
      "startOffset": 72,
      "word": "CONTINUED"
    },
    {
      "alignedWord": "thinking",
      "case": "success",
      "end": 6.640000000000001,
      "endOffset": 90,
      "phones": [
        {
          "duration": 0.09,
          "phone": "th_B"
        },
        {
          "duration": 0.05,
          "phone": "ih_I"
        },
        {
          "duration": 0.07,
          "phone": "ng_I"
        },
        {
          "duration": 0.06,
          "phone": "k_I"
        },
        {
          "duration": 0.06,
          "phone": "ih_I"
        },
        {
          "duration": 0.15,
          "phone": "ng_E"
        }
      ],
      "start": 6.16,
      "startOffset": 82,
      "word": "THINKING"
    },
    {
      "alignedWord": "still",
      "case": "success",
      "end": 7.369999999999999,
      "endOffset": 96,
      "phones": [
        {
          "duration": 0.19,
          "phone": "s_B"
        },
        {
          "duration": 0.07,
          "phone": "t_I"
        },
        {
          "duration": 0.12,
          "phone": "ih_I"
        },
        {
          "duration": 0.14,
          "phone": "l_E"
        }
      ],
      "start": 6.85,
      "startOffset": 91,
      "word": "STILL"
    },
    {
      "alignedWord": "i",
      "case": "success",
      "end": 7.54,
      "endOffset": 98,
      "phones": [
        {
          "duration": 0.14,
          "phone": "ay_S"
        }
      ],
      "start": 7.4,
      "startOffset": 97,
      "word": "I"
    },
    {
      "alignedWord": "must",
      "case": "success",
      "end": 7.87,
      "endOffset": 103,
      "phones": [
        {
          "duration": 0.08,
          "phone": "m_B"
        },
        {
          "duration": 0.09,
          "phone": "ah_I"
        },
        {
          "duration": 0.06,
          "phone": "s_I"
        },
        {
          "duration": 0.1,
          "phone": "t_E"
        }
      ],
      "start": 7.54,
      "startOffset": 99,
      "word": "MUST"
    },
    {
      "alignedWord": "live",
      "case": "success",
      "end": 8.19,
      "endOffset": 108,
      "phones": [
        {
          "duration": 0.08,
          "phone": "l_B"
        },
        {
          "duration": 0.16,
          "phone": "ih_I"
        },
        {
          "duration": 0.08,
          "phone": "v_E"
        }
      ],
      "start": 7.87,
      "startOffset": 104,
      "word": "LIVE"
    },
    {
      "alignedWord": "and",
      "case": "success",
      "end": 8.33,
      "endOffset": 112,
      "phones": [
        {
          "duration": 0.04,
          "phone": "ae_B"
        },
        {
          "duration": 0.06,
          "phone": "n_I"
        },
        {
          "duration": 0.04,
          "phone": "d_E"
        }
      ],
      "start": 8.19,
      "startOffset": 109,
      "word": "AND"
    },
    {
      "alignedWord": "be",
      "case": "success",
      "end": 8.52,
      "endOffset": 115,
      "phones": [
        {
          "duration": 0.07,
          "phone": "b_B"
        },
        {
          "duration": 0.11,
          "phone": "iy_E"
        }
      ],
      "start": 8.34,
      "startOffset": 113,
      "word": "BE"
    },
    {
      "alignedWord": "happy",
      "case": "success",
      "end": 9.0,
      "endOffset": 121,
      "phones": [
        {
          "duration": 0.07,
          "phone": "hh_B"
        },
        {
          "duration": 0.11,
          "phone": "ae_I"
        },
        {
          "duration": 0.1,
          "phone": "p_I"
        },
        {
          "duration": 0.2,
          "phone": "iy_E"
        }
      ],
      "start": 8.52,
      "startOffset": 116,
      "word": "HAPPY"
    },
    {
      "alignedWord": "because",
      "case": "success",
      "end": 9.65,
      "endOffset": 129,
      "phones": [
        {
          "duration": 0.06,
          "phone": "b_B"
        },
        {
          "duration": 0.06,
          "phone": "ih_I"
        },
        {
          "duration": 0.08,
          "phone": "k_I"
        },
        {
          "duration": 0.07,
          "phone": "ah_I"
        },
        {
          "duration": 0.08,
          "phone": "z_E"
        }
      ],
      "start": 9.3,
      "startOffset": 122,
      "word": "BECAUSE"
    },
    {
      "alignedWord": "happiness",
      "case": "success",
      "end": 10.31,
      "endOffset": 139,
      "phones": [
        {
          "duration": 0.09,
          "phone": "hh_B"
        },
        {
          "duration": 0.1,
          "phone": "ae_I"
        },
        {
          "duration": 0.1,
          "phone": "p_I"
        },
        {
          "duration": 0.06,
          "phone": "iy_I"
        },
        {
          "duration": 0.07,
          "phone": "n_I"
        },
        {
          "duration": 0.11,
          "phone": "ah_I"
        },
        {
          "duration": 0.12,
          "phone": "s_E"
        }
      ],
      "start": 9.66,
      "startOffset": 130,
      "word": "HAPPINESS"
    },
    {
      "alignedWord": "is",
      "case": "success",
      "end": 10.49,
      "endOffset": 142,
      "phones": [
        {
          "duration": 0.08,
          "phone": "ih_B"
        },
        {
          "duration": 0.09,
          "phone": "z_E"
        }
      ],
      "start": 10.32,
      "startOffset": 140,
      "word": "IS"
    },
    {
      "alignedWord": "all",
      "case": "success",
      "end": 10.86,
      "endOffset": 146,
      "phones": [
        {
          "duration": 0.25,
          "phone": "ao_B"
        },
        {
          "duration": 0.11,
          "phone": "l_E"
        }
      ],
      "start": 10.5,
      "startOffset": 143,
      "word": "ALL"
    },
    {
      "alignedWord": "i",
      "case": "success",
      "end": 10.93,
      "endOffset": 148,
      "phones": [
        {
          "duration": 0.07,
          "phone": "ay_S"
        }
      ],
      "start": 10.86,
      "startOffset": 147,
      "word": "I"
    },
    {
      "alignedWord": "desire",
      "case": "success",
      "end": 11.589999,
      "endOffset": 155,
      "phones": [
        {
          "duration": 0.08,
          "phone": "d_B"
        },
        {
          "duration": 0.08,
          "phone": "ih_I"
        },
        {
          "duration": 0.1,
          "phone": "z_I"
        },
        {
          "duration": 0.19,
          "phone": "ay_I"
        },
        {
          "duration": 0.21,
          "phone": "er_E"
        }
      ],
      "start": 10.929999,
      "startOffset": 149,
      "word": "DESIRE"
    }
  ]
}