{
  "transcript": "WITH WHOM SHE TALKED A GREAT DEAL AND WITH WHOM HER CONVERSATION WAS OF A SORT THAT GAVE A LARGE LICENCE TO EXTRAVAGANCE HER COUSIN USED AS THE PHRASE IS TO CHAFF HER",
  "words": [
    {
      "alignedWord": "with",
      "case": "success",
      "end": 0.41000000000000003,
      "endOffset": 4,
      "phones": [
        {
          "duration": 0.1,
          "phone": "w_B"
        },
        {
          "duration": 0.06,
          "phone": "ih_I"
        },
        {
          "duration": 0.09,
          "phone": "th_E"
        }
      ],
      "start": 0.16,
      "startOffset": 0,
      "word": "WITH"
    },
    {
      "alignedWord": "whom",
      "case": "success",
      "end": 0.64,
      "endOffset": 9,
      "phones": [
        {
          "duration": 0.04,
          "phone": "hh_B"
        },
        {
          "duration": 0.09,
          "phone": "uw_I"
        },
        {
          "duration": 0.1,
          "phone": "m_E"
        }
      ],
      "start": 0.41,
      "startOffset": 5,
      "word": "WHOM"
    },
    {
      "alignedWord": "she",
      "case": "success",
      "end": 0.85,
      "endOffset": 13,
      "phones": [
        {
          "duration": 0.1,
          "phone": "sh_B"
        },
        {
          "duration": 0.11,
          "phone": "iy_E"
        }
      ],
      "start": 0.64,
      "startOffset": 10,
      "word": "SHE"
    },
    {
      "alignedWord": "talked",
      "case": "success",
      "end": 1.14,
      "endOffset": 20,
      "phones": [
        {
          "duration": 0.06,
          "phone": "t_B"
        },
        {
          "duration": 0.11,
          "phone": "ao_I"
        },
        {
          "duration": 0.07,
          "phone": "k_I"
        },
        {
          "duration": 0.05,
          "phone": "t_E"
        }
      ],
      "start": 0.85,
      "startOffset": 14,
      "word": "TALKED"
    },
    {
      "alignedWord": "a",
      "case": "success",
      "end": 1.2,
      "endOffset": 22,
      "phones": [
        {
          "duration": 0.06,
          "phone": "ah_S"
        }
      ],
      "start": 1.14,
      "startOffset": 21,
      "word": "A"
    },
    {
      "alignedWord": "great",
      "case": "success",
      "end": 1.52,
      "endOffset": 28,
      "phones": [
        {
          "duration": 0.07,
          "phone": "g_B"
        },
        {
          "duration": 0.08,
          "phone": "r_I"
        },
        {
          "duration": 0.1,
          "phone": "ey_I"
        },
        {
          "duration": 0.07,
          "phone": "t_E"
        }
      ],
      "start": 1.2,
      "startOffset": 23,
      "word": "GREAT"
    },
    {
      "alignedWord": "deal",
      "case": "success",
      "end": 1.94,
      "endOffset": 33,
      "phones": [
        {
          "duration": 0.1,
          "phone": "d_B"
        },
        {
          "duration": 0.15,
          "phone": "iy_I"
        },
        {
          "duration": 0.17,
          "phone": "l_E"
        }
      ],
      "start": 1.52,
      "startOffset": 29,
      "word": "DEAL"
    },
    {
      "alignedWord": "and",
      "case": "success",
      "end": 2.38,
      "endOffset": 37,
      "phones": [
        {
          "duration": 0.09,
          "phone": "ae_B"
        },
        {
          "duration": 0.05,
          "phone": "n_I"
        },
        {
          "duration": 0.07,
          "phone": "d_E"
        }
      ],
      "start": 2.17,
      "startOffset": 34,
      "word": "AND"
    },
    {
      "alignedWord": "with",
      "case": "success",
      "end": 2.55,
      "endOffset": 42,
      "phones": [
        {
          "duration": 0.03,
          "phone": "w_B"
        },
        {
          "duration": 0.05,
          "phone": "ih_I"
        },
        {
          "duration": 0.09,
          "phone": "th_E"
        }
      ],
      "start": 2.38,
      "startOffset": 38,
      "word": "WITH"
    },
    {
      "alignedWord": "whom",
      "case": "success",
      "end": 2.7399999999999998,
      "endOffset": 47,
      "phones": [
        {
          "duration": 0.04,
          "phone": "hh_B"
        },
        {
          "duration": 0.08,
          "phone": "uw_I"
        },
        {
          "duration": 0.07,
          "phone": "m_E"
        }
      ],
      "start": 2.55,
      "startOffset": 43,
      "word": "WHOM"
    },
    {
      "alignedWord": "her",
      "case": "success",
      "end": 2.9,
      "endOffset": 51,
      "phones": [
        {
          "duration": 0.09,
          "phone": "hh_B"
        },
        {
          "duration": 0.06,
          "phone": "er_E"
        }
      ],
      "start": 2.75,
      "startOffset": 48,
      "word": "HER"
    },
    {
      "alignedWord": "conversation",
      "case": "success",
      "end": 3.73,
      "endOffset": 64,
      "phones": [
        {
          "duration": 0.06,
          "phone": "k_B"
        },
        {
          "duration": 0.11,
          "phone": "aa_I"
        },
        {
          "duration": 0.02,
          "phone": "n_I"
        },
        {
          "duration": 0.08,
          "phone": "v_I"
        },
        {
          "duration": 0.04,
          "phone": "er_I"
        },
        {
          "duration": 0.1,
          "phone": "s_I"
        },
        {
          "duration": 0.12,
          "phone": "ey_I"
        },
        {
          "duration": 0.1,
          "phone": "sh_I"
        },
        {
          "duration": 0.06,
          "phone": "ah_I"
        },
        {
          "duration": 0.14,
          "phone": "n_E"
        }
      ],
      "start": 2.9,
      "startOffset": 52,
      "word": "CONVERSATION"
    },
    {
      "alignedWord": "was",
      "case": "success",
      "end": 4.07,
      "endOffset": 68,
      "phones": [
        {
          "duration": 0.15,
          "phone": "w_B"
        },
        {
          "duration": 0.08,
          "phone": "ah_I"
        },
        {
          "duration": 0.1,
          "phone": "z_E"
        }
      ],
      "start": 3.74,
      "startOffset": 65,
      "word": "WAS"
    },
    {
      "alignedWord": "of",
      "case": "success",
      "end": 4.31,
      "endOffset": 71,
      "phones": [
        {
          "duration": 0.1,
          "phone": "ah_B"
        },
        {
          "duration": 0.08,
          "phone": "v_E"
        }
      ],
      "start": 4.13,
      "startOffset": 69,
      "word": "OF"
    },
    {
      "alignedWord": "a",
      "case": "success",
      "end": 4.39,
      "endOffset": 73,
      "phones": [
        {
          "duration": 0.08,
          "phone": "ah_S"
        }
      ],
      "start": 4.31,
      "startOffset": 72,
      "word": "A"
    },
    {
      "alignedWord": "sort",
      "case": "success",
      "end": 4.779999999999999,
      "endOffset": 78,
      "phones": [
        {
          "duration": 0.12,
          "phone": "s_B"
        },
        {
          "duration": 0.11,
          "phone": "ao_I"
        },
        {
          "duration": 0.08,
          "phone": "r_I"
        },
        {
          "duration": 0.08,
          "phone": "t_E"
        }
      ],
      "start": 4.39,
      "startOffset": 74,
      "word": "SORT"
    },
    {
      "alignedWord": "that",
      "case": "success",
      "end": 5.029999999999999,
      "endOffset": 83,
      "phones": [
        {
          "duration": 0.07,
          "phone": "dh_B"
        },
        {
          "duration": 0.06,
          "phone": "ae_I"
        },
        {
          "duration": 0.09,
          "phone": "t_E"
        }
      ],
      "start": 4.81,
      "startOffset": 79,
      "word": "THAT"
    },
    {
      "alignedWord": "gave",
      "case": "success",
      "end": 5.25,
      "endOffset": 88,
      "phones": [
        {
          "duration": 0.08,
          "phone": "g_B"
        },
        {
          "duration": 0.08,
          "phone": "ey_I"
        },
        {
          "duration": 0.06,
          "phone": "v_E"
        }
      ],
      "start": 5.03,
      "startOffset": 84,
      "word": "GAVE"
    },
    {
      "alignedWord": "a",
      "case": "success",
      "end": 5.31,
      "endOffset": 90,
      "phones": [
        {
          "duration": 0.06,
          "phone": "ah_S"
        }
      ],
      "start": 5.25,
      "startOffset": 89,
      "word": "A"
    },
    {
      "alignedWord": "large",
      "case": "success",
      "end": 5.739999999999999,
      "endOffset": 96,
      "phones": [
        {
          "duration": 0.16,
          "phone": "l_B"
        },
        {
          "duration": 0.09,
          "phone": "aa_I"
        },
        {
          "duration": 0.07,
          "phone": "r_I"
        },
        {
          "duration": 0.11,
          "phone": "jh_E"
        }
      ],
      "start": 5.31,
      "startOffset": 91,
      "word": "LARGE"
    },
    {
      "alignedWord": "licence",
      "case": "success",
      "end": 6.2700000000000005,
      "endOffset": 104,
      "phones": [
        {
          "duration": 0.11,
          "phone": "l_B"
        },
        {
          "duration": 0.1,
          "phone": "ay_I"
        },
        {
          "duration": 0.07,
          "phone": "s_I"
        },
        {
          "duration": 0.07,
          "phone": "ah_I"
        },
        {
          "duration": 0.07,
          "phone": "n_I"
        },
        {
          "duration": 0.07,
          "phone": "s_E"
        }
      ],
      "start": 5.78,
      "startOffset": 97,
      "word": "LICENCE"
    },
    {
      "alignedWord": "to",
      "case": "success",
      "end": 6.43,
      "endOffset": 107,
      "phones": [
        {
          "duration": 0.09,
          "phone": "t_B"
        },
        {
          "duration": 0.07,
          "phone": "uw_E"
        }
      ],
      "start": 6.27,
      "startOffset": 105,
      "word": "TO"
    },
    {
      "alignedWord": "<unk>",
      "case": "success",
      "end": 7.28,
      "endOffset": 120,
      "phones": [
        {
          "duration": 0.84,
          "phone": "oov_S"
        }
      ],
      "start": 6.44,
      "startOffset": 108,
      "word": "EXTRAVAGANCE"
    },
    {
      "alignedWord": "her",
      "case": "success",
      "end": 8.01,
      "endOffset": 124,
      "phones": [
        {
          "duration": 0.1,
          "phone": "hh_B"
        },
        {
          "duration": 0.08,
          "phone": "er_E"
        }
      ],
      "start": 7.83,
      "startOffset": 121,
      "word": "HER"
    },
    {
      "alignedWord": "cousin",
      "case": "success",
      "end": 8.379999999999999,
      "endOffset": 131,
      "phones": [
        {
          "duration": 0.08,
          "phone": "k_B"
        },
        {
          "duration": 0.09,
          "phone": "ah_I"
        },
        {
          "duration": 0.05,
          "phone": "z_I"
        },
        {
          "duration": 0.06,
          "phone": "ah_I"
        },
        {
          "duration": 0.09,
          "phone": "n_E"
        }
      ],
      "start": 8.01,
      "startOffset": 125,
      "word": "COUSIN"
    },
    {
      "alignedWord": "used",
      "case": "success",
      "end": 8.83,
      "endOffset": 136,
      "phones": [
        {
          "duration": 0.09,
          "phone": "y_B"
        },
        {
          "duration": 0.16,
          "phone": "uw_I"
        },
        {
          "duration": 0.07,
          "phone": "z_I"
        },
        {
          "duration": 0.13,
          "phone": "d_E"
        }
      ],
      "start": 8.38,
      "startOffset": 132,
      "word": "USED"
    },
    {
      "alignedWord": "as",
      "case": "success",
      "end": 9.149999,
      "endOffset": 139,
      "phones": [
        {
          "duration": 0.16,
          "phone": "ae_B"
        },
        {
          "duration": 0.1,
          "phone": "z_E"
        }
      ],
      "start": 8.889999,
      "startOffset": 137,
      "word": "AS"
    },
    {
      "alignedWord": "the",
      "case": "success",
      "end": 9.280000000000001,
      "endOffset": 143,
      "phones": [
        {
          "duration": 0.06,
          "phone": "dh_B"
        },
        {
          "duration": 0.07,
          "phone": "ah_E"
        }
      ],
      "start": 9.15,
      "startOffset": 140,
      "word": "THE"
    },
    {
      "alignedWord": "phrase",
      "case": "success",
      "end": 9.61,
      "endOffset": 150,
      "phones": [
        {
          "duration": 0.07,
          "phone": "f_B"
        },
        {
          "duration": 0.09,
          "phone": "r_I"
        },
        {
          "duration": 0.09,
          "phone": "ey_I"
        },
        {
          "duration": 0.08,
          "phone": "z_E"
        }
      ],
      "start": 9.28,
      "startOffset": 144,
      "word": "PHRASE"
    },
    {
      "alignedWord": "is",
      "case": "success",
      "end": 9.92,
      "endOffset": 153,
      "phones": [
        {
          "duration": 0.14,
          "phone": "ih_B"
        },
        {
          "duration": 0.17,
          "phone": "z_E"
        }
      ],
      "start": 9.61,
      "startOffset": 151,
      "word": "IS"
    },
    {
      "alignedWord": "to",
      "case": "success",
      "end": 10.31,
      "endOffset": 156,
      "phones": [
        {
          "duration": 0.09,
          "phone": "t_B"
        },
        {
          "duration": 0.09,
          "phone": "uw_E"
        }
      ],
      "start": 10.13,
      "startOffset": 154,
      "word": "TO"
    },
    {
      "alignedWord": "<unk>",
      "case": "success",
      "end": 10.689999,
      "endOffset": 162,
      "phones": [
        {
          "duration": 0.38,
          "phone": "oov_S"
        }
      ],
      "start": 10.309999,
      "startOffset": 157,
      "word": "CHAFF"
    },
    {
      "alignedWord": "her",
      "case": "success",
      "end": 10.969999999999999,
      "endOffset": 166,
      "phones": [
        {
          "duration": 0.11,
          "phone": "hh_B"
        },
        {
          "duration": 0.16,
          "phone": "er_E"
        }
      ],
      "start": 10.7,
      "startOffset": 163,
      "word": "HER"
    }
  ]
}