{
  "transcript": "OUR LEADER IN YOUR NAME IN MY NAME",
  "words": [
    {
      "alignedWord": "our",
      "case": "success",
      "end": 0.49,
      "endOffset": 3,
      "phones": [
        {
          "duration": 0.09,
          "phone": "aa_B"
        },
        {
          "duration": 0.08,
          "phone": "r_E"
        }
      ],
      "start": 0.32,
      "startOffset": 0,
      "word": "OUR"
    },
    {
      "alignedWord": "leader",
      "case": "success",
      "end": 1.1,
      "endOffset": 10,
      "phones": [
        {
          "duration": 0.11,
          "phone": "l_B"
        },
        {
          "duration": 0.08,
          "phone": "iy_I"
        },
        {
          "duration": 0.08,
          "phone": "d_I"
        },
        {
          "duration": 0.34,
          "phone": "er_E"
        }
      ],
      "start": 0.49,
      "startOffset": 4,
      "word": "LEADER"
    },
    {
      "alignedWord": "in",
      "case": "success",
      "end": 1.51,
      "endOffset": 13,
      "phones": [
        {
          "duration": 0.11,
          "phone": "ih_B"
        },
        {
          "duration": 0.06,
          "phone": "n_E"
        }
      ],
      "start": 1.34,
      "startOffset": 11,
      "word": "IN"
    },
    {
      "alignedWord": "your",
      "case": "success",
      "end": 1.71,
      "endOffset": 18,
      "phones": [
        {
          "duration": 0.07,
          "phone": "y_B"
        },
        {
          "duration": 0.07,
          "phone": "ao_I"
        },
        {
          "duration": 0.06,
          "phone": "r_E"
        }
      ],
      "start": 1.51,
      "startOffset": 14,
      "word": "YOUR"
    },
    {
      "alignedWord": "name",
      "case": "success",
      "end": 2.07,
      "endOffset": 23,
      "phones": [
        {
          "duration": 0.11,
          "phone": "n_B"
        },
        {
          "duration": 0.14,
          "phone": "ey_I"
        },
        {
          "duration": 0.11,
          "phone": "m_E"
        }
      ],
      "start": 1.71,
      "startOffset": 19,
      "word": "NAME"
    },
    {
      "alignedWord": "in",
      "case": "success",
      "end": 3.52,
      "endOffset": 26,
      "phones": [
        {
          "duration": 0.12,
          "phone": "ih_B"
        },
        {
          "duration": 0.08,
          "phone": "n_E"
        }
      ],
      "start": 3.32,
      "startOffset": 24,
      "word": "IN"
    },
    {
      "alignedWord": "my",
      "case": "success",
      "end": 3.74,
      "endOffset": 29,
      "phones": [
        {
          "duration": 0.09,
          "phone": "m_B"
        },
        {
          "duration": 0.13,
          "phone": "ay_E"
        }
      ],
      "start": 3.52,
      "startOffset": 27,
      "word": "MY"
    },
    {
      "alignedWord": "name",
      "case": "success",
      "end": 4.25,
      "endOffset": 34,
      "phones": [
        {
          "duration": 0.09,
          "phone": "n_B"
        },
        {
          "duration": 0.25,
          "phone": "ey_I"
        },
        {
          "duration": 0.17,
          "phone": "m_E"
        }
      ],
      "start": 3.74,
      "startOffset": 30,
      "word": "NAME"
    }
  ]
}