{
  "transcript": "JUST AS HE WAS LEAVING THE FAR CORNER OF THE OLD ORCHARD SOME ONE CALLED HIM PETER OH PETER RABBIT CALLED THE VOICE PETER STOPPED ABRUPTLY SAT UP VERY STRAIGHT LOOKED THIS WAY LOOKED THAT WAY AND LOOKED THE OTHER WAY",
  "words": [
    {
      "alignedWord": "just",
      "case": "success",
      "end": 0.56,
      "endOffset": 4,
      "phones": [
        {
          "duration": 0.1,
          "phone": "jh_B"
        },
        {
          "duration": 0.09,
          "phone": "ah_I"
        },
        {
          "duration": 0.07,
          "phone": "s_I"
        },
        {
          "duration": 0.06,
          "phone": "t_E"
        }
      ],
      "start": 0.24,
      "startOffset": 0,
      "word": "JUST"
    },
    {
      "alignedWord": "as",
      "case": "success",
      "end": 0.68,
      "endOffset": 7,
      "phones": [
        {
          "duration": 0.06,
          "phone": "eh_B"
        },
        {
          "duration": 0.06,
          "phone": "z_E"
        }
      ],
      "start": 0.56,
      "startOffset": 5,
      "word": "AS"
    },
    {
      "alignedWord": "he",
      "case": "success",
      "end": 0.79,
      "endOffset": 10,
      "phones": [
        {
          "duration": 0.06,
          "phone": "hh_B"
        },
        {
          "duration": 0.05,
          "phone": "iy_E"
        }
      ],
      "start": 0.68,
      "startOffset": 8,
      "word": "HE"
    },
    {
      "alignedWord": "was",
      "case": "success",
      "end": 0.9600000000000001,
      "endOffset": 14,
      "phones": [
        {
          "duration": 0.05,
          "phone": "w_B"
        },
        {
          "duration": 0.05,
          "phone": "ah_I"
        },
        {
          "duration": 0.07,
          "phone": "z_E"
        }
      ],
      "start": 0.79,
      "startOffset": 11,
      "word": "WAS"
    },
    {
      "alignedWord": "leaving",
      "case": "success",
      "end": 1.3199999999999998,
      "endOffset": 22,
      "phones": [
        {
          "duration": 0.1,
          "phone": "l_B"
        },
        {
          "duration": 0.08,
          "phone": "iy_I"
        },
        {
          "duration": 0.01,
          "phone": "v_I"
        },
        {
          "duration": 0.09,
          "phone": "ih_I"
        },
        {
          "duration": 0.07,
          "phone": "ng_E"
        }
      ],
      "start": 0.97,
      "startOffset": 15,
      "word": "LEAVING"
    },
    {
      "alignedWord": "the",
      "case": "success",
      "end": 1.4200000000000002,
      "endOffset": 26,
      "phones": [
        {
          "duration": 0.04,
          "phone": "dh_B"
        },
        {
          "duration": 0.06,
          "phone": "ah_E"
        }
      ],
      "start": 1.32,
      "startOffset": 23,
      "word": "THE"
    },
    {
      "alignedWord": "far",
      "case": "success",
      "end": 1.68,
      "endOffset": 30,
      "phones": [
        {
          "duration": 0.09,
          "phone": "f_B"
        },
        {
          "duration": 0.08,
          "phone": "aa_I"
        },
        {
          "duration": 0.09,
          "phone": "r_E"
        }
      ],
      "start": 1.42,
      "startOffset": 27,
      "word": "FAR"
    },
    {
      "alignedWord": "corner",
      "case": "success",
      "end": 2.08,
      "endOffset": 37,
      "phones": [
        {
          "duration": 0.12,
          "phone": "k_B"
        },
        {
          "duration": 0.08,
          "phone": "ao_I"
        },
        {
          "duration": 0.07,
          "phone": "r_I"
        },
        {
          "duration": 0.06,
          "phone": "n_I"
        },
        {
          "duration": 0.07,
          "phone": "er_E"
        }
      ],
      "start": 1.68,
      "startOffset": 31,
      "word": "CORNER"
    },
    {
      "alignedWord": "of",
      "case": "success",
      "end": 2.22,
      "endOffset": 40,
      "phones": [
        {
          "duration": 0.05,
          "phone": "ah_B"
        },
        {
          "duration": 0.09,
          "phone": "v_E"
        }
      ],
      "start": 2.08,
      "startOffset": 38,
      "word": "OF"
    },
    {
      "alignedWord": "the",
      "case": "success",
      "end": 2.3400000000000003,
      "endOffset": 44,
      "phones": [
        {
          "duration": 0.04,
          "phone": "dh_B"
        },
        {
          "duration": 0.08,
          "phone": "iy_E"
        }
      ],
      "start": 2.22,
      "startOffset": 41,
      "word": "THE"
    },
    {
      "alignedWord": "old",
      "case": "success",
      "end": 2.61,
      "endOffset": 48,
      "phones": [
        {
          "duration": 0.1,
          "phone": "ow_B"
        },
        {
          "duration": 0.09,
          "phone": "l_I"
        },
        {
          "duration": 0.06,
          "phone": "d_E"
        }
      ],
      "start": 2.36,
      "startOffset": 45,
      "word": "OLD"
    },
    {
      "alignedWord": "orchard",
      "case": "success",
      "end": 3.1500000000000004,
      "endOffset": 56,
      "phones": [
        {
          "duration": 0.14,
          "phone": "ao_B"
        },
        {
          "duration": 0.09,
          "phone": "r_I"
        },
        {
          "duration": 0.15,
          "phone": "ch_I"
        },
        {
          "duration": 0.09,
          "phone": "er_I"
        },
        {
          "duration": 0.06,
          "phone": "d_E"
        }
      ],
      "start": 2.62,
      "startOffset": 49,
      "word": "ORCHARD"
    },
    {
      "alignedWord": "some",
      "case": "success",
      "end": 3.46,
      "endOffset": 61,
      "phones": [
        {
          "duration": 0.14,
          "phone": "s_B"
        },
        {
          "duration": 0.08,
          "phone": "ah_I"
        },
        {
          "duration": 0.08,
          "phone": "m_E"
        }
      ],
      "start": 3.16,
      "startOffset": 57,
      "word": "SOME"
    },
    {
      "alignedWord": "one",
      "case": "success",
      "end": 3.68,
      "endOffset": 65,
      "phones": [
        {
          "duration": 0.04,
          "phone": "w_B"
        },
        {
          "duration": 0.07,
          "phone": "ah_I"
        },
        {
          "duration": 0.11,
          "phone": "n_E"
        }
      ],
      "start": 3.46,
      "startOffset": 62,
      "word": "ONE"
    },
    {
      "alignedWord": "called",
      "case": "success",
      "end": 4.01,
      "endOffset": 72,
      "phones": [
        {
          "duration": 0.07,
          "phone": "k_B"
        },
        {
          "duration": 0.11,
          "phone": "ao_I"
        },
        {
          "duration": 0.09,
          "phone": "l_I"
        },
        {
          "duration": 0.06,
          "phone": "d_E"
        }
      ],
      "start": 3.68,
      "startOffset": 66,
      "word": "CALLED"
    },
    {
      "alignedWord": "him",
      "case": "success",
      "end": 4.21,
      "endOffset": 76,
      "phones": [
        {
          "duration": 0.03,
          "phone": "hh_B"
        },
        {
          "duration": 0.07,
          "phone": "ih_I"
        },
        {
          "duration": 0.1,
          "phone": "m_E"
        }
      ],
      "start": 4.01,
      "startOffset": 73,
      "word": "HIM"
    },
    {
      "alignedWord": "peter",
      "case": "success",
      "end": 5.6000000000000005,
      "endOffset": 82,
      "phones": [
        {
          "duration": 0.07,
          "phone": "p_B"
        },
        {
          "duration": 0.16,
          "phone": "iy_I"
        },
        {
          "duration": 0.1,
          "phone": "t_I"
        },
        {
          "duration": 0.37,
          "phone": "er_E"
        }
      ],
      "start": 4.9,
      "startOffset": 77,
      "word": "PETER"
    },
    {
      "alignedWord": "oh",
      "case": "success",
      "end": 6.069999999999999,
      "endOffset": 85,
      "phones": [
        {
          "duration": 0.39,
          "phone": "ow_S"
        }
      ],
      "start": 5.68,
      "startOffset": 83,
      "word": "OH"
    },
    {
      "alignedWord": "peter",
      "case": "success",
      "end": 6.44,
      "endOffset": 91,
      "phones": [
        {
          "duration": 0.13,
          "phone": "p_B"
        },
        {
          "duration": 0.09,
          "phone": "iy_I"
        },
        {
          "duration": 0.07,
          "phone": "t_I"
        },
        {
          "duration": 0.08,
          "phone": "er_E"
        }
      ],
      "start": 6.07,
      "startOffset": 86,
      "word": "PETER"
    },
    {
      "alignedWord": "rabbit",
      "case": "success",
      "end": 6.970000000000001,
      "endOffset": 98,
      "phones": [
        {
          "duration": 0.08,
          "phone": "r_B"
        },
        {
          "duration": 0.16,
          "phone": "ae_I"
        },
        {
          "duration": 0.1,
          "phone": "b_I"
        },
        {
          "duration": 0.05,
          "phone": "ah_I"
        },
        {
          "duration": 0.14,
          "phone": "t_E"
        }
      ],
      "start": 6.44,
      "startOffset": 92,
      "word": "RABBIT"
    },
    {
      "alignedWord": "called",
      "case": "success",
      "end": 7.35,
      "endOffset": 105,
      "phones": [
        {
          "duration": 0.1,
          "phone": "k_B"
        },
        {
          "duration": 0.08,
          "phone": "ao_I"
        },
        {
          "duration": 0.05,
          "phone": "l_I"
        },
        {
          "duration": 0.07,
          "phone": "d_E"
        }
      ],
      "start": 7.05,
      "startOffset": 99,
      "word": "CALLED"
    },
    {
      "alignedWord": "the",
      "case": "success",
      "end": 7.42,
      "endOffset": 109,
      "phones": [
        {
          "duration": 0.01,
          "phone": "dh_B"
        },
        {
          "duration": 0.06,
          "phone": "ah_E"
        }
      ],
      "start": 7.35,
      "startOffset": 106,
      "word": "THE"
    },
    {
      "alignedWord": "voice",
      "case": "success",
      "end": 7.97,
      "endOffset": 115,
      "phones": [
        {
          "duration": 0.09,
          "phone": "v_B"
        },
        {
          "duration": 0.19,
          "phone": "oy_I"
        },
        {
          "duration": 0.27,
          "phone": "s_E"
        }
      ],
      "start": 7.42,
      "startOffset": 110,
      "word": "VOICE"
    },
    {
      "alignedWord": "peter",
      "case": "success",
      "end": 8.41,
      "endOffset": 121,
      "phones": [
        {
          "duration": 0.07,
          "phone": "p_B"
        },
        {
          "duration": 0.07,
          "phone": "iy_I"
        },
        {
          "duration": 0.07,
          "phone": "t_I"
        },
        {
          "duration": 0.11,
          "phone": "er_E"
        }
      ],
      "start": 8.09,
      "startOffset": 116,
      "word": "PETER"
    },
    {
      "alignedWord": "stopped",
      "case": "success",
      "end": 8.870000000000001,
      "endOffset": 129,
      "phones": [
        {
          "duration": 0.09,
          "phone": "s_B"
        },
        {
          "duration": 0.09,
          "phone": "t_I"
        },
        {
          "duration": 0.14,
          "phone": "aa_I"
        },
        {
          "duration": 0.09,
          "phone": "p_I"
        },
        {
          "duration": 0.05,
          "phone": "t_E"
        }
      ],
      "start": 8.41,
      "startOffset": 122,
      "word": "STOPPED"
    },
    {
      "alignedWord": "abruptly",
      "case": "success",
      "end": 9.47,
      "endOffset": 138,
      "phones": [
        {
          "duration": 0.01,
          "phone": "ah_B"
        },
        {
          "duration": 0.05,
          "phone": "b_I"
        },
        {
          "duration": 0.09,
          "phone": "r_I"
        },
        {
          "duration": 0.05,
          "phone": "ah_I"
        },
        {
          "duration": 0.09,
          "phone": "p_I"
        },
        {
          "duration": 0.04,
          "phone": "t_I"
        },
        {
          "duration": 0.09,
          "phone": "l_I"
        },
        {
          "duration": 0.14,
          "phone": "iy_E"
        }
      ],
      "start": 8.91,
      "startOffset": 130,
      "word": "ABRUPTLY"
    },
    {
      "alignedWord": "sat",
      "case": "success",
      "end": 9.8,
      "endOffset": 142,
      "phones": [
        {
          "duration": 0.14,
          "phone": "s_B"
        },
        {
          "duration": 0.11,
          "phone": "ae_I"
        },
        {
          "duration": 0.06,
          "phone": "t_E"
        }
      ],
      "start": 9.49,
      "startOffset": 139,
      "word": "SAT"
    },
    {
      "alignedWord": "up",
      "case": "success",
      "end": 9.940000000000001,
      "endOffset": 145,
      "phones": [
        {
          "duration": 0.05,
          "phone": "ah_B"
        },
        {
          "duration": 0.09,
          "phone": "p_E"
        }
      ],
      "start": 9.8,
      "startOffset": 143,
      "word": "UP"
    },
    {
      "alignedWord": "very",
      "case": "success",
      "end": 10.39,
      "endOffset": 150,
      "phones": [
        {
          "duration": 0.12,
          "phone": "v_B"
        },
        {
          "duration": 0.09,
          "phone": "eh_I"
        },
        {
          "duration": 0.1,
          "phone": "r_I"
        },
        {
          "duration": 0.08,
          "phone": "iy_E"
        }
      ],
      "start": 10.0,
      "startOffset": 146,
      "word": "VERY"
    },
    {
      "alignedWord": "straight",
      "case": "success",
      "end": 10.899999,
      "endOffset": 159,
      "phones": [
        {
          "duration": 0.06,
          "phone": "s_B"
        },
        {
          "duration": 0.09,
          "phone": "t_I"
        },
        {
          "duration": 0.12,
          "phone": "r_I"
        },
        {
          "duration": 0.13,
          "phone": "ey_I"
        },
        {
          "duration": 0.11,
          "phone": "t_E"
        }
      ],
      "start": 10.389999,
      "startOffset": 151,
      "word": "STRAIGHT"
    },
    {
      "alignedWord": "looked",
      "case": "success",
      "end": 11.47,
      "endOffset": 166,
      "phones": [
        {
          "duration": 0.08,
          "phone": "l_B"
        },
        {
          "duration": 0.06,
          "phone": "uh_I"
        },
        {
          "duration": 0.08,
          "phone": "k_I"
        },
        {
          "duration": 0.01,
          "phone": "t_E"
        }
      ],
      "start": 11.24,
      "startOffset": 160,
      "word": "LOOKED"
    },
    {
      "alignedWord": "this",
      "case": "success",
      "end": 11.77,
      "endOffset": 171,
      "phones": [
        {
          "duration": 0.08,
          "phone": "dh_B"
        },
        {
          "duration": 0.08,
          "phone": "ih_I"
        },
        {
          "duration": 0.13,
          "phone": "s_E"
        }
      ],
      "start": 11.48,
      "startOffset": 167,
      "word": "THIS"
    },
    {
      "alignedWord": "way",
      "case": "success",
      "end": 12.16,
      "endOffset": 175,
      "phones": [
        {
          "duration": 0.1,
          "phone": "w_B"
        },
        {
          "duration": 0.29,
          "phone": "ey_E"
        }
      ],
      "start": 11.77,
      "startOffset": 172,
      "word": "WAY"
    },
    {
      "alignedWord": "looked",
      "case": "success",
      "end": 12.61,
      "endOffset": 182,
      "phones": [
        {
          "duration": 0.14,
          "phone": "l_B"
        },
        {
          "duration": 0.07,
          "phone": "uh_I"
        },
        {
          "duration": 0.07,
          "phone": "k_I"
        },
        {
          "duration": 0.13,
          "phone": "t_E"
        }
      ],
      "start": 12.2,
      "startOffset": 176,
      "word": "LOOKED"
    },
    {
      "alignedWord": "that",
      "case": "success",
      "end": 13.029999,
      "endOffset": 187,
      "phones": [
        {
          "duration": 0.11,
          "phone": "dh_B"
        },
        {
          "duration": 0.13,
          "phone": "ae_I"
        },
        {
          "duration": 0.11,
          "phone": "t_E"
        }
      ],
      "start": 12.679999,
      "startOffset": 183,
      "word": "THAT"
    },
    {
      "alignedWord": "way",
      "case": "success",
      "end": 13.389999999999999,
      "endOffset": 191,
      "phones": [
        {
          "duration": 0.12,
          "phone": "w_B"
        },
        {
          "duration": 0.24,
          "phone": "ey_E"
        }
      ],
      "start": 13.03,
      "startOffset": 188,
      "word": "WAY"
    },
    {
      "alignedWord": "and",
      "case": "success",
      "end": 13.6,
      "endOffset": 195,
      "phones": [
        {
          "duration": 0.11,
          "phone": "ae_B"
        },
        {
          "duration": 0.08,
          "phone": "n_I"
        },
        {
          "duration": 0.01,
          "phone": "d_E"
        }
      ],
      "start": 13.4,
      "startOffset": 192,
      "word": "AND"
    },
    {
      "alignedWord": "looked",
      "case": "success",
      "end": 13.86,
      "endOffset": 202,
      "phones": [
        {
          "duration": 0.12,
          "phone": "l_B"
        },
        {
          "duration": 0.05,
          "phone": "uh_I"
        },
        {
          "duration": 0.07,
          "phone": "k_I"
        },
        {
          "duration": 0.01,
          "phone": "t_E"
        }
      ],
      "start": 13.61,
      "startOffset": 196,
      "word": "LOOKED"
    },
    {
      "alignedWord": "the",
      "case": "success",
      "end": 14.0,
      "endOffset": 206,
      "phones": [
        {
          "duration": 0.07,
          "phone": "dh_B"
        },
        {
          "duration": 0.07,
          "phone": "iy_E"
        }
      ],
      "start": 13.86,
      "startOffset": 203,
      "word": "THE"
    },
    {
      "alignedWord": "other",
      "case": "success",
      "end": 14.21,
      "endOffset": 212,
      "phones": [
        {
          "duration": 0.07,
          "phone": "ah_B"
        },
        {
          "duration": 0.08,
          "phone": "dh_I"
        },
        {
          "duration": 0.06,
          "phone": "er_E"
        }
      ],
      "start": 14.0,
      "startOffset": 207,
      "word": "OTHER"
    },
    {
      "alignedWord": "way",
      "case": "success",
      "end": 14.520000000000001,
      "endOffset": 216,
      "phones": [
        {
          "duration": 0.12,
          "phone": "w_B"
        },
        {
          "duration": 0.19,
          "phone": "ey_E"
        }
      ],
      "start": 14.21,
      "startOffset": 213,
      "word": "WAY"
    }
  ]
}