{
  "transcript": "HE ALSO THRUST SEVERAL SMALL BOXES OF SAFETY MATCHES INTO EACH OF THEIR COATS AND MADE SURE BLUFF HAD HIS COMPASS WELL SAID WILL STEPPING FORWARD AND HOLDING UP A DRIPPING FILM TAKE A PEEP AT THIS WILL YOU AND TELL ME IF I KNOW WHAT I'M TALKING ABOUT OR NOT",
  "words": [
    {
      "alignedWord": "he",
      "case": "success",
      "end": 0.41000000000000003,
      "endOffset": 2,
      "phones": [
        {
          "duration": 0.1,
          "phone": "hh_B"
        },
        {
          "duration": 0.08,
          "phone": "iy_E"
        }
      ],
      "start": 0.23,
      "startOffset": 0,
      "word": "HE"
    },
    {
      "alignedWord": "also",
      "case": "success",
      "end": 0.76,
      "endOffset": 7,
      "phones": [
        {
          "duration": 0.09,
          "phone": "ao_B"
        },
        {
          "duration": 0.08,
          "phone": "l_I"
        },
        {
          "duration": 0.1,
          "phone": "s_I"
        },
        {
          "duration": 0.08,
          "phone": "ow_E"
        }
      ],
      "start": 0.41,
      "startOffset": 3,
      "word": "ALSO"
    },
    {
      "alignedWord": "thrust",
      "case": "success",
      "end": 1.1099999999999999,
      "endOffset": 14,
      "phones": [
        {
          "duration": 0.09,
          "phone": "th_B"
        },
        {
          "duration": 0.07,
          "phone": "r_I"
        },
        {
          "duration": 0.06,
          "phone": "ah_I"
        },
        {
          "duration": 0.1,
          "phone": "s_I"
        },
        {
          "duration": 0.03,
          "phone": "t_E"
        }
      ],
      "start": 0.76,
      "startOffset": 8,
      "word": "THRUST"
    },
    {
      "alignedWord": "several",
      "case": "success",
      "end": 1.4500000000000002,
      "endOffset": 22,
      "phones": [
        {
          "duration": 0.09,
          "phone": "s_B"
        },
        {
          "duration": 0.08,
          "phone": "eh_I"
        },
        {
          "duration": 0.01,
          "phone": "v_I"
        },
        {
          "duration": 0.04,
          "phone": "er_I"
        },
        {
          "duration": 0.07,
          "phone": "ah_I"
        },
        {
          "duration": 0.04,
          "phone": "l_E"
        }
      ],
      "start": 1.12,
      "startOffset": 15,
      "word": "SEVERAL"
    },
    {
      "alignedWord": "small",
      "case": "success",
      "end": 1.72,
      "endOffset": 28,
      "phones": [
        {
          "duration": 0.09,
          "phone": "s_B"
        },
        {
          "duration": 0.05,
          "phone": "m_I"
        },
        {
          "duration": 0.08,
          "phone": "ao_I"
        },
        {
          "duration": 0.05,
          "phone": "l_E"
        }
      ],
      "start": 1.45,
      "startOffset": 23,
      "word": "SMALL"
    },
    {
      "alignedWord": "boxes",
      "case": "success",
      "end": 2.18,
      "endOffset": 34,
      "phones": [
        {
          "duration": 0.09,
          "phone": "b_B"
        },
        {
          "duration": 0.08,
          "phone": "aa_I"
        },
        {
          "duration": 0.08,
          "phone": "k_I"
        },
        {
          "duration": 0.07,
          "phone": "s_I"
        },
        {
          "duration": 0.06,
          "phone": "ih_I"
        },
        {
          "duration": 0.08,
          "phone": "z_E"
        }
      ],
      "start": 1.72,
      "startOffset": 29,
      "word": "BOXES"
    },
    {
      "alignedWord": "of",
      "case": "success",
      "end": 2.34,
      "endOffset": 37,
      "phones": [
        {
          "duration": 0.07,
          "phone": "ah_B"
        },
        {
          "duration": 0.06,
          "phone": "v_E"
        }
      ],
      "start": 2.21,
      "startOffset": 35,
      "word": "OF"
    },
    {
      "alignedWord": "safety",
      "case": "success",
      "end": 2.69,
      "endOffset": 44,
      "phones": [
        {
          "duration": 0.09,
          "phone": "s_B"
        },
        {
          "duration": 0.08,
          "phone": "ey_I"
        },
        {
          "duration": 0.05,
          "phone": "f_I"
        },
        {
          "duration": 0.09,
          "phone": "t_I"
        },
        {
          "duration": 0.04,
          "phone": "iy_E"
        }
      ],
      "start": 2.34,
      "startOffset": 38,
      "word": "SAFETY"
    },
    {
      "alignedWord": "matches",
      "case": "success",
      "end": 3.12,
      "endOffset": 52,
      "phones": [
        {
          "duration": 0.07,
          "phone": "m_B"
        },
        {
          "duration": 0.08,
          "phone": "ae_I"
        },
        {
          "duration": 0.1,
          "phone": "ch_I"
        },
        {
          "duration": 0.09,
          "phone": "ih_I"
        },
        {
          "duration": 0.09,
          "phone": "z_E"
        }
      ],
      "start": 2.69,
      "startOffset": 45,
      "word": "MATCHES"
    },
    {
      "alignedWord": "into",
      "case": "success",
      "end": 3.37,
      "endOffset": 57,
      "phones": [
        {
          "duration": 0.08,
          "phone": "ih_B"
        },
        {
          "duration": 0.04,
          "phone": "n_I"
        },
        {
          "duration": 0.06,
          "phone": "t_I"
        },
        {
          "duration": 0.03,
          "phone": "ah_E"
        }
      ],
      "start": 3.16,
      "startOffset": 53,
      "word": "INTO"
    },
    {
      "alignedWord": "each",
      "case": "success",
      "end": 3.58,
      "endOffset": 62,
      "phones": [
        {
          "duration": 0.14,
          "phone": "iy_B"
        },
        {
          "duration": 0.06,
          "phone": "ch_E"
        }
      ],
      "start": 3.38,
      "startOffset": 58,
      "word": "EACH"
    },
    {
      "alignedWord": "of",
      "case": "success",
      "end": 3.73,
      "endOffset": 65,
      "phones": [
        {
          "duration": 0.06,
          "phone": "ah_B"
        },
        {
          "duration": 0.09,
          "phone": "v_E"
        }
      ],
      "start": 3.58,
      "startOffset": 63,
      "word": "OF"
    },
    {
      "alignedWord": "their",
      "case": "success",
      "end": 3.87,
      "endOffset": 71,
      "phones": [
        {
          "duration": 0.01,
          "phone": "dh_B"
        },
        {
          "duration": 0.07,
          "phone": "eh_I"
        },
        {
          "duration": 0.06,
          "phone": "r_E"
        }
      ],
      "start": 3.73,
      "startOffset": 66,
      "word": "THEIR"
    },
    {
      "alignedWord": "coats",
      "case": "success",
      "end": 4.32,
      "endOffset": 77,
      "phones": [
        {
          "duration": 0.1,
          "phone": "k_B"
        },
        {
          "duration": 0.13,
          "phone": "ow_I"
        },
        {
          "duration": 0.1,
          "phone": "t_I"
        },
        {
          "duration": 0.12,
          "phone": "s_E"
        }
      ],
      "start": 3.87,
      "startOffset": 72,
      "word": "COATS"
    },
    {
      "alignedWord": "and",
      "case": "success",
      "end": 4.54,
      "endOffset": 81,
      "phones": [
        {
          "duration": 0.09,
          "phone": "ae_B"
        },
        {
          "duration": 0.06,
          "phone": "n_I"
        },
        {
          "duration": 0.03,
          "phone": "d_E"
        }
      ],
      "start": 4.36,
      "startOffset": 78,
      "word": "AND"
    },
    {
      "alignedWord": "made",
      "case": "success",
      "end": 4.75,
      "endOffset": 86,
      "phones": [
        {
          "duration": 0.07,
          "phone": "m_B"
        },
        {
          "duration": 0.07,
          "phone": "ey_I"
        },
        {
          "duration": 0.07,
          "phone": "d_E"
        }
      ],
      "start": 4.54,
      "startOffset": 82,
      "word": "MADE"
    },
    {
      "alignedWord": "sure",
      "case": "success",
      "end": 5.03,
      "endOffset": 91,
      "phones": [
        {
          "duration": 0.07,
          "phone": "sh_B"
        },
        {
          "duration": 0.15,
          "phone": "uh_I"
        },
        {
          "duration": 0.06,
          "phone": "r_E"
        }
      ],
      "start": 4.75,
      "startOffset": 87,
      "word": "SURE"
    },
    {
      "alignedWord": "bluff",
      "case": "success",
      "end": 5.38,
      "endOffset": 97,
      "phones": [
        {
          "duration": 0.1,
          "phone": "b_B"
        },
        {
          "duration": 0.11,
          "phone": "l_I"
        },
        {
          "duration": 0.06,
          "phone": "ah_I"
        },
        {
          "duration": 0.08,
          "phone": "f_E"
        }
      ],
      "start": 5.03,
      "startOffset": 92,
      "word": "BLUFF"
    },
    {
      "alignedWord": "had",
      "case": "success",
      "end": 5.62,
      "endOffset": 101,
      "phones": [
        {
          "duration": 0.1,
          "phone": "hh_B"
        },
        {
          "duration": 0.06,
          "phone": "ae_I"
        },
        {
          "duration": 0.06,
          "phone": "d_E"
        }
      ],
      "start": 5.4,
      "startOffset": 98,
      "word": "HAD"
    },
    {
      "alignedWord": "his",
      "case": "success",
      "end": 5.79,
      "endOffset": 105,
      "phones": [
        {
          "duration": 0.05,
          "phone": "hh_B"
        },
        {
          "duration": 0.05,
          "phone": "ih_I"
        },
        {
          "duration": 0.07,
          "phone": "z_E"
        }
      ],
      "start": 5.62,
      "startOffset": 102,
      "word": "HIS"
    },
    {
      "alignedWord": "compass",
      "case": "success",
      "end": 6.35,
      "endOffset": 113,
      "phones": [
        {
          "duration": 0.05,
          "phone": "k_B"
        },
        {
          "duration": 0.08,
          "phone": "ah_I"
        },
        {
          "duration": 0.01,
          "phone": "m_I"
        },
        {
          "duration": 0.09,
          "phone": "p_I"
        },
        {
          "duration": 0.1,
          "phone": "ah_I"
        },
        {
          "duration": 0.23,
          "phone": "s_E"
        }
      ],
      "start": 5.79,
      "startOffset": 106,
      "word": "COMPASS"
    },
    {
      "alignedWord": "well",
      "case": "success",
      "end": 7.67,
      "endOffset": 118,
      "phones": [
        {
          "duration": 0.15,
          "phone": "w_B"
        },
        {
          "duration": 0.19,
          "phone": "eh_I"
        },
        {
          "duration": 0.27,
          "phone": "l_E"
        }
      ],
      "start": 7.06,
      "startOffset": 114,
      "word": "WELL"
    },
    {
      "alignedWord": "said",
      "case": "success",
      "end": 8.18,
      "endOffset": 123,
      "phones": [
        {
          "duration": 0.14,
          "phone": "s_B"
        },
        {
          "duration": 0.07,
          "phone": "eh_I"
        },
        {
          "duration": 0.08,
          "phone": "d_E"
        }
      ],
      "start": 7.89,
      "startOffset": 119,
      "word": "SAID"
    },
    {
      "alignedWord": "will",
      "case": "success",
      "end": 8.469999,
      "endOffset": 128,
      "phones": [
        {
          "duration": 0.06,
          "phone": "w_B"
        },
        {
          "duration": 0.1,
          "phone": "ih_I"
        },
        {
          "duration": 0.13,
          "phone": "l_E"
        }
      ],
      "start": 8.179999,
      "startOffset": 124,
      "word": "WILL"
    },
    {
      "alignedWord": "stepping",
      "case": "success",
      "end": 8.93,
      "endOffset": 137,
      "phones": [
        {
          "duration": 0.06,
          "phone": "s_B"
        },
        {
          "duration": 0.06,
          "phone": "t_I"
        },
        {
          "duration": 0.08,
          "phone": "eh_I"
        },
        {
          "duration": 0.04,
          "phone": "p_I"
        },
        {
          "duration": 0.1,
          "phone": "ih_I"
        },
        {
          "duration": 0.11,
          "phone": "ng_E"
        }
      ],
      "start": 8.48,
      "startOffset": 129,
      "word": "STEPPING"
    },
    {
      "alignedWord": "forward",
      "case": "success",
      "end": 9.309999000000001,
      "endOffset": 145,
      "phones": [
        {
          "duration": 0.06,
          "phone": "f_B"
        },
        {
          "duration": 0.08,
          "phone": "ao_I"
        },
        {
          "duration": 0.05,
          "phone": "r_I"
        },
        {
          "duration": 0.07,
          "phone": "w_I"
        },
        {
          "duration": 0.08,
          "phone": "er_I"
        },
        {
          "duration": 0.04,
          "phone": "d_E"
        }
      ],
      "start": 8.929999,
      "startOffset": 138,
      "word": "FORWARD"
    },
    {
      "alignedWord": "and",
      "case": "success",
      "end": 9.449999,
      "endOffset": 149,
      "phones": [
        {
          "duration": 0.05,
          "phone": "ae_B"
        },
        {
          "duration": 0.05,
          "phone": "n_I"
        },
        {
          "duration": 0.04,
          "phone": "d_E"
        }
      ],
      "start": 9.309999,
      "startOffset": 146,
      "word": "AND"
    },
    {
      "alignedWord": "holding",
      "case": "success",
      "end": 9.780000000000001,
      "endOffset": 157,
      "phones": [
        {
          "duration": 0.05,
          "phone": "hh_B"
        },
        {
          "duration": 0.05,
          "phone": "ow_I"
        },
        {
          "duration": 0.05,
          "phone": "l_I"
        },
        {
          "duration": 0.05,
          "phone": "d_I"
        },
        {
          "duration": 0.06,
          "phone": "ih_I"
        },
        {
          "duration": 0.06,
          "phone": "ng_E"
        }
      ],
      "start": 9.46,
      "startOffset": 150,
      "word": "HOLDING"
    },
    {
      "alignedWord": "up",
      "case": "success",
      "end": 9.94,
      "endOffset": 160,
      "phones": [
        {
          "duration": 0.06,
          "phone": "ah_B"
        },
        {
          "duration": 0.1,
          "phone": "p_E"
        }
      ],
      "start": 9.78,
      "startOffset": 158,
      "word": "UP"
    },
    {
      "alignedWord": "a",
      "case": "success",
      "end": 9.99,
      "endOffset": 162,
      "phones": [
        {
          "duration": 0.05,
          "phone": "ah_S"
        }
      ],
      "start": 9.94,
      "startOffset": 161,
      "word": "A"
    },
    {
      "alignedWord": "dripping",
      "case": "success",
      "end": 10.33,
      "endOffset": 171,
      "phones": [
        {
          "duration": 0.06,
          "phone": "d_B"
        },
        {
          "duration": 0.04,
          "phone": "r_I"
        },
        {
          "duration": 0.04,
          "phone": "ih_I"
        },
        {
          "duration": 0.06,
          "phone": "p_I"
        },
        {
          "duration": 0.06,
          "phone": "ih_I"
        },
        {
          "duration": 0.08,
          "phone": "ng_E"
        }
      ],
      "start": 9.99,
      "startOffset": 163,
      "word": "DRIPPING"
    },
    {
      "alignedWord": "film",
      "case": "success",
      "end": 10.66,
      "endOffset": 176,
      "phones": [
        {
          "duration": 0.05,
          "phone": "f_B"
        },
        {
          "duration": 0.1,
          "phone": "ih_I"
        },
        {
          "duration": 0.07,
          "phone": "l_I"
        },
        {
          "duration": 0.11,
          "phone": "m_E"
        }
      ],
      "start": 10.33,
      "startOffset": 172,
      "word": "FILM"
    },
    {
      "alignedWord": "take",
      "case": "success",
      "end": 11.38,
      "endOffset": 181,
      "phones": [
        {
          "duration": 0.11,
          "phone": "t_B"
        },
        {
          "duration": 0.11,
          "phone": "ey_I"
        },
        {
          "duration": 0.09,
          "phone": "k_E"
        }
      ],
      "start": 11.07,
      "startOffset": 177,
      "word": "TAKE"
    },
    {
      "alignedWord": "a",
      "case": "success",
      "end": 11.51,
      "endOffset": 183,
      "phones": [
        {
          "duration": 0.1,
          "phone": "ah_S"
        }
      ],
      "start": 11.41,
      "startOffset": 182,
      "word": "A"
    },
    {
      "alignedWord": "peep",
      "case": "success",
      "end": 11.809999000000001,
      "endOffset": 188,
      "phones": [
        {
          "duration": 0.12,
          "phone": "p_B"
        },
        {
          "duration": 0.1,
          "phone": "iy_I"
        },
        {
          "duration": 0.08,
          "phone": "p_E"
        }
      ],
      "start": 11.509999,
      "startOffset": 184,
      "word": "PEEP"
    },
    {
      "alignedWord": "at",
      "case": "success",
      "end": 12.06,
      "endOffset": 191,
      "phones": [
        {
          "duration": 0.13,
          "phone": "ae_B"
        },
        {
          "duration": 0.11,
          "phone": "t_E"
        }
      ],
      "start": 11.82,
      "startOffset": 189,
      "word": "AT"
    },
    {
      "alignedWord": "this",
      "case": "success",
      "end": 12.359999,
      "endOffset": 196,
      "phones": [
        {
          "duration": 0.06,
          "phone": "dh_B"
        },
        {
          "duration": 0.12,
          "phone": "ih_I"
        },
        {
          "duration": 0.12,
          "phone": "s_E"
        }
      ],
      "start": 12.059999,
      "startOffset": 192,
      "word": "THIS"
    },
    {
      "alignedWord": "will",
      "case": "success",
      "end": 12.549999999999999,
      "endOffset": 201,
      "phones": [
        {
          "duration": 0.05,
          "phone": "w_B"
        },
        {
          "duration": 0.08,
          "phone": "ih_I"
        },
        {
          "duration": 0.06,
          "phone": "l_E"
        }
      ],
      "start": 12.36,
      "startOffset": 197,
      "word": "WILL"
    },
    {
      "alignedWord": "you",
      "case": "success",
      "end": 12.72,
      "endOffset": 205,
      "phones": [
        {
          "duration": 0.07,
          "phone": "y_B"
        },
        {
          "duration": 0.1,
          "phone": "uw_E"
        }
      ],
      "start": 12.55,
      "startOffset": 202,
      "word": "YOU"
    },
    {
      "alignedWord": "and",
      "case": "success",
      "end": 12.949999,
      "endOffset": 209,
      "phones": [
        {
          "duration": 0.08,
          "phone": "ae_B"
        },
        {
          "duration": 0.08,
          "phone": "n_I"
        },
        {
          "duration": 0.07,
          "phone": "d_E"
        }
      ],
      "start": 12.719999,
      "startOffset": 206,
      "word": "AND"
    },
    {
      "alignedWord": "tell",
      "case": "success",
      "end": 13.229999,
      "endOffset": 214,
      "phones": [
        {
          "duration": 0.12,
          "phone": "t_B"
        },
        {
          "duration": 0.09,
          "phone": "eh_I"
        },
        {
          "duration": 0.05,
          "phone": "l_E"
        }
      ],
      "start": 12.969999,
      "startOffset": 210,
      "word": "TELL"
    },
    {
      "alignedWord": "me",
      "case": "success",
      "end": 13.41,
      "endOffset": 217,
      "phones": [
        {
          "duration": 0.09,
          "phone": "m_B"
        },
        {
          "duration": 0.09,
          "phone": "iy_E"
        }
      ],
      "start": 13.23,
      "startOffset": 215,
      "word": "ME"
    },
    {
      "alignedWord": "if",
      "case": "success",
      "end": 13.59,
      "endOffset": 220,
      "phones": [
        {
          "duration": 0.08,
          "phone": "ih_B"
        },
        {
          "duration": 0.1,
          "phone": "f_E"
        }
      ],
      "start": 13.41,
      "startOffset": 218,
      "word": "IF"
    },
    {
      "alignedWord": "i",
      "case": "success",
      "end": 13.69,
      "endOffset": 222,
      "phones": [
        {
          "duration": 0.1,
          "phone": "ay_S"
        }
      ],
      "start": 13.59,
      "startOffset": 221,
      "word": "I"
    },
    {
      "alignedWord": "know",
      "case": "success",
      "end": 13.87,
      "endOffset": 227,
      "phones": [
        {
          "duration": 0.1,
          "phone": "n_B"
        },
        {
          "duration": 0.08,
          "phone": "ow_E"
        }
      ],
      "start": 13.69,
      "startOffset": 223,
      "word": "KNOW"
    },
    {
      "alignedWord": "what",
      "case": "success",
      "end": 14.049999999999999,
      "endOffset": 232,
      "phones": [
        {
          "duration": 0.07,
          "phone": "w_B"
        },
        {
          "duration": 0.06,
          "phone": "ah_I"
        },
        {
          "duration": 0.05,
          "phone": "t_E"
        }
      ],
      "start": 13.87,
      "startOffset": 228,
      "word": "WHAT"
    },
    {
      "alignedWord": "i'm",
      "case": "success",
      "end": 14.239999,
      "endOffset": 236,
      "phones": [
        {
          "duration": 0.08,
          "phone": "ay_B"
        },
        {
          "duration": 0.11,
          "phone": "m_E"
        }
      ],
      "start": 14.049999,
      "startOffset": 233,
      "word": "I'M"
    },
    {
      "alignedWord": "talking",
      "case": "success",
      "end": 14.65,
      "endOffset": 244,
      "phones": [
        {
          "duration": 0.1,
          "phone": "t_B"
        },
        {
          "duration": 0.1,
          "phone": "ao_I"
        },
        {
          "duration": 0.07,
          "phone": "k_I"
        },
        {
          "duration": 0.07,
          "phone": "ih_I"
        },
        {
          "duration": 0.07,
          "phone": "ng_E"
        }
      ],
      "start": 14.24,
      "startOffset": 237,
      "word": "TALKING"
    },
    {
      "alignedWord": "about",
      "case": "success",
      "end": 14.950000000000001,
      "endOffset": 250,
      "phones": [
        {
          "duration": 0.03,
          "phone": "ah_B"
        },
        {
          "duration": 0.1,
          "phone": "b_I"
        },
        {
          "duration": 0.1,
          "phone": "aw_I"
        },
        {
          "duration": 0.07,
          "phone": "t_E"
        }
      ],
      "start": 14.65,
      "startOffset": 245,
      "word": "ABOUT"
    },
    {
      "alignedWord": "or",
      "case": "success",
      "end": 15.01,
      "endOffset": 253,
      "phones": [
        {
          "duration": 0.06,
          "phone": "er_S"
        }
      ],
      "start": 14.95,
      "startOffset": 251,
      "word": "OR"
    },
    {
      "alignedWord": "not",
      "case": "success",
      "end": 15.409999000000001,
      "endOffset": 257,
      "phones": [
        {
          "duration": 0.07,
          "phone": "n_B"
        },
        {
          "duration": 0.14,
          "phone": "aa_I"
        },
        {
          "duration": 0.19,
          "phone": "t_E"
        }
      ],
      "start": 15.009999,
      "startOffset": 254,
      "word": "NOT"
    }
  ]
}