{
  "transcript": "BUT FOR THE PRESENCE OF EUROPEANS WOULD PROBABLY HAVE SUBJECTED ABSORBED OR EXTERMINATED EVERY OTHER INDIAN COMMUNITY EAST OF THE MISSISSIPPI AND NORTH OF THE OHIO THE VAST TRACT OF WILDERNESS FROM THE MISSISSIPPI TO THE ATLANTIC",
  "words": [
    {
      "alignedWord": "but",
      "case": "success",
      "end": 0.33,
      "endOffset": 3,
      "phones": [
        {
          "duration": 0.07,
          "phone": "b_B"
        },
        {
          "duration": 0.04,
          "phone": "ah_I"
        },
        {
          "duration": 0.08,
          "phone": "t_E"
        }
      ],
      "start": 0.14,
      "startOffset": 0,
      "word": "BUT"
    },
    {
      "alignedWord": "for",
      "case": "success",
      "end": 0.43000000000000005,
      "endOffset": 7,
      "phones": [
        {
          "duration": 0.04,
          "phone": "f_B"
        },
        {
          "duration": 0.06,
          "phone": "er_E"
        }
      ],
      "start": 0.33,
      "startOffset": 4,
      "word": "FOR"
    },
    {
      "alignedWord": "the",
      "case": "success",
      "end": 0.52,
      "endOffset": 11,
      "phones": [
        {
          "duration": 0.03,
          "phone": "dh_B"
        },
        {
          "duration": 0.06,
          "phone": "ah_E"
        }
      ],
      "start": 0.43,
      "startOffset": 8,
      "word": "THE"
    },
    {
      "alignedWord": "presence",
      "case": "success",
      "end": 0.92,
      "endOffset": 20,
      "phones": [
        {
          "duration": 0.05,
          "phone": "p_B"
        },
        {
          "duration": 0.06,
          "phone": "r_I"
        },
        {
          "duration": 0.07,
          "phone": "eh_I"
        },
        {
          "duration": 0.04,
          "phone": "z_I"
        },
        {
          "duration": 0.05,
          "phone": "ah_I"
        },
        {
          "duration": 0.08,
          "phone": "n_I"
        },
        {
          "duration": 0.05,
          "phone": "s_E"
        }
      ],
      "start": 0.52,
      "startOffset": 12,
      "word": "PRESENCE"
    },
    {
      "alignedWord": "of",
      "case": "success",
      "end": 1.09,
      "endOffset": 23,
      "phones": [
        {
          "duration": 0.08,
          "phone": "ah_B"
        },
        {
          "duration": 0.09,
          "phone": "v_E"
        }
      ],
      "start": 0.92,
      "startOffset": 21,
      "word": "OF"
    },
    {
      "alignedWord": "europeans",
      "case": "success",
      "end": 1.85,
      "endOffset": 33,
      "phones": [
        {
          "duration": 0.01,
          "phone": "y_B"
        },
        {
          "duration": 0.04,
          "phone": "uh_I"
        },
        {
          "duration": 0.08,
          "phone": "r_I"
        },
        {
          "duration": 0.07,
          "phone": "ah_I"
        },
        {
          "duration": 0.09,
          "phone": "p_I"
        },
        {
          "duration": 0.12,
          "phone": "iy_I"
        },
        {
          "duration": 0.06,
          "phone": "ah_I"
        },
        {
          "duration": 0.11,
          "phone": "n_I"
        },
        {
          "duration": 0.18,
          "phone": "z_E"
        }
      ],
      "start": 1.09,
      "startOffset": 24,
      "word": "EUROPEANS"
    },
    {
      "alignedWord": "would",
      "case": "success",
      "end": 2.3200000000000003,
      "endOffset": 39,
      "phones": [
        {
          "duration": 0.11,
          "phone": "w_B"
        },
        {
          "duration": 0.06,
          "phone": "uh_I"
        },
        {
          "duration": 0.07,
          "phone": "d_E"
        }
      ],
      "start": 2.08,
      "startOffset": 34,
      "word": "WOULD"
    },
    {
      "alignedWord": "probably",
      "case": "success",
      "end": 2.82,
      "endOffset": 48,
      "phones": [
        {
          "duration": 0.07,
          "phone": "p_B"
        },
        {
          "duration": 0.06,
          "phone": "r_I"
        },
        {
          "duration": 0.06,
          "phone": "aa_I"
        },
        {
          "duration": 0.06,
          "phone": "b_I"
        },
        {
          "duration": 0.05,
          "phone": "ah_I"
        },
        {
          "duration": 0.05,
          "phone": "b_I"
        },
        {
          "duration": 0.07,
          "phone": "l_I"
        },
        {
          "duration": 0.08,
          "phone": "iy_E"
        }
      ],
      "start": 2.32,
      "startOffset": 40,
      "word": "PROBABLY"
    },
    {
      "alignedWord": "have",
      "case": "success",
      "end": 3.05,
      "endOffset": 53,
      "phones": [
        {
          "duration": 0.06,
          "phone": "hh_B"
        },
        {
          "duration": 0.09,
          "phone": "ae_I"
        },
        {
          "duration": 0.08,
          "phone": "v_E"
        }
      ],
      "start": 2.82,
      "startOffset": 49,
      "word": "HAVE"
    },
    {
      "alignedWord": "subjected",
      "case": "success",
      "end": 3.7699999999999996,
      "endOffset": 63,
      "phones": [
        {
          "duration": 0.06,
          "phone": "s_B"
        },
        {
          "duration": 0.04,
          "phone": "ah_I"
        },
        {
          "duration": 0.06,
          "phone": "b_I"
        },
        {
          "duration": 0.1,
          "phone": "jh_I"
        },
        {
          "duration": 0.08,
          "phone": "eh_I"
        },
        {
          "duration": 0.08,
          "phone": "k_I"
        },
        {
          "duration": 0.05,
          "phone": "t_I"
        },
        {
          "duration": 0.07,
          "phone": "ih_I"
        },
        {
          "duration": 0.18,
          "phone": "d_E"
        }
      ],
      "start": 3.05,
      "startOffset": 54,
      "word": "SUBJECTED"
    },
    {
      "alignedWord": "absorbed",
      "case": "success",
      "end": 4.65,
      "endOffset": 72,
      "phones": [
        {
          "duration": 0.1,
          "phone": "ah_B"
        },
        {
          "duration": 0.07,
          "phone": "b_I"
        },
        {
          "duration": 0.1,
          "phone": "z_I"
        },
        {
          "duration": 0.12,
          "phone": "ao_I"
        },
        {
          "duration": 0.1,
          "phone": "r_I"
        },
        {
          "duration": 0.07,
          "phone": "b_I"
        },
        {
          "duration": 0.1,
          "phone": "d_E"
        }
      ],
      "start": 3.99,
      "startOffset": 64,
      "word": "ABSORBED"
    },
    {
      "alignedWord": "or",
      "case": "success",
      "end": 5.15,
      "endOffset": 75,
      "phones": [
        {
          "duration": 0.18,
          "phone": "ao_B"
        },
        {
          "duration": 0.07,
          "phone": "r_E"
        }
      ],
      "start": 4.9,
      "startOffset": 73,
      "word": "OR"
    },
    {
      "alignedWord": "exterminated",
      "case": "success",
      "end": 5.930000000000001,
      "endOffset": 88,
      "phones": [
        {
          "duration": 0.07,
          "phone": "ih_B"
        },
        {
          "duration": 0.07,
          "phone": "k_I"
        },
        {
          "duration": 0.05,
          "phone": "s_I"
        },
        {
          "duration": 0.09,
          "phone": "t_I"
        },
        {
          "duration": 0.07,
          "phone": "er_I"
        },
        {
          "duration": 0.04,
          "phone": "m_I"
        },
        {
          "duration": 0.06,
          "phone": "ah_I"
        },
        {
          "duration": 0.07,
          "phone": "n_I"
        },
        {
          "duration": 0.09,
          "phone": "ey_I"
        },
        {
          "duration": 0.04,
          "phone": "t_I"
        },
        {
          "duration": 0.07,
          "phone": "ih_I"
        },
        {
          "duration": 0.06,
          "phone": "d_E"
        }
      ],
      "start": 5.15,
      "startOffset": 76,
      "word": "EXTERMINATED"
    },
    {
      "alignedWord": "every",
      "case": "success",
      "end": 6.21,
      "endOffset": 94,
      "phones": [
        {
          "duration": 0.07,
          "phone": "eh_B"
        },
        {
          "duration": 0.07,
          "phone": "v_I"
        },
        {
          "duration": 0.05,
          "phone": "r_I"
        },
        {
          "duration": 0.07,
          "phone": "iy_E"
        }
      ],
      "start": 5.95,
      "startOffset": 89,
      "word": "EVERY"
    },
    {
      "alignedWord": "other",
      "case": "success",
      "end": 6.42,
      "endOffset": 100,
      "phones": [
        {
          "duration": 0.06,
          "phone": "ah_B"
        },
        {
          "duration": 0.08,
          "phone": "dh_I"
        },
        {
          "duration": 0.07,
          "phone": "er_E"
        }
      ],
      "start": 6.21,
      "startOffset": 95,
      "word": "OTHER"
    },
    {
      "alignedWord": "indian",
      "case": "success",
      "end": 6.81,
      "endOffset": 107,
      "phones": [
        {
          "duration": 0.08,
          "phone": "ih_B"
        },
        {
          "duration": 0.05,
          "phone": "n_I"
        },
        {
          "duration": 0.04,
          "phone": "d_I"
        },
        {
          "duration": 0.07,
          "phone": "iy_I"
        },
        {
          "duration": 0.06,
          "phone": "ah_I"
        },
        {
          "duration": 0.09,
          "phone": "n_E"
        }
      ],
      "start": 6.42,
      "startOffset": 101,
      "word": "INDIAN"
    },
    {
      "alignedWord": "community",
      "case": "success",
      "end": 7.4399999999999995,
      "endOffset": 117,
      "phones": [
        {
          "duration": 0.05,
          "phone": "k_B"
        },
        {
          "duration": 0.07,
          "phone": "ah_I"
        },
        {
          "duration": 0.03,
          "phone": "m_I"
        },
        {
          "duration": 0.06,
          "phone": "y_I"
        },
        {
          "duration": 0.07,
          "phone": "uw_I"
        },
        {
          "duration": 0.01,
          "phone": "n_I"
        },
        {
          "duration": 0.07,
          "phone": "ah_I"
        },
        {
          "duration": 0.08,
          "phone": "t_I"
        },
        {
          "duration": 0.19,
          "phone": "iy_E"
        }
      ],
      "start": 6.81,
      "startOffset": 108,
      "word": "COMMUNITY"
    },
    {
      "alignedWord": "east",
      "case": "success",
      "end": 8.0,
      "endOffset": 122,
      "phones": [
        {
          "duration": 0.18,
          "phone": "iy_B"
        },
        {
          "duration": 0.08,
          "phone": "s_I"
        },
        {
          "duration": 0.06,
          "phone": "t_E"
        }
      ],
      "start": 7.68,
      "startOffset": 118,
      "word": "EAST"
    },
    {
      "alignedWord": "of",
      "case": "success",
      "end": 8.09,
      "endOffset": 125,
      "phones": [
        {
          "duration": 0.06,
          "phone": "ah_B"
        },
        {
          "duration": 0.03,
          "phone": "v_E"
        }
      ],
      "start": 8.0,
      "startOffset": 123,
      "word": "OF"
    },
    {
      "alignedWord": "the",
      "case": "success",
      "end": 8.189999,
      "endOffset": 129,
      "phones": [
        {
          "duration": 0.05,
          "phone": "dh_B"
        },
        {
          "duration": 0.04,
          "phone": "ah_E"
        }
      ],
      "start": 8.099999,
      "startOffset": 126,
      "word": "THE"
    },
    {
      "alignedWord": "mississippi",
      "case": "success",
      "end": 8.92,
      "endOffset": 141,
      "phones": [
        {
          "duration": 0.04,
          "phone": "m_B"
        },
        {
          "duration": 0.06,
          "phone": "ih_I"
        },
        {
          "duration": 0.05,
          "phone": "s_I"
        },
        {
          "duration": 0.07,
          "phone": "ih_I"
        },
        {
          "duration": 0.1,
          "phone": "s_I"
        },
        {
          "duration": 0.09,
          "phone": "ih_I"
        },
        {
          "duration": 0.11,
          "phone": "p_I"
        },
        {
          "duration": 0.21,
          "phone": "iy_E"
        }
      ],
      "start": 8.19,
      "startOffset": 130,
      "word": "MISSISSIPPI"
    },
    {
      "alignedWord": "and",
      "case": "success",
      "end": 9.34,
      "endOffset": 145,
      "phones": [
        {
          "duration": 0.08,
          "phone": "ae_B"
        },
        {
          "duration": 0.03,
          "phone": "n_I"
        },
        {
          "duration": 0.07,
          "phone": "d_E"
        }
      ],
      "start": 9.16,
      "startOffset": 142,
      "word": "AND"
    },
    {
      "alignedWord": "north",
      "case": "success",
      "end": 9.709999999999999,
      "endOffset": 151,
      "phones": [
        {
          "duration": 0.04,
          "phone": "n_B"
        },
        {
          "duration": 0.12,
          "phone": "ao_I"
        },
        {
          "duration": 0.1,
          "phone": "r_I"
        },
        {
          "duration": 0.11,
          "phone": "th_E"
        }
      ],
      "start": 9.34,
      "startOffset": 146,
      "word": "NORTH"
    },
    {
      "alignedWord": "of",
      "case": "success",
      "end": 9.92,
      "endOffset": 154,
      "phones": [
        {
          "duration": 0.1,
          "phone": "ah_B"
        },
        {
          "duration": 0.06,
          "phone": "v_E"
        }
      ],
      "start": 9.76,
      "startOffset": 152,
      "word": "OF"
    },
    {
      "alignedWord": "the",
      "case": "success",
      "end": 10.03,
      "endOffset": 158,
      "phones": [
        {
          "duration": 0.04,
          "phone": "dh_B"
        },
        {
          "duration": 0.07,
          "phone": "iy_E"
        }
      ],
      "start": 9.92,
      "startOffset": 155,
      "word": "THE"
    },
    {
      "alignedWord": "ohio",
      "case": "success",
      "end": 10.629999999999999,
      "endOffset": 163,
      "phones": [
        {
          "duration": 0.09,
          "phone": "ow_B"
        },
        {
          "duration": 0.09,
          "phone": "hh_I"
        },
        {
          "duration": 0.14,
          "phone": "ay_I"
        },
        {
          "duration": 0.28,
          "phone": "ow_E"
        }
      ],
      "start": 10.03,
      "startOffset": 159,
      "word": "OHIO"
    },
    {
      "alignedWord": "the",
      "case": "success",
      "end": 12.379999,
      "endOffset": 167,
      "phones": [
        {
          "duration": 0.07,
          "phone": "dh_B"
        },
        {
          "duration": 0.05,
          "phone": "ah_E"
        }
      ],
      "start": 12.259999,
      "startOffset": 164,
      "word": "THE"
    },
    {
      "alignedWord": "vast",
      "case": "success",
      "end": 12.690000000000001,
      "endOffset": 172,
      "phones": [
        {
          "duration": 0.07,
          "phone": "v_B"
        },
        {
          "duration": 0.13,
          "phone": "ae_I"
        },
        {
          "duration": 0.09,
          "phone": "s_I"
        },
        {
          "duration": 0.02,
          "phone": "t_E"
        }
      ],
      "start": 12.38,
      "startOffset": 168,
      "word": "VAST"
    },
    {
      "alignedWord": "tract",
      "case": "success",
      "end": 13.04,
      "endOffset": 178,
      "phones": [
        {
          "duration": 0.08,
          "phone": "t_B"
        },
        {
          "duration": 0.07,
          "phone": "r_I"
        },
        {
          "duration": 0.06,
          "phone": "ae_I"
        },
        {
          "duration": 0.06,
          "phone": "k_I"
        },
        {
          "duration": 0.07,
          "phone": "t_E"
        }
      ],
      "start": 12.7,
      "startOffset": 173,
      "word": "TRACT"
    },
    {
      "alignedWord": "of",
      "case": "success",
      "end": 13.129999999999999,
      "endOffset": 181,
      "phones": [
        {
          "duration": 0.04,
          "phone": "ah_B"
        },
        {
          "duration": 0.05,
          "phone": "v_E"
        }
      ],
      "start": 13.04,
      "startOffset": 179,
      "word": "OF"
    },
    {
      "alignedWord": "wilderness",
      "case": "success",
      "end": 13.8,
      "endOffset": 192,
      "phones": [
        {
          "duration": 0.05,
          "phone": "w_B"
        },
        {
          "duration": 0.08,
          "phone": "ih_I"
        },
        {
          "duration": 0.07,
          "phone": "l_I"
        },
        {
          "duration": 0.05,
          "phone": "d_I"
        },
        {
          "duration": 0.09,
          "phone": "er_I"
        },
        {
          "duration": 0.03,
          "phone": "n_I"
        },
        {
          "duration": 0.11,
          "phone": "ah_I"
        },
        {
          "duration": 0.19,
          "phone": "s_E"
        }
      ],
      "start": 13.13,
      "startOffset": 182,
      "word": "WILDERNESS"
    },
    {
      "alignedWord": "from",
      "case": "success",
      "end": 14.18,
      "endOffset": 197,
      "phones": [
        {
          "duration": 0.09,
          "phone": "f_B"
        },
        {
          "duration": 0.06,
          "phone": "er_I"
        },
        {
          "duration": 0.05,
          "phone": "m_E"
        }
      ],
      "start": 13.98,
      "startOffset": 193,
      "word": "FROM"
    },
    {
      "alignedWord": "the",
      "case": "success",
      "end": 14.269999,
      "endOffset": 201,
      "phones": [
        {
          "duration": 0.04,
          "phone": "dh_B"
        },
        {
          "duration": 0.05,
          "phone": "ah_E"
        }
      ],
      "start": 14.179999,
      "startOffset": 198,
      "word": "THE"
    },
    {
      "alignedWord": "mississippi",
      "case": "success",
      "end": 14.959999999999999,
      "endOffset": 213,
      "phones": [
        {
          "duration": 0.06,
          "phone": "m_B"
        },
        {
          "duration": 0.06,
          "phone": "ih_I"
        },
        {
          "duration": 0.05,
          "phone": "s_I"
        },
        {
          "duration": 0.08,
          "phone": "ih_I"
        },
        {
          "duration": 0.09,
          "phone": "s_I"
        },
        {
          "duration": 0.08,
          "phone": "ih_I"
        },
        {
          "duration": 0.1,
          "phone": "p_I"
        },
        {
          "duration": 0.17,
          "phone": "iy_E"
        }
      ],
      "start": 14.27,
      "startOffset": 202,
      "word": "MISSISSIPPI"
    },
    {
      "alignedWord": "to",
      "case": "success",
      "end": 15.149999000000001,
      "endOffset": 216,
      "phones": [
        {
          "duration": 0.07,
          "phone": "t_B"
        },
        {
          "duration": 0.07,
          "phone": "ih_E"
        }
      ],
      "start": 15.009999,
      "startOffset": 214,
      "word": "TO"
    },
    {
      "alignedWord": "the",
      "case": "success",
      "end": 15.27,
      "endOffset": 220,
      "phones": [
        {
          "duration": 0.07,
          "phone": "dh_B"
        },
        {
          "duration": 0.05,
          "phone": "iy_E"
        }
      ],
      "start": 15.15,
      "startOffset": 217,
      "word": "THE"
    },
    {
      "alignedWord": "atlantic",
      "case": "success",
      "end": 15.86,
      "endOffset": 229,
      "phones": [
        {
          "duration": 0.04,
          "phone": "ah_B"
        },
        {
          "duration": 0.06,
          "phone": "t_I"
        },
        {
          "duration": 0.08,
          "phone": "l_I"
        },
        {
          "duration": 0.06,
          "phone": "ae_I"
        },
        {
          "duration": 0.06,
          "phone": "n_I"
        },
        {
          "duration": 0.07,
          "phone": "t_I"
        },
        {
          "duration": 0.08,
          "phone": "ih_I"
        },
        {
          "duration": 0.14,
          "phone": "k_E"
        }
      ],
      "start": 15.27,
      "startOffset": 221,
      "word": "ATLANTIC"
    }
  ]
}