{
  "transcript": "BUT BEFORE THEY COULD GET INTO THE LAND OF THE MONKEYS THEY CAME TO A STEEP CLIFF WITH A RIVER FLOWING BELOW THIS WAS THE END OF THE KINGDOM OF JOLLIGINKI",
  "words": [
    {
      "alignedWord": "but",
      "case": "success",
      "end": 0.79,
      "endOffset": 3,
      "phones": [
        {
          "duration": 0.1,
          "phone": "b_B"
        },
        {
          "duration": 0.06,
          "phone": "ah_I"
        },
        {
          "duration": 0.07,
          "phone": "t_E"
        }
      ],
      "start": 0.56,
      "startOffset": 0,
      "word": "BUT"
    },
    {
      "alignedWord": "before",
      "case": "success",
      "end": 1.22,
      "endOffset": 10,
      "phones": [
        {
          "duration": 0.06,
          "phone": "b_B"
        },
        {
          "duration": 0.05,
          "phone": "ih_I"
        },
        {
          "duration": 0.12,
          "phone": "f_I"
        },
        {
          "duration": 0.1,
          "phone": "ao_I"
        },
        {
          "duration": 0.1,
          "phone": "r_E"
        }
      ],
      "start": 0.79,
      "startOffset": 4,
      "word": "BEFORE"
    },
    {
      "alignedWord": "they",
      "case": "success",
      "end": 1.3699999999999999,
      "endOffset": 15,
      "phones": [
        {
          "duration": 0.06,
          "phone": "dh_B"
        },
        {
          "duration": 0.09,
          "phone": "ey_E"
        }
      ],
      "start": 1.22,
      "startOffset": 11,
      "word": "THEY"
    },
    {
      "alignedWord": "could",
      "case": "success",
      "end": 1.56,
      "endOffset": 21,
      "phones": [
        {
          "duration": 0.06,
          "phone": "k_B"
        },
        {
          "duration": 0.05,
          "phone": "uh_I"
        },
        {
          "duration": 0.08,
          "phone": "d_E"
        }
      ],
      "start": 1.37,
      "startOffset": 16,
      "word": "COULD"
    },
    {
      "alignedWord": "get",
      "case": "success",
      "end": 1.84,
      "endOffset": 25,
      "phones": [
        {
          "duration": 0.08,
          "phone": "g_B"
        },
        {
          "duration": 0.12,
          "phone": "eh_I"
        },
        {
          "duration": 0.08,
          "phone": "t_E"
        }
      ],
      "start": 1.56,
      "startOffset": 22,
      "word": "GET"
    },
    {
      "alignedWord": "into",
      "case": "success",
      "end": 2.13,
      "endOffset": 30,
      "phones": [
        {
          "duration": 0.11,
          "phone": "ih_B"
        },
        {
          "duration": 0.06,
          "phone": "n_I"
        },
        {
          "duration": 0.07,
          "phone": "t_I"
        },
        {
          "duration": 0.03,
          "phone": "ah_E"
        }
      ],
      "start": 1.86,
      "startOffset": 26,
      "word": "INTO"
    },
    {
      "alignedWord": "the",
      "case": "success",
      "end": 2.21,
      "endOffset": 34,
      "phones": [
        {
          "duration": 0.01,
          "phone": "dh_B"
        },
        {
          "duration": 0.07,
          "phone": "ah_E"
        }
      ],
      "start": 2.13,
      "startOffset": 31,
      "word": "THE"
    },
    {
      "alignedWord": "land",
      "case": "success",
      "end": 2.47,
      "endOffset": 39,
      "phones": [
        {
          "duration": 0.1,
          "phone": "l_B"
        },
        {
          "duration": 0.09,
          "phone": "ae_I"
        },
        {
          "duration": 0.05,
          "phone": "n_I"
        },
        {
          "duration": 0.01,
          "phone": "d_E"
        }
      ],
      "start": 2.22,
      "startOffset": 35,
      "word": "LAND"
    },
    {
      "alignedWord": "of",
      "case": "success",
      "end": 2.5900000000000003,
      "endOffset": 42,
      "phones": [
        {
          "duration": 0.05,
          "phone": "ah_B"
        },
        {
          "duration": 0.07,
          "phone": "v_E"
        }
      ],
      "start": 2.47,
      "startOffset": 40,
      "word": "OF"
    },
    {
      "alignedWord": "the",
      "case": "success",
      "end": 2.65,
      "endOffset": 46,
      "phones": [
        {
          "duration": 0.01,
          "phone": "dh_B"
        },
        {
          "duration": 0.05,
          "phone": "ah_E"
        }
      ],
      "start": 2.59,
      "startOffset": 43,
      "word": "THE"
    },
    {
      "alignedWord": "monkeys",
      "case": "success",
      "end": 3.23,
      "endOffset": 54,
      "phones": [
        {
          "duration": 0.05,
          "phone": "m_B"
        },
        {
          "duration": 0.06,
          "phone": "ah_I"
        },
        {
          "duration": 0.06,
          "phone": "ng_I"
        },
        {
          "duration": 0.1,
          "phone": "k_I"
        },
        {
          "duration": 0.13,
          "phone": "iy_I"
        },
        {
          "duration": 0.18,
          "phone": "z_E"
        }
      ],
      "start": 2.65,
      "startOffset": 47,
      "word": "MONKEYS"
    },
    {
      "alignedWord": "they",
      "case": "success",
      "end": 3.74,
      "endOffset": 59,
      "phones": [
        {
          "duration": 0.09,
          "phone": "dh_B"
        },
        {
          "duration": 0.11,
          "phone": "ey_E"
        }
      ],
      "start": 3.54,
      "startOffset": 55,
      "word": "THEY"
    },
    {
      "alignedWord": "came",
      "case": "success",
      "end": 4.04,
      "endOffset": 64,
      "phones": [
        {
          "duration": 0.12,
          "phone": "k_B"
        },
        {
          "duration": 0.1,
          "phone": "ey_I"
        },
        {
          "duration": 0.08,
          "phone": "m_E"
        }
      ],
      "start": 3.74,
      "startOffset": 60,
      "word": "CAME"
    },
    {
      "alignedWord": "to",
      "case": "success",
      "end": 4.17,
      "endOffset": 67,
      "phones": [
        {
          "duration": 0.07,
          "phone": "t_B"
        },
        {
          "duration": 0.06,
          "phone": "uw_E"
        }
      ],
      "start": 4.04,
      "startOffset": 65,
      "word": "TO"
    },
    {
      "alignedWord": "a",
      "case": "success",
      "end": 4.27,
      "endOffset": 69,
      "phones": [
        {
          "duration": 0.1,
          "phone": "ah_S"
        }
      ],
      "start": 4.17,
      "startOffset": 68,
      "word": "A"
    },
    {
      "alignedWord": "steep",
      "case": "success",
      "end": 4.609999999999999,
      "endOffset": 75,
      "phones": [
        {
          "duration": 0.08,
          "phone": "s_B"
        },
        {
          "duration": 0.09,
          "phone": "t_I"
        },
        {
          "duration": 0.09,
          "phone": "iy_I"
        },
        {
          "duration": 0.08,
          "phone": "p_E"
        }
      ],
      "start": 4.27,
      "startOffset": 70,
      "word": "STEEP"
    },
    {
      "alignedWord": "cliff",
      "case": "success",
      "end": 5.09,
      "endOffset": 81,
      "phones": [
        {
          "duration": 0.11,
          "phone": "k_B"
        },
        {
          "duration": 0.06,
          "phone": "l_I"
        },
        {
          "duration": 0.12,
          "phone": "ih_I"
        },
        {
          "duration": 0.19,
          "phone": "f_E"
        }
      ],
      "start": 4.61,
      "startOffset": 76,
      "word": "CLIFF"
    },
    {
      "alignedWord": "with",
      "case": "success",
      "end": 5.44,
      "endOffset": 86,
      "phones": [
        {
          "duration": 0.09,
          "phone": "w_B"
        },
        {
          "duration": 0.06,
          "phone": "ih_I"
        },
        {
          "duration": 0.04,
          "phone": "dh_E"
        }
      ],
      "start": 5.25,
      "startOffset": 82,
      "word": "WITH"
    },
    {
      "alignedWord": "a",
      "case": "success",
      "end": 5.5200000000000005,
      "endOffset": 88,
      "phones": [
        {
          "duration": 0.08,
          "phone": "ah_S"
        }
      ],
      "start": 5.44,
      "startOffset": 87,
      "word": "A"
    },
    {
      "alignedWord": "river",
      "case": "success",
      "end": 5.88,
      "endOffset": 94,
      "phones": [
        {
          "duration": 0.09,
          "phone": "r_B"
        },
        {
          "duration": 0.08,
          "phone": "ih_I"
        },
        {
          "duration": 0.09,
          "phone": "v_I"
        },
        {
          "duration": 0.1,
          "phone": "er_E"
        }
      ],
      "start": 5.52,
      "startOffset": 89,
      "word": "RIVER"
    },
    {
      "alignedWord": "flowing",
      "case": "success",
      "end": 6.31,
      "endOffset": 102,
      "phones": [
        {
          "duration": 0.12,
          "phone": "f_B"
        },
        {
          "duration": 0.06,
          "phone": "l_I"
        },
        {
          "duration": 0.1,
          "phone": "ow_I"
        },
        {
          "duration": 0.07,
          "phone": "ih_I"
        },
        {
          "duration": 0.08,
          "phone": "ng_E"
        }
      ],
      "start": 5.88,
      "startOffset": 95,
      "word": "FLOWING"
    },
    {
      "alignedWord": "below",
      "case": "success",
      "end": 6.819999999999999,
      "endOffset": 108,
      "phones": [
        {
          "duration": 0.02,
          "phone": "b_B"
        },
        {
          "duration": 0.06,
          "phone": "ih_I"
        },
        {
          "duration": 0.11,
          "phone": "l_I"
        },
        {
          "duration": 0.32,
          "phone": "ow_E"
        }
      ],
      "start": 6.31,
      "startOffset": 103,
      "word": "BELOW"
    },
    {
      "alignedWord": "this",
      "case": "success",
      "end": 7.78,
      "endOffset": 113,
      "phones": [
        {
          "duration": 0.12,
          "phone": "dh_B"
        },
        {
          "duration": 0.14,
          "phone": "ih_I"
        },
        {
          "duration": 0.23,
          "phone": "s_E"
        }
      ],
      "start": 7.29,
      "startOffset": 109,
      "word": "THIS"
    },
    {
      "alignedWord": "was",
      "case": "success",
      "end": 8.2,
      "endOffset": 117,
      "phones": [
        {
          "duration": 0.09,
          "phone": "w_B"
        },
        {
          "duration": 0.07,
          "phone": "ah_I"
        },
        {
          "duration": 0.07,
          "phone": "z_E"
        }
      ],
      "start": 7.97,
      "startOffset": 114,
      "word": "WAS"
    },
    {
      "alignedWord": "the",
      "case": "success",
      "end": 8.36,
      "endOffset": 121,
      "phones": [
        {
          "duration": 0.06,
          "phone": "dh_B"
        },
        {
          "duration": 0.1,
          "phone": "iy_E"
        }
      ],
      "start": 8.2,
      "startOffset": 118,
      "word": "THE"
    },
    {
      "alignedWord": "end",
      "case": "success",
      "end": 8.68,
      "endOffset": 125,
      "phones": [
        {
          "duration": 0.12,
          "phone": "eh_B"
        },
        {
          "duration": 0.14,
          "phone": "n_I"
        },
        {
          "duration": 0.02,
          "phone": "d_E"
        }
      ],
      "start": 8.4,
      "startOffset": 122,
      "word": "END"
    },
    {
      "alignedWord": "of",
      "case": "success",
      "end": 8.789999,
      "endOffset": 128,
      "phones": [
        {
          "duration": 0.04,
          "phone": "ah_B"
        },
        {
          "duration": 0.07,
          "phone": "v_E"
        }
      ],
      "start": 8.679999,
      "startOffset": 126,
      "word": "OF"
    },
    {
      "alignedWord": "the",
      "case": "success",
      "end": 8.87,
      "endOffset": 132,
      "phones": [
        {
          "duration": 0.01,
          "phone": "dh_B"
        },
        {
          "duration": 0.07,
          "phone": "ah_E"
        }
      ],
      "start": 8.79,
      "startOffset": 129,
      "word": "THE"
    },
    {
      "alignedWord": "kingdom",
      "case": "success",
      "end": 9.549999999999999,
      "endOffset": 140,
      "phones": [
        {
          "duration": 0.13,
          "phone": "k_B"
        },
        {
          "duration": 0.07,
          "phone": "ih_I"
        },
        {
          "duration": 0.07,
          "phone": "ng_I"
        },
        {
          "duration": 0.09,
          "phone": "d_I"
        },
        {
          "duration": 0.12,
          "phone": "ah_I"
        },
        {
          "duration": 0.2,
          "phone": "m_E"
        }
      ],
      "start": 8.87,
      "startOffset": 133,
      "word": "KINGDOM"
    },
    {
      "alignedWord": "of",
      "case": "success",
      "end": 10.129999,
      "endOffset": 143,
      "phones": [
        {
          "duration": 0.12,
          "phone": "ah_B"
        },
        {
          "duration": 0.12,
          "phone": "v_E"
        }
      ],
      "start": 9.889999,
      "startOffset": 141,
      "word": "OF"
    },
    {
      "alignedWord": "<unk>",
      "case": "success",
      "end": 11.06,
      "endOffset": 154,
      "phones": [
        {
          "duration": 0.93,
          "phone": "oov_S"
        }
      ],
      "start": 10.13,
      "startOffset": 144,
      "word": "JOLLIGINKI"
    }
  ]
}