{
  "transcript": "WHICH HAD JUST BEEN CONSIDERED AGAIN HAS THE MOON BEEN INHABITED HE ASKED THE ANSWER WAS UNANIMOUSLY IN THE AFFIRMATIVE BUT DURING THIS DISCUSSION FRUITFUL IN SOMEWHAT HAZARDOUS THEORIES",
  "words": [
    {
      "alignedWord": "which",
      "case": "success",
      "end": 0.45,
      "endOffset": 5,
      "phones": [
        {
          "duration": 0.06,
          "phone": "w_B"
        },
        {
          "duration": 0.05,
          "phone": "ih_I"
        },
        {
          "duration": 0.08,
          "phone": "ch_E"
        }
      ],
      "start": 0.26,
      "startOffset": 0,
      "word": "WHICH"
    },
    {
      "alignedWord": "had",
      "case": "success",
      "end": 0.62,
      "endOffset": 9,
      "phones": [
        {
          "duration": 0.05,
          "phone": "hh_B"
        },
        {
          "duration": 0.03,
          "phone": "ae_I"
        },
        {
          "duration": 0.09,
          "phone": "d_E"
        }
      ],
      "start": 0.45,
      "startOffset": 6,
      "word": "HAD"
    },
    {
      "alignedWord": "just",
      "case": "success",
      "end": 1.13,
      "endOffset": 14,
      "phones": [
        {
          "duration": 0.14,
          "phone": "jh_B"
        },
        {
          "duration": 0.12,
          "phone": "ah_I"
        },
        {
          "duration": 0.13,
          "phone": "s_I"
        },
        {
          "duration": 0.08,
          "phone": "t_E"
        }
      ],
      "start": 0.66,
      "startOffset": 10,
      "word": "JUST"
    },
    {
      "alignedWord": "been",
      "case": "success",
      "end": 1.3599999999999999,
      "endOffset": 19,
      "phones": [
        {
          "duration": 0.06,
          "phone": "b_B"
        },
        {
          "duration": 0.07,
          "phone": "ih_I"
        },
        {
          "duration": 0.07,
          "phone": "n_E"
        }
      ],
      "start": 1.16,
      "startOffset": 15,
      "word": "BEEN"
    },
    {
      "alignedWord": "considered",
      "case": "success",
      "end": 1.9000000000000001,
      "endOffset": 30,
      "phones": [
        {
          "duration": 0.05,
          "phone": "k_B"
        },
        {
          "duration": 0.06,
          "phone": "ah_I"
        },
        {
          "duration": 0.07,
          "phone": "n_I"
        },
        {
          "duration": 0.1,
          "phone": "s_I"
        },
        {
          "duration": 0.08,
          "phone": "ih_I"
        },
        {
          "duration": 0.03,
          "phone": "d_I"
        },
        {
          "duration": 0.08,
          "phone": "er_I"
        },
        {
          "duration": 0.07,
          "phone": "d_E"
        }
      ],
      "start": 1.36,
      "startOffset": 20,
      "word": "CONSIDERED"
    },
    {
      "alignedWord": "again",
      "case": "success",
      "end": 2.32,
      "endOffset": 36,
      "phones": [
        {
          "duration": 0.04,
          "phone": "ah_B"
        },
        {
          "duration": 0.1,
          "phone": "g_I"
        },
        {
          "duration": 0.09,
          "phone": "eh_I"
        },
        {
          "duration": 0.19,
          "phone": "n_E"
        }
      ],
      "start": 1.9,
      "startOffset": 31,
      "word": "AGAIN"
    },
    {
      "alignedWord": "has",
      "case": "success",
      "end": 3.6,
      "endOffset": 40,
      "phones": [
        {
          "duration": 0.11,
          "phone": "hh_B"
        },
        {
          "duration": 0.15,
          "phone": "ae_I"
        },
        {
          "duration": 0.11,
          "phone": "z_E"
        }
      ],
      "start": 3.23,
      "startOffset": 37,
      "word": "HAS"
    },
    {
      "alignedWord": "the",
      "case": "success",
      "end": 3.73,
      "endOffset": 44,
      "phones": [
        {
          "duration": 0.06,
          "phone": "dh_B"
        },
        {
          "duration": 0.06,
          "phone": "ah_E"
        }
      ],
      "start": 3.61,
      "startOffset": 41,
      "word": "THE"
    },
    {
      "alignedWord": "moon",
      "case": "success",
      "end": 4.13,
      "endOffset": 49,
      "phones": [
        {
          "duration": 0.07,
          "phone": "m_B"
        },
        {
          "duration": 0.17,
          "phone": "uw_I"
        },
        {
          "duration": 0.16,
          "phone": "n_E"
        }
      ],
      "start": 3.73,
      "startOffset": 45,
      "word": "MOON"
    },
    {
      "alignedWord": "been",
      "case": "success",
      "end": 4.529999999999999,
      "endOffset": 54,
      "phones": [
        {
          "duration": 0.06,
          "phone": "b_B"
        },
        {
          "duration": 0.1,
          "phone": "ih_I"
        },
        {
          "duration": 0.19,
          "phone": "n_E"
        }
      ],
      "start": 4.18,
      "startOffset": 50,
      "word": "BEEN"
    },
    {
      "alignedWord": "inhabited",
      "case": "success",
      "end": 5.42,
      "endOffset": 64,
      "phones": [
        {
          "duration": 0.09,
          "phone": "ih_B"
        },
        {
          "duration": 0.09,
          "phone": "n_I"
        },
        {
          "duration": 0.11,
          "phone": "hh_I"
        },
        {
          "duration": 0.11,
          "phone": "ae_I"
        },
        {
          "duration": 0.06,
          "phone": "b_I"
        },
        {
          "duration": 0.05,
          "phone": "ah_I"
        },
        {
          "duration": 0.09,
          "phone": "t_I"
        },
        {
          "duration": 0.09,
          "phone": "ah_I"
        },
        {
          "duration": 0.19,
          "phone": "d_E"
        }
      ],
      "start": 4.54,
      "startOffset": 55,
      "word": "INHABITED"
    },
    {
      "alignedWord": "he",
      "case": "success",
      "end": 5.930000000000001,
      "endOffset": 67,
      "phones": [
        {
          "duration": 0.13,
          "phone": "hh_B"
        },
        {
          "duration": 0.11,
          "phone": "iy_E"
        }
      ],
      "start": 5.69,
      "startOffset": 65,
      "word": "HE"
    },
    {
      "alignedWord": "asked",
      "case": "success",
      "end": 6.46,
      "endOffset": 73,
      "phones": [
        {
          "duration": 0.15,
          "phone": "ae_B"
        },
        {
          "duration": 0.17,
          "phone": "s_I"
        },
        {
          "duration": 0.05,
          "phone": "k_I"
        },
        {
          "duration": 0.16,
          "phone": "t_E"
        }
      ],
      "start": 5.93,
      "startOffset": 68,
      "word": "ASKED"
    },
    {
      "alignedWord": "the",
      "case": "success",
      "end": 7.86,
      "endOffset": 77,
      "phones": [
        {
          "duration": 0.08,
          "phone": "dh_B"
        },
        {
          "duration": 0.08,
          "phone": "iy_E"
        }
      ],
      "start": 7.7,
      "startOffset": 74,
      "word": "THE"
    },
    {
      "alignedWord": "answer",
      "case": "success",
      "end": 8.17,
      "endOffset": 84,
      "phones": [
        {
          "duration": 0.06,
          "phone": "ae_B"
        },
        {
          "duration": 0.09,
          "phone": "n_I"
        },
        {
          "duration": 0.11,
          "phone": "s_I"
        },
        {
          "duration": 0.05,
          "phone": "er_E"
        }
      ],
      "start": 7.86,
      "startOffset": 78,
      "word": "ANSWER"
    },
    {
      "alignedWord": "was",
      "case": "success",
      "end": 8.38,
      "endOffset": 88,
      "phones": [
        {
          "duration": 0.06,
          "phone": "w_B"
        },
        {
          "duration": 0.07,
          "phone": "ah_I"
        },
        {
          "duration": 0.08,
          "phone": "z_E"
        }
      ],
      "start": 8.17,
      "startOffset": 85,
      "word": "WAS"
    },
    {
      "alignedWord": "unanimously",
      "case": "success",
      "end": 9.430000000000001,
      "endOffset": 100,
      "phones": [
        {
          "duration": 0.06,
          "phone": "y_B"
        },
        {
          "duration": 0.07,
          "phone": "uw_I"
        },
        {
          "duration": 0.14,
          "phone": "n_I"
        },
        {
          "duration": 0.12,
          "phone": "ae_I"
        },
        {
          "duration": 0.06,
          "phone": "n_I"
        },
        {
          "duration": 0.05,
          "phone": "ah_I"
        },
        {
          "duration": 0.06,
          "phone": "m_I"
        },
        {
          "duration": 0.08,
          "phone": "ah_I"
        },
        {
          "duration": 0.12,
          "phone": "s_I"
        },
        {
          "duration": 0.09,
          "phone": "l_I"
        },
        {
          "duration": 0.2,
          "phone": "iy_E"
        }
      ],
      "start": 8.38,
      "startOffset": 89,
      "word": "UNANIMOUSLY"
    },
    {
      "alignedWord": "in",
      "case": "success",
      "end": 9.57,
      "endOffset": 103,
      "phones": [
        {
          "duration": 0.08,
          "phone": "ih_B"
        },
        {
          "duration": 0.05,
          "phone": "n_E"
        }
      ],
      "start": 9.44,
      "startOffset": 101,
      "word": "IN"
    },
    {
      "alignedWord": "the",
      "case": "success",
      "end": 9.71,
      "endOffset": 107,
      "phones": [
        {
          "duration": 0.06,
          "phone": "dh_B"
        },
        {
          "duration": 0.08,
          "phone": "iy_E"
        }
      ],
      "start": 9.57,
      "startOffset": 104,
      "word": "THE"
    },
    {
      "alignedWord": "affirmative",
      "case": "success",
      "end": 10.430000000000001,
      "endOffset": 119,
      "phones": [
        {
          "duration": 0.07,
          "phone": "ah_B"
        },
        {
          "duration": 0.12,
          "phone": "f_I"
        },
        {
          "duration": 0.09,
          "phone": "er_I"
        },
        {
          "duration": 0.04,
          "phone": "m_I"
        },
        {
          "duration": 0.07,
          "phone": "ah_I"
        },
        {
          "duration": 0.04,
          "phone": "t_I"
        },
        {
          "duration": 0.08,
          "phone": "ih_I"
        },
        {
          "duration": 0.21,
          "phone": "v_E"
        }
      ],
      "start": 9.71,
      "startOffset": 108,
      "word": "AFFIRMATIVE"
    },
    {
      "alignedWord": "but",
      "case": "success",
      "end": 11.059999999999999,
      "endOffset": 123,
      "phones": [
        {
          "duration": 0.07,
          "phone": "b_B"
        },
        {
          "duration": 0.04,
          "phone": "ah_I"
        },
        {
          "duration": 0.09,
          "phone": "t_E"
        }
      ],
      "start": 10.86,
      "startOffset": 120,
      "word": "BUT"
    },
    {
      "alignedWord": "during",
      "case": "success",
      "end": 11.55,
      "endOffset": 130,
      "phones": [
        {
          "duration": 0.1,
          "phone": "d_B"
        },
        {
          "duration": 0.08,
          "phone": "er_I"
        },
        {
          "duration": 0.07,
          "phone": "ih_I"
        },
        {
          "duration": 0.06,
          "phone": "ng_E"
        }
      ],
      "start": 11.24,
      "startOffset": 124,
      "word": "DURING"
    },
    {
      "alignedWord": "this",
      "case": "success",
      "end": 11.760000000000002,
      "endOffset": 135,
      "phones": [
        {
          "duration": 0.07,
          "phone": "dh_B"
        },
        {
          "duration": 0.05,
          "phone": "ih_I"
        },
        {
          "duration": 0.09,
          "phone": "s_E"
        }
      ],
      "start": 11.55,
      "startOffset": 131,
      "word": "THIS"
    },
    {
      "alignedWord": "discussion",
      "case": "success",
      "end": 12.529999,
      "endOffset": 146,
      "phones": [
        {
          "duration": 0.07,
          "phone": "d_B"
        },
        {
          "duration": 0.08,
          "phone": "ih_I"
        },
        {
          "duration": 0.1,
          "phone": "s_I"
        },
        {
          "duration": 0.08,
          "phone": "k_I"
        },
        {
          "duration": 0.11,
          "phone": "ah_I"
        },
        {
          "duration": 0.13,
          "phone": "sh_I"
        },
        {
          "duration": 0.08,
          "phone": "ah_I"
        },
        {
          "duration": 0.12,
          "phone": "n_E"
        }
      ],
      "start": 11.759999,
      "startOffset": 136,
      "word": "DISCUSSION"
    },
    {
      "alignedWord": "fruitful",
      "case": "success",
      "end": 13.2,
      "endOffset": 155,
      "phones": [
        {
          "duration": 0.21,
          "phone": "f_B"
        },
        {
          "duration": 0.07,
          "phone": "r_I"
        },
        {
          "duration": 0.07,
          "phone": "uw_I"
        },
        {
          "duration": 0.07,
          "phone": "t_I"
        },
        {
          "duration": 0.09,
          "phone": "f_I"
        },
        {
          "duration": 0.06,
          "phone": "ah_I"
        },
        {
          "duration": 0.09,
          "phone": "l_E"
        }
      ],
      "start": 12.54,
      "startOffset": 147,
      "word": "FRUITFUL"
    },
    {
      "alignedWord": "in",
      "case": "success",
      "end": 13.36,
      "endOffset": 158,
      "phones": [
        {
          "duration": 0.06,
          "phone": "ih_B"
        },
        {
          "duration": 0.1,
          "phone": "n_E"
        }
      ],
      "start": 13.2,
      "startOffset": 156,
      "word": "IN"
    },
    {
      "alignedWord": "somewhat",
      "case": "success",
      "end": 13.82,
      "endOffset": 167,
      "phones": [
        {
          "duration": 0.12,
          "phone": "s_B"
        },
        {
          "duration": 0.08,
          "phone": "ah_I"
        },
        {
          "duration": 0.09,
          "phone": "m_I"
        },
        {
          "duration": 0.06,
          "phone": "w_I"
        },
        {
          "duration": 0.07,
          "phone": "ah_I"
        },
        {
          "duration": 0.04,
          "phone": "t_E"
        }
      ],
      "start": 13.36,
      "startOffset": 159,
      "word": "SOMEWHAT"
    },
    {
      "alignedWord": "hazardous",
      "case": "success",
      "end": 14.47,
      "endOffset": 177,
      "phones": [
        {
          "duration": 0.15,
          "phone": "hh_B"
        },
        {
          "duration": 0.15,
          "phone": "ae_I"
        },
        {
          "duration": 0.06,
          "phone": "z_I"
        },
        {
          "duration": 0.07,
          "phone": "er_I"
        },
        {
          "duration": 0.06,
          "phone": "d_I"
        },
        {
          "duration": 0.07,
          "phone": "ah_I"
        },
        {
          "duration": 0.08,
          "phone": "s_E"
        }
      ],
      "start": 13.83,
      "startOffset": 168,
      "word": "HAZARDOUS"
    },
    {
      "alignedWord": "theories",
      "case": "success",
      "end": 15.079998999999999,
      "endOffset": 186,
      "phones": [
        {
          "duration": 0.11,
          "phone": "th_B"
        },
        {
          "duration": 0.1,
          "phone": "iy_I"
        },
        {
          "duration": 0.14,
          "phone": "er_I"
        },
        {
          "duration": 0.09,
          "phone": "iy_I"
        },
        {
          "duration": 0.17,
          "phone": "z_E"
        }
      ],
      "start": 14.469999,
      "startOffset": 178,
      "word": "THEORIES"
    }
  ]
}