{
  "transcript": "ASTONISH US SAID MICHEL ARDAN I FIRMLY BELIEVE THAT AT THE PERIOD WHEN THE MOON WAS INHABITED THE NIGHTS AND DAYS DID NOT LAST THREE HUNDRED FIFTY FOUR HOURS AND WHY",
  "words": [
    {
      "alignedWord": "<unk>",
      "case": "success",
      "end": 1.23,
      "endOffset": 8,
      "phones": [
        {
          "duration": 0.7,
          "phone": "oov_S"
        }
      ],
      "start": 0.53,
      "startOffset": 0,
      "word": "ASTONISH"
    },
    {
      "alignedWord": "us",
      "case": "success",
      "end": 1.63,
      "endOffset": 11,
      "phones": [
        {
          "duration": 0.1,
          "phone": "ah_B"
        },
        {
          "duration": 0.3,
          "phone": "s_E"
        }
      ],
      "start": 1.23,
      "startOffset": 9,
      "word": "US"
    },
    {
      "alignedWord": "said",
      "case": "success",
      "end": 2.21,
      "endOffset": 16,
      "phones": [
        {
          "duration": 0.18,
          "phone": "s_B"
        },
        {
          "duration": 0.06,
          "phone": "eh_I"
        },
        {
          "duration": 0.06,
          "phone": "d_E"
        }
      ],
      "start": 1.91,
      "startOffset": 12,
      "word": "SAID"
    },
    {
      "alignedWord": "michel",
      "case": "success",
      "end": 2.5,
      "endOffset": 23,
      "phones": [
        {
          "duration": 0.04,
          "phone": "m_B"
        },
        {
          "duration": 0.06,
          "phone": "ih_I"
        },
        {
          "duration": 0.11,
          "phone": "sh_I"
        },
        {
          "duration": 0.07,
          "phone": "eh_I"
        },
        {
          "duration": 0.01,
          "phone": "l_E"
        }
      ],
      "start": 2.21,
      "startOffset": 17,
      "word": "MICHEL"
    },
    {
      "alignedWord": "<unk>",
      "case": "success",
      "end": 3.01,
      "endOffset": 29,
      "phones": [
        {
          "duration": 0.51,
          "phone": "oov_S"
        }
      ],
      "start": 2.5,
      "startOffset": 24,
      "word": "ARDAN"
    },
    {
      "alignedWord": "i",
      "case": "success",
      "end": 4.710000000000001,
      "endOffset": 31,
      "phones": [
        {
          "duration": 0.27,
          "phone": "ay_S"
        }
      ],
      "start": 4.44,
      "startOffset": 30,
      "word": "I"
    },
    {
      "alignedWord": "firmly",
      "case": "success",
      "end": 5.11,
      "endOffset": 38,
      "phones": [
        {
          "duration": 0.1,
          "phone": "f_B"
        },
        {
          "duration": 0.08,
          "phone": "er_I"
        },
        {
          "duration": 0.07,
          "phone": "m_I"
        },
        {
          "duration": 0.07,
          "phone": "l_I"
        },
        {
          "duration": 0.06,
          "phone": "iy_E"
        }
      ],
      "start": 4.73,
      "startOffset": 32,
      "word": "FIRMLY"
    },
    {
      "alignedWord": "believe",
      "case": "success",
      "end": 5.71,
      "endOffset": 46,
      "phones": [
        {
          "duration": 0.05,
          "phone": "b_B"
        },
        {
          "duration": 0.04,
          "phone": "ih_I"
        },
        {
          "duration": 0.13,
          "phone": "l_I"
        },
        {
          "duration": 0.15,
          "phone": "iy_I"
        },
        {
          "duration": 0.23,
          "phone": "v_E"
        }
      ],
      "start": 5.11,
      "startOffset": 39,
      "word": "BELIEVE"
    },
    {
      "alignedWord": "that",
      "case": "success",
      "end": 6.4,
      "endOffset": 51,
      "phones": [
        {
          "duration": 0.14,
          "phone": "dh_B"
        },
        {
          "duration": 0.06,
          "phone": "ae_I"
        },
        {
          "duration": 0.05,
          "phone": "t_E"
        }
      ],
      "start": 6.15,
      "startOffset": 47,
      "word": "THAT"
    },
    {
      "alignedWord": "at",
      "case": "success",
      "end": 6.5600000000000005,
      "endOffset": 54,
      "phones": [
        {
          "duration": 0.08,
          "phone": "ae_B"
        },
        {
          "duration": 0.08,
          "phone": "t_E"
        }
      ],
      "start": 6.4,
      "startOffset": 52,
      "word": "AT"
    },
    {
      "alignedWord": "the",
      "case": "success",
      "end": 6.659999999999999,
      "endOffset": 58,
      "phones": [
        {
          "duration": 0.05,
          "phone": "dh_B"
        },
        {
          "duration": 0.05,
          "phone": "ah_E"
        }
      ],
      "start": 6.56,
      "startOffset": 55,
      "word": "THE"
    },
    {
      "alignedWord": "period",
      "case": "success",
      "end": 7.140000000000001,
      "endOffset": 65,
      "phones": [
        {
          "duration": 0.08,
          "phone": "p_B"
        },
        {
          "duration": 0.11,
          "phone": "ih_I"
        },
        {
          "duration": 0.09,
          "phone": "r_I"
        },
        {
          "duration": 0.08,
          "phone": "iy_I"
        },
        {
          "duration": 0.03,
          "phone": "ah_I"
        },
        {
          "duration": 0.09,
          "phone": "d_E"
        }
      ],
      "start": 6.66,
      "startOffset": 59,
      "word": "PERIOD"
    },
    {
      "alignedWord": "when",
      "case": "success",
      "end": 7.27,
      "endOffset": 70,
      "phones": [
        {
          "duration": 0.03,
          "phone": "w_B"
        },
        {
          "duration": 0.06,
          "phone": "ih_I"
        },
        {
          "duration": 0.04,
          "phone": "n_E"
        }
      ],
      "start": 7.14,
      "startOffset": 66,
      "word": "WHEN"
    },
    {
      "alignedWord": "the",
      "case": "success",
      "end": 7.359999999999999,
      "endOffset": 74,
      "phones": [
        {
          "duration": 0.04,
          "phone": "dh_B"
        },
        {
          "duration": 0.05,
          "phone": "ah_E"
        }
      ],
      "start": 7.27,
      "startOffset": 71,
      "word": "THE"
    },
    {
      "alignedWord": "moon",
      "case": "success",
      "end": 7.57,
      "endOffset": 79,
      "phones": [
        {
          "duration": 0.07,
          "phone": "m_B"
        },
        {
          "duration": 0.13,
          "phone": "uw_I"
        },
        {
          "duration": 0.01,
          "phone": "n_E"
        }
      ],
      "start": 7.36,
      "startOffset": 75,
      "word": "MOON"
    },
    {
      "alignedWord": "was",
      "case": "success",
      "end": 7.74,
      "endOffset": 83,
      "phones": [
        {
          "duration": 0.07,
          "phone": "w_B"
        },
        {
          "duration": 0.06,
          "phone": "ah_I"
        },
        {
          "duration": 0.03,
          "phone": "z_E"
        }
      ],
      "start": 7.58,
      "startOffset": 80,
      "word": "WAS"
    },
    {
      "alignedWord": "inhabited",
      "case": "success",
      "end": 8.48,
      "endOffset": 93,
      "phones": [
        {
          "duration": 0.05,
          "phone": "ih_B"
        },
        {
          "duration": 0.07,
          "phone": "n_I"
        },
        {
          "duration": 0.11,
          "phone": "hh_I"
        },
        {
          "duration": 0.1,
          "phone": "ae_I"
        },
        {
          "duration": 0.06,
          "phone": "b_I"
        },
        {
          "duration": 0.03,
          "phone": "ah_I"
        },
        {
          "duration": 0.05,
          "phone": "t_I"
        },
        {
          "duration": 0.06,
          "phone": "ah_I"
        },
        {
          "duration": 0.21,
          "phone": "d_E"
        }
      ],
      "start": 7.74,
      "startOffset": 84,
      "word": "INHABITED"
    },
    {
      "alignedWord": "the",
      "case": "success",
      "end": 8.579998999999999,
      "endOffset": 97,
      "phones": [
        {
          "duration": 0.01,
          "phone": "dh_B"
        },
        {
          "duration": 0.01,
          "phone": "ah_E"
        }
      ],
      "start": 8.559999,
      "startOffset": 94,
      "word": "THE"
    },
    {
      "alignedWord": "nights",
      "case": "success",
      "end": 9.02,
      "endOffset": 104,
      "phones": [
        {
          "duration": 0.15,
          "phone": "n_B"
        },
        {
          "duration": 0.1,
          "phone": "ay_I"
        },
        {
          "duration": 0.08,
          "phone": "t_I"
        },
        {
          "duration": 0.1,
          "phone": "s_E"
        }
      ],
      "start": 8.59,
      "startOffset": 98,
      "word": "NIGHTS"
    },
    {
      "alignedWord": "and",
      "case": "success",
      "end": 9.19,
      "endOffset": 108,
      "phones": [
        {
          "duration": 0.04,
          "phone": "ah_B"
        },
        {
          "duration": 0.06,
          "phone": "n_I"
        },
        {
          "duration": 0.06,
          "phone": "d_E"
        }
      ],
      "start": 9.03,
      "startOffset": 105,
      "word": "AND"
    },
    {
      "alignedWord": "days",
      "case": "success",
      "end": 9.61,
      "endOffset": 113,
      "phones": [
        {
          "duration": 0.1,
          "phone": "d_B"
        },
        {
          "duration": 0.22,
          "phone": "ey_I"
        },
        {
          "duration": 0.1,
          "phone": "z_E"
        }
      ],
      "start": 9.19,
      "startOffset": 109,
      "word": "DAYS"
    },
    {
      "alignedWord": "did",
      "case": "success",
      "end": 9.849999,
      "endOffset": 117,
      "phones": [
        {
          "duration": 0.08,
          "phone": "d_B"
        },
        {
          "duration": 0.07,
          "phone": "ih_I"
        },
        {
          "duration": 0.06,
          "phone": "d_E"
        }
      ],
      "start": 9.639999,
      "startOffset": 114,
      "word": "DID"
    },
    {
      "alignedWord": "not",
      "case": "success",
      "end": 10.62,
      "endOffset": 121,
      "phones": [
        {
          "duration": 0.29,
          "phone": "n_B"
        },
        {
          "duration": 0.16,
          "phone": "aa_I"
        },
        {
          "duration": 0.3,
          "phone": "t_E"
        }
      ],
      "start": 9.87,
      "startOffset": 118,
      "word": "NOT"
    },
    {
      "alignedWord": "last",
      "case": "success",
      "end": 11.299999999999999,
      "endOffset": 126,
      "phones": [
        {
          "duration": 0.06,
          "phone": "l_B"
        },
        {
          "duration": 0.09,
          "phone": "ae_I"
        },
        {
          "duration": 0.12,
          "phone": "s_E"
        }
      ],
      "start": 11.03,
      "startOffset": 122,
      "word": "LAST"
    },
    {
      "alignedWord": "three",
      "case": "success",
      "end": 11.510000000000002,
      "endOffset": 132,
      "phones": [
        {
          "duration": 0.1,
          "phone": "th_B"
        },
        {
          "duration": 0.07,
          "phone": "r_I"
        },
        {
          "duration": 0.04,
          "phone": "iy_E"
        }
      ],
      "start": 11.3,
      "startOffset": 127,
      "word": "THREE"
    },
    {
      "alignedWord": "hundred",
      "case": "success",
      "end": 11.779999,
      "endOffset": 140,
      "phones": [
        {
          "duration": 0.03,
          "phone": "hh_B"
        },
        {
          "duration": 0.05,
          "phone": "ah_I"
        },
        {
          "duration": 0.01,
          "phone": "n_I"
        },
        {
          "duration": 0.05,
          "phone": "d_I"
        },
        {
          "duration": 0.06,
          "phone": "er_I"
        },
        {
          "duration": 0.07,
          "phone": "d_E"
        }
      ],
      "start": 11.509999,
      "startOffset": 133,
      "word": "HUNDRED"
    },
    {
      "alignedWord": "fifty",
      "case": "success",
      "end": 12.069999999999999,
      "endOffset": 146,
      "phones": [
        {
          "duration": 0.06,
          "phone": "f_B"
        },
        {
          "duration": 0.05,
          "phone": "ih_I"
        },
        {
          "duration": 0.06,
          "phone": "f_I"
        },
        {
          "duration": 0.06,
          "phone": "t_I"
        },
        {
          "duration": 0.06,
          "phone": "iy_E"
        }
      ],
      "start": 11.78,
      "startOffset": 141,
      "word": "FIFTY"
    },
    {
      "alignedWord": "four",
      "case": "success",
      "end": 12.31,
      "endOffset": 151,
      "phones": [
        {
          "duration": 0.09,
          "phone": "f_B"
        },
        {
          "duration": 0.08,
          "phone": "ao_I"
        },
        {
          "duration": 0.07,
          "phone": "r_E"
        }
      ],
      "start": 12.07,
      "startOffset": 147,
      "word": "FOUR"
    },
    {
      "alignedWord": "hours",
      "case": "success",
      "end": 12.859999,
      "endOffset": 157,
      "phones": [
        {
          "duration": 0.19,
          "phone": "aw_B"
        },
        {
          "duration": 0.11,
          "phone": "er_I"
        },
        {
          "duration": 0.25,
          "phone": "z_E"
        }
      ],
      "start": 12.309999,
      "startOffset": 152,
      "word": "HOURS"
    },
    {
      "alignedWord": "and",
      "case": "success",
      "end": 13.959999999999999,
      "endOffset": 161,
      "phones": [
        {
          "duration": 0.06,
          "phone": "ae_B"
        },
        {
          "duration": 0.06,
          "phone": "n_I"
        },
        {
          "duration": 0.06,
          "phone": "d_E"
        }
      ],
      "start": 13.78,
      "startOffset": 158,
      "word": "AND"
    },
    {
      "alignedWord": "why",
      "case": "success",
      "end": 14.420000000000002,
      "endOffset": 165,
      "phones": [
        {
          "duration": 0.11,
          "phone": "w_B"
        },
        {
          "duration": 0.35,
          "phone": "ay_E"
        }
      ],
      "start": 13.96,
      "startOffset": 162,
      "word": "WHY"
    }
  ]
}