{
  "transcript": "PROBABLY WITHDRAWN BY TERRESTRIAL ATTRACTION THEN AERIAL DEPARTURE OF RESPIRABLE AIR AND DISAPPEARANCE OF WATER BY MEANS OF EVAPORATION AT THIS PERIOD THE MOON BECOMING UNINHABITABLE WAS NO LONGER INHABITED IT WAS A DEAD WORLD",
  "words": [
    {
      "alignedWord": "probably",
      "case": "success",
      "end": 0.79,
      "endOffset": 8,
      "phones": [
        {
          "duration": 0.08,
          "phone": "p_B"
        },
        {
          "duration": 0.07,
          "phone": "r_I"
        },
        {
          "duration": 0.05,
          "phone": "aa_I"
        },
        {
          "duration": 0.08,
          "phone": "b_I"
        },
        {
          "duration": 0.05,
          "phone": "ah_I"
        },
        {
          "duration": 0.08,
          "phone": "b_I"
        },
        {
          "duration": 0.06,
          "phone": "l_I"
        },
        {
          "duration": 0.06,
          "phone": "iy_E"
        }
      ],
      "start": 0.26,
      "startOffset": 0,
      "word": "PROBABLY"
    },
    {
      "alignedWord": "withdrawn",
      "case": "success",
      "end": 1.34,
      "endOffset": 18,
      "phones": [
        {
          "duration": 0.06,
          "phone": "w_B"
        },
        {
          "duration": 0.05,
          "phone": "ih_I"
        },
        {
          "duration": 0.08,
          "phone": "th_I"
        },
        {
          "duration": 0.03,
          "phone": "d_I"
        },
        {
          "duration": 0.12,
          "phone": "r_I"
        },
        {
          "duration": 0.12,
          "phone": "ao_I"
        },
        {
          "duration": 0.09,
          "phone": "n_E"
        }
      ],
      "start": 0.79,
      "startOffset": 9,
      "word": "WITHDRAWN"
    },
    {
      "alignedWord": "by",
      "case": "success",
      "end": 1.51,
      "endOffset": 21,
      "phones": [
        {
          "duration": 0.06,
          "phone": "b_B"
        },
        {
          "duration": 0.11,
          "phone": "ay_E"
        }
      ],
      "start": 1.34,
      "startOffset": 19,
      "word": "BY"
    },
    {
      "alignedWord": "terrestrial",
      "case": "success",
      "end": 2.14,
      "endOffset": 33,
      "phones": [
        {
          "duration": 0.11,
          "phone": "t_B"
        },
        {
          "duration": 0.09,
          "phone": "er_I"
        },
        {
          "duration": 0.07,
          "phone": "eh_I"
        },
        {
          "duration": 0.07,
          "phone": "s_I"
        },
        {
          "duration": 0.07,
          "phone": "t_I"
        },
        {
          "duration": 0.06,
          "phone": "r_I"
        },
        {
          "duration": 0.03,
          "phone": "iy_I"
        },
        {
          "duration": 0.08,
          "phone": "ah_I"
        },
        {
          "duration": 0.02,
          "phone": "l_E"
        }
      ],
      "start": 1.54,
      "startOffset": 22,
      "word": "TERRESTRIAL"
    },
    {
      "alignedWord": "attraction",
      "case": "success",
      "end": 2.83,
      "endOffset": 44,
      "phones": [
        {
          "duration": 0.09,
          "phone": "ah_B"
        },
        {
          "duration": 0.08,
          "phone": "t_I"
        },
        {
          "duration": 0.08,
          "phone": "r_I"
        },
        {
          "duration": 0.09,
          "phone": "ae_I"
        },
        {
          "duration": 0.08,
          "phone": "k_I"
        },
        {
          "duration": 0.07,
          "phone": "sh_I"
        },
        {
          "duration": 0.07,
          "phone": "ah_I"
        },
        {
          "duration": 0.13,
          "phone": "n_E"
        }
      ],
      "start": 2.14,
      "startOffset": 34,
      "word": "ATTRACTION"
    },
    {
      "alignedWord": "then",
      "case": "success",
      "end": 3.56,
      "endOffset": 49,
      "phones": [
        {
          "duration": 0.06,
          "phone": "dh_B"
        },
        {
          "duration": 0.06,
          "phone": "eh_I"
        },
        {
          "duration": 0.09,
          "phone": "n_E"
        }
      ],
      "start": 3.35,
      "startOffset": 45,
      "word": "THEN"
    },
    {
      "alignedWord": "aerial",
      "case": "success",
      "end": 4.03,
      "endOffset": 56,
      "phones": [
        {
          "duration": 0.1,
          "phone": "eh_B"
        },
        {
          "duration": 0.13,
          "phone": "r_I"
        },
        {
          "duration": 0.05,
          "phone": "iy_I"
        },
        {
          "duration": 0.08,
          "phone": "ah_I"
        },
        {
          "duration": 0.04,
          "phone": "l_E"
        }
      ],
      "start": 3.63,
      "startOffset": 50,
      "word": "AERIAL"
    },
    {
      "alignedWord": "departure",
      "case": "success",
      "end": 4.66,
      "endOffset": 66,
      "phones": [
        {
          "duration": 0.06,
          "phone": "d_B"
        },
        {
          "duration": 0.05,
          "phone": "ih_I"
        },
        {
          "duration": 0.1,
          "phone": "p_I"
        },
        {
          "duration": 0.08,
          "phone": "aa_I"
        },
        {
          "duration": 0.07,
          "phone": "r_I"
        },
        {
          "duration": 0.17,
          "phone": "ch_I"
        },
        {
          "duration": 0.1,
          "phone": "er_E"
        }
      ],
      "start": 4.03,
      "startOffset": 57,
      "word": "DEPARTURE"
    },
    {
      "alignedWord": "of",
      "case": "success",
      "end": 4.75,
      "endOffset": 69,
      "phones": [
        {
          "duration": 0.05,
          "phone": "ah_B"
        },
        {
          "duration": 0.04,
          "phone": "v_E"
        }
      ],
      "start": 4.66,
      "startOffset": 67,
      "word": "OF"
    },
    {
      "alignedWord": "<unk>",
      "case": "success",
      "end": 5.48,
      "endOffset": 80,
      "phones": [
        {
          "duration": 0.73,
          "phone": "oov_S"
        }
      ],
      "start": 4.75,
      "startOffset": 70,
      "word": "RESPIRABLE"
    },
    {
      "alignedWord": "air",
      "case": "success",
      "end": 5.909999999999999,
      "endOffset": 84,
      "phones": [
        {
          "duration": 0.19,
          "phone": "eh_B"
        },
        {
          "duration": 0.2,
          "phone": "r_E"
        }
      ],
      "start": 5.52,
      "startOffset": 81,
      "word": "AIR"
    },
    {
      "alignedWord": "and",
      "case": "success",
      "end": 6.470000000000001,
      "endOffset": 88,
      "phones": [
        {
          "duration": 0.07,
          "phone": "ae_B"
        },
        {
          "duration": 0.05,
          "phone": "n_I"
        },
        {
          "duration": 0.07,
          "phone": "d_E"
        }
      ],
      "start": 6.28,
      "startOffset": 85,
      "word": "AND"
    },
    {
      "alignedWord": "disappearance",
      "case": "success",
      "end": 7.05,
      "endOffset": 102,
      "phones": [
        {
          "duration": 0.02,
          "phone": "d_B"
        },
        {
          "duration": 0.08,
          "phone": "ih_I"
        },
        {
          "duration": 0.05,
          "phone": "s_I"
        },
        {
          "duration": 0.07,
          "phone": "ah_I"
        },
        {
          "duration": 0.09,
          "phone": "p_I"
        },
        {
          "duration": 0.09,
          "phone": "ih_I"
        },
        {
          "duration": 0.05,
          "phone": "r_I"
        },
        {
          "duration": 0.03,
          "phone": "ah_I"
        },
        {
          "duration": 0.06,
          "phone": "n_I"
        },
        {
          "duration": 0.04,
          "phone": "s_E"
        }
      ],
      "start": 6.47,
      "startOffset": 89,
      "word": "DISAPPEARANCE"
    },
    {
      "alignedWord": "of",
      "case": "success",
      "end": 7.18,
      "endOffset": 105,
      "phones": [
        {
          "duration": 0.08,
          "phone": "ah_B"
        },
        {
          "duration": 0.05,
          "phone": "v_E"
        }
      ],
      "start": 7.05,
      "startOffset": 103,
      "word": "OF"
    },
    {
      "alignedWord": "water",
      "case": "success",
      "end": 7.59,
      "endOffset": 111,
      "phones": [
        {
          "duration": 0.1,
          "phone": "w_B"
        },
        {
          "duration": 0.11,
          "phone": "ao_I"
        },
        {
          "duration": 0.07,
          "phone": "t_I"
        },
        {
          "duration": 0.13,
          "phone": "er_E"
        }
      ],
      "start": 7.18,
      "startOffset": 106,
      "word": "WATER"
    },
    {
      "alignedWord": "by",
      "case": "success",
      "end": 7.76,
      "endOffset": 114,
      "phones": [
        {
          "duration": 0.08,
          "phone": "b_B"
        },
        {
          "duration": 0.08,
          "phone": "ay_E"
        }
      ],
      "start": 7.6,
      "startOffset": 112,
      "word": "BY"
    },
    {
      "alignedWord": "means",
      "case": "success",
      "end": 8.059999999999999,
      "endOffset": 120,
      "phones": [
        {
          "duration": 0.07,
          "phone": "m_B"
        },
        {
          "duration": 0.09,
          "phone": "iy_I"
        },
        {
          "duration": 0.07,
          "phone": "n_I"
        },
        {
          "duration": 0.06,
          "phone": "z_E"
        }
      ],
      "start": 7.77,
      "startOffset": 115,
      "word": "MEANS"
    },
    {
      "alignedWord": "of",
      "case": "success",
      "end": 8.269999,
      "endOffset": 123,
      "phones": [
        {
          "duration": 0.06,
          "phone": "ah_B"
        },
        {
          "duration": 0.15,
          "phone": "v_E"
        }
      ],
      "start": 8.059999,
      "startOffset": 121,
      "word": "OF"
    },
    {
      "alignedWord": "<unk>",
      "case": "success",
      "end": 9.04,
      "endOffset": 135,
      "phones": [
        {
          "duration": 0.76,
          "phone": "oov_S"
        }
      ],
      "start": 8.28,
      "startOffset": 124,
      "word": "EVAPORATION"
    },
    {
      "alignedWord": "at",
      "case": "success",
      "end": 9.889999000000001,
      "endOffset": 138,
      "phones": [
        {
          "duration": 0.12,
          "phone": "ae_B"
        },
        {
          "duration": 0.09,
          "phone": "t_E"
        }
      ],
      "start": 9.679999,
      "startOffset": 136,
      "word": "AT"
    },
    {
      "alignedWord": "this",
      "case": "success",
      "end": 10.109999,
      "endOffset": 143,
      "phones": [
        {
          "duration": 0.04,
          "phone": "dh_B"
        },
        {
          "duration": 0.09,
          "phone": "ih_I"
        },
        {
          "duration": 0.09,
          "phone": "s_E"
        }
      ],
      "start": 9.889999,
      "startOffset": 139,
      "word": "THIS"
    },
    {
      "alignedWord": "period",
      "case": "success",
      "end": 10.6,
      "endOffset": 150,
      "phones": [
        {
          "duration": 0.1,
          "phone": "p_B"
        },
        {
          "duration": 0.1,
          "phone": "ih_I"
        },
        {
          "duration": 0.07,
          "phone": "r_I"
        },
        {
          "duration": 0.08,
          "phone": "iy_I"
        },
        {
          "duration": 0.04,
          "phone": "ah_I"
        },
        {
          "duration": 0.1,
          "phone": "d_E"
        }
      ],
      "start": 10.11,
      "startOffset": 144,
      "word": "PERIOD"
    },
    {
      "alignedWord": "the",
      "case": "success",
      "end": 10.689999,
      "endOffset": 154,
      "phones": [
        {
          "duration": 0.01,
          "phone": "dh_B"
        },
        {
          "duration": 0.08,
          "phone": "ah_E"
        }
      ],
      "start": 10.599999,
      "startOffset": 151,
      "word": "THE"
    },
    {
      "alignedWord": "moon",
      "case": "success",
      "end": 11.129999999999999,
      "endOffset": 159,
      "phones": [
        {
          "duration": 0.1,
          "phone": "m_B"
        },
        {
          "duration": 0.24,
          "phone": "uw_I"
        },
        {
          "duration": 0.1,
          "phone": "n_E"
        }
      ],
      "start": 10.69,
      "startOffset": 155,
      "word": "MOON"
    },
    {
      "alignedWord": "becoming",
      "case": "success",
      "end": 11.55,
      "endOffset": 168,
      "phones": [
        {
          "duration": 0.03,
          "phone": "b_B"
        },
        {
          "duration": 0.08,
          "phone": "ih_I"
        },
        {
          "duration": 0.08,
          "phone": "k_I"
        },
        {
          "duration": 0.05,
          "phone": "ah_I"
        },
        {
          "duration": 0.05,
          "phone": "m_I"
        },
        {
          "duration": 0.05,
          "phone": "ih_I"
        },
        {
          "duration": 0.08,
          "phone": "ng_E"
        }
      ],
      "start": 11.13,
      "startOffset": 160,
      "word": "BECOMING"
    },
    {
      "alignedWord": "uninhabitable",
      "case": "success",
      "end": 12.49,
      "endOffset": 182,
      "phones": [
        {
          "duration": 0.05,
          "phone": "ah_B"
        },
        {
          "duration": 0.07,
          "phone": "n_I"
        },
        {
          "duration": 0.05,
          "phone": "ih_I"
        },
        {
          "duration": 0.07,
          "phone": "n_I"
        },
        {
          "duration": 0.07,
          "phone": "hh_I"
        },
        {
          "duration": 0.1,
          "phone": "ae_I"
        },
        {
          "duration": 0.06,
          "phone": "b_I"
        },
        {
          "duration": 0.03,
          "phone": "ah_I"
        },
        {
          "duration": 0.04,
          "phone": "t_I"
        },
        {
          "duration": 0.05,
          "phone": "ah_I"
        },
        {
          "duration": 0.04,
          "phone": "b_I"
        },
        {
          "duration": 0.06,
          "phone": "ah_I"
        },
        {
          "duration": 0.25,
          "phone": "l_E"
        }
      ],
      "start": 11.55,
      "startOffset": 169,
      "word": "UNINHABITABLE"
    },
    {
      "alignedWord": "was",
      "case": "success",
      "end": 13.0,
      "endOffset": 186,
      "phones": [
        {
          "duration": 0.08,
          "phone": "w_B"
        },
        {
          "duration": 0.05,
          "phone": "ah_I"
        },
        {
          "duration": 0.09,
          "phone": "z_E"
        }
      ],
      "start": 12.78,
      "startOffset": 183,
      "word": "WAS"
    },
    {
      "alignedWord": "no",
      "case": "success",
      "end": 13.17,
      "endOffset": 189,
      "phones": [
        {
          "duration": 0.08,
          "phone": "n_B"
        },
        {
          "duration": 0.09,
          "phone": "ow_E"
        }
      ],
      "start": 13.0,
      "startOffset": 187,
      "word": "NO"
    },
    {
      "alignedWord": "longer",
      "case": "success",
      "end": 13.54,
      "endOffset": 196,
      "phones": [
        {
          "duration": 0.07,
          "phone": "l_B"
        },
        {
          "duration": 0.1,
          "phone": "ao_I"
        },
        {
          "duration": 0.06,
          "phone": "ng_I"
        },
        {
          "duration": 0.07,
          "phone": "g_I"
        },
        {
          "duration": 0.07,
          "phone": "er_E"
        }
      ],
      "start": 13.17,
      "startOffset": 190,
      "word": "LONGER"
    },
    {
      "alignedWord": "inhabited",
      "case": "success",
      "end": 14.18,
      "endOffset": 206,
      "phones": [
        {
          "duration": 0.07,
          "phone": "ih_B"
        },
        {
          "duration": 0.07,
          "phone": "n_I"
        },
        {
          "duration": 0.06,
          "phone": "hh_I"
        },
        {
          "duration": 0.07,
          "phone": "ae_I"
        },
        {
          "duration": 0.07,
          "phone": "b_I"
        },
        {
          "duration": 0.03,
          "phone": "ah_I"
        },
        {
          "duration": 0.05,
          "phone": "t_I"
        },
        {
          "duration": 0.06,
          "phone": "ah_I"
        },
        {
          "duration": 0.16,
          "phone": "d_E"
        }
      ],
      "start": 13.54,
      "startOffset": 197,
      "word": "INHABITED"
    },
    {
      "alignedWord": "it",
      "case": "success",
      "end": 14.51,
      "endOffset": 209,
      "phones": [
        {
          "duration": 0.06,
          "phone": "ih_B"
        },
        {
          "duration": 0.01,
          "phone": "t_E"
        }
      ],
      "start": 14.44,
      "startOffset": 207,
      "word": "IT"
    },
    {
      "alignedWord": "was",
      "case": "success",
      "end": 14.639999000000001,
      "endOffset": 213,
      "phones": [
        {
          "duration": 0.01,
          "phone": "w_B"
        },
        {
          "duration": 0.07,
          "phone": "ah_I"
        },
        {
          "duration": 0.05,
          "phone": "z_E"
        }
      ],
      "start": 14.509999,
      "startOffset": 210,
      "word": "WAS"
    },
    {
      "alignedWord": "a",
      "case": "success",
      "end": 14.719999,
      "endOffset": 215,
      "phones": [
        {
          "duration": 0.08,
          "phone": "ah_S"
        }
      ],
      "start": 14.639999,
      "startOffset": 214,
      "word": "A"
    },
    {
      "alignedWord": "dead",
      "case": "success",
      "end": 14.999998999999999,
      "endOffset": 220,
      "phones": [
        {
          "duration": 0.12,
          "phone": "d_B"
        },
        {
          "duration": 0.08,
          "phone": "eh_I"
        },
        {
          "duration": 0.08,
          "phone": "d_E"
        }
      ],
      "start": 14.719999,
      "startOffset": 216,
      "word": "DEAD"
    },
    {
      "alignedWord": "world",
      "case": "success",
      "end": 15.36,
      "endOffset": 226,
      "phones": [
        {
          "duration": 0.11,
          "phone": "w_B"
        },
        {
          "duration": 0.11,
          "phone": "er_I"
        },
        {
          "duration": 0.07,
          "phone": "l_I"
        },
        {
          "duration": 0.07,
          "phone": "d_E"
        }
      ],
      "start": 15.0,
      "startOffset": 221,
      "word": "WORLD"
    }
  ]
}