{
  "transcript": "I SAW FINE SPECIMENS A HUNDRED AND TWENTY FIVE FEET HIGH ON DEEP BOTTOM LAND A FEW MILES BELOW GLENORA THE TOPS OF SOME OF THEM WERE ALMOST COVERED WITH DENSE CLUSTERS OF YELLOW AND BROWN CONES",
  "words": [
    {
      "alignedWord": "i",
      "case": "success",
      "end": 0.48,
      "endOffset": 1,
      "phones": [
        {
          "duration": 0.15,
          "phone": "ay_S"
        }
      ],
      "start": 0.33,
      "startOffset": 0,
      "word": "I"
    },
    {
      "alignedWord": "saw",
      "case": "success",
      "end": 0.75,
      "endOffset": 5,
      "phones": [
        {
          "duration": 0.09,
          "phone": "s_B"
        },
        {
          "duration": 0.18,
          "phone": "ao_E"
        }
      ],
      "start": 0.48,
      "startOffset": 2,
      "word": "SAW"
    },
    {
      "alignedWord": "fine",
      "case": "success",
      "end": 1.08,
      "endOffset": 10,
      "phones": [
        {
          "duration": 0.13,
          "phone": "f_B"
        },
        {
          "duration": 0.11,
          "phone": "ay_I"
        },
        {
          "duration": 0.09,
          "phone": "n_E"
        }
      ],
      "start": 0.75,
      "startOffset": 6,
      "word": "FINE"
    },
    {
      "alignedWord": "specimens",
      "case": "success",
      "end": 1.94,
      "endOffset": 20,
      "phones": [
        {
          "duration": 0.08,
          "phone": "s_B"
        },
        {
          "duration": 0.09,
          "phone": "p_I"
        },
        {
          "duration": 0.09,
          "phone": "eh_I"
        },
        {
          "duration": 0.08,
          "phone": "s_I"
        },
        {
          "duration": 0.04,
          "phone": "ah_I"
        },
        {
          "duration": 0.08,
          "phone": "m_I"
        },
        {
          "duration": 0.11,
          "phone": "ah_I"
        },
        {
          "duration": 0.12,
          "phone": "n_I"
        },
        {
          "duration": 0.17,
          "phone": "z_E"
        }
      ],
      "start": 1.08,
      "startOffset": 11,
      "word": "SPECIMENS"
    },
    {
      "alignedWord": "a",
      "case": "success",
      "end": 2.37,
      "endOffset": 22,
      "phones": [
        {
          "duration": 0.12,
          "phone": "ah_S"
        }
      ],
      "start": 2.25,
      "startOffset": 21,
      "word": "A"
    },
    {
      "alignedWord": "hundred",
      "case": "success",
      "end": 2.74,
      "endOffset": 30,
      "phones": [
        {
          "duration": 0.07,
          "phone": "hh_B"
        },
        {
          "duration": 0.06,
          "phone": "ah_I"
        },
        {
          "duration": 0.01,
          "phone": "n_I"
        },
        {
          "duration": 0.06,
          "phone": "d_I"
        },
        {
          "duration": 0.09,
          "phone": "er_I"
        },
        {
          "duration": 0.08,
          "phone": "d_E"
        }
      ],
      "start": 2.37,
      "startOffset": 23,
      "word": "HUNDRED"
    },
    {
      "alignedWord": "and",
      "case": "success",
      "end": 2.92,
      "endOffset": 34,
      "phones": [
        {
          "duration": 0.06,
          "phone": "ae_B"
        },
        {
          "duration": 0.05,
          "phone": "n_I"
        },
        {
          "duration": 0.05,
          "phone": "d_E"
        }
      ],
      "start": 2.76,
      "startOffset": 31,
      "word": "AND"
    },
    {
      "alignedWord": "twenty",
      "case": "success",
      "end": 3.2399999999999998,
      "endOffset": 41,
      "phones": [
        {
          "duration": 0.05,
          "phone": "t_B"
        },
        {
          "duration": 0.06,
          "phone": "w_I"
        },
        {
          "duration": 0.03,
          "phone": "eh_I"
        },
        {
          "duration": 0.05,
          "phone": "n_I"
        },
        {
          "duration": 0.06,
          "phone": "t_I"
        },
        {
          "duration": 0.07,
          "phone": "iy_E"
        }
      ],
      "start": 2.92,
      "startOffset": 35,
      "word": "TWENTY"
    },
    {
      "alignedWord": "five",
      "case": "success",
      "end": 3.5100000000000002,
      "endOffset": 46,
      "phones": [
        {
          "duration": 0.09,
          "phone": "f_B"
        },
        {
          "duration": 0.13,
          "phone": "ay_I"
        },
        {
          "duration": 0.05,
          "phone": "v_E"
        }
      ],
      "start": 3.24,
      "startOffset": 42,
      "word": "FIVE"
    },
    {
      "alignedWord": "feet",
      "case": "success",
      "end": 3.79,
      "endOffset": 51,
      "phones": [
        {
          "duration": 0.1,
          "phone": "f_B"
        },
        {
          "duration": 0.09,
          "phone": "iy_I"
        },
        {
          "duration": 0.09,
          "phone": "t_E"
        }
      ],
      "start": 3.51,
      "startOffset": 47,
      "word": "FEET"
    },
    {
      "alignedWord": "high",
      "case": "success",
      "end": 4.25,
      "endOffset": 56,
      "phones": [
        {
          "duration": 0.09,
          "phone": "hh_B"
        },
        {
          "duration": 0.37,
          "phone": "ay_E"
        }
      ],
      "start": 3.79,
      "startOffset": 52,
      "word": "HIGH"
    },
    {
      "alignedWord": "on",
      "case": "success",
      "end": 4.77,
      "endOffset": 59,
      "phones": [
        {
          "duration": 0.15,
          "phone": "aa_B"
        },
        {
          "duration": 0.07,
          "phone": "n_E"
        }
      ],
      "start": 4.55,
      "startOffset": 57,
      "word": "ON"
    },
    {
      "alignedWord": "deep",
      "case": "success",
      "end": 5.1,
      "endOffset": 64,
      "phones": [
        {
          "duration": 0.11,
          "phone": "d_B"
        },
        {
          "duration": 0.13,
          "phone": "iy_I"
        },
        {
          "duration": 0.09,
          "phone": "p_E"
        }
      ],
      "start": 4.77,
      "startOffset": 60,
      "word": "DEEP"
    },
    {
      "alignedWord": "bottom",
      "case": "success",
      "end": 5.66,
      "endOffset": 71,
      "phones": [
        {
          "duration": 0.16,
          "phone": "b_B"
        },
        {
          "duration": 0.11,
          "phone": "aa_I"
        },
        {
          "duration": 0.06,
          "phone": "t_I"
        },
        {
          "duration": 0.09,
          "phone": "ah_I"
        },
        {
          "duration": 0.1,
          "phone": "m_E"
        }
      ],
      "start": 5.14,
      "startOffset": 65,
      "word": "BOTTOM"
    },
    {
      "alignedWord": "land",
      "case": "success",
      "end": 6.140000000000001,
      "endOffset": 76,
      "phones": [
        {
          "duration": 0.08,
          "phone": "l_B"
        },
        {
          "duration": 0.18,
          "phone": "ae_I"
        },
        {
          "duration": 0.08,
          "phone": "n_I"
        },
        {
          "duration": 0.14,
          "phone": "d_E"
        }
      ],
      "start": 5.66,
      "startOffset": 72,
      "word": "LAND"
    },
    {
      "alignedWord": "a",
      "case": "success",
      "end": 6.51,
      "endOffset": 78,
      "phones": [
        {
          "duration": 0.12,
          "phone": "ah_S"
        }
      ],
      "start": 6.39,
      "startOffset": 77,
      "word": "A"
    },
    {
      "alignedWord": "few",
      "case": "success",
      "end": 6.72,
      "endOffset": 82,
      "phones": [
        {
          "duration": 0.07,
          "phone": "f_B"
        },
        {
          "duration": 0.07,
          "phone": "y_I"
        },
        {
          "duration": 0.07,
          "phone": "uw_E"
        }
      ],
      "start": 6.51,
      "startOffset": 79,
      "word": "FEW"
    },
    {
      "alignedWord": "miles",
      "case": "success",
      "end": 7.1499999999999995,
      "endOffset": 88,
      "phones": [
        {
          "duration": 0.08,
          "phone": "m_B"
        },
        {
          "duration": 0.19,
          "phone": "ay_I"
        },
        {
          "duration": 0.08,
          "phone": "l_I"
        },
        {
          "duration": 0.08,
          "phone": "z_E"
        }
      ],
      "start": 6.72,
      "startOffset": 83,
      "word": "MILES"
    },
    {
      "alignedWord": "below",
      "case": "success",
      "end": 7.550000000000001,
      "endOffset": 94,
      "phones": [
        {
          "duration": 0.06,
          "phone": "b_B"
        },
        {
          "duration": 0.09,
          "phone": "ih_I"
        },
        {
          "duration": 0.1,
          "phone": "l_I"
        },
        {
          "duration": 0.15,
          "phone": "ow_E"
        }
      ],
      "start": 7.15,
      "startOffset": 89,
      "word": "BELOW"
    },
    {
      "alignedWord": "<unk>",
      "case": "success",
      "end": 8.14,
      "endOffset": 102,
      "phones": [
        {
          "duration": 0.59,
          "phone": "oov_S"
        }
      ],
      "start": 7.55,
      "startOffset": 95,
      "word": "GLENORA"
    },
    {
      "alignedWord": "the",
      "case": "success",
      "end": 8.780000000000001,
      "endOffset": 106,
      "phones": [
        {
          "duration": 0.08,
          "phone": "dh_B"
        },
        {
          "duration": 0.05,
          "phone": "ah_E"
        }
      ],
      "start": 8.65,
      "startOffset": 103,
      "word": "THE"
    },
    {
      "alignedWord": "tops",
      "case": "success",
      "end": 9.17,
      "endOffset": 111,
      "phones": [
        {
          "duration": 0.08,
          "phone": "t_B"
        },
        {
          "duration": 0.14,
          "phone": "aa_I"
        },
        {
          "duration": 0.1,
          "phone": "p_I"
        },
        {
          "duration": 0.07,
          "phone": "s_E"
        }
      ],
      "start": 8.78,
      "startOffset": 107,
      "word": "TOPS"
    },
    {
      "alignedWord": "of",
      "case": "success",
      "end": 9.419999,
      "endOffset": 114,
      "phones": [
        {
          "duration": 0.13,
          "phone": "ah_B"
        },
        {
          "duration": 0.11,
          "phone": "v_E"
        }
      ],
      "start": 9.179999,
      "startOffset": 112,
      "word": "OF"
    },
    {
      "alignedWord": "some",
      "case": "success",
      "end": 9.65,
      "endOffset": 119,
      "phones": [
        {
          "duration": 0.1,
          "phone": "s_B"
        },
        {
          "duration": 0.07,
          "phone": "ah_I"
        },
        {
          "duration": 0.06,
          "phone": "m_E"
        }
      ],
      "start": 9.42,
      "startOffset": 115,
      "word": "SOME"
    },
    {
      "alignedWord": "of",
      "case": "success",
      "end": 9.790000000000001,
      "endOffset": 122,
      "phones": [
        {
          "duration": 0.04,
          "phone": "ah_B"
        },
        {
          "duration": 0.1,
          "phone": "v_E"
        }
      ],
      "start": 9.65,
      "startOffset": 120,
      "word": "OF"
    },
    {
      "alignedWord": "them",
      "case": "success",
      "end": 10.12,
      "endOffset": 127,
      "phones": [
        {
          "duration": 0.01,
          "phone": "dh_B"
        },
        {
          "duration": 0.14,
          "phone": "eh_I"
        },
        {
          "duration": 0.18,
          "phone": "m_E"
        }
      ],
      "start": 9.79,
      "startOffset": 123,
      "word": "THEM"
    },
    {
      "alignedWord": "were",
      "case": "success",
      "end": 10.6,
      "endOffset": 132,
      "phones": [
        {
          "duration": 0.11,
          "phone": "w_B"
        },
        {
          "duration": 0.08,
          "phone": "er_E"
        }
      ],
      "start": 10.41,
      "startOffset": 128,
      "word": "WERE"
    },
    {
      "alignedWord": "almost",
      "case": "success",
      "end": 10.959999,
      "endOffset": 139,
      "phones": [
        {
          "duration": 0.08,
          "phone": "ao_B"
        },
        {
          "duration": 0.08,
          "phone": "l_I"
        },
        {
          "duration": 0.04,
          "phone": "m_I"
        },
        {
          "duration": 0.05,
          "phone": "ow_I"
        },
        {
          "duration": 0.07,
          "phone": "s_I"
        },
        {
          "duration": 0.04,
          "phone": "t_E"
        }
      ],
      "start": 10.599999,
      "startOffset": 133,
      "word": "ALMOST"
    },
    {
      "alignedWord": "covered",
      "case": "success",
      "end": 11.38,
      "endOffset": 147,
      "phones": [
        {
          "duration": 0.07,
          "phone": "k_B"
        },
        {
          "duration": 0.08,
          "phone": "ah_I"
        },
        {
          "duration": 0.07,
          "phone": "v_I"
        },
        {
          "duration": 0.08,
          "phone": "er_I"
        },
        {
          "duration": 0.1,
          "phone": "d_E"
        }
      ],
      "start": 10.98,
      "startOffset": 140,
      "word": "COVERED"
    },
    {
      "alignedWord": "with",
      "case": "success",
      "end": 11.56,
      "endOffset": 152,
      "phones": [
        {
          "duration": 0.04,
          "phone": "w_B"
        },
        {
          "duration": 0.05,
          "phone": "ih_I"
        },
        {
          "duration": 0.09,
          "phone": "th_E"
        }
      ],
      "start": 11.38,
      "startOffset": 148,
      "word": "WITH"
    },
    {
      "alignedWord": "dense",
      "case": "success",
      "end": 11.99,
      "endOffset": 158,
      "phones": [
        {
          "duration": 0.14,
          "phone": "d_B"
        },
        {
          "duration": 0.1,
          "phone": "eh_I"
        },
        {
          "duration": 0.09,
          "phone": "n_I"
        },
        {
          "duration": 0.09,
          "phone": "s_E"
        }
      ],
      "start": 11.57,
      "startOffset": 153,
      "word": "DENSE"
    },
    {
      "alignedWord": "clusters",
      "case": "success",
      "end": 12.620000000000001,
      "endOffset": 167,
      "phones": [
        {
          "duration": 0.11,
          "phone": "k_B"
        },
        {
          "duration": 0.1,
          "phone": "l_I"
        },
        {
          "duration": 0.06,
          "phone": "ah_I"
        },
        {
          "duration": 0.07,
          "phone": "s_I"
        },
        {
          "duration": 0.1,
          "phone": "t_I"
        },
        {
          "duration": 0.11,
          "phone": "er_I"
        },
        {
          "duration": 0.08,
          "phone": "z_E"
        }
      ],
      "start": 11.99,
      "startOffset": 159,
      "word": "CLUSTERS"
    },
    {
      "alignedWord": "of",
      "case": "success",
      "end": 12.779999,
      "endOffset": 170,
      "phones": [
        {
          "duration": 0.08,
          "phone": "ah_B"
        },
        {
          "duration": 0.06,
          "phone": "v_E"
        }
      ],
      "start": 12.639999,
      "startOffset": 168,
      "word": "OF"
    },
    {
      "alignedWord": "yellow",
      "case": "success",
      "end": 13.2,
      "endOffset": 177,
      "phones": [
        {
          "duration": 0.08,
          "phone": "y_B"
        },
        {
          "duration": 0.09,
          "phone": "eh_I"
        },
        {
          "duration": 0.1,
          "phone": "l_I"
        },
        {
          "duration": 0.15,
          "phone": "ow_E"
        }
      ],
      "start": 12.78,
      "startOffset": 171,
      "word": "YELLOW"
    },
    {
      "alignedWord": "and",
      "case": "success",
      "end": 13.41,
      "endOffset": 181,
      "phones": [
        {
          "duration": 0.09,
          "phone": "ae_B"
        },
        {
          "duration": 0.06,
          "phone": "n_I"
        },
        {
          "duration": 0.06,
          "phone": "d_E"
        }
      ],
      "start": 13.2,
      "startOffset": 178,
      "word": "AND"
    },
    {
      "alignedWord": "brown",
      "case": "success",
      "end": 13.76,
      "endOffset": 187,
      "phones": [
        {
          "duration": 0.05,
          "phone": "b_B"
        },
        {
          "duration": 0.07,
          "phone": "r_I"
        },
        {
          "duration": 0.12,
          "phone": "aw_I"
        },
        {
          "duration": 0.11,
          "phone": "n_E"
        }
      ],
      "start": 13.41,
      "startOffset": 182,
      "word": "BROWN"
    },
    {
      "alignedWord": "cones",
      "case": "success",
      "end": 14.439999,
      "endOffset": 193,
      "phones": [
        {
          "duration": 0.09,
          "phone": "k_B"
        },
        {
          "duration": 0.14,
          "phone": "ow_I"
        },
        {
          "duration": 0.14,
          "phone": "n_I"
        },
        {
          "duration": 0.27,
          "phone": "z_E"
        }
      ],
      "start": 13.799999,
      "startOffset": 188,
      "word": "CONES"
    }
  ]
}