{
  "transcript": "BE THE ONLY SCRUPLE YOU FEEL FAIREST DOROTHEA FOR THAT IS THE NAME OF THIS UNHAPPY BEING SEE HERE I GIVE YOU MY HAND TO BE YOURS AND LET HEAVEN",
  "words": [
    {
      "alignedWord": "be",
      "case": "success",
      "end": 0.26,
      "endOffset": 2,
      "phones": [
        {
          "duration": 0.06,
          "phone": "b_B"
        },
        {
          "duration": 0.08,
          "phone": "iy_E"
        }
      ],
      "start": 0.12,
      "startOffset": 0,
      "word": "BE"
    },
    {
      "alignedWord": "the",
      "case": "success",
      "end": 0.43000000000000005,
      "endOffset": 6,
      "phones": [
        {
          "duration": 0.07,
          "phone": "dh_B"
        },
        {
          "duration": 0.1,
          "phone": "iy_E"
        }
      ],
      "start": 0.26,
      "startOffset": 3,
      "word": "THE"
    },
    {
      "alignedWord": "only",
      "case": "success",
      "end": 0.8500000000000001,
      "endOffset": 11,
      "phones": [
        {
          "duration": 0.16,
          "phone": "ow_B"
        },
        {
          "duration": 0.08,
          "phone": "n_I"
        },
        {
          "duration": 0.07,
          "phone": "l_I"
        },
        {
          "duration": 0.08,
          "phone": "iy_E"
        }
      ],
      "start": 0.46,
      "startOffset": 7,
      "word": "ONLY"
    },
    {
      "alignedWord": "<unk>",
      "case": "success",
      "end": 1.27,
      "endOffset": 19,
      "phones": [
        {
          "duration": 0.42,
          "phone": "oov_S"
        }
      ],
      "start": 0.85,
      "startOffset": 12,
      "word": "SCRUPLE"
    },
    {
      "alignedWord": "you",
      "case": "success",
      "end": 1.42,
      "endOffset": 23,
      "phones": [
        {
          "duration": 0.06,
          "phone": "y_B"
        },
        {
          "duration": 0.08,
          "phone": "uw_E"
        }
      ],
      "start": 1.28,
      "startOffset": 20,
      "word": "YOU"
    },
    {
      "alignedWord": "feel",
      "case": "success",
      "end": 1.72,
      "endOffset": 28,
      "phones": [
        {
          "duration": 0.12,
          "phone": "f_B"
        },
        {
          "duration": 0.1,
          "phone": "iy_I"
        },
        {
          "duration": 0.08,
          "phone": "l_E"
        }
      ],
      "start": 1.42,
      "startOffset": 24,
      "word": "FEEL"
    },
    {
      "alignedWord": "fairest",
      "case": "success",
      "end": 2.1,
      "endOffset": 36,
      "phones": [
        {
          "duration": 0.07,
          "phone": "f_B"
        },
        {
          "duration": 0.08,
          "phone": "eh_I"
        },
        {
          "duration": 0.07,
          "phone": "r_I"
        },
        {
          "duration": 0.07,
          "phone": "ih_I"
        },
        {
          "duration": 0.06,
          "phone": "s_I"
        },
        {
          "duration": 0.03,
          "phone": "t_E"
        }
      ],
      "start": 1.72,
      "startOffset": 29,
      "word": "FAIREST"
    },
    {
      "alignedWord": "dorothea",
      "case": "success",
      "end": 2.72,
      "endOffset": 45,
      "phones": [
        {
          "duration": 0.08,
          "phone": "d_B"
        },
        {
          "duration": 0.05,
          "phone": "ao_I"
        },
        {
          "duration": 0.06,
          "phone": "r_I"
        },
        {
          "duration": 0.05,
          "phone": "ah_I"
        },
        {
          "duration": 0.12,
          "phone": "th_I"
        },
        {
          "duration": 0.1,
          "phone": "iy_I"
        },
        {
          "duration": 0.16,
          "phone": "ah_E"
        }
      ],
      "start": 2.1,
      "startOffset": 37,
      "word": "DOROTHEA"
    },
    {
      "alignedWord": "for",
      "case": "success",
      "end": 3.24,
      "endOffset": 49,
      "phones": [
        {
          "duration": 0.09,
          "phone": "f_B"
        },
        {
          "duration": 0.09,
          "phone": "er_E"
        }
      ],
      "start": 3.06,
      "startOffset": 46,
      "word": "FOR"
    },
    {
      "alignedWord": "that",
      "case": "success",
      "end": 3.49,
      "endOffset": 54,
      "phones": [
        {
          "duration": 0.06,
          "phone": "dh_B"
        },
        {
          "duration": 0.11,
          "phone": "ae_I"
        },
        {
          "duration": 0.08,
          "phone": "t_E"
        }
      ],
      "start": 3.24,
      "startOffset": 50,
      "word": "THAT"
    },
    {
      "alignedWord": "is",
      "case": "success",
      "end": 3.73,
      "endOffset": 57,
      "phones": [
        {
          "duration": 0.11,
          "phone": "ih_B"
        },
        {
          "duration": 0.1,
          "phone": "z_E"
        }
      ],
      "start": 3.52,
      "startOffset": 55,
      "word": "IS"
    },
    {
      "alignedWord": "the",
      "case": "success",
      "end": 3.84,
      "endOffset": 61,
      "phones": [
        {
          "duration": 0.04,
          "phone": "dh_B"
        },
        {
          "duration": 0.07,
          "phone": "ah_E"
        }
      ],
      "start": 3.73,
      "startOffset": 58,
      "word": "THE"
    },
    {
      "alignedWord": "name",
      "case": "success",
      "end": 4.06,
      "endOffset": 66,
      "phones": [
        {
          "duration": 0.06,
          "phone": "n_B"
        },
        {
          "duration": 0.09,
          "phone": "ey_I"
        },
        {
          "duration": 0.07,
          "phone": "m_E"
        }
      ],
      "start": 3.84,
      "startOffset": 62,
      "word": "NAME"
    },
    {
      "alignedWord": "of",
      "case": "success",
      "end": 4.21,
      "endOffset": 69,
      "phones": [
        {
          "duration": 0.07,
          "phone": "ah_B"
        },
        {
          "duration": 0.08,
          "phone": "v_E"
        }
      ],
      "start": 4.06,
      "startOffset": 67,
      "word": "OF"
    },
    {
      "alignedWord": "this",
      "case": "success",
      "end": 4.45,
      "endOffset": 74,
      "phones": [
        {
          "duration": 0.01,
          "phone": "dh_B"
        },
        {
          "duration": 0.08,
          "phone": "ih_I"
        },
        {
          "duration": 0.15,
          "phone": "s_E"
        }
      ],
      "start": 4.21,
      "startOffset": 70,
      "word": "THIS"
    },
    {
      "alignedWord": "unhappy",
      "case": "success",
      "end": 4.96,
      "endOffset": 82,
      "phones": [
        {
          "duration": 0.11,
          "phone": "ah_B"
        },
        {
          "duration": 0.08,
          "phone": "n_I"
        },
        {
          "duration": 0.04,
          "phone": "hh_I"
        },
        {
          "duration": 0.05,
          "phone": "ae_I"
        },
        {
          "duration": 0.09,
          "phone": "p_I"
        },
        {
          "duration": 0.08,
          "phone": "iy_E"
        }
      ],
      "start": 4.51,
      "startOffset": 75,
      "word": "UNHAPPY"
    },
    {
      "alignedWord": "being",
      "case": "success",
      "end": 5.33,
      "endOffset": 88,
      "phones": [
        {
          "duration": 0.07,
          "phone": "b_B"
        },
        {
          "duration": 0.09,
          "phone": "iy_I"
        },
        {
          "duration": 0.08,
          "phone": "ih_I"
        },
        {
          "duration": 0.13,
          "phone": "ng_E"
        }
      ],
      "start": 4.96,
      "startOffset": 83,
      "word": "BEING"
    },
    {
      "alignedWord": "see",
      "case": "success",
      "end": 6.16,
      "endOffset": 92,
      "phones": [
        {
          "duration": 0.26,
          "phone": "s_B"
        },
        {
          "duration": 0.16,
          "phone": "iy_E"
        }
      ],
      "start": 5.74,
      "startOffset": 89,
      "word": "SEE"
    },
    {
      "alignedWord": "here",
      "case": "success",
      "end": 6.47,
      "endOffset": 97,
      "phones": [
        {
          "duration": 0.07,
          "phone": "hh_B"
        },
        {
          "duration": 0.13,
          "phone": "iy_I"
        },
        {
          "duration": 0.11,
          "phone": "r_E"
        }
      ],
      "start": 6.16,
      "startOffset": 93,
      "word": "HERE"
    },
    {
      "alignedWord": "i",
      "case": "success",
      "end": 6.64,
      "endOffset": 99,
      "phones": [
        {
          "duration": 0.17,
          "phone": "ay_S"
        }
      ],
      "start": 6.47,
      "startOffset": 98,
      "word": "I"
    },
    {
      "alignedWord": "give",
      "case": "success",
      "end": 6.9,
      "endOffset": 104,
      "phones": [
        {
          "duration": 0.1,
          "phone": "g_B"
        },
        {
          "duration": 0.07,
          "phone": "ih_I"
        },
        {
          "duration": 0.08,
          "phone": "v_E"
        }
      ],
      "start": 6.65,
      "startOffset": 100,
      "word": "GIVE"
    },
    {
      "alignedWord": "you",
      "case": "success",
      "end": 7.05,
      "endOffset": 108,
      "phones": [
        {
          "duration": 0.06,
          "phone": "y_B"
        },
        {
          "duration": 0.08,
          "phone": "uw_E"
        }
      ],
      "start": 6.91,
      "startOffset": 105,
      "word": "YOU"
    },
    {
      "alignedWord": "my",
      "case": "success",
      "end": 7.28,
      "endOffset": 111,
      "phones": [
        {
          "duration": 0.07,
          "phone": "m_B"
        },
        {
          "duration": 0.16,
          "phone": "ay_E"
        }
      ],
      "start": 7.05,
      "startOffset": 109,
      "word": "MY"
    },
    {
      "alignedWord": "hand",
      "case": "success",
      "end": 7.6000000000000005,
      "endOffset": 116,
      "phones": [
        {
          "duration": 0.08,
          "phone": "hh_B"
        },
        {
          "duration": 0.12,
          "phone": "ae_I"
        },
        {
          "duration": 0.05,
          "phone": "n_I"
        },
        {
          "duration": 0.07,
          "phone": "d_E"
        }
      ],
      "start": 7.28,
      "startOffset": 112,
      "word": "HAND"
    },
    {
      "alignedWord": "to",
      "case": "success",
      "end": 7.68,
      "endOffset": 119,
      "phones": [
        {
          "duration": 0.02,
          "phone": "t_B"
        },
        {
          "duration": 0.06,
          "phone": "ih_E"
        }
      ],
      "start": 7.6,
      "startOffset": 117,
      "word": "TO"
    },
    {
      "alignedWord": "be",
      "case": "success",
      "end": 7.81,
      "endOffset": 122,
      "phones": [
        {
          "duration": 0.07,
          "phone": "b_B"
        },
        {
          "duration": 0.06,
          "phone": "iy_E"
        }
      ],
      "start": 7.68,
      "startOffset": 120,
      "word": "BE"
    },
    {
      "alignedWord": "yours",
      "case": "success",
      "end": 8.2,
      "endOffset": 128,
      "phones": [
        {
          "duration": 0.09,
          "phone": "y_B"
        },
        {
          "duration": 0.12,
          "phone": "ao_I"
        },
        {
          "duration": 0.1,
          "phone": "r_I"
        },
        {
          "duration": 0.08,
          "phone": "z_E"
        }
      ],
      "start": 7.81,
      "startOffset": 123,
      "word": "YOURS"
    },
    {
      "alignedWord": "and",
      "case": "success",
      "end": 8.430000000000001,
      "endOffset": 132,
      "phones": [
        {
          "duration": 0.05,
          "phone": "ah_B"
        },
        {
          "duration": 0.11,
          "phone": "n_I"
        },
        {
          "duration": 0.06,
          "phone": "d_E"
        }
      ],
      "start": 8.21,
      "startOffset": 129,
      "word": "AND"
    },
    {
      "alignedWord": "let",
      "case": "success",
      "end": 8.669999,
      "endOffset": 136,
      "phones": [
        {
          "duration": 0.09,
          "phone": "l_B"
        },
        {
          "duration": 0.06,
          "phone": "eh_I"
        },
        {
          "duration": 0.09,
          "phone": "t_E"
        }
      ],
      "start": 8.429999,
      "startOffset": 133,
      "word": "LET"
    },
    {
      "alignedWord": "heaven",
      "case": "success",
      "end": 9.09,
      "endOffset": 143,
      "phones": [
        {
          "duration": 0.16,
          "phone": "hh_B"
        },
        {
          "duration": 0.08,
          "phone": "eh_I"
        },
        {
          "duration": 0.06,
          "phone": "v_I"
        },
        {
          "duration": 0.06,
          "phone": "ah_I"
        },
        {
          "duration": 0.04,
          "phone": "n_E"
        }
      ],
      "start": 8.69,
      "startOffset": 137,
      "word": "HEAVEN"
    }
  ]
}