{
  "transcript": "THROUGH MY HANDS PASSED THE ACCOUNTS AND RETURNS OF WHAT WAS SOWN AND REAPED THE OIL MILLS THE WINE PRESSES THE COUNT OF THE FLOCKS AND HERDS THE BEEHIVES ALL IN SHORT THAT A RICH FARMER LIKE MY FATHER HAS OR CAN HAVE I HAD UNDER MY CARE",
  "words": [
    {
      "alignedWord": "through",
      "case": "success",
      "end": 0.38,
      "endOffset": 7,
      "phones": [
        {
          "duration": 0.08,
          "phone": "th_B"
        },
        {
          "duration": 0.11,
          "phone": "r_I"
        },
        {
          "duration": 0.09,
          "phone": "uw_E"
        }
      ],
      "start": 0.1,
      "startOffset": 0,
      "word": "THROUGH"
    },
    {
      "alignedWord": "my",
      "case": "success",
      "end": 0.65,
      "endOffset": 10,
      "phones": [
        {
          "duration": 0.09,
          "phone": "m_B"
        },
        {
          "duration": 0.17,
          "phone": "ay_E"
        }
      ],
      "start": 0.39,
      "startOffset": 8,
      "word": "MY"
    },
    {
      "alignedWord": "hands",
      "case": "success",
      "end": 1.06,
      "endOffset": 16,
      "phones": [
        {
          "duration": 0.08,
          "phone": "hh_B"
        },
        {
          "duration": 0.15,
          "phone": "ae_I"
        },
        {
          "duration": 0.1,
          "phone": "n_I"
        },
        {
          "duration": 0.08,
          "phone": "z_E"
        }
      ],
      "start": 0.65,
      "startOffset": 11,
      "word": "HANDS"
    },
    {
      "alignedWord": "passed",
      "case": "success",
      "end": 1.4200000000000002,
      "endOffset": 23,
      "phones": [
        {
          "duration": 0.09,
          "phone": "p_B"
        },
        {
          "duration": 0.09,
          "phone": "ae_I"
        },
        {
          "duration": 0.07,
          "phone": "s_I"
        },
        {
          "duration": 0.07,
          "phone": "t_E"
        }
      ],
      "start": 1.1,
      "startOffset": 17,
      "word": "PASSED"
    },
    {
      "alignedWord": "the",
      "case": "success",
      "end": 1.56,
      "endOffset": 27,
      "phones": [
        {
          "duration": 0.06,
          "phone": "dh_B"
        },
        {
          "duration": 0.08,
          "phone": "iy_E"
        }
      ],
      "start": 1.42,
      "startOffset": 24,
      "word": "THE"
    },
    {
      "alignedWord": "accounts",
      "case": "success",
      "end": 2.04,
      "endOffset": 36,
      "phones": [
        {
          "duration": 0.08,
          "phone": "ah_B"
        },
        {
          "duration": 0.09,
          "phone": "k_I"
        },
        {
          "duration": 0.12,
          "phone": "aw_I"
        },
        {
          "duration": 0.06,
          "phone": "n_I"
        },
        {
          "duration": 0.06,
          "phone": "t_I"
        },
        {
          "duration": 0.07,
          "phone": "s_E"
        }
      ],
      "start": 1.56,
      "startOffset": 28,
      "word": "ACCOUNTS"
    },
    {
      "alignedWord": "and",
      "case": "success",
      "end": 2.2,
      "endOffset": 40,
      "phones": [
        {
          "duration": 0.06,
          "phone": "ah_B"
        },
        {
          "duration": 0.03,
          "phone": "n_I"
        },
        {
          "duration": 0.07,
          "phone": "d_E"
        }
      ],
      "start": 2.04,
      "startOffset": 37,
      "word": "AND"
    },
    {
      "alignedWord": "returns",
      "case": "success",
      "end": 2.64,
      "endOffset": 48,
      "phones": [
        {
          "duration": 0.03,
          "phone": "r_B"
        },
        {
          "duration": 0.06,
          "phone": "iy_I"
        },
        {
          "duration": 0.1,
          "phone": "t_I"
        },
        {
          "duration": 0.11,
          "phone": "er_I"
        },
        {
          "duration": 0.1,
          "phone": "n_I"
        },
        {
          "duration": 0.04,
          "phone": "z_E"
        }
      ],
      "start": 2.2,
      "startOffset": 41,
      "word": "RETURNS"
    },
    {
      "alignedWord": "of",
      "case": "success",
      "end": 2.79,
      "endOffset": 51,
      "phones": [
        {
          "duration": 0.07,
          "phone": "ah_B"
        },
        {
          "duration": 0.08,
          "phone": "v_E"
        }
      ],
      "start": 2.64,
      "startOffset": 49,
      "word": "OF"
    },
    {
      "alignedWord": "what",
      "case": "success",
      "end": 2.93,
      "endOffset": 56,
      "phones": [
        {
          "duration": 0.03,
          "phone": "w_B"
        },
        {
          "duration": 0.04,
          "phone": "ah_I"
        },
        {
          "duration": 0.07,
          "phone": "t_E"
        }
      ],
      "start": 2.79,
      "startOffset": 52,
      "word": "WHAT"
    },
    {
      "alignedWord": "was",
      "case": "success",
      "end": 3.12,
      "endOffset": 60,
      "phones": [
        {
          "duration": 0.04,
          "phone": "w_B"
        },
        {
          "duration": 0.08,
          "phone": "ah_I"
        },
        {
          "duration": 0.07,
          "phone": "z_E"
        }
      ],
      "start": 2.93,
      "startOffset": 57,
      "word": "WAS"
    },
    {
      "alignedWord": "sown",
      "case": "success",
      "end": 3.52,
      "endOffset": 65,
      "phones": [
        {
          "duration": 0.11,
          "phone": "s_B"
        },
        {
          "duration": 0.21,
          "phone": "ow_I"
        },
        {
          "duration": 0.08,
          "phone": "n_E"
        }
      ],
      "start": 3.12,
      "startOffset": 61,
      "word": "SOWN"
    },
    {
      "alignedWord": "and",
      "case": "success",
      "end": 3.68,
      "endOffset": 69,
      "phones": [
        {
          "duration": 0.05,
          "phone": "ae_B"
        },
        {
          "duration": 0.04,
          "phone": "n_I"
        },
        {
          "duration": 0.07,
          "phone": "d_E"
        }
      ],
      "start": 3.52,
      "startOffset": 66,
      "word": "AND"
    },
    {
      "alignedWord": "reaped",
      "case": "success",
      "end": 4.09,
      "endOffset": 76,
      "phones": [
        {
          "duration": 0.09,
          "phone": "r_B"
        },
        {
          "duration": 0.08,
          "phone": "iy_I"
        },
        {
          "duration": 0.08,
          "phone": "p_I"
        },
        {
          "duration": 0.16,
          "phone": "t_E"
        }
      ],
      "start": 3.68,
      "startOffset": 70,
      "word": "REAPED"
    },
    {
      "alignedWord": "the",
      "case": "success",
      "end": 4.28,
      "endOffset": 80,
      "phones": [
        {
          "duration": 0.08,
          "phone": "dh_B"
        },
        {
          "duration": 0.05,
          "phone": "ah_E"
        }
      ],
      "start": 4.15,
      "startOffset": 77,
      "word": "THE"
    },
    {
      "alignedWord": "oil",
      "case": "success",
      "end": 4.58,
      "endOffset": 84,
      "phones": [
        {
          "duration": 0.23,
          "phone": "oy_B"
        },
        {
          "duration": 0.06,
          "phone": "l_E"
        }
      ],
      "start": 4.29,
      "startOffset": 81,
      "word": "OIL"
    },
    {
      "alignedWord": "mills",
      "case": "success",
      "end": 4.98,
      "endOffset": 90,
      "phones": [
        {
          "duration": 0.06,
          "phone": "m_B"
        },
        {
          "duration": 0.11,
          "phone": "ih_I"
        },
        {
          "duration": 0.14,
          "phone": "l_I"
        },
        {
          "duration": 0.09,
          "phone": "z_E"
        }
      ],
      "start": 4.58,
      "startOffset": 85,
      "word": "MILLS"
    },
    {
      "alignedWord": "the",
      "case": "success",
      "end": 5.13,
      "endOffset": 94,
      "phones": [
        {
          "duration": 0.08,
          "phone": "dh_B"
        },
        {
          "duration": 0.06,
          "phone": "ah_E"
        }
      ],
      "start": 4.99,
      "startOffset": 91,
      "word": "THE"
    },
    {
      "alignedWord": "wine",
      "case": "success",
      "end": 5.5,
      "endOffset": 99,
      "phones": [
        {
          "duration": 0.13,
          "phone": "w_B"
        },
        {
          "duration": 0.15,
          "phone": "ay_I"
        },
        {
          "duration": 0.09,
          "phone": "n_E"
        }
      ],
      "start": 5.13,
      "startOffset": 95,
      "word": "WINE"
    },
    {
      "alignedWord": "presses",
      "case": "success",
      "end": 5.99,
      "endOffset": 107,
      "phones": [
        {
          "duration": 0.04,
          "phone": "p_B"
        },
        {
          "duration": 0.05,
          "phone": "r_I"
        },
        {
          "duration": 0.08,
          "phone": "eh_I"
        },
        {
          "duration": 0.08,
          "phone": "s_I"
        },
        {
          "duration": 0.12,
          "phone": "ih_I"
        },
        {
          "duration": 0.12,
          "phone": "z_E"
        }
      ],
      "start": 5.5,
      "startOffset": 100,
      "word": "PRESSES"
    },
    {
      "alignedWord": "the",
      "case": "success",
      "end": 6.13,
      "endOffset": 111,
      "phones": [
        {
          "duration": 0.05,
          "phone": "dh_B"
        },
        {
          "duration": 0.09,
          "phone": "iy_E"
        }
      ],
      "start": 5.99,
      "startOffset": 108,
      "word": "THE"
    },
    {
      "alignedWord": "count",
      "case": "success",
      "end": 6.43,
      "endOffset": 117,
      "phones": [
        {
          "duration": 0.09,
          "phone": "k_B"
        },
        {
          "duration": 0.11,
          "phone": "aw_I"
        },
        {
          "duration": 0.02,
          "phone": "n_I"
        },
        {
          "duration": 0.08,
          "phone": "t_E"
        }
      ],
      "start": 6.13,
      "startOffset": 112,
      "word": "COUNT"
    },
    {
      "alignedWord": "of",
      "case": "success",
      "end": 6.5600000000000005,
      "endOffset": 120,
      "phones": [
        {
          "duration": 0.06,
          "phone": "ah_B"
        },
        {
          "duration": 0.06,
          "phone": "v_E"
        }
      ],
      "start": 6.44,
      "startOffset": 118,
      "word": "OF"
    },
    {
      "alignedWord": "the",
      "case": "success",
      "end": 6.7,
      "endOffset": 124,
      "phones": [
        {
          "duration": 0.07,
          "phone": "dh_B"
        },
        {
          "duration": 0.05,
          "phone": "ah_E"
        }
      ],
      "start": 6.58,
      "startOffset": 121,
      "word": "THE"
    },
    {
      "alignedWord": "flocks",
      "case": "success",
      "end": 7.17,
      "endOffset": 131,
      "phones": [
        {
          "duration": 0.12,
          "phone": "f_B"
        },
        {
          "duration": 0.07,
          "phone": "l_I"
        },
        {
          "duration": 0.09,
          "phone": "aa_I"
        },
        {
          "duration": 0.11,
          "phone": "k_I"
        },
        {
          "duration": 0.08,
          "phone": "s_E"
        }
      ],
      "start": 6.7,
      "startOffset": 125,
      "word": "FLOCKS"
    },
    {
      "alignedWord": "and",
      "case": "success",
      "end": 7.33,
      "endOffset": 135,
      "phones": [
        {
          "duration": 0.07,
          "phone": "ah_B"
        },
        {
          "duration": 0.06,
          "phone": "n_I"
        },
        {
          "duration": 0.03,
          "phone": "d_E"
        }
      ],
      "start": 7.17,
      "startOffset": 132,
      "word": "AND"
    },
    {
      "alignedWord": "herds",
      "case": "success",
      "end": 7.81,
      "endOffset": 141,
      "phones": [
        {
          "duration": 0.1,
          "phone": "hh_B"
        },
        {
          "duration": 0.12,
          "phone": "er_I"
        },
        {
          "duration": 0.1,
          "phone": "d_I"
        },
        {
          "duration": 0.15,
          "phone": "z_E"
        }
      ],
      "start": 7.34,
      "startOffset": 136,
      "word": "HERDS"
    },
    {
      "alignedWord": "the",
      "case": "success",
      "end": 8.22,
      "endOffset": 145,
      "phones": [
        {
          "duration": 0.07,
          "phone": "dh_B"
        },
        {
          "duration": 0.08,
          "phone": "ah_E"
        }
      ],
      "start": 8.07,
      "startOffset": 142,
      "word": "THE"
    },
    {
      "alignedWord": "<unk>",
      "case": "success",
      "end": 8.84,
      "endOffset": 154,
      "phones": [
        {
          "duration": 0.62,
          "phone": "oov_S"
        }
      ],
      "start": 8.22,
      "startOffset": 146,
      "word": "BEEHIVES"
    },
    {
      "alignedWord": "all",
      "case": "success",
      "end": 9.36,
      "endOffset": 158,
      "phones": [
        {
          "duration": 0.22,
          "phone": "ao_B"
        },
        {
          "duration": 0.1,
          "phone": "l_E"
        }
      ],
      "start": 9.04,
      "startOffset": 155,
      "word": "ALL"
    },
    {
      "alignedWord": "in",
      "case": "success",
      "end": 9.52,
      "endOffset": 161,
      "phones": [
        {
          "duration": 0.07,
          "phone": "ih_B"
        },
        {
          "duration": 0.09,
          "phone": "n_E"
        }
      ],
      "start": 9.36,
      "startOffset": 159,
      "word": "IN"
    },
    {
      "alignedWord": "short",
      "case": "success",
      "end": 9.86,
      "endOffset": 167,
      "phones": [
        {
          "duration": 0.15,
          "phone": "sh_B"
        },
        {
          "duration": 0.08,
          "phone": "ao_I"
        },
        {
          "duration": 0.03,
          "phone": "r_I"
        },
        {
          "duration": 0.08,
          "phone": "t_E"
        }
      ],
      "start": 9.52,
      "startOffset": 162,
      "word": "SHORT"
    },
    {
      "alignedWord": "that",
      "case": "success",
      "end": 10.02,
      "endOffset": 172,
      "phones": [
        {
          "duration": 0.05,
          "phone": "dh_B"
        },
        {
          "duration": 0.06,
          "phone": "ah_I"
        },
        {
          "duration": 0.04,
          "phone": "t_E"
        }
      ],
      "start": 9.87,
      "startOffset": 168,
      "word": "THAT"
    },
    {
      "alignedWord": "a",
      "case": "success",
      "end": 10.11,
      "endOffset": 174,
      "phones": [
        {
          "duration": 0.09,
          "phone": "ah_S"
        }
      ],
      "start": 10.02,
      "startOffset": 173,
      "word": "A"
    },
    {
      "alignedWord": "rich",
      "case": "success",
      "end": 10.35,
      "endOffset": 179,
      "phones": [
        {
          "duration": 0.05,
          "phone": "r_B"
        },
        {
          "duration": 0.07,
          "phone": "ih_I"
        },
        {
          "duration": 0.12,
          "phone": "ch_E"
        }
      ],
      "start": 10.11,
      "startOffset": 175,
      "word": "RICH"
    },
    {
      "alignedWord": "farmer",
      "case": "success",
      "end": 10.819999000000001,
      "endOffset": 186,
      "phones": [
        {
          "duration": 0.16,
          "phone": "f_B"
        },
        {
          "duration": 0.05,
          "phone": "aa_I"
        },
        {
          "duration": 0.07,
          "phone": "r_I"
        },
        {
          "duration": 0.09,
          "phone": "m_I"
        },
        {
          "duration": 0.1,
          "phone": "er_E"
        }
      ],
      "start": 10.349999,
      "startOffset": 180,
      "word": "FARMER"
    },
    {
      "alignedWord": "like",
      "case": "success",
      "end": 11.030000000000001,
      "endOffset": 191,
      "phones": [
        {
          "duration": 0.07,
          "phone": "l_B"
        },
        {
          "duration": 0.07,
          "phone": "ay_I"
        },
        {
          "duration": 0.07,
          "phone": "k_E"
        }
      ],
      "start": 10.82,
      "startOffset": 187,
      "word": "LIKE"
    },
    {
      "alignedWord": "my",
      "case": "success",
      "end": 11.17,
      "endOffset": 194,
      "phones": [
        {
          "duration": 0.05,
          "phone": "m_B"
        },
        {
          "duration": 0.09,
          "phone": "ay_E"
        }
      ],
      "start": 11.03,
      "startOffset": 192,
      "word": "MY"
    },
    {
      "alignedWord": "father",
      "case": "success",
      "end": 11.55,
      "endOffset": 201,
      "phones": [
        {
          "duration": 0.1,
          "phone": "f_B"
        },
        {
          "duration": 0.11,
          "phone": "aa_I"
        },
        {
          "duration": 0.07,
          "phone": "dh_I"
        },
        {
          "duration": 0.1,
          "phone": "er_E"
        }
      ],
      "start": 11.17,
      "startOffset": 195,
      "word": "FATHER"
    },
    {
      "alignedWord": "has",
      "case": "success",
      "end": 11.929998999999999,
      "endOffset": 205,
      "phones": [
        {
          "duration": 0.09,
          "phone": "hh_B"
        },
        {
          "duration": 0.18,
          "phone": "ae_I"
        },
        {
          "duration": 0.1,
          "phone": "z_E"
        }
      ],
      "start": 11.559999,
      "startOffset": 202,
      "word": "HAS"
    },
    {
      "alignedWord": "or",
      "case": "success",
      "end": 12.11,
      "endOffset": 208,
      "phones": [
        {
          "duration": 0.09,
          "phone": "ao_B"
        },
        {
          "duration": 0.08,
          "phone": "r_E"
        }
      ],
      "start": 11.94,
      "startOffset": 206,
      "word": "OR"
    },
    {
      "alignedWord": "can",
      "case": "success",
      "end": 12.37,
      "endOffset": 212,
      "phones": [
        {
          "duration": 0.09,
          "phone": "k_B"
        },
        {
          "duration": 0.08,
          "phone": "ae_I"
        },
        {
          "duration": 0.09,
          "phone": "n_E"
        }
      ],
      "start": 12.11,
      "startOffset": 209,
      "word": "CAN"
    },
    {
      "alignedWord": "have",
      "case": "success",
      "end": 12.72,
      "endOffset": 217,
      "phones": [
        {
          "duration": 0.08,
          "phone": "hh_B"
        },
        {
          "duration": 0.12,
          "phone": "ae_I"
        },
        {
          "duration": 0.14,
          "phone": "v_E"
        }
      ],
      "start": 12.38,
      "startOffset": 213,
      "word": "HAVE"
    },
    {
      "alignedWord": "i",
      "case": "success",
      "end": 13.089998999999999,
      "endOffset": 219,
      "phones": [
        {
          "duration": 0.28,
          "phone": "ay_S"
        }
      ],
      "start": 12.809999,
      "startOffset": 218,
      "word": "I"
    },
    {
      "alignedWord": "had",
      "case": "success",
      "end": 13.319999000000001,
      "endOffset": 223,
      "phones": [
        {
          "duration": 0.08,
          "phone": "hh_B"
        },
        {
          "duration": 0.07,
          "phone": "ae_I"
        },
        {
          "duration": 0.07,
          "phone": "d_E"
        }
      ],
      "start": 13.099999,
      "startOffset": 220,
      "word": "HAD"
    },
    {
      "alignedWord": "under",
      "case": "success",
      "end": 13.55,
      "endOffset": 229,
      "phones": [
        {
          "duration": 0.04,
          "phone": "ah_B"
        },
        {
          "duration": 0.07,
          "phone": "n_I"
        },
        {
          "duration": 0.07,
          "phone": "d_I"
        },
        {
          "duration": 0.05,
          "phone": "er_E"
        }
      ],
      "start": 13.32,
      "startOffset": 224,
      "word": "UNDER"
    },
    {
      "alignedWord": "my",
      "case": "success",
      "end": 13.759999,
      "endOffset": 232,
      "phones": [
        {
          "duration": 0.07,
          "phone": "m_B"
        },
        {
          "duration": 0.14,
          "phone": "ay_E"
        }
      ],
      "start": 13.549999,
      "startOffset": 230,
      "word": "MY"
    },
    {
      "alignedWord": "care",
      "case": "success",
      "end": 14.149999000000001,
      "endOffset": 237,
      "phones": [
        {
          "duration": 0.12,
          "phone": "k_B"
        },
        {
          "duration": 0.11,
          "phone": "eh_I"
        },
        {
          "duration": 0.16,
          "phone": "r_E"
        }
      ],
      "start": 13.759999,
      "startOffset": 233,
      "word": "CARE"
    }
  ]
}