{
  "transcript": "I LEFT INSTRUCTIONS FOR SHIPPING MY CONTAINERS OF STUFFED ANIMALS AND DRIED PLANTS TO PARIS FRANCE",
  "words": [
    {
      "alignedWord": "i",
      "case": "success",
      "end": 0.46,
      "endOffset": 1,
      "phones": [
        {
          "duration": 0.13,
          "phone": "ay_S"
        }
      ],
      "start": 0.33,
      "startOffset": 0,
      "word": "I"
    },
    {
      "alignedWord": "left",
      "case": "success",
      "end": 0.7,
      "endOffset": 6,
      "phones": [
        {
          "duration": 0.05,
          "phone": "l_B"
        },
        {
          "duration": 0.06,
          "phone": "eh_I"
        },
        {
          "duration": 0.07,
          "phone": "f_I"
        },
        {
          "duration": 0.06,
          "phone": "t_E"
        }
      ],
      "start": 0.46,
      "startOffset": 2,
      "word": "LEFT"
    },
    {
      "alignedWord": "instructions",
      "case": "success",
      "end": 1.3199999999999998,
      "endOffset": 19,
      "phones": [
        {
          "duration": 0.01,
          "phone": "ih_B"
        },
        {
          "duration": 0.08,
          "phone": "n_I"
        },
        {
          "duration": 0.04,
          "phone": "s_I"
        },
        {
          "duration": 0.07,
          "phone": "t_I"
        },
        {
          "duration": 0.05,
          "phone": "r_I"
        },
        {
          "duration": 0.05,
          "phone": "ah_I"
        },
        {
          "duration": 0.08,
          "phone": "k_I"
        },
        {
          "duration": 0.07,
          "phone": "sh_I"
        },
        {
          "duration": 0.06,
          "phone": "ah_I"
        },
        {
          "duration": 0.05,
          "phone": "n_I"
        },
        {
          "duration": 0.06,
          "phone": "z_E"
        }
      ],
      "start": 0.7,
      "startOffset": 7,
      "word": "INSTRUCTIONS"
    },
    {
      "alignedWord": "for",
      "case": "success",
      "end": 1.46,
      "endOffset": 23,
      "phones": [
        {
          "duration": 0.08,
          "phone": "f_B"
        },
        {
          "duration": 0.06,
          "phone": "er_E"
        }
      ],
      "start": 1.32,
      "startOffset": 20,
      "word": "FOR"
    },
    {
      "alignedWord": "shipping",
      "case": "success",
      "end": 1.78,
      "endOffset": 32,
      "phones": [
        {
          "duration": 0.1,
          "phone": "sh_B"
        },
        {
          "duration": 0.03,
          "phone": "ih_I"
        },
        {
          "duration": 0.06,
          "phone": "p_I"
        },
        {
          "duration": 0.06,
          "phone": "ih_I"
        },
        {
          "duration": 0.07,
          "phone": "ng_E"
        }
      ],
      "start": 1.46,
      "startOffset": 24,
      "word": "SHIPPING"
    },
    {
      "alignedWord": "my",
      "case": "success",
      "end": 1.8900000000000001,
      "endOffset": 35,
      "phones": [
        {
          "duration": 0.03,
          "phone": "m_B"
        },
        {
          "duration": 0.08,
          "phone": "ay_E"
        }
      ],
      "start": 1.78,
      "startOffset": 33,
      "word": "MY"
    },
    {
      "alignedWord": "containers",
      "case": "success",
      "end": 2.41,
      "endOffset": 46,
      "phones": [
        {
          "duration": 0.04,
          "phone": "k_B"
        },
        {
          "duration": 0.05,
          "phone": "ah_I"
        },
        {
          "duration": 0.05,
          "phone": "n_I"
        },
        {
          "duration": 0.07,
          "phone": "t_I"
        },
        {
          "duration": 0.1,
          "phone": "ey_I"
        },
        {
          "duration": 0.06,
          "phone": "n_I"
        },
        {
          "duration": 0.08,
          "phone": "er_I"
        },
        {
          "duration": 0.07,
          "phone": "z_E"
        }
      ],
      "start": 1.89,
      "startOffset": 36,
      "word": "CONTAINERS"
    },
    {
      "alignedWord": "of",
      "case": "success",
      "end": 2.5500000000000003,
      "endOffset": 49,
      "phones": [
        {
          "duration": 0.08,
          "phone": "ah_B"
        },
        {
          "duration": 0.06,
          "phone": "v_E"
        }
      ],
      "start": 2.41,
      "startOffset": 47,
      "word": "OF"
    },
    {
      "alignedWord": "stuffed",
      "case": "success",
      "end": 2.86,
      "endOffset": 57,
      "phones": [
        {
          "duration": 0.06,
          "phone": "s_B"
        },
        {
          "duration": 0.07,
          "phone": "t_I"
        },
        {
          "duration": 0.05,
          "phone": "ah_I"
        },
        {
          "duration": 0.07,
          "phone": "f_I"
        },
        {
          "duration": 0.06,
          "phone": "t_E"
        }
      ],
      "start": 2.55,
      "startOffset": 50,
      "word": "STUFFED"
    },
    {
      "alignedWord": "animals",
      "case": "success",
      "end": 3.3499999999999996,
      "endOffset": 65,
      "phones": [
        {
          "duration": 0.07,
          "phone": "ae_B"
        },
        {
          "duration": 0.07,
          "phone": "n_I"
        },
        {
          "duration": 0.06,
          "phone": "ah_I"
        },
        {
          "duration": 0.03,
          "phone": "m_I"
        },
        {
          "duration": 0.06,
          "phone": "ah_I"
        },
        {
          "duration": 0.09,
          "phone": "l_I"
        },
        {
          "duration": 0.11,
          "phone": "z_E"
        }
      ],
      "start": 2.86,
      "startOffset": 58,
      "word": "ANIMALS"
    },
    {
      "alignedWord": "and",
      "case": "success",
      "end": 3.66,
      "endOffset": 69,
      "phones": [
        {
          "duration": 0.08,
          "phone": "ae_B"
        },
        {
          "duration": 0.04,
          "phone": "n_I"
        },
        {
          "duration": 0.04,
          "phone": "d_E"
        }
      ],
      "start": 3.5,
      "startOffset": 66,
      "word": "AND"
    },
    {
      "alignedWord": "dried",
      "case": "success",
      "end": 3.9000000000000004,
      "endOffset": 75,
      "phones": [
        {
          "duration": 0.03,
          "phone": "d_B"
        },
        {
          "duration": 0.08,
          "phone": "r_I"
        },
        {
          "duration": 0.08,
          "phone": "ay_I"
        },
        {
          "duration": 0.05,
          "phone": "d_E"
        }
      ],
      "start": 3.66,
      "startOffset": 70,
      "word": "DRIED"
    },
    {
      "alignedWord": "plants",
      "case": "success",
      "end": 4.22,
      "endOffset": 82,
      "phones": [
        {
          "duration": 0.07,
          "phone": "p_B"
        },
        {
          "duration": 0.05,
          "phone": "l_I"
        },
        {
          "duration": 0.08,
          "phone": "ae_I"
        },
        {
          "duration": 0.04,
          "phone": "n_I"
        },
        {
          "duration": 0.03,
          "phone": "t_I"
        },
        {
          "duration": 0.05,
          "phone": "s_E"
        }
      ],
      "start": 3.9,
      "startOffset": 76,
      "word": "PLANTS"
    },
    {
      "alignedWord": "to",
      "case": "success",
      "end": 4.33,
      "endOffset": 85,
      "phones": [
        {
          "duration": 0.05,
          "phone": "t_B"
        },
        {
          "duration": 0.06,
          "phone": "ah_E"
        }
      ],
      "start": 4.22,
      "startOffset": 83,
      "word": "TO"
    },
    {
      "alignedWord": "paris",
      "case": "success",
      "end": 4.67,
      "endOffset": 91,
      "phones": [
        {
          "duration": 0.06,
          "phone": "p_B"
        },
        {
          "duration": 0.08,
          "phone": "eh_I"
        },
        {
          "duration": 0.07,
          "phone": "r_I"
        },
        {
          "duration": 0.06,
          "phone": "ih_I"
        },
        {
          "duration": 0.07,
          "phone": "s_E"
        }
      ],
      "start": 4.33,
      "startOffset": 86,
      "word": "PARIS"
    },
    {
      "alignedWord": "france",
      "case": "success",
      "end": 5.1499999999999995,
      "endOffset": 98,
      "phones": [
        {
          "duration": 0.05,
          "phone": "f_B"
        },
        {
          "duration": 0.07,
          "phone": "r_I"
        },
        {
          "duration": 0.12,
          "phone": "ae_I"
        },
        {
          "duration": 0.09,
          "phone": "n_I"
        },
        {
          "duration": 0.14,
          "phone": "s_E"
        }
      ],
      "start": 4.68,
      "startOffset": 92,
      "word": "FRANCE"
    }
  ]
}