{
  "transcript": "KEEP UP THE ILLUSION OF MY BEGINNINGS AS THOUGH HE HAD ROBBED OUR COMMON LIFE OF THE LAST SPARK OF ITS GLAMOUR AND SO YOU CLEARED OUT AT ONCE JUMPED HE CORRECTED ME INCISIVELY JUMPED MIND",
  "words": [
    {
      "alignedWord": "keep",
      "case": "success",
      "end": 0.51,
      "endOffset": 4,
      "phones": [
        {
          "duration": 0.13,
          "phone": "k_B"
        },
        {
          "duration": 0.09,
          "phone": "iy_I"
        },
        {
          "duration": 0.07,
          "phone": "p_E"
        }
      ],
      "start": 0.22,
      "startOffset": 0,
      "word": "KEEP"
    },
    {
      "alignedWord": "up",
      "case": "success",
      "end": 0.69,
      "endOffset": 7,
      "phones": [
        {
          "duration": 0.1,
          "phone": "ah_B"
        },
        {
          "duration": 0.08,
          "phone": "p_E"
        }
      ],
      "start": 0.51,
      "startOffset": 5,
      "word": "UP"
    },
    {
      "alignedWord": "the",
      "case": "success",
      "end": 0.8899999999999999,
      "endOffset": 11,
      "phones": [
        {
          "duration": 0.1,
          "phone": "dh_B"
        },
        {
          "duration": 0.08,
          "phone": "iy_E"
        }
      ],
      "start": 0.71,
      "startOffset": 8,
      "word": "THE"
    },
    {
      "alignedWord": "illusion",
      "case": "success",
      "end": 1.46,
      "endOffset": 20,
      "phones": [
        {
          "duration": 0.09,
          "phone": "ih_B"
        },
        {
          "duration": 0.13,
          "phone": "l_I"
        },
        {
          "duration": 0.14,
          "phone": "uw_I"
        },
        {
          "duration": 0.07,
          "phone": "zh_I"
        },
        {
          "duration": 0.1,
          "phone": "ah_I"
        },
        {
          "duration": 0.04,
          "phone": "n_E"
        }
      ],
      "start": 0.89,
      "startOffset": 12,
      "word": "ILLUSION"
    },
    {
      "alignedWord": "of",
      "case": "success",
      "end": 1.5899999999999999,
      "endOffset": 23,
      "phones": [
        {
          "duration": 0.05,
          "phone": "ah_B"
        },
        {
          "duration": 0.08,
          "phone": "v_E"
        }
      ],
      "start": 1.46,
      "startOffset": 21,
      "word": "OF"
    },
    {
      "alignedWord": "my",
      "case": "success",
      "end": 1.79,
      "endOffset": 26,
      "phones": [
        {
          "duration": 0.07,
          "phone": "m_B"
        },
        {
          "duration": 0.13,
          "phone": "ay_E"
        }
      ],
      "start": 1.59,
      "startOffset": 24,
      "word": "MY"
    },
    {
      "alignedWord": "beginnings",
      "case": "success",
      "end": 2.62,
      "endOffset": 37,
      "phones": [
        {
          "duration": 0.07,
          "phone": "b_B"
        },
        {
          "duration": 0.09,
          "phone": "ih_I"
        },
        {
          "duration": 0.14,
          "phone": "g_I"
        },
        {
          "duration": 0.08,
          "phone": "ih_I"
        },
        {
          "duration": 0.04,
          "phone": "n_I"
        },
        {
          "duration": 0.12,
          "phone": "ih_I"
        },
        {
          "duration": 0.16,
          "phone": "ng_I"
        },
        {
          "duration": 0.13,
          "phone": "z_E"
        }
      ],
      "start": 1.79,
      "startOffset": 27,
      "word": "BEGINNINGS"
    },
    {
      "alignedWord": "as",
      "case": "success",
      "end": 3.06,
      "endOffset": 40,
      "phones": [
        {
          "duration": 0.09,
          "phone": "eh_B"
        },
        {
          "duration": 0.05,
          "phone": "z_E"
        }
      ],
      "start": 2.92,
      "startOffset": 38,
      "word": "AS"
    },
    {
      "alignedWord": "though",
      "case": "success",
      "end": 3.21,
      "endOffset": 47,
      "phones": [
        {
          "duration": 0.06,
          "phone": "dh_B"
        },
        {
          "duration": 0.09,
          "phone": "ow_E"
        }
      ],
      "start": 3.06,
      "startOffset": 41,
      "word": "THOUGH"
    },
    {
      "alignedWord": "he",
      "case": "success",
      "end": 3.31,
      "endOffset": 50,
      "phones": [
        {
          "duration": 0.05,
          "phone": "hh_B"
        },
        {
          "duration": 0.05,
          "phone": "iy_E"
        }
      ],
      "start": 3.21,
      "startOffset": 48,
      "word": "HE"
    },
    {
      "alignedWord": "had",
      "case": "success",
      "end": 3.46,
      "endOffset": 54,
      "phones": [
        {
          "duration": 0.02,
          "phone": "hh_B"
        },
        {
          "duration": 0.05,
          "phone": "ae_I"
        },
        {
          "duration": 0.08,
          "phone": "d_E"
        }
      ],
      "start": 3.31,
      "startOffset": 51,
      "word": "HAD"
    },
    {
      "alignedWord": "robbed",
      "case": "success",
      "end": 3.88,
      "endOffset": 61,
      "phones": [
        {
          "duration": 0.13,
          "phone": "r_B"
        },
        {
          "duration": 0.13,
          "phone": "aa_I"
        },
        {
          "duration": 0.09,
          "phone": "b_I"
        },
        {
          "duration": 0.07,
          "phone": "d_E"
        }
      ],
      "start": 3.46,
      "startOffset": 55,
      "word": "ROBBED"
    },
    {
      "alignedWord": "our",
      "case": "success",
      "end": 4.07,
      "endOffset": 65,
      "phones": [
        {
          "duration": 0.07,
          "phone": "aa_B"
        },
        {
          "duration": 0.12,
          "phone": "r_E"
        }
      ],
      "start": 3.88,
      "startOffset": 62,
      "word": "OUR"
    },
    {
      "alignedWord": "common",
      "case": "success",
      "end": 4.54,
      "endOffset": 72,
      "phones": [
        {
          "duration": 0.14,
          "phone": "k_B"
        },
        {
          "duration": 0.1,
          "phone": "aa_I"
        },
        {
          "duration": 0.06,
          "phone": "m_I"
        },
        {
          "duration": 0.07,
          "phone": "ah_I"
        },
        {
          "duration": 0.1,
          "phone": "n_E"
        }
      ],
      "start": 4.07,
      "startOffset": 66,
      "word": "COMMON"
    },
    {
      "alignedWord": "life",
      "case": "success",
      "end": 4.83,
      "endOffset": 77,
      "phones": [
        {
          "duration": 0.09,
          "phone": "l_B"
        },
        {
          "duration": 0.14,
          "phone": "ay_I"
        },
        {
          "duration": 0.06,
          "phone": "f_E"
        }
      ],
      "start": 4.54,
      "startOffset": 73,
      "word": "LIFE"
    },
    {
      "alignedWord": "of",
      "case": "success",
      "end": 4.96,
      "endOffset": 80,
      "phones": [
        {
          "duration": 0.06,
          "phone": "ah_B"
        },
        {
          "duration": 0.07,
          "phone": "v_E"
        }
      ],
      "start": 4.83,
      "startOffset": 78,
      "word": "OF"
    },
    {
      "alignedWord": "the",
      "case": "success",
      "end": 5.05,
      "endOffset": 84,
      "phones": [
        {
          "duration": 0.01,
          "phone": "dh_B"
        },
        {
          "duration": 0.08,
          "phone": "ah_E"
        }
      ],
      "start": 4.96,
      "startOffset": 81,
      "word": "THE"
    },
    {
      "alignedWord": "last",
      "case": "success",
      "end": 5.49,
      "endOffset": 89,
      "phones": [
        {
          "duration": 0.13,
          "phone": "l_B"
        },
        {
          "duration": 0.15,
          "phone": "ae_I"
        },
        {
          "duration": 0.1,
          "phone": "s_I"
        },
        {
          "duration": 0.06,
          "phone": "t_E"
        }
      ],
      "start": 5.05,
      "startOffset": 85,
      "word": "LAST"
    },
    {
      "alignedWord": "spark",
      "case": "success",
      "end": 6.07,
      "endOffset": 95,
      "phones": [
        {
          "duration": 0.21,
          "phone": "s_B"
        },
        {
          "duration": 0.09,
          "phone": "p_I"
        },
        {
          "duration": 0.14,
          "phone": "aa_I"
        },
        {
          "duration": 0.06,
          "phone": "r_I"
        },
        {
          "duration": 0.07,
          "phone": "k_E"
        }
      ],
      "start": 5.5,
      "startOffset": 90,
      "word": "SPARK"
    },
    {
      "alignedWord": "of",
      "case": "success",
      "end": 6.16,
      "endOffset": 98,
      "phones": [
        {
          "duration": 0.05,
          "phone": "ah_B"
        },
        {
          "duration": 0.04,
          "phone": "v_E"
        }
      ],
      "start": 6.07,
      "startOffset": 96,
      "word": "OF"
    },
    {
      "alignedWord": "its",
      "case": "success",
      "end": 6.3100000000000005,
      "endOffset": 102,
      "phones": [
        {
          "duration": 0.06,
          "phone": "ih_B"
        },
        {
          "duration": 0.03,
          "phone": "t_I"
        },
        {
          "duration": 0.06,
          "phone": "s_E"
        }
      ],
      "start": 6.16,
      "startOffset": 99,
      "word": "ITS"
    },
    {
      "alignedWord": "glamour",
      "case": "success",
      "end": 6.970000000000001,
      "endOffset": 110,
      "phones": [
        {
          "duration": 0.09,
          "phone": "g_B"
        },
        {
          "duration": 0.1,
          "phone": "l_I"
        },
        {
          "duration": 0.12,
          "phone": "ae_I"
        },
        {
          "duration": 0.09,
          "phone": "m_I"
        },
        {
          "duration": 0.25,
          "phone": "er_E"
        }
      ],
      "start": 6.32,
      "startOffset": 103,
      "word": "GLAMOUR"
    },
    {
      "alignedWord": "and",
      "case": "success",
      "end": 8.200000000000001,
      "endOffset": 114,
      "phones": [
        {
          "duration": 0.1,
          "phone": "ae_B"
        },
        {
          "duration": 0.04,
          "phone": "n_I"
        },
        {
          "duration": 0.07,
          "phone": "d_E"
        }
      ],
      "start": 7.99,
      "startOffset": 111,
      "word": "AND"
    },
    {
      "alignedWord": "so",
      "case": "success",
      "end": 8.34,
      "endOffset": 117,
      "phones": [
        {
          "duration": 0.06,
          "phone": "s_B"
        },
        {
          "duration": 0.08,
          "phone": "ow_E"
        }
      ],
      "start": 8.2,
      "startOffset": 115,
      "word": "SO"
    },
    {
      "alignedWord": "you",
      "case": "success",
      "end": 8.55,
      "endOffset": 121,
      "phones": [
        {
          "duration": 0.11,
          "phone": "y_B"
        },
        {
          "duration": 0.1,
          "phone": "uw_E"
        }
      ],
      "start": 8.34,
      "startOffset": 118,
      "word": "YOU"
    },
    {
      "alignedWord": "cleared",
      "case": "success",
      "end": 8.950000000000001,
      "endOffset": 129,
      "phones": [
        {
          "duration": 0.11,
          "phone": "k_B"
        },
        {
          "duration": 0.06,
          "phone": "l_I"
        },
        {
          "duration": 0.1,
          "phone": "ih_I"
        },
        {
          "duration": 0.05,
          "phone": "r_I"
        },
        {
          "duration": 0.08,
          "phone": "d_E"
        }
      ],
      "start": 8.55,
      "startOffset": 122,
      "word": "CLEARED"
    },
    {
      "alignedWord": "out",
      "case": "success",
      "end": 9.25,
      "endOffset": 133,
      "phones": [
        {
          "duration": 0.21,
          "phone": "aw_B"
        },
        {
          "duration": 0.08,
          "phone": "t_E"
        }
      ],
      "start": 8.96,
      "startOffset": 130,
      "word": "OUT"
    },
    {
      "alignedWord": "at",
      "case": "success",
      "end": 9.41,
      "endOffset": 136,
      "phones": [
        {
          "duration": 0.06,
          "phone": "ae_B"
        },
        {
          "duration": 0.1,
          "phone": "t_E"
        }
      ],
      "start": 9.25,
      "startOffset": 134,
      "word": "AT"
    },
    {
      "alignedWord": "once",
      "case": "success",
      "end": 10.06,
      "endOffset": 141,
      "phones": [
        {
          "duration": 0.08,
          "phone": "w_B"
        },
        {
          "duration": 0.13,
          "phone": "ah_I"
        },
        {
          "duration": 0.1,
          "phone": "n_I"
        },
        {
          "duration": 0.34,
          "phone": "s_E"
        }
      ],
      "start": 9.41,
      "startOffset": 137,
      "word": "ONCE"
    },
    {
      "alignedWord": "jumped",
      "case": "success",
      "end": 11.18,
      "endOffset": 148,
      "phones": [
        {
          "duration": 0.19,
          "phone": "jh_B"
        },
        {
          "duration": 0.16,
          "phone": "ah_I"
        },
        {
          "duration": 0.05,
          "phone": "m_I"
        },
        {
          "duration": 0.08,
          "phone": "p_I"
        },
        {
          "duration": 0.22,
          "phone": "t_E"
        }
      ],
      "start": 10.48,
      "startOffset": 142,
      "word": "JUMPED"
    },
    {
      "alignedWord": "he",
      "case": "success",
      "end": 11.89,
      "endOffset": 151,
      "phones": [
        {
          "duration": 0.08,
          "phone": "hh_B"
        },
        {
          "duration": 0.07,
          "phone": "iy_E"
        }
      ],
      "start": 11.74,
      "startOffset": 149,
      "word": "HE"
    },
    {
      "alignedWord": "corrected",
      "case": "success",
      "end": 12.379999,
      "endOffset": 161,
      "phones": [
        {
          "duration": 0.08,
          "phone": "k_B"
        },
        {
          "duration": 0.09,
          "phone": "er_I"
        },
        {
          "duration": 0.06,
          "phone": "eh_I"
        },
        {
          "duration": 0.06,
          "phone": "k_I"
        },
        {
          "duration": 0.06,
          "phone": "t_I"
        },
        {
          "duration": 0.06,
          "phone": "ih_I"
        },
        {
          "duration": 0.08,
          "phone": "d_E"
        }
      ],
      "start": 11.889999,
      "startOffset": 152,
      "word": "CORRECTED"
    },
    {
      "alignedWord": "me",
      "case": "success",
      "end": 12.530000000000001,
      "endOffset": 164,
      "phones": [
        {
          "duration": 0.08,
          "phone": "m_B"
        },
        {
          "duration": 0.07,
          "phone": "iy_E"
        }
      ],
      "start": 12.38,
      "startOffset": 162,
      "word": "ME"
    },
    {
      "alignedWord": "<unk>",
      "case": "success",
      "end": 13.33,
      "endOffset": 175,
      "phones": [
        {
          "duration": 0.8,
          "phone": "oov_S"
        }
      ],
      "start": 12.53,
      "startOffset": 165,
      "word": "INCISIVELY"
    },
    {
      "alignedWord": "jumped",
      "case": "success",
      "end": 14.25,
      "endOffset": 182,
      "phones": [
        {
          "duration": 0.19,
          "phone": "jh_B"
        },
        {
          "duration": 0.15,
          "phone": "ah_I"
        },
        {
          "duration": 0.01,
          "phone": "m_I"
        },
        {
          "duration": 0.1,
          "phone": "p_I"
        },
        {
          "duration": 0.18,
          "phone": "t_E"
        }
      ],
      "start": 13.62,
      "startOffset": 176,
      "word": "JUMPED"
    },
    {
      "alignedWord": "mind",
      "case": "success",
      "end": 14.86,
      "endOffset": 187,
      "phones": [
        {
          "duration": 0.13,
          "phone": "m_B"
        },
        {
          "duration": 0.18,
          "phone": "ay_I"
        },
        {
          "duration": 0.08,
          "phone": "n_I"
        },
        {
          "duration": 0.18,
          "phone": "d_E"
        }
      ],
      "start": 14.29,
      "startOffset": 183,
      "word": "MIND"
    }
  ]
}