{
  "transcript": "BUT FOR A LONG TIME I COULD NOT SLEEP WITHOUT DREAMING THAT I WAS BACK IN PRISON AND I WOULD CROAK IN MY SLEEP AT THE THOUGHT OF IT I HEARD YOU CRIED THE KATYDID AND I WONDERED WHAT WAS THE MATTER MATTER ENOUGH SAID THE TREE FROG",
  "words": [
    {
      "alignedWord": "but",
      "case": "success",
      "end": 0.43000000000000005,
      "endOffset": 3,
      "phones": [
        {
          "duration": 0.08,
          "phone": "b_B"
        },
        {
          "duration": 0.04,
          "phone": "ah_I"
        },
        {
          "duration": 0.03,
          "phone": "t_E"
        }
      ],
      "start": 0.28,
      "startOffset": 0,
      "word": "BUT"
    },
    {
      "alignedWord": "for",
      "case": "success",
      "end": 0.59,
      "endOffset": 7,
      "phones": [
        {
          "duration": 0.09,
          "phone": "f_B"
        },
        {
          "duration": 0.06,
          "phone": "er_E"
        }
      ],
      "start": 0.44,
      "startOffset": 4,
      "word": "FOR"
    },
    {
      "alignedWord": "a",
      "case": "success",
      "end": 0.6699999999999999,
      "endOffset": 9,
      "phones": [
        {
          "duration": 0.08,
          "phone": "ah_S"
        }
      ],
      "start": 0.59,
      "startOffset": 8,
      "word": "A"
    },
    {
      "alignedWord": "long",
      "case": "success",
      "end": 0.98,
      "endOffset": 14,
      "phones": [
        {
          "duration": 0.11,
          "phone": "l_B"
        },
        {
          "duration": 0.11,
          "phone": "ao_I"
        },
        {
          "duration": 0.09,
          "phone": "ng_E"
        }
      ],
      "start": 0.67,
      "startOffset": 10,
      "word": "LONG"
    },
    {
      "alignedWord": "time",
      "case": "success",
      "end": 1.28,
      "endOffset": 19,
      "phones": [
        {
          "duration": 0.1,
          "phone": "t_B"
        },
        {
          "duration": 0.12,
          "phone": "ay_I"
        },
        {
          "duration": 0.08,
          "phone": "m_E"
        }
      ],
      "start": 0.98,
      "startOffset": 15,
      "word": "TIME"
    },
    {
      "alignedWord": "i",
      "case": "success",
      "end": 1.34,
      "endOffset": 21,
      "phones": [
        {
          "duration": 0.06,
          "phone": "ay_S"
        }
      ],
      "start": 1.28,
      "startOffset": 20,
      "word": "I"
    },
    {
      "alignedWord": "could",
      "case": "success",
      "end": 1.55,
      "endOffset": 27,
      "phones": [
        {
          "duration": 0.09,
          "phone": "k_B"
        },
        {
          "duration": 0.05,
          "phone": "uh_I"
        },
        {
          "duration": 0.07,
          "phone": "d_E"
        }
      ],
      "start": 1.34,
      "startOffset": 22,
      "word": "COULD"
    },
    {
      "alignedWord": "not",
      "case": "success",
      "end": 1.77,
      "endOffset": 31,
      "phones": [
        {
          "duration": 0.03,
          "phone": "n_B"
        },
        {
          "duration": 0.11,
          "phone": "aa_I"
        },
        {
          "duration": 0.08,
          "phone": "t_E"
        }
      ],
      "start": 1.55,
      "startOffset": 28,
      "word": "NOT"
    },
    {
      "alignedWord": "sleep",
      "case": "success",
      "end": 2.07,
      "endOffset": 37,
      "phones": [
        {
          "duration": 0.09,
          "phone": "s_B"
        },
        {
          "duration": 0.09,
          "phone": "l_I"
        },
        {
          "duration": 0.07,
          "phone": "iy_I"
        },
        {
          "duration": 0.05,
          "phone": "p_E"
        }
      ],
      "start": 1.77,
      "startOffset": 32,
      "word": "SLEEP"
    },
    {
      "alignedWord": "without",
      "case": "success",
      "end": 2.4,
      "endOffset": 45,
      "phones": [
        {
          "duration": 0.04,
          "phone": "w_B"
        },
        {
          "duration": 0.03,
          "phone": "ih_I"
        },
        {
          "duration": 0.08,
          "phone": "th_I"
        },
        {
          "duration": 0.1,
          "phone": "aw_I"
        },
        {
          "duration": 0.08,
          "phone": "t_E"
        }
      ],
      "start": 2.07,
      "startOffset": 38,
      "word": "WITHOUT"
    },
    {
      "alignedWord": "dreaming",
      "case": "success",
      "end": 2.8200000000000003,
      "endOffset": 54,
      "phones": [
        {
          "duration": 0.06,
          "phone": "d_B"
        },
        {
          "duration": 0.08,
          "phone": "r_I"
        },
        {
          "duration": 0.07,
          "phone": "iy_I"
        },
        {
          "duration": 0.05,
          "phone": "m_I"
        },
        {
          "duration": 0.07,
          "phone": "ih_I"
        },
        {
          "duration": 0.08,
          "phone": "ng_E"
        }
      ],
      "start": 2.41,
      "startOffset": 46,
      "word": "DREAMING"
    },
    {
      "alignedWord": "that",
      "case": "success",
      "end": 2.98,
      "endOffset": 59,
      "phones": [
        {
          "duration": 0.04,
          "phone": "dh_B"
        },
        {
          "duration": 0.06,
          "phone": "ah_I"
        },
        {
          "duration": 0.06,
          "phone": "t_E"
        }
      ],
      "start": 2.82,
      "startOffset": 55,
      "word": "THAT"
    },
    {
      "alignedWord": "i",
      "case": "success",
      "end": 3.05,
      "endOffset": 61,
      "phones": [
        {
          "duration": 0.07,
          "phone": "ay_S"
        }
      ],
      "start": 2.98,
      "startOffset": 60,
      "word": "I"
    },
    {
      "alignedWord": "was",
      "case": "success",
      "end": 3.25,
      "endOffset": 65,
      "phones": [
        {
          "duration": 0.06,
          "phone": "w_B"
        },
        {
          "duration": 0.07,
          "phone": "ah_I"
        },
        {
          "duration": 0.07,
          "phone": "z_E"
        }
      ],
      "start": 3.05,
      "startOffset": 62,
      "word": "WAS"
    },
    {
      "alignedWord": "back",
      "case": "success",
      "end": 3.51,
      "endOffset": 70,
      "phones": [
        {
          "duration": 0.07,
          "phone": "b_B"
        },
        {
          "duration": 0.1,
          "phone": "ae_I"
        },
        {
          "duration": 0.09,
          "phone": "k_E"
        }
      ],
      "start": 3.25,
      "startOffset": 66,
      "word": "BACK"
    },
    {
      "alignedWord": "in",
      "case": "success",
      "end": 3.65,
      "endOffset": 73,
      "phones": [
        {
          "duration": 0.07,
          "phone": "ih_B"
        },
        {
          "duration": 0.07,
          "phone": "n_E"
        }
      ],
      "start": 3.51,
      "startOffset": 71,
      "word": "IN"
    },
    {
      "alignedWord": "prison",
      "case": "success",
      "end": 4.15,
      "endOffset": 80,
      "phones": [
        {
          "duration": 0.07,
          "phone": "p_B"
        },
        {
          "duration": 0.03,
          "phone": "r_I"
        },
        {
          "duration": 0.12,
          "phone": "ih_I"
        },
        {
          "duration": 0.05,
          "phone": "z_I"
        },
        {
          "duration": 0.07,
          "phone": "ah_I"
        },
        {
          "duration": 0.16,
          "phone": "n_E"
        }
      ],
      "start": 3.65,
      "startOffset": 74,
      "word": "PRISON"
    },
    {
      "alignedWord": "and",
      "case": "success",
      "end": 4.69,
      "endOffset": 84,
      "phones": [
        {
          "duration": 0.1,
          "phone": "ae_B"
        },
        {
          "duration": 0.05,
          "phone": "n_I"
        },
        {
          "duration": 0.05,
          "phone": "d_E"
        }
      ],
      "start": 4.49,
      "startOffset": 81,
      "word": "AND"
    },
    {
      "alignedWord": "i",
      "case": "success",
      "end": 4.75,
      "endOffset": 86,
      "phones": [
        {
          "duration": 0.06,
          "phone": "ay_S"
        }
      ],
      "start": 4.69,
      "startOffset": 85,
      "word": "I"
    },
    {
      "alignedWord": "would",
      "case": "success",
      "end": 4.94,
      "endOffset": 92,
      "phones": [
        {
          "duration": 0.08,
          "phone": "w_B"
        },
        {
          "duration": 0.05,
          "phone": "uh_I"
        },
        {
          "duration": 0.06,
          "phone": "d_E"
        }
      ],
      "start": 4.75,
      "startOffset": 87,
      "word": "WOULD"
    },
    {
      "alignedWord": "croak",
      "case": "success",
      "end": 5.260000000000001,
      "endOffset": 98,
      "phones": [
        {
          "duration": 0.09,
          "phone": "k_B"
        },
        {
          "duration": 0.05,
          "phone": "r_I"
        },
        {
          "duration": 0.09,
          "phone": "ow_I"
        },
        {
          "duration": 0.09,
          "phone": "k_E"
        }
      ],
      "start": 4.94,
      "startOffset": 93,
      "word": "CROAK"
    },
    {
      "alignedWord": "in",
      "case": "success",
      "end": 5.38,
      "endOffset": 101,
      "phones": [
        {
          "duration": 0.05,
          "phone": "ih_B"
        },
        {
          "duration": 0.07,
          "phone": "n_E"
        }
      ],
      "start": 5.26,
      "startOffset": 99,
      "word": "IN"
    },
    {
      "alignedWord": "my",
      "case": "success",
      "end": 5.55,
      "endOffset": 104,
      "phones": [
        {
          "duration": 0.06,
          "phone": "m_B"
        },
        {
          "duration": 0.11,
          "phone": "ay_E"
        }
      ],
      "start": 5.38,
      "startOffset": 102,
      "word": "MY"
    },
    {
      "alignedWord": "sleep",
      "case": "success",
      "end": 5.89,
      "endOffset": 110,
      "phones": [
        {
          "duration": 0.12,
          "phone": "s_B"
        },
        {
          "duration": 0.08,
          "phone": "l_I"
        },
        {
          "duration": 0.05,
          "phone": "iy_I"
        },
        {
          "duration": 0.09,
          "phone": "p_E"
        }
      ],
      "start": 5.55,
      "startOffset": 105,
      "word": "SLEEP"
    },
    {
      "alignedWord": "at",
      "case": "success",
      "end": 6.0,
      "endOffset": 113,
      "phones": [
        {
          "duration": 0.06,
          "phone": "ae_B"
        },
        {
          "duration": 0.04,
          "phone": "t_E"
        }
      ],
      "start": 5.9,
      "startOffset": 111,
      "word": "AT"
    },
    {
      "alignedWord": "the",
      "case": "success",
      "end": 6.1,
      "endOffset": 117,
      "phones": [
        {
          "duration": 0.03,
          "phone": "dh_B"
        },
        {
          "duration": 0.07,
          "phone": "ah_E"
        }
      ],
      "start": 6.0,
      "startOffset": 114,
      "word": "THE"
    },
    {
      "alignedWord": "thought",
      "case": "success",
      "end": 6.38,
      "endOffset": 125,
      "phones": [
        {
          "duration": 0.11,
          "phone": "th_B"
        },
        {
          "duration": 0.11,
          "phone": "ao_I"
        },
        {
          "duration": 0.06,
          "phone": "t_E"
        }
      ],
      "start": 6.1,
      "startOffset": 118,
      "word": "THOUGHT"
    },
    {
      "alignedWord": "of",
      "case": "success",
      "end": 6.5,
      "endOffset": 128,
      "phones": [
        {
          "duration": 0.05,
          "phone": "ah_B"
        },
        {
          "duration": 0.07,
          "phone": "v_E"
        }
      ],
      "start": 6.38,
      "startOffset": 126,
      "word": "OF"
    },
    {
      "alignedWord": "it",
      "case": "success",
      "end": 6.7,
      "endOffset": 131,
      "phones": [
        {
          "duration": 0.1,
          "phone": "ih_B"
        },
        {
          "duration": 0.1,
          "phone": "t_E"
        }
      ],
      "start": 6.5,
      "startOffset": 129,
      "word": "IT"
    },
    {
      "alignedWord": "i",
      "case": "success",
      "end": 7.73,
      "endOffset": 133,
      "phones": [
        {
          "duration": 0.16,
          "phone": "ay_S"
        }
      ],
      "start": 7.57,
      "startOffset": 132,
      "word": "I"
    },
    {
      "alignedWord": "heard",
      "case": "success",
      "end": 8.02,
      "endOffset": 139,
      "phones": [
        {
          "duration": 0.09,
          "phone": "hh_B"
        },
        {
          "duration": 0.12,
          "phone": "er_I"
        },
        {
          "duration": 0.08,
          "phone": "d_E"
        }
      ],
      "start": 7.73,
      "startOffset": 134,
      "word": "HEARD"
    },
    {
      "alignedWord": "you",
      "case": "success",
      "end": 8.37,
      "endOffset": 143,
      "phones": [
        {
          "duration": 0.09,
          "phone": "y_B"
        },
        {
          "duration": 0.26,
          "phone": "uw_E"
        }
      ],
      "start": 8.02,
      "startOffset": 140,
      "word": "YOU"
    },
    {
      "alignedWord": "cried",
      "case": "success",
      "end": 9.100000000000001,
      "endOffset": 149,
      "phones": [
        {
          "duration": 0.11,
          "phone": "k_B"
        },
        {
          "duration": 0.06,
          "phone": "r_I"
        },
        {
          "duration": 0.06,
          "phone": "ay_I"
        },
        {
          "duration": 0.07,
          "phone": "d_E"
        }
      ],
      "start": 8.8,
      "startOffset": 144,
      "word": "CRIED"
    },
    {
      "alignedWord": "the",
      "case": "success",
      "end": 9.179999,
      "endOffset": 153,
      "phones": [
        {
          "duration": 0.01,
          "phone": "dh_B"
        },
        {
          "duration": 0.07,
          "phone": "ah_E"
        }
      ],
      "start": 9.099999,
      "startOffset": 150,
      "word": "THE"
    },
    {
      "alignedWord": "<unk>",
      "case": "success",
      "end": 9.749999,
      "endOffset": 161,
      "phones": [
        {
          "duration": 0.57,
          "phone": "oov_S"
        }
      ],
      "start": 9.179999,
      "startOffset": 154,
      "word": "KATYDID"
    },
    {
      "alignedWord": "and",
      "case": "success",
      "end": 10.379999,
      "endOffset": 165,
      "phones": [
        {
          "duration": 0.1,
          "phone": "ae_B"
        },
        {
          "duration": 0.05,
          "phone": "n_I"
        },
        {
          "duration": 0.05,
          "phone": "d_E"
        }
      ],
      "start": 10.179999,
      "startOffset": 162,
      "word": "AND"
    },
    {
      "alignedWord": "i",
      "case": "success",
      "end": 10.440000000000001,
      "endOffset": 167,
      "phones": [
        {
          "duration": 0.06,
          "phone": "ay_S"
        }
      ],
      "start": 10.38,
      "startOffset": 166,
      "word": "I"
    },
    {
      "alignedWord": "wondered",
      "case": "success",
      "end": 10.85,
      "endOffset": 176,
      "phones": [
        {
          "duration": 0.11,
          "phone": "w_B"
        },
        {
          "duration": 0.08,
          "phone": "ah_I"
        },
        {
          "duration": 0.03,
          "phone": "n_I"
        },
        {
          "duration": 0.04,
          "phone": "d_I"
        },
        {
          "duration": 0.07,
          "phone": "er_I"
        },
        {
          "duration": 0.08,
          "phone": "d_E"
        }
      ],
      "start": 10.44,
      "startOffset": 168,
      "word": "WONDERED"
    },
    {
      "alignedWord": "what",
      "case": "success",
      "end": 11.019999,
      "endOffset": 181,
      "phones": [
        {
          "duration": 0.06,
          "phone": "w_B"
        },
        {
          "duration": 0.04,
          "phone": "ah_I"
        },
        {
          "duration": 0.07,
          "phone": "t_E"
        }
      ],
      "start": 10.849999,
      "startOffset": 177,
      "word": "WHAT"
    },
    {
      "alignedWord": "was",
      "case": "success",
      "end": 11.16,
      "endOffset": 185,
      "phones": [
        {
          "duration": 0.02,
          "phone": "w_B"
        },
        {
          "duration": 0.06,
          "phone": "ah_I"
        },
        {
          "duration": 0.06,
          "phone": "z_E"
        }
      ],
      "start": 11.02,
      "startOffset": 182,
      "word": "WAS"
    },
    {
      "alignedWord": "the",
      "case": "success",
      "end": 11.25,
      "endOffset": 189,
      "phones": [
        {
          "duration": 0.05,
          "phone": "dh_B"
        },
        {
          "duration": 0.04,
          "phone": "ah_E"
        }
      ],
      "start": 11.16,
      "startOffset": 186,
      "word": "THE"
    },
    {
      "alignedWord": "matter",
      "case": "success",
      "end": 11.78,
      "endOffset": 196,
      "phones": [
        {
          "duration": 0.09,
          "phone": "m_B"
        },
        {
          "duration": 0.13,
          "phone": "ae_I"
        },
        {
          "duration": 0.08,
          "phone": "t_I"
        },
        {
          "duration": 0.23,
          "phone": "er_E"
        }
      ],
      "start": 11.25,
      "startOffset": 190,
      "word": "MATTER"
    },
    {
      "alignedWord": "matter",
      "case": "success",
      "end": 13.31,
      "endOffset": 203,
      "phones": [
        {
          "duration": 0.05,
          "phone": "m_B"
        },
        {
          "duration": 0.13,
          "phone": "ae_I"
        },
        {
          "duration": 0.07,
          "phone": "t_I"
        },
        {
          "duration": 0.07,
          "phone": "er_E"
        }
      ],
      "start": 12.99,
      "startOffset": 197,
      "word": "MATTER"
    },
    {
      "alignedWord": "enough",
      "case": "success",
      "end": 13.929998999999999,
      "endOffset": 210,
      "phones": [
        {
          "duration": 0.06,
          "phone": "ih_B"
        },
        {
          "duration": 0.08,
          "phone": "n_I"
        },
        {
          "duration": 0.16,
          "phone": "ah_I"
        },
        {
          "duration": 0.32,
          "phone": "f_E"
        }
      ],
      "start": 13.309999,
      "startOffset": 204,
      "word": "ENOUGH"
    },
    {
      "alignedWord": "said",
      "case": "success",
      "end": 14.59,
      "endOffset": 215,
      "phones": [
        {
          "duration": 0.12,
          "phone": "s_B"
        },
        {
          "duration": 0.08,
          "phone": "eh_I"
        },
        {
          "duration": 0.07,
          "phone": "d_E"
        }
      ],
      "start": 14.32,
      "startOffset": 211,
      "word": "SAID"
    },
    {
      "alignedWord": "the",
      "case": "success",
      "end": 14.659999000000001,
      "endOffset": 219,
      "phones": [
        {
          "duration": 0.02,
          "phone": "dh_B"
        },
        {
          "duration": 0.05,
          "phone": "ah_E"
        }
      ],
      "start": 14.589999,
      "startOffset": 216,
      "word": "THE"
    },
    {
      "alignedWord": "tree",
      "case": "success",
      "end": 14.88,
      "endOffset": 224,
      "phones": [
        {
          "duration": 0.08,
          "phone": "t_B"
        },
        {
          "duration": 0.06,
          "phone": "r_I"
        },
        {
          "duration": 0.08,
          "phone": "iy_E"
        }
      ],
      "start": 14.66,
      "startOffset": 220,
      "word": "TREE"
    },
    {
      "alignedWord": "frog",
      "case": "success",
      "end": 15.340000000000002,
      "endOffset": 229,
      "phones": [
        {
          "duration": 0.06,
          "phone": "f_B"
        },
        {
          "duration": 0.08,
          "phone": "r_I"
        },
        {
          "duration": 0.1,
          "phone": "aa_I"
        },
        {
          "duration": 0.22,
          "phone": "g_E"
        }
      ],
      "start": 14.88,
      "startOffset": 225,
      "word": "FROG"
    }
  ]
}