{
  "transcript": "A TREMENDOUS REPORT WAS HEARD BUT THE PIECE HAD HELD GOOD AND THE COLONISTS RUSHING TO THE WINDOWS SAW THE SHOT GRAZE THE ROCKS OF MANDIBLE CAPE NEARLY FIVE MILES FROM GRANITE HOUSE AND DISAPPEAR IN SHARK GULF",
  "words": [
    {
      "alignedWord": "a",
      "case": "success",
      "end": 0.64,
      "endOffset": 1,
      "phones": [
        {
          "duration": 0.1,
          "phone": "ah_S"
        }
      ],
      "start": 0.54,
      "startOffset": 0,
      "word": "A"
    },
    {
      "alignedWord": "tremendous",
      "case": "success",
      "end": 1.09,
      "endOffset": 12,
      "phones": [
        {
          "duration": 0.07,
          "phone": "t_B"
        },
        {
          "duration": 0.01,
          "phone": "r_I"
        },
        {
          "duration": 0.06,
          "phone": "ah_I"
        },
        {
          "duration": 0.04,
          "phone": "m_I"
        },
        {
          "duration": 0.05,
          "phone": "eh_I"
        },
        {
          "duration": 0.05,
          "phone": "n_I"
        },
        {
          "duration": 0.03,
          "phone": "d_I"
        },
        {
          "duration": 0.07,
          "phone": "ah_I"
        },
        {
          "duration": 0.07,
          "phone": "s_E"
        }
      ],
      "start": 0.64,
      "startOffset": 2,
      "word": "TREMENDOUS"
    },
    {
      "alignedWord": "report",
      "case": "success",
      "end": 1.4200000000000002,
      "endOffset": 19,
      "phones": [
        {
          "duration": 0.03,
          "phone": "r_B"
        },
        {
          "duration": 0.04,
          "phone": "ih_I"
        },
        {
          "duration": 0.1,
          "phone": "p_I"
        },
        {
          "duration": 0.07,
          "phone": "ao_I"
        },
        {
          "duration": 0.05,
          "phone": "r_I"
        },
        {
          "duration": 0.04,
          "phone": "t_E"
        }
      ],
      "start": 1.09,
      "startOffset": 13,
      "word": "REPORT"
    },
    {
      "alignedWord": "was",
      "case": "success",
      "end": 1.63,
      "endOffset": 23,
      "phones": [
        {
          "duration": 0.08,
          "phone": "w_B"
        },
        {
          "duration": 0.04,
          "phone": "ah_I"
        },
        {
          "duration": 0.08,
          "phone": "z_E"
        }
      ],
      "start": 1.43,
      "startOffset": 20,
      "word": "WAS"
    },
    {
      "alignedWord": "heard",
      "case": "success",
      "end": 1.93,
      "endOffset": 29,
      "phones": [
        {
          "duration": 0.09,
          "phone": "hh_B"
        },
        {
          "duration": 0.12,
          "phone": "er_I"
        },
        {
          "duration": 0.09,
          "phone": "d_E"
        }
      ],
      "start": 1.63,
      "startOffset": 24,
      "word": "HEARD"
    },
    {
      "alignedWord": "but",
      "case": "success",
      "end": 2.06,
      "endOffset": 33,
      "phones": [
        {
          "duration": 0.03,
          "phone": "b_B"
        },
        {
          "duration": 0.05,
          "phone": "ah_I"
        },
        {
          "duration": 0.05,
          "phone": "t_E"
        }
      ],
      "start": 1.93,
      "startOffset": 30,
      "word": "BUT"
    },
    {
      "alignedWord": "the",
      "case": "success",
      "end": 2.15,
      "endOffset": 37,
      "phones": [
        {
          "duration": 0.03,
          "phone": "dh_B"
        },
        {
          "duration": 0.06,
          "phone": "ah_E"
        }
      ],
      "start": 2.06,
      "startOffset": 34,
      "word": "THE"
    },
    {
      "alignedWord": "piece",
      "case": "success",
      "end": 2.48,
      "endOffset": 43,
      "phones": [
        {
          "duration": 0.13,
          "phone": "p_B"
        },
        {
          "duration": 0.11,
          "phone": "iy_I"
        },
        {
          "duration": 0.09,
          "phone": "s_E"
        }
      ],
      "start": 2.15,
      "startOffset": 38,
      "word": "PIECE"
    },
    {
      "alignedWord": "had",
      "case": "success",
      "end": 2.61,
      "endOffset": 47,
      "phones": [
        {
          "duration": 0.05,
          "phone": "hh_B"
        },
        {
          "duration": 0.03,
          "phone": "ae_I"
        },
        {
          "duration": 0.05,
          "phone": "d_E"
        }
      ],
      "start": 2.48,
      "startOffset": 44,
      "word": "HAD"
    },
    {
      "alignedWord": "held",
      "case": "success",
      "end": 2.93,
      "endOffset": 52,
      "phones": [
        {
          "duration": 0.07,
          "phone": "hh_B"
        },
        {
          "duration": 0.07,
          "phone": "eh_I"
        },
        {
          "duration": 0.09,
          "phone": "l_I"
        },
        {
          "duration": 0.08,
          "phone": "d_E"
        }
      ],
      "start": 2.62,
      "startOffset": 48,
      "word": "HELD"
    },
    {
      "alignedWord": "good",
      "case": "success",
      "end": 3.35,
      "endOffset": 57,
      "phones": [
        {
          "duration": 0.07,
          "phone": "g_B"
        },
        {
          "duration": 0.18,
          "phone": "uh_I"
        },
        {
          "duration": 0.17,
          "phone": "d_E"
        }
      ],
      "start": 2.93,
      "startOffset": 53,
      "word": "GOOD"
    },
    {
      "alignedWord": "and",
      "case": "success",
      "end": 3.94,
      "endOffset": 61,
      "phones": [
        {
          "duration": 0.05,
          "phone": "ae_B"
        },
        {
          "duration": 0.05,
          "phone": "n_I"
        },
        {
          "duration": 0.03,
          "phone": "d_E"
        }
      ],
      "start": 3.81,
      "startOffset": 58,
      "word": "AND"
    },
    {
      "alignedWord": "the",
      "case": "success",
      "end": 4.03,
      "endOffset": 65,
      "phones": [
        {
          "duration": 0.02,
          "phone": "dh_B"
        },
        {
          "duration": 0.07,
          "phone": "ah_E"
        }
      ],
      "start": 3.94,
      "startOffset": 62,
      "word": "THE"
    },
    {
      "alignedWord": "<unk>",
      "case": "success",
      "end": 4.61,
      "endOffset": 75,
      "phones": [
        {
          "duration": 0.58,
          "phone": "oov_S"
        }
      ],
      "start": 4.03,
      "startOffset": 66,
      "word": "COLONISTS"
    },
    {
      "alignedWord": "rushing",
      "case": "success",
      "end": 4.95,
      "endOffset": 83,
      "phones": [
        {
          "duration": 0.1,
          "phone": "r_B"
        },
        {
          "duration": 0.03,
          "phone": "ah_I"
        },
        {
          "duration": 0.07,
          "phone": "sh_I"
        },
        {
          "duration": 0.07,
          "phone": "ih_I"
        },
        {
          "duration": 0.07,
          "phone": "ng_E"
        }
      ],
      "start": 4.61,
      "startOffset": 76,
      "word": "RUSHING"
    },
    {
      "alignedWord": "to",
      "case": "success",
      "end": 5.0600000000000005,
      "endOffset": 86,
      "phones": [
        {
          "duration": 0.05,
          "phone": "t_B"
        },
        {
          "duration": 0.06,
          "phone": "uw_E"
        }
      ],
      "start": 4.95,
      "startOffset": 84,
      "word": "TO"
    },
    {
      "alignedWord": "the",
      "case": "success",
      "end": 5.159999999999999,
      "endOffset": 90,
      "phones": [
        {
          "duration": 0.06,
          "phone": "dh_B"
        },
        {
          "duration": 0.04,
          "phone": "ah_E"
        }
      ],
      "start": 5.06,
      "startOffset": 87,
      "word": "THE"
    },
    {
      "alignedWord": "windows",
      "case": "success",
      "end": 5.76,
      "endOffset": 98,
      "phones": [
        {
          "duration": 0.06,
          "phone": "w_B"
        },
        {
          "duration": 0.09,
          "phone": "ih_I"
        },
        {
          "duration": 0.04,
          "phone": "n_I"
        },
        {
          "duration": 0.08,
          "phone": "d_I"
        },
        {
          "duration": 0.19,
          "phone": "ow_I"
        },
        {
          "duration": 0.14,
          "phone": "z_E"
        }
      ],
      "start": 5.16,
      "startOffset": 91,
      "word": "WINDOWS"
    },
    {
      "alignedWord": "saw",
      "case": "success",
      "end": 6.24,
      "endOffset": 102,
      "phones": [
        {
          "duration": 0.14,
          "phone": "s_B"
        },
        {
          "duration": 0.1,
          "phone": "ao_E"
        }
      ],
      "start": 6.0,
      "startOffset": 99,
      "word": "SAW"
    },
    {
      "alignedWord": "the",
      "case": "success",
      "end": 6.3500000000000005,
      "endOffset": 106,
      "phones": [
        {
          "duration": 0.05,
          "phone": "dh_B"
        },
        {
          "duration": 0.06,
          "phone": "ah_E"
        }
      ],
      "start": 6.24,
      "startOffset": 103,
      "word": "THE"
    },
    {
      "alignedWord": "shot",
      "case": "success",
      "end": 6.6899999999999995,
      "endOffset": 111,
      "phones": [
        {
          "duration": 0.15,
          "phone": "sh_B"
        },
        {
          "duration": 0.1,
          "phone": "aa_I"
        },
        {
          "duration": 0.09,
          "phone": "t_E"
        }
      ],
      "start": 6.35,
      "startOffset": 107,
      "word": "SHOT"
    },
    {
      "alignedWord": "graze",
      "case": "success",
      "end": 7.16,
      "endOffset": 117,
      "phones": [
        {
          "duration": 0.08,
          "phone": "g_B"
        },
        {
          "duration": 0.13,
          "phone": "r_I"
        },
        {
          "duration": 0.17,
          "phone": "ey_I"
        },
        {
          "duration": 0.08,
          "phone": "z_E"
        }
      ],
      "start": 6.7,
      "startOffset": 112,
      "word": "GRAZE"
    },
    {
      "alignedWord": "the",
      "case": "success",
      "end": 7.2700000000000005,
      "endOffset": 121,
      "phones": [
        {
          "duration": 0.05,
          "phone": "dh_B"
        },
        {
          "duration": 0.06,
          "phone": "ah_E"
        }
      ],
      "start": 7.16,
      "startOffset": 118,
      "word": "THE"
    },
    {
      "alignedWord": "rocks",
      "case": "success",
      "end": 7.569999999999999,
      "endOffset": 127,
      "phones": [
        {
          "duration": 0.09,
          "phone": "r_B"
        },
        {
          "duration": 0.06,
          "phone": "aa_I"
        },
        {
          "duration": 0.1,
          "phone": "k_I"
        },
        {
          "duration": 0.05,
          "phone": "s_E"
        }
      ],
      "start": 7.27,
      "startOffset": 122,
      "word": "ROCKS"
    },
    {
      "alignedWord": "of",
      "case": "success",
      "end": 7.720000000000001,
      "endOffset": 130,
      "phones": [
        {
          "duration": 0.07,
          "phone": "ah_B"
        },
        {
          "duration": 0.08,
          "phone": "v_E"
        }
      ],
      "start": 7.57,
      "startOffset": 128,
      "word": "OF"
    },
    {
      "alignedWord": "<unk>",
      "case": "success",
      "end": 8.18,
      "endOffset": 139,
      "phones": [
        {
          "duration": 0.46,
          "phone": "oov_S"
        }
      ],
      "start": 7.72,
      "startOffset": 131,
      "word": "MANDIBLE"
    },
    {
      "alignedWord": "cape",
      "case": "success",
      "end": 8.57,
      "endOffset": 144,
      "phones": [
        {
          "duration": 0.13,
          "phone": "k_B"
        },
        {
          "duration": 0.1,
          "phone": "ey_I"
        },
        {
          "duration": 0.15,
          "phone": "p_E"
        }
      ],
      "start": 8.19,
      "startOffset": 140,
      "word": "CAPE"
    },
    {
      "alignedWord": "nearly",
      "case": "success",
      "end": 9.25,
      "endOffset": 151,
      "phones": [
        {
          "duration": 0.13,
          "phone": "n_B"
        },
        {
          "duration": 0.09,
          "phone": "ih_I"
        },
        {
          "duration": 0.05,
          "phone": "r_I"
        },
        {
          "duration": 0.08,
          "phone": "l_I"
        },
        {
          "duration": 0.11,
          "phone": "iy_E"
        }
      ],
      "start": 8.79,
      "startOffset": 145,
      "word": "NEARLY"
    },
    {
      "alignedWord": "five",
      "case": "success",
      "end": 9.59,
      "endOffset": 156,
      "phones": [
        {
          "duration": 0.14,
          "phone": "f_B"
        },
        {
          "duration": 0.12,
          "phone": "ay_I"
        },
        {
          "duration": 0.07,
          "phone": "v_E"
        }
      ],
      "start": 9.26,
      "startOffset": 152,
      "word": "FIVE"
    },
    {
      "alignedWord": "miles",
      "case": "success",
      "end": 10.009999,
      "endOffset": 162,
      "phones": [
        {
          "duration": 0.09,
          "phone": "m_B"
        },
        {
          "duration": 0.18,
          "phone": "ay_I"
        },
        {
          "duration": 0.08,
          "phone": "l_I"
        },
        {
          "duration": 0.06,
          "phone": "z_E"
        }
      ],
      "start": 9.599999,
      "startOffset": 157,
      "word": "MILES"
    },
    {
      "alignedWord": "from",
      "case": "success",
      "end": 10.19,
      "endOffset": 167,
      "phones": [
        {
          "duration": 0.05,
          "phone": "f_B"
        },
        {
          "duration": 0.05,
          "phone": "er_I"
        },
        {
          "duration": 0.08,
          "phone": "m_E"
        }
      ],
      "start": 10.01,
      "startOffset": 163,
      "word": "FROM"
    },
    {
      "alignedWord": "granite",
      "case": "success",
      "end": 10.51,
      "endOffset": 175,
      "phones": [
        {
          "duration": 0.04,
          "phone": "g_B"
        },
        {
          "duration": 0.06,
          "phone": "r_I"
        },
        {
          "duration": 0.06,
          "phone": "ae_I"
        },
        {
          "duration": 0.04,
          "phone": "n_I"
        },
        {
          "duration": 0.06,
          "phone": "ih_I"
        },
        {
          "duration": 0.06,
          "phone": "t_E"
        }
      ],
      "start": 10.19,
      "startOffset": 168,
      "word": "GRANITE"
    },
    {
      "alignedWord": "house",
      "case": "success",
      "end": 10.85,
      "endOffset": 181,
      "phones": [
        {
          "duration": 0.06,
          "phone": "hh_B"
        },
        {
          "duration": 0.14,
          "phone": "aw_I"
        },
        {
          "duration": 0.14,
          "phone": "s_E"
        }
      ],
      "start": 10.51,
      "startOffset": 176,
      "word": "HOUSE"
    },
    {
      "alignedWord": "and",
      "case": "success",
      "end": 11.229999999999999,
      "endOffset": 185,
      "phones": [
        {
          "duration": 0.08,
          "phone": "ae_B"
        },
        {
          "duration": 0.05,
          "phone": "n_I"
        },
        {
          "duration": 0.06,
          "phone": "d_E"
        }
      ],
      "start": 11.04,
      "startOffset": 182,
      "word": "AND"
    },
    {
      "alignedWord": "disappear",
      "case": "success",
      "end": 11.74,
      "endOffset": 195,
      "phones": [
        {
          "duration": 0.02,
          "phone": "d_B"
        },
        {
          "duration": 0.07,
          "phone": "ih_I"
        },
        {
          "duration": 0.06,
          "phone": "s_I"
        },
        {
          "duration": 0.06,
          "phone": "ah_I"
        },
        {
          "duration": 0.08,
          "phone": "p_I"
        },
        {
          "duration": 0.13,
          "phone": "ih_I"
        },
        {
          "duration": 0.09,
          "phone": "r_E"
        }
      ],
      "start": 11.23,
      "startOffset": 186,
      "word": "DISAPPEAR"
    },
    {
      "alignedWord": "in",
      "case": "success",
      "end": 11.94,
      "endOffset": 198,
      "phones": [
        {
          "duration": 0.11,
          "phone": "ih_B"
        },
        {
          "duration": 0.09,
          "phone": "n_E"
        }
      ],
      "start": 11.74,
      "startOffset": 196,
      "word": "IN"
    },
    {
      "alignedWord": "shark",
      "case": "success",
      "end": 12.33,
      "endOffset": 204,
      "phones": [
        {
          "duration": 0.12,
          "phone": "sh_B"
        },
        {
          "duration": 0.09,
          "phone": "aa_I"
        },
        {
          "duration": 0.07,
          "phone": "r_I"
        },
        {
          "duration": 0.11,
          "phone": "k_E"
        }
      ],
      "start": 11.94,
      "startOffset": 199,
      "word": "SHARK"
    },
    {
      "alignedWord": "gulf",
      "case": "success",
      "end": 12.920000000000002,
      "endOffset": 209,
      "phones": [
        {
          "duration": 0.09,
          "phone": "g_B"
        },
        {
          "duration": 0.07,
          "phone": "ah_I"
        },
        {
          "duration": 0.11,
          "phone": "l_I"
        },
        {
          "duration": 0.27,
          "phone": "f_E"
        }
      ],
      "start": 12.38,
      "startOffset": 205,
      "word": "GULF"
    }
  ]
}