{
  "transcript": "WHETHER TWAS A TAP OF REMONSTRANCE OR A TAP OF CONFESSION MY FATHER WHO WAS ALL SENSIBILITIES FROM HEAD TO FOOT",
  "words": [
    {
      "alignedWord": "whether",
      "case": "success",
      "end": 0.37,
      "endOffset": 7,
      "phones": [
        {
          "duration": 0.05,
          "phone": "w_B"
        },
        {
          "duration": 0.06,
          "phone": "eh_I"
        },
        {
          "duration": 0.05,
          "phone": "dh_I"
        },
        {
          "duration": 0.08,
          "phone": "er_E"
        }
      ],
      "start": 0.13,
      "startOffset": 0,
      "word": "WHETHER"
    },
    {
      "alignedWord": "<unk>",
      "case": "success",
      "end": 0.65,
      "endOffset": 12,
      "phones": [
        {
          "duration": 0.28,
          "phone": "oov_S"
        }
      ],
      "start": 0.37,
      "startOffset": 8,
      "word": "TWAS"
    },
    {
      "alignedWord": "a",
      "case": "success",
      "end": 0.7799999999999999,
      "endOffset": 14,
      "phones": [
        {
          "duration": 0.09,
          "phone": "ah_S"
        }
      ],
      "start": 0.69,
      "startOffset": 13,
      "word": "A"
    },
    {
      "alignedWord": "tap",
      "case": "success",
      "end": 1.15,
      "endOffset": 18,
      "phones": [
        {
          "duration": 0.15,
          "phone": "t_B"
        },
        {
          "duration": 0.13,
          "phone": "ae_I"
        },
        {
          "duration": 0.09,
          "phone": "p_E"
        }
      ],
      "start": 0.78,
      "startOffset": 15,
      "word": "TAP"
    },
    {
      "alignedWord": "of",
      "case": "success",
      "end": 1.3599999999999999,
      "endOffset": 21,
      "phones": [
        {
          "duration": 0.12,
          "phone": "ah_B"
        },
        {
          "duration": 0.08,
          "phone": "v_E"
        }
      ],
      "start": 1.16,
      "startOffset": 19,
      "word": "OF"
    },
    {
      "alignedWord": "<unk>",
      "case": "success",
      "end": 2.4000000000000004,
      "endOffset": 34,
      "phones": [
        {
          "duration": 1.04,
          "phone": "oov_S"
        }
      ],
      "start": 1.36,
      "startOffset": 22,
      "word": "REMONSTRANCE"
    },
    {
      "alignedWord": "or",
      "case": "success",
      "end": 2.8000000000000003,
      "endOffset": 37,
      "phones": [
        {
          "duration": 0.11,
          "phone": "ao_B"
        },
        {
          "duration": 0.07,
          "phone": "r_E"
        }
      ],
      "start": 2.62,
      "startOffset": 35,
      "word": "OR"
    },
    {
      "alignedWord": "a",
      "case": "success",
      "end": 2.8699999999999997,
      "endOffset": 39,
      "phones": [
        {
          "duration": 0.07,
          "phone": "ah_S"
        }
      ],
      "start": 2.8,
      "startOffset": 38,
      "word": "A"
    },
    {
      "alignedWord": "tap",
      "case": "success",
      "end": 3.18,
      "endOffset": 43,
      "phones": [
        {
          "duration": 0.12,
          "phone": "t_B"
        },
        {
          "duration": 0.13,
          "phone": "ae_I"
        },
        {
          "duration": 0.06,
          "phone": "p_E"
        }
      ],
      "start": 2.87,
      "startOffset": 40,
      "word": "TAP"
    },
    {
      "alignedWord": "of",
      "case": "success",
      "end": 3.3600000000000003,
      "endOffset": 46,
      "phones": [
        {
          "duration": 0.08,
          "phone": "ah_B"
        },
        {
          "duration": 0.1,
          "phone": "v_E"
        }
      ],
      "start": 3.18,
      "startOffset": 44,
      "word": "OF"
    },
    {
      "alignedWord": "confession",
      "case": "success",
      "end": 4.09,
      "endOffset": 57,
      "phones": [
        {
          "duration": 0.03,
          "phone": "k_B"
        },
        {
          "duration": 0.07,
          "phone": "ah_I"
        },
        {
          "duration": 0.06,
          "phone": "n_I"
        },
        {
          "duration": 0.09,
          "phone": "f_I"
        },
        {
          "duration": 0.09,
          "phone": "eh_I"
        },
        {
          "duration": 0.12,
          "phone": "sh_I"
        },
        {
          "duration": 0.08,
          "phone": "ah_I"
        },
        {
          "duration": 0.19,
          "phone": "n_E"
        }
      ],
      "start": 3.36,
      "startOffset": 47,
      "word": "CONFESSION"
    },
    {
      "alignedWord": "my",
      "case": "success",
      "end": 5.25,
      "endOffset": 60,
      "phones": [
        {
          "duration": 0.12,
          "phone": "m_B"
        },
        {
          "duration": 0.11,
          "phone": "ay_E"
        }
      ],
      "start": 5.02,
      "startOffset": 58,
      "word": "MY"
    },
    {
      "alignedWord": "father",
      "case": "success",
      "end": 5.77,
      "endOffset": 67,
      "phones": [
        {
          "duration": 0.11,
          "phone": "f_B"
        },
        {
          "duration": 0.14,
          "phone": "aa_I"
        },
        {
          "duration": 0.07,
          "phone": "dh_I"
        },
        {
          "duration": 0.2,
          "phone": "er_E"
        }
      ],
      "start": 5.25,
      "startOffset": 61,
      "word": "FATHER"
    },
    {
      "alignedWord": "who",
      "case": "success",
      "end": 6.0600000000000005,
      "endOffset": 71,
      "phones": [
        {
          "duration": 0.14,
          "phone": "hh_B"
        },
        {
          "duration": 0.09,
          "phone": "uw_E"
        }
      ],
      "start": 5.83,
      "startOffset": 68,
      "word": "WHO"
    },
    {
      "alignedWord": "was",
      "case": "success",
      "end": 6.26,
      "endOffset": 75,
      "phones": [
        {
          "duration": 0.05,
          "phone": "w_B"
        },
        {
          "duration": 0.06,
          "phone": "ah_I"
        },
        {
          "duration": 0.09,
          "phone": "z_E"
        }
      ],
      "start": 6.06,
      "startOffset": 72,
      "word": "WAS"
    },
    {
      "alignedWord": "all",
      "case": "success",
      "end": 6.51,
      "endOffset": 79,
      "phones": [
        {
          "duration": 0.1,
          "phone": "ao_B"
        },
        {
          "duration": 0.15,
          "phone": "l_E"
        }
      ],
      "start": 6.26,
      "startOffset": 76,
      "word": "ALL"
    },
    {
      "alignedWord": "sensibilities",
      "case": "success",
      "end": 7.5200000000000005,
      "endOffset": 93,
      "phones": [
        {
          "duration": 0.08,
          "phone": "s_B"
        },
        {
          "duration": 0.06,
          "phone": "eh_I"
        },
        {
          "duration": 0.08,
          "phone": "n_I"
        },
        {
          "duration": 0.07,
          "phone": "s_I"
        },
        {
          "duration": 0.07,
          "phone": "ih_I"
        },
        {
          "duration": 0.06,
          "phone": "b_I"
        },
        {
          "duration": 0.07,
          "phone": "ih_I"
        },
        {
          "duration": 0.08,
          "phone": "l_I"
        },
        {
          "duration": 0.04,
          "phone": "ih_I"
        },
        {
          "duration": 0.11,
          "phone": "t_I"
        },
        {
          "duration": 0.15,
          "phone": "iy_I"
        },
        {
          "duration": 0.12,
          "phone": "z_E"
        }
      ],
      "start": 6.53,
      "startOffset": 80,
      "word": "SENSIBILITIES"
    },
    {
      "alignedWord": "from",
      "case": "success",
      "end": 7.75,
      "endOffset": 98,
      "phones": [
        {
          "duration": 0.07,
          "phone": "f_B"
        },
        {
          "duration": 0.05,
          "phone": "er_I"
        },
        {
          "duration": 0.1,
          "phone": "m_E"
        }
      ],
      "start": 7.53,
      "startOffset": 94,
      "word": "FROM"
    },
    {
      "alignedWord": "head",
      "case": "success",
      "end": 7.94,
      "endOffset": 103,
      "phones": [
        {
          "duration": 0.05,
          "phone": "hh_B"
        },
        {
          "duration": 0.09,
          "phone": "eh_I"
        },
        {
          "duration": 0.05,
          "phone": "d_E"
        }
      ],
      "start": 7.75,
      "startOffset": 99,
      "word": "HEAD"
    },
    {
      "alignedWord": "to",
      "case": "success",
      "end": 8.1,
      "endOffset": 106,
      "phones": [
        {
          "duration": 0.07,
          "phone": "t_B"
        },
        {
          "duration": 0.07,
          "phone": "ih_E"
        }
      ],
      "start": 7.96,
      "startOffset": 104,
      "word": "TO"
    },
    {
      "alignedWord": "foot",
      "case": "success",
      "end": 8.459999,
      "endOffset": 111,
      "phones": [
        {
          "duration": 0.15,
          "phone": "f_B"
        },
        {
          "duration": 0.11,
          "phone": "uh_I"
        },
        {
          "duration": 0.1,
          "phone": "t_E"
        }
      ],
      "start": 8.099999,
      "startOffset": 107,
      "word": "FOOT"
    }
  ]
}