{
  "transcript": "BUT NOT VAPOURINGLY AND WITH THE SWEETEST ACCENT OF MOST RESPECTFUL ENCOURAGEMENT BID HIS HONOUR NEVER FEAR NOW MY UNCLE TOBY DID FEAR AND GRIEVOUSLY TOO",
  "words": [
    {
      "alignedWord": "but",
      "case": "success",
      "end": 0.54,
      "endOffset": 3,
      "phones": [
        {
          "duration": 0.09,
          "phone": "b_B"
        },
        {
          "duration": 0.07,
          "phone": "ah_I"
        },
        {
          "duration": 0.13,
          "phone": "t_E"
        }
      ],
      "start": 0.25,
      "startOffset": 0,
      "word": "BUT"
    },
    {
      "alignedWord": "not",
      "case": "success",
      "end": 0.85,
      "endOffset": 7,
      "phones": [
        {
          "duration": 0.12,
          "phone": "n_B"
        },
        {
          "duration": 0.09,
          "phone": "aa_I"
        },
        {
          "duration": 0.07,
          "phone": "t_E"
        }
      ],
      "start": 0.57,
      "startOffset": 4,
      "word": "NOT"
    },
    {
      "alignedWord": "<unk>",
      "case": "success",
      "end": 1.85,
      "endOffset": 19,
      "phones": [
        {
          "duration": 1.0,
          "phone": "oov_S"
        }
      ],
      "start": 0.85,
      "startOffset": 8,
      "word": "VAPOURINGLY"
    },
    {
      "alignedWord": "and",
      "case": "success",
      "end": 2.2,
      "endOffset": 23,
      "phones": [
        {
          "duration": 0.11,
          "phone": "ae_B"
        },
        {
          "duration": 0.04,
          "phone": "n_I"
        },
        {
          "duration": 0.06,
          "phone": "d_E"
        }
      ],
      "start": 1.99,
      "startOffset": 20,
      "word": "AND"
    },
    {
      "alignedWord": "with",
      "case": "success",
      "end": 2.3600000000000003,
      "endOffset": 28,
      "phones": [
        {
          "duration": 0.05,
          "phone": "w_B"
        },
        {
          "duration": 0.05,
          "phone": "ih_I"
        },
        {
          "duration": 0.06,
          "phone": "th_E"
        }
      ],
      "start": 2.2,
      "startOffset": 24,
      "word": "WITH"
    },
    {
      "alignedWord": "the",
      "case": "success",
      "end": 2.52,
      "endOffset": 32,
      "phones": [
        {
          "duration": 0.06,
          "phone": "dh_B"
        },
        {
          "duration": 0.07,
          "phone": "ah_E"
        }
      ],
      "start": 2.39,
      "startOffset": 29,
      "word": "THE"
    },
    {
      "alignedWord": "sweetest",
      "case": "success",
      "end": 3.0700000000000003,
      "endOffset": 41,
      "phones": [
        {
          "duration": 0.14,
          "phone": "s_B"
        },
        {
          "duration": 0.06,
          "phone": "w_I"
        },
        {
          "duration": 0.08,
          "phone": "iy_I"
        },
        {
          "duration": 0.05,
          "phone": "t_I"
        },
        {
          "duration": 0.08,
          "phone": "ah_I"
        },
        {
          "duration": 0.07,
          "phone": "s_I"
        },
        {
          "duration": 0.07,
          "phone": "t_E"
        }
      ],
      "start": 2.52,
      "startOffset": 33,
      "word": "SWEETEST"
    },
    {
      "alignedWord": "accent",
      "case": "success",
      "end": 3.5999999999999996,
      "endOffset": 48,
      "phones": [
        {
          "duration": 0.14,
          "phone": "ae_B"
        },
        {
          "duration": 0.11,
          "phone": "k_I"
        },
        {
          "duration": 0.09,
          "phone": "s_I"
        },
        {
          "duration": 0.07,
          "phone": "eh_I"
        },
        {
          "duration": 0.06,
          "phone": "n_I"
        },
        {
          "duration": 0.06,
          "phone": "t_E"
        }
      ],
      "start": 3.07,
      "startOffset": 42,
      "word": "ACCENT"
    },
    {
      "alignedWord": "of",
      "case": "success",
      "end": 3.7600000000000002,
      "endOffset": 51,
      "phones": [
        {
          "duration": 0.05,
          "phone": "ah_B"
        },
        {
          "duration": 0.11,
          "phone": "v_E"
        }
      ],
      "start": 3.6,
      "startOffset": 49,
      "word": "OF"
    },
    {
      "alignedWord": "most",
      "case": "success",
      "end": 4.14,
      "endOffset": 56,
      "phones": [
        {
          "duration": 0.07,
          "phone": "m_B"
        },
        {
          "duration": 0.1,
          "phone": "ow_I"
        },
        {
          "duration": 0.09,
          "phone": "s_I"
        },
        {
          "duration": 0.12,
          "phone": "t_E"
        }
      ],
      "start": 3.76,
      "startOffset": 52,
      "word": "MOST"
    },
    {
      "alignedWord": "respectful",
      "case": "success",
      "end": 4.85,
      "endOffset": 67,
      "phones": [
        {
          "duration": 0.03,
          "phone": "r_B"
        },
        {
          "duration": 0.09,
          "phone": "ih_I"
        },
        {
          "duration": 0.11,
          "phone": "s_I"
        },
        {
          "duration": 0.08,
          "phone": "p_I"
        },
        {
          "duration": 0.06,
          "phone": "eh_I"
        },
        {
          "duration": 0.06,
          "phone": "k_I"
        },
        {
          "duration": 0.07,
          "phone": "t_I"
        },
        {
          "duration": 0.08,
          "phone": "f_I"
        },
        {
          "duration": 0.06,
          "phone": "ah_I"
        },
        {
          "duration": 0.07,
          "phone": "l_E"
        }
      ],
      "start": 4.14,
      "startOffset": 57,
      "word": "RESPECTFUL"
    },
    {
      "alignedWord": "encouragement",
      "case": "success",
      "end": 5.66,
      "endOffset": 81,
      "phones": [
        {
          "duration": 0.05,
          "phone": "eh_B"
        },
        {
          "duration": 0.08,
          "phone": "n_I"
        },
        {
          "duration": 0.11,
          "phone": "k_I"
        },
        {
          "duration": 0.11,
          "phone": "er_I"
        },
        {
          "duration": 0.06,
          "phone": "ih_I"
        },
        {
          "duration": 0.11,
          "phone": "jh_I"
        },
        {
          "duration": 0.05,
          "phone": "m_I"
        },
        {
          "duration": 0.05,
          "phone": "ah_I"
        },
        {
          "duration": 0.06,
          "phone": "n_I"
        },
        {
          "duration": 0.13,
          "phone": "t_E"
        }
      ],
      "start": 4.85,
      "startOffset": 68,
      "word": "ENCOURAGEMENT"
    },
    {
      "alignedWord": "bid",
      "case": "success",
      "end": 6.26,
      "endOffset": 85,
      "phones": [
        {
          "duration": 0.17,
          "phone": "b_B"
        },
        {
          "duration": 0.07,
          "phone": "ih_I"
        },
        {
          "duration": 0.09,
          "phone": "d_E"
        }
      ],
      "start": 5.93,
      "startOffset": 82,
      "word": "BID"
    },
    {
      "alignedWord": "his",
      "case": "success",
      "end": 6.4799999999999995,
      "endOffset": 89,
      "phones": [
        {
          "duration": 0.05,
          "phone": "hh_B"
        },
        {
          "duration": 0.08,
          "phone": "ih_I"
        },
        {
          "duration": 0.09,
          "phone": "z_E"
        }
      ],
      "start": 6.26,
      "startOffset": 86,
      "word": "HIS"
    },
    {
      "alignedWord": "<unk>",
      "case": "success",
      "end": 6.9,
      "endOffset": 96,
      "phones": [
        {
          "duration": 0.42,
          "phone": "oov_S"
        }
      ],
      "start": 6.48,
      "startOffset": 90,
      "word": "HONOUR"
    },
    {
      "alignedWord": "never",
      "case": "success",
      "end": 7.42,
      "endOffset": 102,
      "phones": [
        {
          "duration": 0.1,
          "phone": "n_B"
        },
        {
          "duration": 0.07,
          "phone": "eh_I"
        },
        {
          "duration": 0.08,
          "phone": "v_I"
        },
        {
          "duration": 0.08,
          "phone": "er_E"
        }
      ],
      "start": 7.09,
      "startOffset": 97,
      "word": "NEVER"
    },
    {
      "alignedWord": "fear",
      "case": "success",
      "end": 7.96,
      "endOffset": 107,
      "phones": [
        {
          "duration": 0.11,
          "phone": "f_B"
        },
        {
          "duration": 0.17,
          "phone": "ih_I"
        },
        {
          "duration": 0.26,
          "phone": "r_E"
        }
      ],
      "start": 7.42,
      "startOffset": 103,
      "word": "FEAR"
    },
    {
      "alignedWord": "now",
      "case": "success",
      "end": 9.53,
      "endOffset": 111,
      "phones": [
        {
          "duration": 0.14,
          "phone": "n_B"
        },
        {
          "duration": 0.11,
          "phone": "aw_E"
        }
      ],
      "start": 9.28,
      "startOffset": 108,
      "word": "NOW"
    },
    {
      "alignedWord": "my",
      "case": "success",
      "end": 9.709999999999999,
      "endOffset": 114,
      "phones": [
        {
          "duration": 0.1,
          "phone": "m_B"
        },
        {
          "duration": 0.08,
          "phone": "ay_E"
        }
      ],
      "start": 9.53,
      "startOffset": 112,
      "word": "MY"
    },
    {
      "alignedWord": "uncle",
      "case": "success",
      "end": 9.96,
      "endOffset": 120,
      "phones": [
        {
          "duration": 0.05,
          "phone": "ah_B"
        },
        {
          "duration": 0.09,
          "phone": "ng_I"
        },
        {
          "duration": 0.01,
          "phone": "k_I"
        },
        {
          "duration": 0.06,
          "phone": "ah_I"
        },
        {
          "duration": 0.04,
          "phone": "l_E"
        }
      ],
      "start": 9.71,
      "startOffset": 115,
      "word": "UNCLE"
    },
    {
      "alignedWord": "toby",
      "case": "success",
      "end": 10.290000000000001,
      "endOffset": 125,
      "phones": [
        {
          "duration": 0.09,
          "phone": "t_B"
        },
        {
          "duration": 0.09,
          "phone": "ow_I"
        },
        {
          "duration": 0.08,
          "phone": "b_I"
        },
        {
          "duration": 0.07,
          "phone": "iy_E"
        }
      ],
      "start": 9.96,
      "startOffset": 121,
      "word": "TOBY"
    },
    {
      "alignedWord": "did",
      "case": "success",
      "end": 10.579999999999998,
      "endOffset": 129,
      "phones": [
        {
          "duration": 0.08,
          "phone": "d_B"
        },
        {
          "duration": 0.11,
          "phone": "ih_I"
        },
        {
          "duration": 0.1,
          "phone": "d_E"
        }
      ],
      "start": 10.29,
      "startOffset": 126,
      "word": "DID"
    },
    {
      "alignedWord": "fear",
      "case": "success",
      "end": 11.05,
      "endOffset": 134,
      "phones": [
        {
          "duration": 0.1,
          "phone": "f_B"
        },
        {
          "duration": 0.15,
          "phone": "ih_I"
        },
        {
          "duration": 0.22,
          "phone": "r_E"
        }
      ],
      "start": 10.58,
      "startOffset": 130,
      "word": "FEAR"
    },
    {
      "alignedWord": "and",
      "case": "success",
      "end": 11.35,
      "endOffset": 138,
      "phones": [
        {
          "duration": 0.18,
          "phone": "ae_B"
        },
        {
          "duration": 0.05,
          "phone": "n_I"
        },
        {
          "duration": 0.01,
          "phone": "d_E"
        }
      ],
      "start": 11.11,
      "startOffset": 135,
      "word": "AND"
    },
    {
      "alignedWord": "<unk>",
      "case": "success",
      "end": 12.129999,
      "endOffset": 149,
      "phones": [
        {
          "duration": 0.78,
          "phone": "oov_S"
        }
      ],
      "start": 11.349999,
      "startOffset": 139,
      "word": "GRIEVOUSLY"
    },
    {
      "alignedWord": "too",
      "case": "success",
      "end": 12.620000000000001,
      "endOffset": 153,
      "phones": [
        {
          "duration": 0.14,
          "phone": "t_B"
        },
        {
          "duration": 0.35,
          "phone": "uw_E"
        }
      ],
      "start": 12.13,
      "startOffset": 150,
      "word": "TOO"
    }
  ]
}