{
  "transcript": "BUT THERE WAS NOTHING FUNNY ABOUT IT NOW WHEN WITH THE EXCEPTION OF ELEANOR THE PRINCIPAL DISMISSED THEM THEY FILED DECOROUSLY OUT VERY UNEASY IN MIND MISS THOMPSON HAD TAKEN THEIR NAMES BUT HAD NOT STATED THEIR PUNISHMENT AND IT WAS CERTAIN THAT THEY WOULD BE MADE TO FEEL THE FULL WEIGHT OF HER DISPLEASURE",
  "words": [
    {
      "alignedWord": "but",
      "case": "success",
      "end": 0.28,
      "endOffset": 3,
      "phones": [
        {
          "duration": 0.03,
          "phone": "b_B"
        },
        {
          "duration": 0.04,
          "phone": "ah_I"
        },
        {
          "duration": 0.06,
          "phone": "t_E"
        }
      ],
      "start": 0.15,
      "startOffset": 0,
      "word": "BUT"
    },
    {
      "alignedWord": "there",
      "case": "success",
      "end": 0.34,
      "endOffset": 9,
      "phones": [
        {
          "duration": 0.02,
          "phone": "dh_B"
        },
        {
          "duration": 0.02,
          "phone": "eh_I"
        },
        {
          "duration": 0.02,
          "phone": "r_E"
        }
      ],
      "start": 0.28,
      "startOffset": 4,
      "word": "THERE"
    },
    {
      "alignedWord": "was",
      "case": "success",
      "end": 0.47000000000000003,
      "endOffset": 13,
      "phones": [
        {
          "duration": 0.02,
          "phone": "w_B"
        },
        {
          "duration": 0.04,
          "phone": "ah_I"
        },
        {
          "duration": 0.07,
          "phone": "z_E"
        }
      ],
      "start": 0.34,
      "startOffset": 10,
      "word": "WAS"
    },
    {
      "alignedWord": "nothing",
      "case": "success",
      "end": 0.8,
      "endOffset": 21,
      "phones": [
        {
          "duration": 0.05,
          "phone": "n_B"
        },
        {
          "duration": 0.07,
          "phone": "ah_I"
        },
        {
          "duration": 0.09,
          "phone": "th_I"
        },
        {
          "duration": 0.03,
          "phone": "ih_I"
        },
        {
          "duration": 0.09,
          "phone": "ng_E"
        }
      ],
      "start": 0.47,
      "startOffset": 14,
      "word": "NOTHING"
    },
    {
      "alignedWord": "funny",
      "case": "success",
      "end": 1.1,
      "endOffset": 27,
      "phones": [
        {
          "duration": 0.08,
          "phone": "f_B"
        },
        {
          "duration": 0.09,
          "phone": "ah_I"
        },
        {
          "duration": 0.06,
          "phone": "n_I"
        },
        {
          "duration": 0.07,
          "phone": "iy_E"
        }
      ],
      "start": 0.8,
      "startOffset": 22,
      "word": "FUNNY"
    },
    {
      "alignedWord": "about",
      "case": "success",
      "end": 1.35,
      "endOffset": 33,
      "phones": [
        {
          "duration": 0.05,
          "phone": "ah_B"
        },
        {
          "duration": 0.08,
          "phone": "b_I"
        },
        {
          "duration": 0.08,
          "phone": "aw_I"
        },
        {
          "duration": 0.04,
          "phone": "t_E"
        }
      ],
      "start": 1.1,
      "startOffset": 28,
      "word": "ABOUT"
    },
    {
      "alignedWord": "it",
      "case": "success",
      "end": 1.48,
      "endOffset": 36,
      "phones": [
        {
          "duration": 0.05,
          "phone": "ih_B"
        },
        {
          "duration": 0.08,
          "phone": "t_E"
        }
      ],
      "start": 1.35,
      "startOffset": 34,
      "word": "IT"
    },
    {
      "alignedWord": "now",
      "case": "success",
      "end": 1.8599999999999999,
      "endOffset": 40,
      "phones": [
        {
          "duration": 0.09,
          "phone": "n_B"
        },
        {
          "duration": 0.29,
          "phone": "aw_E"
        }
      ],
      "start": 1.48,
      "startOffset": 37,
      "word": "NOW"
    },
    {
      "alignedWord": "when",
      "case": "success",
      "end": 2.29,
      "endOffset": 45,
      "phones": [
        {
          "duration": 0.13,
          "phone": "w_B"
        },
        {
          "duration": 0.1,
          "phone": "eh_I"
        },
        {
          "duration": 0.08,
          "phone": "n_E"
        }
      ],
      "start": 1.98,
      "startOffset": 41,
      "word": "WHEN"
    },
    {
      "alignedWord": "with",
      "case": "success",
      "end": 2.43,
      "endOffset": 50,
      "phones": [
        {
          "duration": 0.06,
          "phone": "w_B"
        },
        {
          "duration": 0.03,
          "phone": "ih_I"
        },
        {
          "duration": 0.05,
          "phone": "th_E"
        }
      ],
      "start": 2.29,
      "startOffset": 46,
      "word": "WITH"
    },
    {
      "alignedWord": "the",
      "case": "success",
      "end": 2.5,
      "endOffset": 54,
      "phones": [
        {
          "duration": 0.03,
          "phone": "dh_B"
        },
        {
          "duration": 0.04,
          "phone": "iy_E"
        }
      ],
      "start": 2.43,
      "startOffset": 51,
      "word": "THE"
    },
    {
      "alignedWord": "exception",
      "case": "success",
      "end": 2.95,
      "endOffset": 64,
      "phones": [
        {
          "duration": 0.04,
          "phone": "ih_B"
        },
        {
          "duration": 0.06,
          "phone": "k_I"
        },
        {
          "duration": 0.09,
          "phone": "s_I"
        },
        {
          "duration": 0.07,
          "phone": "eh_I"
        },
        {
          "duration": 0.07,
          "phone": "p_I"
        },
        {
          "duration": 0.05,
          "phone": "sh_I"
        },
        {
          "duration": 0.03,
          "phone": "ah_I"
        },
        {
          "duration": 0.04,
          "phone": "n_E"
        }
      ],
      "start": 2.5,
      "startOffset": 55,
      "word": "EXCEPTION"
    },
    {
      "alignedWord": "of",
      "case": "success",
      "end": 3.0700000000000003,
      "endOffset": 67,
      "phones": [
        {
          "duration": 0.04,
          "phone": "ah_B"
        },
        {
          "duration": 0.08,
          "phone": "v_E"
        }
      ],
      "start": 2.95,
      "startOffset": 65,
      "word": "OF"
    },
    {
      "alignedWord": "eleanor",
      "case": "success",
      "end": 3.62,
      "endOffset": 75,
      "phones": [
        {
          "duration": 0.08,
          "phone": "eh_B"
        },
        {
          "duration": 0.07,
          "phone": "l_I"
        },
        {
          "duration": 0.07,
          "phone": "ah_I"
        },
        {
          "duration": 0.06,
          "phone": "n_I"
        },
        {
          "duration": 0.12,
          "phone": "ao_I"
        },
        {
          "duration": 0.15,
          "phone": "r_E"
        }
      ],
      "start": 3.07,
      "startOffset": 68,
      "word": "ELEANOR"
    },
    {
      "alignedWord": "the",
      "case": "success",
      "end": 3.7800000000000002,
      "endOffset": 79,
      "phones": [
        {
          "duration": 0.07,
          "phone": "dh_B"
        },
        {
          "duration": 0.05,
          "phone": "ah_E"
        }
      ],
      "start": 3.66,
      "startOffset": 76,
      "word": "THE"
    },
    {
      "alignedWord": "principal",
      "case": "success",
      "end": 4.1899999999999995,
      "endOffset": 89,
      "phones": [
        {
          "duration": 0.07,
          "phone": "p_B"
        },
        {
          "duration": 0.02,
          "phone": "r_I"
        },
        {
          "duration": 0.07,
          "phone": "ih_I"
        },
        {
          "duration": 0.04,
          "phone": "n_I"
        },
        {
          "duration": 0.02,
          "phone": "s_I"
        },
        {
          "duration": 0.09,
          "phone": "ah_I"
        },
        {
          "duration": 0.02,
          "phone": "p_I"
        },
        {
          "duration": 0.05,
          "phone": "ah_I"
        },
        {
          "duration": 0.03,
          "phone": "l_E"
        }
      ],
      "start": 3.78,
      "startOffset": 80,
      "word": "PRINCIPAL"
    },
    {
      "alignedWord": "dismissed",
      "case": "success",
      "end": 4.67,
      "endOffset": 99,
      "phones": [
        {
          "duration": 0.06,
          "phone": "d_B"
        },
        {
          "duration": 0.05,
          "phone": "ih_I"
        },
        {
          "duration": 0.1,
          "phone": "s_I"
        },
        {
          "duration": 0.08,
          "phone": "m_I"
        },
        {
          "duration": 0.07,
          "phone": "ih_I"
        },
        {
          "duration": 0.07,
          "phone": "s_I"
        },
        {
          "duration": 0.05,
          "phone": "t_E"
        }
      ],
      "start": 4.19,
      "startOffset": 90,
      "word": "DISMISSED"
    },
    {
      "alignedWord": "them",
      "case": "success",
      "end": 4.9399999999999995,
      "endOffset": 104,
      "phones": [
        {
          "duration": 0.02,
          "phone": "dh_B"
        },
        {
          "duration": 0.12,
          "phone": "eh_I"
        },
        {
          "duration": 0.13,
          "phone": "m_E"
        }
      ],
      "start": 4.67,
      "startOffset": 100,
      "word": "THEM"
    },
    {
      "alignedWord": "they",
      "case": "success",
      "end": 5.14,
      "endOffset": 109,
      "phones": [
        {
          "duration": 0.09,
          "phone": "dh_B"
        },
        {
          "duration": 0.09,
          "phone": "ey_E"
        }
      ],
      "start": 4.96,
      "startOffset": 105,
      "word": "THEY"
    },
    {
      "alignedWord": "filed",
      "case": "success",
      "end": 5.47,
      "endOffset": 115,
      "phones": [
        {
          "duration": 0.12,
          "phone": "f_B"
        },
        {
          "duration": 0.1,
          "phone": "ay_I"
        },
        {
          "duration": 0.06,
          "phone": "l_I"
        },
        {
          "duration": 0.05,
          "phone": "d_E"
        }
      ],
      "start": 5.14,
      "startOffset": 110,
      "word": "FILED"
    },
    {
      "alignedWord": "<unk>",
      "case": "success",
      "end": 6.13,
      "endOffset": 126,
      "phones": [
        {
          "duration": 0.66,
          "phone": "oov_S"
        }
      ],
      "start": 5.47,
      "startOffset": 116,
      "word": "DECOROUSLY"
    },
    {
      "alignedWord": "out",
      "case": "success",
      "end": 6.55,
      "endOffset": 130,
      "phones": [
        {
          "duration": 0.19,
          "phone": "aw_B"
        },
        {
          "duration": 0.19,
          "phone": "t_E"
        }
      ],
      "start": 6.17,
      "startOffset": 127,
      "word": "OUT"
    },
    {
      "alignedWord": "very",
      "case": "success",
      "end": 6.99,
      "endOffset": 135,
      "phones": [
        {
          "duration": 0.1,
          "phone": "v_B"
        },
        {
          "duration": 0.08,
          "phone": "eh_I"
        },
        {
          "duration": 0.09,
          "phone": "r_I"
        },
        {
          "duration": 0.06,
          "phone": "iy_E"
        }
      ],
      "start": 6.66,
      "startOffset": 131,
      "word": "VERY"
    },
    {
      "alignedWord": "uneasy",
      "case": "success",
      "end": 7.48,
      "endOffset": 142,
      "phones": [
        {
          "duration": 0.08,
          "phone": "ah_B"
        },
        {
          "duration": 0.11,
          "phone": "n_I"
        },
        {
          "duration": 0.14,
          "phone": "iy_I"
        },
        {
          "duration": 0.11,
          "phone": "z_I"
        },
        {
          "duration": 0.05,
          "phone": "iy_E"
        }
      ],
      "start": 6.99,
      "startOffset": 136,
      "word": "UNEASY"
    },
    {
      "alignedWord": "in",
      "case": "success",
      "end": 7.590000000000001,
      "endOffset": 145,
      "phones": [
        {
          "duration": 0.04,
          "phone": "ih_B"
        },
        {
          "duration": 0.07,
          "phone": "n_E"
        }
      ],
      "start": 7.48,
      "startOffset": 143,
      "word": "IN"
    },
    {
      "alignedWord": "mind",
      "case": "success",
      "end": 8.04,
      "endOffset": 150,
      "phones": [
        {
          "duration": 0.06,
          "phone": "m_B"
        },
        {
          "duration": 0.19,
          "phone": "ay_I"
        },
        {
          "duration": 0.06,
          "phone": "n_I"
        },
        {
          "duration": 0.14,
          "phone": "d_E"
        }
      ],
      "start": 7.59,
      "startOffset": 146,
      "word": "MIND"
    },
    {
      "alignedWord": "miss",
      "case": "success",
      "end": 8.77,
      "endOffset": 155,
      "phones": [
        {
          "duration": 0.08,
          "phone": "m_B"
        },
        {
          "duration": 0.04,
          "phone": "ih_I"
        },
        {
          "duration": 0.07,
          "phone": "s_E"
        }
      ],
      "start": 8.58,
      "startOffset": 151,
      "word": "MISS"
    },
    {
      "alignedWord": "thompson",
      "case": "success",
      "end": 9.219999999999999,
      "endOffset": 164,
      "phones": [
        {
          "duration": 0.08,
          "phone": "t_B"
        },
        {
          "duration": 0.1,
          "phone": "aa_I"
        },
        {
          "duration": 0.02,
          "phone": "m_I"
        },
        {
          "duration": 0.07,
          "phone": "p_I"
        },
        {
          "duration": 0.03,
          "phone": "s_I"
        },
        {
          "duration": 0.07,
          "phone": "ah_I"
        },
        {
          "duration": 0.07,
          "phone": "n_E"
        }
      ],
      "start": 8.78,
      "startOffset": 156,
      "word": "THOMPSON"
    },
    {
      "alignedWord": "had",
      "case": "success",
      "end": 9.34,
      "endOffset": 168,
      "phones": [
        {
          "duration": 0.03,
          "phone": "hh_B"
        },
        {
          "duration": 0.04,
          "phone": "ae_I"
        },
        {
          "duration": 0.05,
          "phone": "d_E"
        }
      ],
      "start": 9.22,
      "startOffset": 165,
      "word": "HAD"
    },
    {
      "alignedWord": "taken",
      "case": "success",
      "end": 9.62,
      "endOffset": 174,
      "phones": [
        {
          "duration": 0.05,
          "phone": "t_B"
        },
        {
          "duration": 0.12,
          "phone": "ey_I"
        },
        {
          "duration": 0.04,
          "phone": "k_I"
        },
        {
          "duration": 0.04,
          "phone": "ah_I"
        },
        {
          "duration": 0.03,
          "phone": "n_E"
        }
      ],
      "start": 9.34,
      "startOffset": 169,
      "word": "TAKEN"
    },
    {
      "alignedWord": "their",
      "case": "success",
      "end": 9.729999999999999,
      "endOffset": 180,
      "phones": [
        {
          "duration": 0.02,
          "phone": "dh_B"
        },
        {
          "duration": 0.05,
          "phone": "eh_I"
        },
        {
          "duration": 0.04,
          "phone": "r_E"
        }
      ],
      "start": 9.62,
      "startOffset": 175,
      "word": "THEIR"
    },
    {
      "alignedWord": "names",
      "case": "success",
      "end": 10.190000000000001,
      "endOffset": 186,
      "phones": [
        {
          "duration": 0.07,
          "phone": "n_B"
        },
        {
          "duration": 0.17,
          "phone": "ey_I"
        },
        {
          "duration": 0.09,
          "phone": "m_I"
        },
        {
          "duration": 0.13,
          "phone": "z_E"
        }
      ],
      "start": 9.73,
      "startOffset": 181,
      "word": "NAMES"
    },
    {
      "alignedWord": "but",
      "case": "success",
      "end": 10.370000000000001,
      "endOffset": 190,
      "phones": [
        {
          "duration": 0.05,
          "phone": "b_B"
        },
        {
          "duration": 0.07,
          "phone": "ah_I"
        },
        {
          "duration": 0.02,
          "phone": "t_E"
        }
      ],
      "start": 10.23,
      "startOffset": 187,
      "word": "BUT"
    },
    {
      "alignedWord": "had",
      "case": "success",
      "end": 10.489999999999998,
      "endOffset": 194,
      "phones": [
        {
          "duration": 0.04,
          "phone": "hh_B"
        },
        {
          "duration": 0.02,
          "phone": "ae_I"
        },
        {
          "duration": 0.06,
          "phone": "d_E"
        }
      ],
      "start": 10.37,
      "startOffset": 191,
      "word": "HAD"
    },
    {
      "alignedWord": "not",
      "case": "success",
      "end": 10.73,
      "endOffset": 198,
      "phones": [
        {
          "duration": 0.04,
          "phone": "n_B"
        },
        {
          "duration": 0.11,
          "phone": "aa_I"
        },
        {
          "duration": 0.09,
          "phone": "t_E"
        }
      ],
      "start": 10.49,
      "startOffset": 195,
      "word": "NOT"
    },
    {
      "alignedWord": "stated",
      "case": "success",
      "end": 11.08,
      "endOffset": 205,
      "phones": [
        {
          "duration": 0.05,
          "phone": "s_B"
        },
        {
          "duration": 0.09,
          "phone": "t_I"
        },
        {
          "duration": 0.06,
          "phone": "ey_I"
        },
        {
          "duration": 0.03,
          "phone": "t_I"
        },
        {
          "duration": 0.07,
          "phone": "ih_I"
        },
        {
          "duration": 0.05,
          "phone": "d_E"
        }
      ],
      "start": 10.73,
      "startOffset": 199,
      "word": "STATED"
    },
    {
      "alignedWord": "their",
      "case": "success",
      "end": 11.19,
      "endOffset": 211,
      "phones": [
        {
          "duration": 0.01,
          "phone": "dh_B"
        },
        {
          "duration": 0.06,
          "phone": "eh_I"
        },
        {
          "duration": 0.04,
          "phone": "r_E"
        }
      ],
      "start": 11.08,
      "startOffset": 206,
      "word": "THEIR"
    },
    {
      "alignedWord": "punishment",
      "case": "success",
      "end": 11.889999999999999,
      "endOffset": 222,
      "phones": [
        {
          "duration": 0.09,
          "phone": "p_B"
        },
        {
          "duration": 0.08,
          "phone": "ah_I"
        },
        {
          "duration": 0.04,
          "phone": "n_I"
        },
        {
          "duration": 0.07,
          "phone": "ih_I"
        },
        {
          "duration": 0.1,
          "phone": "sh_I"
        },
        {
          "duration": 0.07,
          "phone": "m_I"
        },
        {
          "duration": 0.06,
          "phone": "ah_I"
        },
        {
          "duration": 0.05,
          "phone": "n_I"
        },
        {
          "duration": 0.14,
          "phone": "t_E"
        }
      ],
      "start": 11.19,
      "startOffset": 212,
      "word": "PUNISHMENT"
    },
    {
      "alignedWord": "and",
      "case": "success",
      "end": 12.209999,
      "endOffset": 226,
      "phones": [
        {
          "duration": 0.07,
          "phone": "ae_B"
        },
        {
          "duration": 0.05,
          "phone": "n_I"
        },
        {
          "duration": 0.03,
          "phone": "d_E"
        }
      ],
      "start": 12.059999,
      "startOffset": 223,
      "word": "AND"
    },
    {
      "alignedWord": "it",
      "case": "success",
      "end": 12.280000000000001,
      "endOffset": 229,
      "phones": [
        {
          "duration": 0.01,
          "phone": "ih_B"
        },
        {
          "duration": 0.06,
          "phone": "t_E"
        }
      ],
      "start": 12.21,
      "startOffset": 227,
      "word": "IT"
    },
    {
      "alignedWord": "was",
      "case": "success",
      "end": 12.399999999999999,
      "endOffset": 233,
      "phones": [
        {
          "duration": 0.01,
          "phone": "w_B"
        },
        {
          "duration": 0.05,
          "phone": "ah_I"
        },
        {
          "duration": 0.06,
          "phone": "z_E"
        }
      ],
      "start": 12.28,
      "startOffset": 230,
      "word": "WAS"
    },
    {
      "alignedWord": "certain",
      "case": "success",
      "end": 12.77,
      "endOffset": 241,
      "phones": [
        {
          "duration": 0.13,
          "phone": "s_B"
        },
        {
          "duration": 0.11,
          "phone": "er_I"
        },
        {
          "duration": 0.02,
          "phone": "t_I"
        },
        {
          "duration": 0.05,
          "phone": "ah_I"
        },
        {
          "duration": 0.06,
          "phone": "n_E"
        }
      ],
      "start": 12.4,
      "startOffset": 234,
      "word": "CERTAIN"
    },
    {
      "alignedWord": "that",
      "case": "success",
      "end": 12.92,
      "endOffset": 246,
      "phones": [
        {
          "duration": 0.02,
          "phone": "dh_B"
        },
        {
          "duration": 0.06,
          "phone": "ah_I"
        },
        {
          "duration": 0.07,
          "phone": "t_E"
        }
      ],
      "start": 12.77,
      "startOffset": 242,
      "word": "THAT"
    },
    {
      "alignedWord": "they",
      "case": "success",
      "end": 13.05,
      "endOffset": 251,
      "phones": [
        {
          "duration": 0.05,
          "phone": "dh_B"
        },
        {
          "duration": 0.08,
          "phone": "ey_E"
        }
      ],
      "start": 12.92,
      "startOffset": 247,
      "word": "THEY"
    },
    {
      "alignedWord": "would",
      "case": "success",
      "end": 13.179999,
      "endOffset": 257,
      "phones": [
        {
          "duration": 0.05,
          "phone": "w_B"
        },
        {
          "duration": 0.05,
          "phone": "uh_I"
        },
        {
          "duration": 0.03,
          "phone": "d_E"
        }
      ],
      "start": 13.049999,
      "startOffset": 252,
      "word": "WOULD"
    },
    {
      "alignedWord": "be",
      "case": "success",
      "end": 13.32,
      "endOffset": 260,
      "phones": [
        {
          "duration": 0.07,
          "phone": "b_B"
        },
        {
          "duration": 0.06,
          "phone": "iy_E"
        }
      ],
      "start": 13.19,
      "startOffset": 258,
      "word": "BE"
    },
    {
      "alignedWord": "made",
      "case": "success",
      "end": 13.56,
      "endOffset": 265,
      "phones": [
        {
          "duration": 0.07,
          "phone": "m_B"
        },
        {
          "duration": 0.1,
          "phone": "ey_I"
        },
        {
          "duration": 0.07,
          "phone": "d_E"
        }
      ],
      "start": 13.32,
      "startOffset": 261,
      "word": "MADE"
    },
    {
      "alignedWord": "to",
      "case": "success",
      "end": 13.639999,
      "endOffset": 268,
      "phones": [
        {
          "duration": 0.01,
          "phone": "t_B"
        },
        {
          "duration": 0.07,
          "phone": "ih_E"
        }
      ],
      "start": 13.559999,
      "startOffset": 266,
      "word": "TO"
    },
    {
      "alignedWord": "feel",
      "case": "success",
      "end": 13.939999,
      "endOffset": 273,
      "phones": [
        {
          "duration": 0.13,
          "phone": "f_B"
        },
        {
          "duration": 0.1,
          "phone": "iy_I"
        },
        {
          "duration": 0.07,
          "phone": "l_E"
        }
      ],
      "start": 13.639999,
      "startOffset": 269,
      "word": "FEEL"
    },
    {
      "alignedWord": "the",
      "case": "success",
      "end": 14.03,
      "endOffset": 277,
      "phones": [
        {
          "duration": 0.05,
          "phone": "dh_B"
        },
        {
          "duration": 0.04,
          "phone": "ah_E"
        }
      ],
      "start": 13.94,
      "startOffset": 274,
      "word": "THE"
    },
    {
      "alignedWord": "full",
      "case": "success",
      "end": 14.33,
      "endOffset": 282,
      "phones": [
        {
          "duration": 0.13,
          "phone": "f_B"
        },
        {
          "duration": 0.09,
          "phone": "uh_I"
        },
        {
          "duration": 0.08,
          "phone": "l_E"
        }
      ],
      "start": 14.03,
      "startOffset": 278,
      "word": "FULL"
    },
    {
      "alignedWord": "weight",
      "case": "success",
      "end": 14.61,
      "endOffset": 289,
      "phones": [
        {
          "duration": 0.11,
          "phone": "w_B"
        },
        {
          "duration": 0.1,
          "phone": "ey_I"
        },
        {
          "duration": 0.07,
          "phone": "t_E"
        }
      ],
      "start": 14.33,
      "startOffset": 283,
      "word": "WEIGHT"
    },
    {
      "alignedWord": "of",
      "case": "success",
      "end": 14.729999999999999,
      "endOffset": 292,
      "phones": [
        {
          "duration": 0.05,
          "phone": "ah_B"
        },
        {
          "duration": 0.06,
          "phone": "v_E"
        }
      ],
      "start": 14.62,
      "startOffset": 290,
      "word": "OF"
    },
    {
      "alignedWord": "her",
      "case": "success",
      "end": 14.85,
      "endOffset": 296,
      "phones": [
        {
          "duration": 0.06,
          "phone": "hh_B"
        },
        {
          "duration": 0.06,
          "phone": "er_E"
        }
      ],
      "start": 14.73,
      "startOffset": 293,
      "word": "HER"
    },
    {
      "alignedWord": "<unk>",
      "case": "success",
      "end": 15.489999000000001,
      "endOffset": 308,
      "phones": [
        {
          "duration": 0.64,
          "phone": "oov_S"
        }
      ],
      "start": 14.849999,
      "startOffset": 297,
      "word": "DISPLEASURE"
    }
  ]
}