{
  "transcript": "WORDS CANNOT EXPRESS MY CONTEMPT FOR THEM AND RIGHT HERE I ACCUSE GRACE HARLOWE AND HER SORORITY OF GETTING THE INFORMATION FROM MABEL ALLISON YESTERDAY AND CARRYING IT TO YOU THEY ARE ALL TALE BEARERS AND SNEAKS",
  "words": [
    {
      "alignedWord": "words",
      "case": "success",
      "end": 0.64,
      "endOffset": 5,
      "phones": [
        {
          "duration": 0.24,
          "phone": "w_B"
        },
        {
          "duration": 0.1,
          "phone": "er_I"
        },
        {
          "duration": 0.08,
          "phone": "d_I"
        },
        {
          "duration": 0.06,
          "phone": "z_E"
        }
      ],
      "start": 0.16,
      "startOffset": 0,
      "word": "WORDS"
    },
    {
      "alignedWord": "cannot",
      "case": "success",
      "end": 0.92,
      "endOffset": 12,
      "phones": [
        {
          "duration": 0.05,
          "phone": "k_B"
        },
        {
          "duration": 0.04,
          "phone": "ah_I"
        },
        {
          "duration": 0.07,
          "phone": "n_I"
        },
        {
          "duration": 0.06,
          "phone": "aa_I"
        },
        {
          "duration": 0.06,
          "phone": "t_E"
        }
      ],
      "start": 0.64,
      "startOffset": 6,
      "word": "CANNOT"
    },
    {
      "alignedWord": "express",
      "case": "success",
      "end": 1.34,
      "endOffset": 20,
      "phones": [
        {
          "duration": 0.04,
          "phone": "ih_B"
        },
        {
          "duration": 0.05,
          "phone": "k_I"
        },
        {
          "duration": 0.06,
          "phone": "s_I"
        },
        {
          "duration": 0.07,
          "phone": "p_I"
        },
        {
          "duration": 0.03,
          "phone": "r_I"
        },
        {
          "duration": 0.08,
          "phone": "eh_I"
        },
        {
          "duration": 0.09,
          "phone": "s_E"
        }
      ],
      "start": 0.92,
      "startOffset": 13,
      "word": "EXPRESS"
    },
    {
      "alignedWord": "my",
      "case": "success",
      "end": 1.48,
      "endOffset": 23,
      "phones": [
        {
          "duration": 0.05,
          "phone": "m_B"
        },
        {
          "duration": 0.09,
          "phone": "ay_E"
        }
      ],
      "start": 1.34,
      "startOffset": 21,
      "word": "MY"
    },
    {
      "alignedWord": "contempt",
      "case": "success",
      "end": 1.91,
      "endOffset": 32,
      "phones": [
        {
          "duration": 0.05,
          "phone": "k_B"
        },
        {
          "duration": 0.06,
          "phone": "ah_I"
        },
        {
          "duration": 0.05,
          "phone": "n_I"
        },
        {
          "duration": 0.07,
          "phone": "t_I"
        },
        {
          "duration": 0.1,
          "phone": "eh_I"
        },
        {
          "duration": 0.01,
          "phone": "m_I"
        },
        {
          "duration": 0.05,
          "phone": "p_I"
        },
        {
          "duration": 0.04,
          "phone": "t_E"
        }
      ],
      "start": 1.48,
      "startOffset": 24,
      "word": "CONTEMPT"
    },
    {
      "alignedWord": "for",
      "case": "success",
      "end": 2.07,
      "endOffset": 36,
      "phones": [
        {
          "duration": 0.07,
          "phone": "f_B"
        },
        {
          "duration": 0.08,
          "phone": "er_E"
        }
      ],
      "start": 1.92,
      "startOffset": 33,
      "word": "FOR"
    },
    {
      "alignedWord": "them",
      "case": "success",
      "end": 2.38,
      "endOffset": 41,
      "phones": [
        {
          "duration": 0.03,
          "phone": "dh_B"
        },
        {
          "duration": 0.13,
          "phone": "eh_I"
        },
        {
          "duration": 0.15,
          "phone": "m_E"
        }
      ],
      "start": 2.07,
      "startOffset": 37,
      "word": "THEM"
    },
    {
      "alignedWord": "and",
      "case": "success",
      "end": 2.96,
      "endOffset": 45,
      "phones": [
        {
          "duration": 0.08,
          "phone": "ae_B"
        },
        {
          "duration": 0.04,
          "phone": "n_I"
        },
        {
          "duration": 0.12,
          "phone": "d_E"
        }
      ],
      "start": 2.72,
      "startOffset": 42,
      "word": "AND"
    },
    {
      "alignedWord": "right",
      "case": "success",
      "end": 3.23,
      "endOffset": 51,
      "phones": [
        {
          "duration": 0.09,
          "phone": "r_B"
        },
        {
          "duration": 0.1,
          "phone": "ay_I"
        },
        {
          "duration": 0.08,
          "phone": "t_E"
        }
      ],
      "start": 2.96,
      "startOffset": 46,
      "word": "RIGHT"
    },
    {
      "alignedWord": "here",
      "case": "success",
      "end": 3.51,
      "endOffset": 56,
      "phones": [
        {
          "duration": 0.07,
          "phone": "hh_B"
        },
        {
          "duration": 0.1,
          "phone": "iy_I"
        },
        {
          "duration": 0.11,
          "phone": "r_E"
        }
      ],
      "start": 3.23,
      "startOffset": 52,
      "word": "HERE"
    },
    {
      "alignedWord": "i",
      "case": "success",
      "end": 3.6199999999999997,
      "endOffset": 58,
      "phones": [
        {
          "duration": 0.11,
          "phone": "ay_S"
        }
      ],
      "start": 3.51,
      "startOffset": 57,
      "word": "I"
    },
    {
      "alignedWord": "accuse",
      "case": "success",
      "end": 4.04,
      "endOffset": 65,
      "phones": [
        {
          "duration": 0.07,
          "phone": "ah_B"
        },
        {
          "duration": 0.1,
          "phone": "k_I"
        },
        {
          "duration": 0.07,
          "phone": "y_I"
        },
        {
          "duration": 0.09,
          "phone": "uw_I"
        },
        {
          "duration": 0.09,
          "phone": "z_E"
        }
      ],
      "start": 3.62,
      "startOffset": 59,
      "word": "ACCUSE"
    },
    {
      "alignedWord": "grace",
      "case": "success",
      "end": 4.41,
      "endOffset": 71,
      "phones": [
        {
          "duration": 0.07,
          "phone": "g_B"
        },
        {
          "duration": 0.12,
          "phone": "r_I"
        },
        {
          "duration": 0.07,
          "phone": "ey_I"
        },
        {
          "duration": 0.11,
          "phone": "s_E"
        }
      ],
      "start": 4.04,
      "startOffset": 66,
      "word": "GRACE"
    },
    {
      "alignedWord": "<unk>",
      "case": "success",
      "end": 4.87,
      "endOffset": 79,
      "phones": [
        {
          "duration": 0.46,
          "phone": "oov_S"
        }
      ],
      "start": 4.41,
      "startOffset": 72,
      "word": "HARLOWE"
    },
    {
      "alignedWord": "and",
      "case": "success",
      "end": 4.97,
      "endOffset": 83,
      "phones": [
        {
          "duration": 0.02,
          "phone": "ah_B"
        },
        {
          "duration": 0.04,
          "phone": "n_I"
        },
        {
          "duration": 0.03,
          "phone": "d_E"
        }
      ],
      "start": 4.88,
      "startOffset": 80,
      "word": "AND"
    },
    {
      "alignedWord": "her",
      "case": "success",
      "end": 5.180000000000001,
      "endOffset": 87,
      "phones": [
        {
          "duration": 0.1,
          "phone": "hh_B"
        },
        {
          "duration": 0.1,
          "phone": "er_E"
        }
      ],
      "start": 4.98,
      "startOffset": 84,
      "word": "HER"
    },
    {
      "alignedWord": "sorority",
      "case": "success",
      "end": 5.819999999999999,
      "endOffset": 96,
      "phones": [
        {
          "duration": 0.13,
          "phone": "s_B"
        },
        {
          "duration": 0.08,
          "phone": "er_I"
        },
        {
          "duration": 0.14,
          "phone": "ao_I"
        },
        {
          "duration": 0.05,
          "phone": "r_I"
        },
        {
          "duration": 0.03,
          "phone": "ah_I"
        },
        {
          "duration": 0.06,
          "phone": "t_I"
        },
        {
          "duration": 0.15,
          "phone": "iy_E"
        }
      ],
      "start": 5.18,
      "startOffset": 88,
      "word": "SORORITY"
    },
    {
      "alignedWord": "of",
      "case": "success",
      "end": 5.970000000000001,
      "endOffset": 99,
      "phones": [
        {
          "duration": 0.07,
          "phone": "ah_B"
        },
        {
          "duration": 0.04,
          "phone": "v_E"
        }
      ],
      "start": 5.86,
      "startOffset": 97,
      "word": "OF"
    },
    {
      "alignedWord": "getting",
      "case": "success",
      "end": 6.2700000000000005,
      "endOffset": 107,
      "phones": [
        {
          "duration": 0.08,
          "phone": "g_B"
        },
        {
          "duration": 0.07,
          "phone": "ih_I"
        },
        {
          "duration": 0.01,
          "phone": "t_I"
        },
        {
          "duration": 0.05,
          "phone": "ih_I"
        },
        {
          "duration": 0.08,
          "phone": "ng_E"
        }
      ],
      "start": 5.98,
      "startOffset": 100,
      "word": "GETTING"
    },
    {
      "alignedWord": "the",
      "case": "success",
      "end": 6.34,
      "endOffset": 111,
      "phones": [
        {
          "duration": 0.04,
          "phone": "dh_B"
        },
        {
          "duration": 0.03,
          "phone": "iy_E"
        }
      ],
      "start": 6.27,
      "startOffset": 108,
      "word": "THE"
    },
    {
      "alignedWord": "information",
      "case": "success",
      "end": 6.87,
      "endOffset": 123,
      "phones": [
        {
          "duration": 0.04,
          "phone": "ih_B"
        },
        {
          "duration": 0.05,
          "phone": "n_I"
        },
        {
          "duration": 0.07,
          "phone": "f_I"
        },
        {
          "duration": 0.04,
          "phone": "er_I"
        },
        {
          "duration": 0.08,
          "phone": "m_I"
        },
        {
          "duration": 0.09,
          "phone": "ey_I"
        },
        {
          "duration": 0.08,
          "phone": "sh_I"
        },
        {
          "duration": 0.02,
          "phone": "ah_I"
        },
        {
          "duration": 0.06,
          "phone": "n_E"
        }
      ],
      "start": 6.34,
      "startOffset": 112,
      "word": "INFORMATION"
    },
    {
      "alignedWord": "from",
      "case": "success",
      "end": 7.05,
      "endOffset": 128,
      "phones": [
        {
          "duration": 0.04,
          "phone": "f_B"
        },
        {
          "duration": 0.06,
          "phone": "er_I"
        },
        {
          "duration": 0.08,
          "phone": "m_E"
        }
      ],
      "start": 6.87,
      "startOffset": 124,
      "word": "FROM"
    },
    {
      "alignedWord": "mabel",
      "case": "success",
      "end": 7.37,
      "endOffset": 134,
      "phones": [
        {
          "duration": 0.08,
          "phone": "m_B"
        },
        {
          "duration": 0.1,
          "phone": "ey_I"
        },
        {
          "duration": 0.01,
          "phone": "b_I"
        },
        {
          "duration": 0.06,
          "phone": "ah_I"
        },
        {
          "duration": 0.07,
          "phone": "l_E"
        }
      ],
      "start": 7.05,
      "startOffset": 129,
      "word": "MABEL"
    },
    {
      "alignedWord": "allison",
      "case": "success",
      "end": 7.81,
      "endOffset": 142,
      "phones": [
        {
          "duration": 0.14,
          "phone": "ae_B"
        },
        {
          "duration": 0.07,
          "phone": "l_I"
        },
        {
          "duration": 0.06,
          "phone": "ih_I"
        },
        {
          "duration": 0.04,
          "phone": "s_I"
        },
        {
          "duration": 0.06,
          "phone": "ah_I"
        },
        {
          "duration": 0.05,
          "phone": "n_E"
        }
      ],
      "start": 7.39,
      "startOffset": 135,
      "word": "ALLISON"
    },
    {
      "alignedWord": "yesterday",
      "case": "success",
      "end": 8.34,
      "endOffset": 152,
      "phones": [
        {
          "duration": 0.08,
          "phone": "y_B"
        },
        {
          "duration": 0.05,
          "phone": "eh_I"
        },
        {
          "duration": 0.05,
          "phone": "s_I"
        },
        {
          "duration": 0.05,
          "phone": "t_I"
        },
        {
          "duration": 0.05,
          "phone": "er_I"
        },
        {
          "duration": 0.08,
          "phone": "d_I"
        },
        {
          "duration": 0.17,
          "phone": "ey_E"
        }
      ],
      "start": 7.81,
      "startOffset": 143,
      "word": "YESTERDAY"
    },
    {
      "alignedWord": "and",
      "case": "success",
      "end": 8.57,
      "endOffset": 156,
      "phones": [
        {
          "duration": 0.07,
          "phone": "ae_B"
        },
        {
          "duration": 0.02,
          "phone": "n_I"
        },
        {
          "duration": 0.08,
          "phone": "d_E"
        }
      ],
      "start": 8.4,
      "startOffset": 153,
      "word": "AND"
    },
    {
      "alignedWord": "carrying",
      "case": "success",
      "end": 8.94,
      "endOffset": 165,
      "phones": [
        {
          "duration": 0.11,
          "phone": "k_B"
        },
        {
          "duration": 0.08,
          "phone": "eh_I"
        },
        {
          "duration": 0.08,
          "phone": "r_I"
        },
        {
          "duration": 0.01,
          "phone": "iy_I"
        },
        {
          "duration": 0.03,
          "phone": "ih_I"
        },
        {
          "duration": 0.06,
          "phone": "ng_E"
        }
      ],
      "start": 8.57,
      "startOffset": 157,
      "word": "CARRYING"
    },
    {
      "alignedWord": "it",
      "case": "success",
      "end": 9.049999999999999,
      "endOffset": 168,
      "phones": [
        {
          "duration": 0.05,
          "phone": "ih_B"
        },
        {
          "duration": 0.06,
          "phone": "t_E"
        }
      ],
      "start": 8.94,
      "startOffset": 166,
      "word": "IT"
    },
    {
      "alignedWord": "to",
      "case": "success",
      "end": 9.180000000000001,
      "endOffset": 171,
      "phones": [
        {
          "duration": 0.06,
          "phone": "t_B"
        },
        {
          "duration": 0.07,
          "phone": "uw_E"
        }
      ],
      "start": 9.05,
      "startOffset": 169,
      "word": "TO"
    },
    {
      "alignedWord": "you",
      "case": "success",
      "end": 9.489999000000001,
      "endOffset": 175,
      "phones": [
        {
          "duration": 0.09,
          "phone": "y_B"
        },
        {
          "duration": 0.22,
          "phone": "uw_E"
        }
      ],
      "start": 9.179999,
      "startOffset": 172,
      "word": "YOU"
    },
    {
      "alignedWord": "they",
      "case": "success",
      "end": 10.099999,
      "endOffset": 180,
      "phones": [
        {
          "duration": 0.08,
          "phone": "dh_B"
        },
        {
          "duration": 0.09,
          "phone": "ey_E"
        }
      ],
      "start": 9.929999,
      "startOffset": 176,
      "word": "THEY"
    },
    {
      "alignedWord": "are",
      "case": "success",
      "end": 10.159999000000001,
      "endOffset": 184,
      "phones": [
        {
          "duration": 0.06,
          "phone": "er_S"
        }
      ],
      "start": 10.099999,
      "startOffset": 181,
      "word": "ARE"
    },
    {
      "alignedWord": "all",
      "case": "success",
      "end": 10.469999999999999,
      "endOffset": 188,
      "phones": [
        {
          "duration": 0.19,
          "phone": "ao_B"
        },
        {
          "duration": 0.09,
          "phone": "l_E"
        }
      ],
      "start": 10.19,
      "startOffset": 185,
      "word": "ALL"
    },
    {
      "alignedWord": "tale",
      "case": "success",
      "end": 10.769999,
      "endOffset": 193,
      "phones": [
        {
          "duration": 0.13,
          "phone": "t_B"
        },
        {
          "duration": 0.11,
          "phone": "ey_I"
        },
        {
          "duration": 0.06,
          "phone": "l_E"
        }
      ],
      "start": 10.469999,
      "startOffset": 189,
      "word": "TALE"
    },
    {
      "alignedWord": "bearers",
      "case": "success",
      "end": 11.23,
      "endOffset": 201,
      "phones": [
        {
          "duration": 0.1,
          "phone": "b_B"
        },
        {
          "duration": 0.08,
          "phone": "eh_I"
        },
        {
          "duration": 0.09,
          "phone": "r_I"
        },
        {
          "duration": 0.09,
          "phone": "er_I"
        },
        {
          "duration": 0.1,
          "phone": "z_E"
        }
      ],
      "start": 10.77,
      "startOffset": 194,
      "word": "BEARERS"
    },
    {
      "alignedWord": "and",
      "case": "success",
      "end": 11.42,
      "endOffset": 205,
      "phones": [
        {
          "duration": 0.04,
          "phone": "ae_B"
        },
        {
          "duration": 0.06,
          "phone": "n_I"
        },
        {
          "duration": 0.07,
          "phone": "d_E"
        }
      ],
      "start": 11.25,
      "startOffset": 202,
      "word": "AND"
    },
    {
      "alignedWord": "sneaks",
      "case": "success",
      "end": 12.04,
      "endOffset": 212,
      "phones": [
        {
          "duration": 0.14,
          "phone": "s_B"
        },
        {
          "duration": 0.08,
          "phone": "n_I"
        },
        {
          "duration": 0.08,
          "phone": "iy_I"
        },
        {
          "duration": 0.1,
          "phone": "k_I"
        },
        {
          "duration": 0.22,
          "phone": "s_E"
        }
      ],
      "start": 11.42,
      "startOffset": 206,
      "word": "SNEAKS"
    }
  ]
}