{
  "transcript": "AND THEN SHE LOOKED TOWARD GRACE WHOSE STEADY GRAY EYES WERE FIXED ON THE PRINCIPAL'S FACE WITH RESPECTFUL ATTENTION I DON'T BELIEVE GRACE IS GUILTY AT ANY RATE THOUGHT MISS THOMPSON THEN SHE ADDRESSED THE ASSEMBLED GIRLS SOMETHING HAS COME TO MY EARS GIRLS SAID THE PRINCIPAL",
  "words": [
    {
      "alignedWord": "and",
      "case": "success",
      "end": 0.49,
      "endOffset": 3,
      "phones": [
        {
          "duration": 0.08,
          "phone": "ae_B"
        },
        {
          "duration": 0.05,
          "phone": "n_I"
        },
        {
          "duration": 0.06,
          "phone": "d_E"
        }
      ],
      "start": 0.3,
      "startOffset": 0,
      "word": "AND"
    },
    {
      "alignedWord": "then",
      "case": "success",
      "end": 0.62,
      "endOffset": 8,
      "phones": [
        {
          "duration": 0.01,
          "phone": "dh_B"
        },
        {
          "duration": 0.05,
          "phone": "eh_I"
        },
        {
          "duration": 0.07,
          "phone": "n_E"
        }
      ],
      "start": 0.49,
      "startOffset": 4,
      "word": "THEN"
    },
    {
      "alignedWord": "she",
      "case": "success",
      "end": 0.76,
      "endOffset": 12,
      "phones": [
        {
          "duration": 0.07,
          "phone": "sh_B"
        },
        {
          "duration": 0.07,
          "phone": "iy_E"
        }
      ],
      "start": 0.62,
      "startOffset": 9,
      "word": "SHE"
    },
    {
      "alignedWord": "looked",
      "case": "success",
      "end": 0.92,
      "endOffset": 19,
      "phones": [
        {
          "duration": 0.06,
          "phone": "l_B"
        },
        {
          "duration": 0.04,
          "phone": "uh_I"
        },
        {
          "duration": 0.05,
          "phone": "k_I"
        },
        {
          "duration": 0.01,
          "phone": "t_E"
        }
      ],
      "start": 0.76,
      "startOffset": 13,
      "word": "LOOKED"
    },
    {
      "alignedWord": "toward",
      "case": "success",
      "end": 1.17,
      "endOffset": 26,
      "phones": [
        {
          "duration": 0.07,
          "phone": "t_B"
        },
        {
          "duration": 0.09,
          "phone": "ao_I"
        },
        {
          "duration": 0.04,
          "phone": "r_I"
        },
        {
          "duration": 0.05,
          "phone": "d_E"
        }
      ],
      "start": 0.92,
      "startOffset": 20,
      "word": "TOWARD"
    },
    {
      "alignedWord": "grace",
      "case": "success",
      "end": 1.76,
      "endOffset": 32,
      "phones": [
        {
          "duration": 0.06,
          "phone": "g_B"
        },
        {
          "duration": 0.12,
          "phone": "r_I"
        },
        {
          "duration": 0.11,
          "phone": "ey_I"
        },
        {
          "duration": 0.22,
          "phone": "s_E"
        }
      ],
      "start": 1.25,
      "startOffset": 27,
      "word": "GRACE"
    },
    {
      "alignedWord": "whose",
      "case": "success",
      "end": 2.09,
      "endOffset": 38,
      "phones": [
        {
          "duration": 0.07,
          "phone": "hh_B"
        },
        {
          "duration": 0.06,
          "phone": "uw_I"
        },
        {
          "duration": 0.01,
          "phone": "z_E"
        }
      ],
      "start": 1.95,
      "startOffset": 33,
      "word": "WHOSE"
    },
    {
      "alignedWord": "steady",
      "case": "success",
      "end": 2.5,
      "endOffset": 45,
      "phones": [
        {
          "duration": 0.1,
          "phone": "s_B"
        },
        {
          "duration": 0.08,
          "phone": "t_I"
        },
        {
          "duration": 0.09,
          "phone": "eh_I"
        },
        {
          "duration": 0.05,
          "phone": "d_I"
        },
        {
          "duration": 0.08,
          "phone": "iy_E"
        }
      ],
      "start": 2.1,
      "startOffset": 39,
      "word": "STEADY"
    },
    {
      "alignedWord": "gray",
      "case": "success",
      "end": 2.75,
      "endOffset": 50,
      "phones": [
        {
          "duration": 0.06,
          "phone": "g_B"
        },
        {
          "duration": 0.1,
          "phone": "r_I"
        },
        {
          "duration": 0.09,
          "phone": "ey_E"
        }
      ],
      "start": 2.5,
      "startOffset": 46,
      "word": "GRAY"
    },
    {
      "alignedWord": "eyes",
      "case": "success",
      "end": 3.09,
      "endOffset": 55,
      "phones": [
        {
          "duration": 0.25,
          "phone": "ay_B"
        },
        {
          "duration": 0.09,
          "phone": "z_E"
        }
      ],
      "start": 2.75,
      "startOffset": 51,
      "word": "EYES"
    },
    {
      "alignedWord": "were",
      "case": "success",
      "end": 3.2399999999999998,
      "endOffset": 60,
      "phones": [
        {
          "duration": 0.07,
          "phone": "w_B"
        },
        {
          "duration": 0.06,
          "phone": "er_E"
        }
      ],
      "start": 3.11,
      "startOffset": 56,
      "word": "WERE"
    },
    {
      "alignedWord": "fixed",
      "case": "success",
      "end": 3.5300000000000002,
      "endOffset": 66,
      "phones": [
        {
          "duration": 0.09,
          "phone": "f_B"
        },
        {
          "duration": 0.06,
          "phone": "ih_I"
        },
        {
          "duration": 0.06,
          "phone": "k_I"
        },
        {
          "duration": 0.04,
          "phone": "s_I"
        },
        {
          "duration": 0.04,
          "phone": "t_E"
        }
      ],
      "start": 3.24,
      "startOffset": 61,
      "word": "FIXED"
    },
    {
      "alignedWord": "on",
      "case": "success",
      "end": 3.5999999999999996,
      "endOffset": 69,
      "phones": [
        {
          "duration": 0.05,
          "phone": "aa_B"
        },
        {
          "duration": 0.02,
          "phone": "n_E"
        }
      ],
      "start": 3.53,
      "startOffset": 67,
      "word": "ON"
    },
    {
      "alignedWord": "the",
      "case": "success",
      "end": 3.7,
      "endOffset": 73,
      "phones": [
        {
          "duration": 0.05,
          "phone": "dh_B"
        },
        {
          "duration": 0.05,
          "phone": "ah_E"
        }
      ],
      "start": 3.6,
      "startOffset": 70,
      "word": "THE"
    },
    {
      "alignedWord": "principal's",
      "case": "success",
      "end": 4.2,
      "endOffset": 85,
      "phones": [
        {
          "duration": 0.06,
          "phone": "p_B"
        },
        {
          "duration": 0.04,
          "phone": "r_I"
        },
        {
          "duration": 0.07,
          "phone": "ih_I"
        },
        {
          "duration": 0.03,
          "phone": "n_I"
        },
        {
          "duration": 0.03,
          "phone": "s_I"
        },
        {
          "duration": 0.1,
          "phone": "ah_I"
        },
        {
          "duration": 0.01,
          "phone": "p_I"
        },
        {
          "duration": 0.04,
          "phone": "ah_I"
        },
        {
          "duration": 0.08,
          "phone": "l_I"
        },
        {
          "duration": 0.04,
          "phone": "z_E"
        }
      ],
      "start": 3.7,
      "startOffset": 74,
      "word": "PRINCIPAL'S"
    },
    {
      "alignedWord": "face",
      "case": "success",
      "end": 4.62,
      "endOffset": 90,
      "phones": [
        {
          "duration": 0.12,
          "phone": "f_B"
        },
        {
          "duration": 0.16,
          "phone": "ey_I"
        },
        {
          "duration": 0.14,
          "phone": "s_E"
        }
      ],
      "start": 4.2,
      "startOffset": 86,
      "word": "FACE"
    },
    {
      "alignedWord": "with",
      "case": "success",
      "end": 4.82,
      "endOffset": 95,
      "phones": [
        {
          "duration": 0.07,
          "phone": "w_B"
        },
        {
          "duration": 0.01,
          "phone": "ih_I"
        },
        {
          "duration": 0.09,
          "phone": "th_E"
        }
      ],
      "start": 4.65,
      "startOffset": 91,
      "word": "WITH"
    },
    {
      "alignedWord": "respectful",
      "case": "success",
      "end": 5.37,
      "endOffset": 106,
      "phones": [
        {
          "duration": 0.04,
          "phone": "r_B"
        },
        {
          "duration": 0.07,
          "phone": "ih_I"
        },
        {
          "duration": 0.07,
          "phone": "s_I"
        },
        {
          "duration": 0.06,
          "phone": "p_I"
        },
        {
          "duration": 0.07,
          "phone": "eh_I"
        },
        {
          "duration": 0.05,
          "phone": "k_I"
        },
        {
          "duration": 0.02,
          "phone": "t_I"
        },
        {
          "duration": 0.07,
          "phone": "f_I"
        },
        {
          "duration": 0.03,
          "phone": "ah_I"
        },
        {
          "duration": 0.07,
          "phone": "l_E"
        }
      ],
      "start": 4.82,
      "startOffset": 96,
      "word": "RESPECTFUL"
    },
    {
      "alignedWord": "attention",
      "case": "success",
      "end": 5.96,
      "endOffset": 116,
      "phones": [
        {
          "duration": 0.06,
          "phone": "ah_B"
        },
        {
          "duration": 0.07,
          "phone": "t_I"
        },
        {
          "duration": 0.08,
          "phone": "eh_I"
        },
        {
          "duration": 0.07,
          "phone": "n_I"
        },
        {
          "duration": 0.08,
          "phone": "sh_I"
        },
        {
          "duration": 0.07,
          "phone": "ah_I"
        },
        {
          "duration": 0.16,
          "phone": "n_E"
        }
      ],
      "start": 5.37,
      "startOffset": 107,
      "word": "ATTENTION"
    },
    {
      "alignedWord": "i",
      "case": "success",
      "end": 6.86,
      "endOffset": 118,
      "phones": [
        {
          "duration": 0.12,
          "phone": "ay_S"
        }
      ],
      "start": 6.74,
      "startOffset": 117,
      "word": "I"
    },
    {
      "alignedWord": "don't",
      "case": "success",
      "end": 7.09,
      "endOffset": 124,
      "phones": [
        {
          "duration": 0.06,
          "phone": "d_B"
        },
        {
          "duration": 0.08,
          "phone": "ow_I"
        },
        {
          "duration": 0.01,
          "phone": "n_I"
        },
        {
          "duration": 0.07,
          "phone": "t_E"
        }
      ],
      "start": 6.87,
      "startOffset": 119,
      "word": "DON'T"
    },
    {
      "alignedWord": "believe",
      "case": "success",
      "end": 7.32,
      "endOffset": 132,
      "phones": [
        {
          "duration": 0.01,
          "phone": "b_B"
        },
        {
          "duration": 0.04,
          "phone": "ih_I"
        },
        {
          "duration": 0.08,
          "phone": "l_I"
        },
        {
          "duration": 0.04,
          "phone": "iy_I"
        },
        {
          "duration": 0.06,
          "phone": "v_E"
        }
      ],
      "start": 7.09,
      "startOffset": 125,
      "word": "BELIEVE"
    },
    {
      "alignedWord": "grace",
      "case": "success",
      "end": 7.57,
      "endOffset": 138,
      "phones": [
        {
          "duration": 0.06,
          "phone": "g_B"
        },
        {
          "duration": 0.08,
          "phone": "r_I"
        },
        {
          "duration": 0.06,
          "phone": "ey_I"
        },
        {
          "duration": 0.05,
          "phone": "s_E"
        }
      ],
      "start": 7.32,
      "startOffset": 133,
      "word": "GRACE"
    },
    {
      "alignedWord": "is",
      "case": "success",
      "end": 7.72,
      "endOffset": 141,
      "phones": [
        {
          "duration": 0.07,
          "phone": "ih_B"
        },
        {
          "duration": 0.07,
          "phone": "z_E"
        }
      ],
      "start": 7.58,
      "startOffset": 139,
      "word": "IS"
    },
    {
      "alignedWord": "guilty",
      "case": "success",
      "end": 8.1,
      "endOffset": 148,
      "phones": [
        {
          "duration": 0.05,
          "phone": "g_B"
        },
        {
          "duration": 0.08,
          "phone": "ih_I"
        },
        {
          "duration": 0.07,
          "phone": "l_I"
        },
        {
          "duration": 0.09,
          "phone": "t_I"
        },
        {
          "duration": 0.09,
          "phone": "iy_E"
        }
      ],
      "start": 7.72,
      "startOffset": 142,
      "word": "GUILTY"
    },
    {
      "alignedWord": "at",
      "case": "success",
      "end": 8.219999,
      "endOffset": 151,
      "phones": [
        {
          "duration": 0.06,
          "phone": "ae_B"
        },
        {
          "duration": 0.06,
          "phone": "t_E"
        }
      ],
      "start": 8.099999,
      "startOffset": 149,
      "word": "AT"
    },
    {
      "alignedWord": "any",
      "case": "success",
      "end": 8.47,
      "endOffset": 155,
      "phones": [
        {
          "duration": 0.09,
          "phone": "eh_B"
        },
        {
          "duration": 0.06,
          "phone": "n_I"
        },
        {
          "duration": 0.08,
          "phone": "iy_E"
        }
      ],
      "start": 8.24,
      "startOffset": 152,
      "word": "ANY"
    },
    {
      "alignedWord": "rate",
      "case": "success",
      "end": 8.66,
      "endOffset": 160,
      "phones": [
        {
          "duration": 0.09,
          "phone": "r_B"
        },
        {
          "duration": 0.04,
          "phone": "ey_I"
        },
        {
          "duration": 0.06,
          "phone": "t_E"
        }
      ],
      "start": 8.47,
      "startOffset": 156,
      "word": "RATE"
    },
    {
      "alignedWord": "thought",
      "case": "success",
      "end": 8.88,
      "endOffset": 168,
      "phones": [
        {
          "duration": 0.07,
          "phone": "th_B"
        },
        {
          "duration": 0.08,
          "phone": "ao_I"
        },
        {
          "duration": 0.06,
          "phone": "t_E"
        }
      ],
      "start": 8.67,
      "startOffset": 161,
      "word": "THOUGHT"
    },
    {
      "alignedWord": "miss",
      "case": "success",
      "end": 9.06,
      "endOffset": 173,
      "phones": [
        {
          "duration": 0.06,
          "phone": "m_B"
        },
        {
          "duration": 0.05,
          "phone": "ih_I"
        },
        {
          "duration": 0.07,
          "phone": "s_E"
        }
      ],
      "start": 8.88,
      "startOffset": 169,
      "word": "MISS"
    },
    {
      "alignedWord": "thompson",
      "case": "success",
      "end": 9.64,
      "endOffset": 182,
      "phones": [
        {
          "duration": 0.08,
          "phone": "t_B"
        },
        {
          "duration": 0.11,
          "phone": "aa_I"
        },
        {
          "duration": 0.03,
          "phone": "m_I"
        },
        {
          "duration": 0.05,
          "phone": "p_I"
        },
        {
          "duration": 0.05,
          "phone": "s_I"
        },
        {
          "duration": 0.09,
          "phone": "ah_I"
        },
        {
          "duration": 0.16,
          "phone": "n_E"
        }
      ],
      "start": 9.07,
      "startOffset": 174,
      "word": "THOMPSON"
    },
    {
      "alignedWord": "then",
      "case": "success",
      "end": 10.14,
      "endOffset": 187,
      "phones": [
        {
          "duration": 0.08,
          "phone": "dh_B"
        },
        {
          "duration": 0.08,
          "phone": "eh_I"
        },
        {
          "duration": 0.07,
          "phone": "n_E"
        }
      ],
      "start": 9.91,
      "startOffset": 183,
      "word": "THEN"
    },
    {
      "alignedWord": "she",
      "case": "success",
      "end": 10.279999,
      "endOffset": 191,
      "phones": [
        {
          "duration": 0.09,
          "phone": "sh_B"
        },
        {
          "duration": 0.05,
          "phone": "iy_E"
        }
      ],
      "start": 10.139999,
      "startOffset": 188,
      "word": "SHE"
    },
    {
      "alignedWord": "addressed",
      "case": "success",
      "end": 10.62,
      "endOffset": 201,
      "phones": [
        {
          "duration": 0.03,
          "phone": "ah_B"
        },
        {
          "duration": 0.06,
          "phone": "d_I"
        },
        {
          "duration": 0.07,
          "phone": "r_I"
        },
        {
          "duration": 0.09,
          "phone": "eh_I"
        },
        {
          "duration": 0.05,
          "phone": "s_I"
        },
        {
          "duration": 0.04,
          "phone": "t_E"
        }
      ],
      "start": 10.28,
      "startOffset": 192,
      "word": "ADDRESSED"
    },
    {
      "alignedWord": "the",
      "case": "success",
      "end": 10.729999999999999,
      "endOffset": 205,
      "phones": [
        {
          "duration": 0.05,
          "phone": "dh_B"
        },
        {
          "duration": 0.06,
          "phone": "iy_E"
        }
      ],
      "start": 10.62,
      "startOffset": 202,
      "word": "THE"
    },
    {
      "alignedWord": "assembled",
      "case": "success",
      "end": 11.16,
      "endOffset": 215,
      "phones": [
        {
          "duration": 0.05,
          "phone": "ah_B"
        },
        {
          "duration": 0.08,
          "phone": "s_I"
        },
        {
          "duration": 0.09,
          "phone": "eh_I"
        },
        {
          "duration": 0.07,
          "phone": "m_I"
        },
        {
          "duration": 0.01,
          "phone": "b_I"
        },
        {
          "duration": 0.04,
          "phone": "ah_I"
        },
        {
          "duration": 0.04,
          "phone": "l_I"
        },
        {
          "duration": 0.05,
          "phone": "d_E"
        }
      ],
      "start": 10.73,
      "startOffset": 206,
      "word": "ASSEMBLED"
    },
    {
      "alignedWord": "girls",
      "case": "success",
      "end": 11.73,
      "endOffset": 221,
      "phones": [
        {
          "duration": 0.08,
          "phone": "g_B"
        },
        {
          "duration": 0.17,
          "phone": "er_I"
        },
        {
          "duration": 0.11,
          "phone": "l_I"
        },
        {
          "duration": 0.21,
          "phone": "z_E"
        }
      ],
      "start": 11.16,
      "startOffset": 216,
      "word": "GIRLS"
    },
    {
      "alignedWord": "something",
      "case": "success",
      "end": 12.769999,
      "endOffset": 231,
      "phones": [
        {
          "duration": 0.12,
          "phone": "s_B"
        },
        {
          "duration": 0.06,
          "phone": "ah_I"
        },
        {
          "duration": 0.06,
          "phone": "m_I"
        },
        {
          "duration": 0.04,
          "phone": "th_I"
        },
        {
          "duration": 0.05,
          "phone": "ih_I"
        },
        {
          "duration": 0.05,
          "phone": "ng_E"
        }
      ],
      "start": 12.389999,
      "startOffset": 222,
      "word": "SOMETHING"
    },
    {
      "alignedWord": "has",
      "case": "success",
      "end": 12.9,
      "endOffset": 235,
      "phones": [
        {
          "duration": 0.01,
          "phone": "hh_B"
        },
        {
          "duration": 0.06,
          "phone": "ah_I"
        },
        {
          "duration": 0.06,
          "phone": "z_E"
        }
      ],
      "start": 12.77,
      "startOffset": 232,
      "word": "HAS"
    },
    {
      "alignedWord": "come",
      "case": "success",
      "end": 13.110000000000001,
      "endOffset": 240,
      "phones": [
        {
          "duration": 0.05,
          "phone": "k_B"
        },
        {
          "duration": 0.07,
          "phone": "ah_I"
        },
        {
          "duration": 0.09,
          "phone": "m_E"
        }
      ],
      "start": 12.9,
      "startOffset": 236,
      "word": "COME"
    },
    {
      "alignedWord": "to",
      "case": "success",
      "end": 13.2,
      "endOffset": 243,
      "phones": [
        {
          "duration": 0.04,
          "phone": "t_B"
        },
        {
          "duration": 0.05,
          "phone": "ih_E"
        }
      ],
      "start": 13.11,
      "startOffset": 241,
      "word": "TO"
    },
    {
      "alignedWord": "my",
      "case": "success",
      "end": 13.36,
      "endOffset": 246,
      "phones": [
        {
          "duration": 0.06,
          "phone": "m_B"
        },
        {
          "duration": 0.1,
          "phone": "ay_E"
        }
      ],
      "start": 13.2,
      "startOffset": 244,
      "word": "MY"
    },
    {
      "alignedWord": "ears",
      "case": "success",
      "end": 13.66,
      "endOffset": 251,
      "phones": [
        {
          "duration": 0.14,
          "phone": "iy_B"
        },
        {
          "duration": 0.08,
          "phone": "r_I"
        },
        {
          "duration": 0.08,
          "phone": "z_E"
        }
      ],
      "start": 13.36,
      "startOffset": 247,
      "word": "EARS"
    },
    {
      "alignedWord": "girls",
      "case": "success",
      "end": 14.0,
      "endOffset": 257,
      "phones": [
        {
          "duration": 0.08,
          "phone": "g_B"
        },
        {
          "duration": 0.14,
          "phone": "er_I"
        },
        {
          "duration": 0.08,
          "phone": "l_I"
        },
        {
          "duration": 0.04,
          "phone": "z_E"
        }
      ],
      "start": 13.66,
      "startOffset": 252,
      "word": "GIRLS"
    },
    {
      "alignedWord": "said",
      "case": "success",
      "end": 14.16,
      "endOffset": 262,
      "phones": [
        {
          "duration": 0.05,
          "phone": "s_B"
        },
        {
          "duration": 0.07,
          "phone": "eh_I"
        },
        {
          "duration": 0.04,
          "phone": "d_E"
        }
      ],
      "start": 14.0,
      "startOffset": 258,
      "word": "SAID"
    },
    {
      "alignedWord": "the",
      "case": "success",
      "end": 14.23,
      "endOffset": 266,
      "phones": [
        {
          "duration": 0.01,
          "phone": "dh_B"
        },
        {
          "duration": 0.06,
          "phone": "ah_E"
        }
      ],
      "start": 14.16,
      "startOffset": 263,
      "word": "THE"
    },
    {
      "alignedWord": "principal",
      "case": "success",
      "end": 14.77,
      "endOffset": 276,
      "phones": [
        {
          "duration": 0.07,
          "phone": "p_B"
        },
        {
          "duration": 0.03,
          "phone": "r_I"
        },
        {
          "duration": 0.07,
          "phone": "ih_I"
        },
        {
          "duration": 0.04,
          "phone": "n_I"
        },
        {
          "duration": 0.03,
          "phone": "s_I"
        },
        {
          "duration": 0.1,
          "phone": "ah_I"
        },
        {
          "duration": 0.04,
          "phone": "p_I"
        },
        {
          "duration": 0.03,
          "phone": "ah_I"
        },
        {
          "duration": 0.13,
          "phone": "l_E"
        }
      ],
      "start": 14.23,
      "startOffset": 267,
      "word": "PRINCIPAL"
    }
  ]
}