{
  "transcript": "THAT IT REALLY MEANS SOMETHING ENTIRELY DIFFERENT OR THAT THE LOVED PERSON SERVES AS A CONCEALING SUBSTITUTE FOR SOME OTHER BUT THE SAME CIRCUMSTANCES WILL CALL FORTH ANOTHER MORE DIFFICULT QUESTION YOU SAY GRANTED THIS DEATH WISH WAS PRESENT AT SOME TIME OR OTHER",
  "words": [
    {
      "alignedWord": "that",
      "case": "success",
      "end": 0.43,
      "endOffset": 4,
      "phones": [
        {
          "duration": 0.07,
          "phone": "dh_B"
        },
        {
          "duration": 0.03,
          "phone": "ah_I"
        },
        {
          "duration": 0.04,
          "phone": "t_E"
        }
      ],
      "start": 0.29,
      "startOffset": 0,
      "word": "THAT"
    },
    {
      "alignedWord": "it",
      "case": "success",
      "end": 0.56,
      "endOffset": 7,
      "phones": [
        {
          "duration": 0.03,
          "phone": "ih_B"
        },
        {
          "duration": 0.1,
          "phone": "t_E"
        }
      ],
      "start": 0.43,
      "startOffset": 5,
      "word": "IT"
    },
    {
      "alignedWord": "really",
      "case": "success",
      "end": 0.8900000000000001,
      "endOffset": 14,
      "phones": [
        {
          "duration": 0.09,
          "phone": "r_B"
        },
        {
          "duration": 0.1,
          "phone": "iy_I"
        },
        {
          "duration": 0.08,
          "phone": "l_I"
        },
        {
          "duration": 0.06,
          "phone": "iy_E"
        }
      ],
      "start": 0.56,
      "startOffset": 8,
      "word": "REALLY"
    },
    {
      "alignedWord": "means",
      "case": "success",
      "end": 1.11,
      "endOffset": 20,
      "phones": [
        {
          "duration": 0.07,
          "phone": "m_B"
        },
        {
          "duration": 0.05,
          "phone": "iy_I"
        },
        {
          "duration": 0.07,
          "phone": "n_I"
        },
        {
          "duration": 0.03,
          "phone": "z_E"
        }
      ],
      "start": 0.89,
      "startOffset": 15,
      "word": "MEANS"
    },
    {
      "alignedWord": "something",
      "case": "success",
      "end": 1.4200000000000002,
      "endOffset": 30,
      "phones": [
        {
          "duration": 0.08,
          "phone": "s_B"
        },
        {
          "duration": 0.05,
          "phone": "ah_I"
        },
        {
          "duration": 0.04,
          "phone": "m_I"
        },
        {
          "duration": 0.05,
          "phone": "th_I"
        },
        {
          "duration": 0.04,
          "phone": "ih_I"
        },
        {
          "duration": 0.04,
          "phone": "ng_E"
        }
      ],
      "start": 1.12,
      "startOffset": 21,
      "word": "SOMETHING"
    },
    {
      "alignedWord": "entirely",
      "case": "success",
      "end": 1.92,
      "endOffset": 39,
      "phones": [
        {
          "duration": 0.05,
          "phone": "ih_B"
        },
        {
          "duration": 0.05,
          "phone": "n_I"
        },
        {
          "duration": 0.09,
          "phone": "t_I"
        },
        {
          "duration": 0.11,
          "phone": "ay_I"
        },
        {
          "duration": 0.08,
          "phone": "er_I"
        },
        {
          "duration": 0.05,
          "phone": "l_I"
        },
        {
          "duration": 0.07,
          "phone": "iy_E"
        }
      ],
      "start": 1.42,
      "startOffset": 31,
      "word": "ENTIRELY"
    },
    {
      "alignedWord": "different",
      "case": "success",
      "end": 2.32,
      "endOffset": 49,
      "phones": [
        {
          "duration": 0.04,
          "phone": "d_B"
        },
        {
          "duration": 0.11,
          "phone": "ih_I"
        },
        {
          "duration": 0.08,
          "phone": "f_I"
        },
        {
          "duration": 0.01,
          "phone": "r_I"
        },
        {
          "duration": 0.08,
          "phone": "ah_I"
        },
        {
          "duration": 0.02,
          "phone": "n_I"
        },
        {
          "duration": 0.06,
          "phone": "t_E"
        }
      ],
      "start": 1.92,
      "startOffset": 40,
      "word": "DIFFERENT"
    },
    {
      "alignedWord": "or",
      "case": "success",
      "end": 2.81,
      "endOffset": 52,
      "phones": [
        {
          "duration": 0.09,
          "phone": "ao_B"
        },
        {
          "duration": 0.05,
          "phone": "r_E"
        }
      ],
      "start": 2.67,
      "startOffset": 50,
      "word": "OR"
    },
    {
      "alignedWord": "that",
      "case": "success",
      "end": 2.94,
      "endOffset": 57,
      "phones": [
        {
          "duration": 0.04,
          "phone": "dh_B"
        },
        {
          "duration": 0.06,
          "phone": "ah_I"
        },
        {
          "duration": 0.03,
          "phone": "t_E"
        }
      ],
      "start": 2.81,
      "startOffset": 53,
      "word": "THAT"
    },
    {
      "alignedWord": "the",
      "case": "success",
      "end": 3.03,
      "endOffset": 61,
      "phones": [
        {
          "duration": 0.04,
          "phone": "dh_B"
        },
        {
          "duration": 0.05,
          "phone": "ah_E"
        }
      ],
      "start": 2.94,
      "startOffset": 58,
      "word": "THE"
    },
    {
      "alignedWord": "loved",
      "case": "success",
      "end": 3.4,
      "endOffset": 67,
      "phones": [
        {
          "duration": 0.17,
          "phone": "l_B"
        },
        {
          "duration": 0.07,
          "phone": "ah_I"
        },
        {
          "duration": 0.04,
          "phone": "v_I"
        },
        {
          "duration": 0.09,
          "phone": "d_E"
        }
      ],
      "start": 3.03,
      "startOffset": 62,
      "word": "LOVED"
    },
    {
      "alignedWord": "person",
      "case": "success",
      "end": 3.98,
      "endOffset": 74,
      "phones": [
        {
          "duration": 0.1,
          "phone": "p_B"
        },
        {
          "duration": 0.13,
          "phone": "er_I"
        },
        {
          "duration": 0.12,
          "phone": "s_I"
        },
        {
          "duration": 0.09,
          "phone": "ah_I"
        },
        {
          "duration": 0.13,
          "phone": "n_E"
        }
      ],
      "start": 3.41,
      "startOffset": 68,
      "word": "PERSON"
    },
    {
      "alignedWord": "serves",
      "case": "success",
      "end": 4.44,
      "endOffset": 81,
      "phones": [
        {
          "duration": 0.16,
          "phone": "s_B"
        },
        {
          "duration": 0.18,
          "phone": "er_I"
        },
        {
          "duration": 0.04,
          "phone": "v_I"
        },
        {
          "duration": 0.08,
          "phone": "z_E"
        }
      ],
      "start": 3.98,
      "startOffset": 75,
      "word": "SERVES"
    },
    {
      "alignedWord": "as",
      "case": "success",
      "end": 4.57,
      "endOffset": 84,
      "phones": [
        {
          "duration": 0.07,
          "phone": "eh_B"
        },
        {
          "duration": 0.05,
          "phone": "z_E"
        }
      ],
      "start": 4.45,
      "startOffset": 82,
      "word": "AS"
    },
    {
      "alignedWord": "a",
      "case": "success",
      "end": 4.640000000000001,
      "endOffset": 86,
      "phones": [
        {
          "duration": 0.07,
          "phone": "ah_S"
        }
      ],
      "start": 4.57,
      "startOffset": 85,
      "word": "A"
    },
    {
      "alignedWord": "concealing",
      "case": "success",
      "end": 5.1899999999999995,
      "endOffset": 97,
      "phones": [
        {
          "duration": 0.05,
          "phone": "k_B"
        },
        {
          "duration": 0.05,
          "phone": "ah_I"
        },
        {
          "duration": 0.08,
          "phone": "n_I"
        },
        {
          "duration": 0.09,
          "phone": "s_I"
        },
        {
          "duration": 0.09,
          "phone": "iy_I"
        },
        {
          "duration": 0.04,
          "phone": "l_I"
        },
        {
          "duration": 0.06,
          "phone": "ih_I"
        },
        {
          "duration": 0.09,
          "phone": "ng_E"
        }
      ],
      "start": 4.64,
      "startOffset": 87,
      "word": "CONCEALING"
    },
    {
      "alignedWord": "substitute",
      "case": "success",
      "end": 5.8100000000000005,
      "endOffset": 108,
      "phones": [
        {
          "duration": 0.09,
          "phone": "s_B"
        },
        {
          "duration": 0.08,
          "phone": "ah_I"
        },
        {
          "duration": 0.08,
          "phone": "b_I"
        },
        {
          "duration": 0.02,
          "phone": "s_I"
        },
        {
          "duration": 0.06,
          "phone": "t_I"
        },
        {
          "duration": 0.05,
          "phone": "ah_I"
        },
        {
          "duration": 0.09,
          "phone": "t_I"
        },
        {
          "duration": 0.1,
          "phone": "uw_I"
        },
        {
          "duration": 0.05,
          "phone": "t_E"
        }
      ],
      "start": 5.19,
      "startOffset": 98,
      "word": "SUBSTITUTE"
    },
    {
      "alignedWord": "for",
      "case": "success",
      "end": 5.98,
      "endOffset": 112,
      "phones": [
        {
          "duration": 0.08,
          "phone": "f_B"
        },
        {
          "duration": 0.08,
          "phone": "er_E"
        }
      ],
      "start": 5.82,
      "startOffset": 109,
      "word": "FOR"
    },
    {
      "alignedWord": "some",
      "case": "success",
      "end": 6.23,
      "endOffset": 117,
      "phones": [
        {
          "duration": 0.09,
          "phone": "s_B"
        },
        {
          "duration": 0.08,
          "phone": "ah_I"
        },
        {
          "duration": 0.08,
          "phone": "m_E"
        }
      ],
      "start": 5.98,
      "startOffset": 113,
      "word": "SOME"
    },
    {
      "alignedWord": "other",
      "case": "success",
      "end": 6.7,
      "endOffset": 123,
      "phones": [
        {
          "duration": 0.13,
          "phone": "ah_B"
        },
        {
          "duration": 0.09,
          "phone": "dh_I"
        },
        {
          "duration": 0.22,
          "phone": "er_E"
        }
      ],
      "start": 6.26,
      "startOffset": 118,
      "word": "OTHER"
    },
    {
      "alignedWord": "but",
      "case": "success",
      "end": 7.880000000000001,
      "endOffset": 127,
      "phones": [
        {
          "duration": 0.06,
          "phone": "b_B"
        },
        {
          "duration": 0.04,
          "phone": "ah_I"
        },
        {
          "duration": 0.05,
          "phone": "t_E"
        }
      ],
      "start": 7.73,
      "startOffset": 124,
      "word": "BUT"
    },
    {
      "alignedWord": "the",
      "case": "success",
      "end": 7.99,
      "endOffset": 131,
      "phones": [
        {
          "duration": 0.05,
          "phone": "dh_B"
        },
        {
          "duration": 0.06,
          "phone": "ah_E"
        }
      ],
      "start": 7.88,
      "startOffset": 128,
      "word": "THE"
    },
    {
      "alignedWord": "same",
      "case": "success",
      "end": 8.33,
      "endOffset": 136,
      "phones": [
        {
          "duration": 0.13,
          "phone": "s_B"
        },
        {
          "duration": 0.12,
          "phone": "ey_I"
        },
        {
          "duration": 0.09,
          "phone": "m_E"
        }
      ],
      "start": 7.99,
      "startOffset": 132,
      "word": "SAME"
    },
    {
      "alignedWord": "circumstances",
      "case": "success",
      "end": 9.03,
      "endOffset": 150,
      "phones": [
        {
          "duration": 0.15,
          "phone": "s_B"
        },
        {
          "duration": 0.07,
          "phone": "er_I"
        },
        {
          "duration": 0.03,
          "phone": "k_I"
        },
        {
          "duration": 0.06,
          "phone": "ah_I"
        },
        {
          "duration": 0.04,
          "phone": "m_I"
        },
        {
          "duration": 0.06,
          "phone": "s_I"
        },
        {
          "duration": 0.07,
          "phone": "t_I"
        },
        {
          "duration": 0.08,
          "phone": "ae_I"
        },
        {
          "duration": 0.08,
          "phone": "n_I"
        },
        {
          "duration": 0.01,
          "phone": "s_I"
        },
        {
          "duration": 0.01,
          "phone": "ah_I"
        },
        {
          "duration": 0.04,
          "phone": "z_E"
        }
      ],
      "start": 8.33,
      "startOffset": 137,
      "word": "CIRCUMSTANCES"
    },
    {
      "alignedWord": "will",
      "case": "success",
      "end": 9.149999999999999,
      "endOffset": 155,
      "phones": [
        {
          "duration": 0.04,
          "phone": "w_B"
        },
        {
          "duration": 0.05,
          "phone": "ih_I"
        },
        {
          "duration": 0.03,
          "phone": "l_E"
        }
      ],
      "start": 9.03,
      "startOffset": 151,
      "word": "WILL"
    },
    {
      "alignedWord": "call",
      "case": "success",
      "end": 9.44,
      "endOffset": 160,
      "phones": [
        {
          "duration": 0.1,
          "phone": "k_B"
        },
        {
          "duration": 0.08,
          "phone": "ao_I"
        },
        {
          "duration": 0.11,
          "phone": "l_E"
        }
      ],
      "start": 9.15,
      "startOffset": 156,
      "word": "CALL"
    },
    {
      "alignedWord": "forth",
      "case": "success",
      "end": 9.7,
      "endOffset": 166,
      "phones": [
        {
          "duration": 0.08,
          "phone": "f_B"
        },
        {
          "duration": 0.06,
          "phone": "ao_I"
        },
        {
          "duration": 0.05,
          "phone": "r_I"
        },
        {
          "duration": 0.07,
          "phone": "th_E"
        }
      ],
      "start": 9.44,
      "startOffset": 161,
      "word": "FORTH"
    },
    {
      "alignedWord": "another",
      "case": "success",
      "end": 10.129999999999999,
      "endOffset": 174,
      "phones": [
        {
          "duration": 0.04,
          "phone": "ah_B"
        },
        {
          "duration": 0.1,
          "phone": "n_I"
        },
        {
          "duration": 0.06,
          "phone": "ah_I"
        },
        {
          "duration": 0.09,
          "phone": "dh_I"
        },
        {
          "duration": 0.14,
          "phone": "er_E"
        }
      ],
      "start": 9.7,
      "startOffset": 167,
      "word": "ANOTHER"
    },
    {
      "alignedWord": "more",
      "case": "success",
      "end": 10.299999,
      "endOffset": 179,
      "phones": [
        {
          "duration": 0.06,
          "phone": "m_B"
        },
        {
          "duration": 0.06,
          "phone": "ao_I"
        },
        {
          "duration": 0.04,
          "phone": "r_E"
        }
      ],
      "start": 10.139999,
      "startOffset": 175,
      "word": "MORE"
    },
    {
      "alignedWord": "difficult",
      "case": "success",
      "end": 10.760000000000002,
      "endOffset": 189,
      "phones": [
        {
          "duration": 0.07,
          "phone": "d_B"
        },
        {
          "duration": 0.09,
          "phone": "ih_I"
        },
        {
          "duration": 0.06,
          "phone": "f_I"
        },
        {
          "duration": 0.08,
          "phone": "ah_I"
        },
        {
          "duration": 0.02,
          "phone": "k_I"
        },
        {
          "duration": 0.06,
          "phone": "ah_I"
        },
        {
          "duration": 0.04,
          "phone": "l_I"
        },
        {
          "duration": 0.04,
          "phone": "t_E"
        }
      ],
      "start": 10.3,
      "startOffset": 180,
      "word": "DIFFICULT"
    },
    {
      "alignedWord": "question",
      "case": "success",
      "end": 11.31,
      "endOffset": 198,
      "phones": [
        {
          "duration": 0.06,
          "phone": "k_B"
        },
        {
          "duration": 0.03,
          "phone": "w_I"
        },
        {
          "duration": 0.09,
          "phone": "eh_I"
        },
        {
          "duration": 0.08,
          "phone": "s_I"
        },
        {
          "duration": 0.07,
          "phone": "ch_I"
        },
        {
          "duration": 0.06,
          "phone": "ah_I"
        },
        {
          "duration": 0.16,
          "phone": "n_E"
        }
      ],
      "start": 10.76,
      "startOffset": 190,
      "word": "QUESTION"
    },
    {
      "alignedWord": "you",
      "case": "success",
      "end": 12.019999,
      "endOffset": 202,
      "phones": [
        {
          "duration": 0.15,
          "phone": "y_B"
        },
        {
          "duration": 0.11,
          "phone": "uw_E"
        }
      ],
      "start": 11.759999,
      "startOffset": 199,
      "word": "YOU"
    },
    {
      "alignedWord": "say",
      "case": "success",
      "end": 12.42,
      "endOffset": 206,
      "phones": [
        {
          "duration": 0.13,
          "phone": "s_B"
        },
        {
          "duration": 0.27,
          "phone": "ey_E"
        }
      ],
      "start": 12.02,
      "startOffset": 203,
      "word": "SAY"
    },
    {
      "alignedWord": "granted",
      "case": "success",
      "end": 13.18,
      "endOffset": 214,
      "phones": [
        {
          "duration": 0.09,
          "phone": "g_B"
        },
        {
          "duration": 0.05,
          "phone": "r_I"
        },
        {
          "duration": 0.08,
          "phone": "ae_I"
        },
        {
          "duration": 0.05,
          "phone": "n_I"
        },
        {
          "duration": 0.04,
          "phone": "t_I"
        },
        {
          "duration": 0.06,
          "phone": "ih_I"
        },
        {
          "duration": 0.06,
          "phone": "d_E"
        }
      ],
      "start": 12.75,
      "startOffset": 207,
      "word": "GRANTED"
    },
    {
      "alignedWord": "this",
      "case": "success",
      "end": 13.369999,
      "endOffset": 219,
      "phones": [
        {
          "duration": 0.01,
          "phone": "dh_B"
        },
        {
          "duration": 0.09,
          "phone": "ih_I"
        },
        {
          "duration": 0.09,
          "phone": "s_E"
        }
      ],
      "start": 13.179999,
      "startOffset": 215,
      "word": "THIS"
    },
    {
      "alignedWord": "death",
      "case": "success",
      "end": 13.659999999999998,
      "endOffset": 225,
      "phones": [
        {
          "duration": 0.08,
          "phone": "d_B"
        },
        {
          "duration": 0.12,
          "phone": "eh_I"
        },
        {
          "duration": 0.09,
          "phone": "th_E"
        }
      ],
      "start": 13.37,
      "startOffset": 220,
      "word": "DEATH"
    },
    {
      "alignedWord": "wish",
      "case": "success",
      "end": 13.94,
      "endOffset": 230,
      "phones": [
        {
          "duration": 0.08,
          "phone": "w_B"
        },
        {
          "duration": 0.09,
          "phone": "ih_I"
        },
        {
          "duration": 0.1,
          "phone": "sh_E"
        }
      ],
      "start": 13.67,
      "startOffset": 226,
      "word": "WISH"
    },
    {
      "alignedWord": "was",
      "case": "success",
      "end": 14.14,
      "endOffset": 234,
      "phones": [
        {
          "duration": 0.05,
          "phone": "w_B"
        },
        {
          "duration": 0.04,
          "phone": "ah_I"
        },
        {
          "duration": 0.09,
          "phone": "z_E"
        }
      ],
      "start": 13.96,
      "startOffset": 231,
      "word": "WAS"
    },
    {
      "alignedWord": "present",
      "case": "success",
      "end": 14.52,
      "endOffset": 242,
      "phones": [
        {
          "duration": 0.06,
          "phone": "p_B"
        },
        {
          "duration": 0.07,
          "phone": "r_I"
        },
        {
          "duration": 0.07,
          "phone": "eh_I"
        },
        {
          "duration": 0.06,
          "phone": "z_I"
        },
        {
          "duration": 0.06,
          "phone": "ah_I"
        },
        {
          "duration": 0.04,
          "phone": "n_I"
        },
        {
          "duration": 0.01,
          "phone": "t_E"
        }
      ],
      "start": 14.15,
      "startOffset": 235,
      "word": "PRESENT"
    },
    {
      "alignedWord": "at",
      "case": "success",
      "end": 14.709999,
      "endOffset": 245,
      "phones": [
        {
          "duration": 0.07,
          "phone": "ae_B"
        },
        {
          "duration": 0.09,
          "phone": "t_E"
        }
      ],
      "start": 14.549999,
      "startOffset": 243,
      "word": "AT"
    },
    {
      "alignedWord": "some",
      "case": "success",
      "end": 14.950000000000001,
      "endOffset": 250,
      "phones": [
        {
          "duration": 0.08,
          "phone": "s_B"
        },
        {
          "duration": 0.08,
          "phone": "ah_I"
        },
        {
          "duration": 0.08,
          "phone": "m_E"
        }
      ],
      "start": 14.71,
      "startOffset": 246,
      "word": "SOME"
    },
    {
      "alignedWord": "time",
      "case": "success",
      "end": 15.239999999999998,
      "endOffset": 255,
      "phones": [
        {
          "duration": 0.09,
          "phone": "t_B"
        },
        {
          "duration": 0.12,
          "phone": "ay_I"
        },
        {
          "duration": 0.08,
          "phone": "m_E"
        }
      ],
      "start": 14.95,
      "startOffset": 251,
      "word": "TIME"
    },
    {
      "alignedWord": "or",
      "case": "success",
      "end": 15.31,
      "endOffset": 258,
      "phones": [
        {
          "duration": 0.07,
          "phone": "er_S"
        }
      ],
      "start": 15.24,
      "startOffset": 256,
      "word": "OR"
    },
    {
      "alignedWord": "other",
      "case": "success",
      "end": 15.6,
      "endOffset": 264,
      "phones": [
        {
          "duration": 0.07,
          "phone": "ah_B"
        },
        {
          "duration": 0.08,
          "phone": "dh_I"
        },
        {
          "duration": 0.09,
          "phone": "er_E"
        }
      ],
      "start": 15.36,
      "startOffset": 259,
      "word": "OTHER"
    }
  ]
}