{
  "transcript": "SAID THE WOMAN DOUBTFULLY I WISH HE'D BRICK IT UP THE SAME AS HE HAS THE LOWER CELLAR I GET THE HORRORS SITTIN HERE AT NIGHT EXPECTIN THE DOOR TO OPEN AN THE GHOST OF THE MAD LORD TO COME OUT HIM THAT WAS KILLED IN AFRICA MISS HOLLAND LAUGHED I WANT YOU TO GO OUT NOW SHE SAID",
  "words": [
    {
      "alignedWord": "said",
      "case": "success",
      "end": 0.30000000000000004,
      "endOffset": 4,
      "phones": [
        {
          "duration": 0.09,
          "phone": "s_B"
        },
        {
          "duration": 0.05,
          "phone": "eh_I"
        },
        {
          "duration": 0.02,
          "phone": "d_E"
        }
      ],
      "start": 0.14,
      "startOffset": 0,
      "word": "SAID"
    },
    {
      "alignedWord": "the",
      "case": "success",
      "end": 0.42,
      "endOffset": 8,
      "phones": [
        {
          "duration": 0.06,
          "phone": "dh_B"
        },
        {
          "duration": 0.05,
          "phone": "ah_E"
        }
      ],
      "start": 0.31,
      "startOffset": 5,
      "word": "THE"
    },
    {
      "alignedWord": "woman",
      "case": "success",
      "end": 0.71,
      "endOffset": 14,
      "phones": [
        {
          "duration": 0.05,
          "phone": "w_B"
        },
        {
          "duration": 0.07,
          "phone": "uh_I"
        },
        {
          "duration": 0.03,
          "phone": "m_I"
        },
        {
          "duration": 0.06,
          "phone": "ah_I"
        },
        {
          "duration": 0.08,
          "phone": "n_E"
        }
      ],
      "start": 0.42,
      "startOffset": 9,
      "word": "WOMAN"
    },
    {
      "alignedWord": "<unk>",
      "case": "success",
      "end": 1.2799999999999998,
      "endOffset": 25,
      "phones": [
        {
          "duration": 0.57,
          "phone": "oov_S"
        }
      ],
      "start": 0.71,
      "startOffset": 15,
      "word": "DOUBTFULLY"
    },
    {
      "alignedWord": "i",
      "case": "success",
      "end": 1.91,
      "endOffset": 27,
      "phones": [
        {
          "duration": 0.25,
          "phone": "ay_S"
        }
      ],
      "start": 1.66,
      "startOffset": 26,
      "word": "I"
    },
    {
      "alignedWord": "wish",
      "case": "success",
      "end": 2.16,
      "endOffset": 32,
      "phones": [
        {
          "duration": 0.09,
          "phone": "w_B"
        },
        {
          "duration": 0.08,
          "phone": "ih_I"
        },
        {
          "duration": 0.08,
          "phone": "sh_E"
        }
      ],
      "start": 1.91,
      "startOffset": 28,
      "word": "WISH"
    },
    {
      "alignedWord": "he'd",
      "case": "success",
      "end": 2.3200000000000003,
      "endOffset": 37,
      "phones": [
        {
          "duration": 0.03,
          "phone": "hh_B"
        },
        {
          "duration": 0.06,
          "phone": "iy_I"
        },
        {
          "duration": 0.07,
          "phone": "d_E"
        }
      ],
      "start": 2.16,
      "startOffset": 33,
      "word": "HE'D"
    },
    {
      "alignedWord": "brick",
      "case": "success",
      "end": 2.58,
      "endOffset": 43,
      "phones": [
        {
          "duration": 0.08,
          "phone": "b_B"
        },
        {
          "duration": 0.04,
          "phone": "r_I"
        },
        {
          "duration": 0.07,
          "phone": "ih_I"
        },
        {
          "duration": 0.06,
          "phone": "k_E"
        }
      ],
      "start": 2.33,
      "startOffset": 38,
      "word": "BRICK"
    },
    {
      "alignedWord": "it",
      "case": "success",
      "end": 2.69,
      "endOffset": 46,
      "phones": [
        {
          "duration": 0.06,
          "phone": "ih_B"
        },
        {
          "duration": 0.05,
          "phone": "t_E"
        }
      ],
      "start": 2.58,
      "startOffset": 44,
      "word": "IT"
    },
    {
      "alignedWord": "up",
      "case": "success",
      "end": 3.04,
      "endOffset": 49,
      "phones": [
        {
          "duration": 0.15,
          "phone": "ah_B"
        },
        {
          "duration": 0.2,
          "phone": "p_E"
        }
      ],
      "start": 2.69,
      "startOffset": 47,
      "word": "UP"
    },
    {
      "alignedWord": "the",
      "case": "success",
      "end": 3.29,
      "endOffset": 53,
      "phones": [
        {
          "duration": 0.07,
          "phone": "dh_B"
        },
        {
          "duration": 0.05,
          "phone": "ah_E"
        }
      ],
      "start": 3.17,
      "startOffset": 50,
      "word": "THE"
    },
    {
      "alignedWord": "same",
      "case": "success",
      "end": 3.5300000000000002,
      "endOffset": 58,
      "phones": [
        {
          "duration": 0.1,
          "phone": "s_B"
        },
        {
          "duration": 0.08,
          "phone": "ey_I"
        },
        {
          "duration": 0.06,
          "phone": "m_E"
        }
      ],
      "start": 3.29,
      "startOffset": 54,
      "word": "SAME"
    },
    {
      "alignedWord": "as",
      "case": "success",
      "end": 3.63,
      "endOffset": 61,
      "phones": [
        {
          "duration": 0.06,
          "phone": "eh_B"
        },
        {
          "duration": 0.04,
          "phone": "z_E"
        }
      ],
      "start": 3.53,
      "startOffset": 59,
      "word": "AS"
    },
    {
      "alignedWord": "he",
      "case": "success",
      "end": 3.7399999999999998,
      "endOffset": 64,
      "phones": [
        {
          "duration": 0.05,
          "phone": "hh_B"
        },
        {
          "duration": 0.06,
          "phone": "iy_E"
        }
      ],
      "start": 3.63,
      "startOffset": 62,
      "word": "HE"
    },
    {
      "alignedWord": "has",
      "case": "success",
      "end": 3.9200000000000004,
      "endOffset": 68,
      "phones": [
        {
          "duration": 0.01,
          "phone": "hh_B"
        },
        {
          "duration": 0.1,
          "phone": "ae_I"
        },
        {
          "duration": 0.07,
          "phone": "z_E"
        }
      ],
      "start": 3.74,
      "startOffset": 65,
      "word": "HAS"
    },
    {
      "alignedWord": "the",
      "case": "success",
      "end": 4.01,
      "endOffset": 72,
      "phones": [
        {
          "duration": 0.05,
          "phone": "dh_B"
        },
        {
          "duration": 0.04,
          "phone": "ah_E"
        }
      ],
      "start": 3.92,
      "startOffset": 69,
      "word": "THE"
    },
    {
      "alignedWord": "lower",
      "case": "success",
      "end": 4.319999999999999,
      "endOffset": 78,
      "phones": [
        {
          "duration": 0.11,
          "phone": "l_B"
        },
        {
          "duration": 0.11,
          "phone": "ow_I"
        },
        {
          "duration": 0.09,
          "phone": "er_E"
        }
      ],
      "start": 4.01,
      "startOffset": 73,
      "word": "LOWER"
    },
    {
      "alignedWord": "cellar",
      "case": "success",
      "end": 4.74,
      "endOffset": 85,
      "phones": [
        {
          "duration": 0.07,
          "phone": "s_B"
        },
        {
          "duration": 0.09,
          "phone": "eh_I"
        },
        {
          "duration": 0.09,
          "phone": "l_I"
        },
        {
          "duration": 0.17,
          "phone": "er_E"
        }
      ],
      "start": 4.32,
      "startOffset": 79,
      "word": "CELLAR"
    },
    {
      "alignedWord": "i",
      "case": "success",
      "end": 5.19,
      "endOffset": 87,
      "phones": [
        {
          "duration": 0.19,
          "phone": "ay_S"
        }
      ],
      "start": 5.0,
      "startOffset": 86,
      "word": "I"
    },
    {
      "alignedWord": "get",
      "case": "success",
      "end": 5.390000000000001,
      "endOffset": 91,
      "phones": [
        {
          "duration": 0.07,
          "phone": "g_B"
        },
        {
          "duration": 0.06,
          "phone": "eh_I"
        },
        {
          "duration": 0.07,
          "phone": "t_E"
        }
      ],
      "start": 5.19,
      "startOffset": 88,
      "word": "GET"
    },
    {
      "alignedWord": "the",
      "case": "success",
      "end": 5.489999999999999,
      "endOffset": 95,
      "phones": [
        {
          "duration": 0.05,
          "phone": "dh_B"
        },
        {
          "duration": 0.05,
          "phone": "ah_E"
        }
      ],
      "start": 5.39,
      "startOffset": 92,
      "word": "THE"
    },
    {
      "alignedWord": "horrors",
      "case": "success",
      "end": 6.03,
      "endOffset": 103,
      "phones": [
        {
          "duration": 0.13,
          "phone": "hh_B"
        },
        {
          "duration": 0.14,
          "phone": "ao_I"
        },
        {
          "duration": 0.02,
          "phone": "r_I"
        },
        {
          "duration": 0.16,
          "phone": "er_I"
        },
        {
          "duration": 0.09,
          "phone": "z_E"
        }
      ],
      "start": 5.49,
      "startOffset": 96,
      "word": "HORRORS"
    },
    {
      "alignedWord": "<unk>",
      "case": "success",
      "end": 6.29,
      "endOffset": 110,
      "phones": [
        {
          "duration": 0.25,
          "phone": "oov_S"
        }
      ],
      "start": 6.04,
      "startOffset": 104,
      "word": "SITTIN"
    },
    {
      "alignedWord": "here",
      "case": "success",
      "end": 6.5,
      "endOffset": 115,
      "phones": [
        {
          "duration": 0.08,
          "phone": "hh_B"
        },
        {
          "duration": 0.06,
          "phone": "iy_I"
        },
        {
          "duration": 0.06,
          "phone": "r_E"
        }
      ],
      "start": 6.3,
      "startOffset": 111,
      "word": "HERE"
    },
    {
      "alignedWord": "at",
      "case": "success",
      "end": 6.62,
      "endOffset": 118,
      "phones": [
        {
          "duration": 0.05,
          "phone": "ae_B"
        },
        {
          "duration": 0.07,
          "phone": "t_E"
        }
      ],
      "start": 6.5,
      "startOffset": 116,
      "word": "AT"
    },
    {
      "alignedWord": "night",
      "case": "success",
      "end": 6.79,
      "endOffset": 124,
      "phones": [
        {
          "duration": 0.05,
          "phone": "n_B"
        },
        {
          "duration": 0.11,
          "phone": "ay_I"
        },
        {
          "duration": 0.01,
          "phone": "t_E"
        }
      ],
      "start": 6.62,
      "startOffset": 119,
      "word": "NIGHT"
    },
    {
      "alignedWord": "<unk>",
      "case": "success",
      "end": 7.29,
      "endOffset": 133,
      "phones": [
        {
          "duration": 0.5,
          "phone": "oov_S"
        }
      ],
      "start": 6.79,
      "startOffset": 125,
      "word": "EXPECTIN"
    },
    {
      "alignedWord": "the",
      "case": "success",
      "end": 7.39,
      "endOffset": 137,
      "phones": [
        {
          "duration": 0.05,
          "phone": "dh_B"
        },
        {
          "duration": 0.04,
          "phone": "ah_E"
        }
      ],
      "start": 7.3,
      "startOffset": 134,
      "word": "THE"
    },
    {
      "alignedWord": "door",
      "case": "success",
      "end": 7.6499999999999995,
      "endOffset": 142,
      "phones": [
        {
          "duration": 0.1,
          "phone": "d_B"
        },
        {
          "duration": 0.11,
          "phone": "ao_I"
        },
        {
          "duration": 0.05,
          "phone": "r_E"
        }
      ],
      "start": 7.39,
      "startOffset": 138,
      "word": "DOOR"
    },
    {
      "alignedWord": "to",
      "case": "success",
      "end": 7.760000000000001,
      "endOffset": 145,
      "phones": [
        {
          "duration": 0.06,
          "phone": "t_B"
        },
        {
          "duration": 0.05,
          "phone": "ah_E"
        }
      ],
      "start": 7.65,
      "startOffset": 143,
      "word": "TO"
    },
    {
      "alignedWord": "open",
      "case": "success",
      "end": 8.11,
      "endOffset": 150,
      "phones": [
        {
          "duration": 0.12,
          "phone": "ow_B"
        },
        {
          "duration": 0.08,
          "phone": "p_I"
        },
        {
          "duration": 0.09,
          "phone": "ah_I"
        },
        {
          "duration": 0.06,
          "phone": "n_E"
        }
      ],
      "start": 7.76,
      "startOffset": 146,
      "word": "OPEN"
    },
    {
      "alignedWord": "an",
      "case": "success",
      "end": 8.19,
      "endOffset": 153,
      "phones": [
        {
          "duration": 0.05,
          "phone": "ah_B"
        },
        {
          "duration": 0.03,
          "phone": "n_E"
        }
      ],
      "start": 8.11,
      "startOffset": 151,
      "word": "AN"
    },
    {
      "alignedWord": "the",
      "case": "success",
      "end": 8.309999999999999,
      "endOffset": 157,
      "phones": [
        {
          "duration": 0.05,
          "phone": "dh_B"
        },
        {
          "duration": 0.07,
          "phone": "ah_E"
        }
      ],
      "start": 8.19,
      "startOffset": 154,
      "word": "THE"
    },
    {
      "alignedWord": "ghost",
      "case": "success",
      "end": 8.629999,
      "endOffset": 163,
      "phones": [
        {
          "duration": 0.11,
          "phone": "g_B"
        },
        {
          "duration": 0.11,
          "phone": "ow_I"
        },
        {
          "duration": 0.06,
          "phone": "s_I"
        },
        {
          "duration": 0.04,
          "phone": "t_E"
        }
      ],
      "start": 8.309999,
      "startOffset": 158,
      "word": "GHOST"
    },
    {
      "alignedWord": "of",
      "case": "success",
      "end": 8.680000000000001,
      "endOffset": 166,
      "phones": [
        {
          "duration": 0.04,
          "phone": "ah_B"
        },
        {
          "duration": 0.01,
          "phone": "v_E"
        }
      ],
      "start": 8.63,
      "startOffset": 164,
      "word": "OF"
    },
    {
      "alignedWord": "the",
      "case": "success",
      "end": 8.799999999999999,
      "endOffset": 170,
      "phones": [
        {
          "duration": 0.07,
          "phone": "dh_B"
        },
        {
          "duration": 0.04,
          "phone": "ah_E"
        }
      ],
      "start": 8.69,
      "startOffset": 167,
      "word": "THE"
    },
    {
      "alignedWord": "mad",
      "case": "success",
      "end": 9.110000000000001,
      "endOffset": 174,
      "phones": [
        {
          "duration": 0.11,
          "phone": "m_B"
        },
        {
          "duration": 0.11,
          "phone": "ae_I"
        },
        {
          "duration": 0.09,
          "phone": "d_E"
        }
      ],
      "start": 8.8,
      "startOffset": 171,
      "word": "MAD"
    },
    {
      "alignedWord": "lord",
      "case": "success",
      "end": 9.42,
      "endOffset": 179,
      "phones": [
        {
          "duration": 0.08,
          "phone": "l_B"
        },
        {
          "duration": 0.12,
          "phone": "ao_I"
        },
        {
          "duration": 0.05,
          "phone": "r_I"
        },
        {
          "duration": 0.06,
          "phone": "d_E"
        }
      ],
      "start": 9.11,
      "startOffset": 175,
      "word": "LORD"
    },
    {
      "alignedWord": "to",
      "case": "success",
      "end": 9.51,
      "endOffset": 182,
      "phones": [
        {
          "duration": 0.02,
          "phone": "t_B"
        },
        {
          "duration": 0.07,
          "phone": "ih_E"
        }
      ],
      "start": 9.42,
      "startOffset": 180,
      "word": "TO"
    },
    {
      "alignedWord": "come",
      "case": "success",
      "end": 9.719999999999999,
      "endOffset": 187,
      "phones": [
        {
          "duration": 0.05,
          "phone": "k_B"
        },
        {
          "duration": 0.07,
          "phone": "ah_I"
        },
        {
          "duration": 0.08,
          "phone": "m_E"
        }
      ],
      "start": 9.52,
      "startOffset": 183,
      "word": "COME"
    },
    {
      "alignedWord": "out",
      "case": "success",
      "end": 9.989999,
      "endOffset": 191,
      "phones": [
        {
          "duration": 0.13,
          "phone": "aw_B"
        },
        {
          "duration": 0.14,
          "phone": "t_E"
        }
      ],
      "start": 9.719999,
      "startOffset": 188,
      "word": "OUT"
    },
    {
      "alignedWord": "him",
      "case": "success",
      "end": 10.569999000000001,
      "endOffset": 195,
      "phones": [
        {
          "duration": 0.08,
          "phone": "hh_B"
        },
        {
          "duration": 0.07,
          "phone": "ih_I"
        },
        {
          "duration": 0.07,
          "phone": "m_E"
        }
      ],
      "start": 10.349999,
      "startOffset": 192,
      "word": "HIM"
    },
    {
      "alignedWord": "that",
      "case": "success",
      "end": 10.71,
      "endOffset": 200,
      "phones": [
        {
          "duration": 0.03,
          "phone": "dh_B"
        },
        {
          "duration": 0.04,
          "phone": "ah_I"
        },
        {
          "duration": 0.07,
          "phone": "t_E"
        }
      ],
      "start": 10.57,
      "startOffset": 196,
      "word": "THAT"
    },
    {
      "alignedWord": "was",
      "case": "success",
      "end": 10.840000000000002,
      "endOffset": 204,
      "phones": [
        {
          "duration": 0.01,
          "phone": "w_B"
        },
        {
          "duration": 0.06,
          "phone": "ah_I"
        },
        {
          "duration": 0.06,
          "phone": "z_E"
        }
      ],
      "start": 10.71,
      "startOffset": 201,
      "word": "WAS"
    },
    {
      "alignedWord": "killed",
      "case": "success",
      "end": 11.11,
      "endOffset": 211,
      "phones": [
        {
          "duration": 0.07,
          "phone": "k_B"
        },
        {
          "duration": 0.08,
          "phone": "ih_I"
        },
        {
          "duration": 0.06,
          "phone": "l_I"
        },
        {
          "duration": 0.06,
          "phone": "d_E"
        }
      ],
      "start": 10.84,
      "startOffset": 205,
      "word": "KILLED"
    },
    {
      "alignedWord": "in",
      "case": "success",
      "end": 11.2,
      "endOffset": 214,
      "phones": [
        {
          "duration": 0.04,
          "phone": "ih_B"
        },
        {
          "duration": 0.05,
          "phone": "n_E"
        }
      ],
      "start": 11.11,
      "startOffset": 212,
      "word": "IN"
    },
    {
      "alignedWord": "africa",
      "case": "success",
      "end": 11.7,
      "endOffset": 221,
      "phones": [
        {
          "duration": 0.08,
          "phone": "ae_B"
        },
        {
          "duration": 0.09,
          "phone": "f_I"
        },
        {
          "duration": 0.01,
          "phone": "r_I"
        },
        {
          "duration": 0.06,
          "phone": "ah_I"
        },
        {
          "duration": 0.06,
          "phone": "k_I"
        },
        {
          "duration": 0.2,
          "phone": "ah_E"
        }
      ],
      "start": 11.2,
      "startOffset": 215,
      "word": "AFRICA"
    },
    {
      "alignedWord": "miss",
      "case": "success",
      "end": 12.539999,
      "endOffset": 226,
      "phones": [
        {
          "duration": 0.09,
          "phone": "m_B"
        },
        {
          "duration": 0.05,
          "phone": "ih_I"
        },
        {
          "duration": 0.09,
          "phone": "s_E"
        }
      ],
      "start": 12.309999,
      "startOffset": 222,
      "word": "MISS"
    },
    {
      "alignedWord": "holland",
      "case": "success",
      "end": 12.979999999999999,
      "endOffset": 234,
      "phones": [
        {
          "duration": 0.07,
          "phone": "hh_B"
        },
        {
          "duration": 0.08,
          "phone": "aa_I"
        },
        {
          "duration": 0.08,
          "phone": "l_I"
        },
        {
          "duration": 0.07,
          "phone": "ah_I"
        },
        {
          "duration": 0.08,
          "phone": "n_I"
        },
        {
          "duration": 0.06,
          "phone": "d_E"
        }
      ],
      "start": 12.54,
      "startOffset": 227,
      "word": "HOLLAND"
    },
    {
      "alignedWord": "laughed",
      "case": "success",
      "end": 13.58,
      "endOffset": 242,
      "phones": [
        {
          "duration": 0.12,
          "phone": "l_B"
        },
        {
          "duration": 0.17,
          "phone": "ae_I"
        },
        {
          "duration": 0.12,
          "phone": "f_I"
        },
        {
          "duration": 0.18,
          "phone": "t_E"
        }
      ],
      "start": 12.99,
      "startOffset": 235,
      "word": "LAUGHED"
    },
    {
      "alignedWord": "i",
      "case": "success",
      "end": 14.05,
      "endOffset": 244,
      "phones": [
        {
          "duration": 0.14,
          "phone": "ay_S"
        }
      ],
      "start": 13.91,
      "startOffset": 243,
      "word": "I"
    },
    {
      "alignedWord": "want",
      "case": "success",
      "end": 14.359999,
      "endOffset": 249,
      "phones": [
        {
          "duration": 0.11,
          "phone": "w_B"
        },
        {
          "duration": 0.06,
          "phone": "ao_I"
        },
        {
          "duration": 0.04,
          "phone": "n_I"
        },
        {
          "duration": 0.1,
          "phone": "t_E"
        }
      ],
      "start": 14.049999,
      "startOffset": 245,
      "word": "WANT"
    },
    {
      "alignedWord": "you",
      "case": "success",
      "end": 14.469999999999999,
      "endOffset": 253,
      "phones": [
        {
          "duration": 0.04,
          "phone": "y_B"
        },
        {
          "duration": 0.07,
          "phone": "uw_E"
        }
      ],
      "start": 14.36,
      "startOffset": 250,
      "word": "YOU"
    },
    {
      "alignedWord": "to",
      "case": "success",
      "end": 14.549999,
      "endOffset": 256,
      "phones": [
        {
          "duration": 0.05,
          "phone": "t_B"
        },
        {
          "duration": 0.03,
          "phone": "ah_E"
        }
      ],
      "start": 14.469999,
      "startOffset": 254,
      "word": "TO"
    },
    {
      "alignedWord": "go",
      "case": "success",
      "end": 14.709999,
      "endOffset": 259,
      "phones": [
        {
          "duration": 0.07,
          "phone": "g_B"
        },
        {
          "duration": 0.09,
          "phone": "ow_E"
        }
      ],
      "start": 14.549999,
      "startOffset": 257,
      "word": "GO"
    },
    {
      "alignedWord": "out",
      "case": "success",
      "end": 14.91,
      "endOffset": 263,
      "phones": [
        {
          "duration": 0.1,
          "phone": "aw_B"
        },
        {
          "duration": 0.1,
          "phone": "t_E"
        }
      ],
      "start": 14.71,
      "startOffset": 260,
      "word": "OUT"
    },
    {
      "alignedWord": "now",
      "case": "success",
      "end": 15.11,
      "endOffset": 267,
      "phones": [
        {
          "duration": 0.08,
          "phone": "n_B"
        },
        {
          "duration": 0.12,
          "phone": "aw_E"
        }
      ],
      "start": 14.91,
      "startOffset": 264,
      "word": "NOW"
    },
    {
      "alignedWord": "she",
      "case": "success",
      "end": 15.290000000000001,
      "endOffset": 271,
      "phones": [
        {
          "duration": 0.09,
          "phone": "sh_B"
        },
        {
          "duration": 0.07,
          "phone": "iy_E"
        }
      ],
      "start": 15.13,
      "startOffset": 268,
      "word": "SHE"
    },
    {
      "alignedWord": "said",
      "case": "success",
      "end": 15.5,
      "endOffset": 276,
      "phones": [
        {
          "duration": 0.08,
          "phone": "s_B"
        },
        {
          "duration": 0.1,
          "phone": "eh_I"
        },
        {
          "duration": 0.03,
          "phone": "d_E"
        }
      ],
      "start": 15.29,
      "startOffset": 272,
      "word": "SAID"
    }
  ]
}