{
  "transcript": "AND I COULD HEAR HER IMPLORING ALL THE SAINTS TO PRESERVE US FROM INSTANT DEATH I KEPT SHUTTING MY EYES TRYING NOT TO SEE THE TERRIFYING PLACES AND OPENING THEM AGAIN TO SEE THE BEAUTY SPREAD EVERYWHERE UNTIL MISTER STEWART SAID",
  "words": [
    {
      "alignedWord": "and",
      "case": "success",
      "end": 0.4,
      "endOffset": 3,
      "phones": [
        {
          "duration": 0.07,
          "phone": "ae_B"
        },
        {
          "duration": 0.05,
          "phone": "n_I"
        },
        {
          "duration": 0.05,
          "phone": "d_E"
        }
      ],
      "start": 0.23,
      "startOffset": 0,
      "word": "AND"
    },
    {
      "alignedWord": "i",
      "case": "success",
      "end": 0.47000000000000003,
      "endOffset": 5,
      "phones": [
        {
          "duration": 0.07,
          "phone": "ay_S"
        }
      ],
      "start": 0.4,
      "startOffset": 4,
      "word": "I"
    },
    {
      "alignedWord": "could",
      "case": "success",
      "end": 0.6599999999999999,
      "endOffset": 11,
      "phones": [
        {
          "duration": 0.06,
          "phone": "k_B"
        },
        {
          "duration": 0.05,
          "phone": "uh_I"
        },
        {
          "duration": 0.08,
          "phone": "d_E"
        }
      ],
      "start": 0.47,
      "startOffset": 6,
      "word": "COULD"
    },
    {
      "alignedWord": "hear",
      "case": "success",
      "end": 0.8600000000000001,
      "endOffset": 16,
      "phones": [
        {
          "duration": 0.05,
          "phone": "hh_B"
        },
        {
          "duration": 0.08,
          "phone": "iy_I"
        },
        {
          "duration": 0.07,
          "phone": "r_E"
        }
      ],
      "start": 0.66,
      "startOffset": 12,
      "word": "HEAR"
    },
    {
      "alignedWord": "her",
      "case": "success",
      "end": 1.03,
      "endOffset": 20,
      "phones": [
        {
          "duration": 0.08,
          "phone": "hh_B"
        },
        {
          "duration": 0.09,
          "phone": "er_E"
        }
      ],
      "start": 0.86,
      "startOffset": 17,
      "word": "HER"
    },
    {
      "alignedWord": "<unk>",
      "case": "success",
      "end": 1.62,
      "endOffset": 30,
      "phones": [
        {
          "duration": 0.59,
          "phone": "oov_S"
        }
      ],
      "start": 1.03,
      "startOffset": 21,
      "word": "IMPLORING"
    },
    {
      "alignedWord": "all",
      "case": "success",
      "end": 1.89,
      "endOffset": 34,
      "phones": [
        {
          "duration": 0.17,
          "phone": "ao_B"
        },
        {
          "duration": 0.09,
          "phone": "l_E"
        }
      ],
      "start": 1.63,
      "startOffset": 31,
      "word": "ALL"
    },
    {
      "alignedWord": "the",
      "case": "success",
      "end": 2.01,
      "endOffset": 38,
      "phones": [
        {
          "duration": 0.05,
          "phone": "dh_B"
        },
        {
          "duration": 0.07,
          "phone": "ah_E"
        }
      ],
      "start": 1.89,
      "startOffset": 35,
      "word": "THE"
    },
    {
      "alignedWord": "saints",
      "case": "success",
      "end": 2.3899999999999997,
      "endOffset": 45,
      "phones": [
        {
          "duration": 0.15,
          "phone": "s_B"
        },
        {
          "duration": 0.08,
          "phone": "ey_I"
        },
        {
          "duration": 0.05,
          "phone": "n_I"
        },
        {
          "duration": 0.04,
          "phone": "t_I"
        },
        {
          "duration": 0.06,
          "phone": "s_E"
        }
      ],
      "start": 2.01,
      "startOffset": 39,
      "word": "SAINTS"
    },
    {
      "alignedWord": "to",
      "case": "success",
      "end": 2.5,
      "endOffset": 48,
      "phones": [
        {
          "duration": 0.06,
          "phone": "t_B"
        },
        {
          "duration": 0.05,
          "phone": "ah_E"
        }
      ],
      "start": 2.39,
      "startOffset": 46,
      "word": "TO"
    },
    {
      "alignedWord": "preserve",
      "case": "success",
      "end": 2.93,
      "endOffset": 57,
      "phones": [
        {
          "duration": 0.06,
          "phone": "p_B"
        },
        {
          "duration": 0.03,
          "phone": "r_I"
        },
        {
          "duration": 0.07,
          "phone": "iy_I"
        },
        {
          "duration": 0.09,
          "phone": "z_I"
        },
        {
          "duration": 0.13,
          "phone": "er_I"
        },
        {
          "duration": 0.05,
          "phone": "v_E"
        }
      ],
      "start": 2.5,
      "startOffset": 49,
      "word": "PRESERVE"
    },
    {
      "alignedWord": "us",
      "case": "success",
      "end": 3.22,
      "endOffset": 60,
      "phones": [
        {
          "duration": 0.1,
          "phone": "ah_B"
        },
        {
          "duration": 0.19,
          "phone": "s_E"
        }
      ],
      "start": 2.93,
      "startOffset": 58,
      "word": "US"
    },
    {
      "alignedWord": "from",
      "case": "success",
      "end": 3.71,
      "endOffset": 65,
      "phones": [
        {
          "duration": 0.08,
          "phone": "f_B"
        },
        {
          "duration": 0.06,
          "phone": "er_I"
        },
        {
          "duration": 0.09,
          "phone": "m_E"
        }
      ],
      "start": 3.48,
      "startOffset": 61,
      "word": "FROM"
    },
    {
      "alignedWord": "instant",
      "case": "success",
      "end": 4.19,
      "endOffset": 73,
      "phones": [
        {
          "duration": 0.1,
          "phone": "ih_B"
        },
        {
          "duration": 0.06,
          "phone": "n_I"
        },
        {
          "duration": 0.07,
          "phone": "s_I"
        },
        {
          "duration": 0.06,
          "phone": "t_I"
        },
        {
          "duration": 0.06,
          "phone": "ah_I"
        },
        {
          "duration": 0.06,
          "phone": "n_I"
        },
        {
          "duration": 0.05,
          "phone": "t_E"
        }
      ],
      "start": 3.73,
      "startOffset": 66,
      "word": "INSTANT"
    },
    {
      "alignedWord": "death",
      "case": "success",
      "end": 4.590000000000001,
      "endOffset": 79,
      "phones": [
        {
          "duration": 0.09,
          "phone": "d_B"
        },
        {
          "duration": 0.15,
          "phone": "eh_I"
        },
        {
          "duration": 0.16,
          "phone": "th_E"
        }
      ],
      "start": 4.19,
      "startOffset": 74,
      "word": "DEATH"
    },
    {
      "alignedWord": "i",
      "case": "success",
      "end": 5.25,
      "endOffset": 81,
      "phones": [
        {
          "duration": 0.17,
          "phone": "ay_S"
        }
      ],
      "start": 5.08,
      "startOffset": 80,
      "word": "I"
    },
    {
      "alignedWord": "kept",
      "case": "success",
      "end": 5.48,
      "endOffset": 86,
      "phones": [
        {
          "duration": 0.09,
          "phone": "k_B"
        },
        {
          "duration": 0.05,
          "phone": "eh_I"
        },
        {
          "duration": 0.08,
          "phone": "p_I"
        },
        {
          "duration": 0.01,
          "phone": "t_E"
        }
      ],
      "start": 5.25,
      "startOffset": 82,
      "word": "KEPT"
    },
    {
      "alignedWord": "shutting",
      "case": "success",
      "end": 5.8500000000000005,
      "endOffset": 95,
      "phones": [
        {
          "duration": 0.11,
          "phone": "sh_B"
        },
        {
          "duration": 0.1,
          "phone": "ah_I"
        },
        {
          "duration": 0.01,
          "phone": "t_I"
        },
        {
          "duration": 0.07,
          "phone": "ih_I"
        },
        {
          "duration": 0.07,
          "phone": "ng_E"
        }
      ],
      "start": 5.49,
      "startOffset": 87,
      "word": "SHUTTING"
    },
    {
      "alignedWord": "my",
      "case": "success",
      "end": 6.029999999999999,
      "endOffset": 98,
      "phones": [
        {
          "duration": 0.06,
          "phone": "m_B"
        },
        {
          "duration": 0.12,
          "phone": "ay_E"
        }
      ],
      "start": 5.85,
      "startOffset": 96,
      "word": "MY"
    },
    {
      "alignedWord": "eyes",
      "case": "success",
      "end": 6.37,
      "endOffset": 103,
      "phones": [
        {
          "duration": 0.25,
          "phone": "ay_B"
        },
        {
          "duration": 0.09,
          "phone": "z_E"
        }
      ],
      "start": 6.03,
      "startOffset": 99,
      "word": "EYES"
    },
    {
      "alignedWord": "trying",
      "case": "success",
      "end": 6.7700000000000005,
      "endOffset": 110,
      "phones": [
        {
          "duration": 0.07,
          "phone": "t_B"
        },
        {
          "duration": 0.08,
          "phone": "r_I"
        },
        {
          "duration": 0.12,
          "phone": "ay_I"
        },
        {
          "duration": 0.1,
          "phone": "ng_E"
        }
      ],
      "start": 6.4,
      "startOffset": 104,
      "word": "TRYING"
    },
    {
      "alignedWord": "not",
      "case": "success",
      "end": 6.97,
      "endOffset": 114,
      "phones": [
        {
          "duration": 0.01,
          "phone": "n_B"
        },
        {
          "duration": 0.11,
          "phone": "aa_I"
        },
        {
          "duration": 0.08,
          "phone": "t_E"
        }
      ],
      "start": 6.77,
      "startOffset": 111,
      "word": "NOT"
    },
    {
      "alignedWord": "to",
      "case": "success",
      "end": 7.08,
      "endOffset": 117,
      "phones": [
        {
          "duration": 0.02,
          "phone": "t_B"
        },
        {
          "duration": 0.09,
          "phone": "ih_E"
        }
      ],
      "start": 6.97,
      "startOffset": 115,
      "word": "TO"
    },
    {
      "alignedWord": "see",
      "case": "success",
      "end": 7.32,
      "endOffset": 121,
      "phones": [
        {
          "duration": 0.12,
          "phone": "s_B"
        },
        {
          "duration": 0.12,
          "phone": "iy_E"
        }
      ],
      "start": 7.08,
      "startOffset": 118,
      "word": "SEE"
    },
    {
      "alignedWord": "the",
      "case": "success",
      "end": 7.44,
      "endOffset": 125,
      "phones": [
        {
          "duration": 0.06,
          "phone": "dh_B"
        },
        {
          "duration": 0.06,
          "phone": "ah_E"
        }
      ],
      "start": 7.32,
      "startOffset": 122,
      "word": "THE"
    },
    {
      "alignedWord": "terrifying",
      "case": "success",
      "end": 8.13,
      "endOffset": 136,
      "phones": [
        {
          "duration": 0.1,
          "phone": "t_B"
        },
        {
          "duration": 0.1,
          "phone": "eh_I"
        },
        {
          "duration": 0.06,
          "phone": "r_I"
        },
        {
          "duration": 0.08,
          "phone": "ah_I"
        },
        {
          "duration": 0.1,
          "phone": "f_I"
        },
        {
          "duration": 0.09,
          "phone": "ay_I"
        },
        {
          "duration": 0.05,
          "phone": "ih_I"
        },
        {
          "duration": 0.11,
          "phone": "ng_E"
        }
      ],
      "start": 7.44,
      "startOffset": 126,
      "word": "TERRIFYING"
    },
    {
      "alignedWord": "places",
      "case": "success",
      "end": 8.73,
      "endOffset": 143,
      "phones": [
        {
          "duration": 0.07,
          "phone": "p_B"
        },
        {
          "duration": 0.09,
          "phone": "l_I"
        },
        {
          "duration": 0.08,
          "phone": "ey_I"
        },
        {
          "duration": 0.1,
          "phone": "s_I"
        },
        {
          "duration": 0.1,
          "phone": "ih_I"
        },
        {
          "duration": 0.16,
          "phone": "z_E"
        }
      ],
      "start": 8.13,
      "startOffset": 137,
      "word": "PLACES"
    },
    {
      "alignedWord": "and",
      "case": "success",
      "end": 9.209999999999999,
      "endOffset": 147,
      "phones": [
        {
          "duration": 0.09,
          "phone": "ae_B"
        },
        {
          "duration": 0.07,
          "phone": "n_I"
        },
        {
          "duration": 0.03,
          "phone": "d_E"
        }
      ],
      "start": 9.02,
      "startOffset": 144,
      "word": "AND"
    },
    {
      "alignedWord": "opening",
      "case": "success",
      "end": 9.620000000000001,
      "endOffset": 155,
      "phones": [
        {
          "duration": 0.09,
          "phone": "ow_B"
        },
        {
          "duration": 0.07,
          "phone": "p_I"
        },
        {
          "duration": 0.05,
          "phone": "ah_I"
        },
        {
          "duration": 0.03,
          "phone": "n_I"
        },
        {
          "duration": 0.07,
          "phone": "ih_I"
        },
        {
          "duration": 0.1,
          "phone": "ng_E"
        }
      ],
      "start": 9.21,
      "startOffset": 148,
      "word": "OPENING"
    },
    {
      "alignedWord": "them",
      "case": "success",
      "end": 9.799999999999999,
      "endOffset": 160,
      "phones": [
        {
          "duration": 0.03,
          "phone": "dh_B"
        },
        {
          "duration": 0.09,
          "phone": "eh_I"
        },
        {
          "duration": 0.06,
          "phone": "m_E"
        }
      ],
      "start": 9.62,
      "startOffset": 156,
      "word": "THEM"
    },
    {
      "alignedWord": "again",
      "case": "success",
      "end": 10.14,
      "endOffset": 166,
      "phones": [
        {
          "duration": 0.06,
          "phone": "ah_B"
        },
        {
          "duration": 0.13,
          "phone": "g_I"
        },
        {
          "duration": 0.09,
          "phone": "eh_I"
        },
        {
          "duration": 0.06,
          "phone": "n_E"
        }
      ],
      "start": 9.8,
      "startOffset": 161,
      "word": "AGAIN"
    },
    {
      "alignedWord": "to",
      "case": "success",
      "end": 10.239999,
      "endOffset": 169,
      "phones": [
        {
          "duration": 0.04,
          "phone": "t_B"
        },
        {
          "duration": 0.06,
          "phone": "ih_E"
        }
      ],
      "start": 10.139999,
      "startOffset": 167,
      "word": "TO"
    },
    {
      "alignedWord": "see",
      "case": "success",
      "end": 10.44,
      "endOffset": 173,
      "phones": [
        {
          "duration": 0.12,
          "phone": "s_B"
        },
        {
          "duration": 0.08,
          "phone": "iy_E"
        }
      ],
      "start": 10.24,
      "startOffset": 170,
      "word": "SEE"
    },
    {
      "alignedWord": "the",
      "case": "success",
      "end": 10.57,
      "endOffset": 177,
      "phones": [
        {
          "duration": 0.06,
          "phone": "dh_B"
        },
        {
          "duration": 0.07,
          "phone": "ah_E"
        }
      ],
      "start": 10.44,
      "startOffset": 174,
      "word": "THE"
    },
    {
      "alignedWord": "beauty",
      "case": "success",
      "end": 11.1,
      "endOffset": 184,
      "phones": [
        {
          "duration": 0.09,
          "phone": "b_B"
        },
        {
          "duration": 0.15,
          "phone": "y_I"
        },
        {
          "duration": 0.11,
          "phone": "uw_I"
        },
        {
          "duration": 0.06,
          "phone": "t_I"
        },
        {
          "duration": 0.11,
          "phone": "iy_E"
        }
      ],
      "start": 10.58,
      "startOffset": 178,
      "word": "BEAUTY"
    },
    {
      "alignedWord": "spread",
      "case": "success",
      "end": 11.419999,
      "endOffset": 191,
      "phones": [
        {
          "duration": 0.09,
          "phone": "s_B"
        },
        {
          "duration": 0.08,
          "phone": "p_I"
        },
        {
          "duration": 0.04,
          "phone": "r_I"
        },
        {
          "duration": 0.06,
          "phone": "eh_I"
        },
        {
          "duration": 0.05,
          "phone": "d_E"
        }
      ],
      "start": 11.099999,
      "startOffset": 185,
      "word": "SPREAD"
    },
    {
      "alignedWord": "everywhere",
      "case": "success",
      "end": 12.06,
      "endOffset": 202,
      "phones": [
        {
          "duration": 0.09,
          "phone": "eh_B"
        },
        {
          "duration": 0.06,
          "phone": "v_I"
        },
        {
          "duration": 0.03,
          "phone": "r_I"
        },
        {
          "duration": 0.11,
          "phone": "iy_I"
        },
        {
          "duration": 0.06,
          "phone": "w_I"
        },
        {
          "duration": 0.09,
          "phone": "eh_I"
        },
        {
          "duration": 0.2,
          "phone": "r_E"
        }
      ],
      "start": 11.42,
      "startOffset": 192,
      "word": "EVERYWHERE"
    },
    {
      "alignedWord": "until",
      "case": "success",
      "end": 12.699999,
      "endOffset": 208,
      "phones": [
        {
          "duration": 0.08,
          "phone": "ah_B"
        },
        {
          "duration": 0.07,
          "phone": "n_I"
        },
        {
          "duration": 0.07,
          "phone": "t_I"
        },
        {
          "duration": 0.06,
          "phone": "ih_I"
        },
        {
          "duration": 0.07,
          "phone": "l_E"
        }
      ],
      "start": 12.349999,
      "startOffset": 203,
      "word": "UNTIL"
    },
    {
      "alignedWord": "mister",
      "case": "success",
      "end": 13.01,
      "endOffset": 215,
      "phones": [
        {
          "duration": 0.06,
          "phone": "m_B"
        },
        {
          "duration": 0.06,
          "phone": "ih_I"
        },
        {
          "duration": 0.05,
          "phone": "s_I"
        },
        {
          "duration": 0.08,
          "phone": "t_I"
        },
        {
          "duration": 0.06,
          "phone": "er_E"
        }
      ],
      "start": 12.7,
      "startOffset": 209,
      "word": "MISTER"
    },
    {
      "alignedWord": "stewart",
      "case": "success",
      "end": 13.389999000000001,
      "endOffset": 223,
      "phones": [
        {
          "duration": 0.07,
          "phone": "s_B"
        },
        {
          "duration": 0.07,
          "phone": "t_I"
        },
        {
          "duration": 0.09,
          "phone": "uw_I"
        },
        {
          "duration": 0.08,
          "phone": "er_I"
        },
        {
          "duration": 0.07,
          "phone": "t_E"
        }
      ],
      "start": 13.009999,
      "startOffset": 216,
      "word": "STEWART"
    },
    {
      "alignedWord": "said",
      "case": "success",
      "end": 13.779999,
      "endOffset": 228,
      "phones": [
        {
          "duration": 0.13,
          "phone": "s_B"
        },
        {
          "duration": 0.12,
          "phone": "eh_I"
        },
        {
          "duration": 0.14,
          "phone": "d_E"
        }
      ],
      "start": 13.389999,
      "startOffset": 224,
      "word": "SAID"
    }
  ]
}