{
  "transcript": "INTO THE KITCHEN SHE DASHED AND FLUNG HERSELF FACE DOWNWARD ON THE SOFA IN AN AGONY WHATEVER HAS GONE WRONG NOW ANNE QUERIED MARILLA IN DOUBT AND DISMAY I DO HOPE YOU HAVEN'T GONE AND BEEN SAUCY TO MISSUS LYNDE AGAIN",
  "words": [
    {
      "alignedWord": "into",
      "case": "success",
      "end": 0.5800000000000001,
      "endOffset": 4,
      "phones": [
        {
          "duration": 0.1,
          "phone": "ih_B"
        },
        {
          "duration": 0.07,
          "phone": "n_I"
        },
        {
          "duration": 0.05,
          "phone": "t_I"
        },
        {
          "duration": 0.06,
          "phone": "uw_E"
        }
      ],
      "start": 0.3,
      "startOffset": 0,
      "word": "INTO"
    },
    {
      "alignedWord": "the",
      "case": "success",
      "end": 0.69,
      "endOffset": 8,
      "phones": [
        {
          "duration": 0.06,
          "phone": "dh_B"
        },
        {
          "duration": 0.05,
          "phone": "ah_E"
        }
      ],
      "start": 0.58,
      "startOffset": 5,
      "word": "THE"
    },
    {
      "alignedWord": "kitchen",
      "case": "success",
      "end": 1.0899999999999999,
      "endOffset": 16,
      "phones": [
        {
          "duration": 0.12,
          "phone": "k_B"
        },
        {
          "duration": 0.06,
          "phone": "ih_I"
        },
        {
          "duration": 0.09,
          "phone": "ch_I"
        },
        {
          "duration": 0.06,
          "phone": "ah_I"
        },
        {
          "duration": 0.07,
          "phone": "n_E"
        }
      ],
      "start": 0.69,
      "startOffset": 9,
      "word": "KITCHEN"
    },
    {
      "alignedWord": "she",
      "case": "success",
      "end": 1.32,
      "endOffset": 20,
      "phones": [
        {
          "duration": 0.11,
          "phone": "sh_B"
        },
        {
          "duration": 0.12,
          "phone": "iy_E"
        }
      ],
      "start": 1.09,
      "startOffset": 17,
      "word": "SHE"
    },
    {
      "alignedWord": "dashed",
      "case": "success",
      "end": 1.77,
      "endOffset": 27,
      "phones": [
        {
          "duration": 0.09,
          "phone": "d_B"
        },
        {
          "duration": 0.2,
          "phone": "ae_I"
        },
        {
          "duration": 0.1,
          "phone": "sh_I"
        },
        {
          "duration": 0.05,
          "phone": "t_E"
        }
      ],
      "start": 1.33,
      "startOffset": 21,
      "word": "DASHED"
    },
    {
      "alignedWord": "and",
      "case": "success",
      "end": 1.96,
      "endOffset": 31,
      "phones": [
        {
          "duration": 0.04,
          "phone": "ae_B"
        },
        {
          "duration": 0.07,
          "phone": "n_I"
        },
        {
          "duration": 0.08,
          "phone": "d_E"
        }
      ],
      "start": 1.77,
      "startOffset": 28,
      "word": "AND"
    },
    {
      "alignedWord": "flung",
      "case": "success",
      "end": 2.29,
      "endOffset": 37,
      "phones": [
        {
          "duration": 0.12,
          "phone": "f_B"
        },
        {
          "duration": 0.09,
          "phone": "l_I"
        },
        {
          "duration": 0.08,
          "phone": "ah_I"
        },
        {
          "duration": 0.04,
          "phone": "ng_E"
        }
      ],
      "start": 1.96,
      "startOffset": 32,
      "word": "FLUNG"
    },
    {
      "alignedWord": "herself",
      "case": "success",
      "end": 2.75,
      "endOffset": 45,
      "phones": [
        {
          "duration": 0.09,
          "phone": "hh_B"
        },
        {
          "duration": 0.02,
          "phone": "er_I"
        },
        {
          "duration": 0.13,
          "phone": "s_I"
        },
        {
          "duration": 0.09,
          "phone": "eh_I"
        },
        {
          "duration": 0.06,
          "phone": "l_I"
        },
        {
          "duration": 0.06,
          "phone": "f_E"
        }
      ],
      "start": 2.3,
      "startOffset": 38,
      "word": "HERSELF"
    },
    {
      "alignedWord": "face",
      "case": "success",
      "end": 3.09,
      "endOffset": 50,
      "phones": [
        {
          "duration": 0.12,
          "phone": "f_B"
        },
        {
          "duration": 0.12,
          "phone": "ey_I"
        },
        {
          "duration": 0.09,
          "phone": "s_E"
        }
      ],
      "start": 2.76,
      "startOffset": 46,
      "word": "FACE"
    },
    {
      "alignedWord": "downward",
      "case": "success",
      "end": 3.5,
      "endOffset": 59,
      "phones": [
        {
          "duration": 0.08,
          "phone": "d_B"
        },
        {
          "duration": 0.13,
          "phone": "aw_I"
        },
        {
          "duration": 0.08,
          "phone": "n_I"
        },
        {
          "duration": 0.02,
          "phone": "w_I"
        },
        {
          "duration": 0.03,
          "phone": "er_I"
        },
        {
          "duration": 0.07,
          "phone": "d_E"
        }
      ],
      "start": 3.09,
      "startOffset": 51,
      "word": "DOWNWARD"
    },
    {
      "alignedWord": "on",
      "case": "success",
      "end": 3.62,
      "endOffset": 62,
      "phones": [
        {
          "duration": 0.06,
          "phone": "aa_B"
        },
        {
          "duration": 0.06,
          "phone": "n_E"
        }
      ],
      "start": 3.5,
      "startOffset": 60,
      "word": "ON"
    },
    {
      "alignedWord": "the",
      "case": "success",
      "end": 3.7,
      "endOffset": 66,
      "phones": [
        {
          "duration": 0.05,
          "phone": "dh_B"
        },
        {
          "duration": 0.03,
          "phone": "ah_E"
        }
      ],
      "start": 3.62,
      "startOffset": 63,
      "word": "THE"
    },
    {
      "alignedWord": "sofa",
      "case": "success",
      "end": 4.18,
      "endOffset": 71,
      "phones": [
        {
          "duration": 0.13,
          "phone": "s_B"
        },
        {
          "duration": 0.14,
          "phone": "ow_I"
        },
        {
          "duration": 0.09,
          "phone": "f_I"
        },
        {
          "duration": 0.11,
          "phone": "ah_E"
        }
      ],
      "start": 3.71,
      "startOffset": 67,
      "word": "SOFA"
    },
    {
      "alignedWord": "in",
      "case": "success",
      "end": 4.32,
      "endOffset": 74,
      "phones": [
        {
          "duration": 0.07,
          "phone": "ih_B"
        },
        {
          "duration": 0.06,
          "phone": "n_E"
        }
      ],
      "start": 4.19,
      "startOffset": 72,
      "word": "IN"
    },
    {
      "alignedWord": "an",
      "case": "success",
      "end": 4.45,
      "endOffset": 77,
      "phones": [
        {
          "duration": 0.05,
          "phone": "ah_B"
        },
        {
          "duration": 0.08,
          "phone": "n_E"
        }
      ],
      "start": 4.32,
      "startOffset": 75,
      "word": "AN"
    },
    {
      "alignedWord": "agony",
      "case": "success",
      "end": 5.0,
      "endOffset": 83,
      "phones": [
        {
          "duration": 0.18,
          "phone": "ae_B"
        },
        {
          "duration": 0.07,
          "phone": "g_I"
        },
        {
          "duration": 0.06,
          "phone": "ah_I"
        },
        {
          "duration": 0.06,
          "phone": "n_I"
        },
        {
          "duration": 0.16,
          "phone": "iy_E"
        }
      ],
      "start": 4.47,
      "startOffset": 78,
      "word": "AGONY"
    },
    {
      "alignedWord": "whatever",
      "case": "success",
      "end": 5.8100000000000005,
      "endOffset": 92,
      "phones": [
        {
          "duration": 0.05,
          "phone": "hh_B"
        },
        {
          "duration": 0.08,
          "phone": "w_I"
        },
        {
          "duration": 0.07,
          "phone": "ah_I"
        },
        {
          "duration": 0.04,
          "phone": "t_I"
        },
        {
          "duration": 0.09,
          "phone": "eh_I"
        },
        {
          "duration": 0.1,
          "phone": "v_I"
        },
        {
          "duration": 0.09,
          "phone": "er_E"
        }
      ],
      "start": 5.29,
      "startOffset": 84,
      "word": "WHATEVER"
    },
    {
      "alignedWord": "has",
      "case": "success",
      "end": 6.029999999999999,
      "endOffset": 96,
      "phones": [
        {
          "duration": 0.05,
          "phone": "hh_B"
        },
        {
          "duration": 0.09,
          "phone": "ae_I"
        },
        {
          "duration": 0.08,
          "phone": "z_E"
        }
      ],
      "start": 5.81,
      "startOffset": 93,
      "word": "HAS"
    },
    {
      "alignedWord": "gone",
      "case": "success",
      "end": 6.37,
      "endOffset": 101,
      "phones": [
        {
          "duration": 0.07,
          "phone": "g_B"
        },
        {
          "duration": 0.16,
          "phone": "ao_I"
        },
        {
          "duration": 0.11,
          "phone": "n_E"
        }
      ],
      "start": 6.03,
      "startOffset": 97,
      "word": "GONE"
    },
    {
      "alignedWord": "wrong",
      "case": "success",
      "end": 6.75,
      "endOffset": 107,
      "phones": [
        {
          "duration": 0.1,
          "phone": "r_B"
        },
        {
          "duration": 0.18,
          "phone": "ao_I"
        },
        {
          "duration": 0.1,
          "phone": "ng_E"
        }
      ],
      "start": 6.37,
      "startOffset": 102,
      "word": "WRONG"
    },
    {
      "alignedWord": "now",
      "case": "success",
      "end": 7.24,
      "endOffset": 111,
      "phones": [
        {
          "duration": 0.14,
          "phone": "n_B"
        },
        {
          "duration": 0.34,
          "phone": "aw_E"
        }
      ],
      "start": 6.76,
      "startOffset": 108,
      "word": "NOW"
    },
    {
      "alignedWord": "anne",
      "case": "success",
      "end": 7.76,
      "endOffset": 116,
      "phones": [
        {
          "duration": 0.29,
          "phone": "ae_B"
        },
        {
          "duration": 0.21,
          "phone": "n_E"
        }
      ],
      "start": 7.26,
      "startOffset": 112,
      "word": "ANNE"
    },
    {
      "alignedWord": "<unk>",
      "case": "success",
      "end": 8.83,
      "endOffset": 124,
      "phones": [
        {
          "duration": 0.93,
          "phone": "oov_S"
        }
      ],
      "start": 7.9,
      "startOffset": 117,
      "word": "QUERIED"
    },
    {
      "case": "not-found-in-audio",
      "endOffset": 132,
      "startOffset": 125,
      "word": "MARILLA"
    },
    {
      "alignedWord": "in",
      "case": "success",
      "end": 9.059999999999999,
      "endOffset": 135,
      "phones": [
        {
          "duration": 0.11,
          "phone": "ih_B"
        },
        {
          "duration": 0.08,
          "phone": "n_E"
        }
      ],
      "start": 8.87,
      "startOffset": 133,
      "word": "IN"
    },
    {
      "alignedWord": "doubt",
      "case": "success",
      "end": 9.41,
      "endOffset": 141,
      "phones": [
        {
          "duration": 0.11,
          "phone": "d_B"
        },
        {
          "duration": 0.12,
          "phone": "aw_I"
        },
        {
          "duration": 0.11,
          "phone": "t_E"
        }
      ],
      "start": 9.07,
      "startOffset": 136,
      "word": "DOUBT"
    },
    {
      "alignedWord": "and",
      "case": "success",
      "end": 9.56,
      "endOffset": 145,
      "phones": [
        {
          "duration": 0.03,
          "phone": "ah_B"
        },
        {
          "duration": 0.04,
          "phone": "n_I"
        },
        {
          "duration": 0.07,
          "phone": "d_E"
        }
      ],
      "start": 9.42,
      "startOffset": 142,
      "word": "AND"
    },
    {
      "alignedWord": "dismay",
      "case": "success",
      "end": 10.139999,
      "endOffset": 152,
      "phones": [
        {
          "duration": 0.02,
          "phone": "d_B"
        },
        {
          "duration": 0.08,
          "phone": "ih_I"
        },
        {
          "duration": 0.09,
          "phone": "s_I"
        },
        {
          "duration": 0.09,
          "phone": "m_I"
        },
        {
          "duration": 0.3,
          "phone": "ey_E"
        }
      ],
      "start": 9.559999,
      "startOffset": 146,
      "word": "DISMAY"
    },
    {
      "alignedWord": "i",
      "case": "success",
      "end": 10.56,
      "endOffset": 154,
      "phones": [
        {
          "duration": 0.18,
          "phone": "ay_S"
        }
      ],
      "start": 10.38,
      "startOffset": 153,
      "word": "I"
    },
    {
      "alignedWord": "do",
      "case": "success",
      "end": 10.909999,
      "endOffset": 157,
      "phones": [
        {
          "duration": 0.17,
          "phone": "d_B"
        },
        {
          "duration": 0.18,
          "phone": "uw_E"
        }
      ],
      "start": 10.559999,
      "startOffset": 155,
      "word": "DO"
    },
    {
      "alignedWord": "hope",
      "case": "success",
      "end": 11.17,
      "endOffset": 162,
      "phones": [
        {
          "duration": 0.09,
          "phone": "hh_B"
        },
        {
          "duration": 0.09,
          "phone": "ow_I"
        },
        {
          "duration": 0.08,
          "phone": "p_E"
        }
      ],
      "start": 10.91,
      "startOffset": 158,
      "word": "HOPE"
    },
    {
      "alignedWord": "you",
      "case": "success",
      "end": 11.3,
      "endOffset": 166,
      "phones": [
        {
          "duration": 0.03,
          "phone": "y_B"
        },
        {
          "duration": 0.1,
          "phone": "uw_E"
        }
      ],
      "start": 11.17,
      "startOffset": 163,
      "word": "YOU"
    },
    {
      "alignedWord": "haven't",
      "case": "success",
      "end": 11.629999,
      "endOffset": 174,
      "phones": [
        {
          "duration": 0.08,
          "phone": "hh_B"
        },
        {
          "duration": 0.07,
          "phone": "ae_I"
        },
        {
          "duration": 0.03,
          "phone": "v_I"
        },
        {
          "duration": 0.05,
          "phone": "ah_I"
        },
        {
          "duration": 0.09,
          "phone": "n_E"
        }
      ],
      "start": 11.309999,
      "startOffset": 167,
      "word": "HAVEN'T"
    },
    {
      "alignedWord": "gone",
      "case": "success",
      "end": 11.88,
      "endOffset": 179,
      "phones": [
        {
          "duration": 0.05,
          "phone": "g_B"
        },
        {
          "duration": 0.14,
          "phone": "ao_I"
        },
        {
          "duration": 0.06,
          "phone": "n_E"
        }
      ],
      "start": 11.63,
      "startOffset": 175,
      "word": "GONE"
    },
    {
      "alignedWord": "and",
      "case": "success",
      "end": 12.010000000000002,
      "endOffset": 183,
      "phones": [
        {
          "duration": 0.05,
          "phone": "ae_B"
        },
        {
          "duration": 0.03,
          "phone": "n_I"
        },
        {
          "duration": 0.05,
          "phone": "d_E"
        }
      ],
      "start": 11.88,
      "startOffset": 180,
      "word": "AND"
    },
    {
      "alignedWord": "been",
      "case": "success",
      "end": 12.189999,
      "endOffset": 188,
      "phones": [
        {
          "duration": 0.04,
          "phone": "b_B"
        },
        {
          "duration": 0.06,
          "phone": "ih_I"
        },
        {
          "duration": 0.08,
          "phone": "n_E"
        }
      ],
      "start": 12.009999,
      "startOffset": 184,
      "word": "BEEN"
    },
    {
      "alignedWord": "saucy",
      "case": "success",
      "end": 12.68,
      "endOffset": 194,
      "phones": [
        {
          "duration": 0.14,
          "phone": "s_B"
        },
        {
          "duration": 0.15,
          "phone": "ao_I"
        },
        {
          "duration": 0.11,
          "phone": "s_I"
        },
        {
          "duration": 0.09,
          "phone": "iy_E"
        }
      ],
      "start": 12.19,
      "startOffset": 189,
      "word": "SAUCY"
    },
    {
      "alignedWord": "to",
      "case": "success",
      "end": 12.809999000000001,
      "endOffset": 197,
      "phones": [
        {
          "duration": 0.06,
          "phone": "t_B"
        },
        {
          "duration": 0.07,
          "phone": "ih_E"
        }
      ],
      "start": 12.679999,
      "startOffset": 195,
      "word": "TO"
    },
    {
      "alignedWord": "missus",
      "case": "success",
      "end": 13.149999,
      "endOffset": 204,
      "phones": [
        {
          "duration": 0.07,
          "phone": "m_B"
        },
        {
          "duration": 0.07,
          "phone": "ih_I"
        },
        {
          "duration": 0.06,
          "phone": "s_I"
        },
        {
          "duration": 0.05,
          "phone": "ih_I"
        },
        {
          "duration": 0.09,
          "phone": "z_E"
        }
      ],
      "start": 12.809999,
      "startOffset": 198,
      "word": "MISSUS"
    },
    {
      "alignedWord": "<unk>",
      "case": "success",
      "end": 13.52,
      "endOffset": 210,
      "phones": [
        {
          "duration": 0.36,
          "phone": "oov_S"
        }
      ],
      "start": 13.16,
      "startOffset": 205,
      "word": "LYNDE"
    },
    {
      "alignedWord": "again",
      "case": "success",
      "end": 13.889999999999999,
      "endOffset": 216,
      "phones": [
        {
          "duration": 0.01,
          "phone": "ah_B"
        },
        {
          "duration": 0.1,
          "phone": "g_I"
        },
        {
          "duration": 0.12,
          "phone": "eh_I"
        },
        {
          "duration": 0.14,
          "phone": "n_E"
        }
      ],
      "start": 13.52,
      "startOffset": 211,
      "word": "AGAIN"
    }
  ]
}