{
  "transcript": "AND HIS EYES FIXED ON D'ARTAGNAN WHO WAS EITHER THINKING DREAMING OR SLEEPING WITH HIS EYES OPEN",
  "words": [
    {
      "alignedWord": "and",
      "case": "success",
      "end": 0.26,
      "endOffset": 3,
      "phones": [
        {
          "duration": 0.05,
          "phone": "ae_B"
        },
        {
          "duration": 0.04,
          "phone": "n_I"
        },
        {
          "duration": 0.03,
          "phone": "d_E"
        }
      ],
      "start": 0.14,
      "startOffset": 0,
      "word": "AND"
    },
    {
      "alignedWord": "his",
      "case": "success",
      "end": 0.41000000000000003,
      "endOffset": 7,
      "phones": [
        {
          "duration": 0.01,
          "phone": "hh_B"
        },
        {
          "duration": 0.05,
          "phone": "ih_I"
        },
        {
          "duration": 0.09,
          "phone": "z_E"
        }
      ],
      "start": 0.26,
      "startOffset": 4,
      "word": "HIS"
    },
    {
      "alignedWord": "eyes",
      "case": "success",
      "end": 0.87,
      "endOffset": 12,
      "phones": [
        {
          "duration": 0.3,
          "phone": "ay_B"
        },
        {
          "duration": 0.12,
          "phone": "z_E"
        }
      ],
      "start": 0.45,
      "startOffset": 8,
      "word": "EYES"
    },
    {
      "alignedWord": "fixed",
      "case": "success",
      "end": 1.27,
      "endOffset": 18,
      "phones": [
        {
          "duration": 0.09,
          "phone": "f_B"
        },
        {
          "duration": 0.08,
          "phone": "ih_I"
        },
        {
          "duration": 0.07,
          "phone": "k_I"
        },
        {
          "duration": 0.06,
          "phone": "s_I"
        },
        {
          "duration": 0.08,
          "phone": "t_E"
        }
      ],
      "start": 0.89,
      "startOffset": 13,
      "word": "FIXED"
    },
    {
      "alignedWord": "on",
      "case": "success",
      "end": 1.75,
      "endOffset": 21,
      "phones": [
        {
          "duration": 0.1,
          "phone": "ao_B"
        },
        {
          "duration": 0.08,
          "phone": "n_E"
        }
      ],
      "start": 1.57,
      "startOffset": 19,
      "word": "ON"
    },
    {
      "alignedWord": "<unk>",
      "case": "success",
      "end": 2.5700000000000003,
      "endOffset": 32,
      "phones": [
        {
          "duration": 0.81,
          "phone": "oov_S"
        }
      ],
      "start": 1.76,
      "startOffset": 22,
      "word": "D'ARTAGNAN"
    },
    {
      "alignedWord": "who",
      "case": "success",
      "end": 2.75,
      "endOffset": 36,
      "phones": [
        {
          "duration": 0.08,
          "phone": "hh_B"
        },
        {
          "duration": 0.06,
          "phone": "uw_E"
        }
      ],
      "start": 2.61,
      "startOffset": 33,
      "word": "WHO"
    },
    {
      "alignedWord": "was",
      "case": "success",
      "end": 2.9,
      "endOffset": 40,
      "phones": [
        {
          "duration": 0.03,
          "phone": "w_B"
        },
        {
          "duration": 0.05,
          "phone": "ah_I"
        },
        {
          "duration": 0.07,
          "phone": "z_E"
        }
      ],
      "start": 2.75,
      "startOffset": 37,
      "word": "WAS"
    },
    {
      "alignedWord": "either",
      "case": "success",
      "end": 3.12,
      "endOffset": 47,
      "phones": [
        {
          "duration": 0.07,
          "phone": "iy_B"
        },
        {
          "duration": 0.07,
          "phone": "dh_I"
        },
        {
          "duration": 0.08,
          "phone": "er_E"
        }
      ],
      "start": 2.9,
      "startOffset": 41,
      "word": "EITHER"
    },
    {
      "alignedWord": "thinking",
      "case": "success",
      "end": 3.5700000000000003,
      "endOffset": 56,
      "phones": [
        {
          "duration": 0.07,
          "phone": "th_B"
        },
        {
          "duration": 0.04,
          "phone": "ih_I"
        },
        {
          "duration": 0.07,
          "phone": "ng_I"
        },
        {
          "duration": 0.05,
          "phone": "k_I"
        },
        {
          "duration": 0.08,
          "phone": "ih_I"
        },
        {
          "duration": 0.14,
          "phone": "ng_E"
        }
      ],
      "start": 3.12,
      "startOffset": 48,
      "word": "THINKING"
    },
    {
      "alignedWord": "dreaming",
      "case": "success",
      "end": 4.3500000000000005,
      "endOffset": 65,
      "phones": [
        {
          "duration": 0.08,
          "phone": "d_B"
        },
        {
          "duration": 0.08,
          "phone": "r_I"
        },
        {
          "duration": 0.08,
          "phone": "iy_I"
        },
        {
          "duration": 0.04,
          "phone": "m_I"
        },
        {
          "duration": 0.07,
          "phone": "ih_I"
        },
        {
          "duration": 0.07,
          "phone": "ng_E"
        }
      ],
      "start": 3.93,
      "startOffset": 57,
      "word": "DREAMING"
    },
    {
      "alignedWord": "or",
      "case": "success",
      "end": 4.5200000000000005,
      "endOffset": 68,
      "phones": [
        {
          "duration": 0.08,
          "phone": "ao_B"
        },
        {
          "duration": 0.08,
          "phone": "r_E"
        }
      ],
      "start": 4.36,
      "startOffset": 66,
      "word": "OR"
    },
    {
      "alignedWord": "sleeping",
      "case": "success",
      "end": 5.09,
      "endOffset": 77,
      "phones": [
        {
          "duration": 0.12,
          "phone": "s_B"
        },
        {
          "duration": 0.08,
          "phone": "l_I"
        },
        {
          "duration": 0.05,
          "phone": "iy_I"
        },
        {
          "duration": 0.06,
          "phone": "p_I"
        },
        {
          "duration": 0.09,
          "phone": "ih_I"
        },
        {
          "duration": 0.17,
          "phone": "ng_E"
        }
      ],
      "start": 4.52,
      "startOffset": 69,
      "word": "SLEEPING"
    },
    {
      "alignedWord": "with",
      "case": "success",
      "end": 5.3,
      "endOffset": 82,
      "phones": [
        {
          "duration": 0.08,
          "phone": "w_B"
        },
        {
          "duration": 0.05,
          "phone": "ih_I"
        },
        {
          "duration": 0.04,
          "phone": "th_E"
        }
      ],
      "start": 5.13,
      "startOffset": 78,
      "word": "WITH"
    },
    {
      "alignedWord": "his",
      "case": "success",
      "end": 5.4799999999999995,
      "endOffset": 86,
      "phones": [
        {
          "duration": 0.05,
          "phone": "hh_B"
        },
        {
          "duration": 0.03,
          "phone": "ih_I"
        },
        {
          "duration": 0.1,
          "phone": "z_E"
        }
      ],
      "start": 5.3,
      "startOffset": 83,
      "word": "HIS"
    },
    {
      "alignedWord": "eyes",
      "case": "success",
      "end": 5.7,
      "endOffset": 91,
      "phones": [
        {
          "duration": 0.13,
          "phone": "ay_B"
        },
        {
          "duration": 0.09,
          "phone": "z_E"
        }
      ],
      "start": 5.48,
      "startOffset": 87,
      "word": "EYES"
    },
    {
      "alignedWord": "open",
      "case": "success",
      "end": 6.04,
      "endOffset": 96,
      "phones": [
        {
          "duration": 0.08,
          "phone": "ow_B"
        },
        {
          "duration": 0.06,
          "phone": "p_I"
        },
        {
          "duration": 0.07,
          "phone": "ah_I"
        },
        {
          "duration": 0.13,
          "phone": "n_E"
        }
      ],
      "start": 5.7,
      "startOffset": 92,
      "word": "OPEN"
    }
  ]
}