{
  "transcript": "THERE WAS A PAUSE THEN TRIGGER ASKED HOW DID YOU GET INVOLVED IN THIS PERSONALLY MORE OR LESS BY ACCIDENT THE COMMISSIONER SAID IT WAS IN CONNECTION WITH OUR SECOND LEAD THAT'S ME HUH SHE SAID UNHAPPILY YES",
  "words": [
    {
      "alignedWord": "there",
      "case": "success",
      "end": 0.5900000000000001,
      "endOffset": 5,
      "phones": [
        {
          "duration": 0.09,
          "phone": "dh_B"
        },
        {
          "duration": 0.06,
          "phone": "eh_I"
        },
        {
          "duration": 0.05,
          "phone": "r_E"
        }
      ],
      "start": 0.39,
      "startOffset": 0,
      "word": "THERE"
    },
    {
      "alignedWord": "was",
      "case": "success",
      "end": 0.77,
      "endOffset": 9,
      "phones": [
        {
          "duration": 0.06,
          "phone": "w_B"
        },
        {
          "duration": 0.05,
          "phone": "ah_I"
        },
        {
          "duration": 0.07,
          "phone": "z_E"
        }
      ],
      "start": 0.59,
      "startOffset": 6,
      "word": "WAS"
    },
    {
      "alignedWord": "a",
      "case": "success",
      "end": 0.8400000000000001,
      "endOffset": 11,
      "phones": [
        {
          "duration": 0.07,
          "phone": "ah_S"
        }
      ],
      "start": 0.77,
      "startOffset": 10,
      "word": "A"
    },
    {
      "alignedWord": "pause",
      "case": "success",
      "end": 1.42,
      "endOffset": 17,
      "phones": [
        {
          "duration": 0.1,
          "phone": "p_B"
        },
        {
          "duration": 0.27,
          "phone": "ao_I"
        },
        {
          "duration": 0.21,
          "phone": "z_E"
        }
      ],
      "start": 0.84,
      "startOffset": 12,
      "word": "PAUSE"
    },
    {
      "alignedWord": "then",
      "case": "success",
      "end": 2.18,
      "endOffset": 22,
      "phones": [
        {
          "duration": 0.08,
          "phone": "dh_B"
        },
        {
          "duration": 0.05,
          "phone": "eh_I"
        },
        {
          "duration": 0.07,
          "phone": "n_E"
        }
      ],
      "start": 1.98,
      "startOffset": 18,
      "word": "THEN"
    },
    {
      "alignedWord": "trigger",
      "case": "success",
      "end": 2.54,
      "endOffset": 30,
      "phones": [
        {
          "duration": 0.07,
          "phone": "t_B"
        },
        {
          "duration": 0.04,
          "phone": "r_I"
        },
        {
          "duration": 0.06,
          "phone": "ih_I"
        },
        {
          "duration": 0.08,
          "phone": "g_I"
        },
        {
          "duration": 0.11,
          "phone": "er_E"
        }
      ],
      "start": 2.18,
      "startOffset": 23,
      "word": "TRIGGER"
    },
    {
      "alignedWord": "asked",
      "case": "success",
      "end": 3.0,
      "endOffset": 36,
      "phones": [
        {
          "duration": 0.17,
          "phone": "ae_B"
        },
        {
          "duration": 0.1,
          "phone": "s_I"
        },
        {
          "duration": 0.17,
          "phone": "t_E"
        }
      ],
      "start": 2.56,
      "startOffset": 31,
      "word": "ASKED"
    },
    {
      "alignedWord": "how",
      "case": "success",
      "end": 3.51,
      "endOffset": 40,
      "phones": [
        {
          "duration": 0.08,
          "phone": "hh_B"
        },
        {
          "duration": 0.07,
          "phone": "aw_E"
        }
      ],
      "start": 3.36,
      "startOffset": 37,
      "word": "HOW"
    },
    {
      "alignedWord": "did",
      "case": "success",
      "end": 3.6999999999999997,
      "endOffset": 44,
      "phones": [
        {
          "duration": 0.09,
          "phone": "d_B"
        },
        {
          "duration": 0.03,
          "phone": "ih_I"
        },
        {
          "duration": 0.07,
          "phone": "d_E"
        }
      ],
      "start": 3.51,
      "startOffset": 41,
      "word": "DID"
    },
    {
      "alignedWord": "you",
      "case": "success",
      "end": 3.81,
      "endOffset": 48,
      "phones": [
        {
          "duration": 0.04,
          "phone": "y_B"
        },
        {
          "duration": 0.07,
          "phone": "uw_E"
        }
      ],
      "start": 3.7,
      "startOffset": 45,
      "word": "YOU"
    },
    {
      "alignedWord": "get",
      "case": "success",
      "end": 3.9699999999999998,
      "endOffset": 52,
      "phones": [
        {
          "duration": 0.04,
          "phone": "g_B"
        },
        {
          "duration": 0.06,
          "phone": "ih_I"
        },
        {
          "duration": 0.05,
          "phone": "t_E"
        }
      ],
      "start": 3.82,
      "startOffset": 49,
      "word": "GET"
    },
    {
      "alignedWord": "involved",
      "case": "success",
      "end": 4.430000000000001,
      "endOffset": 61,
      "phones": [
        {
          "duration": 0.07,
          "phone": "ih_B"
        },
        {
          "duration": 0.07,
          "phone": "n_I"
        },
        {
          "duration": 0.08,
          "phone": "v_I"
        },
        {
          "duration": 0.08,
          "phone": "aa_I"
        },
        {
          "duration": 0.09,
          "phone": "l_I"
        },
        {
          "duration": 0.02,
          "phone": "v_I"
        },
        {
          "duration": 0.05,
          "phone": "d_E"
        }
      ],
      "start": 3.97,
      "startOffset": 53,
      "word": "INVOLVED"
    },
    {
      "alignedWord": "in",
      "case": "success",
      "end": 4.529999999999999,
      "endOffset": 64,
      "phones": [
        {
          "duration": 0.06,
          "phone": "ih_B"
        },
        {
          "duration": 0.04,
          "phone": "n_E"
        }
      ],
      "start": 4.43,
      "startOffset": 62,
      "word": "IN"
    },
    {
      "alignedWord": "this",
      "case": "success",
      "end": 4.86,
      "endOffset": 69,
      "phones": [
        {
          "duration": 0.08,
          "phone": "dh_B"
        },
        {
          "duration": 0.08,
          "phone": "ih_I"
        },
        {
          "duration": 0.17,
          "phone": "s_E"
        }
      ],
      "start": 4.53,
      "startOffset": 65,
      "word": "THIS"
    },
    {
      "alignedWord": "personally",
      "case": "success",
      "end": 5.58,
      "endOffset": 80,
      "phones": [
        {
          "duration": 0.1,
          "phone": "p_B"
        },
        {
          "duration": 0.09,
          "phone": "er_I"
        },
        {
          "duration": 0.12,
          "phone": "s_I"
        },
        {
          "duration": 0.02,
          "phone": "ah_I"
        },
        {
          "duration": 0.02,
          "phone": "n_I"
        },
        {
          "duration": 0.07,
          "phone": "ah_I"
        },
        {
          "duration": 0.06,
          "phone": "l_I"
        },
        {
          "duration": 0.19,
          "phone": "iy_E"
        }
      ],
      "start": 4.91,
      "startOffset": 70,
      "word": "PERSONALLY"
    },
    {
      "alignedWord": "more",
      "case": "success",
      "end": 6.92,
      "endOffset": 85,
      "phones": [
        {
          "duration": 0.12,
          "phone": "m_B"
        },
        {
          "duration": 0.13,
          "phone": "ao_I"
        },
        {
          "duration": 0.1,
          "phone": "r_E"
        }
      ],
      "start": 6.57,
      "startOffset": 81,
      "word": "MORE"
    },
    {
      "alignedWord": "or",
      "case": "success",
      "end": 7.01,
      "endOffset": 88,
      "phones": [
        {
          "duration": 0.09,
          "phone": "er_S"
        }
      ],
      "start": 6.92,
      "startOffset": 86,
      "word": "OR"
    },
    {
      "alignedWord": "less",
      "case": "success",
      "end": 7.279999999999999,
      "endOffset": 93,
      "phones": [
        {
          "duration": 0.07,
          "phone": "l_B"
        },
        {
          "duration": 0.08,
          "phone": "eh_I"
        },
        {
          "duration": 0.12,
          "phone": "s_E"
        }
      ],
      "start": 7.01,
      "startOffset": 89,
      "word": "LESS"
    },
    {
      "alignedWord": "by",
      "case": "success",
      "end": 7.47,
      "endOffset": 96,
      "phones": [
        {
          "duration": 0.08,
          "phone": "b_B"
        },
        {
          "duration": 0.1,
          "phone": "ay_E"
        }
      ],
      "start": 7.29,
      "startOffset": 94,
      "word": "BY"
    },
    {
      "alignedWord": "accident",
      "case": "success",
      "end": 8.030000000000001,
      "endOffset": 105,
      "phones": [
        {
          "duration": 0.16,
          "phone": "ae_B"
        },
        {
          "duration": 0.07,
          "phone": "k_I"
        },
        {
          "duration": 0.04,
          "phone": "s_I"
        },
        {
          "duration": 0.08,
          "phone": "ah_I"
        },
        {
          "duration": 0.03,
          "phone": "d_I"
        },
        {
          "duration": 0.08,
          "phone": "ah_I"
        },
        {
          "duration": 0.04,
          "phone": "n_I"
        },
        {
          "duration": 0.05,
          "phone": "t_E"
        }
      ],
      "start": 7.48,
      "startOffset": 97,
      "word": "ACCIDENT"
    },
    {
      "alignedWord": "the",
      "case": "success",
      "end": 8.12,
      "endOffset": 109,
      "phones": [
        {
          "duration": 0.04,
          "phone": "dh_B"
        },
        {
          "duration": 0.05,
          "phone": "ah_E"
        }
      ],
      "start": 8.03,
      "startOffset": 106,
      "word": "THE"
    },
    {
      "alignedWord": "commissioner",
      "case": "success",
      "end": 8.59,
      "endOffset": 122,
      "phones": [
        {
          "duration": 0.05,
          "phone": "k_B"
        },
        {
          "duration": 0.05,
          "phone": "ah_I"
        },
        {
          "duration": 0.05,
          "phone": "m_I"
        },
        {
          "duration": 0.06,
          "phone": "ih_I"
        },
        {
          "duration": 0.08,
          "phone": "sh_I"
        },
        {
          "duration": 0.04,
          "phone": "ah_I"
        },
        {
          "duration": 0.06,
          "phone": "n_I"
        },
        {
          "duration": 0.08,
          "phone": "er_E"
        }
      ],
      "start": 8.12,
      "startOffset": 110,
      "word": "COMMISSIONER"
    },
    {
      "alignedWord": "said",
      "case": "success",
      "end": 8.95,
      "endOffset": 127,
      "phones": [
        {
          "duration": 0.1,
          "phone": "s_B"
        },
        {
          "duration": 0.11,
          "phone": "eh_I"
        },
        {
          "duration": 0.15,
          "phone": "d_E"
        }
      ],
      "start": 8.59,
      "startOffset": 123,
      "word": "SAID"
    },
    {
      "alignedWord": "it",
      "case": "success",
      "end": 9.57,
      "endOffset": 130,
      "phones": [
        {
          "duration": 0.09,
          "phone": "ih_B"
        },
        {
          "duration": 0.07,
          "phone": "t_E"
        }
      ],
      "start": 9.41,
      "startOffset": 128,
      "word": "IT"
    },
    {
      "alignedWord": "was",
      "case": "success",
      "end": 9.75,
      "endOffset": 134,
      "phones": [
        {
          "duration": 0.06,
          "phone": "w_B"
        },
        {
          "duration": 0.07,
          "phone": "ah_I"
        },
        {
          "duration": 0.05,
          "phone": "z_E"
        }
      ],
      "start": 9.57,
      "startOffset": 131,
      "word": "WAS"
    },
    {
      "alignedWord": "in",
      "case": "success",
      "end": 9.9,
      "endOffset": 137,
      "phones": [
        {
          "duration": 0.08,
          "phone": "ih_B"
        },
        {
          "duration": 0.07,
          "phone": "n_E"
        }
      ],
      "start": 9.75,
      "startOffset": 135,
      "word": "IN"
    },
    {
      "alignedWord": "connection",
      "case": "success",
      "end": 10.4,
      "endOffset": 148,
      "phones": [
        {
          "duration": 0.07,
          "phone": "k_B"
        },
        {
          "duration": 0.05,
          "phone": "ah_I"
        },
        {
          "duration": 0.07,
          "phone": "n_I"
        },
        {
          "duration": 0.06,
          "phone": "eh_I"
        },
        {
          "duration": 0.06,
          "phone": "k_I"
        },
        {
          "duration": 0.08,
          "phone": "sh_I"
        },
        {
          "duration": 0.04,
          "phone": "ah_I"
        },
        {
          "duration": 0.07,
          "phone": "n_E"
        }
      ],
      "start": 9.9,
      "startOffset": 138,
      "word": "CONNECTION"
    },
    {
      "alignedWord": "with",
      "case": "success",
      "end": 10.56,
      "endOffset": 153,
      "phones": [
        {
          "duration": 0.04,
          "phone": "w_B"
        },
        {
          "duration": 0.04,
          "phone": "ih_I"
        },
        {
          "duration": 0.08,
          "phone": "th_E"
        }
      ],
      "start": 10.4,
      "startOffset": 149,
      "word": "WITH"
    },
    {
      "alignedWord": "our",
      "case": "success",
      "end": 10.699999,
      "endOffset": 157,
      "phones": [
        {
          "duration": 0.05,
          "phone": "aa_B"
        },
        {
          "duration": 0.09,
          "phone": "r_E"
        }
      ],
      "start": 10.559999,
      "startOffset": 154,
      "word": "OUR"
    },
    {
      "alignedWord": "second",
      "case": "success",
      "end": 11.08,
      "endOffset": 164,
      "phones": [
        {
          "duration": 0.09,
          "phone": "s_B"
        },
        {
          "duration": 0.09,
          "phone": "eh_I"
        },
        {
          "duration": 0.05,
          "phone": "k_I"
        },
        {
          "duration": 0.08,
          "phone": "ah_I"
        },
        {
          "duration": 0.07,
          "phone": "n_E"
        }
      ],
      "start": 10.7,
      "startOffset": 158,
      "word": "SECOND"
    },
    {
      "alignedWord": "lead",
      "case": "success",
      "end": 11.52,
      "endOffset": 169,
      "phones": [
        {
          "duration": 0.11,
          "phone": "l_B"
        },
        {
          "duration": 0.14,
          "phone": "iy_I"
        },
        {
          "duration": 0.18,
          "phone": "d_E"
        }
      ],
      "start": 11.09,
      "startOffset": 165,
      "word": "LEAD"
    },
    {
      "alignedWord": "that's",
      "case": "success",
      "end": 12.51,
      "endOffset": 176,
      "phones": [
        {
          "duration": 0.08,
          "phone": "dh_B"
        },
        {
          "duration": 0.07,
          "phone": "ae_I"
        },
        {
          "duration": 0.08,
          "phone": "t_I"
        },
        {
          "duration": 0.09,
          "phone": "s_E"
        }
      ],
      "start": 12.19,
      "startOffset": 170,
      "word": "THAT'S"
    },
    {
      "alignedWord": "me",
      "case": "success",
      "end": 12.929999,
      "endOffset": 179,
      "phones": [
        {
          "duration": 0.08,
          "phone": "m_B"
        },
        {
          "duration": 0.34,
          "phone": "iy_E"
        }
      ],
      "start": 12.509999,
      "startOffset": 177,
      "word": "ME"
    },
    {
      "alignedWord": "huh",
      "case": "success",
      "end": 13.059999999999999,
      "endOffset": 183,
      "phones": [
        {
          "duration": 0.03,
          "phone": "hh_B"
        },
        {
          "duration": 0.09,
          "phone": "ah_E"
        }
      ],
      "start": 12.94,
      "startOffset": 180,
      "word": "HUH"
    },
    {
      "alignedWord": "she",
      "case": "success",
      "end": 13.369999,
      "endOffset": 187,
      "phones": [
        {
          "duration": 0.15,
          "phone": "sh_B"
        },
        {
          "duration": 0.08,
          "phone": "iy_E"
        }
      ],
      "start": 13.139999,
      "startOffset": 184,
      "word": "SHE"
    },
    {
      "alignedWord": "said",
      "case": "success",
      "end": 13.59,
      "endOffset": 192,
      "phones": [
        {
          "duration": 0.08,
          "phone": "s_B"
        },
        {
          "duration": 0.1,
          "phone": "eh_I"
        },
        {
          "duration": 0.04,
          "phone": "d_E"
        }
      ],
      "start": 13.37,
      "startOffset": 188,
      "word": "SAID"
    },
    {
      "alignedWord": "unhappily",
      "case": "success",
      "end": 14.26,
      "endOffset": 202,
      "phones": [
        {
          "duration": 0.09,
          "phone": "ah_B"
        },
        {
          "duration": 0.05,
          "phone": "n_I"
        },
        {
          "duration": 0.04,
          "phone": "hh_I"
        },
        {
          "duration": 0.09,
          "phone": "ae_I"
        },
        {
          "duration": 0.09,
          "phone": "p_I"
        },
        {
          "duration": 0.07,
          "phone": "ah_I"
        },
        {
          "duration": 0.07,
          "phone": "l_I"
        },
        {
          "duration": 0.17,
          "phone": "iy_E"
        }
      ],
      "start": 13.59,
      "startOffset": 193,
      "word": "UNHAPPILY"
    },
    {
      "alignedWord": "yes",
      "case": "success",
      "end": 15.19,
      "endOffset": 206,
      "phones": [
        {
          "duration": 0.1,
          "phone": "y_B"
        },
        {
          "duration": 0.12,
          "phone": "eh_I"
        },
        {
          "duration": 0.28,
          "phone": "s_E"
        }
      ],
      "start": 14.69,
      "startOffset": 203,
      "word": "YES"
    }
  ]
}