{
  "transcript": "SO ANY ONE OF UMPTEEN THOUSANDS OF ORGANIZATIONS IN THE HUB MIGHT BE THE ONE THAT HAS THAT PLASMOID NOW INCLUDING SAID HOLATI ANY ONE OF THE TWO HUNDRED AND FOURTEEN RESTRICTED WORLDS",
  "words": [
    {
      "alignedWord": "so",
      "case": "success",
      "end": 0.47,
      "endOffset": 2,
      "phones": [
        {
          "duration": 0.14,
          "phone": "s_B"
        },
        {
          "duration": 0.1,
          "phone": "ow_E"
        }
      ],
      "start": 0.23,
      "startOffset": 0,
      "word": "SO"
    },
    {
      "alignedWord": "any",
      "case": "success",
      "end": 0.74,
      "endOffset": 6,
      "phones": [
        {
          "duration": 0.09,
          "phone": "eh_B"
        },
        {
          "duration": 0.08,
          "phone": "n_I"
        },
        {
          "duration": 0.1,
          "phone": "iy_E"
        }
      ],
      "start": 0.47,
      "startOffset": 3,
      "word": "ANY"
    },
    {
      "alignedWord": "one",
      "case": "success",
      "end": 0.96,
      "endOffset": 10,
      "phones": [
        {
          "duration": 0.08,
          "phone": "w_B"
        },
        {
          "duration": 0.09,
          "phone": "ah_I"
        },
        {
          "duration": 0.05,
          "phone": "n_E"
        }
      ],
      "start": 0.74,
      "startOffset": 7,
      "word": "ONE"
    },
    {
      "alignedWord": "of",
      "case": "success",
      "end": 1.06,
      "endOffset": 13,
      "phones": [
        {
          "duration": 0.03,
          "phone": "ah_B"
        },
        {
          "duration": 0.07,
          "phone": "v_E"
        }
      ],
      "start": 0.96,
      "startOffset": 11,
      "word": "OF"
    },
    {
      "alignedWord": "umpteen",
      "case": "success",
      "end": 1.56,
      "endOffset": 21,
      "phones": [
        {
          "duration": 0.07,
          "phone": "ah_B"
        },
        {
          "duration": 0.04,
          "phone": "m_I"
        },
        {
          "duration": 0.07,
          "phone": "p_I"
        },
        {
          "duration": 0.09,
          "phone": "t_I"
        },
        {
          "duration": 0.09,
          "phone": "iy_I"
        },
        {
          "duration": 0.1,
          "phone": "n_E"
        }
      ],
      "start": 1.1,
      "startOffset": 14,
      "word": "UMPTEEN"
    },
    {
      "alignedWord": "thousands",
      "case": "success",
      "end": 2.06,
      "endOffset": 31,
      "phones": [
        {
          "duration": 0.1,
          "phone": "th_B"
        },
        {
          "duration": 0.19,
          "phone": "aw_I"
        },
        {
          "duration": 0.05,
          "phone": "z_I"
        },
        {
          "duration": 0.06,
          "phone": "ah_I"
        },
        {
          "duration": 0.05,
          "phone": "n_I"
        },
        {
          "duration": 0.05,
          "phone": "z_E"
        }
      ],
      "start": 1.56,
      "startOffset": 22,
      "word": "THOUSANDS"
    },
    {
      "alignedWord": "of",
      "case": "success",
      "end": 2.21,
      "endOffset": 34,
      "phones": [
        {
          "duration": 0.07,
          "phone": "ah_B"
        },
        {
          "duration": 0.08,
          "phone": "v_E"
        }
      ],
      "start": 2.06,
      "startOffset": 32,
      "word": "OF"
    },
    {
      "alignedWord": "organizations",
      "case": "success",
      "end": 2.9299999999999997,
      "endOffset": 48,
      "phones": [
        {
          "duration": 0.05,
          "phone": "ao_B"
        },
        {
          "duration": 0.05,
          "phone": "r_I"
        },
        {
          "duration": 0.04,
          "phone": "g_I"
        },
        {
          "duration": 0.04,
          "phone": "ah_I"
        },
        {
          "duration": 0.06,
          "phone": "n_I"
        },
        {
          "duration": 0.07,
          "phone": "ah_I"
        },
        {
          "duration": 0.07,
          "phone": "z_I"
        },
        {
          "duration": 0.11,
          "phone": "ey_I"
        },
        {
          "duration": 0.09,
          "phone": "sh_I"
        },
        {
          "duration": 0.03,
          "phone": "ah_I"
        },
        {
          "duration": 0.05,
          "phone": "n_I"
        },
        {
          "duration": 0.06,
          "phone": "z_E"
        }
      ],
      "start": 2.21,
      "startOffset": 35,
      "word": "ORGANIZATIONS"
    },
    {
      "alignedWord": "in",
      "case": "success",
      "end": 3.04,
      "endOffset": 51,
      "phones": [
        {
          "duration": 0.06,
          "phone": "ih_B"
        },
        {
          "duration": 0.05,
          "phone": "n_E"
        }
      ],
      "start": 2.93,
      "startOffset": 49,
      "word": "IN"
    },
    {
      "alignedWord": "the",
      "case": "success",
      "end": 3.13,
      "endOffset": 55,
      "phones": [
        {
          "duration": 0.05,
          "phone": "dh_B"
        },
        {
          "duration": 0.04,
          "phone": "ah_E"
        }
      ],
      "start": 3.04,
      "startOffset": 52,
      "word": "THE"
    },
    {
      "alignedWord": "hub",
      "case": "success",
      "end": 3.35,
      "endOffset": 59,
      "phones": [
        {
          "duration": 0.07,
          "phone": "hh_B"
        },
        {
          "duration": 0.09,
          "phone": "ah_I"
        },
        {
          "duration": 0.06,
          "phone": "b_E"
        }
      ],
      "start": 3.13,
      "startOffset": 56,
      "word": "HUB"
    },
    {
      "alignedWord": "might",
      "case": "success",
      "end": 3.58,
      "endOffset": 65,
      "phones": [
        {
          "duration": 0.07,
          "phone": "m_B"
        },
        {
          "duration": 0.08,
          "phone": "ay_I"
        },
        {
          "duration": 0.07,
          "phone": "t_E"
        }
      ],
      "start": 3.36,
      "startOffset": 60,
      "word": "MIGHT"
    },
    {
      "alignedWord": "be",
      "case": "success",
      "end": 3.7,
      "endOffset": 68,
      "phones": [
        {
          "duration": 0.04,
          "phone": "b_B"
        },
        {
          "duration": 0.08,
          "phone": "iy_E"
        }
      ],
      "start": 3.58,
      "startOffset": 66,
      "word": "BE"
    },
    {
      "alignedWord": "the",
      "case": "success",
      "end": 3.8000000000000003,
      "endOffset": 72,
      "phones": [
        {
          "duration": 0.05,
          "phone": "dh_B"
        },
        {
          "duration": 0.05,
          "phone": "ah_E"
        }
      ],
      "start": 3.7,
      "startOffset": 69,
      "word": "THE"
    },
    {
      "alignedWord": "one",
      "case": "success",
      "end": 4.02,
      "endOffset": 76,
      "phones": [
        {
          "duration": 0.08,
          "phone": "w_B"
        },
        {
          "duration": 0.08,
          "phone": "ah_I"
        },
        {
          "duration": 0.06,
          "phone": "n_E"
        }
      ],
      "start": 3.8,
      "startOffset": 73,
      "word": "ONE"
    },
    {
      "alignedWord": "that",
      "case": "success",
      "end": 4.119999999999999,
      "endOffset": 81,
      "phones": [
        {
          "duration": 0.01,
          "phone": "dh_B"
        },
        {
          "duration": 0.05,
          "phone": "ah_I"
        },
        {
          "duration": 0.04,
          "phone": "t_E"
        }
      ],
      "start": 4.02,
      "startOffset": 77,
      "word": "THAT"
    },
    {
      "alignedWord": "has",
      "case": "success",
      "end": 4.38,
      "endOffset": 85,
      "phones": [
        {
          "duration": 0.08,
          "phone": "hh_B"
        },
        {
          "duration": 0.09,
          "phone": "ae_I"
        },
        {
          "duration": 0.08,
          "phone": "z_E"
        }
      ],
      "start": 4.13,
      "startOffset": 82,
      "word": "HAS"
    },
    {
      "alignedWord": "that",
      "case": "success",
      "end": 4.62,
      "endOffset": 90,
      "phones": [
        {
          "duration": 0.06,
          "phone": "dh_B"
        },
        {
          "duration": 0.09,
          "phone": "ae_I"
        },
        {
          "duration": 0.09,
          "phone": "t_E"
        }
      ],
      "start": 4.38,
      "startOffset": 86,
      "word": "THAT"
    },
    {
      "alignedWord": "<unk>",
      "case": "success",
      "end": 5.18,
      "endOffset": 99,
      "phones": [
        {
          "duration": 0.56,
          "phone": "oov_S"
        }
      ],
      "start": 4.62,
      "startOffset": 91,
      "word": "PLASMOID"
    },
    {
      "alignedWord": "now",
      "case": "success",
      "end": 5.74,
      "endOffset": 103,
      "phones": [
        {
          "duration": 0.11,
          "phone": "n_B"
        },
        {
          "duration": 0.41,
          "phone": "aw_E"
        }
      ],
      "start": 5.22,
      "startOffset": 100,
      "word": "NOW"
    },
    {
      "alignedWord": "including",
      "case": "success",
      "end": 7.18,
      "endOffset": 113,
      "phones": [
        {
          "duration": 0.12,
          "phone": "ih_B"
        },
        {
          "duration": 0.11,
          "phone": "n_I"
        },
        {
          "duration": 0.1,
          "phone": "k_I"
        },
        {
          "duration": 0.07,
          "phone": "l_I"
        },
        {
          "duration": 0.07,
          "phone": "uw_I"
        },
        {
          "duration": 0.06,
          "phone": "d_I"
        },
        {
          "duration": 0.09,
          "phone": "ih_I"
        },
        {
          "duration": 0.17,
          "phone": "ng_E"
        }
      ],
      "start": 6.39,
      "startOffset": 104,
      "word": "INCLUDING"
    },
    {
      "alignedWord": "said",
      "case": "success",
      "end": 7.420000000000001,
      "endOffset": 118,
      "phones": [
        {
          "duration": 0.1,
          "phone": "s_B"
        },
        {
          "duration": 0.06,
          "phone": "eh_I"
        },
        {
          "duration": 0.07,
          "phone": "d_E"
        }
      ],
      "start": 7.19,
      "startOffset": 114,
      "word": "SAID"
    },
    {
      "alignedWord": "<unk>",
      "case": "success",
      "end": 7.93,
      "endOffset": 125,
      "phones": [
        {
          "duration": 0.5,
          "phone": "oov_S"
        }
      ],
      "start": 7.43,
      "startOffset": 119,
      "word": "HOLATI"
    },
    {
      "alignedWord": "any",
      "case": "success",
      "end": 8.379999,
      "endOffset": 129,
      "phones": [
        {
          "duration": 0.13,
          "phone": "eh_B"
        },
        {
          "duration": 0.06,
          "phone": "n_I"
        },
        {
          "duration": 0.09,
          "phone": "iy_E"
        }
      ],
      "start": 8.099999,
      "startOffset": 126,
      "word": "ANY"
    },
    {
      "alignedWord": "one",
      "case": "success",
      "end": 8.590000000000002,
      "endOffset": 133,
      "phones": [
        {
          "duration": 0.08,
          "phone": "w_B"
        },
        {
          "duration": 0.1,
          "phone": "ah_I"
        },
        {
          "duration": 0.03,
          "phone": "n_E"
        }
      ],
      "start": 8.38,
      "startOffset": 130,
      "word": "ONE"
    },
    {
      "alignedWord": "of",
      "case": "success",
      "end": 8.709999999999999,
      "endOffset": 136,
      "phones": [
        {
          "duration": 0.03,
          "phone": "ah_B"
        },
        {
          "duration": 0.09,
          "phone": "v_E"
        }
      ],
      "start": 8.59,
      "startOffset": 134,
      "word": "OF"
    },
    {
      "alignedWord": "the",
      "case": "success",
      "end": 8.8,
      "endOffset": 140,
      "phones": [
        {
          "duration": 0.01,
          "phone": "dh_B"
        },
        {
          "duration": 0.08,
          "phone": "ah_E"
        }
      ],
      "start": 8.71,
      "startOffset": 137,
      "word": "THE"
    },
    {
      "alignedWord": "two",
      "case": "success",
      "end": 8.99,
      "endOffset": 144,
      "phones": [
        {
          "duration": 0.09,
          "phone": "t_B"
        },
        {
          "duration": 0.1,
          "phone": "uw_E"
        }
      ],
      "start": 8.8,
      "startOffset": 141,
      "word": "TWO"
    },
    {
      "alignedWord": "hundred",
      "case": "success",
      "end": 9.23,
      "endOffset": 152,
      "phones": [
        {
          "duration": 0.01,
          "phone": "hh_B"
        },
        {
          "duration": 0.06,
          "phone": "ah_I"
        },
        {
          "duration": 0.02,
          "phone": "n_I"
        },
        {
          "duration": 0.04,
          "phone": "d_I"
        },
        {
          "duration": 0.06,
          "phone": "er_I"
        },
        {
          "duration": 0.05,
          "phone": "d_E"
        }
      ],
      "start": 8.99,
      "startOffset": 145,
      "word": "HUNDRED"
    },
    {
      "alignedWord": "and",
      "case": "success",
      "end": 9.32,
      "endOffset": 156,
      "phones": [
        {
          "duration": 0.01,
          "phone": "ah_B"
        },
        {
          "duration": 0.01,
          "phone": "n_I"
        },
        {
          "duration": 0.07,
          "phone": "d_E"
        }
      ],
      "start": 9.23,
      "startOffset": 153,
      "word": "AND"
    },
    {
      "alignedWord": "fourteen",
      "case": "success",
      "end": 9.81,
      "endOffset": 165,
      "phones": [
        {
          "duration": 0.06,
          "phone": "f_B"
        },
        {
          "duration": 0.09,
          "phone": "ao_I"
        },
        {
          "duration": 0.03,
          "phone": "r_I"
        },
        {
          "duration": 0.12,
          "phone": "t_I"
        },
        {
          "duration": 0.11,
          "phone": "iy_I"
        },
        {
          "duration": 0.08,
          "phone": "n_E"
        }
      ],
      "start": 9.32,
      "startOffset": 157,
      "word": "FOURTEEN"
    },
    {
      "alignedWord": "restricted",
      "case": "success",
      "end": 10.389999,
      "endOffset": 176,
      "phones": [
        {
          "duration": 0.04,
          "phone": "r_B"
        },
        {
          "duration": 0.06,
          "phone": "iy_I"
        },
        {
          "duration": 0.06,
          "phone": "s_I"
        },
        {
          "duration": 0.08,
          "phone": "t_I"
        },
        {
          "duration": 0.04,
          "phone": "r_I"
        },
        {
          "duration": 0.04,
          "phone": "ih_I"
        },
        {
          "duration": 0.07,
          "phone": "k_I"
        },
        {
          "duration": 0.04,
          "phone": "t_I"
        },
        {
          "duration": 0.06,
          "phone": "ih_I"
        },
        {
          "duration": 0.09,
          "phone": "d_E"
        }
      ],
      "start": 9.809999,
      "startOffset": 166,
      "word": "RESTRICTED"
    },
    {
      "alignedWord": "worlds",
      "case": "success",
      "end": 10.889999,
      "endOffset": 183,
      "phones": [
        {
          "duration": 0.07,
          "phone": "w_B"
        },
        {
          "duration": 0.1,
          "phone": "er_I"
        },
        {
          "duration": 0.07,
          "phone": "l_I"
        },
        {
          "duration": 0.09,
          "phone": "d_I"
        },
        {
          "duration": 0.17,
          "phone": "z_E"
        }
      ],
      "start": 10.389999,
      "startOffset": 177,
      "word": "WORLDS"
    }
  ]
}