{
  "transcript": "THANK YOU MY DEAR SAID HE BUT WHERE'S THE MONEY TO COME FROM MONEY BAH SHE SAID DOESN'T THE MAJOR EARN A HEAP WITH HIS BOOKKEEPING AND HAVEN'T I HAD A RAISE LATELY WHY WE'LL BE AS SNUG AND CONTENTED AS PIGS IN CLOVER CAN YOU GET READY TO COME WITH ME TODAY UNCLE JOHN",
  "words": [
    {
      "alignedWord": "thank",
      "case": "success",
      "end": 0.64,
      "endOffset": 5,
      "phones": [
        {
          "duration": 0.06,
          "phone": "th_B"
        },
        {
          "duration": 0.06,
          "phone": "ae_I"
        },
        {
          "duration": 0.06,
          "phone": "ng_I"
        },
        {
          "duration": 0.07,
          "phone": "k_E"
        }
      ],
      "start": 0.39,
      "startOffset": 0,
      "word": "THANK"
    },
    {
      "alignedWord": "you",
      "case": "success",
      "end": 0.72,
      "endOffset": 9,
      "phones": [
        {
          "duration": 0.04,
          "phone": "y_B"
        },
        {
          "duration": 0.04,
          "phone": "uw_E"
        }
      ],
      "start": 0.64,
      "startOffset": 6,
      "word": "YOU"
    },
    {
      "alignedWord": "my",
      "case": "success",
      "end": 0.88,
      "endOffset": 12,
      "phones": [
        {
          "duration": 0.07,
          "phone": "m_B"
        },
        {
          "duration": 0.09,
          "phone": "ay_E"
        }
      ],
      "start": 0.72,
      "startOffset": 10,
      "word": "MY"
    },
    {
      "alignedWord": "dear",
      "case": "success",
      "end": 1.15,
      "endOffset": 17,
      "phones": [
        {
          "duration": 0.08,
          "phone": "d_B"
        },
        {
          "duration": 0.1,
          "phone": "ih_I"
        },
        {
          "duration": 0.09,
          "phone": "r_E"
        }
      ],
      "start": 0.88,
      "startOffset": 13,
      "word": "DEAR"
    },
    {
      "alignedWord": "said",
      "case": "success",
      "end": 1.3699999999999999,
      "endOffset": 22,
      "phones": [
        {
          "duration": 0.11,
          "phone": "s_B"
        },
        {
          "duration": 0.06,
          "phone": "eh_I"
        },
        {
          "duration": 0.05,
          "phone": "d_E"
        }
      ],
      "start": 1.15,
      "startOffset": 18,
      "word": "SAID"
    },
    {
      "alignedWord": "he",
      "case": "success",
      "end": 1.59,
      "endOffset": 25,
      "phones": [
        {
          "duration": 0.08,
          "phone": "hh_B"
        },
        {
          "duration": 0.14,
          "phone": "iy_E"
        }
      ],
      "start": 1.37,
      "startOffset": 23,
      "word": "HE"
    },
    {
      "alignedWord": "but",
      "case": "success",
      "end": 1.77,
      "endOffset": 29,
      "phones": [
        {
          "duration": 0.04,
          "phone": "b_B"
        },
        {
          "duration": 0.04,
          "phone": "ah_I"
        },
        {
          "duration": 0.06,
          "phone": "t_E"
        }
      ],
      "start": 1.63,
      "startOffset": 26,
      "word": "BUT"
    },
    {
      "alignedWord": "where's",
      "case": "success",
      "end": 1.97,
      "endOffset": 37,
      "phones": [
        {
          "duration": 0.03,
          "phone": "w_B"
        },
        {
          "duration": 0.06,
          "phone": "eh_I"
        },
        {
          "duration": 0.04,
          "phone": "r_I"
        },
        {
          "duration": 0.07,
          "phone": "z_E"
        }
      ],
      "start": 1.77,
      "startOffset": 30,
      "word": "WHERE'S"
    },
    {
      "alignedWord": "the",
      "case": "success",
      "end": 2.05,
      "endOffset": 41,
      "phones": [
        {
          "duration": 0.05,
          "phone": "dh_B"
        },
        {
          "duration": 0.03,
          "phone": "ah_E"
        }
      ],
      "start": 1.97,
      "startOffset": 38,
      "word": "THE"
    },
    {
      "alignedWord": "money",
      "case": "success",
      "end": 2.34,
      "endOffset": 47,
      "phones": [
        {
          "duration": 0.07,
          "phone": "m_B"
        },
        {
          "duration": 0.08,
          "phone": "ah_I"
        },
        {
          "duration": 0.06,
          "phone": "n_I"
        },
        {
          "duration": 0.08,
          "phone": "iy_E"
        }
      ],
      "start": 2.05,
      "startOffset": 42,
      "word": "MONEY"
    },
    {
      "alignedWord": "to",
      "case": "success",
      "end": 2.48,
      "endOffset": 50,
      "phones": [
        {
          "duration": 0.06,
          "phone": "t_B"
        },
        {
          "duration": 0.06,
          "phone": "ih_E"
        }
      ],
      "start": 2.36,
      "startOffset": 48,
      "word": "TO"
    },
    {
      "alignedWord": "come",
      "case": "success",
      "end": 2.7,
      "endOffset": 55,
      "phones": [
        {
          "duration": 0.05,
          "phone": "k_B"
        },
        {
          "duration": 0.08,
          "phone": "ah_I"
        },
        {
          "duration": 0.07,
          "phone": "m_E"
        }
      ],
      "start": 2.5,
      "startOffset": 51,
      "word": "COME"
    },
    {
      "alignedWord": "from",
      "case": "success",
      "end": 2.9800000000000004,
      "endOffset": 60,
      "phones": [
        {
          "duration": 0.07,
          "phone": "f_B"
        },
        {
          "duration": 0.06,
          "phone": "r_I"
        },
        {
          "duration": 0.06,
          "phone": "ah_I"
        },
        {
          "duration": 0.09,
          "phone": "m_E"
        }
      ],
      "start": 2.7,
      "startOffset": 56,
      "word": "FROM"
    },
    {
      "alignedWord": "money",
      "case": "success",
      "end": 4.04,
      "endOffset": 66,
      "phones": [
        {
          "duration": 0.11,
          "phone": "m_B"
        },
        {
          "duration": 0.08,
          "phone": "ah_I"
        },
        {
          "duration": 0.06,
          "phone": "n_I"
        },
        {
          "duration": 0.2,
          "phone": "iy_E"
        }
      ],
      "start": 3.59,
      "startOffset": 61,
      "word": "MONEY"
    },
    {
      "alignedWord": "bah",
      "case": "success",
      "end": 4.44,
      "endOffset": 70,
      "phones": [
        {
          "duration": 0.1,
          "phone": "b_B"
        },
        {
          "duration": 0.22,
          "phone": "aa_E"
        }
      ],
      "start": 4.12,
      "startOffset": 67,
      "word": "BAH"
    },
    {
      "alignedWord": "she",
      "case": "success",
      "end": 4.69,
      "endOffset": 74,
      "phones": [
        {
          "duration": 0.15,
          "phone": "sh_B"
        },
        {
          "duration": 0.1,
          "phone": "iy_E"
        }
      ],
      "start": 4.44,
      "startOffset": 71,
      "word": "SHE"
    },
    {
      "alignedWord": "said",
      "case": "success",
      "end": 4.99,
      "endOffset": 79,
      "phones": [
        {
          "duration": 0.11,
          "phone": "s_B"
        },
        {
          "duration": 0.11,
          "phone": "eh_I"
        },
        {
          "duration": 0.08,
          "phone": "d_E"
        }
      ],
      "start": 4.69,
      "startOffset": 75,
      "word": "SAID"
    },
    {
      "alignedWord": "doesn't",
      "case": "success",
      "end": 5.38,
      "endOffset": 87,
      "phones": [
        {
          "duration": 0.09,
          "phone": "d_B"
        },
        {
          "duration": 0.07,
          "phone": "ah_I"
        },
        {
          "duration": 0.06,
          "phone": "z_I"
        },
        {
          "duration": 0.06,
          "phone": "ah_I"
        },
        {
          "duration": 0.04,
          "phone": "n_I"
        },
        {
          "duration": 0.05,
          "phone": "t_E"
        }
      ],
      "start": 5.01,
      "startOffset": 80,
      "word": "DOESN'T"
    },
    {
      "alignedWord": "the",
      "case": "success",
      "end": 5.46,
      "endOffset": 91,
      "phones": [
        {
          "duration": 0.03,
          "phone": "dh_B"
        },
        {
          "duration": 0.05,
          "phone": "ah_E"
        }
      ],
      "start": 5.38,
      "startOffset": 88,
      "word": "THE"
    },
    {
      "alignedWord": "major",
      "case": "success",
      "end": 5.81,
      "endOffset": 97,
      "phones": [
        {
          "duration": 0.08,
          "phone": "m_B"
        },
        {
          "duration": 0.07,
          "phone": "ey_I"
        },
        {
          "duration": 0.13,
          "phone": "jh_I"
        },
        {
          "duration": 0.07,
          "phone": "er_E"
        }
      ],
      "start": 5.46,
      "startOffset": 92,
      "word": "MAJOR"
    },
    {
      "alignedWord": "earn",
      "case": "success",
      "end": 5.97,
      "endOffset": 102,
      "phones": [
        {
          "duration": 0.11,
          "phone": "er_B"
        },
        {
          "duration": 0.05,
          "phone": "n_E"
        }
      ],
      "start": 5.81,
      "startOffset": 98,
      "word": "EARN"
    },
    {
      "alignedWord": "a",
      "case": "success",
      "end": 6.02,
      "endOffset": 104,
      "phones": [
        {
          "duration": 0.05,
          "phone": "ah_S"
        }
      ],
      "start": 5.97,
      "startOffset": 103,
      "word": "A"
    },
    {
      "alignedWord": "heap",
      "case": "success",
      "end": 6.31,
      "endOffset": 109,
      "phones": [
        {
          "duration": 0.12,
          "phone": "hh_B"
        },
        {
          "duration": 0.1,
          "phone": "iy_I"
        },
        {
          "duration": 0.07,
          "phone": "p_E"
        }
      ],
      "start": 6.02,
      "startOffset": 105,
      "word": "HEAP"
    },
    {
      "alignedWord": "with",
      "case": "success",
      "end": 6.449999999999999,
      "endOffset": 114,
      "phones": [
        {
          "duration": 0.07,
          "phone": "w_B"
        },
        {
          "duration": 0.04,
          "phone": "ih_I"
        },
        {
          "duration": 0.03,
          "phone": "th_E"
        }
      ],
      "start": 6.31,
      "startOffset": 110,
      "word": "WITH"
    },
    {
      "alignedWord": "his",
      "case": "success",
      "end": 6.59,
      "endOffset": 118,
      "phones": [
        {
          "duration": 0.05,
          "phone": "hh_B"
        },
        {
          "duration": 0.01,
          "phone": "ih_I"
        },
        {
          "duration": 0.08,
          "phone": "z_E"
        }
      ],
      "start": 6.45,
      "startOffset": 115,
      "word": "HIS"
    },
    {
      "alignedWord": "bookkeeping",
      "case": "success",
      "end": 7.21,
      "endOffset": 130,
      "phones": [
        {
          "duration": 0.06,
          "phone": "b_B"
        },
        {
          "duration": 0.08,
          "phone": "uh_I"
        },
        {
          "duration": 0.01,
          "phone": "k_I"
        },
        {
          "duration": 0.13,
          "phone": "k_I"
        },
        {
          "duration": 0.08,
          "phone": "iy_I"
        },
        {
          "duration": 0.06,
          "phone": "p_I"
        },
        {
          "duration": 0.09,
          "phone": "ih_I"
        },
        {
          "duration": 0.11,
          "phone": "ng_E"
        }
      ],
      "start": 6.59,
      "startOffset": 119,
      "word": "BOOKKEEPING"
    },
    {
      "alignedWord": "and",
      "case": "success",
      "end": 7.380000000000001,
      "endOffset": 134,
      "phones": [
        {
          "duration": 0.05,
          "phone": "ae_B"
        },
        {
          "duration": 0.05,
          "phone": "n_I"
        },
        {
          "duration": 0.05,
          "phone": "d_E"
        }
      ],
      "start": 7.23,
      "startOffset": 131,
      "word": "AND"
    },
    {
      "alignedWord": "haven't",
      "case": "success",
      "end": 7.62,
      "endOffset": 142,
      "phones": [
        {
          "duration": 0.05,
          "phone": "hh_B"
        },
        {
          "duration": 0.06,
          "phone": "ae_I"
        },
        {
          "duration": 0.03,
          "phone": "v_I"
        },
        {
          "duration": 0.04,
          "phone": "ah_I"
        },
        {
          "duration": 0.06,
          "phone": "n_E"
        }
      ],
      "start": 7.38,
      "startOffset": 135,
      "word": "HAVEN'T"
    },
    {
      "alignedWord": "i",
      "case": "success",
      "end": 7.69,
      "endOffset": 144,
      "phones": [
        {
          "duration": 0.07,
          "phone": "ay_S"
        }
      ],
      "start": 7.62,
      "startOffset": 143,
      "word": "I"
    },
    {
      "alignedWord": "had",
      "case": "success",
      "end": 7.890000000000001,
      "endOffset": 148,
      "phones": [
        {
          "duration": 0.09,
          "phone": "hh_B"
        },
        {
          "duration": 0.06,
          "phone": "ae_I"
        },
        {
          "duration": 0.04,
          "phone": "d_E"
        }
      ],
      "start": 7.7,
      "startOffset": 145,
      "word": "HAD"
    },
    {
      "alignedWord": "a",
      "case": "success",
      "end": 7.9799999999999995,
      "endOffset": 150,
      "phones": [
        {
          "duration": 0.09,
          "phone": "ah_S"
        }
      ],
      "start": 7.89,
      "startOffset": 149,
      "word": "A"
    },
    {
      "alignedWord": "raise",
      "case": "success",
      "end": 8.35,
      "endOffset": 156,
      "phones": [
        {
          "duration": 0.11,
          "phone": "r_B"
        },
        {
          "duration": 0.14,
          "phone": "ey_I"
        },
        {
          "duration": 0.12,
          "phone": "z_E"
        }
      ],
      "start": 7.98,
      "startOffset": 151,
      "word": "RAISE"
    },
    {
      "alignedWord": "lately",
      "case": "success",
      "end": 8.759999,
      "endOffset": 163,
      "phones": [
        {
          "duration": 0.06,
          "phone": "l_B"
        },
        {
          "duration": 0.06,
          "phone": "ey_I"
        },
        {
          "duration": 0.09,
          "phone": "t_I"
        },
        {
          "duration": 0.07,
          "phone": "l_I"
        },
        {
          "duration": 0.13,
          "phone": "iy_E"
        }
      ],
      "start": 8.349999,
      "startOffset": 157,
      "word": "LATELY"
    },
    {
      "alignedWord": "why",
      "case": "success",
      "end": 9.42,
      "endOffset": 167,
      "phones": [
        {
          "duration": 0.11,
          "phone": "hh_B"
        },
        {
          "duration": 0.1,
          "phone": "w_I"
        },
        {
          "duration": 0.18,
          "phone": "ay_E"
        }
      ],
      "start": 9.03,
      "startOffset": 164,
      "word": "WHY"
    },
    {
      "alignedWord": "we'll",
      "case": "success",
      "end": 9.690000000000001,
      "endOffset": 173,
      "phones": [
        {
          "duration": 0.1,
          "phone": "w_B"
        },
        {
          "duration": 0.07,
          "phone": "ih_I"
        },
        {
          "duration": 0.06,
          "phone": "l_E"
        }
      ],
      "start": 9.46,
      "startOffset": 168,
      "word": "WE'LL"
    },
    {
      "alignedWord": "be",
      "case": "success",
      "end": 9.82,
      "endOffset": 176,
      "phones": [
        {
          "duration": 0.07,
          "phone": "b_B"
        },
        {
          "duration": 0.06,
          "phone": "iy_E"
        }
      ],
      "start": 9.69,
      "startOffset": 174,
      "word": "BE"
    },
    {
      "alignedWord": "as",
      "case": "success",
      "end": 9.94,
      "endOffset": 179,
      "phones": [
        {
          "duration": 0.07,
          "phone": "eh_B"
        },
        {
          "duration": 0.05,
          "phone": "z_E"
        }
      ],
      "start": 9.82,
      "startOffset": 177,
      "word": "AS"
    },
    {
      "alignedWord": "snug",
      "case": "success",
      "end": 10.299999999999999,
      "endOffset": 184,
      "phones": [
        {
          "duration": 0.12,
          "phone": "s_B"
        },
        {
          "duration": 0.06,
          "phone": "n_I"
        },
        {
          "duration": 0.09,
          "phone": "ah_I"
        },
        {
          "duration": 0.09,
          "phone": "g_E"
        }
      ],
      "start": 9.94,
      "startOffset": 180,
      "word": "SNUG"
    },
    {
      "alignedWord": "and",
      "case": "success",
      "end": 10.459999,
      "endOffset": 188,
      "phones": [
        {
          "duration": 0.05,
          "phone": "ae_B"
        },
        {
          "duration": 0.03,
          "phone": "n_I"
        },
        {
          "duration": 0.07,
          "phone": "d_E"
        }
      ],
      "start": 10.309999,
      "startOffset": 185,
      "word": "AND"
    },
    {
      "alignedWord": "contented",
      "case": "success",
      "end": 10.96,
      "endOffset": 198,
      "phones": [
        {
          "duration": 0.03,
          "phone": "k_B"
        },
        {
          "duration": 0.06,
          "phone": "ah_I"
        },
        {
          "duration": 0.05,
          "phone": "n_I"
        },
        {
          "duration": 0.07,
          "phone": "t_I"
        },
        {
          "duration": 0.07,
          "phone": "eh_I"
        },
        {
          "duration": 0.06,
          "phone": "n_I"
        },
        {
          "duration": 0.06,
          "phone": "t_I"
        },
        {
          "duration": 0.05,
          "phone": "ih_I"
        },
        {
          "duration": 0.05,
          "phone": "d_E"
        }
      ],
      "start": 10.46,
      "startOffset": 189,
      "word": "CONTENTED"
    },
    {
      "alignedWord": "as",
      "case": "success",
      "end": 11.100000000000001,
      "endOffset": 201,
      "phones": [
        {
          "duration": 0.06,
          "phone": "eh_B"
        },
        {
          "duration": 0.08,
          "phone": "z_E"
        }
      ],
      "start": 10.96,
      "startOffset": 199,
      "word": "AS"
    },
    {
      "alignedWord": "pigs",
      "case": "success",
      "end": 11.409999000000001,
      "endOffset": 206,
      "phones": [
        {
          "duration": 0.09,
          "phone": "p_B"
        },
        {
          "duration": 0.08,
          "phone": "ih_I"
        },
        {
          "duration": 0.07,
          "phone": "g_I"
        },
        {
          "duration": 0.07,
          "phone": "z_E"
        }
      ],
      "start": 11.099999,
      "startOffset": 202,
      "word": "PIGS"
    },
    {
      "alignedWord": "in",
      "case": "success",
      "end": 11.56,
      "endOffset": 209,
      "phones": [
        {
          "duration": 0.07,
          "phone": "ih_B"
        },
        {
          "duration": 0.08,
          "phone": "n_E"
        }
      ],
      "start": 11.41,
      "startOffset": 207,
      "word": "IN"
    },
    {
      "alignedWord": "clover",
      "case": "success",
      "end": 12.019999,
      "endOffset": 216,
      "phones": [
        {
          "duration": 0.09,
          "phone": "k_B"
        },
        {
          "duration": 0.06,
          "phone": "l_I"
        },
        {
          "duration": 0.07,
          "phone": "ow_I"
        },
        {
          "duration": 0.08,
          "phone": "v_I"
        },
        {
          "duration": 0.16,
          "phone": "er_E"
        }
      ],
      "start": 11.559999,
      "startOffset": 210,
      "word": "CLOVER"
    },
    {
      "alignedWord": "can",
      "case": "success",
      "end": 12.75,
      "endOffset": 220,
      "phones": [
        {
          "duration": 0.08,
          "phone": "k_B"
        },
        {
          "duration": 0.05,
          "phone": "ah_I"
        },
        {
          "duration": 0.03,
          "phone": "n_E"
        }
      ],
      "start": 12.59,
      "startOffset": 217,
      "word": "CAN"
    },
    {
      "alignedWord": "you",
      "case": "success",
      "end": 12.89,
      "endOffset": 224,
      "phones": [
        {
          "duration": 0.06,
          "phone": "y_B"
        },
        {
          "duration": 0.08,
          "phone": "uw_E"
        }
      ],
      "start": 12.75,
      "startOffset": 221,
      "word": "YOU"
    },
    {
      "alignedWord": "get",
      "case": "success",
      "end": 13.18,
      "endOffset": 228,
      "phones": [
        {
          "duration": 0.01,
          "phone": "g_B"
        },
        {
          "duration": 0.09,
          "phone": "eh_I"
        },
        {
          "duration": 0.1,
          "phone": "t_E"
        }
      ],
      "start": 12.98,
      "startOffset": 225,
      "word": "GET"
    },
    {
      "alignedWord": "ready",
      "case": "success",
      "end": 13.429999,
      "endOffset": 234,
      "phones": [
        {
          "duration": 0.06,
          "phone": "r_B"
        },
        {
          "duration": 0.07,
          "phone": "eh_I"
        },
        {
          "duration": 0.04,
          "phone": "d_I"
        },
        {
          "duration": 0.08,
          "phone": "iy_E"
        }
      ],
      "start": 13.179999,
      "startOffset": 229,
      "word": "READY"
    },
    {
      "alignedWord": "to",
      "case": "success",
      "end": 13.539999,
      "endOffset": 237,
      "phones": [
        {
          "duration": 0.04,
          "phone": "t_B"
        },
        {
          "duration": 0.07,
          "phone": "ih_E"
        }
      ],
      "start": 13.429999,
      "startOffset": 235,
      "word": "TO"
    },
    {
      "alignedWord": "come",
      "case": "success",
      "end": 13.739999,
      "endOffset": 242,
      "phones": [
        {
          "duration": 0.07,
          "phone": "k_B"
        },
        {
          "duration": 0.07,
          "phone": "ah_I"
        },
        {
          "duration": 0.05,
          "phone": "m_E"
        }
      ],
      "start": 13.549999,
      "startOffset": 238,
      "word": "COME"
    },
    {
      "alignedWord": "with",
      "case": "success",
      "end": 13.92,
      "endOffset": 247,
      "phones": [
        {
          "duration": 0.05,
          "phone": "w_B"
        },
        {
          "duration": 0.04,
          "phone": "ih_I"
        },
        {
          "duration": 0.09,
          "phone": "th_E"
        }
      ],
      "start": 13.74,
      "startOffset": 243,
      "word": "WITH"
    },
    {
      "alignedWord": "me",
      "case": "success",
      "end": 14.04,
      "endOffset": 250,
      "phones": [
        {
          "duration": 0.06,
          "phone": "m_B"
        },
        {
          "duration": 0.06,
          "phone": "iy_E"
        }
      ],
      "start": 13.92,
      "startOffset": 248,
      "word": "ME"
    },
    {
      "alignedWord": "today",
      "case": "success",
      "end": 14.409999999999998,
      "endOffset": 256,
      "phones": [
        {
          "duration": 0.07,
          "phone": "t_B"
        },
        {
          "duration": 0.06,
          "phone": "ah_I"
        },
        {
          "duration": 0.09,
          "phone": "d_I"
        },
        {
          "duration": 0.15,
          "phone": "ey_E"
        }
      ],
      "start": 14.04,
      "startOffset": 251,
      "word": "TODAY"
    },
    {
      "alignedWord": "uncle",
      "case": "success",
      "end": 14.66,
      "endOffset": 262,
      "phones": [
        {
          "duration": 0.04,
          "phone": "ah_B"
        },
        {
          "duration": 0.09,
          "phone": "ng_I"
        },
        {
          "duration": 0.02,
          "phone": "k_I"
        },
        {
          "duration": 0.06,
          "phone": "ah_I"
        },
        {
          "duration": 0.04,
          "phone": "l_E"
        }
      ],
      "start": 14.41,
      "startOffset": 257,
      "word": "UNCLE"
    },
    {
      "alignedWord": "john",
      "case": "success",
      "end": 14.97,
      "endOffset": 267,
      "phones": [
        {
          "duration": 0.1,
          "phone": "jh_B"
        },
        {
          "duration": 0.09,
          "phone": "aa_I"
        },
        {
          "duration": 0.12,
          "phone": "n_E"
        }
      ],
      "start": 14.66,
      "startOffset": 263,
      "word": "JOHN"
    }
  ]
}