{
  "transcript": "OR IF THEY ARE PASTRY AND CRACKER BAKERS SEVENTY PER CENT THEY MUST MAKE NO BREAD WHOLLY OF WHEAT FLOUR SOME SUBSTITUTE MUST BE MIXED WITH THE WHEAT WHEN THE REGULATION WENT INTO EFFECT IN FEBRUARY NINETEEN EIGHTEEN",
  "words": [
    {
      "alignedWord": "or",
      "case": "success",
      "end": 0.66,
      "endOffset": 2,
      "phones": [
        {
          "duration": 0.19,
          "phone": "ao_B"
        },
        {
          "duration": 0.09,
          "phone": "r_E"
        }
      ],
      "start": 0.38,
      "startOffset": 0,
      "word": "OR"
    },
    {
      "alignedWord": "if",
      "case": "success",
      "end": 0.8500000000000001,
      "endOffset": 5,
      "phones": [
        {
          "duration": 0.11,
          "phone": "ih_B"
        },
        {
          "duration": 0.08,
          "phone": "f_E"
        }
      ],
      "start": 0.66,
      "startOffset": 3,
      "word": "IF"
    },
    {
      "alignedWord": "they",
      "case": "success",
      "end": 1.02,
      "endOffset": 10,
      "phones": [
        {
          "duration": 0.05,
          "phone": "dh_B"
        },
        {
          "duration": 0.12,
          "phone": "ey_E"
        }
      ],
      "start": 0.85,
      "startOffset": 6,
      "word": "THEY"
    },
    {
      "alignedWord": "are",
      "case": "success",
      "end": 1.11,
      "endOffset": 14,
      "phones": [
        {
          "duration": 0.09,
          "phone": "er_S"
        }
      ],
      "start": 1.02,
      "startOffset": 11,
      "word": "ARE"
    },
    {
      "alignedWord": "pastry",
      "case": "success",
      "end": 1.58,
      "endOffset": 21,
      "phones": [
        {
          "duration": 0.11,
          "phone": "p_B"
        },
        {
          "duration": 0.08,
          "phone": "ey_I"
        },
        {
          "duration": 0.07,
          "phone": "s_I"
        },
        {
          "duration": 0.07,
          "phone": "t_I"
        },
        {
          "duration": 0.07,
          "phone": "r_I"
        },
        {
          "duration": 0.07,
          "phone": "iy_E"
        }
      ],
      "start": 1.11,
      "startOffset": 15,
      "word": "PASTRY"
    },
    {
      "alignedWord": "and",
      "case": "success",
      "end": 1.71,
      "endOffset": 25,
      "phones": [
        {
          "duration": 0.05,
          "phone": "ae_B"
        },
        {
          "duration": 0.03,
          "phone": "n_I"
        },
        {
          "duration": 0.05,
          "phone": "d_E"
        }
      ],
      "start": 1.58,
      "startOffset": 22,
      "word": "AND"
    },
    {
      "alignedWord": "cracker",
      "case": "success",
      "end": 2.07,
      "endOffset": 33,
      "phones": [
        {
          "duration": 0.06,
          "phone": "k_B"
        },
        {
          "duration": 0.05,
          "phone": "r_I"
        },
        {
          "duration": 0.07,
          "phone": "ae_I"
        },
        {
          "duration": 0.1,
          "phone": "k_I"
        },
        {
          "duration": 0.08,
          "phone": "er_E"
        }
      ],
      "start": 1.71,
      "startOffset": 26,
      "word": "CRACKER"
    },
    {
      "alignedWord": "bakers",
      "case": "success",
      "end": 2.5999999999999996,
      "endOffset": 40,
      "phones": [
        {
          "duration": 0.1,
          "phone": "b_B"
        },
        {
          "duration": 0.09,
          "phone": "ey_I"
        },
        {
          "duration": 0.11,
          "phone": "k_I"
        },
        {
          "duration": 0.1,
          "phone": "er_I"
        },
        {
          "duration": 0.13,
          "phone": "z_E"
        }
      ],
      "start": 2.07,
      "startOffset": 34,
      "word": "BAKERS"
    },
    {
      "alignedWord": "seventy",
      "case": "success",
      "end": 3.12,
      "endOffset": 48,
      "phones": [
        {
          "duration": 0.15,
          "phone": "s_B"
        },
        {
          "duration": 0.07,
          "phone": "eh_I"
        },
        {
          "duration": 0.04,
          "phone": "v_I"
        },
        {
          "duration": 0.04,
          "phone": "ah_I"
        },
        {
          "duration": 0.07,
          "phone": "n_I"
        },
        {
          "duration": 0.07,
          "phone": "t_I"
        },
        {
          "duration": 0.06,
          "phone": "iy_E"
        }
      ],
      "start": 2.62,
      "startOffset": 41,
      "word": "SEVENTY"
    },
    {
      "alignedWord": "per",
      "case": "success",
      "end": 3.2600000000000002,
      "endOffset": 52,
      "phones": [
        {
          "duration": 0.1,
          "phone": "p_B"
        },
        {
          "duration": 0.04,
          "phone": "er_E"
        }
      ],
      "start": 3.12,
      "startOffset": 49,
      "word": "PER"
    },
    {
      "alignedWord": "cent",
      "case": "success",
      "end": 3.69,
      "endOffset": 57,
      "phones": [
        {
          "duration": 0.12,
          "phone": "s_B"
        },
        {
          "duration": 0.1,
          "phone": "eh_I"
        },
        {
          "duration": 0.08,
          "phone": "n_I"
        },
        {
          "duration": 0.13,
          "phone": "t_E"
        }
      ],
      "start": 3.26,
      "startOffset": 53,
      "word": "CENT"
    },
    {
      "alignedWord": "they",
      "case": "success",
      "end": 4.920000000000001,
      "endOffset": 62,
      "phones": [
        {
          "duration": 0.1,
          "phone": "dh_B"
        },
        {
          "duration": 0.09,
          "phone": "ey_E"
        }
      ],
      "start": 4.73,
      "startOffset": 58,
      "word": "THEY"
    },
    {
      "alignedWord": "must",
      "case": "success",
      "end": 5.1899999999999995,
      "endOffset": 67,
      "phones": [
        {
          "duration": 0.05,
          "phone": "m_B"
        },
        {
          "duration": 0.08,
          "phone": "ah_I"
        },
        {
          "duration": 0.05,
          "phone": "s_I"
        },
        {
          "duration": 0.09,
          "phone": "t_E"
        }
      ],
      "start": 4.92,
      "startOffset": 63,
      "word": "MUST"
    },
    {
      "alignedWord": "make",
      "case": "success",
      "end": 5.41,
      "endOffset": 72,
      "phones": [
        {
          "duration": 0.06,
          "phone": "m_B"
        },
        {
          "duration": 0.08,
          "phone": "ey_I"
        },
        {
          "duration": 0.08,
          "phone": "k_E"
        }
      ],
      "start": 5.19,
      "startOffset": 68,
      "word": "MAKE"
    },
    {
      "alignedWord": "no",
      "case": "success",
      "end": 5.62,
      "endOffset": 75,
      "phones": [
        {
          "duration": 0.1,
          "phone": "n_B"
        },
        {
          "duration": 0.11,
          "phone": "ow_E"
        }
      ],
      "start": 5.41,
      "startOffset": 73,
      "word": "NO"
    },
    {
      "alignedWord": "bread",
      "case": "success",
      "end": 5.98,
      "endOffset": 81,
      "phones": [
        {
          "duration": 0.09,
          "phone": "b_B"
        },
        {
          "duration": 0.08,
          "phone": "r_I"
        },
        {
          "duration": 0.1,
          "phone": "eh_I"
        },
        {
          "duration": 0.09,
          "phone": "d_E"
        }
      ],
      "start": 5.62,
      "startOffset": 76,
      "word": "BREAD"
    },
    {
      "alignedWord": "wholly",
      "case": "success",
      "end": 6.38,
      "endOffset": 88,
      "phones": [
        {
          "duration": 0.08,
          "phone": "hh_B"
        },
        {
          "duration": 0.08,
          "phone": "ow_I"
        },
        {
          "duration": 0.12,
          "phone": "l_I"
        },
        {
          "duration": 0.11,
          "phone": "iy_E"
        }
      ],
      "start": 5.99,
      "startOffset": 82,
      "word": "WHOLLY"
    },
    {
      "alignedWord": "of",
      "case": "success",
      "end": 6.53,
      "endOffset": 91,
      "phones": [
        {
          "duration": 0.04,
          "phone": "ah_B"
        },
        {
          "duration": 0.11,
          "phone": "v_E"
        }
      ],
      "start": 6.38,
      "startOffset": 89,
      "word": "OF"
    },
    {
      "alignedWord": "wheat",
      "case": "success",
      "end": 6.74,
      "endOffset": 97,
      "phones": [
        {
          "duration": 0.04,
          "phone": "w_B"
        },
        {
          "duration": 0.09,
          "phone": "iy_I"
        },
        {
          "duration": 0.08,
          "phone": "t_E"
        }
      ],
      "start": 6.53,
      "startOffset": 92,
      "word": "WHEAT"
    },
    {
      "alignedWord": "flour",
      "case": "success",
      "end": 7.28,
      "endOffset": 103,
      "phones": [
        {
          "duration": 0.11,
          "phone": "f_B"
        },
        {
          "duration": 0.06,
          "phone": "l_I"
        },
        {
          "duration": 0.19,
          "phone": "aw_I"
        },
        {
          "duration": 0.18,
          "phone": "er_E"
        }
      ],
      "start": 6.74,
      "startOffset": 98,
      "word": "FLOUR"
    },
    {
      "alignedWord": "some",
      "case": "success",
      "end": 7.78,
      "endOffset": 108,
      "phones": [
        {
          "duration": 0.11,
          "phone": "s_B"
        },
        {
          "duration": 0.08,
          "phone": "ah_I"
        },
        {
          "duration": 0.11,
          "phone": "m_E"
        }
      ],
      "start": 7.48,
      "startOffset": 104,
      "word": "SOME"
    },
    {
      "alignedWord": "substitute",
      "case": "success",
      "end": 8.41,
      "endOffset": 119,
      "phones": [
        {
          "duration": 0.09,
          "phone": "s_B"
        },
        {
          "duration": 0.08,
          "phone": "ah_I"
        },
        {
          "duration": 0.09,
          "phone": "b_I"
        },
        {
          "duration": 0.03,
          "phone": "s_I"
        },
        {
          "duration": 0.06,
          "phone": "t_I"
        },
        {
          "duration": 0.06,
          "phone": "ah_I"
        },
        {
          "duration": 0.08,
          "phone": "t_I"
        },
        {
          "duration": 0.12,
          "phone": "uw_I"
        },
        {
          "duration": 0.01,
          "phone": "t_E"
        }
      ],
      "start": 7.79,
      "startOffset": 109,
      "word": "SUBSTITUTE"
    },
    {
      "alignedWord": "must",
      "case": "success",
      "end": 8.68,
      "endOffset": 124,
      "phones": [
        {
          "duration": 0.1,
          "phone": "m_B"
        },
        {
          "duration": 0.08,
          "phone": "ah_I"
        },
        {
          "duration": 0.02,
          "phone": "s_I"
        },
        {
          "duration": 0.06,
          "phone": "t_E"
        }
      ],
      "start": 8.42,
      "startOffset": 120,
      "word": "MUST"
    },
    {
      "alignedWord": "be",
      "case": "success",
      "end": 8.839999,
      "endOffset": 127,
      "phones": [
        {
          "duration": 0.07,
          "phone": "b_B"
        },
        {
          "duration": 0.09,
          "phone": "iy_E"
        }
      ],
      "start": 8.679999,
      "startOffset": 125,
      "word": "BE"
    },
    {
      "alignedWord": "mixed",
      "case": "success",
      "end": 9.17,
      "endOffset": 133,
      "phones": [
        {
          "duration": 0.06,
          "phone": "m_B"
        },
        {
          "duration": 0.07,
          "phone": "ih_I"
        },
        {
          "duration": 0.08,
          "phone": "k_I"
        },
        {
          "duration": 0.05,
          "phone": "s_I"
        },
        {
          "duration": 0.07,
          "phone": "t_E"
        }
      ],
      "start": 8.84,
      "startOffset": 128,
      "word": "MIXED"
    },
    {
      "alignedWord": "with",
      "case": "success",
      "end": 9.3,
      "endOffset": 138,
      "phones": [
        {
          "duration": 0.03,
          "phone": "w_B"
        },
        {
          "duration": 0.06,
          "phone": "ih_I"
        },
        {
          "duration": 0.04,
          "phone": "th_E"
        }
      ],
      "start": 9.17,
      "startOffset": 134,
      "word": "WITH"
    },
    {
      "alignedWord": "the",
      "case": "success",
      "end": 9.4,
      "endOffset": 142,
      "phones": [
        {
          "duration": 0.04,
          "phone": "dh_B"
        },
        {
          "duration": 0.06,
          "phone": "ah_E"
        }
      ],
      "start": 9.3,
      "startOffset": 139,
      "word": "THE"
    },
    {
      "alignedWord": "wheat",
      "case": "success",
      "end": 9.74,
      "endOffset": 148,
      "phones": [
        {
          "duration": 0.08,
          "phone": "w_B"
        },
        {
          "duration": 0.1,
          "phone": "iy_I"
        },
        {
          "duration": 0.16,
          "phone": "t_E"
        }
      ],
      "start": 9.4,
      "startOffset": 143,
      "word": "WHEAT"
    },
    {
      "alignedWord": "when",
      "case": "success",
      "end": 11.22,
      "endOffset": 153,
      "phones": [
        {
          "duration": 0.09,
          "phone": "w_B"
        },
        {
          "duration": 0.07,
          "phone": "eh_I"
        },
        {
          "duration": 0.06,
          "phone": "n_E"
        }
      ],
      "start": 11.0,
      "startOffset": 149,
      "word": "WHEN"
    },
    {
      "alignedWord": "the",
      "case": "success",
      "end": 11.319999,
      "endOffset": 157,
      "phones": [
        {
          "duration": 0.03,
          "phone": "dh_B"
        },
        {
          "duration": 0.07,
          "phone": "ah_E"
        }
      ],
      "start": 11.219999,
      "startOffset": 154,
      "word": "THE"
    },
    {
      "alignedWord": "regulation",
      "case": "success",
      "end": 12.05,
      "endOffset": 168,
      "phones": [
        {
          "duration": 0.05,
          "phone": "r_B"
        },
        {
          "duration": 0.06,
          "phone": "eh_I"
        },
        {
          "duration": 0.08,
          "phone": "g_I"
        },
        {
          "duration": 0.03,
          "phone": "y_I"
        },
        {
          "duration": 0.07,
          "phone": "ah_I"
        },
        {
          "duration": 0.1,
          "phone": "l_I"
        },
        {
          "duration": 0.09,
          "phone": "ey_I"
        },
        {
          "duration": 0.1,
          "phone": "sh_I"
        },
        {
          "duration": 0.07,
          "phone": "ah_I"
        },
        {
          "duration": 0.08,
          "phone": "n_E"
        }
      ],
      "start": 11.32,
      "startOffset": 158,
      "word": "REGULATION"
    },
    {
      "alignedWord": "went",
      "case": "success",
      "end": 12.25,
      "endOffset": 173,
      "phones": [
        {
          "duration": 0.03,
          "phone": "w_B"
        },
        {
          "duration": 0.1,
          "phone": "eh_I"
        },
        {
          "duration": 0.02,
          "phone": "n_I"
        },
        {
          "duration": 0.05,
          "phone": "t_E"
        }
      ],
      "start": 12.05,
      "startOffset": 169,
      "word": "WENT"
    },
    {
      "alignedWord": "into",
      "case": "success",
      "end": 12.55,
      "endOffset": 178,
      "phones": [
        {
          "duration": 0.05,
          "phone": "ih_B"
        },
        {
          "duration": 0.07,
          "phone": "n_I"
        },
        {
          "duration": 0.06,
          "phone": "t_I"
        },
        {
          "duration": 0.12,
          "phone": "uw_E"
        }
      ],
      "start": 12.25,
      "startOffset": 174,
      "word": "INTO"
    },
    {
      "alignedWord": "effect",
      "case": "success",
      "end": 13.010000000000002,
      "endOffset": 185,
      "phones": [
        {
          "duration": 0.08,
          "phone": "ah_B"
        },
        {
          "duration": 0.09,
          "phone": "f_I"
        },
        {
          "duration": 0.11,
          "phone": "eh_I"
        },
        {
          "duration": 0.1,
          "phone": "k_I"
        },
        {
          "duration": 0.08,
          "phone": "t_E"
        }
      ],
      "start": 12.55,
      "startOffset": 179,
      "word": "EFFECT"
    },
    {
      "alignedWord": "in",
      "case": "success",
      "end": 13.159999000000001,
      "endOffset": 188,
      "phones": [
        {
          "duration": 0.07,
          "phone": "ih_B"
        },
        {
          "duration": 0.08,
          "phone": "n_E"
        }
      ],
      "start": 13.009999,
      "startOffset": 186,
      "word": "IN"
    },
    {
      "alignedWord": "february",
      "case": "success",
      "end": 13.83,
      "endOffset": 197,
      "phones": [
        {
          "duration": 0.08,
          "phone": "f_B"
        },
        {
          "duration": 0.1,
          "phone": "eh_I"
        },
        {
          "duration": 0.05,
          "phone": "b_I"
        },
        {
          "duration": 0.04,
          "phone": "y_I"
        },
        {
          "duration": 0.07,
          "phone": "ah_I"
        },
        {
          "duration": 0.04,
          "phone": "w_I"
        },
        {
          "duration": 0.11,
          "phone": "eh_I"
        },
        {
          "duration": 0.1,
          "phone": "r_I"
        },
        {
          "duration": 0.08,
          "phone": "iy_E"
        }
      ],
      "start": 13.16,
      "startOffset": 189,
      "word": "FEBRUARY"
    },
    {
      "alignedWord": "nineteen",
      "case": "success",
      "end": 14.34,
      "endOffset": 206,
      "phones": [
        {
          "duration": 0.08,
          "phone": "n_B"
        },
        {
          "duration": 0.09,
          "phone": "ay_I"
        },
        {
          "duration": 0.05,
          "phone": "n_I"
        },
        {
          "duration": 0.11,
          "phone": "t_I"
        },
        {
          "duration": 0.12,
          "phone": "iy_I"
        },
        {
          "duration": 0.06,
          "phone": "n_E"
        }
      ],
      "start": 13.83,
      "startOffset": 198,
      "word": "NINETEEN"
    },
    {
      "alignedWord": "eighteen",
      "case": "success",
      "end": 14.94,
      "endOffset": 215,
      "phones": [
        {
          "duration": 0.14,
          "phone": "ey_B"
        },
        {
          "duration": 0.13,
          "phone": "t_I"
        },
        {
          "duration": 0.18,
          "phone": "iy_I"
        },
        {
          "duration": 0.15,
          "phone": "n_E"
        }
      ],
      "start": 14.34,
      "startOffset": 207,
      "word": "EIGHTEEN"
    }
  ]
}