{
  "transcript": "OBSERVING WITH DIGNITY I'VE GOT MONEY ENOUGH TO TREAT THE WHOLE CROWD IF I CHOOSE TO WHICH I DON'T THEN COME ALONG AND HAVE A JOLLY TIME WITH SAM AND ME WE CAN BUY SOME DINNER AND GET A RIDE HOME AS LIKE AS NOT",
  "words": [
    {
      "alignedWord": "observing",
      "case": "success",
      "end": 0.7999999999999999,
      "endOffset": 9,
      "phones": [
        {
          "duration": 0.11,
          "phone": "ah_B"
        },
        {
          "duration": 0.08,
          "phone": "b_I"
        },
        {
          "duration": 0.11,
          "phone": "z_I"
        },
        {
          "duration": 0.12,
          "phone": "er_I"
        },
        {
          "duration": 0.04,
          "phone": "v_I"
        },
        {
          "duration": 0.07,
          "phone": "ih_I"
        },
        {
          "duration": 0.06,
          "phone": "ng_E"
        }
      ],
      "start": 0.21,
      "startOffset": 0,
      "word": "OBSERVING"
    },
    {
      "alignedWord": "with",
      "case": "success",
      "end": 0.9500000000000001,
      "endOffset": 14,
      "phones": [
        {
          "duration": 0.04,
          "phone": "w_B"
        },
        {
          "duration": 0.05,
          "phone": "ih_I"
        },
        {
          "duration": 0.06,
          "phone": "dh_E"
        }
      ],
      "start": 0.8,
      "startOffset": 10,
      "word": "WITH"
    },
    {
      "alignedWord": "dignity",
      "case": "success",
      "end": 1.54,
      "endOffset": 22,
      "phones": [
        {
          "duration": 0.05,
          "phone": "d_B"
        },
        {
          "duration": 0.08,
          "phone": "ih_I"
        },
        {
          "duration": 0.07,
          "phone": "g_I"
        },
        {
          "duration": 0.04,
          "phone": "n_I"
        },
        {
          "duration": 0.07,
          "phone": "ah_I"
        },
        {
          "duration": 0.06,
          "phone": "t_I"
        },
        {
          "duration": 0.22,
          "phone": "iy_E"
        }
      ],
      "start": 0.95,
      "startOffset": 15,
      "word": "DIGNITY"
    },
    {
      "alignedWord": "i've",
      "case": "success",
      "end": 2.5599999999999996,
      "endOffset": 27,
      "phones": [
        {
          "duration": 0.17,
          "phone": "ay_B"
        },
        {
          "duration": 0.09,
          "phone": "v_E"
        }
      ],
      "start": 2.3,
      "startOffset": 23,
      "word": "I'VE"
    },
    {
      "alignedWord": "got",
      "case": "success",
      "end": 2.7600000000000002,
      "endOffset": 31,
      "phones": [
        {
          "duration": 0.05,
          "phone": "g_B"
        },
        {
          "duration": 0.08,
          "phone": "aa_I"
        },
        {
          "duration": 0.07,
          "phone": "t_E"
        }
      ],
      "start": 2.56,
      "startOffset": 28,
      "word": "GOT"
    },
    {
      "alignedWord": "money",
      "case": "success",
      "end": 3.04,
      "endOffset": 37,
      "phones": [
        {
          "duration": 0.08,
          "phone": "m_B"
        },
        {
          "duration": 0.07,
          "phone": "ah_I"
        },
        {
          "duration": 0.06,
          "phone": "n_I"
        },
        {
          "duration": 0.07,
          "phone": "iy_E"
        }
      ],
      "start": 2.76,
      "startOffset": 32,
      "word": "MONEY"
    },
    {
      "alignedWord": "enough",
      "case": "success",
      "end": 3.39,
      "endOffset": 44,
      "phones": [
        {
          "duration": 0.06,
          "phone": "ih_B"
        },
        {
          "duration": 0.12,
          "phone": "n_I"
        },
        {
          "duration": 0.09,
          "phone": "ah_I"
        },
        {
          "duration": 0.08,
          "phone": "f_E"
        }
      ],
      "start": 3.04,
      "startOffset": 38,
      "word": "ENOUGH"
    },
    {
      "alignedWord": "to",
      "case": "success",
      "end": 3.5,
      "endOffset": 47,
      "phones": [
        {
          "duration": 0.06,
          "phone": "t_B"
        },
        {
          "duration": 0.05,
          "phone": "ah_E"
        }
      ],
      "start": 3.39,
      "startOffset": 45,
      "word": "TO"
    },
    {
      "alignedWord": "treat",
      "case": "success",
      "end": 3.82,
      "endOffset": 53,
      "phones": [
        {
          "duration": 0.12,
          "phone": "t_B"
        },
        {
          "duration": 0.07,
          "phone": "r_I"
        },
        {
          "duration": 0.04,
          "phone": "iy_I"
        },
        {
          "duration": 0.09,
          "phone": "t_E"
        }
      ],
      "start": 3.5,
      "startOffset": 48,
      "word": "TREAT"
    },
    {
      "alignedWord": "the",
      "case": "success",
      "end": 3.9499999999999997,
      "endOffset": 57,
      "phones": [
        {
          "duration": 0.07,
          "phone": "dh_B"
        },
        {
          "duration": 0.06,
          "phone": "ah_E"
        }
      ],
      "start": 3.82,
      "startOffset": 54,
      "word": "THE"
    },
    {
      "alignedWord": "whole",
      "case": "success",
      "end": 4.3100000000000005,
      "endOffset": 63,
      "phones": [
        {
          "duration": 0.1,
          "phone": "hh_B"
        },
        {
          "duration": 0.12,
          "phone": "ow_I"
        },
        {
          "duration": 0.14,
          "phone": "l_E"
        }
      ],
      "start": 3.95,
      "startOffset": 58,
      "word": "WHOLE"
    },
    {
      "alignedWord": "crowd",
      "case": "success",
      "end": 4.73,
      "endOffset": 69,
      "phones": [
        {
          "duration": 0.1,
          "phone": "k_B"
        },
        {
          "duration": 0.08,
          "phone": "r_I"
        },
        {
          "duration": 0.18,
          "phone": "aw_I"
        },
        {
          "duration": 0.05,
          "phone": "d_E"
        }
      ],
      "start": 4.32,
      "startOffset": 64,
      "word": "CROWD"
    },
    {
      "alignedWord": "if",
      "case": "success",
      "end": 4.890000000000001,
      "endOffset": 72,
      "phones": [
        {
          "duration": 0.07,
          "phone": "ih_B"
        },
        {
          "duration": 0.09,
          "phone": "f_E"
        }
      ],
      "start": 4.73,
      "startOffset": 70,
      "word": "IF"
    },
    {
      "alignedWord": "i",
      "case": "success",
      "end": 5.029999999999999,
      "endOffset": 74,
      "phones": [
        {
          "duration": 0.14,
          "phone": "ay_S"
        }
      ],
      "start": 4.89,
      "startOffset": 73,
      "word": "I"
    },
    {
      "alignedWord": "choose",
      "case": "success",
      "end": 5.38,
      "endOffset": 81,
      "phones": [
        {
          "duration": 0.13,
          "phone": "ch_B"
        },
        {
          "duration": 0.13,
          "phone": "uw_I"
        },
        {
          "duration": 0.08,
          "phone": "z_E"
        }
      ],
      "start": 5.04,
      "startOffset": 75,
      "word": "CHOOSE"
    },
    {
      "alignedWord": "to",
      "case": "success",
      "end": 5.7,
      "endOffset": 84,
      "phones": [
        {
          "duration": 0.09,
          "phone": "t_B"
        },
        {
          "duration": 0.23,
          "phone": "uw_E"
        }
      ],
      "start": 5.38,
      "startOffset": 82,
      "word": "TO"
    },
    {
      "alignedWord": "which",
      "case": "success",
      "end": 6.71,
      "endOffset": 90,
      "phones": [
        {
          "duration": 0.1,
          "phone": "w_B"
        },
        {
          "duration": 0.08,
          "phone": "ih_I"
        },
        {
          "duration": 0.19,
          "phone": "ch_E"
        }
      ],
      "start": 6.34,
      "startOffset": 85,
      "word": "WHICH"
    },
    {
      "alignedWord": "i",
      "case": "success",
      "end": 7.14,
      "endOffset": 92,
      "phones": [
        {
          "duration": 0.39,
          "phone": "ay_S"
        }
      ],
      "start": 6.75,
      "startOffset": 91,
      "word": "I"
    },
    {
      "alignedWord": "don't",
      "case": "success",
      "end": 7.48,
      "endOffset": 98,
      "phones": [
        {
          "duration": 0.11,
          "phone": "d_B"
        },
        {
          "duration": 0.12,
          "phone": "ow_I"
        },
        {
          "duration": 0.04,
          "phone": "n_I"
        },
        {
          "duration": 0.02,
          "phone": "t_E"
        }
      ],
      "start": 7.19,
      "startOffset": 93,
      "word": "DON'T"
    },
    {
      "alignedWord": "then",
      "case": "success",
      "end": 8.860000000000001,
      "endOffset": 103,
      "phones": [
        {
          "duration": 0.08,
          "phone": "dh_B"
        },
        {
          "duration": 0.05,
          "phone": "eh_I"
        },
        {
          "duration": 0.08,
          "phone": "n_E"
        }
      ],
      "start": 8.65,
      "startOffset": 99,
      "word": "THEN"
    },
    {
      "alignedWord": "come",
      "case": "success",
      "end": 9.049999999999999,
      "endOffset": 108,
      "phones": [
        {
          "duration": 0.06,
          "phone": "k_B"
        },
        {
          "duration": 0.1,
          "phone": "ah_I"
        },
        {
          "duration": 0.03,
          "phone": "m_E"
        }
      ],
      "start": 8.86,
      "startOffset": 104,
      "word": "COME"
    },
    {
      "alignedWord": "along",
      "case": "success",
      "end": 9.41,
      "endOffset": 114,
      "phones": [
        {
          "duration": 0.06,
          "phone": "ah_B"
        },
        {
          "duration": 0.07,
          "phone": "l_I"
        },
        {
          "duration": 0.15,
          "phone": "ao_I"
        },
        {
          "duration": 0.08,
          "phone": "ng_E"
        }
      ],
      "start": 9.05,
      "startOffset": 109,
      "word": "ALONG"
    },
    {
      "alignedWord": "and",
      "case": "success",
      "end": 9.49,
      "endOffset": 118,
      "phones": [
        {
          "duration": 0.04,
          "phone": "ah_B"
        },
        {
          "duration": 0.01,
          "phone": "n_I"
        },
        {
          "duration": 0.03,
          "phone": "d_E"
        }
      ],
      "start": 9.41,
      "startOffset": 115,
      "word": "AND"
    },
    {
      "alignedWord": "have",
      "case": "success",
      "end": 9.73,
      "endOffset": 123,
      "phones": [
        {
          "duration": 0.1,
          "phone": "hh_B"
        },
        {
          "duration": 0.07,
          "phone": "ae_I"
        },
        {
          "duration": 0.06,
          "phone": "v_E"
        }
      ],
      "start": 9.5,
      "startOffset": 119,
      "word": "HAVE"
    },
    {
      "alignedWord": "a",
      "case": "success",
      "end": 9.8,
      "endOffset": 125,
      "phones": [
        {
          "duration": 0.07,
          "phone": "ah_S"
        }
      ],
      "start": 9.73,
      "startOffset": 124,
      "word": "A"
    },
    {
      "alignedWord": "jolly",
      "case": "success",
      "end": 10.16,
      "endOffset": 131,
      "phones": [
        {
          "duration": 0.13,
          "phone": "jh_B"
        },
        {
          "duration": 0.09,
          "phone": "aa_I"
        },
        {
          "duration": 0.07,
          "phone": "l_I"
        },
        {
          "duration": 0.07,
          "phone": "iy_E"
        }
      ],
      "start": 9.8,
      "startOffset": 126,
      "word": "JOLLY"
    },
    {
      "alignedWord": "time",
      "case": "success",
      "end": 10.53,
      "endOffset": 136,
      "phones": [
        {
          "duration": 0.11,
          "phone": "t_B"
        },
        {
          "duration": 0.19,
          "phone": "ay_I"
        },
        {
          "duration": 0.07,
          "phone": "m_E"
        }
      ],
      "start": 10.16,
      "startOffset": 132,
      "word": "TIME"
    },
    {
      "alignedWord": "with",
      "case": "success",
      "end": 10.69,
      "endOffset": 141,
      "phones": [
        {
          "duration": 0.06,
          "phone": "w_B"
        },
        {
          "duration": 0.03,
          "phone": "ih_I"
        },
        {
          "duration": 0.07,
          "phone": "th_E"
        }
      ],
      "start": 10.53,
      "startOffset": 137,
      "word": "WITH"
    },
    {
      "alignedWord": "sam",
      "case": "success",
      "end": 10.969999999999999,
      "endOffset": 145,
      "phones": [
        {
          "duration": 0.11,
          "phone": "s_B"
        },
        {
          "duration": 0.11,
          "phone": "ae_I"
        },
        {
          "duration": 0.06,
          "phone": "m_E"
        }
      ],
      "start": 10.69,
      "startOffset": 142,
      "word": "SAM"
    },
    {
      "alignedWord": "and",
      "case": "success",
      "end": 11.069999,
      "endOffset": 149,
      "phones": [
        {
          "duration": 0.03,
          "phone": "ae_B"
        },
        {
          "duration": 0.02,
          "phone": "n_I"
        },
        {
          "duration": 0.05,
          "phone": "d_E"
        }
      ],
      "start": 10.969999,
      "startOffset": 146,
      "word": "AND"
    },
    {
      "alignedWord": "me",
      "case": "success",
      "end": 11.36,
      "endOffset": 152,
      "phones": [
        {
          "duration": 0.09,
          "phone": "m_B"
        },
        {
          "duration": 0.2,
          "phone": "iy_E"
        }
      ],
      "start": 11.07,
      "startOffset": 150,
      "word": "ME"
    },
    {
      "alignedWord": "we",
      "case": "success",
      "end": 12.09,
      "endOffset": 155,
      "phones": [
        {
          "duration": 0.13,
          "phone": "w_B"
        },
        {
          "duration": 0.09,
          "phone": "iy_E"
        }
      ],
      "start": 11.87,
      "startOffset": 153,
      "word": "WE"
    },
    {
      "alignedWord": "can",
      "case": "success",
      "end": 12.24,
      "endOffset": 159,
      "phones": [
        {
          "duration": 0.04,
          "phone": "k_B"
        },
        {
          "duration": 0.05,
          "phone": "ah_I"
        },
        {
          "duration": 0.06,
          "phone": "n_E"
        }
      ],
      "start": 12.09,
      "startOffset": 156,
      "word": "CAN"
    },
    {
      "alignedWord": "buy",
      "case": "success",
      "end": 12.47,
      "endOffset": 163,
      "phones": [
        {
          "duration": 0.1,
          "phone": "b_B"
        },
        {
          "duration": 0.13,
          "phone": "ay_E"
        }
      ],
      "start": 12.24,
      "startOffset": 160,
      "word": "BUY"
    },
    {
      "alignedWord": "some",
      "case": "success",
      "end": 12.639999,
      "endOffset": 168,
      "phones": [
        {
          "duration": 0.05,
          "phone": "s_B"
        },
        {
          "duration": 0.05,
          "phone": "ah_I"
        },
        {
          "duration": 0.07,
          "phone": "m_E"
        }
      ],
      "start": 12.469999,
      "startOffset": 164,
      "word": "SOME"
    },
    {
      "alignedWord": "dinner",
      "case": "success",
      "end": 13.079998999999999,
      "endOffset": 175,
      "phones": [
        {
          "duration": 0.06,
          "phone": "d_B"
        },
        {
          "duration": 0.1,
          "phone": "ih_I"
        },
        {
          "duration": 0.07,
          "phone": "n_I"
        },
        {
          "duration": 0.21,
          "phone": "er_E"
        }
      ],
      "start": 12.639999,
      "startOffset": 169,
      "word": "DINNER"
    },
    {
      "alignedWord": "and",
      "case": "success",
      "end": 13.319999999999999,
      "endOffset": 179,
      "phones": [
        {
          "duration": 0.06,
          "phone": "ae_B"
        },
        {
          "duration": 0.07,
          "phone": "n_I"
        },
        {
          "duration": 0.07,
          "phone": "d_E"
        }
      ],
      "start": 13.12,
      "startOffset": 176,
      "word": "AND"
    },
    {
      "alignedWord": "get",
      "case": "success",
      "end": 13.46,
      "endOffset": 183,
      "phones": [
        {
          "duration": 0.04,
          "phone": "g_B"
        },
        {
          "duration": 0.07,
          "phone": "eh_I"
        },
        {
          "duration": 0.03,
          "phone": "t_E"
        }
      ],
      "start": 13.32,
      "startOffset": 180,
      "word": "GET"
    },
    {
      "alignedWord": "a",
      "case": "success",
      "end": 13.530000000000001,
      "endOffset": 185,
      "phones": [
        {
          "duration": 0.07,
          "phone": "ah_S"
        }
      ],
      "start": 13.46,
      "startOffset": 184,
      "word": "A"
    },
    {
      "alignedWord": "ride",
      "case": "success",
      "end": 13.799999999999999,
      "endOffset": 190,
      "phones": [
        {
          "duration": 0.09,
          "phone": "r_B"
        },
        {
          "duration": 0.12,
          "phone": "ay_I"
        },
        {
          "duration": 0.06,
          "phone": "d_E"
        }
      ],
      "start": 13.53,
      "startOffset": 186,
      "word": "RIDE"
    },
    {
      "alignedWord": "home",
      "case": "success",
      "end": 14.079998999999999,
      "endOffset": 195,
      "phones": [
        {
          "duration": 0.08,
          "phone": "hh_B"
        },
        {
          "duration": 0.13,
          "phone": "ow_I"
        },
        {
          "duration": 0.07,
          "phone": "m_E"
        }
      ],
      "start": 13.799999,
      "startOffset": 191,
      "word": "HOME"
    },
    {
      "alignedWord": "as",
      "case": "success",
      "end": 14.22,
      "endOffset": 198,
      "phones": [
        {
          "duration": 0.07,
          "phone": "eh_B"
        },
        {
          "duration": 0.07,
          "phone": "z_E"
        }
      ],
      "start": 14.08,
      "startOffset": 196,
      "word": "AS"
    },
    {
      "alignedWord": "like",
      "case": "success",
      "end": 14.459999,
      "endOffset": 203,
      "phones": [
        {
          "duration": 0.08,
          "phone": "l_B"
        },
        {
          "duration": 0.11,
          "phone": "ay_I"
        },
        {
          "duration": 0.05,
          "phone": "k_E"
        }
      ],
      "start": 14.219999,
      "startOffset": 199,
      "word": "LIKE"
    },
    {
      "alignedWord": "as",
      "case": "success",
      "end": 14.57,
      "endOffset": 206,
      "phones": [
        {
          "duration": 0.05,
          "phone": "eh_B"
        },
        {
          "duration": 0.06,
          "phone": "z_E"
        }
      ],
      "start": 14.46,
      "startOffset": 204,
      "word": "AS"
    },
    {
      "alignedWord": "not",
      "case": "success",
      "end": 14.92,
      "endOffset": 210,
      "phones": [
        {
          "duration": 0.07,
          "phone": "n_B"
        },
        {
          "duration": 0.18,
          "phone": "aa_I"
        },
        {
          "duration": 0.1,
          "phone": "t_E"
        }
      ],
      "start": 14.57,
      "startOffset": 207,
      "word": "NOT"
    }
  ]
}