{
  "transcript": "LOOKING AT THE MAN ATTENTIVELY RECOGNIZED HIM AS A RETAINER WHOM HE HAD HAD IN HIS EMPLOY THE YEAR BEFORE AND SAID THIS IS A CURIOUS MEETING PRAY WHAT HAVE YOU BEEN ABOUT SINCE YOU LEFT MY SERVICE AT ANY RATE",
  "words": [
    {
      "alignedWord": "looking",
      "case": "success",
      "end": 0.44999999999999996,
      "endOffset": 7,
      "phones": [
        {
          "duration": 0.04,
          "phone": "l_B"
        },
        {
          "duration": 0.06,
          "phone": "uh_I"
        },
        {
          "duration": 0.07,
          "phone": "k_I"
        },
        {
          "duration": 0.06,
          "phone": "ih_I"
        },
        {
          "duration": 0.06,
          "phone": "ng_E"
        }
      ],
      "start": 0.16,
      "startOffset": 0,
      "word": "LOOKING"
    },
    {
      "alignedWord": "at",
      "case": "success",
      "end": 0.5800000000000001,
      "endOffset": 10,
      "phones": [
        {
          "duration": 0.07,
          "phone": "ae_B"
        },
        {
          "duration": 0.06,
          "phone": "t_E"
        }
      ],
      "start": 0.45,
      "startOffset": 8,
      "word": "AT"
    },
    {
      "alignedWord": "the",
      "case": "success",
      "end": 0.6699999999999999,
      "endOffset": 14,
      "phones": [
        {
          "duration": 0.04,
          "phone": "dh_B"
        },
        {
          "duration": 0.05,
          "phone": "ah_E"
        }
      ],
      "start": 0.58,
      "startOffset": 11,
      "word": "THE"
    },
    {
      "alignedWord": "man",
      "case": "success",
      "end": 0.9500000000000001,
      "endOffset": 18,
      "phones": [
        {
          "duration": 0.11,
          "phone": "m_B"
        },
        {
          "duration": 0.09,
          "phone": "ae_I"
        },
        {
          "duration": 0.08,
          "phone": "n_E"
        }
      ],
      "start": 0.67,
      "startOffset": 15,
      "word": "MAN"
    },
    {
      "alignedWord": "attentively",
      "case": "success",
      "end": 1.79,
      "endOffset": 30,
      "phones": [
        {
          "duration": 0.08,
          "phone": "ah_B"
        },
        {
          "duration": 0.08,
          "phone": "t_I"
        },
        {
          "duration": 0.09,
          "phone": "eh_I"
        },
        {
          "duration": 0.06,
          "phone": "n_I"
        },
        {
          "duration": 0.06,
          "phone": "t_I"
        },
        {
          "duration": 0.07,
          "phone": "ih_I"
        },
        {
          "duration": 0.08,
          "phone": "v_I"
        },
        {
          "duration": 0.08,
          "phone": "l_I"
        },
        {
          "duration": 0.23,
          "phone": "iy_E"
        }
      ],
      "start": 0.96,
      "startOffset": 19,
      "word": "ATTENTIVELY"
    },
    {
      "alignedWord": "recognized",
      "case": "success",
      "end": 2.55,
      "endOffset": 41,
      "phones": [
        {
          "duration": 0.08,
          "phone": "r_B"
        },
        {
          "duration": 0.07,
          "phone": "eh_I"
        },
        {
          "duration": 0.06,
          "phone": "k_I"
        },
        {
          "duration": 0.01,
          "phone": "ah_I"
        },
        {
          "duration": 0.06,
          "phone": "g_I"
        },
        {
          "duration": 0.06,
          "phone": "n_I"
        },
        {
          "duration": 0.17,
          "phone": "ay_I"
        },
        {
          "duration": 0.09,
          "phone": "z_I"
        },
        {
          "duration": 0.04,
          "phone": "d_E"
        }
      ],
      "start": 1.91,
      "startOffset": 31,
      "word": "RECOGNIZED"
    },
    {
      "alignedWord": "him",
      "case": "success",
      "end": 2.7199999999999998,
      "endOffset": 45,
      "phones": [
        {
          "duration": 0.05,
          "phone": "hh_B"
        },
        {
          "duration": 0.05,
          "phone": "ih_I"
        },
        {
          "duration": 0.07,
          "phone": "m_E"
        }
      ],
      "start": 2.55,
      "startOffset": 42,
      "word": "HIM"
    },
    {
      "alignedWord": "as",
      "case": "success",
      "end": 2.89,
      "endOffset": 48,
      "phones": [
        {
          "duration": 0.08,
          "phone": "eh_B"
        },
        {
          "duration": 0.06,
          "phone": "z_E"
        }
      ],
      "start": 2.75,
      "startOffset": 46,
      "word": "AS"
    },
    {
      "alignedWord": "a",
      "case": "success",
      "end": 2.97,
      "endOffset": 50,
      "phones": [
        {
          "duration": 0.08,
          "phone": "ah_S"
        }
      ],
      "start": 2.89,
      "startOffset": 49,
      "word": "A"
    },
    {
      "alignedWord": "retainer",
      "case": "success",
      "end": 3.5300000000000002,
      "endOffset": 59,
      "phones": [
        {
          "duration": 0.05,
          "phone": "r_B"
        },
        {
          "duration": 0.08,
          "phone": "iy_I"
        },
        {
          "duration": 0.13,
          "phone": "t_I"
        },
        {
          "duration": 0.12,
          "phone": "ey_I"
        },
        {
          "duration": 0.09,
          "phone": "n_I"
        },
        {
          "duration": 0.09,
          "phone": "er_E"
        }
      ],
      "start": 2.97,
      "startOffset": 51,
      "word": "RETAINER"
    },
    {
      "alignedWord": "whom",
      "case": "success",
      "end": 3.7699999999999996,
      "endOffset": 64,
      "phones": [
        {
          "duration": 0.11,
          "phone": "hh_B"
        },
        {
          "duration": 0.09,
          "phone": "uw_I"
        },
        {
          "duration": 0.04,
          "phone": "m_E"
        }
      ],
      "start": 3.53,
      "startOffset": 60,
      "word": "WHOM"
    },
    {
      "alignedWord": "he",
      "case": "success",
      "end": 3.97,
      "endOffset": 67,
      "phones": [
        {
          "duration": 0.09,
          "phone": "hh_B"
        },
        {
          "duration": 0.11,
          "phone": "iy_E"
        }
      ],
      "start": 3.77,
      "startOffset": 65,
      "word": "HE"
    },
    {
      "alignedWord": "had",
      "case": "success",
      "end": 4.12,
      "endOffset": 71,
      "phones": [
        {
          "duration": 0.01,
          "phone": "hh_B"
        },
        {
          "duration": 0.08,
          "phone": "ae_I"
        },
        {
          "duration": 0.06,
          "phone": "d_E"
        }
      ],
      "start": 3.97,
      "startOffset": 68,
      "word": "HAD"
    },
    {
      "alignedWord": "had",
      "case": "success",
      "end": 4.56,
      "endOffset": 75,
      "phones": [
        {
          "duration": 0.13,
          "phone": "hh_B"
        },
        {
          "duration": 0.2,
          "phone": "ae_I"
        },
        {
          "duration": 0.1,
          "phone": "d_E"
        }
      ],
      "start": 4.13,
      "startOffset": 72,
      "word": "HAD"
    },
    {
      "alignedWord": "in",
      "case": "success",
      "end": 4.76,
      "endOffset": 78,
      "phones": [
        {
          "duration": 0.1,
          "phone": "ih_B"
        },
        {
          "duration": 0.04,
          "phone": "n_E"
        }
      ],
      "start": 4.62,
      "startOffset": 76,
      "word": "IN"
    },
    {
      "alignedWord": "his",
      "case": "success",
      "end": 4.92,
      "endOffset": 82,
      "phones": [
        {
          "duration": 0.04,
          "phone": "hh_B"
        },
        {
          "duration": 0.03,
          "phone": "ih_I"
        },
        {
          "duration": 0.09,
          "phone": "z_E"
        }
      ],
      "start": 4.76,
      "startOffset": 79,
      "word": "HIS"
    },
    {
      "alignedWord": "employ",
      "case": "success",
      "end": 5.45,
      "endOffset": 89,
      "phones": [
        {
          "duration": 0.1,
          "phone": "eh_B"
        },
        {
          "duration": 0.07,
          "phone": "m_I"
        },
        {
          "duration": 0.11,
          "phone": "p_I"
        },
        {
          "duration": 0.07,
          "phone": "l_I"
        },
        {
          "duration": 0.18,
          "phone": "oy_E"
        }
      ],
      "start": 4.92,
      "startOffset": 83,
      "word": "EMPLOY"
    },
    {
      "alignedWord": "the",
      "case": "success",
      "end": 5.6000000000000005,
      "endOffset": 93,
      "phones": [
        {
          "duration": 0.09,
          "phone": "dh_B"
        },
        {
          "duration": 0.06,
          "phone": "iy_E"
        }
      ],
      "start": 5.45,
      "startOffset": 90,
      "word": "THE"
    },
    {
      "alignedWord": "year",
      "case": "success",
      "end": 5.84,
      "endOffset": 98,
      "phones": [
        {
          "duration": 0.1,
          "phone": "y_B"
        },
        {
          "duration": 0.08,
          "phone": "ih_I"
        },
        {
          "duration": 0.06,
          "phone": "r_E"
        }
      ],
      "start": 5.6,
      "startOffset": 94,
      "word": "YEAR"
    },
    {
      "alignedWord": "before",
      "case": "success",
      "end": 6.4399999999999995,
      "endOffset": 105,
      "phones": [
        {
          "duration": 0.05,
          "phone": "b_B"
        },
        {
          "duration": 0.07,
          "phone": "ih_I"
        },
        {
          "duration": 0.14,
          "phone": "f_I"
        },
        {
          "duration": 0.16,
          "phone": "ao_I"
        },
        {
          "duration": 0.18,
          "phone": "r_E"
        }
      ],
      "start": 5.84,
      "startOffset": 99,
      "word": "BEFORE"
    },
    {
      "alignedWord": "and",
      "case": "success",
      "end": 6.77,
      "endOffset": 109,
      "phones": [
        {
          "duration": 0.08,
          "phone": "ae_B"
        },
        {
          "duration": 0.06,
          "phone": "n_I"
        },
        {
          "duration": 0.08,
          "phone": "d_E"
        }
      ],
      "start": 6.55,
      "startOffset": 106,
      "word": "AND"
    },
    {
      "alignedWord": "said",
      "case": "success",
      "end": 7.25,
      "endOffset": 114,
      "phones": [
        {
          "duration": 0.12,
          "phone": "s_B"
        },
        {
          "duration": 0.18,
          "phone": "eh_I"
        },
        {
          "duration": 0.18,
          "phone": "d_E"
        }
      ],
      "start": 6.77,
      "startOffset": 110,
      "word": "SAID"
    },
    {
      "alignedWord": "this",
      "case": "success",
      "end": 7.91,
      "endOffset": 119,
      "phones": [
        {
          "duration": 0.09,
          "phone": "dh_B"
        },
        {
          "duration": 0.1,
          "phone": "ih_I"
        },
        {
          "duration": 0.05,
          "phone": "s_E"
        }
      ],
      "start": 7.67,
      "startOffset": 115,
      "word": "THIS"
    },
    {
      "alignedWord": "is",
      "case": "success",
      "end": 8.06,
      "endOffset": 122,
      "phones": [
        {
          "duration": 0.07,
          "phone": "ih_B"
        },
        {
          "duration": 0.08,
          "phone": "z_E"
        }
      ],
      "start": 7.91,
      "startOffset": 120,
      "word": "IS"
    },
    {
      "alignedWord": "a",
      "case": "success",
      "end": 8.149999,
      "endOffset": 124,
      "phones": [
        {
          "duration": 0.09,
          "phone": "ah_S"
        }
      ],
      "start": 8.059999,
      "startOffset": 123,
      "word": "A"
    },
    {
      "alignedWord": "curious",
      "case": "success",
      "end": 8.58,
      "endOffset": 132,
      "phones": [
        {
          "duration": 0.13,
          "phone": "k_B"
        },
        {
          "duration": 0.01,
          "phone": "y_I"
        },
        {
          "duration": 0.09,
          "phone": "uh_I"
        },
        {
          "duration": 0.06,
          "phone": "r_I"
        },
        {
          "duration": 0.04,
          "phone": "iy_I"
        },
        {
          "duration": 0.03,
          "phone": "ah_I"
        },
        {
          "duration": 0.07,
          "phone": "s_E"
        }
      ],
      "start": 8.15,
      "startOffset": 125,
      "word": "CURIOUS"
    },
    {
      "alignedWord": "meeting",
      "case": "success",
      "end": 9.17,
      "endOffset": 140,
      "phones": [
        {
          "duration": 0.09,
          "phone": "m_B"
        },
        {
          "duration": 0.08,
          "phone": "iy_I"
        },
        {
          "duration": 0.08,
          "phone": "t_I"
        },
        {
          "duration": 0.1,
          "phone": "ih_I"
        },
        {
          "duration": 0.2,
          "phone": "ng_E"
        }
      ],
      "start": 8.62,
      "startOffset": 133,
      "word": "MEETING"
    },
    {
      "alignedWord": "pray",
      "case": "success",
      "end": 9.98,
      "endOffset": 145,
      "phones": [
        {
          "duration": 0.08,
          "phone": "p_B"
        },
        {
          "duration": 0.1,
          "phone": "r_I"
        },
        {
          "duration": 0.34,
          "phone": "ey_E"
        }
      ],
      "start": 9.46,
      "startOffset": 141,
      "word": "PRAY"
    },
    {
      "alignedWord": "what",
      "case": "success",
      "end": 10.36,
      "endOffset": 150,
      "phones": [
        {
          "duration": 0.05,
          "phone": "hh_B"
        },
        {
          "duration": 0.04,
          "phone": "w_I"
        },
        {
          "duration": 0.04,
          "phone": "ah_I"
        },
        {
          "duration": 0.06,
          "phone": "t_E"
        }
      ],
      "start": 10.17,
      "startOffset": 146,
      "word": "WHAT"
    },
    {
      "alignedWord": "have",
      "case": "success",
      "end": 10.549999999999999,
      "endOffset": 155,
      "phones": [
        {
          "duration": 0.07,
          "phone": "hh_B"
        },
        {
          "duration": 0.06,
          "phone": "ae_I"
        },
        {
          "duration": 0.05,
          "phone": "v_E"
        }
      ],
      "start": 10.37,
      "startOffset": 151,
      "word": "HAVE"
    },
    {
      "alignedWord": "you",
      "case": "success",
      "end": 10.71,
      "endOffset": 159,
      "phones": [
        {
          "duration": 0.08,
          "phone": "y_B"
        },
        {
          "duration": 0.08,
          "phone": "uw_E"
        }
      ],
      "start": 10.55,
      "startOffset": 156,
      "word": "YOU"
    },
    {
      "alignedWord": "been",
      "case": "success",
      "end": 10.950000000000001,
      "endOffset": 164,
      "phones": [
        {
          "duration": 0.06,
          "phone": "b_B"
        },
        {
          "duration": 0.09,
          "phone": "ih_I"
        },
        {
          "duration": 0.09,
          "phone": "n_E"
        }
      ],
      "start": 10.71,
      "startOffset": 160,
      "word": "BEEN"
    },
    {
      "alignedWord": "about",
      "case": "success",
      "end": 11.36,
      "endOffset": 170,
      "phones": [
        {
          "duration": 0.05,
          "phone": "ah_B"
        },
        {
          "duration": 0.12,
          "phone": "b_I"
        },
        {
          "duration": 0.14,
          "phone": "aw_I"
        },
        {
          "duration": 0.1,
          "phone": "t_E"
        }
      ],
      "start": 10.95,
      "startOffset": 165,
      "word": "ABOUT"
    },
    {
      "alignedWord": "since",
      "case": "success",
      "end": 11.61,
      "endOffset": 176,
      "phones": [
        {
          "duration": 0.05,
          "phone": "s_B"
        },
        {
          "duration": 0.09,
          "phone": "ih_I"
        },
        {
          "duration": 0.05,
          "phone": "n_I"
        },
        {
          "duration": 0.06,
          "phone": "s_E"
        }
      ],
      "start": 11.36,
      "startOffset": 171,
      "word": "SINCE"
    },
    {
      "alignedWord": "you",
      "case": "success",
      "end": 11.74,
      "endOffset": 180,
      "phones": [
        {
          "duration": 0.06,
          "phone": "y_B"
        },
        {
          "duration": 0.07,
          "phone": "uw_E"
        }
      ],
      "start": 11.61,
      "startOffset": 177,
      "word": "YOU"
    },
    {
      "alignedWord": "left",
      "case": "success",
      "end": 12.0,
      "endOffset": 185,
      "phones": [
        {
          "duration": 0.07,
          "phone": "l_B"
        },
        {
          "duration": 0.08,
          "phone": "eh_I"
        },
        {
          "duration": 0.05,
          "phone": "f_I"
        },
        {
          "duration": 0.06,
          "phone": "t_E"
        }
      ],
      "start": 11.74,
      "startOffset": 181,
      "word": "LEFT"
    },
    {
      "alignedWord": "my",
      "case": "success",
      "end": 12.16,
      "endOffset": 188,
      "phones": [
        {
          "duration": 0.05,
          "phone": "m_B"
        },
        {
          "duration": 0.11,
          "phone": "ay_E"
        }
      ],
      "start": 12.0,
      "startOffset": 186,
      "word": "MY"
    },
    {
      "alignedWord": "service",
      "case": "success",
      "end": 12.88,
      "endOffset": 196,
      "phones": [
        {
          "duration": 0.14,
          "phone": "s_B"
        },
        {
          "duration": 0.12,
          "phone": "er_I"
        },
        {
          "duration": 0.05,
          "phone": "v_I"
        },
        {
          "duration": 0.13,
          "phone": "ah_I"
        },
        {
          "duration": 0.28,
          "phone": "s_E"
        }
      ],
      "start": 12.16,
      "startOffset": 189,
      "word": "SERVICE"
    },
    {
      "alignedWord": "at",
      "case": "success",
      "end": 13.279999,
      "endOffset": 199,
      "phones": [
        {
          "duration": 0.1,
          "phone": "ae_B"
        },
        {
          "duration": 0.04,
          "phone": "t_E"
        }
      ],
      "start": 13.139999,
      "startOffset": 197,
      "word": "AT"
    },
    {
      "alignedWord": "any",
      "case": "success",
      "end": 13.58,
      "endOffset": 203,
      "phones": [
        {
          "duration": 0.1,
          "phone": "eh_B"
        },
        {
          "duration": 0.1,
          "phone": "n_I"
        },
        {
          "duration": 0.1,
          "phone": "iy_E"
        }
      ],
      "start": 13.28,
      "startOffset": 200,
      "word": "ANY"
    },
    {
      "alignedWord": "rate",
      "case": "success",
      "end": 13.74,
      "endOffset": 208,
      "phones": [
        {
          "duration": 0.11,
          "phone": "r_B"
        },
        {
          "duration": 0.04,
          "phone": "ey_I"
        },
        {
          "duration": 0.01,
          "phone": "t_E"
        }
      ],
      "start": 13.58,
      "startOffset": 204,
      "word": "RATE"
    }
  ]
}