{
  "transcript": "BUT THAT IF HE KILLED HER CHILDREN SHE WOULD DESTROY HERSELF RATHER THAN YIELD TO HIS DESIRE WHEN HE HEARD THIS KIYOMORI BEWILDERED BY THE BEAUTY OF TOKIWA SPARED THE LIVES OF HER CHILDREN BUT BANISHED THEM FROM THE CAPITAL",
  "words": [
    {
      "alignedWord": "but",
      "case": "success",
      "end": 0.45,
      "endOffset": 3,
      "phones": [
        {
          "duration": 0.07,
          "phone": "b_B"
        },
        {
          "duration": 0.05,
          "phone": "ah_I"
        },
        {
          "duration": 0.08,
          "phone": "t_E"
        }
      ],
      "start": 0.25,
      "startOffset": 0,
      "word": "BUT"
    },
    {
      "alignedWord": "that",
      "case": "success",
      "end": 0.61,
      "endOffset": 8,
      "phones": [
        {
          "duration": 0.04,
          "phone": "dh_B"
        },
        {
          "duration": 0.06,
          "phone": "ae_I"
        },
        {
          "duration": 0.06,
          "phone": "t_E"
        }
      ],
      "start": 0.45,
      "startOffset": 4,
      "word": "THAT"
    },
    {
      "alignedWord": "if",
      "case": "success",
      "end": 0.76,
      "endOffset": 11,
      "phones": [
        {
          "duration": 0.08,
          "phone": "ih_B"
        },
        {
          "duration": 0.06,
          "phone": "f_E"
        }
      ],
      "start": 0.62,
      "startOffset": 9,
      "word": "IF"
    },
    {
      "alignedWord": "he",
      "case": "success",
      "end": 0.89,
      "endOffset": 14,
      "phones": [
        {
          "duration": 0.05,
          "phone": "hh_B"
        },
        {
          "duration": 0.08,
          "phone": "iy_E"
        }
      ],
      "start": 0.76,
      "startOffset": 12,
      "word": "HE"
    },
    {
      "alignedWord": "killed",
      "case": "success",
      "end": 1.21,
      "endOffset": 21,
      "phones": [
        {
          "duration": 0.1,
          "phone": "k_B"
        },
        {
          "duration": 0.08,
          "phone": "ih_I"
        },
        {
          "duration": 0.07,
          "phone": "l_I"
        },
        {
          "duration": 0.07,
          "phone": "d_E"
        }
      ],
      "start": 0.89,
      "startOffset": 15,
      "word": "KILLED"
    },
    {
      "alignedWord": "her",
      "case": "success",
      "end": 1.3599999999999999,
      "endOffset": 25,
      "phones": [
        {
          "duration": 0.09,
          "phone": "hh_B"
        },
        {
          "duration": 0.06,
          "phone": "er_E"
        }
      ],
      "start": 1.21,
      "startOffset": 22,
      "word": "HER"
    },
    {
      "alignedWord": "children",
      "case": "success",
      "end": 1.9500000000000002,
      "endOffset": 34,
      "phones": [
        {
          "duration": 0.12,
          "phone": "ch_B"
        },
        {
          "duration": 0.09,
          "phone": "ih_I"
        },
        {
          "duration": 0.06,
          "phone": "l_I"
        },
        {
          "duration": 0.04,
          "phone": "d_I"
        },
        {
          "duration": 0.06,
          "phone": "r_I"
        },
        {
          "duration": 0.03,
          "phone": "ah_I"
        },
        {
          "duration": 0.19,
          "phone": "n_E"
        }
      ],
      "start": 1.36,
      "startOffset": 26,
      "word": "CHILDREN"
    },
    {
      "alignedWord": "she",
      "case": "success",
      "end": 2.1999999999999997,
      "endOffset": 38,
      "phones": [
        {
          "duration": 0.14,
          "phone": "sh_B"
        },
        {
          "duration": 0.05,
          "phone": "iy_E"
        }
      ],
      "start": 2.01,
      "startOffset": 35,
      "word": "SHE"
    },
    {
      "alignedWord": "would",
      "case": "success",
      "end": 2.35,
      "endOffset": 44,
      "phones": [
        {
          "duration": 0.05,
          "phone": "w_B"
        },
        {
          "duration": 0.05,
          "phone": "uh_I"
        },
        {
          "duration": 0.05,
          "phone": "d_E"
        }
      ],
      "start": 2.2,
      "startOffset": 39,
      "word": "WOULD"
    },
    {
      "alignedWord": "destroy",
      "case": "success",
      "end": 2.77,
      "endOffset": 52,
      "phones": [
        {
          "duration": 0.02,
          "phone": "d_B"
        },
        {
          "duration": 0.07,
          "phone": "ih_I"
        },
        {
          "duration": 0.05,
          "phone": "s_I"
        },
        {
          "duration": 0.07,
          "phone": "t_I"
        },
        {
          "duration": 0.08,
          "phone": "r_I"
        },
        {
          "duration": 0.13,
          "phone": "oy_E"
        }
      ],
      "start": 2.35,
      "startOffset": 45,
      "word": "DESTROY"
    },
    {
      "alignedWord": "herself",
      "case": "success",
      "end": 3.32,
      "endOffset": 60,
      "phones": [
        {
          "duration": 0.09,
          "phone": "hh_B"
        },
        {
          "duration": 0.04,
          "phone": "er_I"
        },
        {
          "duration": 0.14,
          "phone": "s_I"
        },
        {
          "duration": 0.12,
          "phone": "eh_I"
        },
        {
          "duration": 0.08,
          "phone": "l_I"
        },
        {
          "duration": 0.07,
          "phone": "f_E"
        }
      ],
      "start": 2.78,
      "startOffset": 53,
      "word": "HERSELF"
    },
    {
      "alignedWord": "rather",
      "case": "success",
      "end": 3.7199999999999998,
      "endOffset": 67,
      "phones": [
        {
          "duration": 0.12,
          "phone": "r_B"
        },
        {
          "duration": 0.08,
          "phone": "ah_I"
        },
        {
          "duration": 0.07,
          "phone": "dh_I"
        },
        {
          "duration": 0.11,
          "phone": "er_E"
        }
      ],
      "start": 3.34,
      "startOffset": 61,
      "word": "RATHER"
    },
    {
      "alignedWord": "than",
      "case": "success",
      "end": 3.87,
      "endOffset": 72,
      "phones": [
        {
          "duration": 0.02,
          "phone": "dh_B"
        },
        {
          "duration": 0.08,
          "phone": "ah_I"
        },
        {
          "duration": 0.05,
          "phone": "n_E"
        }
      ],
      "start": 3.72,
      "startOffset": 68,
      "word": "THAN"
    },
    {
      "alignedWord": "yield",
      "case": "success",
      "end": 4.1899999999999995,
      "endOffset": 78,
      "phones": [
        {
          "duration": 0.1,
          "phone": "y_B"
        },
        {
          "duration": 0.1,
          "phone": "iy_I"
        },
        {
          "duration": 0.05,
          "phone": "l_I"
        },
        {
          "duration": 0.06,
          "phone": "d_E"
        }
      ],
      "start": 3.88,
      "startOffset": 73,
      "word": "YIELD"
    },
    {
      "alignedWord": "to",
      "case": "success",
      "end": 4.33,
      "endOffset": 81,
      "phones": [
        {
          "duration": 0.05,
          "phone": "t_B"
        },
        {
          "duration": 0.09,
          "phone": "ih_E"
        }
      ],
      "start": 4.19,
      "startOffset": 79,
      "word": "TO"
    },
    {
      "alignedWord": "his",
      "case": "success",
      "end": 4.57,
      "endOffset": 85,
      "phones": [
        {
          "duration": 0.06,
          "phone": "hh_B"
        },
        {
          "duration": 0.1,
          "phone": "ih_I"
        },
        {
          "duration": 0.08,
          "phone": "z_E"
        }
      ],
      "start": 4.33,
      "startOffset": 82,
      "word": "HIS"
    },
    {
      "alignedWord": "desire",
      "case": "success",
      "end": 5.23,
      "endOffset": 92,
      "phones": [
        {
          "duration": 0.06,
          "phone": "d_B"
        },
        {
          "duration": 0.08,
          "phone": "ih_I"
        },
        {
          "duration": 0.13,
          "phone": "z_I"
        },
        {
          "duration": 0.18,
          "phone": "ay_I"
        },
        {
          "duration": 0.21,
          "phone": "er_E"
        }
      ],
      "start": 4.57,
      "startOffset": 86,
      "word": "DESIRE"
    },
    {
      "alignedWord": "when",
      "case": "success",
      "end": 5.890000000000001,
      "endOffset": 97,
      "phones": [
        {
          "duration": 0.08,
          "phone": "w_B"
        },
        {
          "duration": 0.07,
          "phone": "eh_I"
        },
        {
          "duration": 0.05,
          "phone": "n_E"
        }
      ],
      "start": 5.69,
      "startOffset": 93,
      "word": "WHEN"
    },
    {
      "alignedWord": "he",
      "case": "success",
      "end": 6.05,
      "endOffset": 100,
      "phones": [
        {
          "duration": 0.07,
          "phone": "hh_B"
        },
        {
          "duration": 0.09,
          "phone": "iy_E"
        }
      ],
      "start": 5.89,
      "startOffset": 98,
      "word": "HE"
    },
    {
      "alignedWord": "heard",
      "case": "success",
      "end": 6.359999999999999,
      "endOffset": 106,
      "phones": [
        {
          "duration": 0.1,
          "phone": "hh_B"
        },
        {
          "duration": 0.12,
          "phone": "er_I"
        },
        {
          "duration": 0.09,
          "phone": "d_E"
        }
      ],
      "start": 6.05,
      "startOffset": 101,
      "word": "HEARD"
    },
    {
      "alignedWord": "this",
      "case": "success",
      "end": 6.66,
      "endOffset": 111,
      "phones": [
        {
          "duration": 0.01,
          "phone": "dh_B"
        },
        {
          "duration": 0.13,
          "phone": "ih_I"
        },
        {
          "duration": 0.16,
          "phone": "s_E"
        }
      ],
      "start": 6.36,
      "startOffset": 107,
      "word": "THIS"
    },
    {
      "alignedWord": "<unk>",
      "case": "success",
      "end": 7.59,
      "endOffset": 120,
      "phones": [
        {
          "duration": 0.72,
          "phone": "oov_S"
        }
      ],
      "start": 6.87,
      "startOffset": 112,
      "word": "KIYOMORI"
    },
    {
      "alignedWord": "<unk>",
      "case": "success",
      "end": 8.18,
      "endOffset": 131,
      "phones": [
        {
          "duration": 0.53,
          "phone": "oov_S"
        }
      ],
      "start": 7.65,
      "startOffset": 121,
      "word": "BEWILDERED"
    },
    {
      "alignedWord": "by",
      "case": "success",
      "end": 8.33,
      "endOffset": 134,
      "phones": [
        {
          "duration": 0.08,
          "phone": "b_B"
        },
        {
          "duration": 0.05,
          "phone": "ay_E"
        }
      ],
      "start": 8.2,
      "startOffset": 132,
      "word": "BY"
    },
    {
      "alignedWord": "the",
      "case": "success",
      "end": 8.47,
      "endOffset": 138,
      "phones": [
        {
          "duration": 0.08,
          "phone": "dh_B"
        },
        {
          "duration": 0.06,
          "phone": "ah_E"
        }
      ],
      "start": 8.33,
      "startOffset": 135,
      "word": "THE"
    },
    {
      "alignedWord": "beauty",
      "case": "success",
      "end": 8.860000000000001,
      "endOffset": 145,
      "phones": [
        {
          "duration": 0.07,
          "phone": "b_B"
        },
        {
          "duration": 0.06,
          "phone": "y_I"
        },
        {
          "duration": 0.08,
          "phone": "uw_I"
        },
        {
          "duration": 0.09,
          "phone": "t_I"
        },
        {
          "duration": 0.09,
          "phone": "iy_E"
        }
      ],
      "start": 8.47,
      "startOffset": 139,
      "word": "BEAUTY"
    },
    {
      "alignedWord": "of",
      "case": "success",
      "end": 9.01,
      "endOffset": 148,
      "phones": [
        {
          "duration": 0.07,
          "phone": "ah_B"
        },
        {
          "duration": 0.08,
          "phone": "v_E"
        }
      ],
      "start": 8.86,
      "startOffset": 146,
      "word": "OF"
    },
    {
      "alignedWord": "<unk>",
      "case": "success",
      "end": 9.629999999999999,
      "endOffset": 155,
      "phones": [
        {
          "duration": 0.62,
          "phone": "oov_S"
        }
      ],
      "start": 9.01,
      "startOffset": 149,
      "word": "TOKIWA"
    },
    {
      "alignedWord": "spared",
      "case": "success",
      "end": 10.34,
      "endOffset": 162,
      "phones": [
        {
          "duration": 0.12,
          "phone": "s_B"
        },
        {
          "duration": 0.09,
          "phone": "p_I"
        },
        {
          "duration": 0.1,
          "phone": "eh_I"
        },
        {
          "duration": 0.04,
          "phone": "r_I"
        },
        {
          "duration": 0.08,
          "phone": "d_E"
        }
      ],
      "start": 9.91,
      "startOffset": 156,
      "word": "SPARED"
    },
    {
      "alignedWord": "the",
      "case": "success",
      "end": 10.43,
      "endOffset": 166,
      "phones": [
        {
          "duration": 0.01,
          "phone": "dh_B"
        },
        {
          "duration": 0.08,
          "phone": "ah_E"
        }
      ],
      "start": 10.34,
      "startOffset": 163,
      "word": "THE"
    },
    {
      "alignedWord": "lives",
      "case": "success",
      "end": 10.749999,
      "endOffset": 172,
      "phones": [
        {
          "duration": 0.1,
          "phone": "l_B"
        },
        {
          "duration": 0.13,
          "phone": "ay_I"
        },
        {
          "duration": 0.04,
          "phone": "v_I"
        },
        {
          "duration": 0.05,
          "phone": "z_E"
        }
      ],
      "start": 10.429999,
      "startOffset": 167,
      "word": "LIVES"
    },
    {
      "alignedWord": "of",
      "case": "success",
      "end": 10.91,
      "endOffset": 175,
      "phones": [
        {
          "duration": 0.08,
          "phone": "ah_B"
        },
        {
          "duration": 0.07,
          "phone": "v_E"
        }
      ],
      "start": 10.76,
      "startOffset": 173,
      "word": "OF"
    },
    {
      "alignedWord": "her",
      "case": "success",
      "end": 11.05,
      "endOffset": 179,
      "phones": [
        {
          "duration": 0.07,
          "phone": "hh_B"
        },
        {
          "duration": 0.07,
          "phone": "er_E"
        }
      ],
      "start": 10.91,
      "startOffset": 176,
      "word": "HER"
    },
    {
      "alignedWord": "children",
      "case": "success",
      "end": 11.65,
      "endOffset": 188,
      "phones": [
        {
          "duration": 0.12,
          "phone": "ch_B"
        },
        {
          "duration": 0.09,
          "phone": "ih_I"
        },
        {
          "duration": 0.06,
          "phone": "l_I"
        },
        {
          "duration": 0.05,
          "phone": "d_I"
        },
        {
          "duration": 0.06,
          "phone": "r_I"
        },
        {
          "duration": 0.04,
          "phone": "ah_I"
        },
        {
          "duration": 0.18,
          "phone": "n_E"
        }
      ],
      "start": 11.05,
      "startOffset": 180,
      "word": "CHILDREN"
    },
    {
      "alignedWord": "but",
      "case": "success",
      "end": 12.059999,
      "endOffset": 192,
      "phones": [
        {
          "duration": 0.06,
          "phone": "b_B"
        },
        {
          "duration": 0.05,
          "phone": "ah_I"
        },
        {
          "duration": 0.06,
          "phone": "t_E"
        }
      ],
      "start": 11.889999,
      "startOffset": 189,
      "word": "BUT"
    },
    {
      "alignedWord": "banished",
      "case": "success",
      "end": 12.49,
      "endOffset": 201,
      "phones": [
        {
          "duration": 0.08,
          "phone": "b_B"
        },
        {
          "duration": 0.07,
          "phone": "ae_I"
        },
        {
          "duration": 0.08,
          "phone": "n_I"
        },
        {
          "duration": 0.06,
          "phone": "ih_I"
        },
        {
          "duration": 0.09,
          "phone": "sh_I"
        },
        {
          "duration": 0.04,
          "phone": "t_E"
        }
      ],
      "start": 12.07,
      "startOffset": 193,
      "word": "BANISHED"
    },
    {
      "alignedWord": "them",
      "case": "success",
      "end": 12.71,
      "endOffset": 206,
      "phones": [
        {
          "duration": 0.05,
          "phone": "dh_B"
        },
        {
          "duration": 0.07,
          "phone": "ah_I"
        },
        {
          "duration": 0.1,
          "phone": "m_E"
        }
      ],
      "start": 12.49,
      "startOffset": 202,
      "word": "THEM"
    },
    {
      "alignedWord": "from",
      "case": "success",
      "end": 12.9,
      "endOffset": 211,
      "phones": [
        {
          "duration": 0.06,
          "phone": "f_B"
        },
        {
          "duration": 0.05,
          "phone": "er_I"
        },
        {
          "duration": 0.08,
          "phone": "m_E"
        }
      ],
      "start": 12.71,
      "startOffset": 207,
      "word": "FROM"
    },
    {
      "alignedWord": "the",
      "case": "success",
      "end": 13.0,
      "endOffset": 215,
      "phones": [
        {
          "duration": 0.03,
          "phone": "dh_B"
        },
        {
          "duration": 0.07,
          "phone": "ah_E"
        }
      ],
      "start": 12.9,
      "startOffset": 212,
      "word": "THE"
    },
    {
      "alignedWord": "capital",
      "case": "success",
      "end": 13.66,
      "endOffset": 223,
      "phones": [
        {
          "duration": 0.1,
          "phone": "k_B"
        },
        {
          "duration": 0.09,
          "phone": "ae_I"
        },
        {
          "duration": 0.04,
          "phone": "p_I"
        },
        {
          "duration": 0.07,
          "phone": "ih_I"
        },
        {
          "duration": 0.07,
          "phone": "t_I"
        },
        {
          "duration": 0.1,
          "phone": "ah_I"
        },
        {
          "duration": 0.19,
          "phone": "l_E"
        }
      ],
      "start": 13.0,
      "startOffset": 216,
      "word": "CAPITAL"
    }
  ]
}