{
  "transcript": "YOU SHALL HAVE THE HUNDRED RIYOS YOU ASK FOR BUT AS I HAVE NOT SO MUCH MONEY BY ME AT PRESENT I WILL GO TO GENZABURO'S HOUSE AND FETCH IT IT'S GETTING DARK NOW BUT IT'S NOT VERY LATE",
  "words": [
    {
      "alignedWord": "you",
      "case": "success",
      "end": 0.42000000000000004,
      "endOffset": 3,
      "phones": [
        {
          "duration": 0.1,
          "phone": "y_B"
        },
        {
          "duration": 0.09,
          "phone": "uw_E"
        }
      ],
      "start": 0.23,
      "startOffset": 0,
      "word": "YOU"
    },
    {
      "alignedWord": "shall",
      "case": "success",
      "end": 0.63,
      "endOffset": 9,
      "phones": [
        {
          "duration": 0.09,
          "phone": "sh_B"
        },
        {
          "duration": 0.02,
          "phone": "ae_I"
        },
        {
          "duration": 0.1,
          "phone": "l_E"
        }
      ],
      "start": 0.42,
      "startOffset": 4,
      "word": "SHALL"
    },
    {
      "alignedWord": "have",
      "case": "success",
      "end": 0.95,
      "endOffset": 14,
      "phones": [
        {
          "duration": 0.09,
          "phone": "hh_B"
        },
        {
          "duration": 0.14,
          "phone": "ae_I"
        },
        {
          "duration": 0.09,
          "phone": "v_E"
        }
      ],
      "start": 0.63,
      "startOffset": 10,
      "word": "HAVE"
    },
    {
      "alignedWord": "the",
      "case": "success",
      "end": 1.03,
      "endOffset": 18,
      "phones": [
        {
          "duration": 0.01,
          "phone": "dh_B"
        },
        {
          "duration": 0.07,
          "phone": "ah_E"
        }
      ],
      "start": 0.95,
      "startOffset": 15,
      "word": "THE"
    },
    {
      "alignedWord": "hundred",
      "case": "success",
      "end": 1.37,
      "endOffset": 26,
      "phones": [
        {
          "duration": 0.11,
          "phone": "hh_B"
        },
        {
          "duration": 0.05,
          "phone": "ah_I"
        },
        {
          "duration": 0.01,
          "phone": "n_I"
        },
        {
          "duration": 0.03,
          "phone": "d_I"
        },
        {
          "duration": 0.09,
          "phone": "er_I"
        },
        {
          "duration": 0.05,
          "phone": "d_E"
        }
      ],
      "start": 1.03,
      "startOffset": 19,
      "word": "HUNDRED"
    },
    {
      "alignedWord": "<unk>",
      "case": "success",
      "end": 1.75,
      "endOffset": 32,
      "phones": [
        {
          "duration": 0.37,
          "phone": "oov_S"
        }
      ],
      "start": 1.38,
      "startOffset": 27,
      "word": "RIYOS"
    },
    {
      "alignedWord": "you",
      "case": "success",
      "end": 1.93,
      "endOffset": 36,
      "phones": [
        {
          "duration": 0.05,
          "phone": "y_B"
        },
        {
          "duration": 0.1,
          "phone": "uw_E"
        }
      ],
      "start": 1.78,
      "startOffset": 33,
      "word": "YOU"
    },
    {
      "alignedWord": "ask",
      "case": "success",
      "end": 2.26,
      "endOffset": 40,
      "phones": [
        {
          "duration": 0.15,
          "phone": "ae_B"
        },
        {
          "duration": 0.17,
          "phone": "s_I"
        },
        {
          "duration": 0.01,
          "phone": "k_E"
        }
      ],
      "start": 1.93,
      "startOffset": 37,
      "word": "ASK"
    },
    {
      "alignedWord": "for",
      "case": "success",
      "end": 2.65,
      "endOffset": 44,
      "phones": [
        {
          "duration": 0.11,
          "phone": "f_B"
        },
        {
          "duration": 0.11,
          "phone": "ao_I"
        },
        {
          "duration": 0.17,
          "phone": "r_E"
        }
      ],
      "start": 2.26,
      "startOffset": 41,
      "word": "FOR"
    },
    {
      "alignedWord": "but",
      "case": "success",
      "end": 3.4,
      "endOffset": 48,
      "phones": [
        {
          "duration": 0.1,
          "phone": "b_B"
        },
        {
          "duration": 0.11,
          "phone": "ah_I"
        },
        {
          "duration": 0.12,
          "phone": "t_E"
        }
      ],
      "start": 3.07,
      "startOffset": 45,
      "word": "BUT"
    },
    {
      "alignedWord": "as",
      "case": "success",
      "end": 3.67,
      "endOffset": 51,
      "phones": [
        {
          "duration": 0.16,
          "phone": "ae_B"
        },
        {
          "duration": 0.08,
          "phone": "z_E"
        }
      ],
      "start": 3.43,
      "startOffset": 49,
      "word": "AS"
    },
    {
      "alignedWord": "i",
      "case": "success",
      "end": 3.7399999999999998,
      "endOffset": 53,
      "phones": [
        {
          "duration": 0.07,
          "phone": "ay_S"
        }
      ],
      "start": 3.67,
      "startOffset": 52,
      "word": "I"
    },
    {
      "alignedWord": "have",
      "case": "success",
      "end": 3.99,
      "endOffset": 58,
      "phones": [
        {
          "duration": 0.09,
          "phone": "hh_B"
        },
        {
          "duration": 0.07,
          "phone": "ae_I"
        },
        {
          "duration": 0.08,
          "phone": "v_E"
        }
      ],
      "start": 3.75,
      "startOffset": 54,
      "word": "HAVE"
    },
    {
      "alignedWord": "not",
      "case": "success",
      "end": 4.220000000000001,
      "endOffset": 62,
      "phones": [
        {
          "duration": 0.03,
          "phone": "n_B"
        },
        {
          "duration": 0.12,
          "phone": "aa_I"
        },
        {
          "duration": 0.08,
          "phone": "t_E"
        }
      ],
      "start": 3.99,
      "startOffset": 59,
      "word": "NOT"
    },
    {
      "alignedWord": "so",
      "case": "success",
      "end": 4.39,
      "endOffset": 65,
      "phones": [
        {
          "duration": 0.08,
          "phone": "s_B"
        },
        {
          "duration": 0.09,
          "phone": "ow_E"
        }
      ],
      "start": 4.22,
      "startOffset": 63,
      "word": "SO"
    },
    {
      "alignedWord": "much",
      "case": "success",
      "end": 4.68,
      "endOffset": 70,
      "phones": [
        {
          "duration": 0.08,
          "phone": "m_B"
        },
        {
          "duration": 0.09,
          "phone": "ah_I"
        },
        {
          "duration": 0.12,
          "phone": "ch_E"
        }
      ],
      "start": 4.39,
      "startOffset": 66,
      "word": "MUCH"
    },
    {
      "alignedWord": "money",
      "case": "success",
      "end": 5.01,
      "endOffset": 76,
      "phones": [
        {
          "duration": 0.05,
          "phone": "m_B"
        },
        {
          "duration": 0.09,
          "phone": "ah_I"
        },
        {
          "duration": 0.08,
          "phone": "n_I"
        },
        {
          "duration": 0.11,
          "phone": "iy_E"
        }
      ],
      "start": 4.68,
      "startOffset": 71,
      "word": "MONEY"
    },
    {
      "alignedWord": "by",
      "case": "success",
      "end": 5.26,
      "endOffset": 79,
      "phones": [
        {
          "duration": 0.09,
          "phone": "b_B"
        },
        {
          "duration": 0.16,
          "phone": "ay_E"
        }
      ],
      "start": 5.01,
      "startOffset": 77,
      "word": "BY"
    },
    {
      "alignedWord": "me",
      "case": "success",
      "end": 5.4399999999999995,
      "endOffset": 82,
      "phones": [
        {
          "duration": 0.07,
          "phone": "m_B"
        },
        {
          "duration": 0.11,
          "phone": "iy_E"
        }
      ],
      "start": 5.26,
      "startOffset": 80,
      "word": "ME"
    },
    {
      "alignedWord": "at",
      "case": "success",
      "end": 5.58,
      "endOffset": 85,
      "phones": [
        {
          "duration": 0.07,
          "phone": "ae_B"
        },
        {
          "duration": 0.07,
          "phone": "t_E"
        }
      ],
      "start": 5.44,
      "startOffset": 83,
      "word": "AT"
    },
    {
      "alignedWord": "present",
      "case": "success",
      "end": 6.07,
      "endOffset": 93,
      "phones": [
        {
          "duration": 0.07,
          "phone": "p_B"
        },
        {
          "duration": 0.07,
          "phone": "r_I"
        },
        {
          "duration": 0.09,
          "phone": "eh_I"
        },
        {
          "duration": 0.06,
          "phone": "z_I"
        },
        {
          "duration": 0.07,
          "phone": "ah_I"
        },
        {
          "duration": 0.06,
          "phone": "n_I"
        },
        {
          "duration": 0.07,
          "phone": "t_E"
        }
      ],
      "start": 5.58,
      "startOffset": 86,
      "word": "PRESENT"
    },
    {
      "alignedWord": "i",
      "case": "success",
      "end": 6.54,
      "endOffset": 95,
      "phones": [
        {
          "duration": 0.14,
          "phone": "ay_S"
        }
      ],
      "start": 6.4,
      "startOffset": 94,
      "word": "I"
    },
    {
      "alignedWord": "will",
      "case": "success",
      "end": 6.71,
      "endOffset": 100,
      "phones": [
        {
          "duration": 0.06,
          "phone": "w_B"
        },
        {
          "duration": 0.06,
          "phone": "ih_I"
        },
        {
          "duration": 0.05,
          "phone": "l_E"
        }
      ],
      "start": 6.54,
      "startOffset": 96,
      "word": "WILL"
    },
    {
      "alignedWord": "go",
      "case": "success",
      "end": 6.92,
      "endOffset": 103,
      "phones": [
        {
          "duration": 0.09,
          "phone": "g_B"
        },
        {
          "duration": 0.12,
          "phone": "ow_E"
        }
      ],
      "start": 6.71,
      "startOffset": 101,
      "word": "GO"
    },
    {
      "alignedWord": "to",
      "case": "success",
      "end": 7.08,
      "endOffset": 106,
      "phones": [
        {
          "duration": 0.08,
          "phone": "t_B"
        },
        {
          "duration": 0.08,
          "phone": "uw_E"
        }
      ],
      "start": 6.92,
      "startOffset": 104,
      "word": "TO"
    },
    {
      "alignedWord": "<unk>",
      "case": "success",
      "end": 7.8,
      "endOffset": 118,
      "phones": [
        {
          "duration": 0.72,
          "phone": "oov_S"
        }
      ],
      "start": 7.08,
      "startOffset": 107,
      "word": "GENZABURO'S"
    },
    {
      "alignedWord": "house",
      "case": "success",
      "end": 8.15,
      "endOffset": 124,
      "phones": [
        {
          "duration": 0.09,
          "phone": "hh_B"
        },
        {
          "duration": 0.17,
          "phone": "aw_I"
        },
        {
          "duration": 0.08,
          "phone": "s_E"
        }
      ],
      "start": 7.81,
      "startOffset": 119,
      "word": "HOUSE"
    },
    {
      "alignedWord": "and",
      "case": "success",
      "end": 8.31,
      "endOffset": 128,
      "phones": [
        {
          "duration": 0.03,
          "phone": "ah_B"
        },
        {
          "duration": 0.05,
          "phone": "n_I"
        },
        {
          "duration": 0.07,
          "phone": "d_E"
        }
      ],
      "start": 8.16,
      "startOffset": 125,
      "word": "AND"
    },
    {
      "alignedWord": "fetch",
      "case": "success",
      "end": 8.609999,
      "endOffset": 134,
      "phones": [
        {
          "duration": 0.09,
          "phone": "f_B"
        },
        {
          "duration": 0.09,
          "phone": "eh_I"
        },
        {
          "duration": 0.12,
          "phone": "ch_E"
        }
      ],
      "start": 8.309999,
      "startOffset": 129,
      "word": "FETCH"
    },
    {
      "alignedWord": "it",
      "case": "success",
      "end": 8.799999999999999,
      "endOffset": 137,
      "phones": [
        {
          "duration": 0.08,
          "phone": "ih_B"
        },
        {
          "duration": 0.11,
          "phone": "t_E"
        }
      ],
      "start": 8.61,
      "startOffset": 135,
      "word": "IT"
    },
    {
      "alignedWord": "it's",
      "case": "success",
      "end": 9.44,
      "endOffset": 142,
      "phones": [
        {
          "duration": 0.09,
          "phone": "ih_B"
        },
        {
          "duration": 0.05,
          "phone": "t_I"
        },
        {
          "duration": 0.05,
          "phone": "s_E"
        }
      ],
      "start": 9.25,
      "startOffset": 138,
      "word": "IT'S"
    },
    {
      "alignedWord": "getting",
      "case": "success",
      "end": 9.85,
      "endOffset": 150,
      "phones": [
        {
          "duration": 0.05,
          "phone": "g_B"
        },
        {
          "duration": 0.06,
          "phone": "ih_I"
        },
        {
          "duration": 0.01,
          "phone": "t_I"
        },
        {
          "duration": 0.07,
          "phone": "ih_I"
        },
        {
          "duration": 0.09,
          "phone": "ng_E"
        }
      ],
      "start": 9.57,
      "startOffset": 143,
      "word": "GETTING"
    },
    {
      "alignedWord": "dark",
      "case": "success",
      "end": 10.139999,
      "endOffset": 155,
      "phones": [
        {
          "duration": 0.04,
          "phone": "d_B"
        },
        {
          "duration": 0.09,
          "phone": "aa_I"
        },
        {
          "duration": 0.07,
          "phone": "r_I"
        },
        {
          "duration": 0.09,
          "phone": "k_E"
        }
      ],
      "start": 9.849999,
      "startOffset": 151,
      "word": "DARK"
    },
    {
      "alignedWord": "now",
      "case": "success",
      "end": 10.489999,
      "endOffset": 159,
      "phones": [
        {
          "duration": 0.08,
          "phone": "n_B"
        },
        {
          "duration": 0.27,
          "phone": "aw_E"
        }
      ],
      "start": 10.139999,
      "startOffset": 156,
      "word": "NOW"
    },
    {
      "alignedWord": "but",
      "case": "success",
      "end": 10.7,
      "endOffset": 163,
      "phones": [
        {
          "duration": 0.04,
          "phone": "b_B"
        },
        {
          "duration": 0.08,
          "phone": "ah_I"
        },
        {
          "duration": 0.05,
          "phone": "t_E"
        }
      ],
      "start": 10.53,
      "startOffset": 160,
      "word": "BUT"
    },
    {
      "alignedWord": "it's",
      "case": "success",
      "end": 10.899999999999999,
      "endOffset": 168,
      "phones": [
        {
          "duration": 0.06,
          "phone": "ih_B"
        },
        {
          "duration": 0.06,
          "phone": "t_I"
        },
        {
          "duration": 0.08,
          "phone": "s_E"
        }
      ],
      "start": 10.7,
      "startOffset": 164,
      "word": "IT'S"
    },
    {
      "alignedWord": "not",
      "case": "success",
      "end": 11.15,
      "endOffset": 172,
      "phones": [
        {
          "duration": 0.03,
          "phone": "n_B"
        },
        {
          "duration": 0.13,
          "phone": "aa_I"
        },
        {
          "duration": 0.09,
          "phone": "t_E"
        }
      ],
      "start": 10.9,
      "startOffset": 169,
      "word": "NOT"
    },
    {
      "alignedWord": "very",
      "case": "success",
      "end": 11.48,
      "endOffset": 177,
      "phones": [
        {
          "duration": 0.06,
          "phone": "v_B"
        },
        {
          "duration": 0.07,
          "phone": "eh_I"
        },
        {
          "duration": 0.1,
          "phone": "r_I"
        },
        {
          "duration": 0.09,
          "phone": "iy_E"
        }
      ],
      "start": 11.16,
      "startOffset": 173,
      "word": "VERY"
    },
    {
      "alignedWord": "late",
      "case": "success",
      "end": 11.77,
      "endOffset": 182,
      "phones": [
        {
          "duration": 0.09,
          "phone": "l_B"
        },
        {
          "duration": 0.12,
          "phone": "ey_I"
        },
        {
          "duration": 0.08,
          "phone": "t_E"
        }
      ],
      "start": 11.48,
      "startOffset": 178,
      "word": "LATE"
    }
  ]
}