{
  "transcript": "FROM THE DAMP AND BOISTEROUS STATE OF THE ATMOSPHERE",
  "words": [
    {
      "alignedWord": "from",
      "case": "success",
      "end": 0.55,
      "endOffset": 4,
      "phones": [
        {
          "duration": 0.09,
          "phone": "f_B"
        },
        {
          "duration": 0.05,
          "phone": "er_I"
        },
        {
          "duration": 0.05,
          "phone": "m_E"
        }
      ],
      "start": 0.36,
      "startOffset": 0,
      "word": "FROM"
    },
    {
      "alignedWord": "the",
      "case": "success",
      "end": 0.65,
      "endOffset": 8,
      "phones": [
        {
          "duration": 0.05,
          "phone": "dh_B"
        },
        {
          "duration": 0.05,
          "phone": "ah_E"
        }
      ],
      "start": 0.55,
      "startOffset": 5,
      "word": "THE"
    },
    {
      "alignedWord": "damp",
      "case": "success",
      "end": 0.96,
      "endOffset": 13,
      "phones": [
        {
          "duration": 0.1,
          "phone": "d_B"
        },
        {
          "duration": 0.1,
          "phone": "ae_I"
        },
        {
          "duration": 0.05,
          "phone": "m_I"
        },
        {
          "duration": 0.06,
          "phone": "p_E"
        }
      ],
      "start": 0.65,
      "startOffset": 9,
      "word": "DAMP"
    },
    {
      "alignedWord": "and",
      "case": "success",
      "end": 1.1,
      "endOffset": 17,
      "phones": [
        {
          "duration": 0.05,
          "phone": "ae_B"
        },
        {
          "duration": 0.03,
          "phone": "n_I"
        },
        {
          "duration": 0.06,
          "phone": "d_E"
        }
      ],
      "start": 0.96,
      "startOffset": 14,
      "word": "AND"
    },
    {
      "alignedWord": "boisterous",
      "case": "success",
      "end": 1.5,
      "endOffset": 28,
      "phones": [
        {
          "duration": 0.06,
          "phone": "b_B"
        },
        {
          "duration": 0.12,
          "phone": "oy_I"
        },
        {
          "duration": 0.05,
          "phone": "s_I"
        },
        {
          "duration": 0.05,
          "phone": "t_I"
        },
        {
          "duration": 0.06,
          "phone": "r_I"
        },
        {
          "duration": 0.05,
          "phone": "ah_I"
        },
        {
          "duration": 0.01,
          "phone": "s_E"
        }
      ],
      "start": 1.1,
      "startOffset": 18,
      "word": "BOISTEROUS"
    },
    {
      "alignedWord": "state",
      "case": "success",
      "end": 1.79,
      "endOffset": 34,
      "phones": [
        {
          "duration": 0.08,
          "phone": "s_B"
        },
        {
          "duration": 0.08,
          "phone": "t_I"
        },
        {
          "duration": 0.08,
          "phone": "ey_I"
        },
        {
          "duration": 0.04,
          "phone": "t_E"
        }
      ],
      "start": 1.51,
      "startOffset": 29,
      "word": "STATE"
    },
    {
      "alignedWord": "of",
      "case": "success",
      "end": 1.8800000000000001,
      "endOffset": 37,
      "phones": [
        {
          "duration": 0.04,
          "phone": "ah_B"
        },
        {
          "duration": 0.05,
          "phone": "v_E"
        }
      ],
      "start": 1.79,
      "startOffset": 35,
      "word": "OF"
    },
    {
      "alignedWord": "the",
      "case": "success",
      "end": 1.99,
      "endOffset": 41,
      "phones": [
        {
          "duration": 0.03,
          "phone": "dh_B"
        },
        {
          "duration": 0.08,
          "phone": "iy_E"
        }
      ],
      "start": 1.88,
      "startOffset": 38,
      "word": "THE"
    },
    {
      "alignedWord": "atmosphere",
      "case": "success",
      "end": 2.56,
      "endOffset": 52,
      "phones": [
        {
          "duration": 0.07,
          "phone": "ae_B"
        },
        {
          "duration": 0.06,
          "phone": "t_I"
        },
        {
          "duration": 0.04,
          "phone": "m_I"
        },
        {
          "duration": 0.05,
          "phone": "ah_I"
        },
        {
          "duration": 0.07,
          "phone": "s_I"
        },
        {
          "duration": 0.07,
          "phone": "f_I"
        },
        {
          "duration": 0.08,
          "phone": "ih_I"
        },
        {
          "duration": 0.13,
          "phone": "r_E"
        }
      ],
      "start": 1.99,
      "startOffset": 42,
      "word": "ATMOSPHERE"
    }
  ]
}