{
  "transcript": "AND WHO SEEMED SO PERFECTLY COMFORTABLE WITHOUT A WIFE SO CONSTANTLY OCCUPIED EITHER IN HIS BUSINESS IN TOWN OR AMONG HIS FRIENDS HERE ALWAYS ACCEPTABLE WHEREVER HE WENT ALWAYS CHEERFUL",
  "words": [
    {
      "alignedWord": "and",
      "case": "success",
      "end": 0.32,
      "endOffset": 3,
      "phones": [
        {
          "duration": 0.05,
          "phone": "ae_B"
        },
        {
          "duration": 0.05,
          "phone": "n_I"
        },
        {
          "duration": 0.06,
          "phone": "d_E"
        }
      ],
      "start": 0.16,
      "startOffset": 0,
      "word": "AND"
    },
    {
      "alignedWord": "who",
      "case": "success",
      "end": 0.47,
      "endOffset": 7,
      "phones": [
        {
          "duration": 0.03,
          "phone": "hh_B"
        },
        {
          "duration": 0.12,
          "phone": "uw_E"
        }
      ],
      "start": 0.32,
      "startOffset": 4,
      "word": "WHO"
    },
    {
      "alignedWord": "seemed",
      "case": "success",
      "end": 0.9199999999999999,
      "endOffset": 14,
      "phones": [
        {
          "duration": 0.15,
          "phone": "s_B"
        },
        {
          "duration": 0.14,
          "phone": "iy_I"
        },
        {
          "duration": 0.1,
          "phone": "m_I"
        },
        {
          "duration": 0.06,
          "phone": "d_E"
        }
      ],
      "start": 0.47,
      "startOffset": 8,
      "word": "SEEMED"
    },
    {
      "alignedWord": "so",
      "case": "success",
      "end": 1.44,
      "endOffset": 17,
      "phones": [
        {
          "duration": 0.25,
          "phone": "s_B"
        },
        {
          "duration": 0.26,
          "phone": "ow_E"
        }
      ],
      "start": 0.93,
      "startOffset": 15,
      "word": "SO"
    },
    {
      "alignedWord": "perfectly",
      "case": "success",
      "end": 2.12,
      "endOffset": 27,
      "phones": [
        {
          "duration": 0.12,
          "phone": "p_B"
        },
        {
          "duration": 0.12,
          "phone": "er_I"
        },
        {
          "duration": 0.07,
          "phone": "f_I"
        },
        {
          "duration": 0.07,
          "phone": "ah_I"
        },
        {
          "duration": 0.08,
          "phone": "k_I"
        },
        {
          "duration": 0.08,
          "phone": "l_I"
        },
        {
          "duration": 0.09,
          "phone": "iy_E"
        }
      ],
      "start": 1.49,
      "startOffset": 18,
      "word": "PERFECTLY"
    },
    {
      "alignedWord": "comfortable",
      "case": "success",
      "end": 2.95,
      "endOffset": 39,
      "phones": [
        {
          "duration": 0.09,
          "phone": "k_B"
        },
        {
          "duration": 0.11,
          "phone": "ah_I"
        },
        {
          "duration": 0.08,
          "phone": "m_I"
        },
        {
          "duration": 0.01,
          "phone": "f_I"
        },
        {
          "duration": 0.17,
          "phone": "er_I"
        },
        {
          "duration": 0.02,
          "phone": "t_I"
        },
        {
          "duration": 0.09,
          "phone": "ah_I"
        },
        {
          "duration": 0.08,
          "phone": "b_I"
        },
        {
          "duration": 0.06,
          "phone": "ah_I"
        },
        {
          "duration": 0.12,
          "phone": "l_E"
        }
      ],
      "start": 2.12,
      "startOffset": 28,
      "word": "COMFORTABLE"
    },
    {
      "alignedWord": "without",
      "case": "success",
      "end": 3.34,
      "endOffset": 47,
      "phones": [
        {
          "duration": 0.09,
          "phone": "w_B"
        },
        {
          "duration": 0.06,
          "phone": "ih_I"
        },
        {
          "duration": 0.07,
          "phone": "th_I"
        },
        {
          "duration": 0.09,
          "phone": "aw_I"
        },
        {
          "duration": 0.07,
          "phone": "t_E"
        }
      ],
      "start": 2.96,
      "startOffset": 40,
      "word": "WITHOUT"
    },
    {
      "alignedWord": "a",
      "case": "success",
      "end": 3.4099999999999997,
      "endOffset": 49,
      "phones": [
        {
          "duration": 0.07,
          "phone": "ah_S"
        }
      ],
      "start": 3.34,
      "startOffset": 48,
      "word": "A"
    },
    {
      "alignedWord": "wife",
      "case": "success",
      "end": 3.88,
      "endOffset": 54,
      "phones": [
        {
          "duration": 0.13,
          "phone": "w_B"
        },
        {
          "duration": 0.18,
          "phone": "ay_I"
        },
        {
          "duration": 0.16,
          "phone": "f_E"
        }
      ],
      "start": 3.41,
      "startOffset": 50,
      "word": "WIFE"
    },
    {
      "alignedWord": "so",
      "case": "success",
      "end": 4.42,
      "endOffset": 57,
      "phones": [
        {
          "duration": 0.23,
          "phone": "s_B"
        },
        {
          "duration": 0.21,
          "phone": "ow_E"
        }
      ],
      "start": 3.98,
      "startOffset": 55,
      "word": "SO"
    },
    {
      "alignedWord": "constantly",
      "case": "success",
      "end": 5.18,
      "endOffset": 68,
      "phones": [
        {
          "duration": 0.08,
          "phone": "k_B"
        },
        {
          "duration": 0.11,
          "phone": "aa_I"
        },
        {
          "duration": 0.09,
          "phone": "n_I"
        },
        {
          "duration": 0.07,
          "phone": "s_I"
        },
        {
          "duration": 0.07,
          "phone": "t_I"
        },
        {
          "duration": 0.06,
          "phone": "ah_I"
        },
        {
          "duration": 0.03,
          "phone": "n_I"
        },
        {
          "duration": 0.05,
          "phone": "t_I"
        },
        {
          "duration": 0.06,
          "phone": "l_I"
        },
        {
          "duration": 0.11,
          "phone": "iy_E"
        }
      ],
      "start": 4.45,
      "startOffset": 58,
      "word": "CONSTANTLY"
    },
    {
      "alignedWord": "occupied",
      "case": "success",
      "end": 5.94,
      "endOffset": 77,
      "phones": [
        {
          "duration": 0.15,
          "phone": "aa_B"
        },
        {
          "duration": 0.11,
          "phone": "k_I"
        },
        {
          "duration": 0.05,
          "phone": "y_I"
        },
        {
          "duration": 0.06,
          "phone": "ah_I"
        },
        {
          "duration": 0.1,
          "phone": "p_I"
        },
        {
          "duration": 0.16,
          "phone": "ay_I"
        },
        {
          "duration": 0.11,
          "phone": "d_E"
        }
      ],
      "start": 5.2,
      "startOffset": 69,
      "word": "OCCUPIED"
    },
    {
      "alignedWord": "either",
      "case": "success",
      "end": 6.3,
      "endOffset": 84,
      "phones": [
        {
          "duration": 0.17,
          "phone": "ay_B"
        },
        {
          "duration": 0.1,
          "phone": "dh_I"
        },
        {
          "duration": 0.08,
          "phone": "er_E"
        }
      ],
      "start": 5.95,
      "startOffset": 78,
      "word": "EITHER"
    },
    {
      "alignedWord": "in",
      "case": "success",
      "end": 6.49,
      "endOffset": 87,
      "phones": [
        {
          "duration": 0.12,
          "phone": "ih_B"
        },
        {
          "duration": 0.07,
          "phone": "n_E"
        }
      ],
      "start": 6.3,
      "startOffset": 85,
      "word": "IN"
    },
    {
      "alignedWord": "his",
      "case": "success",
      "end": 6.74,
      "endOffset": 91,
      "phones": [
        {
          "duration": 0.07,
          "phone": "hh_B"
        },
        {
          "duration": 0.08,
          "phone": "ih_I"
        },
        {
          "duration": 0.1,
          "phone": "z_E"
        }
      ],
      "start": 6.49,
      "startOffset": 88,
      "word": "HIS"
    },
    {
      "alignedWord": "business",
      "case": "success",
      "end": 7.21,
      "endOffset": 100,
      "phones": [
        {
          "duration": 0.06,
          "phone": "b_B"
        },
        {
          "duration": 0.11,
          "phone": "ih_I"
        },
        {
          "duration": 0.08,
          "phone": "z_I"
        },
        {
          "duration": 0.05,
          "phone": "n_I"
        },
        {
          "duration": 0.09,
          "phone": "ah_I"
        },
        {
          "duration": 0.08,
          "phone": "s_E"
        }
      ],
      "start": 6.74,
      "startOffset": 92,
      "word": "BUSINESS"
    },
    {
      "alignedWord": "in",
      "case": "success",
      "end": 7.38,
      "endOffset": 103,
      "phones": [
        {
          "duration": 0.08,
          "phone": "ih_B"
        },
        {
          "duration": 0.09,
          "phone": "n_E"
        }
      ],
      "start": 7.21,
      "startOffset": 101,
      "word": "IN"
    },
    {
      "alignedWord": "town",
      "case": "success",
      "end": 7.859999999999999,
      "endOffset": 108,
      "phones": [
        {
          "duration": 0.13,
          "phone": "t_B"
        },
        {
          "duration": 0.24,
          "phone": "aw_I"
        },
        {
          "duration": 0.11,
          "phone": "n_E"
        }
      ],
      "start": 7.38,
      "startOffset": 104,
      "word": "TOWN"
    },
    {
      "alignedWord": "or",
      "case": "success",
      "end": 8.33,
      "endOffset": 111,
      "phones": [
        {
          "duration": 0.13,
          "phone": "ao_B"
        },
        {
          "duration": 0.09,
          "phone": "r_E"
        }
      ],
      "start": 8.11,
      "startOffset": 109,
      "word": "OR"
    },
    {
      "alignedWord": "among",
      "case": "success",
      "end": 8.67,
      "endOffset": 117,
      "phones": [
        {
          "duration": 0.04,
          "phone": "ah_B"
        },
        {
          "duration": 0.1,
          "phone": "m_I"
        },
        {
          "duration": 0.14,
          "phone": "ah_I"
        },
        {
          "duration": 0.06,
          "phone": "ng_E"
        }
      ],
      "start": 8.33,
      "startOffset": 112,
      "word": "AMONG"
    },
    {
      "alignedWord": "his",
      "case": "success",
      "end": 8.92,
      "endOffset": 121,
      "phones": [
        {
          "duration": 0.08,
          "phone": "hh_B"
        },
        {
          "duration": 0.06,
          "phone": "ih_I"
        },
        {
          "duration": 0.11,
          "phone": "z_E"
        }
      ],
      "start": 8.67,
      "startOffset": 118,
      "word": "HIS"
    },
    {
      "alignedWord": "friends",
      "case": "success",
      "end": 9.38,
      "endOffset": 129,
      "phones": [
        {
          "duration": 0.08,
          "phone": "f_B"
        },
        {
          "duration": 0.06,
          "phone": "r_I"
        },
        {
          "duration": 0.07,
          "phone": "eh_I"
        },
        {
          "duration": 0.09,
          "phone": "n_I"
        },
        {
          "duration": 0.05,
          "phone": "d_I"
        },
        {
          "duration": 0.11,
          "phone": "z_E"
        }
      ],
      "start": 8.92,
      "startOffset": 122,
      "word": "FRIENDS"
    },
    {
      "alignedWord": "here",
      "case": "success",
      "end": 9.74,
      "endOffset": 134,
      "phones": [
        {
          "duration": 0.08,
          "phone": "hh_B"
        },
        {
          "duration": 0.13,
          "phone": "iy_I"
        },
        {
          "duration": 0.15,
          "phone": "r_E"
        }
      ],
      "start": 9.38,
      "startOffset": 130,
      "word": "HERE"
    },
    {
      "alignedWord": "always",
      "case": "success",
      "end": 10.589998999999999,
      "endOffset": 141,
      "phones": [
        {
          "duration": 0.17,
          "phone": "ao_B"
        },
        {
          "duration": 0.07,
          "phone": "l_I"
        },
        {
          "duration": 0.09,
          "phone": "w_I"
        },
        {
          "duration": 0.12,
          "phone": "iy_I"
        },
        {
          "duration": 0.08,
          "phone": "z_E"
        }
      ],
      "start": 10.059999,
      "startOffset": 135,
      "word": "ALWAYS"
    },
    {
      "alignedWord": "acceptable",
      "case": "success",
      "end": 11.25,
      "endOffset": 152,
      "phones": [
        {
          "duration": 0.06,
          "phone": "ah_B"
        },
        {
          "duration": 0.07,
          "phone": "k_I"
        },
        {
          "duration": 0.08,
          "phone": "s_I"
        },
        {
          "duration": 0.08,
          "phone": "eh_I"
        },
        {
          "duration": 0.06,
          "phone": "p_I"
        },
        {
          "duration": 0.07,
          "phone": "t_I"
        },
        {
          "duration": 0.05,
          "phone": "ah_I"
        },
        {
          "duration": 0.06,
          "phone": "b_I"
        },
        {
          "duration": 0.05,
          "phone": "ah_I"
        },
        {
          "duration": 0.08,
          "phone": "l_E"
        }
      ],
      "start": 10.59,
      "startOffset": 142,
      "word": "ACCEPTABLE"
    },
    {
      "alignedWord": "wherever",
      "case": "success",
      "end": 11.76,
      "endOffset": 161,
      "phones": [
        {
          "duration": 0.08,
          "phone": "w_B"
        },
        {
          "duration": 0.13,
          "phone": "eh_I"
        },
        {
          "duration": 0.12,
          "phone": "r_I"
        },
        {
          "duration": 0.05,
          "phone": "eh_I"
        },
        {
          "duration": 0.07,
          "phone": "v_I"
        },
        {
          "duration": 0.06,
          "phone": "er_E"
        }
      ],
      "start": 11.25,
      "startOffset": 153,
      "word": "WHEREVER"
    },
    {
      "alignedWord": "he",
      "case": "success",
      "end": 11.949999,
      "endOffset": 164,
      "phones": [
        {
          "duration": 0.09,
          "phone": "hh_B"
        },
        {
          "duration": 0.1,
          "phone": "iy_E"
        }
      ],
      "start": 11.759999,
      "startOffset": 162,
      "word": "HE"
    },
    {
      "alignedWord": "went",
      "case": "success",
      "end": 12.33,
      "endOffset": 169,
      "phones": [
        {
          "duration": 0.09,
          "phone": "w_B"
        },
        {
          "duration": 0.13,
          "phone": "eh_I"
        },
        {
          "duration": 0.09,
          "phone": "n_I"
        },
        {
          "duration": 0.07,
          "phone": "t_E"
        }
      ],
      "start": 11.95,
      "startOffset": 165,
      "word": "WENT"
    },
    {
      "alignedWord": "always",
      "case": "success",
      "end": 12.909999,
      "endOffset": 176,
      "phones": [
        {
          "duration": 0.13,
          "phone": "ao_B"
        },
        {
          "duration": 0.06,
          "phone": "l_I"
        },
        {
          "duration": 0.11,
          "phone": "w_I"
        },
        {
          "duration": 0.08,
          "phone": "iy_I"
        },
        {
          "duration": 0.14,
          "phone": "z_E"
        }
      ],
      "start": 12.389999,
      "startOffset": 170,
      "word": "ALWAYS"
    },
    {
      "alignedWord": "cheerful",
      "case": "success",
      "end": 13.42,
      "endOffset": 185,
      "phones": [
        {
          "duration": 0.15,
          "phone": "ch_B"
        },
        {
          "duration": 0.1,
          "phone": "ih_I"
        },
        {
          "duration": 0.08,
          "phone": "r_I"
        },
        {
          "duration": 0.11,
          "phone": "f_I"
        },
        {
          "duration": 0.05,
          "phone": "ah_I"
        },
        {
          "duration": 0.01,
          "phone": "l_E"
        }
      ],
      "start": 12.92,
      "startOffset": 177,
      "word": "CHEERFUL"
    }
  ]
}