{
  "transcript": "BEFORE WRITING ANY OF THE NAMES OF GOD YOU MUST WASH YOUR PEN BEFORE WRITING HIS MOST SACRED NAME YOU MUST WASH YOUR WHOLE BODY IF AFTER YOUR COPY HAS ITSELF BEEN EXAMINED THREE CORRECTIONS HAVE TO BE MADE",
  "words": [
    {
      "alignedWord": "before",
      "case": "success",
      "end": 0.59,
      "endOffset": 6,
      "phones": [
        {
          "duration": 0.09,
          "phone": "b_B"
        },
        {
          "duration": 0.05,
          "phone": "iy_I"
        },
        {
          "duration": 0.1,
          "phone": "f_I"
        },
        {
          "duration": 0.05,
          "phone": "ao_I"
        },
        {
          "duration": 0.07,
          "phone": "r_E"
        }
      ],
      "start": 0.23,
      "startOffset": 0,
      "word": "BEFORE"
    },
    {
      "alignedWord": "writing",
      "case": "success",
      "end": 0.98,
      "endOffset": 14,
      "phones": [
        {
          "duration": 0.08,
          "phone": "r_B"
        },
        {
          "duration": 0.07,
          "phone": "ay_I"
        },
        {
          "duration": 0.05,
          "phone": "t_I"
        },
        {
          "duration": 0.07,
          "phone": "ih_I"
        },
        {
          "duration": 0.12,
          "phone": "ng_E"
        }
      ],
      "start": 0.59,
      "startOffset": 7,
      "word": "WRITING"
    },
    {
      "alignedWord": "any",
      "case": "success",
      "end": 1.33,
      "endOffset": 18,
      "phones": [
        {
          "duration": 0.12,
          "phone": "eh_B"
        },
        {
          "duration": 0.09,
          "phone": "n_I"
        },
        {
          "duration": 0.13,
          "phone": "iy_E"
        }
      ],
      "start": 0.99,
      "startOffset": 15,
      "word": "ANY"
    },
    {
      "alignedWord": "of",
      "case": "success",
      "end": 1.4400000000000002,
      "endOffset": 21,
      "phones": [
        {
          "duration": 0.04,
          "phone": "ah_B"
        },
        {
          "duration": 0.07,
          "phone": "v_E"
        }
      ],
      "start": 1.33,
      "startOffset": 19,
      "word": "OF"
    },
    {
      "alignedWord": "the",
      "case": "success",
      "end": 1.56,
      "endOffset": 25,
      "phones": [
        {
          "duration": 0.01,
          "phone": "dh_B"
        },
        {
          "duration": 0.11,
          "phone": "ah_E"
        }
      ],
      "start": 1.44,
      "startOffset": 22,
      "word": "THE"
    },
    {
      "alignedWord": "names",
      "case": "success",
      "end": 1.99,
      "endOffset": 31,
      "phones": [
        {
          "duration": 0.1,
          "phone": "n_B"
        },
        {
          "duration": 0.18,
          "phone": "ey_I"
        },
        {
          "duration": 0.09,
          "phone": "m_I"
        },
        {
          "duration": 0.05,
          "phone": "z_E"
        }
      ],
      "start": 1.57,
      "startOffset": 26,
      "word": "NAMES"
    },
    {
      "alignedWord": "of",
      "case": "success",
      "end": 2.14,
      "endOffset": 34,
      "phones": [
        {
          "duration": 0.07,
          "phone": "ah_B"
        },
        {
          "duration": 0.07,
          "phone": "v_E"
        }
      ],
      "start": 2.0,
      "startOffset": 32,
      "word": "OF"
    },
    {
      "alignedWord": "god",
      "case": "success",
      "end": 2.48,
      "endOffset": 38,
      "phones": [
        {
          "duration": 0.08,
          "phone": "g_B"
        },
        {
          "duration": 0.19,
          "phone": "aa_I"
        },
        {
          "duration": 0.07,
          "phone": "d_E"
        }
      ],
      "start": 2.14,
      "startOffset": 35,
      "word": "GOD"
    },
    {
      "alignedWord": "you",
      "case": "success",
      "end": 2.6500000000000004,
      "endOffset": 42,
      "phones": [
        {
          "duration": 0.08,
          "phone": "y_B"
        },
        {
          "duration": 0.08,
          "phone": "uw_E"
        }
      ],
      "start": 2.49,
      "startOffset": 39,
      "word": "YOU"
    },
    {
      "alignedWord": "must",
      "case": "success",
      "end": 3.01,
      "endOffset": 47,
      "phones": [
        {
          "duration": 0.04,
          "phone": "m_B"
        },
        {
          "duration": 0.14,
          "phone": "ah_I"
        },
        {
          "duration": 0.06,
          "phone": "s_I"
        },
        {
          "duration": 0.12,
          "phone": "t_E"
        }
      ],
      "start": 2.65,
      "startOffset": 43,
      "word": "MUST"
    },
    {
      "alignedWord": "wash",
      "case": "success",
      "end": 3.3899999999999997,
      "endOffset": 52,
      "phones": [
        {
          "duration": 0.11,
          "phone": "w_B"
        },
        {
          "duration": 0.13,
          "phone": "aa_I"
        },
        {
          "duration": 0.14,
          "phone": "sh_E"
        }
      ],
      "start": 3.01,
      "startOffset": 48,
      "word": "WASH"
    },
    {
      "alignedWord": "your",
      "case": "success",
      "end": 3.5900000000000003,
      "endOffset": 57,
      "phones": [
        {
          "duration": 0.07,
          "phone": "y_B"
        },
        {
          "duration": 0.07,
          "phone": "ao_I"
        },
        {
          "duration": 0.06,
          "phone": "r_E"
        }
      ],
      "start": 3.39,
      "startOffset": 53,
      "word": "YOUR"
    },
    {
      "alignedWord": "pen",
      "case": "success",
      "end": 4.04,
      "endOffset": 61,
      "phones": [
        {
          "duration": 0.12,
          "phone": "p_B"
        },
        {
          "duration": 0.11,
          "phone": "eh_I"
        },
        {
          "duration": 0.22,
          "phone": "n_E"
        }
      ],
      "start": 3.59,
      "startOffset": 58,
      "word": "PEN"
    },
    {
      "alignedWord": "before",
      "case": "success",
      "end": 4.96,
      "endOffset": 68,
      "phones": [
        {
          "duration": 0.08,
          "phone": "b_B"
        },
        {
          "duration": 0.07,
          "phone": "ih_I"
        },
        {
          "duration": 0.08,
          "phone": "f_I"
        },
        {
          "duration": 0.07,
          "phone": "ao_I"
        },
        {
          "duration": 0.06,
          "phone": "r_E"
        }
      ],
      "start": 4.6,
      "startOffset": 62,
      "word": "BEFORE"
    },
    {
      "alignedWord": "writing",
      "case": "success",
      "end": 5.37,
      "endOffset": 76,
      "phones": [
        {
          "duration": 0.1,
          "phone": "r_B"
        },
        {
          "duration": 0.08,
          "phone": "ay_I"
        },
        {
          "duration": 0.06,
          "phone": "t_I"
        },
        {
          "duration": 0.07,
          "phone": "ih_I"
        },
        {
          "duration": 0.1,
          "phone": "ng_E"
        }
      ],
      "start": 4.96,
      "startOffset": 69,
      "word": "WRITING"
    },
    {
      "alignedWord": "his",
      "case": "success",
      "end": 5.61,
      "endOffset": 80,
      "phones": [
        {
          "duration": 0.07,
          "phone": "hh_B"
        },
        {
          "duration": 0.09,
          "phone": "ih_I"
        },
        {
          "duration": 0.08,
          "phone": "z_E"
        }
      ],
      "start": 5.37,
      "startOffset": 77,
      "word": "HIS"
    },
    {
      "alignedWord": "most",
      "case": "success",
      "end": 6.010000000000001,
      "endOffset": 85,
      "phones": [
        {
          "duration": 0.08,
          "phone": "m_B"
        },
        {
          "duration": 0.11,
          "phone": "ow_I"
        },
        {
          "duration": 0.13,
          "phone": "s_I"
        },
        {
          "duration": 0.08,
          "phone": "t_E"
        }
      ],
      "start": 5.61,
      "startOffset": 81,
      "word": "MOST"
    },
    {
      "alignedWord": "sacred",
      "case": "success",
      "end": 6.57,
      "endOffset": 92,
      "phones": [
        {
          "duration": 0.2,
          "phone": "s_B"
        },
        {
          "duration": 0.09,
          "phone": "ey_I"
        },
        {
          "duration": 0.08,
          "phone": "k_I"
        },
        {
          "duration": 0.05,
          "phone": "r_I"
        },
        {
          "duration": 0.04,
          "phone": "ah_I"
        },
        {
          "duration": 0.08,
          "phone": "d_E"
        }
      ],
      "start": 6.03,
      "startOffset": 86,
      "word": "SACRED"
    },
    {
      "alignedWord": "name",
      "case": "success",
      "end": 6.95,
      "endOffset": 97,
      "phones": [
        {
          "duration": 0.09,
          "phone": "n_B"
        },
        {
          "duration": 0.17,
          "phone": "ey_I"
        },
        {
          "duration": 0.12,
          "phone": "m_E"
        }
      ],
      "start": 6.57,
      "startOffset": 93,
      "word": "NAME"
    },
    {
      "alignedWord": "you",
      "case": "success",
      "end": 7.18,
      "endOffset": 101,
      "phones": [
        {
          "duration": 0.09,
          "phone": "y_B"
        },
        {
          "duration": 0.08,
          "phone": "uw_E"
        }
      ],
      "start": 7.01,
      "startOffset": 98,
      "word": "YOU"
    },
    {
      "alignedWord": "must",
      "case": "success",
      "end": 7.609999999999999,
      "endOffset": 106,
      "phones": [
        {
          "duration": 0.07,
          "phone": "m_B"
        },
        {
          "duration": 0.13,
          "phone": "ah_I"
        },
        {
          "duration": 0.09,
          "phone": "s_I"
        },
        {
          "duration": 0.14,
          "phone": "t_E"
        }
      ],
      "start": 7.18,
      "startOffset": 102,
      "word": "MUST"
    },
    {
      "alignedWord": "wash",
      "case": "success",
      "end": 8.08,
      "endOffset": 111,
      "phones": [
        {
          "duration": 0.11,
          "phone": "w_B"
        },
        {
          "duration": 0.14,
          "phone": "aa_I"
        },
        {
          "duration": 0.19,
          "phone": "sh_E"
        }
      ],
      "start": 7.64,
      "startOffset": 107,
      "word": "WASH"
    },
    {
      "alignedWord": "your",
      "case": "success",
      "end": 8.38,
      "endOffset": 116,
      "phones": [
        {
          "duration": 0.11,
          "phone": "y_B"
        },
        {
          "duration": 0.1,
          "phone": "ao_I"
        },
        {
          "duration": 0.04,
          "phone": "r_E"
        }
      ],
      "start": 8.13,
      "startOffset": 112,
      "word": "YOUR"
    },
    {
      "alignedWord": "whole",
      "case": "success",
      "end": 8.74,
      "endOffset": 122,
      "phones": [
        {
          "duration": 0.09,
          "phone": "hh_B"
        },
        {
          "duration": 0.07,
          "phone": "ow_I"
        },
        {
          "duration": 0.2,
          "phone": "l_E"
        }
      ],
      "start": 8.38,
      "startOffset": 117,
      "word": "WHOLE"
    },
    {
      "alignedWord": "body",
      "case": "success",
      "end": 9.23,
      "endOffset": 127,
      "phones": [
        {
          "duration": 0.1,
          "phone": "b_B"
        },
        {
          "duration": 0.08,
          "phone": "aa_I"
        },
        {
          "duration": 0.09,
          "phone": "d_I"
        },
        {
          "duration": 0.21,
          "phone": "iy_E"
        }
      ],
      "start": 8.75,
      "startOffset": 123,
      "word": "BODY"
    },
    {
      "alignedWord": "if",
      "case": "success",
      "end": 9.96,
      "endOffset": 130,
      "phones": [
        {
          "duration": 0.13,
          "phone": "ih_B"
        },
        {
          "duration": 0.12,
          "phone": "f_E"
        }
      ],
      "start": 9.71,
      "startOffset": 128,
      "word": "IF"
    },
    {
      "alignedWord": "after",
      "case": "success",
      "end": 10.3,
      "endOffset": 136,
      "phones": [
        {
          "duration": 0.12,
          "phone": "ae_B"
        },
        {
          "duration": 0.07,
          "phone": "f_I"
        },
        {
          "duration": 0.05,
          "phone": "t_I"
        },
        {
          "duration": 0.06,
          "phone": "er_E"
        }
      ],
      "start": 10.0,
      "startOffset": 131,
      "word": "AFTER"
    },
    {
      "alignedWord": "your",
      "case": "success",
      "end": 10.520000000000001,
      "endOffset": 141,
      "phones": [
        {
          "duration": 0.04,
          "phone": "y_B"
        },
        {
          "duration": 0.06,
          "phone": "uh_I"
        },
        {
          "duration": 0.12,
          "phone": "r_E"
        }
      ],
      "start": 10.3,
      "startOffset": 137,
      "word": "YOUR"
    },
    {
      "alignedWord": "copy",
      "case": "success",
      "end": 10.96,
      "endOffset": 146,
      "phones": [
        {
          "duration": 0.08,
          "phone": "k_B"
        },
        {
          "duration": 0.07,
          "phone": "aa_I"
        },
        {
          "duration": 0.12,
          "phone": "p_I"
        },
        {
          "duration": 0.14,
          "phone": "iy_E"
        }
      ],
      "start": 10.55,
      "startOffset": 142,
      "word": "COPY"
    },
    {
      "alignedWord": "has",
      "case": "success",
      "end": 11.199999,
      "endOffset": 150,
      "phones": [
        {
          "duration": 0.08,
          "phone": "hh_B"
        },
        {
          "duration": 0.08,
          "phone": "ae_I"
        },
        {
          "duration": 0.07,
          "phone": "z_E"
        }
      ],
      "start": 10.969999,
      "startOffset": 147,
      "word": "HAS"
    },
    {
      "alignedWord": "itself",
      "case": "success",
      "end": 11.76,
      "endOffset": 157,
      "phones": [
        {
          "duration": 0.07,
          "phone": "ih_B"
        },
        {
          "duration": 0.1,
          "phone": "t_I"
        },
        {
          "duration": 0.17,
          "phone": "s_I"
        },
        {
          "duration": 0.09,
          "phone": "eh_I"
        },
        {
          "duration": 0.08,
          "phone": "l_I"
        },
        {
          "duration": 0.05,
          "phone": "f_E"
        }
      ],
      "start": 11.2,
      "startOffset": 151,
      "word": "ITSELF"
    },
    {
      "alignedWord": "been",
      "case": "success",
      "end": 11.979999999999999,
      "endOffset": 162,
      "phones": [
        {
          "duration": 0.08,
          "phone": "b_B"
        },
        {
          "duration": 0.08,
          "phone": "ih_I"
        },
        {
          "duration": 0.04,
          "phone": "n_E"
        }
      ],
      "start": 11.78,
      "startOffset": 158,
      "word": "BEEN"
    },
    {
      "alignedWord": "examined",
      "case": "success",
      "end": 12.64,
      "endOffset": 171,
      "phones": [
        {
          "duration": 0.07,
          "phone": "ih_B"
        },
        {
          "duration": 0.07,
          "phone": "g_I"
        },
        {
          "duration": 0.09,
          "phone": "z_I"
        },
        {
          "duration": 0.1,
          "phone": "ae_I"
        },
        {
          "duration": 0.07,
          "phone": "m_I"
        },
        {
          "duration": 0.07,
          "phone": "ah_I"
        },
        {
          "duration": 0.08,
          "phone": "n_I"
        },
        {
          "duration": 0.11,
          "phone": "d_E"
        }
      ],
      "start": 11.98,
      "startOffset": 163,
      "word": "EXAMINED"
    },
    {
      "alignedWord": "three",
      "case": "success",
      "end": 13.29,
      "endOffset": 177,
      "phones": [
        {
          "duration": 0.13,
          "phone": "th_B"
        },
        {
          "duration": 0.14,
          "phone": "r_I"
        },
        {
          "duration": 0.1,
          "phone": "iy_E"
        }
      ],
      "start": 12.92,
      "startOffset": 172,
      "word": "THREE"
    },
    {
      "alignedWord": "corrections",
      "case": "success",
      "end": 14.0,
      "endOffset": 189,
      "phones": [
        {
          "duration": 0.1,
          "phone": "k_B"
        },
        {
          "duration": 0.12,
          "phone": "er_I"
        },
        {
          "duration": 0.08,
          "phone": "eh_I"
        },
        {
          "duration": 0.06,
          "phone": "k_I"
        },
        {
          "duration": 0.08,
          "phone": "sh_I"
        },
        {
          "duration": 0.07,
          "phone": "ah_I"
        },
        {
          "duration": 0.13,
          "phone": "n_I"
        },
        {
          "duration": 0.07,
          "phone": "z_E"
        }
      ],
      "start": 13.29,
      "startOffset": 178,
      "word": "CORRECTIONS"
    },
    {
      "alignedWord": "have",
      "case": "success",
      "end": 14.24,
      "endOffset": 194,
      "phones": [
        {
          "duration": 0.06,
          "phone": "hh_B"
        },
        {
          "duration": 0.12,
          "phone": "ae_I"
        },
        {
          "duration": 0.06,
          "phone": "v_E"
        }
      ],
      "start": 14.0,
      "startOffset": 190,
      "word": "HAVE"
    },
    {
      "alignedWord": "to",
      "case": "success",
      "end": 14.37,
      "endOffset": 197,
      "phones": [
        {
          "duration": 0.07,
          "phone": "t_B"
        },
        {
          "duration": 0.05,
          "phone": "ih_E"
        }
      ],
      "start": 14.25,
      "startOffset": 195,
      "word": "TO"
    },
    {
      "alignedWord": "be",
      "case": "success",
      "end": 14.53,
      "endOffset": 200,
      "phones": [
        {
          "duration": 0.08,
          "phone": "b_B"
        },
        {
          "duration": 0.08,
          "phone": "iy_E"
        }
      ],
      "start": 14.37,
      "startOffset": 198,
      "word": "BE"
    },
    {
      "alignedWord": "made",
      "case": "success",
      "end": 15.0,
      "endOffset": 205,
      "phones": [
        {
          "duration": 0.09,
          "phone": "m_B"
        },
        {
          "duration": 0.26,
          "phone": "ey_I"
        },
        {
          "duration": 0.12,
          "phone": "d_E"
        }
      ],
      "start": 14.53,
      "startOffset": 201,
      "word": "MADE"
    }
  ]
}