{
  "transcript": "HE HAD SEEN HER TROUBLED AND HER EYES BRIGHT WITH TEARS BUT WHAT LIGHT IS THERE LIGHTING A FACE LIKE HERS TO COMPARE WITH THE SOFT GLAMOUR OF THE MIDSUMMER MOON THE ROAD TURNED NORTHWARD GOING ROUND THROUGH THE OUTSKIRTS OF BOGNOR",
  "words": [
    {
      "alignedWord": "he",
      "case": "success",
      "end": 0.35,
      "endOffset": 2,
      "phones": [
        {
          "duration": 0.07,
          "phone": "hh_B"
        },
        {
          "duration": 0.04,
          "phone": "iy_E"
        }
      ],
      "start": 0.24,
      "startOffset": 0,
      "word": "HE"
    },
    {
      "alignedWord": "had",
      "case": "success",
      "end": 0.54,
      "endOffset": 6,
      "phones": [
        {
          "duration": 0.06,
          "phone": "hh_B"
        },
        {
          "duration": 0.05,
          "phone": "ae_I"
        },
        {
          "duration": 0.07,
          "phone": "d_E"
        }
      ],
      "start": 0.36,
      "startOffset": 3,
      "word": "HAD"
    },
    {
      "alignedWord": "seen",
      "case": "success",
      "end": 0.8,
      "endOffset": 11,
      "phones": [
        {
          "duration": 0.12,
          "phone": "s_B"
        },
        {
          "duration": 0.08,
          "phone": "iy_I"
        },
        {
          "duration": 0.06,
          "phone": "n_E"
        }
      ],
      "start": 0.54,
      "startOffset": 7,
      "word": "SEEN"
    },
    {
      "alignedWord": "her",
      "case": "success",
      "end": 0.93,
      "endOffset": 15,
      "phones": [
        {
          "duration": 0.07,
          "phone": "hh_B"
        },
        {
          "duration": 0.06,
          "phone": "er_E"
        }
      ],
      "start": 0.8,
      "startOffset": 12,
      "word": "HER"
    },
    {
      "alignedWord": "troubled",
      "case": "success",
      "end": 1.54,
      "endOffset": 24,
      "phones": [
        {
          "duration": 0.14,
          "phone": "t_B"
        },
        {
          "duration": 0.09,
          "phone": "r_I"
        },
        {
          "duration": 0.05,
          "phone": "ah_I"
        },
        {
          "duration": 0.04,
          "phone": "b_I"
        },
        {
          "duration": 0.09,
          "phone": "ah_I"
        },
        {
          "duration": 0.09,
          "phone": "l_I"
        },
        {
          "duration": 0.11,
          "phone": "d_E"
        }
      ],
      "start": 0.93,
      "startOffset": 16,
      "word": "TROUBLED"
    },
    {
      "alignedWord": "and",
      "case": "success",
      "end": 1.7600000000000002,
      "endOffset": 28,
      "phones": [
        {
          "duration": 0.07,
          "phone": "ae_B"
        },
        {
          "duration": 0.04,
          "phone": "n_I"
        },
        {
          "duration": 0.03,
          "phone": "d_E"
        }
      ],
      "start": 1.62,
      "startOffset": 25,
      "word": "AND"
    },
    {
      "alignedWord": "her",
      "case": "success",
      "end": 1.91,
      "endOffset": 32,
      "phones": [
        {
          "duration": 0.04,
          "phone": "hh_B"
        },
        {
          "duration": 0.11,
          "phone": "er_E"
        }
      ],
      "start": 1.76,
      "startOffset": 29,
      "word": "HER"
    },
    {
      "alignedWord": "eyes",
      "case": "success",
      "end": 2.19,
      "endOffset": 37,
      "phones": [
        {
          "duration": 0.19,
          "phone": "ay_B"
        },
        {
          "duration": 0.09,
          "phone": "z_E"
        }
      ],
      "start": 1.91,
      "startOffset": 33,
      "word": "EYES"
    },
    {
      "alignedWord": "bright",
      "case": "success",
      "end": 2.52,
      "endOffset": 44,
      "phones": [
        {
          "duration": 0.09,
          "phone": "b_B"
        },
        {
          "duration": 0.06,
          "phone": "r_I"
        },
        {
          "duration": 0.07,
          "phone": "ay_I"
        },
        {
          "duration": 0.09,
          "phone": "t_E"
        }
      ],
      "start": 2.21,
      "startOffset": 38,
      "word": "BRIGHT"
    },
    {
      "alignedWord": "with",
      "case": "success",
      "end": 2.77,
      "endOffset": 49,
      "phones": [
        {
          "duration": 0.04,
          "phone": "w_B"
        },
        {
          "duration": 0.06,
          "phone": "ih_I"
        },
        {
          "duration": 0.15,
          "phone": "th_E"
        }
      ],
      "start": 2.52,
      "startOffset": 45,
      "word": "WITH"
    },
    {
      "alignedWord": "tears",
      "case": "success",
      "end": 3.23,
      "endOffset": 55,
      "phones": [
        {
          "duration": 0.01,
          "phone": "t_B"
        },
        {
          "duration": 0.18,
          "phone": "ih_I"
        },
        {
          "duration": 0.14,
          "phone": "r_I"
        },
        {
          "duration": 0.13,
          "phone": "z_E"
        }
      ],
      "start": 2.77,
      "startOffset": 50,
      "word": "TEARS"
    },
    {
      "alignedWord": "but",
      "case": "success",
      "end": 4.21,
      "endOffset": 59,
      "phones": [
        {
          "duration": 0.09,
          "phone": "b_B"
        },
        {
          "duration": 0.04,
          "phone": "ah_I"
        },
        {
          "duration": 0.06,
          "phone": "t_E"
        }
      ],
      "start": 4.02,
      "startOffset": 56,
      "word": "BUT"
    },
    {
      "alignedWord": "what",
      "case": "success",
      "end": 4.510000000000001,
      "endOffset": 64,
      "phones": [
        {
          "duration": 0.03,
          "phone": "hh_B"
        },
        {
          "duration": 0.07,
          "phone": "w_I"
        },
        {
          "duration": 0.07,
          "phone": "ah_I"
        },
        {
          "duration": 0.11,
          "phone": "t_E"
        }
      ],
      "start": 4.23,
      "startOffset": 60,
      "word": "WHAT"
    },
    {
      "alignedWord": "light",
      "case": "success",
      "end": 4.8,
      "endOffset": 70,
      "phones": [
        {
          "duration": 0.08,
          "phone": "l_B"
        },
        {
          "duration": 0.12,
          "phone": "ay_I"
        },
        {
          "duration": 0.09,
          "phone": "t_E"
        }
      ],
      "start": 4.51,
      "startOffset": 65,
      "word": "LIGHT"
    },
    {
      "alignedWord": "is",
      "case": "success",
      "end": 5.05,
      "endOffset": 73,
      "phones": [
        {
          "duration": 0.13,
          "phone": "ih_B"
        },
        {
          "duration": 0.11,
          "phone": "z_E"
        }
      ],
      "start": 4.81,
      "startOffset": 71,
      "word": "IS"
    },
    {
      "alignedWord": "there",
      "case": "success",
      "end": 5.27,
      "endOffset": 79,
      "phones": [
        {
          "duration": 0.05,
          "phone": "dh_B"
        },
        {
          "duration": 0.08,
          "phone": "eh_I"
        },
        {
          "duration": 0.09,
          "phone": "r_E"
        }
      ],
      "start": 5.05,
      "startOffset": 74,
      "word": "THERE"
    },
    {
      "alignedWord": "lighting",
      "case": "success",
      "end": 5.7299999999999995,
      "endOffset": 88,
      "phones": [
        {
          "duration": 0.05,
          "phone": "l_B"
        },
        {
          "duration": 0.07,
          "phone": "ay_I"
        },
        {
          "duration": 0.04,
          "phone": "t_I"
        },
        {
          "duration": 0.07,
          "phone": "ih_I"
        },
        {
          "duration": 0.19,
          "phone": "ng_E"
        }
      ],
      "start": 5.31,
      "startOffset": 80,
      "word": "LIGHTING"
    },
    {
      "alignedWord": "a",
      "case": "success",
      "end": 5.8999999999999995,
      "endOffset": 90,
      "phones": [
        {
          "duration": 0.1,
          "phone": "ah_S"
        }
      ],
      "start": 5.8,
      "startOffset": 89,
      "word": "A"
    },
    {
      "alignedWord": "face",
      "case": "success",
      "end": 6.23,
      "endOffset": 95,
      "phones": [
        {
          "duration": 0.13,
          "phone": "f_B"
        },
        {
          "duration": 0.11,
          "phone": "ey_I"
        },
        {
          "duration": 0.09,
          "phone": "s_E"
        }
      ],
      "start": 5.9,
      "startOffset": 91,
      "word": "FACE"
    },
    {
      "alignedWord": "like",
      "case": "success",
      "end": 6.430000000000001,
      "endOffset": 100,
      "phones": [
        {
          "duration": 0.05,
          "phone": "l_B"
        },
        {
          "duration": 0.08,
          "phone": "ay_I"
        },
        {
          "duration": 0.07,
          "phone": "k_E"
        }
      ],
      "start": 6.23,
      "startOffset": 96,
      "word": "LIKE"
    },
    {
      "alignedWord": "hers",
      "case": "success",
      "end": 6.819999999999999,
      "endOffset": 105,
      "phones": [
        {
          "duration": 0.09,
          "phone": "hh_B"
        },
        {
          "duration": 0.16,
          "phone": "er_I"
        },
        {
          "duration": 0.14,
          "phone": "z_E"
        }
      ],
      "start": 6.43,
      "startOffset": 101,
      "word": "HERS"
    },
    {
      "alignedWord": "to",
      "case": "success",
      "end": 6.99,
      "endOffset": 108,
      "phones": [
        {
          "duration": 0.06,
          "phone": "t_B"
        },
        {
          "duration": 0.05,
          "phone": "ah_E"
        }
      ],
      "start": 6.88,
      "startOffset": 106,
      "word": "TO"
    },
    {
      "alignedWord": "compare",
      "case": "success",
      "end": 7.38,
      "endOffset": 116,
      "phones": [
        {
          "duration": 0.06,
          "phone": "k_B"
        },
        {
          "duration": 0.05,
          "phone": "ah_I"
        },
        {
          "duration": 0.05,
          "phone": "m_I"
        },
        {
          "duration": 0.08,
          "phone": "p_I"
        },
        {
          "duration": 0.08,
          "phone": "eh_I"
        },
        {
          "duration": 0.07,
          "phone": "r_E"
        }
      ],
      "start": 6.99,
      "startOffset": 109,
      "word": "COMPARE"
    },
    {
      "alignedWord": "with",
      "case": "success",
      "end": 7.51,
      "endOffset": 121,
      "phones": [
        {
          "duration": 0.05,
          "phone": "w_B"
        },
        {
          "duration": 0.04,
          "phone": "ih_I"
        },
        {
          "duration": 0.04,
          "phone": "th_E"
        }
      ],
      "start": 7.38,
      "startOffset": 117,
      "word": "WITH"
    },
    {
      "alignedWord": "the",
      "case": "success",
      "end": 7.6,
      "endOffset": 125,
      "phones": [
        {
          "duration": 0.04,
          "phone": "dh_B"
        },
        {
          "duration": 0.05,
          "phone": "ah_E"
        }
      ],
      "start": 7.51,
      "startOffset": 122,
      "word": "THE"
    },
    {
      "alignedWord": "soft",
      "case": "success",
      "end": 7.93,
      "endOffset": 130,
      "phones": [
        {
          "duration": 0.11,
          "phone": "s_B"
        },
        {
          "duration": 0.1,
          "phone": "ao_I"
        },
        {
          "duration": 0.06,
          "phone": "f_I"
        },
        {
          "duration": 0.06,
          "phone": "t_E"
        }
      ],
      "start": 7.6,
      "startOffset": 126,
      "word": "SOFT"
    },
    {
      "alignedWord": "glamour",
      "case": "success",
      "end": 8.43,
      "endOffset": 138,
      "phones": [
        {
          "duration": 0.09,
          "phone": "g_B"
        },
        {
          "duration": 0.09,
          "phone": "l_I"
        },
        {
          "duration": 0.1,
          "phone": "ae_I"
        },
        {
          "duration": 0.09,
          "phone": "m_I"
        },
        {
          "duration": 0.12,
          "phone": "er_E"
        }
      ],
      "start": 7.94,
      "startOffset": 131,
      "word": "GLAMOUR"
    },
    {
      "alignedWord": "of",
      "case": "success",
      "end": 8.65,
      "endOffset": 141,
      "phones": [
        {
          "duration": 0.1,
          "phone": "ah_B"
        },
        {
          "duration": 0.07,
          "phone": "v_E"
        }
      ],
      "start": 8.48,
      "startOffset": 139,
      "word": "OF"
    },
    {
      "alignedWord": "the",
      "case": "success",
      "end": 8.82,
      "endOffset": 145,
      "phones": [
        {
          "duration": 0.07,
          "phone": "dh_B"
        },
        {
          "duration": 0.06,
          "phone": "ah_E"
        }
      ],
      "start": 8.69,
      "startOffset": 142,
      "word": "THE"
    },
    {
      "alignedWord": "midsummer",
      "case": "success",
      "end": 9.450000000000001,
      "endOffset": 155,
      "phones": [
        {
          "duration": 0.07,
          "phone": "m_B"
        },
        {
          "duration": 0.09,
          "phone": "ih_I"
        },
        {
          "duration": 0.09,
          "phone": "d_I"
        },
        {
          "duration": 0.08,
          "phone": "s_I"
        },
        {
          "duration": 0.11,
          "phone": "ah_I"
        },
        {
          "duration": 0.08,
          "phone": "m_I"
        },
        {
          "duration": 0.11,
          "phone": "er_E"
        }
      ],
      "start": 8.82,
      "startOffset": 146,
      "word": "MIDSUMMER"
    },
    {
      "alignedWord": "moon",
      "case": "success",
      "end": 9.94,
      "endOffset": 160,
      "phones": [
        {
          "duration": 0.08,
          "phone": "m_B"
        },
        {
          "duration": 0.23,
          "phone": "uw_I"
        },
        {
          "duration": 0.18,
          "phone": "n_E"
        }
      ],
      "start": 9.45,
      "startOffset": 156,
      "word": "MOON"
    },
    {
      "alignedWord": "the",
      "case": "success",
      "end": 11.1,
      "endOffset": 164,
      "phones": [
        {
          "duration": 0.08,
          "phone": "dh_B"
        },
        {
          "duration": 0.07,
          "phone": "ah_E"
        }
      ],
      "start": 10.95,
      "startOffset": 161,
      "word": "THE"
    },
    {
      "alignedWord": "road",
      "case": "success",
      "end": 11.369999,
      "endOffset": 169,
      "phones": [
        {
          "duration": 0.09,
          "phone": "r_B"
        },
        {
          "duration": 0.1,
          "phone": "ow_I"
        },
        {
          "duration": 0.08,
          "phone": "d_E"
        }
      ],
      "start": 11.099999,
      "startOffset": 165,
      "word": "ROAD"
    },
    {
      "alignedWord": "turned",
      "case": "success",
      "end": 11.59,
      "endOffset": 176,
      "phones": [
        {
          "duration": 0.1,
          "phone": "t_B"
        },
        {
          "duration": 0.08,
          "phone": "er_I"
        },
        {
          "duration": 0.03,
          "phone": "n_I"
        },
        {
          "duration": 0.01,
          "phone": "d_E"
        }
      ],
      "start": 11.37,
      "startOffset": 170,
      "word": "TURNED"
    },
    {
      "alignedWord": "<unk>",
      "case": "success",
      "end": 12.29,
      "endOffset": 186,
      "phones": [
        {
          "duration": 0.7,
          "phone": "oov_S"
        }
      ],
      "start": 11.59,
      "startOffset": 177,
      "word": "NORTHWARD"
    },
    {
      "alignedWord": "going",
      "case": "success",
      "end": 12.72,
      "endOffset": 192,
      "phones": [
        {
          "duration": 0.09,
          "phone": "g_B"
        },
        {
          "duration": 0.07,
          "phone": "ow_I"
        },
        {
          "duration": 0.07,
          "phone": "ih_I"
        },
        {
          "duration": 0.11,
          "phone": "ng_E"
        }
      ],
      "start": 12.38,
      "startOffset": 187,
      "word": "GOING"
    },
    {
      "alignedWord": "round",
      "case": "success",
      "end": 13.149999,
      "endOffset": 198,
      "phones": [
        {
          "duration": 0.1,
          "phone": "r_B"
        },
        {
          "duration": 0.19,
          "phone": "aw_I"
        },
        {
          "duration": 0.07,
          "phone": "n_I"
        },
        {
          "duration": 0.07,
          "phone": "d_E"
        }
      ],
      "start": 12.719999,
      "startOffset": 193,
      "word": "ROUND"
    },
    {
      "alignedWord": "through",
      "case": "success",
      "end": 13.45,
      "endOffset": 206,
      "phones": [
        {
          "duration": 0.11,
          "phone": "th_B"
        },
        {
          "duration": 0.08,
          "phone": "r_I"
        },
        {
          "duration": 0.07,
          "phone": "uw_E"
        }
      ],
      "start": 13.19,
      "startOffset": 199,
      "word": "THROUGH"
    },
    {
      "alignedWord": "the",
      "case": "success",
      "end": 13.58,
      "endOffset": 210,
      "phones": [
        {
          "duration": 0.07,
          "phone": "dh_B"
        },
        {
          "duration": 0.06,
          "phone": "iy_E"
        }
      ],
      "start": 13.45,
      "startOffset": 207,
      "word": "THE"
    },
    {
      "alignedWord": "outskirts",
      "case": "success",
      "end": 13.99,
      "endOffset": 220,
      "phones": [
        {
          "duration": 0.05,
          "phone": "aw_B"
        },
        {
          "duration": 0.07,
          "phone": "t_I"
        },
        {
          "duration": 0.06,
          "phone": "s_I"
        },
        {
          "duration": 0.07,
          "phone": "k_I"
        },
        {
          "duration": 0.06,
          "phone": "er_I"
        },
        {
          "duration": 0.06,
          "phone": "t_I"
        },
        {
          "duration": 0.04,
          "phone": "s_E"
        }
      ],
      "start": 13.58,
      "startOffset": 211,
      "word": "OUTSKIRTS"
    },
    {
      "alignedWord": "of",
      "case": "success",
      "end": 14.16,
      "endOffset": 223,
      "phones": [
        {
          "duration": 0.09,
          "phone": "ah_B"
        },
        {
          "duration": 0.08,
          "phone": "v_E"
        }
      ],
      "start": 13.99,
      "startOffset": 221,
      "word": "OF"
    },
    {
      "alignedWord": "<unk>",
      "case": "success",
      "end": 14.790000000000001,
      "endOffset": 230,
      "phones": [
        {
          "duration": 0.63,
          "phone": "oov_S"
        }
      ],
      "start": 14.16,
      "startOffset": 224,
      "word": "BOGNOR"
    }
  ]
}