{
  "transcript": "WHEREFORE ALL THE PEOPLE ABSTAINED FROM ALMS DEED AND NONE COULD GIVE ANYTHING TO ANY ONE NOW IT CHANCED THAT ONE DAY A BEGGAR ACCOSTED A CERTAIN WOMAN AND INDEED HUNGER WAS SORE UPON HIM AND SAID TO HER",
  "words": [
    {
      "alignedWord": "<unk>",
      "case": "success",
      "end": 1.01,
      "endOffset": 9,
      "phones": [
        {
          "duration": 0.48,
          "phone": "oov_S"
        }
      ],
      "start": 0.53,
      "startOffset": 0,
      "word": "WHEREFORE"
    },
    {
      "alignedWord": "all",
      "case": "success",
      "end": 1.19,
      "endOffset": 13,
      "phones": [
        {
          "duration": 0.1,
          "phone": "ao_B"
        },
        {
          "duration": 0.07,
          "phone": "l_E"
        }
      ],
      "start": 1.02,
      "startOffset": 10,
      "word": "ALL"
    },
    {
      "alignedWord": "the",
      "case": "success",
      "end": 1.29,
      "endOffset": 17,
      "phones": [
        {
          "duration": 0.04,
          "phone": "dh_B"
        },
        {
          "duration": 0.06,
          "phone": "ah_E"
        }
      ],
      "start": 1.19,
      "startOffset": 14,
      "word": "THE"
    },
    {
      "alignedWord": "people",
      "case": "success",
      "end": 1.65,
      "endOffset": 24,
      "phones": [
        {
          "duration": 0.08,
          "phone": "p_B"
        },
        {
          "duration": 0.07,
          "phone": "iy_I"
        },
        {
          "duration": 0.08,
          "phone": "p_I"
        },
        {
          "duration": 0.04,
          "phone": "ah_I"
        },
        {
          "duration": 0.09,
          "phone": "l_E"
        }
      ],
      "start": 1.29,
      "startOffset": 18,
      "word": "PEOPLE"
    },
    {
      "alignedWord": "<unk>",
      "case": "success",
      "end": 2.2199999999999998,
      "endOffset": 34,
      "phones": [
        {
          "duration": 0.55,
          "phone": "oov_S"
        }
      ],
      "start": 1.67,
      "startOffset": 25,
      "word": "ABSTAINED"
    },
    {
      "alignedWord": "from",
      "case": "success",
      "end": 2.45,
      "endOffset": 39,
      "phones": [
        {
          "duration": 0.08,
          "phone": "f_B"
        },
        {
          "duration": 0.06,
          "phone": "er_I"
        },
        {
          "duration": 0.08,
          "phone": "m_E"
        }
      ],
      "start": 2.23,
      "startOffset": 35,
      "word": "FROM"
    },
    {
      "alignedWord": "<unk>",
      "case": "success",
      "end": 2.85,
      "endOffset": 44,
      "phones": [
        {
          "duration": 0.38,
          "phone": "oov_S"
        }
      ],
      "start": 2.47,
      "startOffset": 40,
      "word": "ALMS"
    },
    {
      "alignedWord": "deed",
      "case": "success",
      "end": 3.13,
      "endOffset": 49,
      "phones": [
        {
          "duration": 0.01,
          "phone": "d_B"
        },
        {
          "duration": 0.12,
          "phone": "iy_I"
        },
        {
          "duration": 0.15,
          "phone": "d_E"
        }
      ],
      "start": 2.85,
      "startOffset": 45,
      "word": "DEED"
    },
    {
      "alignedWord": "and",
      "case": "success",
      "end": 3.39,
      "endOffset": 53,
      "phones": [
        {
          "duration": 0.1,
          "phone": "ae_B"
        },
        {
          "duration": 0.04,
          "phone": "n_I"
        },
        {
          "duration": 0.08,
          "phone": "d_E"
        }
      ],
      "start": 3.17,
      "startOffset": 50,
      "word": "AND"
    },
    {
      "alignedWord": "none",
      "case": "success",
      "end": 3.6,
      "endOffset": 58,
      "phones": [
        {
          "duration": 0.02,
          "phone": "n_B"
        },
        {
          "duration": 0.11,
          "phone": "ah_I"
        },
        {
          "duration": 0.08,
          "phone": "n_E"
        }
      ],
      "start": 3.39,
      "startOffset": 54,
      "word": "NONE"
    },
    {
      "alignedWord": "could",
      "case": "success",
      "end": 3.77,
      "endOffset": 64,
      "phones": [
        {
          "duration": 0.06,
          "phone": "k_B"
        },
        {
          "duration": 0.04,
          "phone": "uh_I"
        },
        {
          "duration": 0.07,
          "phone": "d_E"
        }
      ],
      "start": 3.6,
      "startOffset": 59,
      "word": "COULD"
    },
    {
      "alignedWord": "give",
      "case": "success",
      "end": 3.96,
      "endOffset": 69,
      "phones": [
        {
          "duration": 0.03,
          "phone": "g_B"
        },
        {
          "duration": 0.08,
          "phone": "ih_I"
        },
        {
          "duration": 0.08,
          "phone": "v_E"
        }
      ],
      "start": 3.77,
      "startOffset": 65,
      "word": "GIVE"
    },
    {
      "alignedWord": "anything",
      "case": "success",
      "end": 4.57,
      "endOffset": 78,
      "phones": [
        {
          "duration": 0.09,
          "phone": "eh_B"
        },
        {
          "duration": 0.06,
          "phone": "n_I"
        },
        {
          "duration": 0.07,
          "phone": "iy_I"
        },
        {
          "duration": 0.07,
          "phone": "th_I"
        },
        {
          "duration": 0.09,
          "phone": "ih_I"
        },
        {
          "duration": 0.22,
          "phone": "ng_E"
        }
      ],
      "start": 3.97,
      "startOffset": 70,
      "word": "ANYTHING"
    },
    {
      "alignedWord": "to",
      "case": "success",
      "end": 4.79,
      "endOffset": 81,
      "phones": [
        {
          "duration": 0.1,
          "phone": "t_B"
        },
        {
          "duration": 0.09,
          "phone": "uw_E"
        }
      ],
      "start": 4.6,
      "startOffset": 79,
      "word": "TO"
    },
    {
      "alignedWord": "any",
      "case": "success",
      "end": 5.01,
      "endOffset": 85,
      "phones": [
        {
          "duration": 0.07,
          "phone": "eh_B"
        },
        {
          "duration": 0.06,
          "phone": "n_I"
        },
        {
          "duration": 0.08,
          "phone": "iy_E"
        }
      ],
      "start": 4.8,
      "startOffset": 82,
      "word": "ANY"
    },
    {
      "alignedWord": "one",
      "case": "success",
      "end": 5.279999999999999,
      "endOffset": 89,
      "phones": [
        {
          "duration": 0.05,
          "phone": "w_B"
        },
        {
          "duration": 0.07,
          "phone": "ah_I"
        },
        {
          "duration": 0.15,
          "phone": "n_E"
        }
      ],
      "start": 5.01,
      "startOffset": 86,
      "word": "ONE"
    },
    {
      "alignedWord": "now",
      "case": "success",
      "end": 6.74,
      "endOffset": 93,
      "phones": [
        {
          "duration": 0.13,
          "phone": "n_B"
        },
        {
          "duration": 0.11,
          "phone": "aw_E"
        }
      ],
      "start": 6.5,
      "startOffset": 90,
      "word": "NOW"
    },
    {
      "alignedWord": "it",
      "case": "success",
      "end": 6.8500000000000005,
      "endOffset": 96,
      "phones": [
        {
          "duration": 0.07,
          "phone": "ih_B"
        },
        {
          "duration": 0.04,
          "phone": "t_E"
        }
      ],
      "start": 6.74,
      "startOffset": 94,
      "word": "IT"
    },
    {
      "alignedWord": "<unk>",
      "case": "success",
      "end": 7.46,
      "endOffset": 104,
      "phones": [
        {
          "duration": 0.5,
          "phone": "oov_S"
        }
      ],
      "start": 6.96,
      "startOffset": 97,
      "word": "CHANCED"
    },
    {
      "alignedWord": "that",
      "case": "success",
      "end": 7.71,
      "endOffset": 109,
      "phones": [
        {
          "duration": 0.07,
          "phone": "dh_B"
        },
        {
          "duration": 0.06,
          "phone": "ae_I"
        },
        {
          "duration": 0.08,
          "phone": "t_E"
        }
      ],
      "start": 7.5,
      "startOffset": 105,
      "word": "THAT"
    },
    {
      "alignedWord": "one",
      "case": "success",
      "end": 7.880000000000001,
      "endOffset": 113,
      "phones": [
        {
          "duration": 0.06,
          "phone": "w_B"
        },
        {
          "duration": 0.05,
          "phone": "ah_I"
        },
        {
          "duration": 0.04,
          "phone": "n_E"
        }
      ],
      "start": 7.73,
      "startOffset": 110,
      "word": "ONE"
    },
    {
      "alignedWord": "day",
      "case": "success",
      "end": 8.05,
      "endOffset": 117,
      "phones": [
        {
          "duration": 0.08,
          "phone": "d_B"
        },
        {
          "duration": 0.09,
          "phone": "ey_E"
        }
      ],
      "start": 7.88,
      "startOffset": 114,
      "word": "DAY"
    },
    {
      "alignedWord": "a",
      "case": "success",
      "end": 8.209999,
      "endOffset": 119,
      "phones": [
        {
          "duration": 0.15,
          "phone": "ey_S"
        }
      ],
      "start": 8.059999,
      "startOffset": 118,
      "word": "A"
    },
    {
      "alignedWord": "beggar",
      "case": "success",
      "end": 8.530000000000001,
      "endOffset": 126,
      "phones": [
        {
          "duration": 0.07,
          "phone": "b_B"
        },
        {
          "duration": 0.08,
          "phone": "eh_I"
        },
        {
          "duration": 0.07,
          "phone": "g_I"
        },
        {
          "duration": 0.1,
          "phone": "er_E"
        }
      ],
      "start": 8.21,
      "startOffset": 120,
      "word": "BEGGAR"
    },
    {
      "alignedWord": "accosted",
      "case": "success",
      "end": 9.049999999999999,
      "endOffset": 135,
      "phones": [
        {
          "duration": 0.09,
          "phone": "ah_B"
        },
        {
          "duration": 0.09,
          "phone": "k_I"
        },
        {
          "duration": 0.07,
          "phone": "aa_I"
        },
        {
          "duration": 0.08,
          "phone": "s_I"
        },
        {
          "duration": 0.07,
          "phone": "t_I"
        },
        {
          "duration": 0.05,
          "phone": "ah_I"
        },
        {
          "duration": 0.06,
          "phone": "d_E"
        }
      ],
      "start": 8.54,
      "startOffset": 127,
      "word": "ACCOSTED"
    },
    {
      "alignedWord": "a",
      "case": "success",
      "end": 9.16,
      "endOffset": 137,
      "phones": [
        {
          "duration": 0.09,
          "phone": "ey_S"
        }
      ],
      "start": 9.07,
      "startOffset": 136,
      "word": "A"
    },
    {
      "alignedWord": "certain",
      "case": "success",
      "end": 9.52,
      "endOffset": 145,
      "phones": [
        {
          "duration": 0.11,
          "phone": "s_B"
        },
        {
          "duration": 0.08,
          "phone": "er_I"
        },
        {
          "duration": 0.04,
          "phone": "t_I"
        },
        {
          "duration": 0.04,
          "phone": "ah_I"
        },
        {
          "duration": 0.09,
          "phone": "n_E"
        }
      ],
      "start": 9.16,
      "startOffset": 138,
      "word": "CERTAIN"
    },
    {
      "alignedWord": "woman",
      "case": "success",
      "end": 9.889999999999999,
      "endOffset": 151,
      "phones": [
        {
          "duration": 0.04,
          "phone": "w_B"
        },
        {
          "duration": 0.09,
          "phone": "uh_I"
        },
        {
          "duration": 0.01,
          "phone": "m_I"
        },
        {
          "duration": 0.07,
          "phone": "ah_I"
        },
        {
          "duration": 0.16,
          "phone": "n_E"
        }
      ],
      "start": 9.52,
      "startOffset": 146,
      "word": "WOMAN"
    },
    {
      "alignedWord": "and",
      "case": "success",
      "end": 10.850000000000001,
      "endOffset": 155,
      "phones": [
        {
          "duration": 0.11,
          "phone": "ae_B"
        },
        {
          "duration": 0.06,
          "phone": "n_I"
        },
        {
          "duration": 0.05,
          "phone": "d_E"
        }
      ],
      "start": 10.63,
      "startOffset": 152,
      "word": "AND"
    },
    {
      "alignedWord": "indeed",
      "case": "success",
      "end": 11.249999,
      "endOffset": 162,
      "phones": [
        {
          "duration": 0.05,
          "phone": "ih_B"
        },
        {
          "duration": 0.07,
          "phone": "n_I"
        },
        {
          "duration": 0.06,
          "phone": "d_I"
        },
        {
          "duration": 0.14,
          "phone": "iy_I"
        },
        {
          "duration": 0.08,
          "phone": "d_E"
        }
      ],
      "start": 10.849999,
      "startOffset": 156,
      "word": "INDEED"
    },
    {
      "alignedWord": "hunger",
      "case": "success",
      "end": 11.559999000000001,
      "endOffset": 169,
      "phones": [
        {
          "duration": 0.07,
          "phone": "hh_B"
        },
        {
          "duration": 0.05,
          "phone": "ah_I"
        },
        {
          "duration": 0.04,
          "phone": "ng_I"
        },
        {
          "duration": 0.07,
          "phone": "g_I"
        },
        {
          "duration": 0.07,
          "phone": "er_E"
        }
      ],
      "start": 11.259999,
      "startOffset": 163,
      "word": "HUNGER"
    },
    {
      "alignedWord": "was",
      "case": "success",
      "end": 11.739999,
      "endOffset": 173,
      "phones": [
        {
          "duration": 0.07,
          "phone": "w_B"
        },
        {
          "duration": 0.06,
          "phone": "ah_I"
        },
        {
          "duration": 0.05,
          "phone": "z_E"
        }
      ],
      "start": 11.559999,
      "startOffset": 170,
      "word": "WAS"
    },
    {
      "alignedWord": "sore",
      "case": "success",
      "end": 11.950000000000001,
      "endOffset": 178,
      "phones": [
        {
          "duration": 0.06,
          "phone": "s_B"
        },
        {
          "duration": 0.09,
          "phone": "ao_I"
        },
        {
          "duration": 0.06,
          "phone": "r_E"
        }
      ],
      "start": 11.74,
      "startOffset": 174,
      "word": "SORE"
    },
    {
      "alignedWord": "upon",
      "case": "success",
      "end": 12.25,
      "endOffset": 183,
      "phones": [
        {
          "duration": 0.05,
          "phone": "ah_B"
        },
        {
          "duration": 0.07,
          "phone": "p_I"
        },
        {
          "duration": 0.11,
          "phone": "aa_I"
        },
        {
          "duration": 0.07,
          "phone": "n_E"
        }
      ],
      "start": 11.95,
      "startOffset": 179,
      "word": "UPON"
    },
    {
      "alignedWord": "him",
      "case": "success",
      "end": 12.53,
      "endOffset": 187,
      "phones": [
        {
          "duration": 0.06,
          "phone": "hh_B"
        },
        {
          "duration": 0.07,
          "phone": "ih_I"
        },
        {
          "duration": 0.15,
          "phone": "m_E"
        }
      ],
      "start": 12.25,
      "startOffset": 184,
      "word": "HIM"
    },
    {
      "alignedWord": "and",
      "case": "success",
      "end": 13.379999999999999,
      "endOffset": 191,
      "phones": [
        {
          "duration": 0.08,
          "phone": "ae_B"
        },
        {
          "duration": 0.03,
          "phone": "n_I"
        },
        {
          "duration": 0.07,
          "phone": "d_E"
        }
      ],
      "start": 13.2,
      "startOffset": 188,
      "word": "AND"
    },
    {
      "alignedWord": "said",
      "case": "success",
      "end": 13.57,
      "endOffset": 196,
      "phones": [
        {
          "duration": 0.07,
          "phone": "s_B"
        },
        {
          "duration": 0.06,
          "phone": "eh_I"
        },
        {
          "duration": 0.06,
          "phone": "d_E"
        }
      ],
      "start": 13.38,
      "startOffset": 192,
      "word": "SAID"
    },
    {
      "alignedWord": "to",
      "case": "success",
      "end": 13.700000000000001,
      "endOffset": 199,
      "phones": [
        {
          "duration": 0.05,
          "phone": "t_B"
        },
        {
          "duration": 0.08,
          "phone": "uw_E"
        }
      ],
      "start": 13.57,
      "startOffset": 197,
      "word": "TO"
    },
    {
      "alignedWord": "her",
      "case": "success",
      "end": 14.03,
      "endOffset": 203,
      "phones": [
        {
          "duration": 0.1,
          "phone": "hh_B"
        },
        {
          "duration": 0.23,
          "phone": "er_E"
        }
      ],
      "start": 13.7,
      "startOffset": 200,
      "word": "HER"
    }
  ]
}