{
  "transcript": "SUCCOUR ABU HASSAN AL ZIYADI AFTER THAT I DARED NOT SLEEP ANY MORE BUT WATCHED THE REST OF THE NIGHT AND AROUSED MY PEOPLE AND SENT THEM ON ALL SIDES IN QUEST OF THEE THEN HE GAVE ME ONE MYRIAD OF DIRHAMS SAYING THIS IS FOR THE KHORASANI",
  "words": [
    {
      "alignedWord": "<unk>",
      "case": "success",
      "end": 0.66,
      "endOffset": 7,
      "phones": [
        {
          "duration": 0.46,
          "phone": "oov_S"
        }
      ],
      "start": 0.2,
      "startOffset": 0,
      "word": "SUCCOUR"
    },
    {
      "alignedWord": "abu",
      "case": "success",
      "end": 0.92,
      "endOffset": 11,
      "phones": [
        {
          "duration": 0.01,
          "phone": "ae_B"
        },
        {
          "duration": 0.1,
          "phone": "b_I"
        },
        {
          "duration": 0.15,
          "phone": "uw_E"
        }
      ],
      "start": 0.66,
      "startOffset": 8,
      "word": "ABU"
    },
    {
      "alignedWord": "hassan",
      "case": "success",
      "end": 1.37,
      "endOffset": 18,
      "phones": [
        {
          "duration": 0.06,
          "phone": "hh_B"
        },
        {
          "duration": 0.07,
          "phone": "ah_I"
        },
        {
          "duration": 0.12,
          "phone": "s_I"
        },
        {
          "duration": 0.13,
          "phone": "aa_I"
        },
        {
          "duration": 0.06,
          "phone": "n_E"
        }
      ],
      "start": 0.93,
      "startOffset": 12,
      "word": "HASSAN"
    },
    {
      "alignedWord": "al",
      "case": "success",
      "end": 1.4500000000000002,
      "endOffset": 21,
      "phones": [
        {
          "duration": 0.07,
          "phone": "ae_B"
        },
        {
          "duration": 0.01,
          "phone": "l_E"
        }
      ],
      "start": 1.37,
      "startOffset": 19,
      "word": "AL"
    },
    {
      "alignedWord": "<unk>",
      "case": "success",
      "end": 2.1,
      "endOffset": 28,
      "phones": [
        {
          "duration": 0.65,
          "phone": "oov_S"
        }
      ],
      "start": 1.45,
      "startOffset": 22,
      "word": "ZIYADI"
    },
    {
      "alignedWord": "after",
      "case": "success",
      "end": 3.22,
      "endOffset": 34,
      "phones": [
        {
          "duration": 0.11,
          "phone": "ae_B"
        },
        {
          "duration": 0.06,
          "phone": "f_I"
        },
        {
          "duration": 0.06,
          "phone": "t_I"
        },
        {
          "duration": 0.06,
          "phone": "er_E"
        }
      ],
      "start": 2.93,
      "startOffset": 29,
      "word": "AFTER"
    },
    {
      "alignedWord": "that",
      "case": "success",
      "end": 3.41,
      "endOffset": 39,
      "phones": [
        {
          "duration": 0.04,
          "phone": "dh_B"
        },
        {
          "duration": 0.07,
          "phone": "ae_I"
        },
        {
          "duration": 0.08,
          "phone": "t_E"
        }
      ],
      "start": 3.22,
      "startOffset": 35,
      "word": "THAT"
    },
    {
      "alignedWord": "i",
      "case": "success",
      "end": 3.48,
      "endOffset": 41,
      "phones": [
        {
          "duration": 0.07,
          "phone": "ay_S"
        }
      ],
      "start": 3.41,
      "startOffset": 40,
      "word": "I"
    },
    {
      "alignedWord": "dared",
      "case": "success",
      "end": 3.74,
      "endOffset": 47,
      "phones": [
        {
          "duration": 0.08,
          "phone": "d_B"
        },
        {
          "duration": 0.07,
          "phone": "eh_I"
        },
        {
          "duration": 0.04,
          "phone": "r_I"
        },
        {
          "duration": 0.07,
          "phone": "d_E"
        }
      ],
      "start": 3.48,
      "startOffset": 42,
      "word": "DARED"
    },
    {
      "alignedWord": "not",
      "case": "success",
      "end": 3.9400000000000004,
      "endOffset": 51,
      "phones": [
        {
          "duration": 0.03,
          "phone": "n_B"
        },
        {
          "duration": 0.09,
          "phone": "aa_I"
        },
        {
          "duration": 0.08,
          "phone": "t_E"
        }
      ],
      "start": 3.74,
      "startOffset": 48,
      "word": "NOT"
    },
    {
      "alignedWord": "sleep",
      "case": "success",
      "end": 4.26,
      "endOffset": 57,
      "phones": [
        {
          "duration": 0.12,
          "phone": "s_B"
        },
        {
          "duration": 0.06,
          "phone": "l_I"
        },
        {
          "duration": 0.06,
          "phone": "iy_I"
        },
        {
          "duration": 0.08,
          "phone": "p_E"
        }
      ],
      "start": 3.94,
      "startOffset": 52,
      "word": "SLEEP"
    },
    {
      "alignedWord": "any",
      "case": "success",
      "end": 4.39,
      "endOffset": 61,
      "phones": [
        {
          "duration": 0.02,
          "phone": "eh_B"
        },
        {
          "duration": 0.06,
          "phone": "n_I"
        },
        {
          "duration": 0.05,
          "phone": "iy_E"
        }
      ],
      "start": 4.26,
      "startOffset": 58,
      "word": "ANY"
    },
    {
      "alignedWord": "more",
      "case": "success",
      "end": 4.779999999999999,
      "endOffset": 66,
      "phones": [
        {
          "duration": 0.07,
          "phone": "m_B"
        },
        {
          "duration": 0.12,
          "phone": "ao_I"
        },
        {
          "duration": 0.2,
          "phone": "r_E"
        }
      ],
      "start": 4.39,
      "startOffset": 62,
      "word": "MORE"
    },
    {
      "alignedWord": "but",
      "case": "success",
      "end": 4.99,
      "endOffset": 70,
      "phones": [
        {
          "duration": 0.07,
          "phone": "b_B"
        },
        {
          "duration": 0.04,
          "phone": "ah_I"
        },
        {
          "duration": 0.06,
          "phone": "t_E"
        }
      ],
      "start": 4.82,
      "startOffset": 67,
      "word": "BUT"
    },
    {
      "alignedWord": "watched",
      "case": "success",
      "end": 5.41,
      "endOffset": 78,
      "phones": [
        {
          "duration": 0.08,
          "phone": "w_B"
        },
        {
          "duration": 0.08,
          "phone": "aa_I"
        },
        {
          "duration": 0.15,
          "phone": "ch_I"
        },
        {
          "duration": 0.07,
          "phone": "t_E"
        }
      ],
      "start": 5.03,
      "startOffset": 71,
      "word": "WATCHED"
    },
    {
      "alignedWord": "the",
      "case": "success",
      "end": 5.5600000000000005,
      "endOffset": 82,
      "phones": [
        {
          "duration": 0.05,
          "phone": "dh_B"
        },
        {
          "duration": 0.07,
          "phone": "ah_E"
        }
      ],
      "start": 5.44,
      "startOffset": 79,
      "word": "THE"
    },
    {
      "alignedWord": "rest",
      "case": "success",
      "end": 5.779999999999999,
      "endOffset": 87,
      "phones": [
        {
          "duration": 0.05,
          "phone": "r_B"
        },
        {
          "duration": 0.05,
          "phone": "eh_I"
        },
        {
          "duration": 0.07,
          "phone": "s_I"
        },
        {
          "duration": 0.05,
          "phone": "t_E"
        }
      ],
      "start": 5.56,
      "startOffset": 83,
      "word": "REST"
    },
    {
      "alignedWord": "of",
      "case": "success",
      "end": 5.88,
      "endOffset": 90,
      "phones": [
        {
          "duration": 0.03,
          "phone": "ah_B"
        },
        {
          "duration": 0.07,
          "phone": "v_E"
        }
      ],
      "start": 5.78,
      "startOffset": 88,
      "word": "OF"
    },
    {
      "alignedWord": "the",
      "case": "success",
      "end": 5.95,
      "endOffset": 94,
      "phones": [
        {
          "duration": 0.01,
          "phone": "dh_B"
        },
        {
          "duration": 0.06,
          "phone": "ah_E"
        }
      ],
      "start": 5.88,
      "startOffset": 91,
      "word": "THE"
    },
    {
      "alignedWord": "night",
      "case": "success",
      "end": 6.2700000000000005,
      "endOffset": 100,
      "phones": [
        {
          "duration": 0.08,
          "phone": "n_B"
        },
        {
          "duration": 0.16,
          "phone": "ay_I"
        },
        {
          "duration": 0.08,
          "phone": "t_E"
        }
      ],
      "start": 5.95,
      "startOffset": 95,
      "word": "NIGHT"
    },
    {
      "alignedWord": "and",
      "case": "success",
      "end": 6.3999999999999995,
      "endOffset": 104,
      "phones": [
        {
          "duration": 0.05,
          "phone": "ae_B"
        },
        {
          "duration": 0.04,
          "phone": "n_I"
        },
        {
          "duration": 0.04,
          "phone": "d_E"
        }
      ],
      "start": 6.27,
      "startOffset": 101,
      "word": "AND"
    },
    {
      "alignedWord": "aroused",
      "case": "success",
      "end": 6.9,
      "endOffset": 112,
      "phones": [
        {
          "duration": 0.13,
          "phone": "er_B"
        },
        {
          "duration": 0.22,
          "phone": "aw_I"
        },
        {
          "duration": 0.06,
          "phone": "z_I"
        },
        {
          "duration": 0.08,
          "phone": "d_E"
        }
      ],
      "start": 6.41,
      "startOffset": 105,
      "word": "AROUSED"
    },
    {
      "alignedWord": "my",
      "case": "success",
      "end": 7.07,
      "endOffset": 115,
      "phones": [
        {
          "duration": 0.06,
          "phone": "m_B"
        },
        {
          "duration": 0.11,
          "phone": "ay_E"
        }
      ],
      "start": 6.9,
      "startOffset": 113,
      "word": "MY"
    },
    {
      "alignedWord": "people",
      "case": "success",
      "end": 7.430000000000001,
      "endOffset": 122,
      "phones": [
        {
          "duration": 0.07,
          "phone": "p_B"
        },
        {
          "duration": 0.1,
          "phone": "iy_I"
        },
        {
          "duration": 0.07,
          "phone": "p_I"
        },
        {
          "duration": 0.05,
          "phone": "ah_I"
        },
        {
          "duration": 0.07,
          "phone": "l_E"
        }
      ],
      "start": 7.07,
      "startOffset": 116,
      "word": "PEOPLE"
    },
    {
      "alignedWord": "and",
      "case": "success",
      "end": 7.569999999999999,
      "endOffset": 126,
      "phones": [
        {
          "duration": 0.06,
          "phone": "ah_B"
        },
        {
          "duration": 0.01,
          "phone": "n_I"
        },
        {
          "duration": 0.07,
          "phone": "d_E"
        }
      ],
      "start": 7.43,
      "startOffset": 123,
      "word": "AND"
    },
    {
      "alignedWord": "sent",
      "case": "success",
      "end": 7.79,
      "endOffset": 131,
      "phones": [
        {
          "duration": 0.05,
          "phone": "s_B"
        },
        {
          "duration": 0.07,
          "phone": "eh_I"
        },
        {
          "duration": 0.04,
          "phone": "n_I"
        },
        {
          "duration": 0.06,
          "phone": "t_E"
        }
      ],
      "start": 7.57,
      "startOffset": 127,
      "word": "SENT"
    },
    {
      "alignedWord": "them",
      "case": "success",
      "end": 7.95,
      "endOffset": 136,
      "phones": [
        {
          "duration": 0.03,
          "phone": "dh_B"
        },
        {
          "duration": 0.06,
          "phone": "ah_I"
        },
        {
          "duration": 0.07,
          "phone": "m_E"
        }
      ],
      "start": 7.79,
      "startOffset": 132,
      "word": "THEM"
    },
    {
      "alignedWord": "on",
      "case": "success",
      "end": 8.08,
      "endOffset": 139,
      "phones": [
        {
          "duration": 0.06,
          "phone": "ao_B"
        },
        {
          "duration": 0.07,
          "phone": "n_E"
        }
      ],
      "start": 7.95,
      "startOffset": 137,
      "word": "ON"
    },
    {
      "alignedWord": "all",
      "case": "success",
      "end": 8.24,
      "endOffset": 143,
      "phones": [
        {
          "duration": 0.06,
          "phone": "ao_B"
        },
        {
          "duration": 0.1,
          "phone": "l_E"
        }
      ],
      "start": 8.08,
      "startOffset": 140,
      "word": "ALL"
    },
    {
      "alignedWord": "sides",
      "case": "success",
      "end": 8.700000000000001,
      "endOffset": 149,
      "phones": [
        {
          "duration": 0.16,
          "phone": "s_B"
        },
        {
          "duration": 0.19,
          "phone": "ay_I"
        },
        {
          "duration": 0.07,
          "phone": "d_I"
        },
        {
          "duration": 0.04,
          "phone": "z_E"
        }
      ],
      "start": 8.24,
      "startOffset": 144,
      "word": "SIDES"
    },
    {
      "alignedWord": "in",
      "case": "success",
      "end": 8.819999999999999,
      "endOffset": 152,
      "phones": [
        {
          "duration": 0.06,
          "phone": "ih_B"
        },
        {
          "duration": 0.06,
          "phone": "n_E"
        }
      ],
      "start": 8.7,
      "startOffset": 150,
      "word": "IN"
    },
    {
      "alignedWord": "quest",
      "case": "success",
      "end": 9.11,
      "endOffset": 158,
      "phones": [
        {
          "duration": 0.07,
          "phone": "k_B"
        },
        {
          "duration": 0.04,
          "phone": "w_I"
        },
        {
          "duration": 0.07,
          "phone": "eh_I"
        },
        {
          "duration": 0.05,
          "phone": "s_I"
        },
        {
          "duration": 0.06,
          "phone": "t_E"
        }
      ],
      "start": 8.82,
      "startOffset": 153,
      "word": "QUEST"
    },
    {
      "alignedWord": "of",
      "case": "success",
      "end": 9.24,
      "endOffset": 161,
      "phones": [
        {
          "duration": 0.06,
          "phone": "ah_B"
        },
        {
          "duration": 0.07,
          "phone": "v_E"
        }
      ],
      "start": 9.11,
      "startOffset": 159,
      "word": "OF"
    },
    {
      "alignedWord": "thee",
      "case": "success",
      "end": 9.48,
      "endOffset": 166,
      "phones": [
        {
          "duration": 0.04,
          "phone": "dh_B"
        },
        {
          "duration": 0.2,
          "phone": "iy_E"
        }
      ],
      "start": 9.24,
      "startOffset": 162,
      "word": "THEE"
    },
    {
      "alignedWord": "then",
      "case": "success",
      "end": 11.02,
      "endOffset": 171,
      "phones": [
        {
          "duration": 0.08,
          "phone": "dh_B"
        },
        {
          "duration": 0.06,
          "phone": "eh_I"
        },
        {
          "duration": 0.06,
          "phone": "n_E"
        }
      ],
      "start": 10.82,
      "startOffset": 167,
      "word": "THEN"
    },
    {
      "alignedWord": "he",
      "case": "success",
      "end": 11.139999999999999,
      "endOffset": 174,
      "phones": [
        {
          "duration": 0.06,
          "phone": "hh_B"
        },
        {
          "duration": 0.06,
          "phone": "iy_E"
        }
      ],
      "start": 11.02,
      "startOffset": 172,
      "word": "HE"
    },
    {
      "alignedWord": "gave",
      "case": "success",
      "end": 11.369999,
      "endOffset": 179,
      "phones": [
        {
          "duration": 0.08,
          "phone": "g_B"
        },
        {
          "duration": 0.08,
          "phone": "ey_I"
        },
        {
          "duration": 0.07,
          "phone": "v_E"
        }
      ],
      "start": 11.139999,
      "startOffset": 175,
      "word": "GAVE"
    },
    {
      "alignedWord": "me",
      "case": "success",
      "end": 11.54,
      "endOffset": 182,
      "phones": [
        {
          "duration": 0.08,
          "phone": "m_B"
        },
        {
          "duration": 0.09,
          "phone": "iy_E"
        }
      ],
      "start": 11.37,
      "startOffset": 180,
      "word": "ME"
    },
    {
      "alignedWord": "one",
      "case": "success",
      "end": 11.799999999999999,
      "endOffset": 186,
      "phones": [
        {
          "duration": 0.08,
          "phone": "w_B"
        },
        {
          "duration": 0.1,
          "phone": "ah_I"
        },
        {
          "duration": 0.08,
          "phone": "n_E"
        }
      ],
      "start": 11.54,
      "startOffset": 183,
      "word": "ONE"
    },
    {
      "alignedWord": "myriad",
      "case": "success",
      "end": 11.860000000000001,
      "endOffset": 193,
      "phones": [
        {
          "duration": 0.01,
          "phone": "m_B"
        },
        {
          "duration": 0.01,
          "phone": "ih_I"
        },
        {
          "duration": 0.01,
          "phone": "r_I"
        },
        {
          "duration": 0.01,
          "phone": "iy_I"
        },
        {
          "duration": 0.01,
          "phone": "ah_I"
        },
        {
          "duration": 0.01,
          "phone": "d_E"
        }
      ],
      "start": 11.8,
      "startOffset": 187,
      "word": "MYRIAD"
    },
    {
      "alignedWord": "of",
      "case": "success",
      "end": 11.879999999999999,
      "endOffset": 196,
      "phones": [
        {
          "duration": 0.01,
          "phone": "ah_B"
        },
        {
          "duration": 0.01,
          "phone": "v_E"
        }
      ],
      "start": 11.86,
      "startOffset": 194,
      "word": "OF"
    },
    {
      "alignedWord": "<unk>",
      "case": "success",
      "end": 12.97,
      "endOffset": 204,
      "phones": [
        {
          "duration": 1.09,
          "phone": "oov_S"
        }
      ],
      "start": 11.88,
      "startOffset": 197,
      "word": "DIRHAMS"
    },
    {
      "alignedWord": "saying",
      "case": "success",
      "end": 13.519999,
      "endOffset": 211,
      "phones": [
        {
          "duration": 0.2,
          "phone": "s_B"
        },
        {
          "duration": 0.16,
          "phone": "ey_I"
        },
        {
          "duration": 0.03,
          "phone": "ih_I"
        },
        {
          "duration": 0.16,
          "phone": "ng_E"
        }
      ],
      "start": 12.969999,
      "startOffset": 205,
      "word": "SAYING"
    },
    {
      "alignedWord": "this",
      "case": "success",
      "end": 14.309999999999999,
      "endOffset": 216,
      "phones": [
        {
          "duration": 0.07,
          "phone": "dh_B"
        },
        {
          "duration": 0.08,
          "phone": "ih_I"
        },
        {
          "duration": 0.05,
          "phone": "s_E"
        }
      ],
      "start": 14.11,
      "startOffset": 212,
      "word": "THIS"
    },
    {
      "alignedWord": "is",
      "case": "success",
      "end": 14.449999,
      "endOffset": 219,
      "phones": [
        {
          "duration": 0.06,
          "phone": "ih_B"
        },
        {
          "duration": 0.08,
          "phone": "z_E"
        }
      ],
      "start": 14.309999,
      "startOffset": 217,
      "word": "IS"
    },
    {
      "alignedWord": "for",
      "case": "success",
      "end": 14.619999,
      "endOffset": 223,
      "phones": [
        {
          "duration": 0.05,
          "phone": "f_B"
        },
        {
          "duration": 0.03,
          "phone": "ao_I"
        },
        {
          "duration": 0.07,
          "phone": "r_E"
        }
      ],
      "start": 14.469999,
      "startOffset": 220,
      "word": "FOR"
    },
    {
      "alignedWord": "the",
      "case": "success",
      "end": 14.739999999999998,
      "endOffset": 227,
      "phones": [
        {
          "duration": 0.05,
          "phone": "dh_B"
        },
        {
          "duration": 0.07,
          "phone": "ah_E"
        }
      ],
      "start": 14.62,
      "startOffset": 224,
      "word": "THE"
    },
    {
      "alignedWord": "<unk>",
      "case": "success",
      "end": 14.97,
      "endOffset": 237,
      "phones": [
        {
          "duration": 0.23,
          "phone": "oov_S"
        }
      ],
      "start": 14.74,
      "startOffset": 228,
      "word": "KHORASANI"
    }
  ]
}