{
  "transcript": "BUT I SAW NOT MY MISTRESS AMONG THEM AND HE SAID O MY LORD THERE IS NONE LEFT SAVE MY MOTHER AND SISTER BUT BY ALLAH I MUST NEEDS HAVE THEM ALSO DOWN AND SHOW THEM TO THEE SO I MARVELLED AT HIS COURTESY AND LARGE HEARTEDNESS AND SAID",
  "words": [
    {
      "alignedWord": "but",
      "case": "success",
      "end": 0.5,
      "endOffset": 3,
      "phones": [
        {
          "duration": 0.07,
          "phone": "b_B"
        },
        {
          "duration": 0.07,
          "phone": "ah_I"
        },
        {
          "duration": 0.05,
          "phone": "t_E"
        }
      ],
      "start": 0.31,
      "startOffset": 0,
      "word": "BUT"
    },
    {
      "alignedWord": "i",
      "case": "success",
      "end": 0.62,
      "endOffset": 5,
      "phones": [
        {
          "duration": 0.12,
          "phone": "ay_S"
        }
      ],
      "start": 0.5,
      "startOffset": 4,
      "word": "I"
    },
    {
      "alignedWord": "saw",
      "case": "success",
      "end": 0.8200000000000001,
      "endOffset": 9,
      "phones": [
        {
          "duration": 0.1,
          "phone": "s_B"
        },
        {
          "duration": 0.09,
          "phone": "ao_E"
        }
      ],
      "start": 0.63,
      "startOffset": 6,
      "word": "SAW"
    },
    {
      "alignedWord": "not",
      "case": "success",
      "end": 1.06,
      "endOffset": 13,
      "phones": [
        {
          "duration": 0.09,
          "phone": "n_B"
        },
        {
          "duration": 0.07,
          "phone": "aa_I"
        },
        {
          "duration": 0.08,
          "phone": "t_E"
        }
      ],
      "start": 0.82,
      "startOffset": 10,
      "word": "NOT"
    },
    {
      "alignedWord": "my",
      "case": "success",
      "end": 1.2400000000000002,
      "endOffset": 16,
      "phones": [
        {
          "duration": 0.06,
          "phone": "m_B"
        },
        {
          "duration": 0.08,
          "phone": "ay_E"
        }
      ],
      "start": 1.1,
      "startOffset": 14,
      "word": "MY"
    },
    {
      "alignedWord": "mistress",
      "case": "success",
      "end": 1.62,
      "endOffset": 25,
      "phones": [
        {
          "duration": 0.05,
          "phone": "m_B"
        },
        {
          "duration": 0.06,
          "phone": "ih_I"
        },
        {
          "duration": 0.05,
          "phone": "s_I"
        },
        {
          "duration": 0.06,
          "phone": "t_I"
        },
        {
          "duration": 0.05,
          "phone": "r_I"
        },
        {
          "duration": 0.05,
          "phone": "ah_I"
        },
        {
          "duration": 0.06,
          "phone": "s_E"
        }
      ],
      "start": 1.24,
      "startOffset": 17,
      "word": "MISTRESS"
    },
    {
      "alignedWord": "among",
      "case": "success",
      "end": 1.9100000000000001,
      "endOffset": 31,
      "phones": [
        {
          "duration": 0.06,
          "phone": "ah_B"
        },
        {
          "duration": 0.08,
          "phone": "m_I"
        },
        {
          "duration": 0.07,
          "phone": "ah_I"
        },
        {
          "duration": 0.08,
          "phone": "ng_E"
        }
      ],
      "start": 1.62,
      "startOffset": 26,
      "word": "AMONG"
    },
    {
      "alignedWord": "them",
      "case": "success",
      "end": 2.2399999999999998,
      "endOffset": 36,
      "phones": [
        {
          "duration": 0.07,
          "phone": "dh_B"
        },
        {
          "duration": 0.08,
          "phone": "ah_I"
        },
        {
          "duration": 0.18,
          "phone": "m_E"
        }
      ],
      "start": 1.91,
      "startOffset": 32,
      "word": "THEM"
    },
    {
      "alignedWord": "and",
      "case": "success",
      "end": 2.74,
      "endOffset": 40,
      "phones": [
        {
          "duration": 0.09,
          "phone": "ae_B"
        },
        {
          "duration": 0.05,
          "phone": "n_I"
        },
        {
          "duration": 0.04,
          "phone": "d_E"
        }
      ],
      "start": 2.56,
      "startOffset": 37,
      "word": "AND"
    },
    {
      "alignedWord": "he",
      "case": "success",
      "end": 2.8600000000000003,
      "endOffset": 43,
      "phones": [
        {
          "duration": 0.05,
          "phone": "hh_B"
        },
        {
          "duration": 0.07,
          "phone": "iy_E"
        }
      ],
      "start": 2.74,
      "startOffset": 41,
      "word": "HE"
    },
    {
      "alignedWord": "said",
      "case": "success",
      "end": 3.2600000000000002,
      "endOffset": 48,
      "phones": [
        {
          "duration": 0.1,
          "phone": "s_B"
        },
        {
          "duration": 0.11,
          "phone": "eh_I"
        },
        {
          "duration": 0.18,
          "phone": "d_E"
        }
      ],
      "start": 2.87,
      "startOffset": 44,
      "word": "SAID"
    },
    {
      "alignedWord": "o",
      "case": "success",
      "end": 3.67,
      "endOffset": 50,
      "phones": [
        {
          "duration": 0.14,
          "phone": "ow_S"
        }
      ],
      "start": 3.53,
      "startOffset": 49,
      "word": "O"
    },
    {
      "alignedWord": "my",
      "case": "success",
      "end": 3.86,
      "endOffset": 53,
      "phones": [
        {
          "duration": 0.09,
          "phone": "m_B"
        },
        {
          "duration": 0.1,
          "phone": "ay_E"
        }
      ],
      "start": 3.67,
      "startOffset": 51,
      "word": "MY"
    },
    {
      "alignedWord": "lord",
      "case": "success",
      "end": 4.25,
      "endOffset": 58,
      "phones": [
        {
          "duration": 0.06,
          "phone": "l_B"
        },
        {
          "duration": 0.09,
          "phone": "ao_I"
        },
        {
          "duration": 0.06,
          "phone": "r_I"
        },
        {
          "duration": 0.18,
          "phone": "d_E"
        }
      ],
      "start": 3.86,
      "startOffset": 54,
      "word": "LORD"
    },
    {
      "alignedWord": "there",
      "case": "success",
      "end": 4.49,
      "endOffset": 64,
      "phones": [
        {
          "duration": 0.08,
          "phone": "dh_B"
        },
        {
          "duration": 0.05,
          "phone": "eh_I"
        },
        {
          "duration": 0.06,
          "phone": "r_E"
        }
      ],
      "start": 4.3,
      "startOffset": 59,
      "word": "THERE"
    },
    {
      "alignedWord": "is",
      "case": "success",
      "end": 4.62,
      "endOffset": 67,
      "phones": [
        {
          "duration": 0.06,
          "phone": "ih_B"
        },
        {
          "duration": 0.07,
          "phone": "z_E"
        }
      ],
      "start": 4.49,
      "startOffset": 65,
      "word": "IS"
    },
    {
      "alignedWord": "none",
      "case": "success",
      "end": 4.82,
      "endOffset": 72,
      "phones": [
        {
          "duration": 0.06,
          "phone": "n_B"
        },
        {
          "duration": 0.07,
          "phone": "ah_I"
        },
        {
          "duration": 0.07,
          "phone": "n_E"
        }
      ],
      "start": 4.62,
      "startOffset": 68,
      "word": "NONE"
    },
    {
      "alignedWord": "left",
      "case": "success",
      "end": 5.11,
      "endOffset": 77,
      "phones": [
        {
          "duration": 0.04,
          "phone": "l_B"
        },
        {
          "duration": 0.08,
          "phone": "eh_I"
        },
        {
          "duration": 0.1,
          "phone": "f_I"
        },
        {
          "duration": 0.07,
          "phone": "t_E"
        }
      ],
      "start": 4.82,
      "startOffset": 73,
      "word": "LEFT"
    },
    {
      "alignedWord": "save",
      "case": "success",
      "end": 5.42,
      "endOffset": 82,
      "phones": [
        {
          "duration": 0.14,
          "phone": "s_B"
        },
        {
          "duration": 0.07,
          "phone": "ey_I"
        },
        {
          "duration": 0.1,
          "phone": "v_E"
        }
      ],
      "start": 5.11,
      "startOffset": 78,
      "word": "SAVE"
    },
    {
      "alignedWord": "my",
      "case": "success",
      "end": 5.55,
      "endOffset": 85,
      "phones": [
        {
          "duration": 0.05,
          "phone": "m_B"
        },
        {
          "duration": 0.08,
          "phone": "ay_E"
        }
      ],
      "start": 5.42,
      "startOffset": 83,
      "word": "MY"
    },
    {
      "alignedWord": "mother",
      "case": "success",
      "end": 5.87,
      "endOffset": 92,
      "phones": [
        {
          "duration": 0.07,
          "phone": "m_B"
        },
        {
          "duration": 0.08,
          "phone": "ah_I"
        },
        {
          "duration": 0.07,
          "phone": "dh_I"
        },
        {
          "duration": 0.1,
          "phone": "er_E"
        }
      ],
      "start": 5.55,
      "startOffset": 86,
      "word": "MOTHER"
    },
    {
      "alignedWord": "and",
      "case": "success",
      "end": 6.05,
      "endOffset": 96,
      "phones": [
        {
          "duration": 0.07,
          "phone": "ae_B"
        },
        {
          "duration": 0.05,
          "phone": "n_I"
        },
        {
          "duration": 0.06,
          "phone": "d_E"
        }
      ],
      "start": 5.87,
      "startOffset": 93,
      "word": "AND"
    },
    {
      "alignedWord": "sister",
      "case": "success",
      "end": 6.52,
      "endOffset": 103,
      "phones": [
        {
          "duration": 0.06,
          "phone": "s_B"
        },
        {
          "duration": 0.07,
          "phone": "ih_I"
        },
        {
          "duration": 0.06,
          "phone": "s_I"
        },
        {
          "duration": 0.09,
          "phone": "t_I"
        },
        {
          "duration": 0.19,
          "phone": "er_E"
        }
      ],
      "start": 6.05,
      "startOffset": 97,
      "word": "SISTER"
    },
    {
      "alignedWord": "but",
      "case": "success",
      "end": 6.95,
      "endOffset": 107,
      "phones": [
        {
          "duration": 0.08,
          "phone": "b_B"
        },
        {
          "duration": 0.08,
          "phone": "ah_I"
        },
        {
          "duration": 0.13,
          "phone": "t_E"
        }
      ],
      "start": 6.66,
      "startOffset": 104,
      "word": "BUT"
    },
    {
      "alignedWord": "by",
      "case": "success",
      "end": 7.41,
      "endOffset": 110,
      "phones": [
        {
          "duration": 0.11,
          "phone": "b_B"
        },
        {
          "duration": 0.12,
          "phone": "ay_E"
        }
      ],
      "start": 7.18,
      "startOffset": 108,
      "word": "BY"
    },
    {
      "alignedWord": "allah",
      "case": "success",
      "end": 7.7700000000000005,
      "endOffset": 116,
      "phones": [
        {
          "duration": 0.09,
          "phone": "aa_B"
        },
        {
          "duration": 0.09,
          "phone": "l_I"
        },
        {
          "duration": 0.18,
          "phone": "ah_E"
        }
      ],
      "start": 7.41,
      "startOffset": 111,
      "word": "ALLAH"
    },
    {
      "alignedWord": "i",
      "case": "success",
      "end": 8.18,
      "endOffset": 118,
      "phones": [
        {
          "duration": 0.19,
          "phone": "ay_S"
        }
      ],
      "start": 7.99,
      "startOffset": 117,
      "word": "I"
    },
    {
      "alignedWord": "must",
      "case": "success",
      "end": 8.529999,
      "endOffset": 123,
      "phones": [
        {
          "duration": 0.1,
          "phone": "m_B"
        },
        {
          "duration": 0.09,
          "phone": "ah_I"
        },
        {
          "duration": 0.07,
          "phone": "s_I"
        },
        {
          "duration": 0.09,
          "phone": "t_E"
        }
      ],
      "start": 8.179999,
      "startOffset": 119,
      "word": "MUST"
    },
    {
      "alignedWord": "needs",
      "case": "success",
      "end": 8.959999999999999,
      "endOffset": 129,
      "phones": [
        {
          "duration": 0.14,
          "phone": "n_B"
        },
        {
          "duration": 0.16,
          "phone": "iy_I"
        },
        {
          "duration": 0.07,
          "phone": "d_I"
        },
        {
          "duration": 0.05,
          "phone": "z_E"
        }
      ],
      "start": 8.54,
      "startOffset": 124,
      "word": "NEEDS"
    },
    {
      "alignedWord": "have",
      "case": "success",
      "end": 9.22,
      "endOffset": 134,
      "phones": [
        {
          "duration": 0.09,
          "phone": "hh_B"
        },
        {
          "duration": 0.08,
          "phone": "ae_I"
        },
        {
          "duration": 0.08,
          "phone": "v_E"
        }
      ],
      "start": 8.97,
      "startOffset": 130,
      "word": "HAVE"
    },
    {
      "alignedWord": "them",
      "case": "success",
      "end": 9.370000000000001,
      "endOffset": 139,
      "phones": [
        {
          "duration": 0.01,
          "phone": "dh_B"
        },
        {
          "duration": 0.06,
          "phone": "ah_I"
        },
        {
          "duration": 0.08,
          "phone": "m_E"
        }
      ],
      "start": 9.22,
      "startOffset": 135,
      "word": "THEM"
    },
    {
      "alignedWord": "also",
      "case": "success",
      "end": 9.67,
      "endOffset": 144,
      "phones": [
        {
          "duration": 0.04,
          "phone": "ao_B"
        },
        {
          "duration": 0.09,
          "phone": "l_I"
        },
        {
          "duration": 0.08,
          "phone": "s_I"
        },
        {
          "duration": 0.09,
          "phone": "ow_E"
        }
      ],
      "start": 9.37,
      "startOffset": 140,
      "word": "ALSO"
    },
    {
      "alignedWord": "down",
      "case": "success",
      "end": 9.99,
      "endOffset": 149,
      "phones": [
        {
          "duration": 0.09,
          "phone": "d_B"
        },
        {
          "duration": 0.16,
          "phone": "aw_I"
        },
        {
          "duration": 0.07,
          "phone": "n_E"
        }
      ],
      "start": 9.67,
      "startOffset": 145,
      "word": "DOWN"
    },
    {
      "alignedWord": "and",
      "case": "success",
      "end": 10.18,
      "endOffset": 153,
      "phones": [
        {
          "duration": 0.08,
          "phone": "ae_B"
        },
        {
          "duration": 0.04,
          "phone": "n_I"
        },
        {
          "duration": 0.07,
          "phone": "d_E"
        }
      ],
      "start": 9.99,
      "startOffset": 150,
      "word": "AND"
    },
    {
      "alignedWord": "show",
      "case": "success",
      "end": 10.359999,
      "endOffset": 158,
      "phones": [
        {
          "duration": 0.09,
          "phone": "sh_B"
        },
        {
          "duration": 0.09,
          "phone": "ow_E"
        }
      ],
      "start": 10.179999,
      "startOffset": 154,
      "word": "SHOW"
    },
    {
      "alignedWord": "them",
      "case": "success",
      "end": 10.549999999999999,
      "endOffset": 163,
      "phones": [
        {
          "duration": 0.05,
          "phone": "dh_B"
        },
        {
          "duration": 0.07,
          "phone": "ah_I"
        },
        {
          "duration": 0.07,
          "phone": "m_E"
        }
      ],
      "start": 10.36,
      "startOffset": 159,
      "word": "THEM"
    },
    {
      "alignedWord": "to",
      "case": "success",
      "end": 10.690000000000001,
      "endOffset": 166,
      "phones": [
        {
          "duration": 0.08,
          "phone": "t_B"
        },
        {
          "duration": 0.06,
          "phone": "uw_E"
        }
      ],
      "start": 10.55,
      "startOffset": 164,
      "word": "TO"
    },
    {
      "alignedWord": "thee",
      "case": "success",
      "end": 10.99,
      "endOffset": 171,
      "phones": [
        {
          "duration": 0.07,
          "phone": "dh_B"
        },
        {
          "duration": 0.23,
          "phone": "iy_E"
        }
      ],
      "start": 10.69,
      "startOffset": 167,
      "word": "THEE"
    },
    {
      "alignedWord": "so",
      "case": "success",
      "end": 12.41,
      "endOffset": 174,
      "phones": [
        {
          "duration": 0.15,
          "phone": "s_B"
        },
        {
          "duration": 0.1,
          "phone": "ow_E"
        }
      ],
      "start": 12.16,
      "startOffset": 172,
      "word": "SO"
    },
    {
      "alignedWord": "i",
      "case": "success",
      "end": 12.55,
      "endOffset": 176,
      "phones": [
        {
          "duration": 0.14,
          "phone": "ay_S"
        }
      ],
      "start": 12.41,
      "startOffset": 175,
      "word": "I"
    },
    {
      "alignedWord": "<unk>",
      "case": "success",
      "end": 13.010000000000002,
      "endOffset": 186,
      "phones": [
        {
          "duration": 0.46,
          "phone": "oov_S"
        }
      ],
      "start": 12.55,
      "startOffset": 177,
      "word": "MARVELLED"
    },
    {
      "alignedWord": "at",
      "case": "success",
      "end": 13.089999,
      "endOffset": 189,
      "phones": [
        {
          "duration": 0.03,
          "phone": "ae_B"
        },
        {
          "duration": 0.05,
          "phone": "t_E"
        }
      ],
      "start": 13.009999,
      "startOffset": 187,
      "word": "AT"
    },
    {
      "alignedWord": "his",
      "case": "success",
      "end": 13.28,
      "endOffset": 193,
      "phones": [
        {
          "duration": 0.04,
          "phone": "hh_B"
        },
        {
          "duration": 0.05,
          "phone": "ih_I"
        },
        {
          "duration": 0.1,
          "phone": "z_E"
        }
      ],
      "start": 13.09,
      "startOffset": 190,
      "word": "HIS"
    },
    {
      "alignedWord": "courtesy",
      "case": "success",
      "end": 13.899999999999999,
      "endOffset": 202,
      "phones": [
        {
          "duration": 0.1,
          "phone": "k_B"
        },
        {
          "duration": 0.05,
          "phone": "er_I"
        },
        {
          "duration": 0.06,
          "phone": "t_I"
        },
        {
          "duration": 0.05,
          "phone": "ah_I"
        },
        {
          "duration": 0.11,
          "phone": "s_I"
        },
        {
          "duration": 0.25,
          "phone": "iy_E"
        }
      ],
      "start": 13.28,
      "startOffset": 194,
      "word": "COURTESY"
    },
    {
      "alignedWord": "and",
      "case": "success",
      "end": 14.139999000000001,
      "endOffset": 206,
      "phones": [
        {
          "duration": 0.11,
          "phone": "ae_B"
        },
        {
          "duration": 0.07,
          "phone": "n_I"
        },
        {
          "duration": 0.03,
          "phone": "d_E"
        }
      ],
      "start": 13.929999,
      "startOffset": 203,
      "word": "AND"
    },
    {
      "alignedWord": "large",
      "case": "success",
      "end": 14.49,
      "endOffset": 212,
      "phones": [
        {
          "duration": 0.11,
          "phone": "l_B"
        },
        {
          "duration": 0.09,
          "phone": "aa_I"
        },
        {
          "duration": 0.07,
          "phone": "r_I"
        },
        {
          "duration": 0.07,
          "phone": "jh_E"
        }
      ],
      "start": 14.15,
      "startOffset": 207,
      "word": "LARGE"
    },
    {
      "alignedWord": "<unk>",
      "case": "success",
      "end": 15.040000000000001,
      "endOffset": 224,
      "phones": [
        {
          "duration": 0.55,
          "phone": "oov_S"
        }
      ],
      "start": 14.49,
      "startOffset": 213,
      "word": "HEARTEDNESS"
    },
    {
      "alignedWord": "and",
      "case": "success",
      "end": 15.249998999999999,
      "endOffset": 228,
      "phones": [
        {
          "duration": 0.07,
          "phone": "ae_B"
        },
        {
          "duration": 0.05,
          "phone": "n_I"
        },
        {
          "duration": 0.07,
          "phone": "d_E"
        }
      ],
      "start": 15.059999,
      "startOffset": 225,
      "word": "AND"
    },
    {
      "alignedWord": "said",
      "case": "success",
      "end": 15.63,
      "endOffset": 233,
      "phones": [
        {
          "duration": 0.09,
          "phone": "s_B"
        },
        {
          "duration": 0.1,
          "phone": "eh_I"
        },
        {
          "duration": 0.19,
          "phone": "d_E"
        }
      ],
      "start": 15.25,
      "startOffset": 229,
      "word": "SAID"
    }
  ]
}