{
  "transcript": "CARSON HAD ENTERED THE VALLEY ALONG THE SOUTHERN SIDE OF THE BAY BUT THE COUNTRY THEN WAS SO ENTIRELY COVERED WITH WATER FROM SNOW AND RAIN THAT HE HAD BEEN ABLE TO FORM NO CORRECT IMPRESSION OF WATERCOURSES",
  "words": [
    {
      "alignedWord": "carson",
      "case": "success",
      "end": 1.01,
      "endOffset": 6,
      "phones": [
        {
          "duration": 0.1,
          "phone": "k_B"
        },
        {
          "duration": 0.08,
          "phone": "aa_I"
        },
        {
          "duration": 0.09,
          "phone": "r_I"
        },
        {
          "duration": 0.08,
          "phone": "s_I"
        },
        {
          "duration": 0.05,
          "phone": "ah_I"
        },
        {
          "duration": 0.07,
          "phone": "n_E"
        }
      ],
      "start": 0.54,
      "startOffset": 0,
      "word": "CARSON"
    },
    {
      "alignedWord": "had",
      "case": "success",
      "end": 1.19,
      "endOffset": 10,
      "phones": [
        {
          "duration": 0.06,
          "phone": "hh_B"
        },
        {
          "duration": 0.06,
          "phone": "ae_I"
        },
        {
          "duration": 0.06,
          "phone": "d_E"
        }
      ],
      "start": 1.01,
      "startOffset": 7,
      "word": "HAD"
    },
    {
      "alignedWord": "entered",
      "case": "success",
      "end": 1.51,
      "endOffset": 18,
      "phones": [
        {
          "duration": 0.1,
          "phone": "eh_B"
        },
        {
          "duration": 0.07,
          "phone": "n_I"
        },
        {
          "duration": 0.05,
          "phone": "er_I"
        },
        {
          "duration": 0.09,
          "phone": "d_E"
        }
      ],
      "start": 1.2,
      "startOffset": 11,
      "word": "ENTERED"
    },
    {
      "alignedWord": "the",
      "case": "success",
      "end": 1.57,
      "endOffset": 22,
      "phones": [
        {
          "duration": 0.01,
          "phone": "dh_B"
        },
        {
          "duration": 0.05,
          "phone": "ah_E"
        }
      ],
      "start": 1.51,
      "startOffset": 19,
      "word": "THE"
    },
    {
      "alignedWord": "valley",
      "case": "success",
      "end": 1.99,
      "endOffset": 29,
      "phones": [
        {
          "duration": 0.08,
          "phone": "v_B"
        },
        {
          "duration": 0.17,
          "phone": "ae_I"
        },
        {
          "duration": 0.11,
          "phone": "l_I"
        },
        {
          "duration": 0.06,
          "phone": "iy_E"
        }
      ],
      "start": 1.57,
      "startOffset": 23,
      "word": "VALLEY"
    },
    {
      "alignedWord": "along",
      "case": "success",
      "end": 2.31,
      "endOffset": 35,
      "phones": [
        {
          "duration": 0.07,
          "phone": "ah_B"
        },
        {
          "duration": 0.08,
          "phone": "l_I"
        },
        {
          "duration": 0.1,
          "phone": "ao_I"
        },
        {
          "duration": 0.07,
          "phone": "ng_E"
        }
      ],
      "start": 1.99,
      "startOffset": 30,
      "word": "ALONG"
    },
    {
      "alignedWord": "the",
      "case": "success",
      "end": 2.45,
      "endOffset": 39,
      "phones": [
        {
          "duration": 0.05,
          "phone": "dh_B"
        },
        {
          "duration": 0.09,
          "phone": "ah_E"
        }
      ],
      "start": 2.31,
      "startOffset": 36,
      "word": "THE"
    },
    {
      "alignedWord": "southern",
      "case": "success",
      "end": 2.91,
      "endOffset": 48,
      "phones": [
        {
          "duration": 0.12,
          "phone": "s_B"
        },
        {
          "duration": 0.12,
          "phone": "ah_I"
        },
        {
          "duration": 0.06,
          "phone": "dh_I"
        },
        {
          "duration": 0.08,
          "phone": "er_I"
        },
        {
          "duration": 0.08,
          "phone": "n_E"
        }
      ],
      "start": 2.45,
      "startOffset": 40,
      "word": "SOUTHERN"
    },
    {
      "alignedWord": "side",
      "case": "success",
      "end": 3.25,
      "endOffset": 53,
      "phones": [
        {
          "duration": 0.13,
          "phone": "s_B"
        },
        {
          "duration": 0.15,
          "phone": "ay_I"
        },
        {
          "duration": 0.06,
          "phone": "d_E"
        }
      ],
      "start": 2.91,
      "startOffset": 49,
      "word": "SIDE"
    },
    {
      "alignedWord": "of",
      "case": "success",
      "end": 3.4,
      "endOffset": 56,
      "phones": [
        {
          "duration": 0.07,
          "phone": "ah_B"
        },
        {
          "duration": 0.08,
          "phone": "v_E"
        }
      ],
      "start": 3.25,
      "startOffset": 54,
      "word": "OF"
    },
    {
      "alignedWord": "the",
      "case": "success",
      "end": 3.53,
      "endOffset": 60,
      "phones": [
        {
          "duration": 0.06,
          "phone": "dh_B"
        },
        {
          "duration": 0.05,
          "phone": "ah_E"
        }
      ],
      "start": 3.42,
      "startOffset": 57,
      "word": "THE"
    },
    {
      "alignedWord": "bay",
      "case": "success",
      "end": 3.9699999999999998,
      "endOffset": 64,
      "phones": [
        {
          "duration": 0.08,
          "phone": "b_B"
        },
        {
          "duration": 0.36,
          "phone": "ey_E"
        }
      ],
      "start": 3.53,
      "startOffset": 61,
      "word": "BAY"
    },
    {
      "alignedWord": "but",
      "case": "success",
      "end": 4.3500000000000005,
      "endOffset": 68,
      "phones": [
        {
          "duration": 0.1,
          "phone": "b_B"
        },
        {
          "duration": 0.05,
          "phone": "ah_I"
        },
        {
          "duration": 0.05,
          "phone": "t_E"
        }
      ],
      "start": 4.15,
      "startOffset": 65,
      "word": "BUT"
    },
    {
      "alignedWord": "the",
      "case": "success",
      "end": 4.470000000000001,
      "endOffset": 72,
      "phones": [
        {
          "duration": 0.05,
          "phone": "dh_B"
        },
        {
          "duration": 0.06,
          "phone": "ah_E"
        }
      ],
      "start": 4.36,
      "startOffset": 69,
      "word": "THE"
    },
    {
      "alignedWord": "country",
      "case": "success",
      "end": 4.93,
      "endOffset": 80,
      "phones": [
        {
          "duration": 0.09,
          "phone": "k_B"
        },
        {
          "duration": 0.12,
          "phone": "ah_I"
        },
        {
          "duration": 0.03,
          "phone": "n_I"
        },
        {
          "duration": 0.07,
          "phone": "t_I"
        },
        {
          "duration": 0.07,
          "phone": "r_I"
        },
        {
          "duration": 0.08,
          "phone": "iy_E"
        }
      ],
      "start": 4.47,
      "startOffset": 73,
      "word": "COUNTRY"
    },
    {
      "alignedWord": "then",
      "case": "success",
      "end": 5.22,
      "endOffset": 85,
      "phones": [
        {
          "duration": 0.08,
          "phone": "dh_B"
        },
        {
          "duration": 0.12,
          "phone": "eh_I"
        },
        {
          "duration": 0.09,
          "phone": "n_E"
        }
      ],
      "start": 4.93,
      "startOffset": 81,
      "word": "THEN"
    },
    {
      "alignedWord": "was",
      "case": "success",
      "end": 5.38,
      "endOffset": 89,
      "phones": [
        {
          "duration": 0.04,
          "phone": "w_B"
        },
        {
          "duration": 0.05,
          "phone": "ah_I"
        },
        {
          "duration": 0.07,
          "phone": "z_E"
        }
      ],
      "start": 5.22,
      "startOffset": 86,
      "word": "WAS"
    },
    {
      "alignedWord": "so",
      "case": "success",
      "end": 5.68,
      "endOffset": 92,
      "phones": [
        {
          "duration": 0.1,
          "phone": "s_B"
        },
        {
          "duration": 0.2,
          "phone": "ow_E"
        }
      ],
      "start": 5.38,
      "startOffset": 90,
      "word": "SO"
    },
    {
      "alignedWord": "entirely",
      "case": "success",
      "end": 6.43,
      "endOffset": 101,
      "phones": [
        {
          "duration": 0.09,
          "phone": "ih_B"
        },
        {
          "duration": 0.06,
          "phone": "n_I"
        },
        {
          "duration": 0.12,
          "phone": "t_I"
        },
        {
          "duration": 0.19,
          "phone": "ay_I"
        },
        {
          "duration": 0.09,
          "phone": "er_I"
        },
        {
          "duration": 0.07,
          "phone": "l_I"
        },
        {
          "duration": 0.09,
          "phone": "iy_E"
        }
      ],
      "start": 5.72,
      "startOffset": 93,
      "word": "ENTIRELY"
    },
    {
      "alignedWord": "covered",
      "case": "success",
      "end": 6.84,
      "endOffset": 109,
      "phones": [
        {
          "duration": 0.08,
          "phone": "k_B"
        },
        {
          "duration": 0.15,
          "phone": "ah_I"
        },
        {
          "duration": 0.04,
          "phone": "v_I"
        },
        {
          "duration": 0.07,
          "phone": "er_I"
        },
        {
          "duration": 0.07,
          "phone": "d_E"
        }
      ],
      "start": 6.43,
      "startOffset": 102,
      "word": "COVERED"
    },
    {
      "alignedWord": "with",
      "case": "success",
      "end": 7.0,
      "endOffset": 114,
      "phones": [
        {
          "duration": 0.02,
          "phone": "w_B"
        },
        {
          "duration": 0.04,
          "phone": "ih_I"
        },
        {
          "duration": 0.1,
          "phone": "th_E"
        }
      ],
      "start": 6.84,
      "startOffset": 110,
      "word": "WITH"
    },
    {
      "alignedWord": "water",
      "case": "success",
      "end": 7.46,
      "endOffset": 120,
      "phones": [
        {
          "duration": 0.09,
          "phone": "w_B"
        },
        {
          "duration": 0.18,
          "phone": "ao_I"
        },
        {
          "duration": 0.08,
          "phone": "t_I"
        },
        {
          "duration": 0.1,
          "phone": "er_E"
        }
      ],
      "start": 7.01,
      "startOffset": 115,
      "word": "WATER"
    },
    {
      "alignedWord": "from",
      "case": "success",
      "end": 7.69,
      "endOffset": 125,
      "phones": [
        {
          "duration": 0.08,
          "phone": "f_B"
        },
        {
          "duration": 0.08,
          "phone": "er_I"
        },
        {
          "duration": 0.07,
          "phone": "m_E"
        }
      ],
      "start": 7.46,
      "startOffset": 121,
      "word": "FROM"
    },
    {
      "alignedWord": "snow",
      "case": "success",
      "end": 8.08,
      "endOffset": 130,
      "phones": [
        {
          "duration": 0.13,
          "phone": "s_B"
        },
        {
          "duration": 0.08,
          "phone": "n_I"
        },
        {
          "duration": 0.18,
          "phone": "ow_E"
        }
      ],
      "start": 7.69,
      "startOffset": 126,
      "word": "SNOW"
    },
    {
      "alignedWord": "and",
      "case": "success",
      "end": 8.28,
      "endOffset": 134,
      "phones": [
        {
          "duration": 0.05,
          "phone": "ae_B"
        },
        {
          "duration": 0.04,
          "phone": "n_I"
        },
        {
          "duration": 0.07,
          "phone": "d_E"
        }
      ],
      "start": 8.12,
      "startOffset": 131,
      "word": "AND"
    },
    {
      "alignedWord": "rain",
      "case": "success",
      "end": 8.709999999999999,
      "endOffset": 139,
      "phones": [
        {
          "duration": 0.09,
          "phone": "r_B"
        },
        {
          "duration": 0.22,
          "phone": "ey_I"
        },
        {
          "duration": 0.12,
          "phone": "n_E"
        }
      ],
      "start": 8.28,
      "startOffset": 135,
      "word": "RAIN"
    },
    {
      "alignedWord": "that",
      "case": "success",
      "end": 9.41,
      "endOffset": 144,
      "phones": [
        {
          "duration": 0.08,
          "phone": "dh_B"
        },
        {
          "duration": 0.05,
          "phone": "ae_I"
        },
        {
          "duration": 0.06,
          "phone": "t_E"
        }
      ],
      "start": 9.22,
      "startOffset": 140,
      "word": "THAT"
    },
    {
      "alignedWord": "he",
      "case": "success",
      "end": 9.620000000000001,
      "endOffset": 147,
      "phones": [
        {
          "duration": 0.07,
          "phone": "hh_B"
        },
        {
          "duration": 0.14,
          "phone": "iy_E"
        }
      ],
      "start": 9.41,
      "startOffset": 145,
      "word": "HE"
    },
    {
      "alignedWord": "had",
      "case": "success",
      "end": 9.78,
      "endOffset": 151,
      "phones": [
        {
          "duration": 0.04,
          "phone": "hh_B"
        },
        {
          "duration": 0.06,
          "phone": "ae_I"
        },
        {
          "duration": 0.06,
          "phone": "d_E"
        }
      ],
      "start": 9.62,
      "startOffset": 148,
      "word": "HAD"
    },
    {
      "alignedWord": "been",
      "case": "success",
      "end": 10.0,
      "endOffset": 156,
      "phones": [
        {
          "duration": 0.06,
          "phone": "b_B"
        },
        {
          "duration": 0.07,
          "phone": "ih_I"
        },
        {
          "duration": 0.09,
          "phone": "n_E"
        }
      ],
      "start": 9.78,
      "startOffset": 152,
      "word": "BEEN"
    },
    {
      "alignedWord": "able",
      "case": "success",
      "end": 10.31,
      "endOffset": 161,
      "phones": [
        {
          "duration": 0.16,
          "phone": "ey_B"
        },
        {
          "duration": 0.04,
          "phone": "b_I"
        },
        {
          "duration": 0.04,
          "phone": "ah_I"
        },
        {
          "duration": 0.06,
          "phone": "l_E"
        }
      ],
      "start": 10.01,
      "startOffset": 157,
      "word": "ABLE"
    },
    {
      "alignedWord": "to",
      "case": "success",
      "end": 10.459999,
      "endOffset": 164,
      "phones": [
        {
          "duration": 0.07,
          "phone": "t_B"
        },
        {
          "duration": 0.08,
          "phone": "ih_E"
        }
      ],
      "start": 10.309999,
      "startOffset": 162,
      "word": "TO"
    },
    {
      "alignedWord": "form",
      "case": "success",
      "end": 10.779999,
      "endOffset": 169,
      "phones": [
        {
          "duration": 0.08,
          "phone": "f_B"
        },
        {
          "duration": 0.08,
          "phone": "ao_I"
        },
        {
          "duration": 0.06,
          "phone": "r_I"
        },
        {
          "duration": 0.09,
          "phone": "m_E"
        }
      ],
      "start": 10.469999,
      "startOffset": 165,
      "word": "FORM"
    },
    {
      "alignedWord": "no",
      "case": "success",
      "end": 10.969999999999999,
      "endOffset": 172,
      "phones": [
        {
          "duration": 0.06,
          "phone": "n_B"
        },
        {
          "duration": 0.13,
          "phone": "ow_E"
        }
      ],
      "start": 10.78,
      "startOffset": 170,
      "word": "NO"
    },
    {
      "alignedWord": "correct",
      "case": "success",
      "end": 11.449999,
      "endOffset": 180,
      "phones": [
        {
          "duration": 0.12,
          "phone": "k_B"
        },
        {
          "duration": 0.12,
          "phone": "er_I"
        },
        {
          "duration": 0.12,
          "phone": "eh_I"
        },
        {
          "duration": 0.06,
          "phone": "k_I"
        },
        {
          "duration": 0.06,
          "phone": "t_E"
        }
      ],
      "start": 10.969999,
      "startOffset": 173,
      "word": "CORRECT"
    },
    {
      "alignedWord": "impression",
      "case": "success",
      "end": 12.02,
      "endOffset": 191,
      "phones": [
        {
          "duration": 0.05,
          "phone": "ih_B"
        },
        {
          "duration": 0.06,
          "phone": "m_I"
        },
        {
          "duration": 0.07,
          "phone": "p_I"
        },
        {
          "duration": 0.08,
          "phone": "r_I"
        },
        {
          "duration": 0.1,
          "phone": "eh_I"
        },
        {
          "duration": 0.09,
          "phone": "sh_I"
        },
        {
          "duration": 0.07,
          "phone": "ah_I"
        },
        {
          "duration": 0.05,
          "phone": "n_E"
        }
      ],
      "start": 11.45,
      "startOffset": 181,
      "word": "IMPRESSION"
    },
    {
      "alignedWord": "of",
      "case": "success",
      "end": 12.15,
      "endOffset": 194,
      "phones": [
        {
          "duration": 0.06,
          "phone": "ah_B"
        },
        {
          "duration": 0.07,
          "phone": "v_E"
        }
      ],
      "start": 12.02,
      "startOffset": 192,
      "word": "OF"
    },
    {
      "alignedWord": "<unk>",
      "case": "success",
      "end": 13.17,
      "endOffset": 207,
      "phones": [
        {
          "duration": 1.02,
          "phone": "oov_S"
        }
      ],
      "start": 12.15,
      "startOffset": 195,
      "word": "WATERCOURSES"
    }
  ]
}