{
  "transcript": "I LOOKED DOWN THE GIRL WAS WATCHING ME AND THERE WAS NO SMILE ON HER FACE NOW",
  "words": [
    {
      "alignedWord": "i",
      "case": "success",
      "end": 0.33,
      "endOffset": 1,
      "phones": [
        {
          "duration": 0.17,
          "phone": "ay_S"
        }
      ],
      "start": 0.16,
      "startOffset": 0,
      "word": "I"
    },
    {
      "alignedWord": "looked",
      "case": "success",
      "end": 0.56,
      "endOffset": 8,
      "phones": [
        {
          "duration": 0.08,
          "phone": "l_B"
        },
        {
          "duration": 0.06,
          "phone": "uh_I"
        },
        {
          "duration": 0.08,
          "phone": "k_I"
        },
        {
          "duration": 0.01,
          "phone": "t_E"
        }
      ],
      "start": 0.33,
      "startOffset": 2,
      "word": "LOOKED"
    },
    {
      "alignedWord": "down",
      "case": "success",
      "end": 1.0699999999999998,
      "endOffset": 13,
      "phones": [
        {
          "duration": 0.11,
          "phone": "d_B"
        },
        {
          "duration": 0.22,
          "phone": "aw_I"
        },
        {
          "duration": 0.17,
          "phone": "n_E"
        }
      ],
      "start": 0.57,
      "startOffset": 9,
      "word": "DOWN"
    },
    {
      "alignedWord": "the",
      "case": "success",
      "end": 1.56,
      "endOffset": 17,
      "phones": [
        {
          "duration": 0.08,
          "phone": "dh_B"
        },
        {
          "duration": 0.06,
          "phone": "ah_E"
        }
      ],
      "start": 1.42,
      "startOffset": 14,
      "word": "THE"
    },
    {
      "alignedWord": "girl",
      "case": "success",
      "end": 1.79,
      "endOffset": 22,
      "phones": [
        {
          "duration": 0.09,
          "phone": "g_B"
        },
        {
          "duration": 0.1,
          "phone": "er_I"
        },
        {
          "duration": 0.04,
          "phone": "l_E"
        }
      ],
      "start": 1.56,
      "startOffset": 18,
      "word": "GIRL"
    },
    {
      "alignedWord": "was",
      "case": "success",
      "end": 2.02,
      "endOffset": 26,
      "phones": [
        {
          "duration": 0.09,
          "phone": "w_B"
        },
        {
          "duration": 0.07,
          "phone": "ah_I"
        },
        {
          "duration": 0.07,
          "phone": "z_E"
        }
      ],
      "start": 1.79,
      "startOffset": 23,
      "word": "WAS"
    },
    {
      "alignedWord": "watching",
      "case": "success",
      "end": 2.46,
      "endOffset": 35,
      "phones": [
        {
          "duration": 0.08,
          "phone": "w_B"
        },
        {
          "duration": 0.12,
          "phone": "aa_I"
        },
        {
          "duration": 0.09,
          "phone": "ch_I"
        },
        {
          "duration": 0.09,
          "phone": "ih_I"
        },
        {
          "duration": 0.06,
          "phone": "ng_E"
        }
      ],
      "start": 2.02,
      "startOffset": 27,
      "word": "WATCHING"
    },
    {
      "alignedWord": "me",
      "case": "success",
      "end": 2.74,
      "endOffset": 38,
      "phones": [
        {
          "duration": 0.07,
          "phone": "m_B"
        },
        {
          "duration": 0.21,
          "phone": "iy_E"
        }
      ],
      "start": 2.46,
      "startOffset": 36,
      "word": "ME"
    },
    {
      "alignedWord": "and",
      "case": "success",
      "end": 3.05,
      "endOffset": 42,
      "phones": [
        {
          "duration": 0.1,
          "phone": "ae_B"
        },
        {
          "duration": 0.07,
          "phone": "n_I"
        },
        {
          "duration": 0.04,
          "phone": "d_E"
        }
      ],
      "start": 2.84,
      "startOffset": 39,
      "word": "AND"
    },
    {
      "alignedWord": "there",
      "case": "success",
      "end": 3.15,
      "endOffset": 48,
      "phones": [
        {
          "duration": 0.01,
          "phone": "dh_B"
        },
        {
          "duration": 0.05,
          "phone": "eh_I"
        },
        {
          "duration": 0.04,
          "phone": "r_E"
        }
      ],
      "start": 3.05,
      "startOffset": 43,
      "word": "THERE"
    },
    {
      "alignedWord": "was",
      "case": "success",
      "end": 3.34,
      "endOffset": 52,
      "phones": [
        {
          "duration": 0.06,
          "phone": "w_B"
        },
        {
          "duration": 0.05,
          "phone": "ah_I"
        },
        {
          "duration": 0.08,
          "phone": "z_E"
        }
      ],
      "start": 3.15,
      "startOffset": 49,
      "word": "WAS"
    },
    {
      "alignedWord": "no",
      "case": "success",
      "end": 3.54,
      "endOffset": 55,
      "phones": [
        {
          "duration": 0.08,
          "phone": "n_B"
        },
        {
          "duration": 0.12,
          "phone": "ow_E"
        }
      ],
      "start": 3.34,
      "startOffset": 53,
      "word": "NO"
    },
    {
      "alignedWord": "smile",
      "case": "success",
      "end": 3.92,
      "endOffset": 61,
      "phones": [
        {
          "duration": 0.14,
          "phone": "s_B"
        },
        {
          "duration": 0.05,
          "phone": "m_I"
        },
        {
          "duration": 0.11,
          "phone": "ay_I"
        },
        {
          "duration": 0.08,
          "phone": "l_E"
        }
      ],
      "start": 3.54,
      "startOffset": 56,
      "word": "SMILE"
    },
    {
      "alignedWord": "on",
      "case": "success",
      "end": 4.04,
      "endOffset": 64,
      "phones": [
        {
          "duration": 0.05,
          "phone": "ao_B"
        },
        {
          "duration": 0.07,
          "phone": "n_E"
        }
      ],
      "start": 3.92,
      "startOffset": 62,
      "word": "ON"
    },
    {
      "alignedWord": "her",
      "case": "success",
      "end": 4.16,
      "endOffset": 68,
      "phones": [
        {
          "duration": 0.04,
          "phone": "hh_B"
        },
        {
          "duration": 0.08,
          "phone": "er_E"
        }
      ],
      "start": 4.04,
      "startOffset": 65,
      "word": "HER"
    },
    {
      "alignedWord": "face",
      "case": "success",
      "end": 4.49,
      "endOffset": 73,
      "phones": [
        {
          "duration": 0.12,
          "phone": "f_B"
        },
        {
          "duration": 0.11,
          "phone": "ey_I"
        },
        {
          "duration": 0.1,
          "phone": "s_E"
        }
      ],
      "start": 4.16,
      "startOffset": 69,
      "word": "FACE"
    },
    {
      "alignedWord": "now",
      "case": "success",
      "end": 4.720000000000001,
      "endOffset": 77,
      "phones": [
        {
          "duration": 0.09,
          "phone": "n_B"
        },
        {
          "duration": 0.14,
          "phone": "aw_E"
        }
      ],
      "start": 4.49,
      "startOffset": 74,
      "word": "NOW"
    }
  ]
}