{
  "transcript": "IT IS AS I HAVE THE HONOR TO RELATE IT TO YOUR MAJESTY JUSSAC ONE OF THE FIRST SWORDSMEN IN THE KINGDOM WELL SIRE FOR ONCE HE FOUND HIS MASTER I WILL SEE THIS YOUNG MAN TREVILLE I WILL SEE HIM AND IF ANYTHING CAN BE DONE",
  "words": [
    {
      "alignedWord": "it",
      "case": "success",
      "end": 0.55,
      "endOffset": 2,
      "phones": [
        {
          "duration": 0.12,
          "phone": "ih_B"
        },
        {
          "duration": 0.07,
          "phone": "t_E"
        }
      ],
      "start": 0.36,
      "startOffset": 0,
      "word": "IT"
    },
    {
      "alignedWord": "is",
      "case": "success",
      "end": 0.81,
      "endOffset": 5,
      "phones": [
        {
          "duration": 0.17,
          "phone": "ih_B"
        },
        {
          "duration": 0.09,
          "phone": "z_E"
        }
      ],
      "start": 0.55,
      "startOffset": 3,
      "word": "IS"
    },
    {
      "alignedWord": "as",
      "case": "success",
      "end": 1.1,
      "endOffset": 8,
      "phones": [
        {
          "duration": 0.13,
          "phone": "eh_B"
        },
        {
          "duration": 0.1,
          "phone": "z_E"
        }
      ],
      "start": 0.87,
      "startOffset": 6,
      "word": "AS"
    },
    {
      "alignedWord": "i",
      "case": "success",
      "end": 1.23,
      "endOffset": 10,
      "phones": [
        {
          "duration": 0.13,
          "phone": "ay_S"
        }
      ],
      "start": 1.1,
      "startOffset": 9,
      "word": "I"
    },
    {
      "alignedWord": "have",
      "case": "success",
      "end": 1.44,
      "endOffset": 15,
      "phones": [
        {
          "duration": 0.08,
          "phone": "hh_B"
        },
        {
          "duration": 0.05,
          "phone": "ae_I"
        },
        {
          "duration": 0.07,
          "phone": "v_E"
        }
      ],
      "start": 1.24,
      "startOffset": 11,
      "word": "HAVE"
    },
    {
      "alignedWord": "the",
      "case": "success",
      "end": 1.53,
      "endOffset": 19,
      "phones": [
        {
          "duration": 0.02,
          "phone": "dh_B"
        },
        {
          "duration": 0.07,
          "phone": "ah_E"
        }
      ],
      "start": 1.44,
      "startOffset": 16,
      "word": "THE"
    },
    {
      "alignedWord": "honor",
      "case": "success",
      "end": 1.9000000000000001,
      "endOffset": 25,
      "phones": [
        {
          "duration": 0.18,
          "phone": "aa_B"
        },
        {
          "duration": 0.09,
          "phone": "n_I"
        },
        {
          "duration": 0.06,
          "phone": "er_E"
        }
      ],
      "start": 1.57,
      "startOffset": 20,
      "word": "HONOR"
    },
    {
      "alignedWord": "to",
      "case": "success",
      "end": 2.1,
      "endOffset": 28,
      "phones": [
        {
          "duration": 0.12,
          "phone": "t_B"
        },
        {
          "duration": 0.08,
          "phone": "uw_E"
        }
      ],
      "start": 1.9,
      "startOffset": 26,
      "word": "TO"
    },
    {
      "alignedWord": "relate",
      "case": "success",
      "end": 2.47,
      "endOffset": 35,
      "phones": [
        {
          "duration": 0.03,
          "phone": "r_B"
        },
        {
          "duration": 0.1,
          "phone": "iy_I"
        },
        {
          "duration": 0.09,
          "phone": "l_I"
        },
        {
          "duration": 0.1,
          "phone": "ey_I"
        },
        {
          "duration": 0.05,
          "phone": "t_E"
        }
      ],
      "start": 2.1,
      "startOffset": 29,
      "word": "RELATE"
    },
    {
      "alignedWord": "it",
      "case": "success",
      "end": 2.6,
      "endOffset": 38,
      "phones": [
        {
          "duration": 0.04,
          "phone": "ih_B"
        },
        {
          "duration": 0.09,
          "phone": "t_E"
        }
      ],
      "start": 2.47,
      "startOffset": 36,
      "word": "IT"
    },
    {
      "alignedWord": "to",
      "case": "success",
      "end": 2.73,
      "endOffset": 41,
      "phones": [
        {
          "duration": 0.06,
          "phone": "t_B"
        },
        {
          "duration": 0.07,
          "phone": "uw_E"
        }
      ],
      "start": 2.6,
      "startOffset": 39,
      "word": "TO"
    },
    {
      "alignedWord": "your",
      "case": "success",
      "end": 2.88,
      "endOffset": 46,
      "phones": [
        {
          "duration": 0.05,
          "phone": "y_B"
        },
        {
          "duration": 0.03,
          "phone": "uh_I"
        },
        {
          "duration": 0.07,
          "phone": "r_E"
        }
      ],
      "start": 2.73,
      "startOffset": 42,
      "word": "YOUR"
    },
    {
      "alignedWord": "<unk>",
      "case": "success",
      "end": 3.55,
      "endOffset": 54,
      "phones": [
        {
          "duration": 0.67,
          "phone": "oov_S"
        }
      ],
      "start": 2.88,
      "startOffset": 47,
      "word": "MAJESTY"
    },
    {
      "alignedWord": "<unk>",
      "case": "success",
      "end": 4.59,
      "endOffset": 61,
      "phones": [
        {
          "duration": 0.59,
          "phone": "oov_S"
        }
      ],
      "start": 4.0,
      "startOffset": 55,
      "word": "JUSSAC"
    },
    {
      "alignedWord": "one",
      "case": "success",
      "end": 4.7700000000000005,
      "endOffset": 65,
      "phones": [
        {
          "duration": 0.07,
          "phone": "w_B"
        },
        {
          "duration": 0.05,
          "phone": "ah_I"
        },
        {
          "duration": 0.04,
          "phone": "n_E"
        }
      ],
      "start": 4.61,
      "startOffset": 62,
      "word": "ONE"
    },
    {
      "alignedWord": "of",
      "case": "success",
      "end": 4.88,
      "endOffset": 68,
      "phones": [
        {
          "duration": 0.04,
          "phone": "ah_B"
        },
        {
          "duration": 0.07,
          "phone": "v_E"
        }
      ],
      "start": 4.77,
      "startOffset": 66,
      "word": "OF"
    },
    {
      "alignedWord": "the",
      "case": "success",
      "end": 4.97,
      "endOffset": 72,
      "phones": [
        {
          "duration": 0.01,
          "phone": "dh_B"
        },
        {
          "duration": 0.08,
          "phone": "ah_E"
        }
      ],
      "start": 4.88,
      "startOffset": 69,
      "word": "THE"
    },
    {
      "alignedWord": "first",
      "case": "success",
      "end": 5.319999999999999,
      "endOffset": 78,
      "phones": [
        {
          "duration": 0.12,
          "phone": "f_B"
        },
        {
          "duration": 0.15,
          "phone": "er_I"
        },
        {
          "duration": 0.07,
          "phone": "s_I"
        },
        {
          "duration": 0.01,
          "phone": "t_E"
        }
      ],
      "start": 4.97,
      "startOffset": 73,
      "word": "FIRST"
    },
    {
      "alignedWord": "<unk>",
      "case": "success",
      "end": 5.83,
      "endOffset": 88,
      "phones": [
        {
          "duration": 0.51,
          "phone": "oov_S"
        }
      ],
      "start": 5.32,
      "startOffset": 79,
      "word": "SWORDSMEN"
    },
    {
      "alignedWord": "in",
      "case": "success",
      "end": 5.89,
      "endOffset": 91,
      "phones": [
        {
          "duration": 0.01,
          "phone": "ih_B"
        },
        {
          "duration": 0.05,
          "phone": "n_E"
        }
      ],
      "start": 5.83,
      "startOffset": 89,
      "word": "IN"
    },
    {
      "alignedWord": "the",
      "case": "success",
      "end": 6.01,
      "endOffset": 95,
      "phones": [
        {
          "duration": 0.05,
          "phone": "dh_B"
        },
        {
          "duration": 0.07,
          "phone": "ah_E"
        }
      ],
      "start": 5.89,
      "startOffset": 92,
      "word": "THE"
    },
    {
      "alignedWord": "kingdom",
      "case": "success",
      "end": 6.609999999999999,
      "endOffset": 103,
      "phones": [
        {
          "duration": 0.11,
          "phone": "k_B"
        },
        {
          "duration": 0.08,
          "phone": "ih_I"
        },
        {
          "duration": 0.07,
          "phone": "ng_I"
        },
        {
          "duration": 0.07,
          "phone": "d_I"
        },
        {
          "duration": 0.08,
          "phone": "ah_I"
        },
        {
          "duration": 0.19,
          "phone": "m_E"
        }
      ],
      "start": 6.01,
      "startOffset": 96,
      "word": "KINGDOM"
    },
    {
      "alignedWord": "well",
      "case": "success",
      "end": 7.45,
      "endOffset": 108,
      "phones": [
        {
          "duration": 0.17,
          "phone": "w_B"
        },
        {
          "duration": 0.06,
          "phone": "eh_I"
        },
        {
          "duration": 0.1,
          "phone": "l_E"
        }
      ],
      "start": 7.12,
      "startOffset": 104,
      "word": "WELL"
    },
    {
      "alignedWord": "sire",
      "case": "success",
      "end": 8.01,
      "endOffset": 113,
      "phones": [
        {
          "duration": 0.16,
          "phone": "s_B"
        },
        {
          "duration": 0.19,
          "phone": "ay_I"
        },
        {
          "duration": 0.2,
          "phone": "er_E"
        }
      ],
      "start": 7.46,
      "startOffset": 109,
      "word": "SIRE"
    },
    {
      "alignedWord": "for",
      "case": "success",
      "end": 8.27,
      "endOffset": 117,
      "phones": [
        {
          "duration": 0.14,
          "phone": "f_B"
        },
        {
          "duration": 0.11,
          "phone": "er_E"
        }
      ],
      "start": 8.02,
      "startOffset": 114,
      "word": "FOR"
    },
    {
      "alignedWord": "once",
      "case": "success",
      "end": 8.66,
      "endOffset": 122,
      "phones": [
        {
          "duration": 0.12,
          "phone": "w_B"
        },
        {
          "duration": 0.12,
          "phone": "ah_I"
        },
        {
          "duration": 0.08,
          "phone": "n_I"
        },
        {
          "duration": 0.07,
          "phone": "s_E"
        }
      ],
      "start": 8.27,
      "startOffset": 118,
      "word": "ONCE"
    },
    {
      "alignedWord": "he",
      "case": "success",
      "end": 8.81,
      "endOffset": 125,
      "phones": [
        {
          "duration": 0.05,
          "phone": "hh_B"
        },
        {
          "duration": 0.1,
          "phone": "iy_E"
        }
      ],
      "start": 8.66,
      "startOffset": 123,
      "word": "HE"
    },
    {
      "alignedWord": "found",
      "case": "success",
      "end": 9.129999,
      "endOffset": 131,
      "phones": [
        {
          "duration": 0.1,
          "phone": "f_B"
        },
        {
          "duration": 0.11,
          "phone": "aw_I"
        },
        {
          "duration": 0.07,
          "phone": "n_I"
        },
        {
          "duration": 0.04,
          "phone": "d_E"
        }
      ],
      "start": 8.809999,
      "startOffset": 126,
      "word": "FOUND"
    },
    {
      "alignedWord": "his",
      "case": "success",
      "end": 9.290000000000001,
      "endOffset": 135,
      "phones": [
        {
          "duration": 0.02,
          "phone": "hh_B"
        },
        {
          "duration": 0.05,
          "phone": "ih_I"
        },
        {
          "duration": 0.09,
          "phone": "z_E"
        }
      ],
      "start": 9.13,
      "startOffset": 132,
      "word": "HIS"
    },
    {
      "alignedWord": "master",
      "case": "success",
      "end": 9.889999999999999,
      "endOffset": 142,
      "phones": [
        {
          "duration": 0.07,
          "phone": "m_B"
        },
        {
          "duration": 0.15,
          "phone": "ae_I"
        },
        {
          "duration": 0.07,
          "phone": "s_I"
        },
        {
          "duration": 0.09,
          "phone": "t_I"
        },
        {
          "duration": 0.22,
          "phone": "er_E"
        }
      ],
      "start": 9.29,
      "startOffset": 136,
      "word": "MASTER"
    },
    {
      "alignedWord": "i",
      "case": "success",
      "end": 10.82,
      "endOffset": 144,
      "phones": [
        {
          "duration": 0.13,
          "phone": "ay_S"
        }
      ],
      "start": 10.69,
      "startOffset": 143,
      "word": "I"
    },
    {
      "alignedWord": "will",
      "case": "success",
      "end": 11.030000000000001,
      "endOffset": 149,
      "phones": [
        {
          "duration": 0.06,
          "phone": "w_B"
        },
        {
          "duration": 0.07,
          "phone": "ih_I"
        },
        {
          "duration": 0.08,
          "phone": "l_E"
        }
      ],
      "start": 10.82,
      "startOffset": 145,
      "word": "WILL"
    },
    {
      "alignedWord": "see",
      "case": "success",
      "end": 11.309999999999999,
      "endOffset": 153,
      "phones": [
        {
          "duration": 0.15,
          "phone": "s_B"
        },
        {
          "duration": 0.13,
          "phone": "iy_E"
        }
      ],
      "start": 11.03,
      "startOffset": 150,
      "word": "SEE"
    },
    {
      "alignedWord": "this",
      "case": "success",
      "end": 11.529999,
      "endOffset": 158,
      "phones": [
        {
          "duration": 0.05,
          "phone": "dh_B"
        },
        {
          "duration": 0.08,
          "phone": "ih_I"
        },
        {
          "duration": 0.09,
          "phone": "s_E"
        }
      ],
      "start": 11.309999,
      "startOffset": 154,
      "word": "THIS"
    },
    {
      "alignedWord": "young",
      "case": "success",
      "end": 11.76,
      "endOffset": 164,
      "phones": [
        {
          "duration": 0.08,
          "phone": "y_B"
        },
        {
          "duration": 0.08,
          "phone": "ah_I"
        },
        {
          "duration": 0.07,
          "phone": "ng_E"
        }
      ],
      "start": 11.53,
      "startOffset": 159,
      "word": "YOUNG"
    },
    {
      "alignedWord": "man",
      "case": "success",
      "end": 11.999999,
      "endOffset": 168,
      "phones": [
        {
          "duration": 0.06,
          "phone": "m_B"
        },
        {
          "duration": 0.1,
          "phone": "ae_I"
        },
        {
          "duration": 0.08,
          "phone": "n_E"
        }
      ],
      "start": 11.759999,
      "startOffset": 165,
      "word": "MAN"
    },
    {
      "alignedWord": "<unk>",
      "case": "success",
      "end": 12.549999,
      "endOffset": 177,
      "phones": [
        {
          "duration": 0.54,
          "phone": "oov_S"
        }
      ],
      "start": 12.009999,
      "startOffset": 169,
      "word": "TREVILLE"
    },
    {
      "alignedWord": "i",
      "case": "success",
      "end": 12.959999999999999,
      "endOffset": 179,
      "phones": [
        {
          "duration": 0.17,
          "phone": "ay_S"
        }
      ],
      "start": 12.79,
      "startOffset": 178,
      "word": "I"
    },
    {
      "alignedWord": "will",
      "case": "success",
      "end": 13.170000000000002,
      "endOffset": 184,
      "phones": [
        {
          "duration": 0.07,
          "phone": "w_B"
        },
        {
          "duration": 0.06,
          "phone": "ih_I"
        },
        {
          "duration": 0.08,
          "phone": "l_E"
        }
      ],
      "start": 12.96,
      "startOffset": 180,
      "word": "WILL"
    },
    {
      "alignedWord": "see",
      "case": "success",
      "end": 13.459999999999999,
      "endOffset": 188,
      "phones": [
        {
          "duration": 0.14,
          "phone": "s_B"
        },
        {
          "duration": 0.15,
          "phone": "iy_E"
        }
      ],
      "start": 13.17,
      "startOffset": 185,
      "word": "SEE"
    },
    {
      "alignedWord": "him",
      "case": "success",
      "end": 13.8,
      "endOffset": 192,
      "phones": [
        {
          "duration": 0.05,
          "phone": "hh_B"
        },
        {
          "duration": 0.13,
          "phone": "ih_I"
        },
        {
          "duration": 0.16,
          "phone": "m_E"
        }
      ],
      "start": 13.46,
      "startOffset": 189,
      "word": "HIM"
    },
    {
      "alignedWord": "and",
      "case": "success",
      "end": 14.290000000000001,
      "endOffset": 196,
      "phones": [
        {
          "duration": 0.07,
          "phone": "ae_B"
        },
        {
          "duration": 0.04,
          "phone": "n_I"
        },
        {
          "duration": 0.03,
          "phone": "d_E"
        }
      ],
      "start": 14.15,
      "startOffset": 193,
      "word": "AND"
    },
    {
      "alignedWord": "if",
      "case": "success",
      "end": 14.409999999999998,
      "endOffset": 199,
      "phones": [
        {
          "duration": 0.05,
          "phone": "ih_B"
        },
        {
          "duration": 0.07,
          "phone": "f_E"
        }
      ],
      "start": 14.29,
      "startOffset": 197,
      "word": "IF"
    },
    {
      "alignedWord": "anything",
      "case": "success",
      "end": 14.88,
      "endOffset": 208,
      "phones": [
        {
          "duration": 0.07,
          "phone": "eh_B"
        },
        {
          "duration": 0.08,
          "phone": "n_I"
        },
        {
          "duration": 0.1,
          "phone": "iy_I"
        },
        {
          "duration": 0.06,
          "phone": "th_I"
        },
        {
          "duration": 0.08,
          "phone": "ih_I"
        },
        {
          "duration": 0.07,
          "phone": "ng_E"
        }
      ],
      "start": 14.42,
      "startOffset": 200,
      "word": "ANYTHING"
    },
    {
      "alignedWord": "can",
      "case": "success",
      "end": 15.06,
      "endOffset": 212,
      "phones": [
        {
          "duration": 0.05,
          "phone": "k_B"
        },
        {
          "duration": 0.06,
          "phone": "ah_I"
        },
        {
          "duration": 0.07,
          "phone": "n_E"
        }
      ],
      "start": 14.88,
      "startOffset": 209,
      "word": "CAN"
    },
    {
      "alignedWord": "be",
      "case": "success",
      "end": 15.209999,
      "endOffset": 215,
      "phones": [
        {
          "duration": 0.07,
          "phone": "b_B"
        },
        {
          "duration": 0.08,
          "phone": "iy_E"
        }
      ],
      "start": 15.059999,
      "startOffset": 213,
      "word": "BE"
    },
    {
      "alignedWord": "done",
      "case": "success",
      "end": 15.55,
      "endOffset": 220,
      "phones": [
        {
          "duration": 0.07,
          "phone": "d_B"
        },
        {
          "duration": 0.19,
          "phone": "ah_I"
        },
        {
          "duration": 0.08,
          "phone": "n_E"
        }
      ],
      "start": 15.21,
      "startOffset": 216,
      "word": "DONE"
    }
  ]
}