{
  "transcript": "NOTWITHSTANDING HIS AMOROUS REGARD FOR THE QUEEN BEING PERFECTLY FATIGU'D ITABOD WHO LAY IN THE LODGE CONTIGUOUS TO HIS COULD NOT ONCE CLOSE HIS EYES FOR VEXATION HE GOT UP THEREFORE IN THE DEAD OF THE NIGHT STOLE IMPERCEPTIBLY INTO ZADIG'S APARTMENT",
  "words": [
    {
      "alignedWord": "notwithstanding",
      "case": "success",
      "end": 0.97,
      "endOffset": 15,
      "phones": [
        {
          "duration": 0.07,
          "phone": "n_B"
        },
        {
          "duration": 0.08,
          "phone": "aa_I"
        },
        {
          "duration": 0.01,
          "phone": "t_I"
        },
        {
          "duration": 0.07,
          "phone": "w_I"
        },
        {
          "duration": 0.04,
          "phone": "ih_I"
        },
        {
          "duration": 0.09,
          "phone": "th_I"
        },
        {
          "duration": 0.09,
          "phone": "s_I"
        },
        {
          "duration": 0.08,
          "phone": "t_I"
        },
        {
          "duration": 0.07,
          "phone": "ae_I"
        },
        {
          "duration": 0.05,
          "phone": "n_I"
        },
        {
          "duration": 0.06,
          "phone": "d_I"
        },
        {
          "duration": 0.05,
          "phone": "ih_I"
        },
        {
          "duration": 0.07,
          "phone": "ng_E"
        }
      ],
      "start": 0.14,
      "startOffset": 0,
      "word": "NOTWITHSTANDING"
    },
    {
      "alignedWord": "his",
      "case": "success",
      "end": 1.1199999999999999,
      "endOffset": 19,
      "phones": [
        {
          "duration": 0.02,
          "phone": "hh_B"
        },
        {
          "duration": 0.05,
          "phone": "ih_I"
        },
        {
          "duration": 0.08,
          "phone": "z_E"
        }
      ],
      "start": 0.97,
      "startOffset": 16,
      "word": "HIS"
    },
    {
      "alignedWord": "amorous",
      "case": "success",
      "end": 1.5999999999999999,
      "endOffset": 27,
      "phones": [
        {
          "duration": 0.15,
          "phone": "ae_B"
        },
        {
          "duration": 0.09,
          "phone": "m_I"
        },
        {
          "duration": 0.05,
          "phone": "er_I"
        },
        {
          "duration": 0.07,
          "phone": "ah_I"
        },
        {
          "duration": 0.11,
          "phone": "s_E"
        }
      ],
      "start": 1.13,
      "startOffset": 20,
      "word": "AMOROUS"
    },
    {
      "alignedWord": "regard",
      "case": "success",
      "end": 2.02,
      "endOffset": 34,
      "phones": [
        {
          "duration": 0.04,
          "phone": "r_B"
        },
        {
          "duration": 0.07,
          "phone": "ah_I"
        },
        {
          "duration": 0.07,
          "phone": "g_I"
        },
        {
          "duration": 0.1,
          "phone": "aa_I"
        },
        {
          "duration": 0.07,
          "phone": "r_I"
        },
        {
          "duration": 0.07,
          "phone": "d_E"
        }
      ],
      "start": 1.6,
      "startOffset": 28,
      "word": "REGARD"
    },
    {
      "alignedWord": "for",
      "case": "success",
      "end": 2.14,
      "endOffset": 38,
      "phones": [
        {
          "duration": 0.05,
          "phone": "f_B"
        },
        {
          "duration": 0.07,
          "phone": "er_E"
        }
      ],
      "start": 2.02,
      "startOffset": 35,
      "word": "FOR"
    },
    {
      "alignedWord": "the",
      "case": "success",
      "end": 2.24,
      "endOffset": 42,
      "phones": [
        {
          "duration": 0.04,
          "phone": "dh_B"
        },
        {
          "duration": 0.06,
          "phone": "ah_E"
        }
      ],
      "start": 2.14,
      "startOffset": 39,
      "word": "THE"
    },
    {
      "alignedWord": "queen",
      "case": "success",
      "end": 2.72,
      "endOffset": 48,
      "phones": [
        {
          "duration": 0.06,
          "phone": "k_B"
        },
        {
          "duration": 0.08,
          "phone": "w_I"
        },
        {
          "duration": 0.14,
          "phone": "iy_I"
        },
        {
          "duration": 0.2,
          "phone": "n_E"
        }
      ],
      "start": 2.24,
      "startOffset": 43,
      "word": "QUEEN"
    },
    {
      "alignedWord": "being",
      "case": "success",
      "end": 3.25,
      "endOffset": 54,
      "phones": [
        {
          "duration": 0.08,
          "phone": "b_B"
        },
        {
          "duration": 0.02,
          "phone": "iy_I"
        },
        {
          "duration": 0.04,
          "phone": "ih_I"
        },
        {
          "duration": 0.07,
          "phone": "ng_E"
        }
      ],
      "start": 3.04,
      "startOffset": 49,
      "word": "BEING"
    },
    {
      "alignedWord": "perfectly",
      "case": "success",
      "end": 3.69,
      "endOffset": 64,
      "phones": [
        {
          "duration": 0.06,
          "phone": "p_B"
        },
        {
          "duration": 0.08,
          "phone": "er_I"
        },
        {
          "duration": 0.03,
          "phone": "f_I"
        },
        {
          "duration": 0.06,
          "phone": "ah_I"
        },
        {
          "duration": 0.05,
          "phone": "k_I"
        },
        {
          "duration": 0.07,
          "phone": "l_I"
        },
        {
          "duration": 0.09,
          "phone": "iy_E"
        }
      ],
      "start": 3.25,
      "startOffset": 55,
      "word": "PERFECTLY"
    },
    {
      "alignedWord": "<unk>",
      "case": "success",
      "end": 4.24,
      "endOffset": 73,
      "phones": [
        {
          "duration": 0.55,
          "phone": "oov_S"
        }
      ],
      "start": 3.69,
      "startOffset": 65,
      "word": "FATIGU'D"
    },
    {
      "alignedWord": "<unk>",
      "case": "success",
      "end": 5.3999999999999995,
      "endOffset": 80,
      "phones": [
        {
          "duration": 0.68,
          "phone": "oov_S"
        }
      ],
      "start": 4.72,
      "startOffset": 74,
      "word": "ITABOD"
    },
    {
      "alignedWord": "who",
      "case": "success",
      "end": 5.62,
      "endOffset": 84,
      "phones": [
        {
          "duration": 0.07,
          "phone": "hh_B"
        },
        {
          "duration": 0.06,
          "phone": "uw_E"
        }
      ],
      "start": 5.49,
      "startOffset": 81,
      "word": "WHO"
    },
    {
      "alignedWord": "lay",
      "case": "success",
      "end": 5.83,
      "endOffset": 88,
      "phones": [
        {
          "duration": 0.12,
          "phone": "l_B"
        },
        {
          "duration": 0.09,
          "phone": "ey_E"
        }
      ],
      "start": 5.62,
      "startOffset": 85,
      "word": "LAY"
    },
    {
      "alignedWord": "in",
      "case": "success",
      "end": 5.94,
      "endOffset": 91,
      "phones": [
        {
          "duration": 0.06,
          "phone": "ih_B"
        },
        {
          "duration": 0.05,
          "phone": "n_E"
        }
      ],
      "start": 5.83,
      "startOffset": 89,
      "word": "IN"
    },
    {
      "alignedWord": "the",
      "case": "success",
      "end": 6.04,
      "endOffset": 95,
      "phones": [
        {
          "duration": 0.04,
          "phone": "dh_B"
        },
        {
          "duration": 0.06,
          "phone": "ah_E"
        }
      ],
      "start": 5.94,
      "startOffset": 92,
      "word": "THE"
    },
    {
      "alignedWord": "lodge",
      "case": "success",
      "end": 6.33,
      "endOffset": 101,
      "phones": [
        {
          "duration": 0.08,
          "phone": "l_B"
        },
        {
          "duration": 0.1,
          "phone": "aa_I"
        },
        {
          "duration": 0.11,
          "phone": "jh_E"
        }
      ],
      "start": 6.04,
      "startOffset": 96,
      "word": "LODGE"
    },
    {
      "alignedWord": "contiguous",
      "case": "success",
      "end": 6.83,
      "endOffset": 112,
      "phones": [
        {
          "duration": 0.05,
          "phone": "k_B"
        },
        {
          "duration": 0.05,
          "phone": "ah_I"
        },
        {
          "duration": 0.04,
          "phone": "n_I"
        },
        {
          "duration": 0.07,
          "phone": "t_I"
        },
        {
          "duration": 0.05,
          "phone": "ih_I"
        },
        {
          "duration": 0.06,
          "phone": "g_I"
        },
        {
          "duration": 0.04,
          "phone": "y_I"
        },
        {
          "duration": 0.01,
          "phone": "uw_I"
        },
        {
          "duration": 0.05,
          "phone": "ah_I"
        },
        {
          "duration": 0.06,
          "phone": "s_E"
        }
      ],
      "start": 6.35,
      "startOffset": 102,
      "word": "CONTIGUOUS"
    },
    {
      "alignedWord": "to",
      "case": "success",
      "end": 6.9799999999999995,
      "endOffset": 115,
      "phones": [
        {
          "duration": 0.05,
          "phone": "t_B"
        },
        {
          "duration": 0.08,
          "phone": "ih_E"
        }
      ],
      "start": 6.85,
      "startOffset": 113,
      "word": "TO"
    },
    {
      "alignedWord": "his",
      "case": "success",
      "end": 7.420000000000001,
      "endOffset": 119,
      "phones": [
        {
          "duration": 0.07,
          "phone": "hh_B"
        },
        {
          "duration": 0.14,
          "phone": "ih_I"
        },
        {
          "duration": 0.23,
          "phone": "z_E"
        }
      ],
      "start": 6.98,
      "startOffset": 116,
      "word": "HIS"
    },
    {
      "alignedWord": "could",
      "case": "success",
      "end": 7.95,
      "endOffset": 125,
      "phones": [
        {
          "duration": 0.07,
          "phone": "k_B"
        },
        {
          "duration": 0.03,
          "phone": "uh_I"
        },
        {
          "duration": 0.06,
          "phone": "d_E"
        }
      ],
      "start": 7.79,
      "startOffset": 120,
      "word": "COULD"
    },
    {
      "alignedWord": "not",
      "case": "success",
      "end": 8.19,
      "endOffset": 129,
      "phones": [
        {
          "duration": 0.04,
          "phone": "n_B"
        },
        {
          "duration": 0.11,
          "phone": "aa_I"
        },
        {
          "duration": 0.09,
          "phone": "t_E"
        }
      ],
      "start": 7.95,
      "startOffset": 126,
      "word": "NOT"
    },
    {
      "alignedWord": "once",
      "case": "success",
      "end": 8.469999999999999,
      "endOffset": 134,
      "phones": [
        {
          "duration": 0.06,
          "phone": "w_B"
        },
        {
          "duration": 0.09,
          "phone": "ah_I"
        },
        {
          "duration": 0.07,
          "phone": "n_I"
        },
        {
          "duration": 0.06,
          "phone": "s_E"
        }
      ],
      "start": 8.19,
      "startOffset": 130,
      "word": "ONCE"
    },
    {
      "alignedWord": "close",
      "case": "success",
      "end": 8.74,
      "endOffset": 140,
      "phones": [
        {
          "duration": 0.06,
          "phone": "k_B"
        },
        {
          "duration": 0.05,
          "phone": "l_I"
        },
        {
          "duration": 0.06,
          "phone": "ow_I"
        },
        {
          "duration": 0.07,
          "phone": "z_E"
        }
      ],
      "start": 8.5,
      "startOffset": 135,
      "word": "CLOSE"
    },
    {
      "alignedWord": "his",
      "case": "success",
      "end": 8.92,
      "endOffset": 144,
      "phones": [
        {
          "duration": 0.06,
          "phone": "hh_B"
        },
        {
          "duration": 0.03,
          "phone": "ih_I"
        },
        {
          "duration": 0.09,
          "phone": "z_E"
        }
      ],
      "start": 8.74,
      "startOffset": 141,
      "word": "HIS"
    },
    {
      "alignedWord": "eyes",
      "case": "success",
      "end": 9.14,
      "endOffset": 149,
      "phones": [
        {
          "duration": 0.15,
          "phone": "ay_B"
        },
        {
          "duration": 0.07,
          "phone": "z_E"
        }
      ],
      "start": 8.92,
      "startOffset": 145,
      "word": "EYES"
    },
    {
      "alignedWord": "for",
      "case": "success",
      "end": 9.31,
      "endOffset": 153,
      "phones": [
        {
          "duration": 0.08,
          "phone": "f_B"
        },
        {
          "duration": 0.08,
          "phone": "er_E"
        }
      ],
      "start": 9.15,
      "startOffset": 150,
      "word": "FOR"
    },
    {
      "alignedWord": "<unk>",
      "case": "success",
      "end": 9.989999,
      "endOffset": 162,
      "phones": [
        {
          "duration": 0.68,
          "phone": "oov_S"
        }
      ],
      "start": 9.309999,
      "startOffset": 154,
      "word": "VEXATION"
    },
    {
      "alignedWord": "he",
      "case": "success",
      "end": 10.8,
      "endOffset": 165,
      "phones": [
        {
          "duration": 0.08,
          "phone": "hh_B"
        },
        {
          "duration": 0.09,
          "phone": "iy_E"
        }
      ],
      "start": 10.63,
      "startOffset": 163,
      "word": "HE"
    },
    {
      "alignedWord": "got",
      "case": "success",
      "end": 11.0,
      "endOffset": 169,
      "phones": [
        {
          "duration": 0.04,
          "phone": "g_B"
        },
        {
          "duration": 0.1,
          "phone": "aa_I"
        },
        {
          "duration": 0.06,
          "phone": "t_E"
        }
      ],
      "start": 10.8,
      "startOffset": 166,
      "word": "GOT"
    },
    {
      "alignedWord": "up",
      "case": "success",
      "end": 11.14,
      "endOffset": 172,
      "phones": [
        {
          "duration": 0.05,
          "phone": "ah_B"
        },
        {
          "duration": 0.09,
          "phone": "p_E"
        }
      ],
      "start": 11.0,
      "startOffset": 170,
      "word": "UP"
    },
    {
      "alignedWord": "therefore",
      "case": "success",
      "end": 11.669998999999999,
      "endOffset": 182,
      "phones": [
        {
          "duration": 0.07,
          "phone": "dh_B"
        },
        {
          "duration": 0.05,
          "phone": "eh_I"
        },
        {
          "duration": 0.08,
          "phone": "r_I"
        },
        {
          "duration": 0.1,
          "phone": "f_I"
        },
        {
          "duration": 0.13,
          "phone": "ao_I"
        },
        {
          "duration": 0.1,
          "phone": "r_E"
        }
      ],
      "start": 11.139999,
      "startOffset": 173,
      "word": "THEREFORE"
    },
    {
      "alignedWord": "in",
      "case": "success",
      "end": 11.809999000000001,
      "endOffset": 185,
      "phones": [
        {
          "duration": 0.07,
          "phone": "ih_B"
        },
        {
          "duration": 0.06,
          "phone": "n_E"
        }
      ],
      "start": 11.679999,
      "startOffset": 183,
      "word": "IN"
    },
    {
      "alignedWord": "the",
      "case": "success",
      "end": 11.929998999999999,
      "endOffset": 189,
      "phones": [
        {
          "duration": 0.05,
          "phone": "dh_B"
        },
        {
          "duration": 0.07,
          "phone": "ah_E"
        }
      ],
      "start": 11.809999,
      "startOffset": 186,
      "word": "THE"
    },
    {
      "alignedWord": "dead",
      "case": "success",
      "end": 12.129999,
      "endOffset": 194,
      "phones": [
        {
          "duration": 0.11,
          "phone": "d_B"
        },
        {
          "duration": 0.07,
          "phone": "eh_I"
        },
        {
          "duration": 0.02,
          "phone": "d_E"
        }
      ],
      "start": 11.929999,
      "startOffset": 190,
      "word": "DEAD"
    },
    {
      "alignedWord": "of",
      "case": "success",
      "end": 12.280000000000001,
      "endOffset": 197,
      "phones": [
        {
          "duration": 0.06,
          "phone": "ah_B"
        },
        {
          "duration": 0.09,
          "phone": "v_E"
        }
      ],
      "start": 12.13,
      "startOffset": 195,
      "word": "OF"
    },
    {
      "alignedWord": "the",
      "case": "success",
      "end": 12.37,
      "endOffset": 201,
      "phones": [
        {
          "duration": 0.02,
          "phone": "dh_B"
        },
        {
          "duration": 0.07,
          "phone": "ah_E"
        }
      ],
      "start": 12.28,
      "startOffset": 198,
      "word": "THE"
    },
    {
      "alignedWord": "night",
      "case": "success",
      "end": 12.75,
      "endOffset": 207,
      "phones": [
        {
          "duration": 0.08,
          "phone": "n_B"
        },
        {
          "duration": 0.12,
          "phone": "ay_I"
        },
        {
          "duration": 0.18,
          "phone": "t_E"
        }
      ],
      "start": 12.37,
      "startOffset": 202,
      "word": "NIGHT"
    },
    {
      "alignedWord": "stole",
      "case": "success",
      "end": 13.149999000000001,
      "endOffset": 213,
      "phones": [
        {
          "duration": 0.1,
          "phone": "s_B"
        },
        {
          "duration": 0.07,
          "phone": "t_I"
        },
        {
          "duration": 0.08,
          "phone": "ow_I"
        },
        {
          "duration": 0.05,
          "phone": "l_E"
        }
      ],
      "start": 12.849999,
      "startOffset": 208,
      "word": "STOLE"
    },
    {
      "alignedWord": "imperceptibly",
      "case": "success",
      "end": 13.99,
      "endOffset": 227,
      "phones": [
        {
          "duration": 0.07,
          "phone": "ih_B"
        },
        {
          "duration": 0.07,
          "phone": "m_I"
        },
        {
          "duration": 0.07,
          "phone": "p_I"
        },
        {
          "duration": 0.05,
          "phone": "er_I"
        },
        {
          "duration": 0.14,
          "phone": "s_I"
        },
        {
          "duration": 0.07,
          "phone": "eh_I"
        },
        {
          "duration": 0.07,
          "phone": "p_I"
        },
        {
          "duration": 0.04,
          "phone": "t_I"
        },
        {
          "duration": 0.05,
          "phone": "ih_I"
        },
        {
          "duration": 0.07,
          "phone": "b_I"
        },
        {
          "duration": 0.06,
          "phone": "l_I"
        },
        {
          "duration": 0.06,
          "phone": "iy_E"
        }
      ],
      "start": 13.17,
      "startOffset": 214,
      "word": "IMPERCEPTIBLY"
    },
    {
      "alignedWord": "into",
      "case": "success",
      "end": 14.24,
      "endOffset": 232,
      "phones": [
        {
          "duration": 0.03,
          "phone": "ih_B"
        },
        {
          "duration": 0.05,
          "phone": "n_I"
        },
        {
          "duration": 0.06,
          "phone": "t_I"
        },
        {
          "duration": 0.11,
          "phone": "uw_E"
        }
      ],
      "start": 13.99,
      "startOffset": 228,
      "word": "INTO"
    },
    {
      "alignedWord": "<unk>",
      "case": "success",
      "end": 14.700000000000001,
      "endOffset": 240,
      "phones": [
        {
          "duration": 0.46,
          "phone": "oov_S"
        }
      ],
      "start": 14.24,
      "startOffset": 233,
      "word": "ZADIG'S"
    },
    {
      "alignedWord": "apartment",
      "case": "success",
      "end": 15.25,
      "endOffset": 250,
      "phones": [
        {
          "duration": 0.01,
          "phone": "ah_B"
        },
        {
          "duration": 0.07,
          "phone": "p_I"
        },
        {
          "duration": 0.06,
          "phone": "aa_I"
        },
        {
          "duration": 0.05,
          "phone": "r_I"
        },
        {
          "duration": 0.05,
          "phone": "t_I"
        },
        {
          "duration": 0.04,
          "phone": "m_I"
        },
        {
          "duration": 0.06,
          "phone": "ah_I"
        },
        {
          "duration": 0.06,
          "phone": "n_I"
        },
        {
          "duration": 0.15,
          "phone": "t_E"
        }
      ],
      "start": 14.7,
      "startOffset": 241,
      "word": "APARTMENT"
    }
  ]
}