{
  "transcript": "DOWN TO HIS LATE LOSS OF HIS WHITE ARMOUR SEE SAID HE THE FATAL CONSEQUENCE OF BEING A SLUGGARD",
  "words": [
    {
      "alignedWord": "down",
      "case": "success",
      "end": 0.55,
      "endOffset": 4,
      "phones": [
        {
          "duration": 0.09,
          "phone": "d_B"
        },
        {
          "duration": 0.11,
          "phone": "aw_I"
        },
        {
          "duration": 0.08,
          "phone": "n_E"
        }
      ],
      "start": 0.27,
      "startOffset": 0,
      "word": "DOWN"
    },
    {
      "alignedWord": "to",
      "case": "success",
      "end": 0.7200000000000001,
      "endOffset": 7,
      "phones": [
        {
          "duration": 0.08,
          "phone": "t_B"
        },
        {
          "duration": 0.09,
          "phone": "uw_E"
        }
      ],
      "start": 0.55,
      "startOffset": 5,
      "word": "TO"
    },
    {
      "alignedWord": "his",
      "case": "success",
      "end": 0.9299999999999999,
      "endOffset": 11,
      "phones": [
        {
          "duration": 0.06,
          "phone": "hh_B"
        },
        {
          "duration": 0.05,
          "phone": "ih_I"
        },
        {
          "duration": 0.1,
          "phone": "z_E"
        }
      ],
      "start": 0.72,
      "startOffset": 8,
      "word": "HIS"
    },
    {
      "alignedWord": "late",
      "case": "success",
      "end": 1.19,
      "endOffset": 16,
      "phones": [
        {
          "duration": 0.09,
          "phone": "l_B"
        },
        {
          "duration": 0.08,
          "phone": "ey_I"
        },
        {
          "duration": 0.09,
          "phone": "t_E"
        }
      ],
      "start": 0.93,
      "startOffset": 12,
      "word": "LATE"
    },
    {
      "alignedWord": "loss",
      "case": "success",
      "end": 1.69,
      "endOffset": 21,
      "phones": [
        {
          "duration": 0.13,
          "phone": "l_B"
        },
        {
          "duration": 0.2,
          "phone": "ao_I"
        },
        {
          "duration": 0.17,
          "phone": "s_E"
        }
      ],
      "start": 1.19,
      "startOffset": 17,
      "word": "LOSS"
    },
    {
      "alignedWord": "of",
      "case": "success",
      "end": 1.8699999999999999,
      "endOffset": 24,
      "phones": [
        {
          "duration": 0.09,
          "phone": "ah_B"
        },
        {
          "duration": 0.07,
          "phone": "v_E"
        }
      ],
      "start": 1.71,
      "startOffset": 22,
      "word": "OF"
    },
    {
      "alignedWord": "his",
      "case": "success",
      "end": 2.0700000000000003,
      "endOffset": 28,
      "phones": [
        {
          "duration": 0.05,
          "phone": "hh_B"
        },
        {
          "duration": 0.07,
          "phone": "ih_I"
        },
        {
          "duration": 0.08,
          "phone": "z_E"
        }
      ],
      "start": 1.87,
      "startOffset": 25,
      "word": "HIS"
    },
    {
      "alignedWord": "white",
      "case": "success",
      "end": 2.33,
      "endOffset": 34,
      "phones": [
        {
          "duration": 0.1,
          "phone": "w_B"
        },
        {
          "duration": 0.08,
          "phone": "ay_I"
        },
        {
          "duration": 0.08,
          "phone": "t_E"
        }
      ],
      "start": 2.07,
      "startOffset": 29,
      "word": "WHITE"
    },
    {
      "alignedWord": "<unk>",
      "case": "success",
      "end": 2.86,
      "endOffset": 41,
      "phones": [
        {
          "duration": 0.5,
          "phone": "oov_S"
        }
      ],
      "start": 2.36,
      "startOffset": 35,
      "word": "ARMOUR"
    },
    {
      "alignedWord": "see",
      "case": "success",
      "end": 3.86,
      "endOffset": 45,
      "phones": [
        {
          "duration": 0.16,
          "phone": "s_B"
        },
        {
          "duration": 0.22,
          "phone": "iy_E"
        }
      ],
      "start": 3.48,
      "startOffset": 42,
      "word": "SEE"
    },
    {
      "alignedWord": "said",
      "case": "success",
      "end": 4.1,
      "endOffset": 50,
      "phones": [
        {
          "duration": 0.1,
          "phone": "s_B"
        },
        {
          "duration": 0.06,
          "phone": "eh_I"
        },
        {
          "duration": 0.06,
          "phone": "d_E"
        }
      ],
      "start": 3.88,
      "startOffset": 46,
      "word": "SAID"
    },
    {
      "alignedWord": "he",
      "case": "success",
      "end": 4.58,
      "endOffset": 53,
      "phones": [
        {
          "duration": 0.07,
          "phone": "hh_B"
        },
        {
          "duration": 0.4,
          "phone": "iy_E"
        }
      ],
      "start": 4.11,
      "startOffset": 51,
      "word": "HE"
    },
    {
      "alignedWord": "the",
      "case": "success",
      "end": 4.87,
      "endOffset": 57,
      "phones": [
        {
          "duration": 0.07,
          "phone": "dh_B"
        },
        {
          "duration": 0.06,
          "phone": "ah_E"
        }
      ],
      "start": 4.74,
      "startOffset": 54,
      "word": "THE"
    },
    {
      "alignedWord": "fatal",
      "case": "success",
      "end": 5.23,
      "endOffset": 63,
      "phones": [
        {
          "duration": 0.13,
          "phone": "f_B"
        },
        {
          "duration": 0.07,
          "phone": "ey_I"
        },
        {
          "duration": 0.05,
          "phone": "t_I"
        },
        {
          "duration": 0.04,
          "phone": "ah_I"
        },
        {
          "duration": 0.07,
          "phone": "l_E"
        }
      ],
      "start": 4.87,
      "startOffset": 58,
      "word": "FATAL"
    },
    {
      "alignedWord": "consequence",
      "case": "success",
      "end": 5.800000000000001,
      "endOffset": 75,
      "phones": [
        {
          "duration": 0.09,
          "phone": "k_B"
        },
        {
          "duration": 0.09,
          "phone": "aa_I"
        },
        {
          "duration": 0.07,
          "phone": "n_I"
        },
        {
          "duration": 0.04,
          "phone": "s_I"
        },
        {
          "duration": 0.05,
          "phone": "ah_I"
        },
        {
          "duration": 0.05,
          "phone": "k_I"
        },
        {
          "duration": 0.04,
          "phone": "w_I"
        },
        {
          "duration": 0.06,
          "phone": "ah_I"
        },
        {
          "duration": 0.04,
          "phone": "n_I"
        },
        {
          "duration": 0.04,
          "phone": "s_E"
        }
      ],
      "start": 5.23,
      "startOffset": 64,
      "word": "CONSEQUENCE"
    },
    {
      "alignedWord": "of",
      "case": "success",
      "end": 5.92,
      "endOffset": 78,
      "phones": [
        {
          "duration": 0.07,
          "phone": "ah_B"
        },
        {
          "duration": 0.05,
          "phone": "v_E"
        }
      ],
      "start": 5.8,
      "startOffset": 76,
      "word": "OF"
    },
    {
      "alignedWord": "being",
      "case": "success",
      "end": 6.22,
      "endOffset": 84,
      "phones": [
        {
          "duration": 0.1,
          "phone": "b_B"
        },
        {
          "duration": 0.06,
          "phone": "iy_I"
        },
        {
          "duration": 0.06,
          "phone": "ih_I"
        },
        {
          "duration": 0.07,
          "phone": "ng_E"
        }
      ],
      "start": 5.93,
      "startOffset": 79,
      "word": "BEING"
    },
    {
      "alignedWord": "a",
      "case": "success",
      "end": 6.3,
      "endOffset": 86,
      "phones": [
        {
          "duration": 0.08,
          "phone": "ah_S"
        }
      ],
      "start": 6.22,
      "startOffset": 85,
      "word": "A"
    },
    {
      "alignedWord": "<unk>",
      "case": "success",
      "end": 6.92,
      "endOffset": 95,
      "phones": [
        {
          "duration": 0.61,
          "phone": "oov_S"
        }
      ],
      "start": 6.31,
      "startOffset": 87,
      "word": "SLUGGARD"
    }
  ]
}