{
  "transcript": "SO IMBUE HIS DESIGNS AT ONCE WITH EXTENT AND NOVELTY OF BEAUTY AS TO CONVEY THE SENTIMENT OF SPIRITUAL INTERFERENCE IT WILL BE SEEN THAT IN BRINGING ABOUT SUCH RESULT",
  "words": [
    {
      "alignedWord": "so",
      "case": "success",
      "end": 0.5700000000000001,
      "endOffset": 2,
      "phones": [
        {
          "duration": 0.13,
          "phone": "s_B"
        },
        {
          "duration": 0.13,
          "phone": "ow_E"
        }
      ],
      "start": 0.31,
      "startOffset": 0,
      "word": "SO"
    },
    {
      "alignedWord": "<unk>",
      "case": "success",
      "end": 1.02,
      "endOffset": 8,
      "phones": [
        {
          "duration": 0.42,
          "phone": "oov_S"
        }
      ],
      "start": 0.6,
      "startOffset": 3,
      "word": "IMBUE"
    },
    {
      "alignedWord": "his",
      "case": "success",
      "end": 1.27,
      "endOffset": 12,
      "phones": [
        {
          "duration": 0.09,
          "phone": "hh_B"
        },
        {
          "duration": 0.07,
          "phone": "ih_I"
        },
        {
          "duration": 0.08,
          "phone": "z_E"
        }
      ],
      "start": 1.03,
      "startOffset": 9,
      "word": "HIS"
    },
    {
      "alignedWord": "designs",
      "case": "success",
      "end": 1.9300000000000002,
      "endOffset": 20,
      "phones": [
        {
          "duration": 0.07,
          "phone": "d_B"
        },
        {
          "duration": 0.06,
          "phone": "ih_I"
        },
        {
          "duration": 0.15,
          "phone": "z_I"
        },
        {
          "duration": 0.2,
          "phone": "ay_I"
        },
        {
          "duration": 0.08,
          "phone": "n_I"
        },
        {
          "duration": 0.1,
          "phone": "z_E"
        }
      ],
      "start": 1.27,
      "startOffset": 13,
      "word": "DESIGNS"
    },
    {
      "alignedWord": "at",
      "case": "success",
      "end": 2.49,
      "endOffset": 23,
      "phones": [
        {
          "duration": 0.17,
          "phone": "ae_B"
        },
        {
          "duration": 0.1,
          "phone": "t_E"
        }
      ],
      "start": 2.22,
      "startOffset": 21,
      "word": "AT"
    },
    {
      "alignedWord": "once",
      "case": "success",
      "end": 2.93,
      "endOffset": 28,
      "phones": [
        {
          "duration": 0.19,
          "phone": "w_B"
        },
        {
          "duration": 0.11,
          "phone": "ah_I"
        },
        {
          "duration": 0.06,
          "phone": "n_I"
        },
        {
          "duration": 0.07,
          "phone": "s_E"
        }
      ],
      "start": 2.5,
      "startOffset": 24,
      "word": "ONCE"
    },
    {
      "alignedWord": "with",
      "case": "success",
      "end": 3.18,
      "endOffset": 33,
      "phones": [
        {
          "duration": 0.09,
          "phone": "w_B"
        },
        {
          "duration": 0.05,
          "phone": "ih_I"
        },
        {
          "duration": 0.08,
          "phone": "th_E"
        }
      ],
      "start": 2.96,
      "startOffset": 29,
      "word": "WITH"
    },
    {
      "alignedWord": "extent",
      "case": "success",
      "end": 3.71,
      "endOffset": 40,
      "phones": [
        {
          "duration": 0.09,
          "phone": "ih_B"
        },
        {
          "duration": 0.09,
          "phone": "k_I"
        },
        {
          "duration": 0.06,
          "phone": "s_I"
        },
        {
          "duration": 0.09,
          "phone": "t_I"
        },
        {
          "duration": 0.06,
          "phone": "eh_I"
        },
        {
          "duration": 0.05,
          "phone": "n_I"
        },
        {
          "duration": 0.08,
          "phone": "t_E"
        }
      ],
      "start": 3.19,
      "startOffset": 34,
      "word": "EXTENT"
    },
    {
      "alignedWord": "and",
      "case": "success",
      "end": 3.89,
      "endOffset": 44,
      "phones": [
        {
          "duration": 0.06,
          "phone": "ah_B"
        },
        {
          "duration": 0.02,
          "phone": "n_I"
        },
        {
          "duration": 0.09,
          "phone": "d_E"
        }
      ],
      "start": 3.72,
      "startOffset": 41,
      "word": "AND"
    },
    {
      "alignedWord": "novelty",
      "case": "success",
      "end": 4.390000000000001,
      "endOffset": 52,
      "phones": [
        {
          "duration": 0.03,
          "phone": "n_B"
        },
        {
          "duration": 0.12,
          "phone": "aa_I"
        },
        {
          "duration": 0.06,
          "phone": "v_I"
        },
        {
          "duration": 0.05,
          "phone": "ah_I"
        },
        {
          "duration": 0.05,
          "phone": "l_I"
        },
        {
          "duration": 0.11,
          "phone": "t_I"
        },
        {
          "duration": 0.08,
          "phone": "iy_E"
        }
      ],
      "start": 3.89,
      "startOffset": 45,
      "word": "NOVELTY"
    },
    {
      "alignedWord": "of",
      "case": "success",
      "end": 4.54,
      "endOffset": 55,
      "phones": [
        {
          "duration": 0.05,
          "phone": "ah_B"
        },
        {
          "duration": 0.1,
          "phone": "v_E"
        }
      ],
      "start": 4.39,
      "startOffset": 53,
      "word": "OF"
    },
    {
      "alignedWord": "beauty",
      "case": "success",
      "end": 5.11,
      "endOffset": 62,
      "phones": [
        {
          "duration": 0.01,
          "phone": "b_B"
        },
        {
          "duration": 0.11,
          "phone": "y_I"
        },
        {
          "duration": 0.1,
          "phone": "uw_I"
        },
        {
          "duration": 0.06,
          "phone": "t_I"
        },
        {
          "duration": 0.29,
          "phone": "iy_E"
        }
      ],
      "start": 4.54,
      "startOffset": 56,
      "word": "BEAUTY"
    },
    {
      "alignedWord": "as",
      "case": "success",
      "end": 5.8100000000000005,
      "endOffset": 65,
      "phones": [
        {
          "duration": 0.14,
          "phone": "ae_B"
        },
        {
          "duration": 0.06,
          "phone": "z_E"
        }
      ],
      "start": 5.61,
      "startOffset": 63,
      "word": "AS"
    },
    {
      "alignedWord": "to",
      "case": "success",
      "end": 6.0,
      "endOffset": 68,
      "phones": [
        {
          "duration": 0.09,
          "phone": "t_B"
        },
        {
          "duration": 0.1,
          "phone": "uw_E"
        }
      ],
      "start": 5.81,
      "startOffset": 66,
      "word": "TO"
    },
    {
      "alignedWord": "convey",
      "case": "success",
      "end": 6.52,
      "endOffset": 75,
      "phones": [
        {
          "duration": 0.05,
          "phone": "k_B"
        },
        {
          "duration": 0.07,
          "phone": "ah_I"
        },
        {
          "duration": 0.08,
          "phone": "n_I"
        },
        {
          "duration": 0.12,
          "phone": "v_I"
        },
        {
          "duration": 0.2,
          "phone": "ey_E"
        }
      ],
      "start": 6.0,
      "startOffset": 69,
      "word": "CONVEY"
    },
    {
      "alignedWord": "the",
      "case": "success",
      "end": 6.68,
      "endOffset": 79,
      "phones": [
        {
          "duration": 0.08,
          "phone": "dh_B"
        },
        {
          "duration": 0.08,
          "phone": "ah_E"
        }
      ],
      "start": 6.52,
      "startOffset": 76,
      "word": "THE"
    },
    {
      "alignedWord": "sentiment",
      "case": "success",
      "end": 7.35,
      "endOffset": 89,
      "phones": [
        {
          "duration": 0.1,
          "phone": "s_B"
        },
        {
          "duration": 0.1,
          "phone": "eh_I"
        },
        {
          "duration": 0.07,
          "phone": "n_I"
        },
        {
          "duration": 0.07,
          "phone": "t_I"
        },
        {
          "duration": 0.07,
          "phone": "ah_I"
        },
        {
          "duration": 0.06,
          "phone": "m_I"
        },
        {
          "duration": 0.11,
          "phone": "ah_I"
        },
        {
          "duration": 0.04,
          "phone": "n_I"
        },
        {
          "duration": 0.05,
          "phone": "t_E"
        }
      ],
      "start": 6.68,
      "startOffset": 80,
      "word": "SENTIMENT"
    },
    {
      "alignedWord": "of",
      "case": "success",
      "end": 7.53,
      "endOffset": 92,
      "phones": [
        {
          "duration": 0.08,
          "phone": "ah_B"
        },
        {
          "duration": 0.08,
          "phone": "v_E"
        }
      ],
      "start": 7.37,
      "startOffset": 90,
      "word": "OF"
    },
    {
      "alignedWord": "spiritual",
      "case": "success",
      "end": 8.34,
      "endOffset": 102,
      "phones": [
        {
          "duration": 0.1,
          "phone": "s_B"
        },
        {
          "duration": 0.09,
          "phone": "p_I"
        },
        {
          "duration": 0.12,
          "phone": "ih_I"
        },
        {
          "duration": 0.07,
          "phone": "r_I"
        },
        {
          "duration": 0.08,
          "phone": "ih_I"
        },
        {
          "duration": 0.12,
          "phone": "ch_I"
        },
        {
          "duration": 0.04,
          "phone": "w_I"
        },
        {
          "duration": 0.07,
          "phone": "ah_I"
        },
        {
          "duration": 0.12,
          "phone": "l_E"
        }
      ],
      "start": 7.53,
      "startOffset": 93,
      "word": "SPIRITUAL"
    },
    {
      "alignedWord": "interference",
      "case": "success",
      "end": 9.379999999999999,
      "endOffset": 115,
      "phones": [
        {
          "duration": 0.09,
          "phone": "ih_B"
        },
        {
          "duration": 0.1,
          "phone": "n_I"
        },
        {
          "duration": 0.11,
          "phone": "t_I"
        },
        {
          "duration": 0.07,
          "phone": "er_I"
        },
        {
          "duration": 0.1,
          "phone": "f_I"
        },
        {
          "duration": 0.11,
          "phone": "ih_I"
        },
        {
          "duration": 0.12,
          "phone": "r_I"
        },
        {
          "duration": 0.06,
          "phone": "ah_I"
        },
        {
          "duration": 0.09,
          "phone": "n_I"
        },
        {
          "duration": 0.19,
          "phone": "s_E"
        }
      ],
      "start": 8.34,
      "startOffset": 103,
      "word": "INTERFERENCE"
    },
    {
      "alignedWord": "it",
      "case": "success",
      "end": 11.43,
      "endOffset": 118,
      "phones": [
        {
          "duration": 0.08,
          "phone": "ih_B"
        },
        {
          "duration": 0.06,
          "phone": "t_E"
        }
      ],
      "start": 11.29,
      "startOffset": 116,
      "word": "IT"
    },
    {
      "alignedWord": "will",
      "case": "success",
      "end": 11.589999,
      "endOffset": 123,
      "phones": [
        {
          "duration": 0.03,
          "phone": "w_B"
        },
        {
          "duration": 0.07,
          "phone": "ih_I"
        },
        {
          "duration": 0.06,
          "phone": "l_E"
        }
      ],
      "start": 11.429999,
      "startOffset": 119,
      "word": "WILL"
    },
    {
      "alignedWord": "be",
      "case": "success",
      "end": 11.75,
      "endOffset": 126,
      "phones": [
        {
          "duration": 0.06,
          "phone": "b_B"
        },
        {
          "duration": 0.1,
          "phone": "iy_E"
        }
      ],
      "start": 11.59,
      "startOffset": 124,
      "word": "BE"
    },
    {
      "alignedWord": "seen",
      "case": "success",
      "end": 12.12,
      "endOffset": 131,
      "phones": [
        {
          "duration": 0.13,
          "phone": "s_B"
        },
        {
          "duration": 0.15,
          "phone": "iy_I"
        },
        {
          "duration": 0.09,
          "phone": "n_E"
        }
      ],
      "start": 11.75,
      "startOffset": 127,
      "word": "SEEN"
    },
    {
      "alignedWord": "that",
      "case": "success",
      "end": 12.559999999999999,
      "endOffset": 136,
      "phones": [
        {
          "duration": 0.08,
          "phone": "dh_B"
        },
        {
          "duration": 0.2,
          "phone": "ae_I"
        },
        {
          "duration": 0.16,
          "phone": "t_E"
        }
      ],
      "start": 12.12,
      "startOffset": 132,
      "word": "THAT"
    },
    {
      "alignedWord": "in",
      "case": "success",
      "end": 13.02,
      "endOffset": 139,
      "phones": [
        {
          "duration": 0.13,
          "phone": "ih_B"
        },
        {
          "duration": 0.11,
          "phone": "n_E"
        }
      ],
      "start": 12.78,
      "startOffset": 137,
      "word": "IN"
    },
    {
      "alignedWord": "bringing",
      "case": "success",
      "end": 13.43,
      "endOffset": 148,
      "phones": [
        {
          "duration": 0.06,
          "phone": "b_B"
        },
        {
          "duration": 0.02,
          "phone": "r_I"
        },
        {
          "duration": 0.08,
          "phone": "ih_I"
        },
        {
          "duration": 0.07,
          "phone": "ng_I"
        },
        {
          "duration": 0.1,
          "phone": "ih_I"
        },
        {
          "duration": 0.08,
          "phone": "ng_E"
        }
      ],
      "start": 13.02,
      "startOffset": 140,
      "word": "BRINGING"
    },
    {
      "alignedWord": "about",
      "case": "success",
      "end": 13.789999,
      "endOffset": 154,
      "phones": [
        {
          "duration": 0.02,
          "phone": "ah_B"
        },
        {
          "duration": 0.12,
          "phone": "b_I"
        },
        {
          "duration": 0.11,
          "phone": "aw_I"
        },
        {
          "duration": 0.11,
          "phone": "t_E"
        }
      ],
      "start": 13.429999,
      "startOffset": 149,
      "word": "ABOUT"
    },
    {
      "alignedWord": "such",
      "case": "success",
      "end": 14.12,
      "endOffset": 159,
      "phones": [
        {
          "duration": 0.11,
          "phone": "s_B"
        },
        {
          "duration": 0.11,
          "phone": "ah_I"
        },
        {
          "duration": 0.11,
          "phone": "ch_E"
        }
      ],
      "start": 13.79,
      "startOffset": 155,
      "word": "SUCH"
    },
    {
      "alignedWord": "result",
      "case": "success",
      "end": 14.76,
      "endOffset": 166,
      "phones": [
        {
          "duration": 0.03,
          "phone": "r_B"
        },
        {
          "duration": 0.12,
          "phone": "iy_I"
        },
        {
          "duration": 0.01,
          "phone": "z_I"
        },
        {
          "duration": 0.14,
          "phone": "ah_I"
        },
        {
          "duration": 0.14,
          "phone": "l_I"
        },
        {
          "duration": 0.2,
          "phone": "t_E"
        }
      ],
      "start": 14.12,
      "startOffset": 160,
      "word": "RESULT"
    }
  ]
}