{
  "transcript": "BUT SUCH A FRIEND MUST BE EQUAL NOT ONLY IN MIND BUT IN PURSE AND WHERE CAN HE EVER FIND SUCH A MAN AS THAT BUT YOU MAY GET BETTER PREFERMENT AH NO AND IF HE DID WE ARE HARDLY FIT FOR IT NOW IF I COULD THINK THAT I COULD EDUCATE MY CHILDREN",
  "words": [
    {
      "alignedWord": "but",
      "case": "success",
      "end": 0.42000000000000004,
      "endOffset": 3,
      "phones": [
        {
          "duration": 0.1,
          "phone": "b_B"
        },
        {
          "duration": 0.03,
          "phone": "ah_I"
        },
        {
          "duration": 0.07,
          "phone": "t_E"
        }
      ],
      "start": 0.22,
      "startOffset": 0,
      "word": "BUT"
    },
    {
      "alignedWord": "such",
      "case": "success",
      "end": 0.65,
      "endOffset": 8,
      "phones": [
        {
          "duration": 0.06,
          "phone": "s_B"
        },
        {
          "duration": 0.09,
          "phone": "ah_I"
        },
        {
          "duration": 0.08,
          "phone": "ch_E"
        }
      ],
      "start": 0.42,
      "startOffset": 4,
      "word": "SUCH"
    },
    {
      "alignedWord": "a",
      "case": "success",
      "end": 0.71,
      "endOffset": 10,
      "phones": [
        {
          "duration": 0.06,
          "phone": "ah_S"
        }
      ],
      "start": 0.65,
      "startOffset": 9,
      "word": "A"
    },
    {
      "alignedWord": "friend",
      "case": "success",
      "end": 0.94,
      "endOffset": 17,
      "phones": [
        {
          "duration": 0.06,
          "phone": "f_B"
        },
        {
          "duration": 0.05,
          "phone": "r_I"
        },
        {
          "duration": 0.05,
          "phone": "eh_I"
        },
        {
          "duration": 0.05,
          "phone": "n_I"
        },
        {
          "duration": 0.02,
          "phone": "d_E"
        }
      ],
      "start": 0.71,
      "startOffset": 11,
      "word": "FRIEND"
    },
    {
      "alignedWord": "must",
      "case": "success",
      "end": 1.13,
      "endOffset": 22,
      "phones": [
        {
          "duration": 0.05,
          "phone": "m_B"
        },
        {
          "duration": 0.06,
          "phone": "ah_I"
        },
        {
          "duration": 0.04,
          "phone": "s_I"
        },
        {
          "duration": 0.04,
          "phone": "t_E"
        }
      ],
      "start": 0.94,
      "startOffset": 18,
      "word": "MUST"
    },
    {
      "alignedWord": "be",
      "case": "success",
      "end": 1.2599999999999998,
      "endOffset": 25,
      "phones": [
        {
          "duration": 0.06,
          "phone": "b_B"
        },
        {
          "duration": 0.07,
          "phone": "iy_E"
        }
      ],
      "start": 1.13,
      "startOffset": 23,
      "word": "BE"
    },
    {
      "alignedWord": "equal",
      "case": "success",
      "end": 1.71,
      "endOffset": 31,
      "phones": [
        {
          "duration": 0.12,
          "phone": "iy_B"
        },
        {
          "duration": 0.1,
          "phone": "k_I"
        },
        {
          "duration": 0.04,
          "phone": "w_I"
        },
        {
          "duration": 0.04,
          "phone": "ah_I"
        },
        {
          "duration": 0.14,
          "phone": "l_E"
        }
      ],
      "start": 1.27,
      "startOffset": 26,
      "word": "EQUAL"
    },
    {
      "alignedWord": "not",
      "case": "success",
      "end": 2.01,
      "endOffset": 35,
      "phones": [
        {
          "duration": 0.1,
          "phone": "n_B"
        },
        {
          "duration": 0.08,
          "phone": "aa_I"
        },
        {
          "duration": 0.09,
          "phone": "t_E"
        }
      ],
      "start": 1.74,
      "startOffset": 32,
      "word": "NOT"
    },
    {
      "alignedWord": "only",
      "case": "success",
      "end": 2.2699999999999996,
      "endOffset": 40,
      "phones": [
        {
          "duration": 0.07,
          "phone": "ow_B"
        },
        {
          "duration": 0.08,
          "phone": "n_I"
        },
        {
          "duration": 0.04,
          "phone": "l_I"
        },
        {
          "duration": 0.07,
          "phone": "iy_E"
        }
      ],
      "start": 2.01,
      "startOffset": 36,
      "word": "ONLY"
    },
    {
      "alignedWord": "in",
      "case": "success",
      "end": 2.4,
      "endOffset": 43,
      "phones": [
        {
          "duration": 0.06,
          "phone": "ih_B"
        },
        {
          "duration": 0.07,
          "phone": "n_E"
        }
      ],
      "start": 2.27,
      "startOffset": 41,
      "word": "IN"
    },
    {
      "alignedWord": "mind",
      "case": "success",
      "end": 2.69,
      "endOffset": 48,
      "phones": [
        {
          "duration": 0.08,
          "phone": "m_B"
        },
        {
          "duration": 0.12,
          "phone": "ay_I"
        },
        {
          "duration": 0.04,
          "phone": "n_I"
        },
        {
          "duration": 0.05,
          "phone": "d_E"
        }
      ],
      "start": 2.4,
      "startOffset": 44,
      "word": "MIND"
    },
    {
      "alignedWord": "but",
      "case": "success",
      "end": 2.83,
      "endOffset": 52,
      "phones": [
        {
          "duration": 0.03,
          "phone": "b_B"
        },
        {
          "duration": 0.06,
          "phone": "ah_I"
        },
        {
          "duration": 0.05,
          "phone": "t_E"
        }
      ],
      "start": 2.69,
      "startOffset": 49,
      "word": "BUT"
    },
    {
      "alignedWord": "in",
      "case": "success",
      "end": 2.97,
      "endOffset": 55,
      "phones": [
        {
          "duration": 0.06,
          "phone": "ih_B"
        },
        {
          "duration": 0.08,
          "phone": "n_E"
        }
      ],
      "start": 2.83,
      "startOffset": 53,
      "word": "IN"
    },
    {
      "alignedWord": "purse",
      "case": "success",
      "end": 3.4200000000000004,
      "endOffset": 61,
      "phones": [
        {
          "duration": 0.07,
          "phone": "p_B"
        },
        {
          "duration": 0.13,
          "phone": "er_I"
        },
        {
          "duration": 0.25,
          "phone": "s_E"
        }
      ],
      "start": 2.97,
      "startOffset": 56,
      "word": "PURSE"
    },
    {
      "alignedWord": "and",
      "case": "success",
      "end": 4.04,
      "endOffset": 65,
      "phones": [
        {
          "duration": 0.07,
          "phone": "ae_B"
        },
        {
          "duration": 0.03,
          "phone": "n_I"
        },
        {
          "duration": 0.07,
          "phone": "d_E"
        }
      ],
      "start": 3.87,
      "startOffset": 62,
      "word": "AND"
    },
    {
      "alignedWord": "where",
      "case": "success",
      "end": 4.21,
      "endOffset": 71,
      "phones": [
        {
          "duration": 0.01,
          "phone": "w_B"
        },
        {
          "duration": 0.07,
          "phone": "eh_I"
        },
        {
          "duration": 0.09,
          "phone": "r_E"
        }
      ],
      "start": 4.04,
      "startOffset": 66,
      "word": "WHERE"
    },
    {
      "alignedWord": "can",
      "case": "success",
      "end": 4.34,
      "endOffset": 75,
      "phones": [
        {
          "duration": 0.04,
          "phone": "k_B"
        },
        {
          "duration": 0.05,
          "phone": "ah_I"
        },
        {
          "duration": 0.04,
          "phone": "n_E"
        }
      ],
      "start": 4.21,
      "startOffset": 72,
      "word": "CAN"
    },
    {
      "alignedWord": "he",
      "case": "success",
      "end": 4.43,
      "endOffset": 78,
      "phones": [
        {
          "duration": 0.03,
          "phone": "hh_B"
        },
        {
          "duration": 0.06,
          "phone": "iy_E"
        }
      ],
      "start": 4.34,
      "startOffset": 76,
      "word": "HE"
    },
    {
      "alignedWord": "ever",
      "case": "success",
      "end": 4.64,
      "endOffset": 83,
      "phones": [
        {
          "duration": 0.07,
          "phone": "eh_B"
        },
        {
          "duration": 0.07,
          "phone": "v_I"
        },
        {
          "duration": 0.07,
          "phone": "er_E"
        }
      ],
      "start": 4.43,
      "startOffset": 79,
      "word": "EVER"
    },
    {
      "alignedWord": "find",
      "case": "success",
      "end": 4.93,
      "endOffset": 88,
      "phones": [
        {
          "duration": 0.1,
          "phone": "f_B"
        },
        {
          "duration": 0.08,
          "phone": "ay_I"
        },
        {
          "duration": 0.04,
          "phone": "n_I"
        },
        {
          "duration": 0.07,
          "phone": "d_E"
        }
      ],
      "start": 4.64,
      "startOffset": 84,
      "word": "FIND"
    },
    {
      "alignedWord": "such",
      "case": "success",
      "end": 5.13,
      "endOffset": 93,
      "phones": [
        {
          "duration": 0.03,
          "phone": "s_B"
        },
        {
          "duration": 0.09,
          "phone": "ah_I"
        },
        {
          "duration": 0.08,
          "phone": "ch_E"
        }
      ],
      "start": 4.93,
      "startOffset": 89,
      "word": "SUCH"
    },
    {
      "alignedWord": "a",
      "case": "success",
      "end": 5.18,
      "endOffset": 95,
      "phones": [
        {
          "duration": 0.05,
          "phone": "ah_S"
        }
      ],
      "start": 5.13,
      "startOffset": 94,
      "word": "A"
    },
    {
      "alignedWord": "man",
      "case": "success",
      "end": 5.39,
      "endOffset": 99,
      "phones": [
        {
          "duration": 0.07,
          "phone": "m_B"
        },
        {
          "duration": 0.09,
          "phone": "ae_I"
        },
        {
          "duration": 0.05,
          "phone": "n_E"
        }
      ],
      "start": 5.18,
      "startOffset": 96,
      "word": "MAN"
    },
    {
      "alignedWord": "as",
      "case": "success",
      "end": 5.52,
      "endOffset": 102,
      "phones": [
        {
          "duration": 0.06,
          "phone": "eh_B"
        },
        {
          "duration": 0.07,
          "phone": "z_E"
        }
      ],
      "start": 5.39,
      "startOffset": 100,
      "word": "AS"
    },
    {
      "alignedWord": "that",
      "case": "success",
      "end": 5.9399999999999995,
      "endOffset": 107,
      "phones": [
        {
          "duration": 0.07,
          "phone": "dh_B"
        },
        {
          "duration": 0.06,
          "phone": "ae_I"
        },
        {
          "duration": 0.29,
          "phone": "t_E"
        }
      ],
      "start": 5.52,
      "startOffset": 103,
      "word": "THAT"
    },
    {
      "alignedWord": "but",
      "case": "success",
      "end": 7.04,
      "endOffset": 111,
      "phones": [
        {
          "duration": 0.07,
          "phone": "b_B"
        },
        {
          "duration": 0.05,
          "phone": "ah_I"
        },
        {
          "duration": 0.08,
          "phone": "t_E"
        }
      ],
      "start": 6.84,
      "startOffset": 108,
      "word": "BUT"
    },
    {
      "alignedWord": "you",
      "case": "success",
      "end": 7.16,
      "endOffset": 115,
      "phones": [
        {
          "duration": 0.04,
          "phone": "y_B"
        },
        {
          "duration": 0.08,
          "phone": "uw_E"
        }
      ],
      "start": 7.04,
      "startOffset": 112,
      "word": "YOU"
    },
    {
      "alignedWord": "may",
      "case": "success",
      "end": 7.32,
      "endOffset": 119,
      "phones": [
        {
          "duration": 0.07,
          "phone": "m_B"
        },
        {
          "duration": 0.09,
          "phone": "ey_E"
        }
      ],
      "start": 7.16,
      "startOffset": 116,
      "word": "MAY"
    },
    {
      "alignedWord": "get",
      "case": "success",
      "end": 7.510000000000001,
      "endOffset": 123,
      "phones": [
        {
          "duration": 0.07,
          "phone": "g_B"
        },
        {
          "duration": 0.06,
          "phone": "eh_I"
        },
        {
          "duration": 0.06,
          "phone": "t_E"
        }
      ],
      "start": 7.32,
      "startOffset": 120,
      "word": "GET"
    },
    {
      "alignedWord": "better",
      "case": "success",
      "end": 7.77,
      "endOffset": 130,
      "phones": [
        {
          "duration": 0.05,
          "phone": "b_B"
        },
        {
          "duration": 0.06,
          "phone": "eh_I"
        },
        {
          "duration": 0.06,
          "phone": "t_I"
        },
        {
          "duration": 0.09,
          "phone": "er_E"
        }
      ],
      "start": 7.51,
      "startOffset": 124,
      "word": "BETTER"
    },
    {
      "alignedWord": "<unk>",
      "case": "success",
      "end": 8.45,
      "endOffset": 141,
      "phones": [
        {
          "duration": 0.68,
          "phone": "oov_S"
        }
      ],
      "start": 7.77,
      "startOffset": 131,
      "word": "PREFERMENT"
    },
    {
      "alignedWord": "ah",
      "case": "success",
      "end": 9.299999999999999,
      "endOffset": 144,
      "phones": [
        {
          "duration": 0.26,
          "phone": "aa_S"
        }
      ],
      "start": 9.04,
      "startOffset": 142,
      "word": "AH"
    },
    {
      "alignedWord": "no",
      "case": "success",
      "end": 9.73,
      "endOffset": 147,
      "phones": [
        {
          "duration": 0.13,
          "phone": "n_B"
        },
        {
          "duration": 0.3,
          "phone": "ow_E"
        }
      ],
      "start": 9.3,
      "startOffset": 145,
      "word": "NO"
    },
    {
      "alignedWord": "and",
      "case": "success",
      "end": 10.4,
      "endOffset": 151,
      "phones": [
        {
          "duration": 0.08,
          "phone": "ae_B"
        },
        {
          "duration": 0.06,
          "phone": "n_I"
        },
        {
          "duration": 0.03,
          "phone": "d_E"
        }
      ],
      "start": 10.23,
      "startOffset": 148,
      "word": "AND"
    },
    {
      "alignedWord": "if",
      "case": "success",
      "end": 10.530000000000001,
      "endOffset": 154,
      "phones": [
        {
          "duration": 0.07,
          "phone": "ih_B"
        },
        {
          "duration": 0.06,
          "phone": "f_E"
        }
      ],
      "start": 10.4,
      "startOffset": 152,
      "word": "IF"
    },
    {
      "alignedWord": "he",
      "case": "success",
      "end": 10.639999999999999,
      "endOffset": 157,
      "phones": [
        {
          "duration": 0.04,
          "phone": "hh_B"
        },
        {
          "duration": 0.07,
          "phone": "iy_E"
        }
      ],
      "start": 10.53,
      "startOffset": 155,
      "word": "HE"
    },
    {
      "alignedWord": "did",
      "case": "success",
      "end": 10.959999,
      "endOffset": 161,
      "phones": [
        {
          "duration": 0.06,
          "phone": "d_B"
        },
        {
          "duration": 0.11,
          "phone": "ih_I"
        },
        {
          "duration": 0.15,
          "phone": "d_E"
        }
      ],
      "start": 10.639999,
      "startOffset": 158,
      "word": "DID"
    },
    {
      "alignedWord": "we",
      "case": "success",
      "end": 11.37,
      "endOffset": 164,
      "phones": [
        {
          "duration": 0.1,
          "phone": "w_B"
        },
        {
          "duration": 0.08,
          "phone": "iy_E"
        }
      ],
      "start": 11.19,
      "startOffset": 162,
      "word": "WE"
    },
    {
      "alignedWord": "are",
      "case": "success",
      "end": 11.43,
      "endOffset": 168,
      "phones": [
        {
          "duration": 0.06,
          "phone": "er_S"
        }
      ],
      "start": 11.37,
      "startOffset": 165,
      "word": "ARE"
    },
    {
      "alignedWord": "hardly",
      "case": "success",
      "end": 11.769999,
      "endOffset": 175,
      "phones": [
        {
          "duration": 0.05,
          "phone": "hh_B"
        },
        {
          "duration": 0.06,
          "phone": "aa_I"
        },
        {
          "duration": 0.05,
          "phone": "r_I"
        },
        {
          "duration": 0.08,
          "phone": "d_I"
        },
        {
          "duration": 0.03,
          "phone": "l_I"
        },
        {
          "duration": 0.07,
          "phone": "iy_E"
        }
      ],
      "start": 11.429999,
      "startOffset": 169,
      "word": "HARDLY"
    },
    {
      "alignedWord": "fit",
      "case": "success",
      "end": 11.99,
      "endOffset": 179,
      "phones": [
        {
          "duration": 0.08,
          "phone": "f_B"
        },
        {
          "duration": 0.07,
          "phone": "ih_I"
        },
        {
          "duration": 0.07,
          "phone": "t_E"
        }
      ],
      "start": 11.77,
      "startOffset": 176,
      "word": "FIT"
    },
    {
      "alignedWord": "for",
      "case": "success",
      "end": 12.21,
      "endOffset": 183,
      "phones": [
        {
          "duration": 0.07,
          "phone": "f_B"
        },
        {
          "duration": 0.06,
          "phone": "r_I"
        },
        {
          "duration": 0.09,
          "phone": "er_E"
        }
      ],
      "start": 11.99,
      "startOffset": 180,
      "word": "FOR"
    },
    {
      "alignedWord": "it",
      "case": "success",
      "end": 12.289999,
      "endOffset": 186,
      "phones": [
        {
          "duration": 0.01,
          "phone": "ih_B"
        },
        {
          "duration": 0.06,
          "phone": "t_E"
        }
      ],
      "start": 12.219999,
      "startOffset": 184,
      "word": "IT"
    },
    {
      "alignedWord": "now",
      "case": "success",
      "end": 12.629999999999999,
      "endOffset": 190,
      "phones": [
        {
          "duration": 0.07,
          "phone": "n_B"
        },
        {
          "duration": 0.27,
          "phone": "aw_E"
        }
      ],
      "start": 12.29,
      "startOffset": 187,
      "word": "NOW"
    },
    {
      "alignedWord": "if",
      "case": "success",
      "end": 13.6,
      "endOffset": 193,
      "phones": [
        {
          "duration": 0.09,
          "phone": "ih_B"
        },
        {
          "duration": 0.07,
          "phone": "f_E"
        }
      ],
      "start": 13.44,
      "startOffset": 191,
      "word": "IF"
    },
    {
      "alignedWord": "i",
      "case": "success",
      "end": 13.679999,
      "endOffset": 195,
      "phones": [
        {
          "duration": 0.08,
          "phone": "ay_S"
        }
      ],
      "start": 13.599999,
      "startOffset": 194,
      "word": "I"
    },
    {
      "alignedWord": "could",
      "case": "success",
      "end": 13.859999,
      "endOffset": 201,
      "phones": [
        {
          "duration": 0.07,
          "phone": "k_B"
        },
        {
          "duration": 0.05,
          "phone": "uh_I"
        },
        {
          "duration": 0.06,
          "phone": "d_E"
        }
      ],
      "start": 13.679999,
      "startOffset": 196,
      "word": "COULD"
    },
    {
      "alignedWord": "think",
      "case": "success",
      "end": 14.08,
      "endOffset": 207,
      "phones": [
        {
          "duration": 0.06,
          "phone": "th_B"
        },
        {
          "duration": 0.04,
          "phone": "ih_I"
        },
        {
          "duration": 0.06,
          "phone": "ng_I"
        },
        {
          "duration": 0.06,
          "phone": "k_E"
        }
      ],
      "start": 13.86,
      "startOffset": 202,
      "word": "THINK"
    },
    {
      "alignedWord": "that",
      "case": "success",
      "end": 14.22,
      "endOffset": 212,
      "phones": [
        {
          "duration": 0.01,
          "phone": "dh_B"
        },
        {
          "duration": 0.07,
          "phone": "ah_I"
        },
        {
          "duration": 0.06,
          "phone": "t_E"
        }
      ],
      "start": 14.08,
      "startOffset": 208,
      "word": "THAT"
    },
    {
      "alignedWord": "i",
      "case": "success",
      "end": 14.289999,
      "endOffset": 214,
      "phones": [
        {
          "duration": 0.07,
          "phone": "ay_S"
        }
      ],
      "start": 14.219999,
      "startOffset": 213,
      "word": "I"
    },
    {
      "alignedWord": "could",
      "case": "success",
      "end": 14.45,
      "endOffset": 220,
      "phones": [
        {
          "duration": 0.07,
          "phone": "k_B"
        },
        {
          "duration": 0.03,
          "phone": "uh_I"
        },
        {
          "duration": 0.06,
          "phone": "d_E"
        }
      ],
      "start": 14.29,
      "startOffset": 215,
      "word": "COULD"
    },
    {
      "alignedWord": "educate",
      "case": "success",
      "end": 14.819999999999999,
      "endOffset": 228,
      "phones": [
        {
          "duration": 0.05,
          "phone": "eh_B"
        },
        {
          "duration": 0.1,
          "phone": "jh_I"
        },
        {
          "duration": 0.02,
          "phone": "ah_I"
        },
        {
          "duration": 0.11,
          "phone": "k_I"
        },
        {
          "duration": 0.05,
          "phone": "ey_I"
        },
        {
          "duration": 0.04,
          "phone": "t_E"
        }
      ],
      "start": 14.45,
      "startOffset": 221,
      "word": "EDUCATE"
    },
    {
      "alignedWord": "my",
      "case": "success",
      "end": 14.989999000000001,
      "endOffset": 231,
      "phones": [
        {
          "duration": 0.06,
          "phone": "m_B"
        },
        {
          "duration": 0.09,
          "phone": "ay_E"
        }
      ],
      "start": 14.839999,
      "startOffset": 229,
      "word": "MY"
    },
    {
      "alignedWord": "children",
      "case": "success",
      "end": 15.48,
      "endOffset": 240,
      "phones": [
        {
          "duration": 0.1,
          "phone": "ch_B"
        },
        {
          "duration": 0.09,
          "phone": "ih_I"
        },
        {
          "duration": 0.07,
          "phone": "l_I"
        },
        {
          "duration": 0.04,
          "phone": "d_I"
        },
        {
          "duration": 0.06,
          "phone": "r_I"
        },
        {
          "duration": 0.03,
          "phone": "ah_I"
        },
        {
          "duration": 0.1,
          "phone": "n_E"
        }
      ],
      "start": 14.99,
      "startOffset": 232,
      "word": "CHILDREN"
    }
  ]
}