{
  "transcript": "BUT OUR CHILDREN ARE HARDLY USED TO SUCH THINGS",
  "words": [
    {
      "alignedWord": "but",
      "case": "success",
      "end": 0.30000000000000004,
      "endOffset": 3,
      "phones": [
        {
          "duration": 0.07,
          "phone": "b_B"
        },
        {
          "duration": 0.06,
          "phone": "ah_I"
        },
        {
          "duration": 0.03,
          "phone": "t_E"
        }
      ],
      "start": 0.14,
      "startOffset": 0,
      "word": "BUT"
    },
    {
      "alignedWord": "our",
      "case": "success",
      "end": 0.38,
      "endOffset": 7,
      "phones": [
        {
          "duration": 0.05,
          "phone": "aa_B"
        },
        {
          "duration": 0.03,
          "phone": "r_E"
        }
      ],
      "start": 0.3,
      "startOffset": 4,
      "word": "OUR"
    },
    {
      "alignedWord": "children",
      "case": "success",
      "end": 0.8300000000000001,
      "endOffset": 16,
      "phones": [
        {
          "duration": 0.12,
          "phone": "ch_B"
        },
        {
          "duration": 0.07,
          "phone": "ih_I"
        },
        {
          "duration": 0.06,
          "phone": "l_I"
        },
        {
          "duration": 0.03,
          "phone": "d_I"
        },
        {
          "duration": 0.06,
          "phone": "r_I"
        },
        {
          "duration": 0.03,
          "phone": "ah_I"
        },
        {
          "duration": 0.08,
          "phone": "n_E"
        }
      ],
      "start": 0.38,
      "startOffset": 8,
      "word": "CHILDREN"
    },
    {
      "alignedWord": "are",
      "case": "success",
      "end": 0.87,
      "endOffset": 20,
      "phones": [
        {
          "duration": 0.04,
          "phone": "er_S"
        }
      ],
      "start": 0.83,
      "startOffset": 17,
      "word": "ARE"
    },
    {
      "alignedWord": "hardly",
      "case": "success",
      "end": 1.26,
      "endOffset": 27,
      "phones": [
        {
          "duration": 0.1,
          "phone": "hh_B"
        },
        {
          "duration": 0.06,
          "phone": "aa_I"
        },
        {
          "duration": 0.06,
          "phone": "r_I"
        },
        {
          "duration": 0.07,
          "phone": "d_I"
        },
        {
          "duration": 0.05,
          "phone": "l_I"
        },
        {
          "duration": 0.04,
          "phone": "iy_E"
        }
      ],
      "start": 0.88,
      "startOffset": 21,
      "word": "HARDLY"
    },
    {
      "alignedWord": "used",
      "case": "success",
      "end": 1.5,
      "endOffset": 32,
      "phones": [
        {
          "duration": 0.08,
          "phone": "y_B"
        },
        {
          "duration": 0.08,
          "phone": "uw_I"
        },
        {
          "duration": 0.07,
          "phone": "z_I"
        },
        {
          "duration": 0.01,
          "phone": "d_E"
        }
      ],
      "start": 1.26,
      "startOffset": 28,
      "word": "USED"
    },
    {
      "alignedWord": "to",
      "case": "success",
      "end": 1.6400000000000001,
      "endOffset": 35,
      "phones": [
        {
          "duration": 0.07,
          "phone": "t_B"
        },
        {
          "duration": 0.06,
          "phone": "ih_E"
        }
      ],
      "start": 1.51,
      "startOffset": 33,
      "word": "TO"
    },
    {
      "alignedWord": "such",
      "case": "success",
      "end": 1.92,
      "endOffset": 40,
      "phones": [
        {
          "duration": 0.05,
          "phone": "s_B"
        },
        {
          "duration": 0.1,
          "phone": "ah_I"
        },
        {
          "duration": 0.13,
          "phone": "ch_E"
        }
      ],
      "start": 1.64,
      "startOffset": 36,
      "word": "SUCH"
    },
    {
      "alignedWord": "things",
      "case": "success",
      "end": 2.38,
      "endOffset": 47,
      "phones": [
        {
          "duration": 0.08,
          "phone": "th_B"
        },
        {
          "duration": 0.06,
          "phone": "ih_I"
        },
        {
          "duration": 0.07,
          "phone": "ng_I"
        },
        {
          "duration": 0.25,
          "phone": "z_E"
        }
      ],
      "start": 1.92,
      "startOffset": 41,
      "word": "THINGS"
    }
  ]
}