{
  "transcript": "THE TWO PIASTRES THAT LUIGI RECEIVED EVERY MONTH FROM THE COUNT OF SAN FELICE'S STEWARD AND THE PRICE OF ALL THE LITTLE CARVINGS IN WOOD HE SOLD AT ROME WERE EXPENDED IN EAR RINGS NECKLACES AND GOLD HAIRPINS SO THAT THANKS TO HER FRIEND'S GENEROSITY",
  "words": [
    {
      "alignedWord": "the",
      "case": "success",
      "end": 0.38,
      "endOffset": 3,
      "phones": [
        {
          "duration": 0.08,
          "phone": "dh_B"
        },
        {
          "duration": 0.05,
          "phone": "ah_E"
        }
      ],
      "start": 0.25,
      "startOffset": 0,
      "word": "THE"
    },
    {
      "alignedWord": "two",
      "case": "success",
      "end": 0.55,
      "endOffset": 7,
      "phones": [
        {
          "duration": 0.08,
          "phone": "t_B"
        },
        {
          "duration": 0.09,
          "phone": "uw_E"
        }
      ],
      "start": 0.38,
      "startOffset": 4,
      "word": "TWO"
    },
    {
      "alignedWord": "<unk>",
      "case": "success",
      "end": 1.24,
      "endOffset": 16,
      "phones": [
        {
          "duration": 0.69,
          "phone": "oov_S"
        }
      ],
      "start": 0.55,
      "startOffset": 8,
      "word": "PIASTRES"
    },
    {
      "alignedWord": "that",
      "case": "success",
      "end": 1.48,
      "endOffset": 21,
      "phones": [
        {
          "duration": 0.06,
          "phone": "dh_B"
        },
        {
          "duration": 0.07,
          "phone": "ah_I"
        },
        {
          "duration": 0.08,
          "phone": "t_E"
        }
      ],
      "start": 1.27,
      "startOffset": 17,
      "word": "THAT"
    },
    {
      "alignedWord": "<unk>",
      "case": "success",
      "end": 1.88,
      "endOffset": 27,
      "phones": [
        {
          "duration": 0.4,
          "phone": "oov_S"
        }
      ],
      "start": 1.48,
      "startOffset": 22,
      "word": "LUIGI"
    },
    {
      "alignedWord": "received",
      "case": "success",
      "end": 2.36,
      "endOffset": 36,
      "phones": [
        {
          "duration": 0.06,
          "phone": "r_B"
        },
        {
          "duration": 0.08,
          "phone": "ih_I"
        },
        {
          "duration": 0.11,
          "phone": "s_I"
        },
        {
          "duration": 0.1,
          "phone": "iy_I"
        },
        {
          "duration": 0.08,
          "phone": "v_I"
        },
        {
          "duration": 0.05,
          "phone": "d_E"
        }
      ],
      "start": 1.88,
      "startOffset": 28,
      "word": "RECEIVED"
    },
    {
      "alignedWord": "every",
      "case": "success",
      "end": 2.58,
      "endOffset": 42,
      "phones": [
        {
          "duration": 0.05,
          "phone": "eh_B"
        },
        {
          "duration": 0.07,
          "phone": "v_I"
        },
        {
          "duration": 0.04,
          "phone": "r_I"
        },
        {
          "duration": 0.06,
          "phone": "iy_E"
        }
      ],
      "start": 2.36,
      "startOffset": 37,
      "word": "EVERY"
    },
    {
      "alignedWord": "month",
      "case": "success",
      "end": 2.94,
      "endOffset": 48,
      "phones": [
        {
          "duration": 0.05,
          "phone": "m_B"
        },
        {
          "duration": 0.09,
          "phone": "ah_I"
        },
        {
          "duration": 0.06,
          "phone": "n_I"
        },
        {
          "duration": 0.16,
          "phone": "th_E"
        }
      ],
      "start": 2.58,
      "startOffset": 43,
      "word": "MONTH"
    },
    {
      "alignedWord": "from",
      "case": "success",
      "end": 3.16,
      "endOffset": 53,
      "phones": [
        {
          "duration": 0.1,
          "phone": "f_B"
        },
        {
          "duration": 0.06,
          "phone": "er_I"
        },
        {
          "duration": 0.05,
          "phone": "m_E"
        }
      ],
      "start": 2.95,
      "startOffset": 49,
      "word": "FROM"
    },
    {
      "alignedWord": "the",
      "case": "success",
      "end": 3.25,
      "endOffset": 57,
      "phones": [
        {
          "duration": 0.04,
          "phone": "dh_B"
        },
        {
          "duration": 0.05,
          "phone": "ah_E"
        }
      ],
      "start": 3.16,
      "startOffset": 54,
      "word": "THE"
    },
    {
      "alignedWord": "count",
      "case": "success",
      "end": 3.5,
      "endOffset": 63,
      "phones": [
        {
          "duration": 0.09,
          "phone": "k_B"
        },
        {
          "duration": 0.11,
          "phone": "aw_I"
        },
        {
          "duration": 0.01,
          "phone": "n_I"
        },
        {
          "duration": 0.04,
          "phone": "t_E"
        }
      ],
      "start": 3.25,
      "startOffset": 58,
      "word": "COUNT"
    },
    {
      "alignedWord": "of",
      "case": "success",
      "end": 3.62,
      "endOffset": 66,
      "phones": [
        {
          "duration": 0.05,
          "phone": "ah_B"
        },
        {
          "duration": 0.07,
          "phone": "v_E"
        }
      ],
      "start": 3.5,
      "startOffset": 64,
      "word": "OF"
    },
    {
      "alignedWord": "san",
      "case": "success",
      "end": 3.69,
      "endOffset": 70,
      "phones": [
        {
          "duration": 0.05,
          "phone": "s_B"
        },
        {
          "duration": 0.01,
          "phone": "ae_I"
        },
        {
          "duration": 0.01,
          "phone": "n_E"
        }
      ],
      "start": 3.62,
      "startOffset": 67,
      "word": "SAN"
    },
    {
      "alignedWord": "<unk>",
      "case": "success",
      "end": 4.29,
      "endOffset": 79,
      "phones": [
        {
          "duration": 0.6,
          "phone": "oov_S"
        }
      ],
      "start": 3.69,
      "startOffset": 71,
      "word": "FELICE'S"
    },
    {
      "alignedWord": "steward",
      "case": "success",
      "end": 4.85,
      "endOffset": 87,
      "phones": [
        {
          "duration": 0.1,
          "phone": "s_B"
        },
        {
          "duration": 0.07,
          "phone": "t_I"
        },
        {
          "duration": 0.15,
          "phone": "uw_I"
        },
        {
          "duration": 0.1,
          "phone": "er_I"
        },
        {
          "duration": 0.13,
          "phone": "d_E"
        }
      ],
      "start": 4.3,
      "startOffset": 80,
      "word": "STEWARD"
    },
    {
      "alignedWord": "and",
      "case": "success",
      "end": 5.32,
      "endOffset": 91,
      "phones": [
        {
          "duration": 0.06,
          "phone": "ae_B"
        },
        {
          "duration": 0.05,
          "phone": "n_I"
        },
        {
          "duration": 0.04,
          "phone": "d_E"
        }
      ],
      "start": 5.17,
      "startOffset": 88,
      "word": "AND"
    },
    {
      "alignedWord": "the",
      "case": "success",
      "end": 5.390000000000001,
      "endOffset": 95,
      "phones": [
        {
          "duration": 0.01,
          "phone": "dh_B"
        },
        {
          "duration": 0.06,
          "phone": "ah_E"
        }
      ],
      "start": 5.32,
      "startOffset": 92,
      "word": "THE"
    },
    {
      "alignedWord": "price",
      "case": "success",
      "end": 5.66,
      "endOffset": 101,
      "phones": [
        {
          "duration": 0.07,
          "phone": "p_B"
        },
        {
          "duration": 0.06,
          "phone": "r_I"
        },
        {
          "duration": 0.08,
          "phone": "ay_I"
        },
        {
          "duration": 0.06,
          "phone": "s_E"
        }
      ],
      "start": 5.39,
      "startOffset": 96,
      "word": "PRICE"
    },
    {
      "alignedWord": "of",
      "case": "success",
      "end": 5.79,
      "endOffset": 104,
      "phones": [
        {
          "duration": 0.05,
          "phone": "ah_B"
        },
        {
          "duration": 0.08,
          "phone": "v_E"
        }
      ],
      "start": 5.66,
      "startOffset": 102,
      "word": "OF"
    },
    {
      "alignedWord": "all",
      "case": "success",
      "end": 6.08,
      "endOffset": 108,
      "phones": [
        {
          "duration": 0.19,
          "phone": "ao_B"
        },
        {
          "duration": 0.09,
          "phone": "l_E"
        }
      ],
      "start": 5.8,
      "startOffset": 105,
      "word": "ALL"
    },
    {
      "alignedWord": "the",
      "case": "success",
      "end": 6.17,
      "endOffset": 112,
      "phones": [
        {
          "duration": 0.03,
          "phone": "dh_B"
        },
        {
          "duration": 0.06,
          "phone": "ah_E"
        }
      ],
      "start": 6.08,
      "startOffset": 109,
      "word": "THE"
    },
    {
      "alignedWord": "little",
      "case": "success",
      "end": 6.38,
      "endOffset": 119,
      "phones": [
        {
          "duration": 0.06,
          "phone": "l_B"
        },
        {
          "duration": 0.03,
          "phone": "ih_I"
        },
        {
          "duration": 0.03,
          "phone": "t_I"
        },
        {
          "duration": 0.04,
          "phone": "ah_I"
        },
        {
          "duration": 0.05,
          "phone": "l_E"
        }
      ],
      "start": 6.17,
      "startOffset": 113,
      "word": "LITTLE"
    },
    {
      "alignedWord": "carvings",
      "case": "success",
      "end": 6.83,
      "endOffset": 128,
      "phones": [
        {
          "duration": 0.1,
          "phone": "k_B"
        },
        {
          "duration": 0.07,
          "phone": "aa_I"
        },
        {
          "duration": 0.06,
          "phone": "r_I"
        },
        {
          "duration": 0.05,
          "phone": "v_I"
        },
        {
          "duration": 0.05,
          "phone": "ih_I"
        },
        {
          "duration": 0.05,
          "phone": "ng_I"
        },
        {
          "duration": 0.06,
          "phone": "z_E"
        }
      ],
      "start": 6.39,
      "startOffset": 120,
      "word": "CARVINGS"
    },
    {
      "alignedWord": "in",
      "case": "success",
      "end": 6.96,
      "endOffset": 131,
      "phones": [
        {
          "duration": 0.05,
          "phone": "ih_B"
        },
        {
          "duration": 0.08,
          "phone": "n_E"
        }
      ],
      "start": 6.83,
      "startOffset": 129,
      "word": "IN"
    },
    {
      "alignedWord": "wood",
      "case": "success",
      "end": 7.15,
      "endOffset": 136,
      "phones": [
        {
          "duration": 0.08,
          "phone": "w_B"
        },
        {
          "duration": 0.06,
          "phone": "uh_I"
        },
        {
          "duration": 0.05,
          "phone": "d_E"
        }
      ],
      "start": 6.96,
      "startOffset": 132,
      "word": "WOOD"
    },
    {
      "alignedWord": "he",
      "case": "success",
      "end": 7.2700000000000005,
      "endOffset": 139,
      "phones": [
        {
          "duration": 0.03,
          "phone": "hh_B"
        },
        {
          "duration": 0.09,
          "phone": "iy_E"
        }
      ],
      "start": 7.15,
      "startOffset": 137,
      "word": "HE"
    },
    {
      "alignedWord": "sold",
      "case": "success",
      "end": 7.56,
      "endOffset": 144,
      "phones": [
        {
          "duration": 0.08,
          "phone": "s_B"
        },
        {
          "duration": 0.09,
          "phone": "ow_I"
        },
        {
          "duration": 0.05,
          "phone": "l_I"
        },
        {
          "duration": 0.07,
          "phone": "d_E"
        }
      ],
      "start": 7.27,
      "startOffset": 140,
      "word": "SOLD"
    },
    {
      "alignedWord": "at",
      "case": "success",
      "end": 7.67,
      "endOffset": 147,
      "phones": [
        {
          "duration": 0.03,
          "phone": "ae_B"
        },
        {
          "duration": 0.08,
          "phone": "t_E"
        }
      ],
      "start": 7.56,
      "startOffset": 145,
      "word": "AT"
    },
    {
      "alignedWord": "rome",
      "case": "success",
      "end": 8.09,
      "endOffset": 152,
      "phones": [
        {
          "duration": 0.09,
          "phone": "r_B"
        },
        {
          "duration": 0.18,
          "phone": "ow_I"
        },
        {
          "duration": 0.15,
          "phone": "m_E"
        }
      ],
      "start": 7.67,
      "startOffset": 148,
      "word": "ROME"
    },
    {
      "alignedWord": "were",
      "case": "success",
      "end": 8.59,
      "endOffset": 157,
      "phones": [
        {
          "duration": 0.13,
          "phone": "w_B"
        },
        {
          "duration": 0.06,
          "phone": "er_E"
        }
      ],
      "start": 8.4,
      "startOffset": 153,
      "word": "WERE"
    },
    {
      "alignedWord": "expended",
      "case": "success",
      "end": 9.12,
      "endOffset": 166,
      "phones": [
        {
          "duration": 0.05,
          "phone": "ih_B"
        },
        {
          "duration": 0.08,
          "phone": "k_I"
        },
        {
          "duration": 0.07,
          "phone": "s_I"
        },
        {
          "duration": 0.07,
          "phone": "p_I"
        },
        {
          "duration": 0.05,
          "phone": "eh_I"
        },
        {
          "duration": 0.05,
          "phone": "n_I"
        },
        {
          "duration": 0.04,
          "phone": "d_I"
        },
        {
          "duration": 0.06,
          "phone": "ih_I"
        },
        {
          "duration": 0.06,
          "phone": "d_E"
        }
      ],
      "start": 8.59,
      "startOffset": 158,
      "word": "EXPENDED"
    },
    {
      "alignedWord": "in",
      "case": "success",
      "end": 9.28,
      "endOffset": 169,
      "phones": [
        {
          "duration": 0.05,
          "phone": "ih_B"
        },
        {
          "duration": 0.11,
          "phone": "n_E"
        }
      ],
      "start": 9.12,
      "startOffset": 167,
      "word": "IN"
    },
    {
      "alignedWord": "ear",
      "case": "success",
      "end": 9.489999,
      "endOffset": 173,
      "phones": [
        {
          "duration": 0.15,
          "phone": "ih_B"
        },
        {
          "duration": 0.03,
          "phone": "r_E"
        }
      ],
      "start": 9.309999,
      "startOffset": 170,
      "word": "EAR"
    },
    {
      "alignedWord": "rings",
      "case": "success",
      "end": 9.96,
      "endOffset": 179,
      "phones": [
        {
          "duration": 0.01,
          "phone": "r_B"
        },
        {
          "duration": 0.12,
          "phone": "ih_I"
        },
        {
          "duration": 0.12,
          "phone": "ng_I"
        },
        {
          "duration": 0.22,
          "phone": "z_E"
        }
      ],
      "start": 9.49,
      "startOffset": 174,
      "word": "RINGS"
    },
    {
      "alignedWord": "necklaces",
      "case": "success",
      "end": 10.819999999999999,
      "endOffset": 189,
      "phones": [
        {
          "duration": 0.1,
          "phone": "n_B"
        },
        {
          "duration": 0.07,
          "phone": "eh_I"
        },
        {
          "duration": 0.06,
          "phone": "k_I"
        },
        {
          "duration": 0.05,
          "phone": "l_I"
        },
        {
          "duration": 0.07,
          "phone": "ah_I"
        },
        {
          "duration": 0.07,
          "phone": "s_I"
        },
        {
          "duration": 0.13,
          "phone": "ih_I"
        },
        {
          "duration": 0.15,
          "phone": "z_E"
        }
      ],
      "start": 10.12,
      "startOffset": 180,
      "word": "NECKLACES"
    },
    {
      "alignedWord": "and",
      "case": "success",
      "end": 11.07,
      "endOffset": 193,
      "phones": [
        {
          "duration": 0.08,
          "phone": "ae_B"
        },
        {
          "duration": 0.05,
          "phone": "n_I"
        },
        {
          "duration": 0.1,
          "phone": "d_E"
        }
      ],
      "start": 10.84,
      "startOffset": 190,
      "word": "AND"
    },
    {
      "alignedWord": "gold",
      "case": "success",
      "end": 11.36,
      "endOffset": 198,
      "phones": [
        {
          "duration": 0.04,
          "phone": "g_B"
        },
        {
          "duration": 0.07,
          "phone": "ow_I"
        },
        {
          "duration": 0.09,
          "phone": "l_I"
        },
        {
          "duration": 0.09,
          "phone": "d_E"
        }
      ],
      "start": 11.07,
      "startOffset": 194,
      "word": "GOLD"
    },
    {
      "alignedWord": "<unk>",
      "case": "success",
      "end": 12.01,
      "endOffset": 207,
      "phones": [
        {
          "duration": 0.65,
          "phone": "oov_S"
        }
      ],
      "start": 11.36,
      "startOffset": 199,
      "word": "HAIRPINS"
    },
    {
      "alignedWord": "so",
      "case": "success",
      "end": 12.620000000000001,
      "endOffset": 210,
      "phones": [
        {
          "duration": 0.15,
          "phone": "s_B"
        },
        {
          "duration": 0.09,
          "phone": "ow_E"
        }
      ],
      "start": 12.38,
      "startOffset": 208,
      "word": "SO"
    },
    {
      "alignedWord": "that",
      "case": "success",
      "end": 13.02,
      "endOffset": 215,
      "phones": [
        {
          "duration": 0.07,
          "phone": "dh_B"
        },
        {
          "duration": 0.14,
          "phone": "ae_I"
        },
        {
          "duration": 0.19,
          "phone": "t_E"
        }
      ],
      "start": 12.62,
      "startOffset": 211,
      "word": "THAT"
    },
    {
      "alignedWord": "thanks",
      "case": "success",
      "end": 13.379999999999999,
      "endOffset": 222,
      "phones": [
        {
          "duration": 0.09,
          "phone": "th_B"
        },
        {
          "duration": 0.04,
          "phone": "ae_I"
        },
        {
          "duration": 0.06,
          "phone": "ng_I"
        },
        {
          "duration": 0.06,
          "phone": "k_I"
        },
        {
          "duration": 0.04,
          "phone": "s_E"
        }
      ],
      "start": 13.09,
      "startOffset": 216,
      "word": "THANKS"
    },
    {
      "alignedWord": "to",
      "case": "success",
      "end": 13.49,
      "endOffset": 225,
      "phones": [
        {
          "duration": 0.05,
          "phone": "t_B"
        },
        {
          "duration": 0.06,
          "phone": "ah_E"
        }
      ],
      "start": 13.38,
      "startOffset": 223,
      "word": "TO"
    },
    {
      "alignedWord": "her",
      "case": "success",
      "end": 13.64,
      "endOffset": 229,
      "phones": [
        {
          "duration": 0.08,
          "phone": "hh_B"
        },
        {
          "duration": 0.07,
          "phone": "er_E"
        }
      ],
      "start": 13.49,
      "startOffset": 226,
      "word": "HER"
    },
    {
      "alignedWord": "friend's",
      "case": "success",
      "end": 13.989999,
      "endOffset": 238,
      "phones": [
        {
          "duration": 0.07,
          "phone": "f_B"
        },
        {
          "duration": 0.05,
          "phone": "r_I"
        },
        {
          "duration": 0.07,
          "phone": "eh_I"
        },
        {
          "duration": 0.07,
          "phone": "n_I"
        },
        {
          "duration": 0.09,
          "phone": "z_E"
        }
      ],
      "start": 13.639999,
      "startOffset": 230,
      "word": "FRIEND'S"
    },
    {
      "alignedWord": "generosity",
      "case": "success",
      "end": 14.57,
      "endOffset": 249,
      "phones": [
        {
          "duration": 0.07,
          "phone": "jh_B"
        },
        {
          "duration": 0.07,
          "phone": "eh_I"
        },
        {
          "duration": 0.05,
          "phone": "n_I"
        },
        {
          "duration": 0.11,
          "phone": "er_I"
        },
        {
          "duration": 0.12,
          "phone": "aa_I"
        },
        {
          "duration": 0.07,
          "phone": "s_I"
        },
        {
          "duration": 0.07,
          "phone": "ah_I"
        },
        {
          "duration": 0.01,
          "phone": "t_I"
        },
        {
          "duration": 0.01,
          "phone": "iy_E"
        }
      ],
      "start": 13.99,
      "startOffset": 239,
      "word": "GENEROSITY"
    }
  ]
}