{
  "transcript": "THEY TOOK HORSES AND CATTLE WITH THEM AND ALL KINDS OF TOOLS AND FOOD I DO NOT WELL KNOW WHERE THIS LAND IS ERIC SAID GUNNBIORN SAID ONLY THAT HE SAILED EAST WHEN HE CAME HOME TO ICELAND SO I WILL STEER STRAIGHT WEST",
  "words": [
    {
      "alignedWord": "they",
      "case": "success",
      "end": 0.41000000000000003,
      "endOffset": 4,
      "phones": [
        {
          "duration": 0.08,
          "phone": "dh_B"
        },
        {
          "duration": 0.08,
          "phone": "ey_E"
        }
      ],
      "start": 0.25,
      "startOffset": 0,
      "word": "THEY"
    },
    {
      "alignedWord": "took",
      "case": "success",
      "end": 0.64,
      "endOffset": 9,
      "phones": [
        {
          "duration": 0.06,
          "phone": "t_B"
        },
        {
          "duration": 0.09,
          "phone": "uh_I"
        },
        {
          "duration": 0.08,
          "phone": "k_E"
        }
      ],
      "start": 0.41,
      "startOffset": 5,
      "word": "TOOK"
    },
    {
      "alignedWord": "horses",
      "case": "success",
      "end": 1.19,
      "endOffset": 16,
      "phones": [
        {
          "duration": 0.05,
          "phone": "hh_B"
        },
        {
          "duration": 0.12,
          "phone": "ao_I"
        },
        {
          "duration": 0.07,
          "phone": "r_I"
        },
        {
          "duration": 0.06,
          "phone": "s_I"
        },
        {
          "duration": 0.18,
          "phone": "ah_I"
        },
        {
          "duration": 0.07,
          "phone": "z_E"
        }
      ],
      "start": 0.64,
      "startOffset": 10,
      "word": "HORSES"
    },
    {
      "alignedWord": "and",
      "case": "success",
      "end": 1.3699999999999999,
      "endOffset": 20,
      "phones": [
        {
          "duration": 0.05,
          "phone": "ah_B"
        },
        {
          "duration": 0.05,
          "phone": "n_I"
        },
        {
          "duration": 0.08,
          "phone": "d_E"
        }
      ],
      "start": 1.19,
      "startOffset": 17,
      "word": "AND"
    },
    {
      "alignedWord": "cattle",
      "case": "success",
      "end": 1.7100000000000002,
      "endOffset": 27,
      "phones": [
        {
          "duration": 0.07,
          "phone": "k_B"
        },
        {
          "duration": 0.1,
          "phone": "ae_I"
        },
        {
          "duration": 0.02,
          "phone": "t_I"
        },
        {
          "duration": 0.08,
          "phone": "ah_I"
        },
        {
          "duration": 0.07,
          "phone": "l_E"
        }
      ],
      "start": 1.37,
      "startOffset": 21,
      "word": "CATTLE"
    },
    {
      "alignedWord": "with",
      "case": "success",
      "end": 1.92,
      "endOffset": 32,
      "phones": [
        {
          "duration": 0.05,
          "phone": "w_B"
        },
        {
          "duration": 0.07,
          "phone": "ih_I"
        },
        {
          "duration": 0.09,
          "phone": "th_E"
        }
      ],
      "start": 1.71,
      "startOffset": 28,
      "word": "WITH"
    },
    {
      "alignedWord": "them",
      "case": "success",
      "end": 2.2399999999999998,
      "endOffset": 37,
      "phones": [
        {
          "duration": 0.01,
          "phone": "dh_B"
        },
        {
          "duration": 0.12,
          "phone": "ah_I"
        },
        {
          "duration": 0.19,
          "phone": "m_E"
        }
      ],
      "start": 1.92,
      "startOffset": 33,
      "word": "THEM"
    },
    {
      "alignedWord": "and",
      "case": "success",
      "end": 2.6,
      "endOffset": 41,
      "phones": [
        {
          "duration": 0.07,
          "phone": "ae_B"
        },
        {
          "duration": 0.05,
          "phone": "n_I"
        },
        {
          "duration": 0.03,
          "phone": "d_E"
        }
      ],
      "start": 2.45,
      "startOffset": 38,
      "word": "AND"
    },
    {
      "alignedWord": "all",
      "case": "success",
      "end": 2.7800000000000002,
      "endOffset": 45,
      "phones": [
        {
          "duration": 0.08,
          "phone": "ao_B"
        },
        {
          "duration": 0.1,
          "phone": "l_E"
        }
      ],
      "start": 2.6,
      "startOffset": 42,
      "word": "ALL"
    },
    {
      "alignedWord": "kinds",
      "case": "success",
      "end": 3.1599999999999997,
      "endOffset": 51,
      "phones": [
        {
          "duration": 0.1,
          "phone": "k_B"
        },
        {
          "duration": 0.15,
          "phone": "ay_I"
        },
        {
          "duration": 0.08,
          "phone": "n_I"
        },
        {
          "duration": 0.05,
          "phone": "z_E"
        }
      ],
      "start": 2.78,
      "startOffset": 46,
      "word": "KINDS"
    },
    {
      "alignedWord": "of",
      "case": "success",
      "end": 3.33,
      "endOffset": 54,
      "phones": [
        {
          "duration": 0.08,
          "phone": "ah_B"
        },
        {
          "duration": 0.09,
          "phone": "v_E"
        }
      ],
      "start": 3.16,
      "startOffset": 52,
      "word": "OF"
    },
    {
      "alignedWord": "tools",
      "case": "success",
      "end": 3.81,
      "endOffset": 60,
      "phones": [
        {
          "duration": 0.09,
          "phone": "t_B"
        },
        {
          "duration": 0.11,
          "phone": "uw_I"
        },
        {
          "duration": 0.21,
          "phone": "l_I"
        },
        {
          "duration": 0.07,
          "phone": "z_E"
        }
      ],
      "start": 3.33,
      "startOffset": 55,
      "word": "TOOLS"
    },
    {
      "alignedWord": "and",
      "case": "success",
      "end": 3.95,
      "endOffset": 64,
      "phones": [
        {
          "duration": 0.04,
          "phone": "ah_B"
        },
        {
          "duration": 0.05,
          "phone": "n_I"
        },
        {
          "duration": 0.05,
          "phone": "d_E"
        }
      ],
      "start": 3.81,
      "startOffset": 61,
      "word": "AND"
    },
    {
      "alignedWord": "food",
      "case": "success",
      "end": 4.42,
      "endOffset": 69,
      "phones": [
        {
          "duration": 0.11,
          "phone": "f_B"
        },
        {
          "duration": 0.22,
          "phone": "uw_I"
        },
        {
          "duration": 0.14,
          "phone": "d_E"
        }
      ],
      "start": 3.95,
      "startOffset": 65,
      "word": "FOOD"
    },
    {
      "alignedWord": "i",
      "case": "success",
      "end": 5.62,
      "endOffset": 71,
      "phones": [
        {
          "duration": 0.14,
          "phone": "ay_S"
        }
      ],
      "start": 5.48,
      "startOffset": 70,
      "word": "I"
    },
    {
      "alignedWord": "do",
      "case": "success",
      "end": 5.8,
      "endOffset": 74,
      "phones": [
        {
          "duration": 0.1,
          "phone": "d_B"
        },
        {
          "duration": 0.08,
          "phone": "uw_E"
        }
      ],
      "start": 5.62,
      "startOffset": 72,
      "word": "DO"
    },
    {
      "alignedWord": "not",
      "case": "success",
      "end": 6.01,
      "endOffset": 78,
      "phones": [
        {
          "duration": 0.05,
          "phone": "n_B"
        },
        {
          "duration": 0.08,
          "phone": "aa_I"
        },
        {
          "duration": 0.08,
          "phone": "t_E"
        }
      ],
      "start": 5.8,
      "startOffset": 75,
      "word": "NOT"
    },
    {
      "alignedWord": "well",
      "case": "success",
      "end": 6.29,
      "endOffset": 83,
      "phones": [
        {
          "duration": 0.08,
          "phone": "w_B"
        },
        {
          "duration": 0.1,
          "phone": "eh_I"
        },
        {
          "duration": 0.1,
          "phone": "l_E"
        }
      ],
      "start": 6.01,
      "startOffset": 79,
      "word": "WELL"
    },
    {
      "alignedWord": "know",
      "case": "success",
      "end": 6.57,
      "endOffset": 88,
      "phones": [
        {
          "duration": 0.09,
          "phone": "n_B"
        },
        {
          "duration": 0.19,
          "phone": "ow_E"
        }
      ],
      "start": 6.29,
      "startOffset": 84,
      "word": "KNOW"
    },
    {
      "alignedWord": "where",
      "case": "success",
      "end": 6.7700000000000005,
      "endOffset": 94,
      "phones": [
        {
          "duration": 0.01,
          "phone": "hh_B"
        },
        {
          "duration": 0.06,
          "phone": "w_I"
        },
        {
          "duration": 0.06,
          "phone": "eh_I"
        },
        {
          "duration": 0.06,
          "phone": "r_E"
        }
      ],
      "start": 6.58,
      "startOffset": 89,
      "word": "WHERE"
    },
    {
      "alignedWord": "this",
      "case": "success",
      "end": 6.97,
      "endOffset": 99,
      "phones": [
        {
          "duration": 0.05,
          "phone": "dh_B"
        },
        {
          "duration": 0.07,
          "phone": "ih_I"
        },
        {
          "duration": 0.08,
          "phone": "s_E"
        }
      ],
      "start": 6.77,
      "startOffset": 95,
      "word": "THIS"
    },
    {
      "alignedWord": "land",
      "case": "success",
      "end": 7.319999999999999,
      "endOffset": 104,
      "phones": [
        {
          "duration": 0.09,
          "phone": "l_B"
        },
        {
          "duration": 0.15,
          "phone": "ae_I"
        },
        {
          "duration": 0.06,
          "phone": "n_I"
        },
        {
          "duration": 0.05,
          "phone": "d_E"
        }
      ],
      "start": 6.97,
      "startOffset": 100,
      "word": "LAND"
    },
    {
      "alignedWord": "is",
      "case": "success",
      "end": 7.75,
      "endOffset": 107,
      "phones": [
        {
          "duration": 0.23,
          "phone": "ih_B"
        },
        {
          "duration": 0.2,
          "phone": "z_E"
        }
      ],
      "start": 7.32,
      "startOffset": 105,
      "word": "IS"
    },
    {
      "alignedWord": "eric",
      "case": "success",
      "end": 8.22,
      "endOffset": 112,
      "phones": [
        {
          "duration": 0.1,
          "phone": "eh_B"
        },
        {
          "duration": 0.12,
          "phone": "r_I"
        },
        {
          "duration": 0.08,
          "phone": "ih_I"
        },
        {
          "duration": 0.09,
          "phone": "k_E"
        }
      ],
      "start": 7.83,
      "startOffset": 108,
      "word": "ERIC"
    },
    {
      "alignedWord": "said",
      "case": "success",
      "end": 8.620000000000001,
      "endOffset": 117,
      "phones": [
        {
          "duration": 0.1,
          "phone": "s_B"
        },
        {
          "duration": 0.14,
          "phone": "eh_I"
        },
        {
          "duration": 0.16,
          "phone": "d_E"
        }
      ],
      "start": 8.22,
      "startOffset": 113,
      "word": "SAID"
    },
    {
      "alignedWord": "<unk>",
      "case": "success",
      "end": 9.819999,
      "endOffset": 127,
      "phones": [
        {
          "duration": 0.68,
          "phone": "oov_S"
        }
      ],
      "start": 9.139999,
      "startOffset": 118,
      "word": "GUNNBIORN"
    },
    {
      "alignedWord": "said",
      "case": "success",
      "end": 10.09,
      "endOffset": 132,
      "phones": [
        {
          "duration": 0.11,
          "phone": "s_B"
        },
        {
          "duration": 0.07,
          "phone": "eh_I"
        },
        {
          "duration": 0.08,
          "phone": "d_E"
        }
      ],
      "start": 9.83,
      "startOffset": 128,
      "word": "SAID"
    },
    {
      "alignedWord": "only",
      "case": "success",
      "end": 10.44,
      "endOffset": 137,
      "phones": [
        {
          "duration": 0.12,
          "phone": "ow_B"
        },
        {
          "duration": 0.08,
          "phone": "n_I"
        },
        {
          "duration": 0.05,
          "phone": "l_I"
        },
        {
          "duration": 0.08,
          "phone": "iy_E"
        }
      ],
      "start": 10.11,
      "startOffset": 133,
      "word": "ONLY"
    },
    {
      "alignedWord": "that",
      "case": "success",
      "end": 10.6,
      "endOffset": 142,
      "phones": [
        {
          "duration": 0.05,
          "phone": "dh_B"
        },
        {
          "duration": 0.06,
          "phone": "ah_I"
        },
        {
          "duration": 0.05,
          "phone": "t_E"
        }
      ],
      "start": 10.44,
      "startOffset": 138,
      "word": "THAT"
    },
    {
      "alignedWord": "he",
      "case": "success",
      "end": 10.699999,
      "endOffset": 145,
      "phones": [
        {
          "duration": 0.01,
          "phone": "hh_B"
        },
        {
          "duration": 0.09,
          "phone": "iy_E"
        }
      ],
      "start": 10.599999,
      "startOffset": 143,
      "word": "HE"
    },
    {
      "alignedWord": "sailed",
      "case": "success",
      "end": 11.08,
      "endOffset": 152,
      "phones": [
        {
          "duration": 0.13,
          "phone": "s_B"
        },
        {
          "duration": 0.1,
          "phone": "ey_I"
        },
        {
          "duration": 0.08,
          "phone": "l_I"
        },
        {
          "duration": 0.07,
          "phone": "d_E"
        }
      ],
      "start": 10.7,
      "startOffset": 146,
      "word": "SAILED"
    },
    {
      "alignedWord": "east",
      "case": "success",
      "end": 11.47,
      "endOffset": 157,
      "phones": [
        {
          "duration": 0.22,
          "phone": "iy_B"
        },
        {
          "duration": 0.09,
          "phone": "s_I"
        },
        {
          "duration": 0.08,
          "phone": "t_E"
        }
      ],
      "start": 11.08,
      "startOffset": 153,
      "word": "EAST"
    },
    {
      "alignedWord": "when",
      "case": "success",
      "end": 11.619999,
      "endOffset": 162,
      "phones": [
        {
          "duration": 0.05,
          "phone": "w_B"
        },
        {
          "duration": 0.06,
          "phone": "eh_I"
        },
        {
          "duration": 0.04,
          "phone": "n_E"
        }
      ],
      "start": 11.469999,
      "startOffset": 158,
      "word": "WHEN"
    },
    {
      "alignedWord": "he",
      "case": "success",
      "end": 11.75,
      "endOffset": 165,
      "phones": [
        {
          "duration": 0.07,
          "phone": "hh_B"
        },
        {
          "duration": 0.06,
          "phone": "iy_E"
        }
      ],
      "start": 11.62,
      "startOffset": 163,
      "word": "HE"
    },
    {
      "alignedWord": "came",
      "case": "success",
      "end": 11.98,
      "endOffset": 170,
      "phones": [
        {
          "duration": 0.08,
          "phone": "k_B"
        },
        {
          "duration": 0.09,
          "phone": "ey_I"
        },
        {
          "duration": 0.06,
          "phone": "m_E"
        }
      ],
      "start": 11.75,
      "startOffset": 166,
      "word": "CAME"
    },
    {
      "alignedWord": "home",
      "case": "success",
      "end": 12.18,
      "endOffset": 175,
      "phones": [
        {
          "duration": 0.05,
          "phone": "hh_B"
        },
        {
          "duration": 0.09,
          "phone": "ow_I"
        },
        {
          "duration": 0.06,
          "phone": "m_E"
        }
      ],
      "start": 11.98,
      "startOffset": 171,
      "word": "HOME"
    },
    {
      "alignedWord": "to",
      "case": "success",
      "end": 12.279999,
      "endOffset": 178,
      "phones": [
        {
          "duration": 0.04,
          "phone": "t_B"
        },
        {
          "duration": 0.06,
          "phone": "ah_E"
        }
      ],
      "start": 12.179999,
      "startOffset": 176,
      "word": "TO"
    },
    {
      "alignedWord": "iceland",
      "case": "success",
      "end": 12.85,
      "endOffset": 186,
      "phones": [
        {
          "duration": 0.17,
          "phone": "ay_B"
        },
        {
          "duration": 0.1,
          "phone": "s_I"
        },
        {
          "duration": 0.07,
          "phone": "l_I"
        },
        {
          "duration": 0.04,
          "phone": "ah_I"
        },
        {
          "duration": 0.08,
          "phone": "n_I"
        },
        {
          "duration": 0.11,
          "phone": "d_E"
        }
      ],
      "start": 12.28,
      "startOffset": 179,
      "word": "ICELAND"
    },
    {
      "alignedWord": "so",
      "case": "success",
      "end": 13.58,
      "endOffset": 189,
      "phones": [
        {
          "duration": 0.12,
          "phone": "s_B"
        },
        {
          "duration": 0.14,
          "phone": "ow_E"
        }
      ],
      "start": 13.32,
      "startOffset": 187,
      "word": "SO"
    },
    {
      "alignedWord": "i",
      "case": "success",
      "end": 13.72,
      "endOffset": 191,
      "phones": [
        {
          "duration": 0.14,
          "phone": "ay_S"
        }
      ],
      "start": 13.58,
      "startOffset": 190,
      "word": "I"
    },
    {
      "alignedWord": "will",
      "case": "success",
      "end": 13.909999,
      "endOffset": 196,
      "phones": [
        {
          "duration": 0.07,
          "phone": "w_B"
        },
        {
          "duration": 0.06,
          "phone": "ih_I"
        },
        {
          "duration": 0.06,
          "phone": "l_E"
        }
      ],
      "start": 13.719999,
      "startOffset": 192,
      "word": "WILL"
    },
    {
      "alignedWord": "steer",
      "case": "success",
      "end": 14.290000000000001,
      "endOffset": 202,
      "phones": [
        {
          "duration": 0.1,
          "phone": "s_B"
        },
        {
          "duration": 0.05,
          "phone": "t_I"
        },
        {
          "duration": 0.12,
          "phone": "ih_I"
        },
        {
          "duration": 0.11,
          "phone": "r_E"
        }
      ],
      "start": 13.91,
      "startOffset": 197,
      "word": "STEER"
    },
    {
      "alignedWord": "straight",
      "case": "success",
      "end": 14.7,
      "endOffset": 211,
      "phones": [
        {
          "duration": 0.08,
          "phone": "s_B"
        },
        {
          "duration": 0.09,
          "phone": "t_I"
        },
        {
          "duration": 0.08,
          "phone": "r_I"
        },
        {
          "duration": 0.07,
          "phone": "ey_I"
        },
        {
          "duration": 0.09,
          "phone": "t_E"
        }
      ],
      "start": 14.29,
      "startOffset": 203,
      "word": "STRAIGHT"
    },
    {
      "alignedWord": "west",
      "case": "success",
      "end": 15.33,
      "endOffset": 216,
      "phones": [
        {
          "duration": 0.11,
          "phone": "w_B"
        },
        {
          "duration": 0.18,
          "phone": "eh_I"
        },
        {
          "duration": 0.18,
          "phone": "s_I"
        },
        {
          "duration": 0.16,
          "phone": "t_E"
        }
      ],
      "start": 14.7,
      "startOffset": 212,
      "word": "WEST"
    }
  ]
}