{
  "transcript": "IN THE SECOND PLACE COME GAMES AND SPORT WHICH MAY ENTER INTO THEIR RIGHT IF FATIGUE CAN BE AVOIDED HARMONIOUS JOYFUL COMPANY AS DIFFERENT AS POSSIBLE FROM THE DEPRESSING COMPANY OF THE SANITARIUMS WILL ADD ITS PLEASANTNESS",
  "words": [
    {
      "alignedWord": "in",
      "case": "success",
      "end": 0.57,
      "endOffset": 2,
      "phones": [
        {
          "duration": 0.11,
          "phone": "ih_B"
        },
        {
          "duration": 0.05,
          "phone": "n_E"
        }
      ],
      "start": 0.41,
      "startOffset": 0,
      "word": "IN"
    },
    {
      "alignedWord": "the",
      "case": "success",
      "end": 0.6799999999999999,
      "endOffset": 6,
      "phones": [
        {
          "duration": 0.05,
          "phone": "dh_B"
        },
        {
          "duration": 0.06,
          "phone": "ah_E"
        }
      ],
      "start": 0.57,
      "startOffset": 3,
      "word": "THE"
    },
    {
      "alignedWord": "second",
      "case": "success",
      "end": 1.04,
      "endOffset": 13,
      "phones": [
        {
          "duration": 0.08,
          "phone": "s_B"
        },
        {
          "duration": 0.07,
          "phone": "eh_I"
        },
        {
          "duration": 0.06,
          "phone": "k_I"
        },
        {
          "duration": 0.09,
          "phone": "ah_I"
        },
        {
          "duration": 0.06,
          "phone": "n_E"
        }
      ],
      "start": 0.68,
      "startOffset": 7,
      "word": "SECOND"
    },
    {
      "alignedWord": "place",
      "case": "success",
      "end": 1.37,
      "endOffset": 19,
      "phones": [
        {
          "duration": 0.05,
          "phone": "p_B"
        },
        {
          "duration": 0.11,
          "phone": "l_I"
        },
        {
          "duration": 0.08,
          "phone": "ey_I"
        },
        {
          "duration": 0.09,
          "phone": "s_E"
        }
      ],
      "start": 1.04,
      "startOffset": 14,
      "word": "PLACE"
    },
    {
      "alignedWord": "come",
      "case": "success",
      "end": 1.6300000000000001,
      "endOffset": 24,
      "phones": [
        {
          "duration": 0.06,
          "phone": "k_B"
        },
        {
          "duration": 0.1,
          "phone": "ah_I"
        },
        {
          "duration": 0.1,
          "phone": "m_E"
        }
      ],
      "start": 1.37,
      "startOffset": 20,
      "word": "COME"
    },
    {
      "alignedWord": "games",
      "case": "success",
      "end": 2.07,
      "endOffset": 30,
      "phones": [
        {
          "duration": 0.12,
          "phone": "g_B"
        },
        {
          "duration": 0.16,
          "phone": "ey_I"
        },
        {
          "duration": 0.09,
          "phone": "m_I"
        },
        {
          "duration": 0.06,
          "phone": "z_E"
        }
      ],
      "start": 1.64,
      "startOffset": 25,
      "word": "GAMES"
    },
    {
      "alignedWord": "and",
      "case": "success",
      "end": 2.2399999999999998,
      "endOffset": 34,
      "phones": [
        {
          "duration": 0.05,
          "phone": "ah_B"
        },
        {
          "duration": 0.05,
          "phone": "n_I"
        },
        {
          "duration": 0.07,
          "phone": "d_E"
        }
      ],
      "start": 2.07,
      "startOffset": 31,
      "word": "AND"
    },
    {
      "alignedWord": "sport",
      "case": "success",
      "end": 2.74,
      "endOffset": 40,
      "phones": [
        {
          "duration": 0.11,
          "phone": "s_B"
        },
        {
          "duration": 0.08,
          "phone": "p_I"
        },
        {
          "duration": 0.12,
          "phone": "ao_I"
        },
        {
          "duration": 0.1,
          "phone": "r_I"
        },
        {
          "duration": 0.09,
          "phone": "t_E"
        }
      ],
      "start": 2.24,
      "startOffset": 35,
      "word": "SPORT"
    },
    {
      "alignedWord": "which",
      "case": "success",
      "end": 3.31,
      "endOffset": 46,
      "phones": [
        {
          "duration": 0.17,
          "phone": "w_B"
        },
        {
          "duration": 0.12,
          "phone": "ih_I"
        },
        {
          "duration": 0.25,
          "phone": "ch_E"
        }
      ],
      "start": 2.77,
      "startOffset": 41,
      "word": "WHICH"
    },
    {
      "alignedWord": "may",
      "case": "success",
      "end": 3.59,
      "endOffset": 50,
      "phones": [
        {
          "duration": 0.13,
          "phone": "m_B"
        },
        {
          "duration": 0.14,
          "phone": "ey_E"
        }
      ],
      "start": 3.32,
      "startOffset": 47,
      "word": "MAY"
    },
    {
      "alignedWord": "enter",
      "case": "success",
      "end": 3.99,
      "endOffset": 56,
      "phones": [
        {
          "duration": 0.11,
          "phone": "eh_B"
        },
        {
          "duration": 0.09,
          "phone": "n_I"
        },
        {
          "duration": 0.1,
          "phone": "t_I"
        },
        {
          "duration": 0.09,
          "phone": "er_E"
        }
      ],
      "start": 3.6,
      "startOffset": 51,
      "word": "ENTER"
    },
    {
      "alignedWord": "into",
      "case": "success",
      "end": 4.28,
      "endOffset": 61,
      "phones": [
        {
          "duration": 0.07,
          "phone": "ih_B"
        },
        {
          "duration": 0.07,
          "phone": "n_I"
        },
        {
          "duration": 0.09,
          "phone": "t_I"
        },
        {
          "duration": 0.06,
          "phone": "uw_E"
        }
      ],
      "start": 3.99,
      "startOffset": 57,
      "word": "INTO"
    },
    {
      "alignedWord": "their",
      "case": "success",
      "end": 4.73,
      "endOffset": 67,
      "phones": [
        {
          "duration": 0.08,
          "phone": "dh_B"
        },
        {
          "duration": 0.08,
          "phone": "eh_I"
        },
        {
          "duration": 0.29,
          "phone": "r_E"
        }
      ],
      "start": 4.28,
      "startOffset": 62,
      "word": "THEIR"
    },
    {
      "alignedWord": "right",
      "case": "success",
      "end": 5.13,
      "endOffset": 73,
      "phones": [
        {
          "duration": 0.14,
          "phone": "r_B"
        },
        {
          "duration": 0.16,
          "phone": "ay_I"
        },
        {
          "duration": 0.08,
          "phone": "t_E"
        }
      ],
      "start": 4.75,
      "startOffset": 68,
      "word": "RIGHT"
    },
    {
      "alignedWord": "if",
      "case": "success",
      "end": 5.35,
      "endOffset": 76,
      "phones": [
        {
          "duration": 0.11,
          "phone": "ih_B"
        },
        {
          "duration": 0.07,
          "phone": "f_E"
        }
      ],
      "start": 5.17,
      "startOffset": 74,
      "word": "IF"
    },
    {
      "alignedWord": "fatigue",
      "case": "success",
      "end": 5.859999999999999,
      "endOffset": 84,
      "phones": [
        {
          "duration": 0.1,
          "phone": "f_B"
        },
        {
          "duration": 0.06,
          "phone": "ah_I"
        },
        {
          "duration": 0.15,
          "phone": "t_I"
        },
        {
          "duration": 0.13,
          "phone": "iy_I"
        },
        {
          "duration": 0.07,
          "phone": "g_E"
        }
      ],
      "start": 5.35,
      "startOffset": 77,
      "word": "FATIGUE"
    },
    {
      "alignedWord": "can",
      "case": "success",
      "end": 6.0600000000000005,
      "endOffset": 88,
      "phones": [
        {
          "duration": 0.07,
          "phone": "k_B"
        },
        {
          "duration": 0.06,
          "phone": "ah_I"
        },
        {
          "duration": 0.06,
          "phone": "n_E"
        }
      ],
      "start": 5.87,
      "startOffset": 85,
      "word": "CAN"
    },
    {
      "alignedWord": "be",
      "case": "success",
      "end": 6.199999999999999,
      "endOffset": 91,
      "phones": [
        {
          "duration": 0.06,
          "phone": "b_B"
        },
        {
          "duration": 0.08,
          "phone": "iy_E"
        }
      ],
      "start": 6.06,
      "startOffset": 89,
      "word": "BE"
    },
    {
      "alignedWord": "avoided",
      "case": "success",
      "end": 6.82,
      "endOffset": 99,
      "phones": [
        {
          "duration": 0.04,
          "phone": "ah_B"
        },
        {
          "duration": 0.12,
          "phone": "v_I"
        },
        {
          "duration": 0.16,
          "phone": "oy_I"
        },
        {
          "duration": 0.03,
          "phone": "d_I"
        },
        {
          "duration": 0.08,
          "phone": "ih_I"
        },
        {
          "duration": 0.19,
          "phone": "d_E"
        }
      ],
      "start": 6.2,
      "startOffset": 92,
      "word": "AVOIDED"
    },
    {
      "alignedWord": "harmonious",
      "case": "success",
      "end": 8.42,
      "endOffset": 110,
      "phones": [
        {
          "duration": 0.08,
          "phone": "hh_B"
        },
        {
          "duration": 0.04,
          "phone": "aa_I"
        },
        {
          "duration": 0.07,
          "phone": "r_I"
        },
        {
          "duration": 0.1,
          "phone": "m_I"
        },
        {
          "duration": 0.11,
          "phone": "ow_I"
        },
        {
          "duration": 0.08,
          "phone": "n_I"
        },
        {
          "duration": 0.1,
          "phone": "iy_I"
        },
        {
          "duration": 0.08,
          "phone": "ah_I"
        },
        {
          "duration": 0.13,
          "phone": "s_E"
        }
      ],
      "start": 7.63,
      "startOffset": 100,
      "word": "HARMONIOUS"
    },
    {
      "alignedWord": "joyful",
      "case": "success",
      "end": 8.86,
      "endOffset": 117,
      "phones": [
        {
          "duration": 0.1,
          "phone": "jh_B"
        },
        {
          "duration": 0.14,
          "phone": "oy_I"
        },
        {
          "duration": 0.1,
          "phone": "f_I"
        },
        {
          "duration": 0.02,
          "phone": "ah_I"
        },
        {
          "duration": 0.08,
          "phone": "l_E"
        }
      ],
      "start": 8.42,
      "startOffset": 111,
      "word": "JOYFUL"
    },
    {
      "alignedWord": "company",
      "case": "success",
      "end": 9.479999999999999,
      "endOffset": 125,
      "phones": [
        {
          "duration": 0.08,
          "phone": "k_B"
        },
        {
          "duration": 0.1,
          "phone": "ah_I"
        },
        {
          "duration": 0.01,
          "phone": "m_I"
        },
        {
          "duration": 0.1,
          "phone": "p_I"
        },
        {
          "duration": 0.08,
          "phone": "ah_I"
        },
        {
          "duration": 0.05,
          "phone": "n_I"
        },
        {
          "duration": 0.2,
          "phone": "iy_E"
        }
      ],
      "start": 8.86,
      "startOffset": 118,
      "word": "COMPANY"
    },
    {
      "alignedWord": "as",
      "case": "success",
      "end": 9.78,
      "endOffset": 128,
      "phones": [
        {
          "duration": 0.16,
          "phone": "ae_B"
        },
        {
          "duration": 0.1,
          "phone": "z_E"
        }
      ],
      "start": 9.52,
      "startOffset": 126,
      "word": "AS"
    },
    {
      "alignedWord": "different",
      "case": "success",
      "end": 10.24,
      "endOffset": 138,
      "phones": [
        {
          "duration": 0.06,
          "phone": "d_B"
        },
        {
          "duration": 0.1,
          "phone": "ih_I"
        },
        {
          "duration": 0.09,
          "phone": "f_I"
        },
        {
          "duration": 0.03,
          "phone": "r_I"
        },
        {
          "duration": 0.06,
          "phone": "ah_I"
        },
        {
          "duration": 0.03,
          "phone": "n_I"
        },
        {
          "duration": 0.09,
          "phone": "t_E"
        }
      ],
      "start": 9.78,
      "startOffset": 129,
      "word": "DIFFERENT"
    },
    {
      "alignedWord": "as",
      "case": "success",
      "end": 10.48,
      "endOffset": 141,
      "phones": [
        {
          "duration": 0.12,
          "phone": "ae_B"
        },
        {
          "duration": 0.12,
          "phone": "z_E"
        }
      ],
      "start": 10.24,
      "startOffset": 139,
      "word": "AS"
    },
    {
      "alignedWord": "possible",
      "case": "success",
      "end": 11.11,
      "endOffset": 150,
      "phones": [
        {
          "duration": 0.1,
          "phone": "p_B"
        },
        {
          "duration": 0.15,
          "phone": "aa_I"
        },
        {
          "duration": 0.08,
          "phone": "s_I"
        },
        {
          "duration": 0.09,
          "phone": "ah_I"
        },
        {
          "duration": 0.03,
          "phone": "b_I"
        },
        {
          "duration": 0.06,
          "phone": "ah_I"
        },
        {
          "duration": 0.11,
          "phone": "l_E"
        }
      ],
      "start": 10.49,
      "startOffset": 142,
      "word": "POSSIBLE"
    },
    {
      "alignedWord": "from",
      "case": "success",
      "end": 11.35,
      "endOffset": 155,
      "phones": [
        {
          "duration": 0.07,
          "phone": "f_B"
        },
        {
          "duration": 0.05,
          "phone": "r_I"
        },
        {
          "duration": 0.04,
          "phone": "ah_I"
        },
        {
          "duration": 0.07,
          "phone": "m_E"
        }
      ],
      "start": 11.12,
      "startOffset": 151,
      "word": "FROM"
    },
    {
      "alignedWord": "the",
      "case": "success",
      "end": 11.439999,
      "endOffset": 159,
      "phones": [
        {
          "duration": 0.04,
          "phone": "dh_B"
        },
        {
          "duration": 0.05,
          "phone": "ah_E"
        }
      ],
      "start": 11.349999,
      "startOffset": 156,
      "word": "THE"
    },
    {
      "alignedWord": "depressing",
      "case": "success",
      "end": 12.03,
      "endOffset": 170,
      "phones": [
        {
          "duration": 0.07,
          "phone": "d_B"
        },
        {
          "duration": 0.06,
          "phone": "ih_I"
        },
        {
          "duration": 0.08,
          "phone": "p_I"
        },
        {
          "duration": 0.07,
          "phone": "r_I"
        },
        {
          "duration": 0.08,
          "phone": "eh_I"
        },
        {
          "duration": 0.07,
          "phone": "s_I"
        },
        {
          "duration": 0.08,
          "phone": "ih_I"
        },
        {
          "duration": 0.08,
          "phone": "ng_E"
        }
      ],
      "start": 11.44,
      "startOffset": 160,
      "word": "DEPRESSING"
    },
    {
      "alignedWord": "company",
      "case": "success",
      "end": 12.51,
      "endOffset": 178,
      "phones": [
        {
          "duration": 0.06,
          "phone": "k_B"
        },
        {
          "duration": 0.08,
          "phone": "ah_I"
        },
        {
          "duration": 0.01,
          "phone": "m_I"
        },
        {
          "duration": 0.1,
          "phone": "p_I"
        },
        {
          "duration": 0.06,
          "phone": "ah_I"
        },
        {
          "duration": 0.07,
          "phone": "n_I"
        },
        {
          "duration": 0.1,
          "phone": "iy_E"
        }
      ],
      "start": 12.03,
      "startOffset": 171,
      "word": "COMPANY"
    },
    {
      "alignedWord": "of",
      "case": "success",
      "end": 12.699999,
      "endOffset": 181,
      "phones": [
        {
          "duration": 0.09,
          "phone": "ah_B"
        },
        {
          "duration": 0.1,
          "phone": "v_E"
        }
      ],
      "start": 12.509999,
      "startOffset": 179,
      "word": "OF"
    },
    {
      "alignedWord": "the",
      "case": "success",
      "end": 12.79,
      "endOffset": 185,
      "phones": [
        {
          "duration": 0.01,
          "phone": "dh_B"
        },
        {
          "duration": 0.08,
          "phone": "ah_E"
        }
      ],
      "start": 12.7,
      "startOffset": 182,
      "word": "THE"
    },
    {
      "alignedWord": "<unk>",
      "case": "success",
      "end": 13.68,
      "endOffset": 197,
      "phones": [
        {
          "duration": 0.89,
          "phone": "oov_S"
        }
      ],
      "start": 12.79,
      "startOffset": 186,
      "word": "SANITARIUMS"
    },
    {
      "alignedWord": "will",
      "case": "success",
      "end": 13.899999,
      "endOffset": 202,
      "phones": [
        {
          "duration": 0.04,
          "phone": "w_B"
        },
        {
          "duration": 0.06,
          "phone": "ih_I"
        },
        {
          "duration": 0.08,
          "phone": "l_E"
        }
      ],
      "start": 13.719999,
      "startOffset": 198,
      "word": "WILL"
    },
    {
      "alignedWord": "add",
      "case": "success",
      "end": 14.16,
      "endOffset": 206,
      "phones": [
        {
          "duration": 0.18,
          "phone": "ae_B"
        },
        {
          "duration": 0.08,
          "phone": "d_E"
        }
      ],
      "start": 13.9,
      "startOffset": 203,
      "word": "ADD"
    },
    {
      "alignedWord": "its",
      "case": "success",
      "end": 14.459999999999999,
      "endOffset": 210,
      "phones": [
        {
          "duration": 0.09,
          "phone": "ih_B"
        },
        {
          "duration": 0.09,
          "phone": "t_I"
        },
        {
          "duration": 0.09,
          "phone": "s_E"
        }
      ],
      "start": 14.19,
      "startOffset": 207,
      "word": "ITS"
    },
    {
      "alignedWord": "<unk>",
      "case": "success",
      "end": 15.299999,
      "endOffset": 223,
      "phones": [
        {
          "duration": 0.79,
          "phone": "oov_S"
        }
      ],
      "start": 14.509999,
      "startOffset": 211,
      "word": "PLEASANTNESS"
    }
  ]
}