{
  "transcript": "DO YOU THINK SO M BOSSUET AND YOU",
  "words": [
    {
      "alignedWord": "do",
      "case": "success",
      "end": 0.61,
      "endOffset": 2,
      "phones": [
        {
          "duration": 0.07,
          "phone": "d_B"
        },
        {
          "duration": 0.03,
          "phone": "uw_E"
        }
      ],
      "start": 0.51,
      "startOffset": 0,
      "word": "DO"
    },
    {
      "alignedWord": "you",
      "case": "success",
      "end": 0.78,
      "endOffset": 6,
      "phones": [
        {
          "duration": 0.07,
          "phone": "y_B"
        },
        {
          "duration": 0.1,
          "phone": "uw_E"
        }
      ],
      "start": 0.61,
      "startOffset": 3,
      "word": "YOU"
    },
    {
      "alignedWord": "think",
      "case": "success",
      "end": 1.05,
      "endOffset": 12,
      "phones": [
        {
          "duration": 0.08,
          "phone": "th_B"
        },
        {
          "duration": 0.05,
          "phone": "ih_I"
        },
        {
          "duration": 0.05,
          "phone": "ng_I"
        },
        {
          "duration": 0.08,
          "phone": "k_E"
        }
      ],
      "start": 0.79,
      "startOffset": 7,
      "word": "THINK"
    },
    {
      "alignedWord": "so",
      "case": "success",
      "end": 1.52,
      "endOffset": 15,
      "phones": [
        {
          "duration": 0.13,
          "phone": "s_B"
        },
        {
          "duration": 0.34,
          "phone": "ow_E"
        }
      ],
      "start": 1.05,
      "startOffset": 13,
      "word": "SO"
    },
    {
      "alignedWord": "m",
      "case": "success",
      "end": 1.8,
      "endOffset": 17,
      "phones": [
        {
          "duration": 0.15,
          "phone": "eh_B"
        },
        {
          "duration": 0.08,
          "phone": "m_E"
        }
      ],
      "start": 1.57,
      "startOffset": 16,
      "word": "M"
    },
    {
      "alignedWord": "<unk>",
      "case": "success",
      "end": 2.35,
      "endOffset": 25,
      "phones": [
        {
          "duration": 0.54,
          "phone": "oov_S"
        }
      ],
      "start": 1.81,
      "startOffset": 18,
      "word": "BOSSUET"
    },
    {
      "alignedWord": "and",
      "case": "success",
      "end": 3.16,
      "endOffset": 29,
      "phones": [
        {
          "duration": 0.11,
          "phone": "ae_B"
        },
        {
          "duration": 0.07,
          "phone": "n_I"
        },
        {
          "duration": 0.06,
          "phone": "d_E"
        }
      ],
      "start": 2.92,
      "startOffset": 26,
      "word": "AND"
    },
    {
      "alignedWord": "you",
      "case": "success",
      "end": 3.5700000000000003,
      "endOffset": 33,
      "phones": [
        {
          "duration": 0.09,
          "phone": "y_B"
        },
        {
          "duration": 0.32,
          "phone": "uw_E"
        }
      ],
      "start": 3.16,
      "startOffset": 30,
      "word": "YOU"
    }
  ]
}