{
  "transcript": "HE WAS ALWAYS THE FIRST TO SLIP FROM THE LOG TO THE WATER IF ANYTHING SCARED THEM AND WHEN ONE DAY A STRANGE TURTLE FROM ANOTHER POND CAME TO VISIT HE SAID TO THE TURTLES WHO HAD ALWAYS LIVED THERE",
  "words": [
    {
      "alignedWord": "he",
      "case": "success",
      "end": 0.33,
      "endOffset": 2,
      "phones": [
        {
          "duration": 0.08,
          "phone": "hh_B"
        },
        {
          "duration": 0.06,
          "phone": "iy_E"
        }
      ],
      "start": 0.19,
      "startOffset": 0,
      "word": "HE"
    },
    {
      "alignedWord": "was",
      "case": "success",
      "end": 0.49,
      "endOffset": 6,
      "phones": [
        {
          "duration": 0.04,
          "phone": "w_B"
        },
        {
          "duration": 0.05,
          "phone": "ah_I"
        },
        {
          "duration": 0.07,
          "phone": "z_E"
        }
      ],
      "start": 0.33,
      "startOffset": 3,
      "word": "WAS"
    },
    {
      "alignedWord": "always",
      "case": "success",
      "end": 0.9400000000000001,
      "endOffset": 13,
      "phones": [
        {
          "duration": 0.14,
          "phone": "ao_B"
        },
        {
          "duration": 0.06,
          "phone": "l_I"
        },
        {
          "duration": 0.07,
          "phone": "w_I"
        },
        {
          "duration": 0.07,
          "phone": "iy_I"
        },
        {
          "duration": 0.06,
          "phone": "z_E"
        }
      ],
      "start": 0.54,
      "startOffset": 7,
      "word": "ALWAYS"
    },
    {
      "alignedWord": "the",
      "case": "success",
      "end": 1.05,
      "endOffset": 17,
      "phones": [
        {
          "duration": 0.06,
          "phone": "dh_B"
        },
        {
          "duration": 0.05,
          "phone": "ah_E"
        }
      ],
      "start": 0.94,
      "startOffset": 14,
      "word": "THE"
    },
    {
      "alignedWord": "first",
      "case": "success",
      "end": 1.46,
      "endOffset": 23,
      "phones": [
        {
          "duration": 0.09,
          "phone": "f_B"
        },
        {
          "duration": 0.18,
          "phone": "er_I"
        },
        {
          "duration": 0.1,
          "phone": "s_I"
        },
        {
          "duration": 0.04,
          "phone": "t_E"
        }
      ],
      "start": 1.05,
      "startOffset": 18,
      "word": "FIRST"
    },
    {
      "alignedWord": "to",
      "case": "success",
      "end": 1.66,
      "endOffset": 26,
      "phones": [
        {
          "duration": 0.08,
          "phone": "t_B"
        },
        {
          "duration": 0.08,
          "phone": "ih_E"
        }
      ],
      "start": 1.5,
      "startOffset": 24,
      "word": "TO"
    },
    {
      "alignedWord": "slip",
      "case": "success",
      "end": 1.92,
      "endOffset": 31,
      "phones": [
        {
          "duration": 0.1,
          "phone": "s_B"
        },
        {
          "duration": 0.06,
          "phone": "l_I"
        },
        {
          "duration": 0.05,
          "phone": "ih_I"
        },
        {
          "duration": 0.05,
          "phone": "p_E"
        }
      ],
      "start": 1.66,
      "startOffset": 27,
      "word": "SLIP"
    },
    {
      "alignedWord": "from",
      "case": "success",
      "end": 2.05,
      "endOffset": 36,
      "phones": [
        {
          "duration": 0.04,
          "phone": "f_B"
        },
        {
          "duration": 0.05,
          "phone": "er_I"
        },
        {
          "duration": 0.04,
          "phone": "m_E"
        }
      ],
      "start": 1.92,
      "startOffset": 32,
      "word": "FROM"
    },
    {
      "alignedWord": "the",
      "case": "success",
      "end": 2.15,
      "endOffset": 40,
      "phones": [
        {
          "duration": 0.05,
          "phone": "dh_B"
        },
        {
          "duration": 0.05,
          "phone": "ah_E"
        }
      ],
      "start": 2.05,
      "startOffset": 37,
      "word": "THE"
    },
    {
      "alignedWord": "log",
      "case": "success",
      "end": 2.46,
      "endOffset": 44,
      "phones": [
        {
          "duration": 0.07,
          "phone": "l_B"
        },
        {
          "duration": 0.17,
          "phone": "ao_I"
        },
        {
          "duration": 0.07,
          "phone": "g_E"
        }
      ],
      "start": 2.15,
      "startOffset": 41,
      "word": "LOG"
    },
    {
      "alignedWord": "to",
      "case": "success",
      "end": 2.56,
      "endOffset": 47,
      "phones": [
        {
          "duration": 0.04,
          "phone": "t_B"
        },
        {
          "duration": 0.05,
          "phone": "uw_E"
        }
      ],
      "start": 2.47,
      "startOffset": 45,
      "word": "TO"
    },
    {
      "alignedWord": "the",
      "case": "success",
      "end": 2.67,
      "endOffset": 51,
      "phones": [
        {
          "duration": 0.06,
          "phone": "dh_B"
        },
        {
          "duration": 0.05,
          "phone": "ah_E"
        }
      ],
      "start": 2.56,
      "startOffset": 48,
      "word": "THE"
    },
    {
      "alignedWord": "water",
      "case": "success",
      "end": 3.08,
      "endOffset": 57,
      "phones": [
        {
          "duration": 0.07,
          "phone": "w_B"
        },
        {
          "duration": 0.15,
          "phone": "ao_I"
        },
        {
          "duration": 0.07,
          "phone": "t_I"
        },
        {
          "duration": 0.12,
          "phone": "er_E"
        }
      ],
      "start": 2.67,
      "startOffset": 52,
      "word": "WATER"
    },
    {
      "alignedWord": "if",
      "case": "success",
      "end": 3.23,
      "endOffset": 60,
      "phones": [
        {
          "duration": 0.08,
          "phone": "ih_B"
        },
        {
          "duration": 0.05,
          "phone": "f_E"
        }
      ],
      "start": 3.1,
      "startOffset": 58,
      "word": "IF"
    },
    {
      "alignedWord": "anything",
      "case": "success",
      "end": 3.73,
      "endOffset": 69,
      "phones": [
        {
          "duration": 0.1,
          "phone": "eh_B"
        },
        {
          "duration": 0.08,
          "phone": "n_I"
        },
        {
          "duration": 0.07,
          "phone": "iy_I"
        },
        {
          "duration": 0.06,
          "phone": "th_I"
        },
        {
          "duration": 0.06,
          "phone": "ih_I"
        },
        {
          "duration": 0.09,
          "phone": "ng_E"
        }
      ],
      "start": 3.27,
      "startOffset": 61,
      "word": "ANYTHING"
    },
    {
      "alignedWord": "scared",
      "case": "success",
      "end": 4.14,
      "endOffset": 76,
      "phones": [
        {
          "duration": 0.09,
          "phone": "s_B"
        },
        {
          "duration": 0.07,
          "phone": "k_I"
        },
        {
          "duration": 0.09,
          "phone": "eh_I"
        },
        {
          "duration": 0.07,
          "phone": "r_I"
        },
        {
          "duration": 0.09,
          "phone": "d_E"
        }
      ],
      "start": 3.73,
      "startOffset": 70,
      "word": "SCARED"
    },
    {
      "alignedWord": "them",
      "case": "success",
      "end": 4.41,
      "endOffset": 81,
      "phones": [
        {
          "duration": 0.01,
          "phone": "dh_B"
        },
        {
          "duration": 0.09,
          "phone": "ah_I"
        },
        {
          "duration": 0.17,
          "phone": "m_E"
        }
      ],
      "start": 4.14,
      "startOffset": 77,
      "word": "THEM"
    },
    {
      "alignedWord": "and",
      "case": "success",
      "end": 5.05,
      "endOffset": 85,
      "phones": [
        {
          "duration": 0.07,
          "phone": "ae_B"
        },
        {
          "duration": 0.06,
          "phone": "n_I"
        },
        {
          "duration": 0.05,
          "phone": "d_E"
        }
      ],
      "start": 4.87,
      "startOffset": 82,
      "word": "AND"
    },
    {
      "alignedWord": "when",
      "case": "success",
      "end": 5.33,
      "endOffset": 90,
      "phones": [
        {
          "duration": 0.07,
          "phone": "w_B"
        },
        {
          "duration": 0.1,
          "phone": "eh_I"
        },
        {
          "duration": 0.11,
          "phone": "n_E"
        }
      ],
      "start": 5.05,
      "startOffset": 86,
      "word": "WHEN"
    },
    {
      "alignedWord": "one",
      "case": "success",
      "end": 5.58,
      "endOffset": 94,
      "phones": [
        {
          "duration": 0.01,
          "phone": "hh_B"
        },
        {
          "duration": 0.1,
          "phone": "w_I"
        },
        {
          "duration": 0.08,
          "phone": "ah_I"
        },
        {
          "duration": 0.05,
          "phone": "n_E"
        }
      ],
      "start": 5.34,
      "startOffset": 91,
      "word": "ONE"
    },
    {
      "alignedWord": "day",
      "case": "success",
      "end": 5.9,
      "endOffset": 98,
      "phones": [
        {
          "duration": 0.09,
          "phone": "d_B"
        },
        {
          "duration": 0.23,
          "phone": "ey_E"
        }
      ],
      "start": 5.58,
      "startOffset": 95,
      "word": "DAY"
    },
    {
      "alignedWord": "a",
      "case": "success",
      "end": 6.01,
      "endOffset": 100,
      "phones": [
        {
          "duration": 0.08,
          "phone": "ah_S"
        }
      ],
      "start": 5.93,
      "startOffset": 99,
      "word": "A"
    },
    {
      "alignedWord": "strange",
      "case": "success",
      "end": 6.4399999999999995,
      "endOffset": 108,
      "phones": [
        {
          "duration": 0.06,
          "phone": "s_B"
        },
        {
          "duration": 0.08,
          "phone": "t_I"
        },
        {
          "duration": 0.08,
          "phone": "r_I"
        },
        {
          "duration": 0.08,
          "phone": "ey_I"
        },
        {
          "duration": 0.05,
          "phone": "n_I"
        },
        {
          "duration": 0.08,
          "phone": "jh_E"
        }
      ],
      "start": 6.01,
      "startOffset": 101,
      "word": "STRANGE"
    },
    {
      "alignedWord": "turtle",
      "case": "success",
      "end": 6.800000000000001,
      "endOffset": 115,
      "phones": [
        {
          "duration": 0.11,
          "phone": "t_B"
        },
        {
          "duration": 0.09,
          "phone": "er_I"
        },
        {
          "duration": 0.03,
          "phone": "t_I"
        },
        {
          "duration": 0.06,
          "phone": "ah_I"
        },
        {
          "duration": 0.07,
          "phone": "l_E"
        }
      ],
      "start": 6.44,
      "startOffset": 109,
      "word": "TURTLE"
    },
    {
      "alignedWord": "from",
      "case": "success",
      "end": 6.96,
      "endOffset": 120,
      "phones": [
        {
          "duration": 0.07,
          "phone": "f_B"
        },
        {
          "duration": 0.05,
          "phone": "er_I"
        },
        {
          "duration": 0.04,
          "phone": "m_E"
        }
      ],
      "start": 6.8,
      "startOffset": 116,
      "word": "FROM"
    },
    {
      "alignedWord": "another",
      "case": "success",
      "end": 7.23,
      "endOffset": 128,
      "phones": [
        {
          "duration": 0.05,
          "phone": "ah_B"
        },
        {
          "duration": 0.05,
          "phone": "n_I"
        },
        {
          "duration": 0.05,
          "phone": "ah_I"
        },
        {
          "duration": 0.06,
          "phone": "dh_I"
        },
        {
          "duration": 0.06,
          "phone": "er_E"
        }
      ],
      "start": 6.96,
      "startOffset": 121,
      "word": "ANOTHER"
    },
    {
      "alignedWord": "pond",
      "case": "success",
      "end": 7.590000000000001,
      "endOffset": 133,
      "phones": [
        {
          "duration": 0.1,
          "phone": "p_B"
        },
        {
          "duration": 0.13,
          "phone": "aa_I"
        },
        {
          "duration": 0.06,
          "phone": "n_I"
        },
        {
          "duration": 0.07,
          "phone": "d_E"
        }
      ],
      "start": 7.23,
      "startOffset": 129,
      "word": "POND"
    },
    {
      "alignedWord": "came",
      "case": "success",
      "end": 7.84,
      "endOffset": 138,
      "phones": [
        {
          "duration": 0.09,
          "phone": "k_B"
        },
        {
          "duration": 0.09,
          "phone": "ey_I"
        },
        {
          "duration": 0.07,
          "phone": "m_E"
        }
      ],
      "start": 7.59,
      "startOffset": 134,
      "word": "CAME"
    },
    {
      "alignedWord": "to",
      "case": "success",
      "end": 7.93,
      "endOffset": 141,
      "phones": [
        {
          "duration": 0.04,
          "phone": "t_B"
        },
        {
          "duration": 0.05,
          "phone": "ah_E"
        }
      ],
      "start": 7.84,
      "startOffset": 139,
      "word": "TO"
    },
    {
      "alignedWord": "visit",
      "case": "success",
      "end": 8.39,
      "endOffset": 147,
      "phones": [
        {
          "duration": 0.09,
          "phone": "v_B"
        },
        {
          "duration": 0.09,
          "phone": "ih_I"
        },
        {
          "duration": 0.06,
          "phone": "z_I"
        },
        {
          "duration": 0.09,
          "phone": "ih_I"
        },
        {
          "duration": 0.13,
          "phone": "t_E"
        }
      ],
      "start": 7.93,
      "startOffset": 142,
      "word": "VISIT"
    },
    {
      "alignedWord": "he",
      "case": "success",
      "end": 9.08,
      "endOffset": 150,
      "phones": [
        {
          "duration": 0.09,
          "phone": "hh_B"
        },
        {
          "duration": 0.09,
          "phone": "iy_E"
        }
      ],
      "start": 8.9,
      "startOffset": 148,
      "word": "HE"
    },
    {
      "alignedWord": "said",
      "case": "success",
      "end": 9.33,
      "endOffset": 155,
      "phones": [
        {
          "duration": 0.1,
          "phone": "s_B"
        },
        {
          "duration": 0.06,
          "phone": "eh_I"
        },
        {
          "duration": 0.08,
          "phone": "d_E"
        }
      ],
      "start": 9.09,
      "startOffset": 151,
      "word": "SAID"
    },
    {
      "alignedWord": "to",
      "case": "success",
      "end": 9.41,
      "endOffset": 158,
      "phones": [
        {
          "duration": 0.03,
          "phone": "t_B"
        },
        {
          "duration": 0.05,
          "phone": "ih_E"
        }
      ],
      "start": 9.33,
      "startOffset": 156,
      "word": "TO"
    },
    {
      "alignedWord": "the",
      "case": "success",
      "end": 9.53,
      "endOffset": 162,
      "phones": [
        {
          "duration": 0.05,
          "phone": "dh_B"
        },
        {
          "duration": 0.07,
          "phone": "ah_E"
        }
      ],
      "start": 9.41,
      "startOffset": 159,
      "word": "THE"
    },
    {
      "alignedWord": "turtles",
      "case": "success",
      "end": 9.95,
      "endOffset": 170,
      "phones": [
        {
          "duration": 0.1,
          "phone": "t_B"
        },
        {
          "duration": 0.08,
          "phone": "er_I"
        },
        {
          "duration": 0.04,
          "phone": "t_I"
        },
        {
          "duration": 0.05,
          "phone": "ah_I"
        },
        {
          "duration": 0.09,
          "phone": "l_I"
        },
        {
          "duration": 0.05,
          "phone": "z_E"
        }
      ],
      "start": 9.54,
      "startOffset": 163,
      "word": "TURTLES"
    },
    {
      "alignedWord": "who",
      "case": "success",
      "end": 10.069999999999999,
      "endOffset": 174,
      "phones": [
        {
          "duration": 0.06,
          "phone": "hh_B"
        },
        {
          "duration": 0.06,
          "phone": "uw_E"
        }
      ],
      "start": 9.95,
      "startOffset": 171,
      "word": "WHO"
    },
    {
      "alignedWord": "had",
      "case": "success",
      "end": 10.17,
      "endOffset": 178,
      "phones": [
        {
          "duration": 0.01,
          "phone": "hh_B"
        },
        {
          "duration": 0.01,
          "phone": "ae_I"
        },
        {
          "duration": 0.08,
          "phone": "d_E"
        }
      ],
      "start": 10.07,
      "startOffset": 175,
      "word": "HAD"
    },
    {
      "alignedWord": "always",
      "case": "success",
      "end": 10.54,
      "endOffset": 185,
      "phones": [
        {
          "duration": 0.07,
          "phone": "ao_B"
        },
        {
          "duration": 0.06,
          "phone": "l_I"
        },
        {
          "duration": 0.08,
          "phone": "w_I"
        },
        {
          "duration": 0.07,
          "phone": "iy_I"
        },
        {
          "duration": 0.09,
          "phone": "z_E"
        }
      ],
      "start": 10.17,
      "startOffset": 179,
      "word": "ALWAYS"
    },
    {
      "alignedWord": "lived",
      "case": "success",
      "end": 10.79,
      "endOffset": 191,
      "phones": [
        {
          "duration": 0.06,
          "phone": "l_B"
        },
        {
          "duration": 0.08,
          "phone": "ih_I"
        },
        {
          "duration": 0.05,
          "phone": "v_I"
        },
        {
          "duration": 0.06,
          "phone": "d_E"
        }
      ],
      "start": 10.54,
      "startOffset": 186,
      "word": "LIVED"
    },
    {
      "alignedWord": "there",
      "case": "success",
      "end": 11.1,
      "endOffset": 197,
      "phones": [
        {
          "duration": 0.01,
          "phone": "dh_B"
        },
        {
          "duration": 0.11,
          "phone": "eh_I"
        },
        {
          "duration": 0.19,
          "phone": "r_E"
        }
      ],
      "start": 10.79,
      "startOffset": 192,
      "word": "THERE"
    }
  ]
}