{
  "transcript": "AND TALKED A WHILE WITH HIM COME ON SAID THE BIGGEST LITTLE TURTLE DON'T LET'S WAIT ANY LONGER HE CAN CATCH UP SO THEY SPRAWLED ALONG UNTIL THEY CAME TO A PLACE WHERE THEY COULD SIT IN A ROW ON AN OLD LOG AND THEY CLIMBED ONTO IT AND SAT JUST CLOSE ENOUGH TOGETHER",
  "words": [
    {
      "alignedWord": "and",
      "case": "success",
      "end": 0.38,
      "endOffset": 3,
      "phones": [
        {
          "duration": 0.06,
          "phone": "ae_B"
        },
        {
          "duration": 0.05,
          "phone": "n_I"
        },
        {
          "duration": 0.06,
          "phone": "d_E"
        }
      ],
      "start": 0.21,
      "startOffset": 0,
      "word": "AND"
    },
    {
      "alignedWord": "talked",
      "case": "success",
      "end": 0.66,
      "endOffset": 10,
      "phones": [
        {
          "duration": 0.04,
          "phone": "t_B"
        },
        {
          "duration": 0.13,
          "phone": "ao_I"
        },
        {
          "duration": 0.06,
          "phone": "k_I"
        },
        {
          "duration": 0.05,
          "phone": "t_E"
        }
      ],
      "start": 0.38,
      "startOffset": 4,
      "word": "TALKED"
    },
    {
      "alignedWord": "a",
      "case": "success",
      "end": 0.72,
      "endOffset": 12,
      "phones": [
        {
          "duration": 0.06,
          "phone": "ah_S"
        }
      ],
      "start": 0.66,
      "startOffset": 11,
      "word": "A"
    },
    {
      "alignedWord": "while",
      "case": "success",
      "end": 1.0699999999999998,
      "endOffset": 18,
      "phones": [
        {
          "duration": 0.11,
          "phone": "w_B"
        },
        {
          "duration": 0.17,
          "phone": "ay_I"
        },
        {
          "duration": 0.07,
          "phone": "l_E"
        }
      ],
      "start": 0.72,
      "startOffset": 13,
      "word": "WHILE"
    },
    {
      "alignedWord": "with",
      "case": "success",
      "end": 1.27,
      "endOffset": 23,
      "phones": [
        {
          "duration": 0.05,
          "phone": "w_B"
        },
        {
          "duration": 0.07,
          "phone": "ih_I"
        },
        {
          "duration": 0.08,
          "phone": "th_E"
        }
      ],
      "start": 1.07,
      "startOffset": 19,
      "word": "WITH"
    },
    {
      "alignedWord": "him",
      "case": "success",
      "end": 1.57,
      "endOffset": 27,
      "phones": [
        {
          "duration": 0.03,
          "phone": "hh_B"
        },
        {
          "duration": 0.1,
          "phone": "ih_I"
        },
        {
          "duration": 0.17,
          "phone": "m_E"
        }
      ],
      "start": 1.27,
      "startOffset": 24,
      "word": "HIM"
    },
    {
      "alignedWord": "come",
      "case": "success",
      "end": 2.33,
      "endOffset": 32,
      "phones": [
        {
          "duration": 0.07,
          "phone": "k_B"
        },
        {
          "duration": 0.06,
          "phone": "ah_I"
        },
        {
          "duration": 0.06,
          "phone": "m_E"
        }
      ],
      "start": 2.14,
      "startOffset": 28,
      "word": "COME"
    },
    {
      "alignedWord": "on",
      "case": "success",
      "end": 2.8,
      "endOffset": 35,
      "phones": [
        {
          "duration": 0.31,
          "phone": "aa_B"
        },
        {
          "duration": 0.16,
          "phone": "n_E"
        }
      ],
      "start": 2.33,
      "startOffset": 33,
      "word": "ON"
    },
    {
      "alignedWord": "said",
      "case": "success",
      "end": 3.02,
      "endOffset": 40,
      "phones": [
        {
          "duration": 0.08,
          "phone": "s_B"
        },
        {
          "duration": 0.06,
          "phone": "eh_I"
        },
        {
          "duration": 0.06,
          "phone": "d_E"
        }
      ],
      "start": 2.82,
      "startOffset": 36,
      "word": "SAID"
    },
    {
      "alignedWord": "the",
      "case": "success",
      "end": 3.09,
      "endOffset": 44,
      "phones": [
        {
          "duration": 0.01,
          "phone": "dh_B"
        },
        {
          "duration": 0.06,
          "phone": "ah_E"
        }
      ],
      "start": 3.02,
      "startOffset": 41,
      "word": "THE"
    },
    {
      "alignedWord": "biggest",
      "case": "success",
      "end": 3.37,
      "endOffset": 52,
      "phones": [
        {
          "duration": 0.05,
          "phone": "b_B"
        },
        {
          "duration": 0.05,
          "phone": "ih_I"
        },
        {
          "duration": 0.05,
          "phone": "g_I"
        },
        {
          "duration": 0.04,
          "phone": "ah_I"
        },
        {
          "duration": 0.05,
          "phone": "s_I"
        },
        {
          "duration": 0.04,
          "phone": "t_E"
        }
      ],
      "start": 3.09,
      "startOffset": 45,
      "word": "BIGGEST"
    },
    {
      "alignedWord": "little",
      "case": "success",
      "end": 3.5700000000000003,
      "endOffset": 59,
      "phones": [
        {
          "duration": 0.04,
          "phone": "l_B"
        },
        {
          "duration": 0.02,
          "phone": "ih_I"
        },
        {
          "duration": 0.04,
          "phone": "t_I"
        },
        {
          "duration": 0.04,
          "phone": "ah_I"
        },
        {
          "duration": 0.06,
          "phone": "l_E"
        }
      ],
      "start": 3.37,
      "startOffset": 53,
      "word": "LITTLE"
    },
    {
      "alignedWord": "turtle",
      "case": "success",
      "end": 4.01,
      "endOffset": 66,
      "phones": [
        {
          "duration": 0.08,
          "phone": "t_B"
        },
        {
          "duration": 0.1,
          "phone": "er_I"
        },
        {
          "duration": 0.04,
          "phone": "t_I"
        },
        {
          "duration": 0.06,
          "phone": "ah_I"
        },
        {
          "duration": 0.15,
          "phone": "l_E"
        }
      ],
      "start": 3.58,
      "startOffset": 60,
      "word": "TURTLE"
    },
    {
      "alignedWord": "don't",
      "case": "success",
      "end": 4.430000000000001,
      "endOffset": 72,
      "phones": [
        {
          "duration": 0.08,
          "phone": "d_B"
        },
        {
          "duration": 0.08,
          "phone": "ow_I"
        },
        {
          "duration": 0.05,
          "phone": "n_I"
        },
        {
          "duration": 0.02,
          "phone": "t_E"
        }
      ],
      "start": 4.2,
      "startOffset": 67,
      "word": "DON'T"
    },
    {
      "alignedWord": "let's",
      "case": "success",
      "end": 4.66,
      "endOffset": 78,
      "phones": [
        {
          "duration": 0.05,
          "phone": "l_B"
        },
        {
          "duration": 0.07,
          "phone": "eh_I"
        },
        {
          "duration": 0.02,
          "phone": "t_I"
        },
        {
          "duration": 0.07,
          "phone": "s_E"
        }
      ],
      "start": 4.45,
      "startOffset": 73,
      "word": "LET'S"
    },
    {
      "alignedWord": "wait",
      "case": "success",
      "end": 4.89,
      "endOffset": 83,
      "phones": [
        {
          "duration": 0.1,
          "phone": "w_B"
        },
        {
          "duration": 0.07,
          "phone": "ey_I"
        },
        {
          "duration": 0.05,
          "phone": "t_E"
        }
      ],
      "start": 4.67,
      "startOffset": 79,
      "word": "WAIT"
    },
    {
      "alignedWord": "any",
      "case": "success",
      "end": 5.1,
      "endOffset": 87,
      "phones": [
        {
          "duration": 0.06,
          "phone": "eh_B"
        },
        {
          "duration": 0.06,
          "phone": "n_I"
        },
        {
          "duration": 0.09,
          "phone": "iy_E"
        }
      ],
      "start": 4.89,
      "startOffset": 84,
      "word": "ANY"
    },
    {
      "alignedWord": "longer",
      "case": "success",
      "end": 5.489999999999999,
      "endOffset": 94,
      "phones": [
        {
          "duration": 0.06,
          "phone": "l_B"
        },
        {
          "duration": 0.13,
          "phone": "ao_I"
        },
        {
          "duration": 0.05,
          "phone": "ng_I"
        },
        {
          "duration": 0.07,
          "phone": "g_I"
        },
        {
          "duration": 0.08,
          "phone": "er_E"
        }
      ],
      "start": 5.1,
      "startOffset": 88,
      "word": "LONGER"
    },
    {
      "alignedWord": "he",
      "case": "success",
      "end": 5.7,
      "endOffset": 97,
      "phones": [
        {
          "duration": 0.11,
          "phone": "hh_B"
        },
        {
          "duration": 0.1,
          "phone": "iy_E"
        }
      ],
      "start": 5.49,
      "startOffset": 95,
      "word": "HE"
    },
    {
      "alignedWord": "can",
      "case": "success",
      "end": 5.86,
      "endOffset": 101,
      "phones": [
        {
          "duration": 0.04,
          "phone": "k_B"
        },
        {
          "duration": 0.05,
          "phone": "ah_I"
        },
        {
          "duration": 0.07,
          "phone": "n_E"
        }
      ],
      "start": 5.7,
      "startOffset": 98,
      "word": "CAN"
    },
    {
      "alignedWord": "catch",
      "case": "success",
      "end": 6.140000000000001,
      "endOffset": 107,
      "phones": [
        {
          "duration": 0.08,
          "phone": "k_B"
        },
        {
          "duration": 0.08,
          "phone": "ae_I"
        },
        {
          "duration": 0.11,
          "phone": "ch_E"
        }
      ],
      "start": 5.87,
      "startOffset": 102,
      "word": "CATCH"
    },
    {
      "alignedWord": "up",
      "case": "success",
      "end": 6.449999999999999,
      "endOffset": 110,
      "phones": [
        {
          "duration": 0.14,
          "phone": "ah_B"
        },
        {
          "duration": 0.17,
          "phone": "p_E"
        }
      ],
      "start": 6.14,
      "startOffset": 108,
      "word": "UP"
    },
    {
      "alignedWord": "so",
      "case": "success",
      "end": 7.25,
      "endOffset": 113,
      "phones": [
        {
          "duration": 0.13,
          "phone": "s_B"
        },
        {
          "duration": 0.06,
          "phone": "ow_E"
        }
      ],
      "start": 7.06,
      "startOffset": 111,
      "word": "SO"
    },
    {
      "alignedWord": "they",
      "case": "success",
      "end": 7.4,
      "endOffset": 118,
      "phones": [
        {
          "duration": 0.07,
          "phone": "dh_B"
        },
        {
          "duration": 0.08,
          "phone": "ey_E"
        }
      ],
      "start": 7.25,
      "startOffset": 114,
      "word": "THEY"
    },
    {
      "alignedWord": "sprawled",
      "case": "success",
      "end": 7.92,
      "endOffset": 127,
      "phones": [
        {
          "duration": 0.1,
          "phone": "s_B"
        },
        {
          "duration": 0.08,
          "phone": "p_I"
        },
        {
          "duration": 0.08,
          "phone": "r_I"
        },
        {
          "duration": 0.13,
          "phone": "ao_I"
        },
        {
          "duration": 0.08,
          "phone": "l_I"
        },
        {
          "duration": 0.05,
          "phone": "d_E"
        }
      ],
      "start": 7.4,
      "startOffset": 119,
      "word": "SPRAWLED"
    },
    {
      "alignedWord": "along",
      "case": "success",
      "end": 8.34,
      "endOffset": 133,
      "phones": [
        {
          "duration": 0.06,
          "phone": "ah_B"
        },
        {
          "duration": 0.07,
          "phone": "l_I"
        },
        {
          "duration": 0.22,
          "phone": "ao_I"
        },
        {
          "duration": 0.07,
          "phone": "ng_E"
        }
      ],
      "start": 7.92,
      "startOffset": 128,
      "word": "ALONG"
    },
    {
      "alignedWord": "until",
      "case": "success",
      "end": 8.59,
      "endOffset": 139,
      "phones": [
        {
          "duration": 0.04,
          "phone": "ah_B"
        },
        {
          "duration": 0.06,
          "phone": "n_I"
        },
        {
          "duration": 0.04,
          "phone": "t_I"
        },
        {
          "duration": 0.05,
          "phone": "ih_I"
        },
        {
          "duration": 0.06,
          "phone": "l_E"
        }
      ],
      "start": 8.34,
      "startOffset": 134,
      "word": "UNTIL"
    },
    {
      "alignedWord": "they",
      "case": "success",
      "end": 8.709999999999999,
      "endOffset": 144,
      "phones": [
        {
          "duration": 0.05,
          "phone": "dh_B"
        },
        {
          "duration": 0.07,
          "phone": "ey_E"
        }
      ],
      "start": 8.59,
      "startOffset": 140,
      "word": "THEY"
    },
    {
      "alignedWord": "came",
      "case": "success",
      "end": 8.99,
      "endOffset": 149,
      "phones": [
        {
          "duration": 0.11,
          "phone": "k_B"
        },
        {
          "duration": 0.09,
          "phone": "ey_I"
        },
        {
          "duration": 0.08,
          "phone": "m_E"
        }
      ],
      "start": 8.71,
      "startOffset": 145,
      "word": "CAME"
    },
    {
      "alignedWord": "to",
      "case": "success",
      "end": 9.1,
      "endOffset": 152,
      "phones": [
        {
          "duration": 0.04,
          "phone": "t_B"
        },
        {
          "duration": 0.07,
          "phone": "uw_E"
        }
      ],
      "start": 8.99,
      "startOffset": 150,
      "word": "TO"
    },
    {
      "alignedWord": "a",
      "case": "success",
      "end": 9.159999000000001,
      "endOffset": 154,
      "phones": [
        {
          "duration": 0.06,
          "phone": "ah_S"
        }
      ],
      "start": 9.099999,
      "startOffset": 153,
      "word": "A"
    },
    {
      "alignedWord": "place",
      "case": "success",
      "end": 9.68,
      "endOffset": 160,
      "phones": [
        {
          "duration": 0.09,
          "phone": "p_B"
        },
        {
          "duration": 0.09,
          "phone": "l_I"
        },
        {
          "duration": 0.14,
          "phone": "ey_I"
        },
        {
          "duration": 0.2,
          "phone": "s_E"
        }
      ],
      "start": 9.16,
      "startOffset": 155,
      "word": "PLACE"
    },
    {
      "alignedWord": "where",
      "case": "success",
      "end": 9.979999000000001,
      "endOffset": 166,
      "phones": [
        {
          "duration": 0.06,
          "phone": "w_B"
        },
        {
          "duration": 0.04,
          "phone": "eh_I"
        },
        {
          "duration": 0.03,
          "phone": "r_E"
        }
      ],
      "start": 9.849999,
      "startOffset": 161,
      "word": "WHERE"
    },
    {
      "alignedWord": "they",
      "case": "success",
      "end": 10.1,
      "endOffset": 171,
      "phones": [
        {
          "duration": 0.05,
          "phone": "dh_B"
        },
        {
          "duration": 0.07,
          "phone": "ey_E"
        }
      ],
      "start": 9.98,
      "startOffset": 167,
      "word": "THEY"
    },
    {
      "alignedWord": "could",
      "case": "success",
      "end": 10.279999,
      "endOffset": 177,
      "phones": [
        {
          "duration": 0.06,
          "phone": "k_B"
        },
        {
          "duration": 0.04,
          "phone": "uh_I"
        },
        {
          "duration": 0.08,
          "phone": "d_E"
        }
      ],
      "start": 10.099999,
      "startOffset": 172,
      "word": "COULD"
    },
    {
      "alignedWord": "sit",
      "case": "success",
      "end": 10.54,
      "endOffset": 181,
      "phones": [
        {
          "duration": 0.14,
          "phone": "s_B"
        },
        {
          "duration": 0.07,
          "phone": "ih_I"
        },
        {
          "duration": 0.05,
          "phone": "t_E"
        }
      ],
      "start": 10.28,
      "startOffset": 178,
      "word": "SIT"
    },
    {
      "alignedWord": "in",
      "case": "success",
      "end": 10.709999,
      "endOffset": 184,
      "phones": [
        {
          "duration": 0.09,
          "phone": "ih_B"
        },
        {
          "duration": 0.06,
          "phone": "n_E"
        }
      ],
      "start": 10.559999,
      "startOffset": 182,
      "word": "IN"
    },
    {
      "alignedWord": "a",
      "case": "success",
      "end": 10.790000000000001,
      "endOffset": 186,
      "phones": [
        {
          "duration": 0.08,
          "phone": "ah_S"
        }
      ],
      "start": 10.71,
      "startOffset": 185,
      "word": "A"
    },
    {
      "alignedWord": "row",
      "case": "success",
      "end": 11.18,
      "endOffset": 190,
      "phones": [
        {
          "duration": 0.11,
          "phone": "r_B"
        },
        {
          "duration": 0.28,
          "phone": "ow_E"
        }
      ],
      "start": 10.79,
      "startOffset": 187,
      "word": "ROW"
    },
    {
      "alignedWord": "on",
      "case": "success",
      "end": 11.35,
      "endOffset": 193,
      "phones": [
        {
          "duration": 0.11,
          "phone": "ao_B"
        },
        {
          "duration": 0.05,
          "phone": "n_E"
        }
      ],
      "start": 11.19,
      "startOffset": 191,
      "word": "ON"
    },
    {
      "alignedWord": "an",
      "case": "success",
      "end": 11.469999,
      "endOffset": 196,
      "phones": [
        {
          "duration": 0.06,
          "phone": "ah_B"
        },
        {
          "duration": 0.06,
          "phone": "n_E"
        }
      ],
      "start": 11.349999,
      "startOffset": 194,
      "word": "AN"
    },
    {
      "alignedWord": "old",
      "case": "success",
      "end": 11.749998999999999,
      "endOffset": 200,
      "phones": [
        {
          "duration": 0.08,
          "phone": "ow_B"
        },
        {
          "duration": 0.1,
          "phone": "l_I"
        },
        {
          "duration": 0.1,
          "phone": "d_E"
        }
      ],
      "start": 11.469999,
      "startOffset": 197,
      "word": "OLD"
    },
    {
      "alignedWord": "log",
      "case": "success",
      "end": 12.26,
      "endOffset": 204,
      "phones": [
        {
          "duration": 0.1,
          "phone": "l_B"
        },
        {
          "duration": 0.29,
          "phone": "ao_I"
        },
        {
          "duration": 0.12,
          "phone": "g_E"
        }
      ],
      "start": 11.75,
      "startOffset": 201,
      "word": "LOG"
    },
    {
      "alignedWord": "and",
      "case": "success",
      "end": 12.92,
      "endOffset": 208,
      "phones": [
        {
          "duration": 0.06,
          "phone": "ae_B"
        },
        {
          "duration": 0.05,
          "phone": "n_I"
        },
        {
          "duration": 0.04,
          "phone": "d_E"
        }
      ],
      "start": 12.77,
      "startOffset": 205,
      "word": "AND"
    },
    {
      "alignedWord": "they",
      "case": "success",
      "end": 13.01,
      "endOffset": 213,
      "phones": [
        {
          "duration": 0.01,
          "phone": "dh_B"
        },
        {
          "duration": 0.08,
          "phone": "ey_E"
        }
      ],
      "start": 12.92,
      "startOffset": 209,
      "word": "THEY"
    },
    {
      "alignedWord": "climbed",
      "case": "success",
      "end": 13.329999,
      "endOffset": 221,
      "phones": [
        {
          "duration": 0.06,
          "phone": "k_B"
        },
        {
          "duration": 0.06,
          "phone": "l_I"
        },
        {
          "duration": 0.09,
          "phone": "ay_I"
        },
        {
          "duration": 0.07,
          "phone": "m_I"
        },
        {
          "duration": 0.04,
          "phone": "d_E"
        }
      ],
      "start": 13.009999,
      "startOffset": 214,
      "word": "CLIMBED"
    },
    {
      "alignedWord": "onto",
      "case": "success",
      "end": 13.64,
      "endOffset": 226,
      "phones": [
        {
          "duration": 0.12,
          "phone": "aa_B"
        },
        {
          "duration": 0.06,
          "phone": "n_I"
        },
        {
          "duration": 0.07,
          "phone": "t_I"
        },
        {
          "duration": 0.06,
          "phone": "uw_E"
        }
      ],
      "start": 13.33,
      "startOffset": 222,
      "word": "ONTO"
    },
    {
      "alignedWord": "it",
      "case": "success",
      "end": 13.839998999999999,
      "endOffset": 229,
      "phones": [
        {
          "duration": 0.1,
          "phone": "ih_B"
        },
        {
          "duration": 0.1,
          "phone": "t_E"
        }
      ],
      "start": 13.639999,
      "startOffset": 227,
      "word": "IT"
    },
    {
      "alignedWord": "and",
      "case": "success",
      "end": 14.1,
      "endOffset": 233,
      "phones": [
        {
          "duration": 0.05,
          "phone": "ae_B"
        },
        {
          "duration": 0.02,
          "phone": "n_I"
        },
        {
          "duration": 0.08,
          "phone": "d_E"
        }
      ],
      "start": 13.95,
      "startOffset": 230,
      "word": "AND"
    },
    {
      "alignedWord": "sat",
      "case": "success",
      "end": 14.359999,
      "endOffset": 237,
      "phones": [
        {
          "duration": 0.09,
          "phone": "s_B"
        },
        {
          "duration": 0.09,
          "phone": "ae_I"
        },
        {
          "duration": 0.08,
          "phone": "t_E"
        }
      ],
      "start": 14.099999,
      "startOffset": 234,
      "word": "SAT"
    },
    {
      "alignedWord": "just",
      "case": "success",
      "end": 14.629999999999999,
      "endOffset": 242,
      "phones": [
        {
          "duration": 0.08,
          "phone": "jh_B"
        },
        {
          "duration": 0.08,
          "phone": "ah_I"
        },
        {
          "duration": 0.05,
          "phone": "s_I"
        },
        {
          "duration": 0.06,
          "phone": "t_E"
        }
      ],
      "start": 14.36,
      "startOffset": 238,
      "word": "JUST"
    },
    {
      "alignedWord": "close",
      "case": "success",
      "end": 14.92,
      "endOffset": 248,
      "phones": [
        {
          "duration": 0.08,
          "phone": "k_B"
        },
        {
          "duration": 0.06,
          "phone": "l_I"
        },
        {
          "duration": 0.08,
          "phone": "ow_I"
        },
        {
          "duration": 0.07,
          "phone": "s_E"
        }
      ],
      "start": 14.63,
      "startOffset": 243,
      "word": "CLOSE"
    },
    {
      "alignedWord": "enough",
      "case": "success",
      "end": 15.16,
      "endOffset": 255,
      "phones": [
        {
          "duration": 0.06,
          "phone": "ih_B"
        },
        {
          "duration": 0.05,
          "phone": "n_I"
        },
        {
          "duration": 0.05,
          "phone": "ah_I"
        },
        {
          "duration": 0.08,
          "phone": "f_E"
        }
      ],
      "start": 14.92,
      "startOffset": 249,
      "word": "ENOUGH"
    },
    {
      "alignedWord": "together",
      "case": "success",
      "end": 15.57,
      "endOffset": 264,
      "phones": [
        {
          "duration": 0.04,
          "phone": "t_B"
        },
        {
          "duration": 0.04,
          "phone": "ah_I"
        },
        {
          "duration": 0.1,
          "phone": "g_I"
        },
        {
          "duration": 0.08,
          "phone": "eh_I"
        },
        {
          "duration": 0.07,
          "phone": "dh_I"
        },
        {
          "duration": 0.08,
          "phone": "er_E"
        }
      ],
      "start": 15.16,
      "startOffset": 256,
      "word": "TOGETHER"
    }
  ]
}