{
  "transcript": "THEN HE WAS VERY VERY TIRED BUT HE WANTED SO MUCH TO GET BACK TO HIS HOME IN THE POND THAT HE STARTED AT ONCE BY MOONLIGHT THIS WAS THE FIRST TIME HE HAD EVER SEEN THE MOON FOR EXCEPT WHEN THEY ARE LAYING EGGS TURTLES USUALLY SLEEP AT NIGHT",
  "words": [
    {
      "alignedWord": "then",
      "case": "success",
      "end": 0.65,
      "endOffset": 4,
      "phones": [
        {
          "duration": 0.06,
          "phone": "dh_B"
        },
        {
          "duration": 0.06,
          "phone": "eh_I"
        },
        {
          "duration": 0.04,
          "phone": "n_E"
        }
      ],
      "start": 0.49,
      "startOffset": 0,
      "word": "THEN"
    },
    {
      "alignedWord": "he",
      "case": "success",
      "end": 0.74,
      "endOffset": 7,
      "phones": [
        {
          "duration": 0.04,
          "phone": "hh_B"
        },
        {
          "duration": 0.05,
          "phone": "iy_E"
        }
      ],
      "start": 0.65,
      "startOffset": 5,
      "word": "HE"
    },
    {
      "alignedWord": "was",
      "case": "success",
      "end": 0.94,
      "endOffset": 11,
      "phones": [
        {
          "duration": 0.04,
          "phone": "w_B"
        },
        {
          "duration": 0.07,
          "phone": "ah_I"
        },
        {
          "duration": 0.09,
          "phone": "z_E"
        }
      ],
      "start": 0.74,
      "startOffset": 8,
      "word": "WAS"
    },
    {
      "alignedWord": "very",
      "case": "success",
      "end": 1.3399999999999999,
      "endOffset": 16,
      "phones": [
        {
          "duration": 0.12,
          "phone": "v_B"
        },
        {
          "duration": 0.1,
          "phone": "eh_I"
        },
        {
          "duration": 0.1,
          "phone": "r_I"
        },
        {
          "duration": 0.08,
          "phone": "iy_E"
        }
      ],
      "start": 0.94,
      "startOffset": 12,
      "word": "VERY"
    },
    {
      "alignedWord": "very",
      "case": "success",
      "end": 1.6300000000000001,
      "endOffset": 21,
      "phones": [
        {
          "duration": 0.06,
          "phone": "v_B"
        },
        {
          "duration": 0.06,
          "phone": "eh_I"
        },
        {
          "duration": 0.09,
          "phone": "r_I"
        },
        {
          "duration": 0.08,
          "phone": "iy_E"
        }
      ],
      "start": 1.34,
      "startOffset": 17,
      "word": "VERY"
    },
    {
      "alignedWord": "tired",
      "case": "success",
      "end": 2.17,
      "endOffset": 27,
      "phones": [
        {
          "duration": 0.13,
          "phone": "t_B"
        },
        {
          "duration": 0.21,
          "phone": "ay_I"
        },
        {
          "duration": 0.1,
          "phone": "er_I"
        },
        {
          "duration": 0.1,
          "phone": "d_E"
        }
      ],
      "start": 1.63,
      "startOffset": 22,
      "word": "TIRED"
    },
    {
      "alignedWord": "but",
      "case": "success",
      "end": 2.37,
      "endOffset": 31,
      "phones": [
        {
          "duration": 0.06,
          "phone": "b_B"
        },
        {
          "duration": 0.05,
          "phone": "ah_I"
        },
        {
          "duration": 0.05,
          "phone": "t_E"
        }
      ],
      "start": 2.21,
      "startOffset": 28,
      "word": "BUT"
    },
    {
      "alignedWord": "he",
      "case": "success",
      "end": 2.42,
      "endOffset": 34,
      "phones": [
        {
          "duration": 0.01,
          "phone": "hh_B"
        },
        {
          "duration": 0.04,
          "phone": "iy_E"
        }
      ],
      "start": 2.37,
      "startOffset": 32,
      "word": "HE"
    },
    {
      "alignedWord": "wanted",
      "case": "success",
      "end": 2.7399999999999998,
      "endOffset": 41,
      "phones": [
        {
          "duration": 0.07,
          "phone": "w_B"
        },
        {
          "duration": 0.08,
          "phone": "ao_I"
        },
        {
          "duration": 0.04,
          "phone": "n_I"
        },
        {
          "duration": 0.06,
          "phone": "ih_I"
        },
        {
          "duration": 0.07,
          "phone": "d_E"
        }
      ],
      "start": 2.42,
      "startOffset": 35,
      "word": "WANTED"
    },
    {
      "alignedWord": "so",
      "case": "success",
      "end": 2.97,
      "endOffset": 44,
      "phones": [
        {
          "duration": 0.15,
          "phone": "s_B"
        },
        {
          "duration": 0.08,
          "phone": "ow_E"
        }
      ],
      "start": 2.74,
      "startOffset": 42,
      "word": "SO"
    },
    {
      "alignedWord": "much",
      "case": "success",
      "end": 3.2300000000000004,
      "endOffset": 49,
      "phones": [
        {
          "duration": 0.09,
          "phone": "m_B"
        },
        {
          "duration": 0.08,
          "phone": "ah_I"
        },
        {
          "duration": 0.09,
          "phone": "ch_E"
        }
      ],
      "start": 2.97,
      "startOffset": 45,
      "word": "MUCH"
    },
    {
      "alignedWord": "to",
      "case": "success",
      "end": 3.33,
      "endOffset": 52,
      "phones": [
        {
          "duration": 0.05,
          "phone": "t_B"
        },
        {
          "duration": 0.05,
          "phone": "ih_E"
        }
      ],
      "start": 3.23,
      "startOffset": 50,
      "word": "TO"
    },
    {
      "alignedWord": "get",
      "case": "success",
      "end": 3.5,
      "endOffset": 56,
      "phones": [
        {
          "duration": 0.04,
          "phone": "g_B"
        },
        {
          "duration": 0.05,
          "phone": "ih_I"
        },
        {
          "duration": 0.08,
          "phone": "t_E"
        }
      ],
      "start": 3.33,
      "startOffset": 53,
      "word": "GET"
    },
    {
      "alignedWord": "back",
      "case": "success",
      "end": 3.74,
      "endOffset": 61,
      "phones": [
        {
          "duration": 0.05,
          "phone": "b_B"
        },
        {
          "duration": 0.13,
          "phone": "ae_I"
        },
        {
          "duration": 0.06,
          "phone": "k_E"
        }
      ],
      "start": 3.5,
      "startOffset": 57,
      "word": "BACK"
    },
    {
      "alignedWord": "to",
      "case": "success",
      "end": 3.87,
      "endOffset": 64,
      "phones": [
        {
          "duration": 0.06,
          "phone": "t_B"
        },
        {
          "duration": 0.07,
          "phone": "uw_E"
        }
      ],
      "start": 3.74,
      "startOffset": 62,
      "word": "TO"
    },
    {
      "alignedWord": "his",
      "case": "success",
      "end": 4.01,
      "endOffset": 68,
      "phones": [
        {
          "duration": 0.05,
          "phone": "hh_B"
        },
        {
          "duration": 0.01,
          "phone": "ih_I"
        },
        {
          "duration": 0.08,
          "phone": "z_E"
        }
      ],
      "start": 3.87,
      "startOffset": 65,
      "word": "HIS"
    },
    {
      "alignedWord": "home",
      "case": "success",
      "end": 4.279999999999999,
      "endOffset": 73,
      "phones": [
        {
          "duration": 0.06,
          "phone": "hh_B"
        },
        {
          "duration": 0.16,
          "phone": "ow_I"
        },
        {
          "duration": 0.05,
          "phone": "m_E"
        }
      ],
      "start": 4.01,
      "startOffset": 69,
      "word": "HOME"
    },
    {
      "alignedWord": "in",
      "case": "success",
      "end": 4.36,
      "endOffset": 76,
      "phones": [
        {
          "duration": 0.04,
          "phone": "ih_B"
        },
        {
          "duration": 0.04,
          "phone": "n_E"
        }
      ],
      "start": 4.28,
      "startOffset": 74,
      "word": "IN"
    },
    {
      "alignedWord": "the",
      "case": "success",
      "end": 4.45,
      "endOffset": 80,
      "phones": [
        {
          "duration": 0.04,
          "phone": "dh_B"
        },
        {
          "duration": 0.05,
          "phone": "ah_E"
        }
      ],
      "start": 4.36,
      "startOffset": 77,
      "word": "THE"
    },
    {
      "alignedWord": "pond",
      "case": "success",
      "end": 4.95,
      "endOffset": 85,
      "phones": [
        {
          "duration": 0.1,
          "phone": "p_B"
        },
        {
          "duration": 0.22,
          "phone": "aa_I"
        },
        {
          "duration": 0.08,
          "phone": "n_I"
        },
        {
          "duration": 0.1,
          "phone": "d_E"
        }
      ],
      "start": 4.45,
      "startOffset": 81,
      "word": "POND"
    },
    {
      "alignedWord": "that",
      "case": "success",
      "end": 5.33,
      "endOffset": 90,
      "phones": [
        {
          "duration": 0.05,
          "phone": "dh_B"
        },
        {
          "duration": 0.04,
          "phone": "ah_I"
        },
        {
          "duration": 0.04,
          "phone": "t_E"
        }
      ],
      "start": 5.2,
      "startOffset": 86,
      "word": "THAT"
    },
    {
      "alignedWord": "he",
      "case": "success",
      "end": 5.41,
      "endOffset": 93,
      "phones": [
        {
          "duration": 0.02,
          "phone": "hh_B"
        },
        {
          "duration": 0.06,
          "phone": "iy_E"
        }
      ],
      "start": 5.33,
      "startOffset": 91,
      "word": "HE"
    },
    {
      "alignedWord": "started",
      "case": "success",
      "end": 5.8100000000000005,
      "endOffset": 101,
      "phones": [
        {
          "duration": 0.08,
          "phone": "s_B"
        },
        {
          "duration": 0.08,
          "phone": "t_I"
        },
        {
          "duration": 0.09,
          "phone": "aa_I"
        },
        {
          "duration": 0.03,
          "phone": "r_I"
        },
        {
          "duration": 0.03,
          "phone": "t_I"
        },
        {
          "duration": 0.07,
          "phone": "ih_I"
        },
        {
          "duration": 0.02,
          "phone": "d_E"
        }
      ],
      "start": 5.41,
      "startOffset": 94,
      "word": "STARTED"
    },
    {
      "alignedWord": "at",
      "case": "success",
      "end": 5.9399999999999995,
      "endOffset": 104,
      "phones": [
        {
          "duration": 0.04,
          "phone": "ae_B"
        },
        {
          "duration": 0.09,
          "phone": "t_E"
        }
      ],
      "start": 5.81,
      "startOffset": 102,
      "word": "AT"
    },
    {
      "alignedWord": "once",
      "case": "success",
      "end": 6.28,
      "endOffset": 109,
      "phones": [
        {
          "duration": 0.09,
          "phone": "w_B"
        },
        {
          "duration": 0.11,
          "phone": "ah_I"
        },
        {
          "duration": 0.06,
          "phone": "n_I"
        },
        {
          "duration": 0.08,
          "phone": "s_E"
        }
      ],
      "start": 5.94,
      "startOffset": 105,
      "word": "ONCE"
    },
    {
      "alignedWord": "by",
      "case": "success",
      "end": 6.5,
      "endOffset": 112,
      "phones": [
        {
          "duration": 0.09,
          "phone": "b_B"
        },
        {
          "duration": 0.11,
          "phone": "ay_E"
        }
      ],
      "start": 6.3,
      "startOffset": 110,
      "word": "BY"
    },
    {
      "alignedWord": "moonlight",
      "case": "success",
      "end": 7.1,
      "endOffset": 122,
      "phones": [
        {
          "duration": 0.07,
          "phone": "m_B"
        },
        {
          "duration": 0.14,
          "phone": "uw_I"
        },
        {
          "duration": 0.05,
          "phone": "n_I"
        },
        {
          "duration": 0.09,
          "phone": "l_I"
        },
        {
          "duration": 0.14,
          "phone": "ay_I"
        },
        {
          "duration": 0.11,
          "phone": "t_E"
        }
      ],
      "start": 6.5,
      "startOffset": 113,
      "word": "MOONLIGHT"
    },
    {
      "alignedWord": "this",
      "case": "success",
      "end": 8.190000000000001,
      "endOffset": 127,
      "phones": [
        {
          "duration": 0.06,
          "phone": "dh_B"
        },
        {
          "duration": 0.09,
          "phone": "ih_I"
        },
        {
          "duration": 0.1,
          "phone": "s_E"
        }
      ],
      "start": 7.94,
      "startOffset": 123,
      "word": "THIS"
    },
    {
      "alignedWord": "was",
      "case": "success",
      "end": 8.32,
      "endOffset": 131,
      "phones": [
        {
          "duration": 0.03,
          "phone": "w_B"
        },
        {
          "duration": 0.05,
          "phone": "ah_I"
        },
        {
          "duration": 0.05,
          "phone": "z_E"
        }
      ],
      "start": 8.19,
      "startOffset": 128,
      "word": "WAS"
    },
    {
      "alignedWord": "the",
      "case": "success",
      "end": 8.43,
      "endOffset": 135,
      "phones": [
        {
          "duration": 0.05,
          "phone": "dh_B"
        },
        {
          "duration": 0.06,
          "phone": "ah_E"
        }
      ],
      "start": 8.32,
      "startOffset": 132,
      "word": "THE"
    },
    {
      "alignedWord": "first",
      "case": "success",
      "end": 8.789999,
      "endOffset": 141,
      "phones": [
        {
          "duration": 0.14,
          "phone": "f_B"
        },
        {
          "duration": 0.13,
          "phone": "er_I"
        },
        {
          "duration": 0.06,
          "phone": "s_I"
        },
        {
          "duration": 0.03,
          "phone": "t_E"
        }
      ],
      "start": 8.429999,
      "startOffset": 136,
      "word": "FIRST"
    },
    {
      "alignedWord": "time",
      "case": "success",
      "end": 9.09,
      "endOffset": 146,
      "phones": [
        {
          "duration": 0.07,
          "phone": "t_B"
        },
        {
          "duration": 0.15,
          "phone": "ay_I"
        },
        {
          "duration": 0.07,
          "phone": "m_E"
        }
      ],
      "start": 8.8,
      "startOffset": 142,
      "word": "TIME"
    },
    {
      "alignedWord": "he",
      "case": "success",
      "end": 9.17,
      "endOffset": 149,
      "phones": [
        {
          "duration": 0.05,
          "phone": "hh_B"
        },
        {
          "duration": 0.03,
          "phone": "iy_E"
        }
      ],
      "start": 9.09,
      "startOffset": 147,
      "word": "HE"
    },
    {
      "alignedWord": "had",
      "case": "success",
      "end": 9.28,
      "endOffset": 153,
      "phones": [
        {
          "duration": 0.02,
          "phone": "hh_B"
        },
        {
          "duration": 0.02,
          "phone": "ae_I"
        },
        {
          "duration": 0.07,
          "phone": "d_E"
        }
      ],
      "start": 9.17,
      "startOffset": 150,
      "word": "HAD"
    },
    {
      "alignedWord": "ever",
      "case": "success",
      "end": 9.55,
      "endOffset": 158,
      "phones": [
        {
          "duration": 0.09,
          "phone": "eh_B"
        },
        {
          "duration": 0.08,
          "phone": "v_I"
        },
        {
          "duration": 0.08,
          "phone": "er_E"
        }
      ],
      "start": 9.3,
      "startOffset": 154,
      "word": "EVER"
    },
    {
      "alignedWord": "seen",
      "case": "success",
      "end": 9.770000000000001,
      "endOffset": 163,
      "phones": [
        {
          "duration": 0.08,
          "phone": "s_B"
        },
        {
          "duration": 0.09,
          "phone": "iy_I"
        },
        {
          "duration": 0.05,
          "phone": "n_E"
        }
      ],
      "start": 9.55,
      "startOffset": 159,
      "word": "SEEN"
    },
    {
      "alignedWord": "the",
      "case": "success",
      "end": 9.86,
      "endOffset": 167,
      "phones": [
        {
          "duration": 0.05,
          "phone": "dh_B"
        },
        {
          "duration": 0.04,
          "phone": "ah_E"
        }
      ],
      "start": 9.77,
      "startOffset": 164,
      "word": "THE"
    },
    {
      "alignedWord": "moon",
      "case": "success",
      "end": 10.32,
      "endOffset": 172,
      "phones": [
        {
          "duration": 0.06,
          "phone": "m_B"
        },
        {
          "duration": 0.26,
          "phone": "uw_I"
        },
        {
          "duration": 0.14,
          "phone": "n_E"
        }
      ],
      "start": 9.86,
      "startOffset": 168,
      "word": "MOON"
    },
    {
      "alignedWord": "for",
      "case": "success",
      "end": 10.589999,
      "endOffset": 176,
      "phones": [
        {
          "duration": 0.11,
          "phone": "f_B"
        },
        {
          "duration": 0.05,
          "phone": "er_E"
        }
      ],
      "start": 10.429999,
      "startOffset": 173,
      "word": "FOR"
    },
    {
      "alignedWord": "except",
      "case": "success",
      "end": 11.05,
      "endOffset": 183,
      "phones": [
        {
          "duration": 0.07,
          "phone": "ih_B"
        },
        {
          "duration": 0.05,
          "phone": "k_I"
        },
        {
          "duration": 0.1,
          "phone": "s_I"
        },
        {
          "duration": 0.09,
          "phone": "eh_I"
        },
        {
          "duration": 0.05,
          "phone": "p_I"
        },
        {
          "duration": 0.1,
          "phone": "t_E"
        }
      ],
      "start": 10.59,
      "startOffset": 177,
      "word": "EXCEPT"
    },
    {
      "alignedWord": "when",
      "case": "success",
      "end": 11.370000000000001,
      "endOffset": 188,
      "phones": [
        {
          "duration": 0.09,
          "phone": "w_B"
        },
        {
          "duration": 0.06,
          "phone": "eh_I"
        },
        {
          "duration": 0.06,
          "phone": "n_E"
        }
      ],
      "start": 11.16,
      "startOffset": 184,
      "word": "WHEN"
    },
    {
      "alignedWord": "they",
      "case": "success",
      "end": 11.489999999999998,
      "endOffset": 193,
      "phones": [
        {
          "duration": 0.03,
          "phone": "dh_B"
        },
        {
          "duration": 0.09,
          "phone": "ey_E"
        }
      ],
      "start": 11.37,
      "startOffset": 189,
      "word": "THEY"
    },
    {
      "alignedWord": "are",
      "case": "success",
      "end": 11.58,
      "endOffset": 197,
      "phones": [
        {
          "duration": 0.09,
          "phone": "er_S"
        }
      ],
      "start": 11.49,
      "startOffset": 194,
      "word": "ARE"
    },
    {
      "alignedWord": "laying",
      "case": "success",
      "end": 11.98,
      "endOffset": 204,
      "phones": [
        {
          "duration": 0.11,
          "phone": "l_B"
        },
        {
          "duration": 0.15,
          "phone": "ey_I"
        },
        {
          "duration": 0.01,
          "phone": "ih_I"
        },
        {
          "duration": 0.13,
          "phone": "ng_E"
        }
      ],
      "start": 11.58,
      "startOffset": 198,
      "word": "LAYING"
    },
    {
      "alignedWord": "eggs",
      "case": "success",
      "end": 12.47,
      "endOffset": 209,
      "phones": [
        {
          "duration": 0.25,
          "phone": "eh_B"
        },
        {
          "duration": 0.1,
          "phone": "g_I"
        },
        {
          "duration": 0.14,
          "phone": "z_E"
        }
      ],
      "start": 11.98,
      "startOffset": 205,
      "word": "EGGS"
    },
    {
      "alignedWord": "turtles",
      "case": "success",
      "end": 13.389999999999999,
      "endOffset": 217,
      "phones": [
        {
          "duration": 0.11,
          "phone": "t_B"
        },
        {
          "duration": 0.07,
          "phone": "er_I"
        },
        {
          "duration": 0.05,
          "phone": "t_I"
        },
        {
          "duration": 0.03,
          "phone": "ah_I"
        },
        {
          "duration": 0.04,
          "phone": "l_I"
        },
        {
          "duration": 0.07,
          "phone": "z_E"
        }
      ],
      "start": 13.02,
      "startOffset": 210,
      "word": "TURTLES"
    },
    {
      "alignedWord": "usually",
      "case": "success",
      "end": 13.879999,
      "endOffset": 225,
      "phones": [
        {
          "duration": 0.11,
          "phone": "y_B"
        },
        {
          "duration": 0.09,
          "phone": "uw_I"
        },
        {
          "duration": 0.06,
          "phone": "zh_I"
        },
        {
          "duration": 0.08,
          "phone": "ah_I"
        },
        {
          "duration": 0.06,
          "phone": "l_I"
        },
        {
          "duration": 0.09,
          "phone": "iy_E"
        }
      ],
      "start": 13.389999,
      "startOffset": 218,
      "word": "USUALLY"
    },
    {
      "alignedWord": "sleep",
      "case": "success",
      "end": 14.190000000000001,
      "endOffset": 231,
      "phones": [
        {
          "duration": 0.1,
          "phone": "s_B"
        },
        {
          "duration": 0.07,
          "phone": "l_I"
        },
        {
          "duration": 0.07,
          "phone": "iy_I"
        },
        {
          "duration": 0.07,
          "phone": "p_E"
        }
      ],
      "start": 13.88,
      "startOffset": 226,
      "word": "SLEEP"
    },
    {
      "alignedWord": "at",
      "case": "success",
      "end": 14.299999999999999,
      "endOffset": 234,
      "phones": [
        {
          "duration": 0.03,
          "phone": "ae_B"
        },
        {
          "duration": 0.08,
          "phone": "t_E"
        }
      ],
      "start": 14.19,
      "startOffset": 232,
      "word": "AT"
    },
    {
      "alignedWord": "night",
      "case": "success",
      "end": 14.699999,
      "endOffset": 240,
      "phones": [
        {
          "duration": 0.06,
          "phone": "n_B"
        },
        {
          "duration": 0.19,
          "phone": "ay_I"
        },
        {
          "duration": 0.15,
          "phone": "t_E"
        }
      ],
      "start": 14.299999,
      "startOffset": 235,
      "word": "NIGHT"
    }
  ]
}