{
  "transcript": "I HAVE A MUCH GREATER ADMIRATION FOR SENATOR BALLOON YES BALLOON IS A MAN OF PARTS THERE IS NO DENYING IT I THINK SO HE IS SPOKEN OF FOR THE POST OF MINISTER TO CHINA OR AUSTRIA AND I HOPE WILL BE APPOINTED",
  "words": [
    {
      "alignedWord": "i",
      "case": "success",
      "end": 0.53,
      "endOffset": 1,
      "phones": [
        {
          "duration": 0.09,
          "phone": "ay_S"
        }
      ],
      "start": 0.44,
      "startOffset": 0,
      "word": "I"
    },
    {
      "alignedWord": "have",
      "case": "success",
      "end": 0.67,
      "endOffset": 6,
      "phones": [
        {
          "duration": 0.04,
          "phone": "hh_B"
        },
        {
          "duration": 0.04,
          "phone": "ae_I"
        },
        {
          "duration": 0.06,
          "phone": "v_E"
        }
      ],
      "start": 0.53,
      "startOffset": 2,
      "word": "HAVE"
    },
    {
      "alignedWord": "a",
      "case": "success",
      "end": 0.74,
      "endOffset": 8,
      "phones": [
        {
          "duration": 0.07,
          "phone": "ah_S"
        }
      ],
      "start": 0.67,
      "startOffset": 7,
      "word": "A"
    },
    {
      "alignedWord": "much",
      "case": "success",
      "end": 1.0,
      "endOffset": 13,
      "phones": [
        {
          "duration": 0.1,
          "phone": "m_B"
        },
        {
          "duration": 0.07,
          "phone": "ah_I"
        },
        {
          "duration": 0.08,
          "phone": "ch_E"
        }
      ],
      "start": 0.75,
      "startOffset": 9,
      "word": "MUCH"
    },
    {
      "alignedWord": "greater",
      "case": "success",
      "end": 1.3599999999999999,
      "endOffset": 21,
      "phones": [
        {
          "duration": 0.09,
          "phone": "g_B"
        },
        {
          "duration": 0.07,
          "phone": "r_I"
        },
        {
          "duration": 0.04,
          "phone": "ey_I"
        },
        {
          "duration": 0.07,
          "phone": "t_I"
        },
        {
          "duration": 0.09,
          "phone": "er_E"
        }
      ],
      "start": 1.0,
      "startOffset": 14,
      "word": "GREATER"
    },
    {
      "alignedWord": "admiration",
      "case": "success",
      "end": 2.0,
      "endOffset": 32,
      "phones": [
        {
          "duration": 0.07,
          "phone": "ae_B"
        },
        {
          "duration": 0.07,
          "phone": "d_I"
        },
        {
          "duration": 0.06,
          "phone": "m_I"
        },
        {
          "duration": 0.11,
          "phone": "er_I"
        },
        {
          "duration": 0.07,
          "phone": "ey_I"
        },
        {
          "duration": 0.08,
          "phone": "sh_I"
        },
        {
          "duration": 0.04,
          "phone": "ah_I"
        },
        {
          "duration": 0.14,
          "phone": "n_E"
        }
      ],
      "start": 1.36,
      "startOffset": 22,
      "word": "ADMIRATION"
    },
    {
      "alignedWord": "for",
      "case": "success",
      "end": 2.36,
      "endOffset": 36,
      "phones": [
        {
          "duration": 0.11,
          "phone": "f_B"
        },
        {
          "duration": 0.06,
          "phone": "er_E"
        }
      ],
      "start": 2.19,
      "startOffset": 33,
      "word": "FOR"
    },
    {
      "alignedWord": "senator",
      "case": "success",
      "end": 2.76,
      "endOffset": 44,
      "phones": [
        {
          "duration": 0.08,
          "phone": "s_B"
        },
        {
          "duration": 0.06,
          "phone": "eh_I"
        },
        {
          "duration": 0.05,
          "phone": "n_I"
        },
        {
          "duration": 0.07,
          "phone": "ah_I"
        },
        {
          "duration": 0.08,
          "phone": "t_I"
        },
        {
          "duration": 0.06,
          "phone": "er_E"
        }
      ],
      "start": 2.36,
      "startOffset": 37,
      "word": "SENATOR"
    },
    {
      "alignedWord": "balloon",
      "case": "success",
      "end": 3.21,
      "endOffset": 52,
      "phones": [
        {
          "duration": 0.03,
          "phone": "b_B"
        },
        {
          "duration": 0.08,
          "phone": "ah_I"
        },
        {
          "duration": 0.08,
          "phone": "l_I"
        },
        {
          "duration": 0.13,
          "phone": "uw_I"
        },
        {
          "duration": 0.13,
          "phone": "n_E"
        }
      ],
      "start": 2.76,
      "startOffset": 45,
      "word": "BALLOON"
    },
    {
      "alignedWord": "yes",
      "case": "success",
      "end": 4.43,
      "endOffset": 56,
      "phones": [
        {
          "duration": 0.11,
          "phone": "y_B"
        },
        {
          "duration": 0.09,
          "phone": "eh_I"
        },
        {
          "duration": 0.17,
          "phone": "s_E"
        }
      ],
      "start": 4.06,
      "startOffset": 53,
      "word": "YES"
    },
    {
      "alignedWord": "balloon",
      "case": "success",
      "end": 4.81,
      "endOffset": 64,
      "phones": [
        {
          "duration": 0.05,
          "phone": "b_B"
        },
        {
          "duration": 0.08,
          "phone": "ah_I"
        },
        {
          "duration": 0.07,
          "phone": "l_I"
        },
        {
          "duration": 0.1,
          "phone": "uw_I"
        },
        {
          "duration": 0.04,
          "phone": "n_E"
        }
      ],
      "start": 4.47,
      "startOffset": 57,
      "word": "BALLOON"
    },
    {
      "alignedWord": "is",
      "case": "success",
      "end": 4.9399999999999995,
      "endOffset": 67,
      "phones": [
        {
          "duration": 0.07,
          "phone": "ih_B"
        },
        {
          "duration": 0.06,
          "phone": "z_E"
        }
      ],
      "start": 4.81,
      "startOffset": 65,
      "word": "IS"
    },
    {
      "alignedWord": "a",
      "case": "success",
      "end": 5.0,
      "endOffset": 69,
      "phones": [
        {
          "duration": 0.06,
          "phone": "ah_S"
        }
      ],
      "start": 4.94,
      "startOffset": 68,
      "word": "A"
    },
    {
      "alignedWord": "man",
      "case": "success",
      "end": 5.16,
      "endOffset": 73,
      "phones": [
        {
          "duration": 0.05,
          "phone": "m_B"
        },
        {
          "duration": 0.09,
          "phone": "ae_I"
        },
        {
          "duration": 0.02,
          "phone": "n_E"
        }
      ],
      "start": 5.0,
      "startOffset": 70,
      "word": "MAN"
    },
    {
      "alignedWord": "of",
      "case": "success",
      "end": 5.29,
      "endOffset": 76,
      "phones": [
        {
          "duration": 0.06,
          "phone": "ah_B"
        },
        {
          "duration": 0.07,
          "phone": "v_E"
        }
      ],
      "start": 5.16,
      "startOffset": 74,
      "word": "OF"
    },
    {
      "alignedWord": "parts",
      "case": "success",
      "end": 5.77,
      "endOffset": 82,
      "phones": [
        {
          "duration": 0.08,
          "phone": "p_B"
        },
        {
          "duration": 0.09,
          "phone": "aa_I"
        },
        {
          "duration": 0.05,
          "phone": "r_I"
        },
        {
          "duration": 0.06,
          "phone": "t_I"
        },
        {
          "duration": 0.2,
          "phone": "s_E"
        }
      ],
      "start": 5.29,
      "startOffset": 77,
      "word": "PARTS"
    },
    {
      "alignedWord": "there",
      "case": "success",
      "end": 5.92,
      "endOffset": 88,
      "phones": [
        {
          "duration": 0.08,
          "phone": "dh_B"
        },
        {
          "duration": 0.04,
          "phone": "eh_I"
        },
        {
          "duration": 0.01,
          "phone": "r_E"
        }
      ],
      "start": 5.79,
      "startOffset": 83,
      "word": "THERE"
    },
    {
      "alignedWord": "is",
      "case": "success",
      "end": 5.99,
      "endOffset": 91,
      "phones": [
        {
          "duration": 0.02,
          "phone": "ih_B"
        },
        {
          "duration": 0.05,
          "phone": "z_E"
        }
      ],
      "start": 5.92,
      "startOffset": 89,
      "word": "IS"
    },
    {
      "alignedWord": "no",
      "case": "success",
      "end": 6.140000000000001,
      "endOffset": 94,
      "phones": [
        {
          "duration": 0.07,
          "phone": "n_B"
        },
        {
          "duration": 0.08,
          "phone": "ow_E"
        }
      ],
      "start": 5.99,
      "startOffset": 92,
      "word": "NO"
    },
    {
      "alignedWord": "denying",
      "case": "success",
      "end": 6.59,
      "endOffset": 102,
      "phones": [
        {
          "duration": 0.07,
          "phone": "d_B"
        },
        {
          "duration": 0.06,
          "phone": "ih_I"
        },
        {
          "duration": 0.07,
          "phone": "n_I"
        },
        {
          "duration": 0.12,
          "phone": "ay_I"
        },
        {
          "duration": 0.05,
          "phone": "ih_I"
        },
        {
          "duration": 0.08,
          "phone": "ng_E"
        }
      ],
      "start": 6.14,
      "startOffset": 95,
      "word": "DENYING"
    },
    {
      "alignedWord": "it",
      "case": "success",
      "end": 6.84,
      "endOffset": 105,
      "phones": [
        {
          "duration": 0.06,
          "phone": "ih_B"
        },
        {
          "duration": 0.19,
          "phone": "t_E"
        }
      ],
      "start": 6.59,
      "startOffset": 103,
      "word": "IT"
    },
    {
      "alignedWord": "i",
      "case": "success",
      "end": 7.75,
      "endOffset": 107,
      "phones": [
        {
          "duration": 0.12,
          "phone": "ay_S"
        }
      ],
      "start": 7.63,
      "startOffset": 106,
      "word": "I"
    },
    {
      "alignedWord": "think",
      "case": "success",
      "end": 8.02,
      "endOffset": 113,
      "phones": [
        {
          "duration": 0.1,
          "phone": "th_B"
        },
        {
          "duration": 0.03,
          "phone": "ih_I"
        },
        {
          "duration": 0.08,
          "phone": "ng_I"
        },
        {
          "duration": 0.06,
          "phone": "k_E"
        }
      ],
      "start": 7.75,
      "startOffset": 108,
      "word": "THINK"
    },
    {
      "alignedWord": "so",
      "case": "success",
      "end": 8.34,
      "endOffset": 116,
      "phones": [
        {
          "duration": 0.07,
          "phone": "s_B"
        },
        {
          "duration": 0.25,
          "phone": "ow_E"
        }
      ],
      "start": 8.02,
      "startOffset": 114,
      "word": "SO"
    },
    {
      "alignedWord": "he",
      "case": "success",
      "end": 8.530000000000001,
      "endOffset": 119,
      "phones": [
        {
          "duration": 0.09,
          "phone": "hh_B"
        },
        {
          "duration": 0.06,
          "phone": "iy_E"
        }
      ],
      "start": 8.38,
      "startOffset": 117,
      "word": "HE"
    },
    {
      "alignedWord": "is",
      "case": "success",
      "end": 8.639999999999999,
      "endOffset": 122,
      "phones": [
        {
          "duration": 0.06,
          "phone": "ih_B"
        },
        {
          "duration": 0.05,
          "phone": "z_E"
        }
      ],
      "start": 8.53,
      "startOffset": 120,
      "word": "IS"
    },
    {
      "alignedWord": "spoken",
      "case": "success",
      "end": 9.049999,
      "endOffset": 129,
      "phones": [
        {
          "duration": 0.08,
          "phone": "s_B"
        },
        {
          "duration": 0.08,
          "phone": "p_I"
        },
        {
          "duration": 0.08,
          "phone": "ow_I"
        },
        {
          "duration": 0.06,
          "phone": "k_I"
        },
        {
          "duration": 0.06,
          "phone": "ah_I"
        },
        {
          "duration": 0.05,
          "phone": "n_E"
        }
      ],
      "start": 8.639999,
      "startOffset": 123,
      "word": "SPOKEN"
    },
    {
      "alignedWord": "of",
      "case": "success",
      "end": 9.23,
      "endOffset": 132,
      "phones": [
        {
          "duration": 0.08,
          "phone": "ah_B"
        },
        {
          "duration": 0.1,
          "phone": "v_E"
        }
      ],
      "start": 9.05,
      "startOffset": 130,
      "word": "OF"
    },
    {
      "alignedWord": "for",
      "case": "success",
      "end": 9.36,
      "endOffset": 136,
      "phones": [
        {
          "duration": 0.06,
          "phone": "f_B"
        },
        {
          "duration": 0.06,
          "phone": "er_E"
        }
      ],
      "start": 9.24,
      "startOffset": 133,
      "word": "FOR"
    },
    {
      "alignedWord": "the",
      "case": "success",
      "end": 9.45,
      "endOffset": 140,
      "phones": [
        {
          "duration": 0.02,
          "phone": "dh_B"
        },
        {
          "duration": 0.07,
          "phone": "ah_E"
        }
      ],
      "start": 9.36,
      "startOffset": 137,
      "word": "THE"
    },
    {
      "alignedWord": "post",
      "case": "success",
      "end": 9.739999999999998,
      "endOffset": 145,
      "phones": [
        {
          "duration": 0.09,
          "phone": "p_B"
        },
        {
          "duration": 0.1,
          "phone": "ow_I"
        },
        {
          "duration": 0.05,
          "phone": "s_I"
        },
        {
          "duration": 0.05,
          "phone": "t_E"
        }
      ],
      "start": 9.45,
      "startOffset": 141,
      "word": "POST"
    },
    {
      "alignedWord": "of",
      "case": "success",
      "end": 9.88,
      "endOffset": 148,
      "phones": [
        {
          "duration": 0.07,
          "phone": "ah_B"
        },
        {
          "duration": 0.07,
          "phone": "v_E"
        }
      ],
      "start": 9.74,
      "startOffset": 146,
      "word": "OF"
    },
    {
      "alignedWord": "minister",
      "case": "success",
      "end": 10.290000000000001,
      "endOffset": 157,
      "phones": [
        {
          "duration": 0.05,
          "phone": "m_B"
        },
        {
          "duration": 0.07,
          "phone": "ih_I"
        },
        {
          "duration": 0.06,
          "phone": "n_I"
        },
        {
          "duration": 0.06,
          "phone": "ih_I"
        },
        {
          "duration": 0.03,
          "phone": "s_I"
        },
        {
          "duration": 0.08,
          "phone": "t_I"
        },
        {
          "duration": 0.06,
          "phone": "er_E"
        }
      ],
      "start": 9.88,
      "startOffset": 149,
      "word": "MINISTER"
    },
    {
      "alignedWord": "to",
      "case": "success",
      "end": 10.45,
      "endOffset": 160,
      "phones": [
        {
          "duration": 0.09,
          "phone": "t_B"
        },
        {
          "duration": 0.07,
          "phone": "ih_E"
        }
      ],
      "start": 10.29,
      "startOffset": 158,
      "word": "TO"
    },
    {
      "alignedWord": "china",
      "case": "success",
      "end": 10.979999999999999,
      "endOffset": 166,
      "phones": [
        {
          "duration": 0.15,
          "phone": "ch_B"
        },
        {
          "duration": 0.15,
          "phone": "ay_I"
        },
        {
          "duration": 0.05,
          "phone": "n_I"
        },
        {
          "duration": 0.18,
          "phone": "ah_E"
        }
      ],
      "start": 10.45,
      "startOffset": 161,
      "word": "CHINA"
    },
    {
      "alignedWord": "or",
      "case": "success",
      "end": 11.31,
      "endOffset": 169,
      "phones": [
        {
          "duration": 0.24,
          "phone": "er_S"
        }
      ],
      "start": 11.07,
      "startOffset": 167,
      "word": "OR"
    },
    {
      "alignedWord": "austria",
      "case": "success",
      "end": 11.859999,
      "endOffset": 177,
      "phones": [
        {
          "duration": 0.12,
          "phone": "ao_B"
        },
        {
          "duration": 0.08,
          "phone": "s_I"
        },
        {
          "duration": 0.06,
          "phone": "t_I"
        },
        {
          "duration": 0.08,
          "phone": "r_I"
        },
        {
          "duration": 0.07,
          "phone": "iy_I"
        },
        {
          "duration": 0.14,
          "phone": "ah_E"
        }
      ],
      "start": 11.309999,
      "startOffset": 170,
      "word": "AUSTRIA"
    },
    {
      "alignedWord": "and",
      "case": "success",
      "end": 12.319999999999999,
      "endOffset": 181,
      "phones": [
        {
          "duration": 0.06,
          "phone": "ah_B"
        },
        {
          "duration": 0.01,
          "phone": "n_I"
        },
        {
          "duration": 0.05,
          "phone": "d_E"
        }
      ],
      "start": 12.2,
      "startOffset": 178,
      "word": "AND"
    },
    {
      "alignedWord": "i",
      "case": "success",
      "end": 12.34,
      "endOffset": 183,
      "phones": [
        {
          "duration": 0.02,
          "phone": "ay_S"
        }
      ],
      "start": 12.32,
      "startOffset": 182,
      "word": "I"
    },
    {
      "alignedWord": "hope",
      "case": "success",
      "end": 12.6,
      "endOffset": 188,
      "phones": [
        {
          "duration": 0.1,
          "phone": "hh_B"
        },
        {
          "duration": 0.07,
          "phone": "ow_I"
        },
        {
          "duration": 0.09,
          "phone": "p_E"
        }
      ],
      "start": 12.34,
      "startOffset": 184,
      "word": "HOPE"
    },
    {
      "alignedWord": "will",
      "case": "success",
      "end": 12.709999,
      "endOffset": 193,
      "phones": [
        {
          "duration": 0.03,
          "phone": "w_B"
        },
        {
          "duration": 0.03,
          "phone": "ih_I"
        },
        {
          "duration": 0.05,
          "phone": "l_E"
        }
      ],
      "start": 12.599999,
      "startOffset": 189,
      "word": "WILL"
    },
    {
      "alignedWord": "be",
      "case": "success",
      "end": 12.83,
      "endOffset": 196,
      "phones": [
        {
          "duration": 0.06,
          "phone": "b_B"
        },
        {
          "duration": 0.06,
          "phone": "iy_E"
        }
      ],
      "start": 12.71,
      "startOffset": 194,
      "word": "BE"
    },
    {
      "alignedWord": "appointed",
      "case": "success",
      "end": 13.3,
      "endOffset": 206,
      "phones": [
        {
          "duration": 0.05,
          "phone": "ah_B"
        },
        {
          "duration": 0.09,
          "phone": "p_I"
        },
        {
          "duration": 0.1,
          "phone": "oy_I"
        },
        {
          "duration": 0.04,
          "phone": "n_I"
        },
        {
          "duration": 0.05,
          "phone": "t_I"
        },
        {
          "duration": 0.06,
          "phone": "ih_I"
        },
        {
          "duration": 0.08,
          "phone": "d_E"
        }
      ],
      "start": 12.83,
      "startOffset": 197,
      "word": "APPOINTED"
    }
  ]
}