{
  "transcript": "DON'T YOU THINK CALLING SUPPER ONE'S EVENING MEAL IS PRETTY AND ISN'T BEREFT A NICE WORD YES THAT PART OF IT DOES VERY WELL IT IS THE CAT THE CHIPS AND THE MILK PAIL THAT I DON'T LIKE",
  "words": [
    {
      "alignedWord": "don't",
      "case": "success",
      "end": 0.46,
      "endOffset": 5,
      "phones": [
        {
          "duration": 0.08,
          "phone": "d_B"
        },
        {
          "duration": 0.04,
          "phone": "ow_I"
        },
        {
          "duration": 0.02,
          "phone": "n_I"
        },
        {
          "duration": 0.05,
          "phone": "t_E"
        }
      ],
      "start": 0.27,
      "startOffset": 0,
      "word": "DON'T"
    },
    {
      "alignedWord": "you",
      "case": "success",
      "end": 0.5,
      "endOffset": 9,
      "phones": [
        {
          "duration": 0.01,
          "phone": "y_B"
        },
        {
          "duration": 0.03,
          "phone": "uw_E"
        }
      ],
      "start": 0.46,
      "startOffset": 6,
      "word": "YOU"
    },
    {
      "alignedWord": "think",
      "case": "success",
      "end": 0.77,
      "endOffset": 15,
      "phones": [
        {
          "duration": 0.08,
          "phone": "th_B"
        },
        {
          "duration": 0.04,
          "phone": "ih_I"
        },
        {
          "duration": 0.08,
          "phone": "ng_I"
        },
        {
          "duration": 0.02,
          "phone": "k_E"
        }
      ],
      "start": 0.55,
      "startOffset": 10,
      "word": "THINK"
    },
    {
      "alignedWord": "calling",
      "case": "success",
      "end": 1.15,
      "endOffset": 23,
      "phones": [
        {
          "duration": 0.07,
          "phone": "k_B"
        },
        {
          "duration": 0.06,
          "phone": "ao_I"
        },
        {
          "duration": 0.05,
          "phone": "l_I"
        },
        {
          "duration": 0.05,
          "phone": "ih_I"
        },
        {
          "duration": 0.12,
          "phone": "ng_E"
        }
      ],
      "start": 0.8,
      "startOffset": 16,
      "word": "CALLING"
    },
    {
      "alignedWord": "supper",
      "case": "success",
      "end": 1.44,
      "endOffset": 30,
      "phones": [
        {
          "duration": 0.07,
          "phone": "s_B"
        },
        {
          "duration": 0.08,
          "phone": "ah_I"
        },
        {
          "duration": 0.09,
          "phone": "p_I"
        },
        {
          "duration": 0.05,
          "phone": "er_E"
        }
      ],
      "start": 1.15,
      "startOffset": 24,
      "word": "SUPPER"
    },
    {
      "alignedWord": "one's",
      "case": "success",
      "end": 1.75,
      "endOffset": 36,
      "phones": [
        {
          "duration": 0.09,
          "phone": "w_B"
        },
        {
          "duration": 0.09,
          "phone": "ah_I"
        },
        {
          "duration": 0.06,
          "phone": "n_I"
        },
        {
          "duration": 0.07,
          "phone": "z_E"
        }
      ],
      "start": 1.44,
      "startOffset": 31,
      "word": "ONE'S"
    },
    {
      "alignedWord": "evening",
      "case": "success",
      "end": 2.17,
      "endOffset": 44,
      "phones": [
        {
          "duration": 0.16,
          "phone": "iy_B"
        },
        {
          "duration": 0.07,
          "phone": "v_I"
        },
        {
          "duration": 0.04,
          "phone": "n_I"
        },
        {
          "duration": 0.07,
          "phone": "ih_I"
        },
        {
          "duration": 0.07,
          "phone": "ng_E"
        }
      ],
      "start": 1.76,
      "startOffset": 37,
      "word": "EVENING"
    },
    {
      "alignedWord": "meal",
      "case": "success",
      "end": 2.51,
      "endOffset": 49,
      "phones": [
        {
          "duration": 0.08,
          "phone": "m_B"
        },
        {
          "duration": 0.15,
          "phone": "iy_I"
        },
        {
          "duration": 0.11,
          "phone": "l_E"
        }
      ],
      "start": 2.17,
      "startOffset": 45,
      "word": "MEAL"
    },
    {
      "alignedWord": "is",
      "case": "success",
      "end": 2.69,
      "endOffset": 52,
      "phones": [
        {
          "duration": 0.09,
          "phone": "ih_B"
        },
        {
          "duration": 0.09,
          "phone": "z_E"
        }
      ],
      "start": 2.51,
      "startOffset": 50,
      "word": "IS"
    },
    {
      "alignedWord": "pretty",
      "case": "success",
      "end": 3.09,
      "endOffset": 59,
      "phones": [
        {
          "duration": 0.05,
          "phone": "p_B"
        },
        {
          "duration": 0.05,
          "phone": "r_I"
        },
        {
          "duration": 0.01,
          "phone": "ih_I"
        },
        {
          "duration": 0.09,
          "phone": "t_I"
        },
        {
          "duration": 0.2,
          "phone": "iy_E"
        }
      ],
      "start": 2.69,
      "startOffset": 53,
      "word": "PRETTY"
    },
    {
      "alignedWord": "and",
      "case": "success",
      "end": 3.48,
      "endOffset": 63,
      "phones": [
        {
          "duration": 0.1,
          "phone": "ae_B"
        },
        {
          "duration": 0.08,
          "phone": "n_I"
        },
        {
          "duration": 0.02,
          "phone": "d_E"
        }
      ],
      "start": 3.28,
      "startOffset": 60,
      "word": "AND"
    },
    {
      "alignedWord": "isn't",
      "case": "success",
      "end": 3.76,
      "endOffset": 69,
      "phones": [
        {
          "duration": 0.07,
          "phone": "ih_B"
        },
        {
          "duration": 0.06,
          "phone": "z_I"
        },
        {
          "duration": 0.05,
          "phone": "ah_I"
        },
        {
          "duration": 0.1,
          "phone": "n_E"
        }
      ],
      "start": 3.48,
      "startOffset": 64,
      "word": "ISN'T"
    },
    {
      "alignedWord": "bereft",
      "case": "success",
      "end": 4.18,
      "endOffset": 76,
      "phones": [
        {
          "duration": 0.07,
          "phone": "b_B"
        },
        {
          "duration": 0.09,
          "phone": "er_I"
        },
        {
          "duration": 0.11,
          "phone": "eh_I"
        },
        {
          "duration": 0.09,
          "phone": "f_I"
        },
        {
          "duration": 0.06,
          "phone": "t_E"
        }
      ],
      "start": 3.76,
      "startOffset": 70,
      "word": "BEREFT"
    },
    {
      "alignedWord": "a",
      "case": "success",
      "end": 4.239999999999999,
      "endOffset": 78,
      "phones": [
        {
          "duration": 0.06,
          "phone": "ah_S"
        }
      ],
      "start": 4.18,
      "startOffset": 77,
      "word": "A"
    },
    {
      "alignedWord": "nice",
      "case": "success",
      "end": 4.55,
      "endOffset": 83,
      "phones": [
        {
          "duration": 0.08,
          "phone": "n_B"
        },
        {
          "duration": 0.11,
          "phone": "ay_I"
        },
        {
          "duration": 0.12,
          "phone": "s_E"
        }
      ],
      "start": 4.24,
      "startOffset": 79,
      "word": "NICE"
    },
    {
      "alignedWord": "word",
      "case": "success",
      "end": 4.96,
      "endOffset": 88,
      "phones": [
        {
          "duration": 0.11,
          "phone": "w_B"
        },
        {
          "duration": 0.11,
          "phone": "er_I"
        },
        {
          "duration": 0.19,
          "phone": "d_E"
        }
      ],
      "start": 4.55,
      "startOffset": 84,
      "word": "WORD"
    },
    {
      "alignedWord": "yes",
      "case": "success",
      "end": 5.94,
      "endOffset": 92,
      "phones": [
        {
          "duration": 0.12,
          "phone": "y_B"
        },
        {
          "duration": 0.11,
          "phone": "eh_I"
        },
        {
          "duration": 0.09,
          "phone": "s_E"
        }
      ],
      "start": 5.62,
      "startOffset": 89,
      "word": "YES"
    },
    {
      "alignedWord": "that",
      "case": "success",
      "end": 6.15,
      "endOffset": 97,
      "phones": [
        {
          "duration": 0.09,
          "phone": "dh_B"
        },
        {
          "duration": 0.04,
          "phone": "ae_I"
        },
        {
          "duration": 0.07,
          "phone": "t_E"
        }
      ],
      "start": 5.95,
      "startOffset": 93,
      "word": "THAT"
    },
    {
      "alignedWord": "part",
      "case": "success",
      "end": 6.390000000000001,
      "endOffset": 102,
      "phones": [
        {
          "duration": 0.08,
          "phone": "p_B"
        },
        {
          "duration": 0.07,
          "phone": "aa_I"
        },
        {
          "duration": 0.06,
          "phone": "r_I"
        },
        {
          "duration": 0.03,
          "phone": "t_E"
        }
      ],
      "start": 6.15,
      "startOffset": 98,
      "word": "PART"
    },
    {
      "alignedWord": "of",
      "case": "success",
      "end": 6.5,
      "endOffset": 105,
      "phones": [
        {
          "duration": 0.06,
          "phone": "ah_B"
        },
        {
          "duration": 0.05,
          "phone": "v_E"
        }
      ],
      "start": 6.39,
      "startOffset": 103,
      "word": "OF"
    },
    {
      "alignedWord": "it",
      "case": "success",
      "end": 6.6,
      "endOffset": 108,
      "phones": [
        {
          "duration": 0.04,
          "phone": "ih_B"
        },
        {
          "duration": 0.06,
          "phone": "t_E"
        }
      ],
      "start": 6.5,
      "startOffset": 106,
      "word": "IT"
    },
    {
      "alignedWord": "does",
      "case": "success",
      "end": 6.84,
      "endOffset": 113,
      "phones": [
        {
          "duration": 0.06,
          "phone": "d_B"
        },
        {
          "duration": 0.11,
          "phone": "ah_I"
        },
        {
          "duration": 0.07,
          "phone": "z_E"
        }
      ],
      "start": 6.6,
      "startOffset": 109,
      "word": "DOES"
    },
    {
      "alignedWord": "very",
      "case": "success",
      "end": 7.12,
      "endOffset": 118,
      "phones": [
        {
          "duration": 0.06,
          "phone": "v_B"
        },
        {
          "duration": 0.07,
          "phone": "eh_I"
        },
        {
          "duration": 0.09,
          "phone": "r_I"
        },
        {
          "duration": 0.06,
          "phone": "iy_E"
        }
      ],
      "start": 6.84,
      "startOffset": 114,
      "word": "VERY"
    },
    {
      "alignedWord": "well",
      "case": "success",
      "end": 7.57,
      "endOffset": 123,
      "phones": [
        {
          "duration": 0.08,
          "phone": "w_B"
        },
        {
          "duration": 0.17,
          "phone": "eh_I"
        },
        {
          "duration": 0.2,
          "phone": "l_E"
        }
      ],
      "start": 7.12,
      "startOffset": 119,
      "word": "WELL"
    },
    {
      "alignedWord": "it",
      "case": "success",
      "end": 8.0,
      "endOffset": 126,
      "phones": [
        {
          "duration": 0.08,
          "phone": "ih_B"
        },
        {
          "duration": 0.05,
          "phone": "t_E"
        }
      ],
      "start": 7.87,
      "startOffset": 124,
      "word": "IT"
    },
    {
      "alignedWord": "is",
      "case": "success",
      "end": 8.14,
      "endOffset": 129,
      "phones": [
        {
          "duration": 0.06,
          "phone": "ih_B"
        },
        {
          "duration": 0.08,
          "phone": "z_E"
        }
      ],
      "start": 8.0,
      "startOffset": 127,
      "word": "IS"
    },
    {
      "alignedWord": "the",
      "case": "success",
      "end": 8.249998999999999,
      "endOffset": 133,
      "phones": [
        {
          "duration": 0.05,
          "phone": "dh_B"
        },
        {
          "duration": 0.06,
          "phone": "ah_E"
        }
      ],
      "start": 8.139999,
      "startOffset": 130,
      "word": "THE"
    },
    {
      "alignedWord": "cat",
      "case": "success",
      "end": 8.62,
      "endOffset": 137,
      "phones": [
        {
          "duration": 0.11,
          "phone": "k_B"
        },
        {
          "duration": 0.16,
          "phone": "ae_I"
        },
        {
          "duration": 0.1,
          "phone": "t_E"
        }
      ],
      "start": 8.25,
      "startOffset": 134,
      "word": "CAT"
    },
    {
      "alignedWord": "the",
      "case": "success",
      "end": 8.729999999999999,
      "endOffset": 141,
      "phones": [
        {
          "duration": 0.06,
          "phone": "dh_B"
        },
        {
          "duration": 0.05,
          "phone": "ah_E"
        }
      ],
      "start": 8.62,
      "startOffset": 138,
      "word": "THE"
    },
    {
      "alignedWord": "chips",
      "case": "success",
      "end": 9.120000000000001,
      "endOffset": 147,
      "phones": [
        {
          "duration": 0.14,
          "phone": "ch_B"
        },
        {
          "duration": 0.09,
          "phone": "ih_I"
        },
        {
          "duration": 0.09,
          "phone": "p_I"
        },
        {
          "duration": 0.07,
          "phone": "s_E"
        }
      ],
      "start": 8.73,
      "startOffset": 142,
      "word": "CHIPS"
    },
    {
      "alignedWord": "and",
      "case": "success",
      "end": 9.39,
      "endOffset": 151,
      "phones": [
        {
          "duration": 0.15,
          "phone": "ae_B"
        },
        {
          "duration": 0.05,
          "phone": "n_I"
        },
        {
          "duration": 0.04,
          "phone": "d_E"
        }
      ],
      "start": 9.15,
      "startOffset": 148,
      "word": "AND"
    },
    {
      "alignedWord": "the",
      "case": "success",
      "end": 9.459999,
      "endOffset": 155,
      "phones": [
        {
          "duration": 0.01,
          "phone": "dh_B"
        },
        {
          "duration": 0.06,
          "phone": "ah_E"
        }
      ],
      "start": 9.389999,
      "startOffset": 152,
      "word": "THE"
    },
    {
      "alignedWord": "milk",
      "case": "success",
      "end": 9.71,
      "endOffset": 160,
      "phones": [
        {
          "duration": 0.04,
          "phone": "m_B"
        },
        {
          "duration": 0.08,
          "phone": "ih_I"
        },
        {
          "duration": 0.05,
          "phone": "l_I"
        },
        {
          "duration": 0.08,
          "phone": "k_E"
        }
      ],
      "start": 9.46,
      "startOffset": 156,
      "word": "MILK"
    },
    {
      "alignedWord": "pail",
      "case": "success",
      "end": 10.08,
      "endOffset": 165,
      "phones": [
        {
          "duration": 0.12,
          "phone": "p_B"
        },
        {
          "duration": 0.15,
          "phone": "ey_I"
        },
        {
          "duration": 0.1,
          "phone": "l_E"
        }
      ],
      "start": 9.71,
      "startOffset": 161,
      "word": "PAIL"
    },
    {
      "alignedWord": "that",
      "case": "success",
      "end": 10.23,
      "endOffset": 170,
      "phones": [
        {
          "duration": 0.04,
          "phone": "dh_B"
        },
        {
          "duration": 0.06,
          "phone": "ah_I"
        },
        {
          "duration": 0.05,
          "phone": "t_E"
        }
      ],
      "start": 10.08,
      "startOffset": 166,
      "word": "THAT"
    },
    {
      "alignedWord": "i",
      "case": "success",
      "end": 10.32,
      "endOffset": 172,
      "phones": [
        {
          "duration": 0.09,
          "phone": "ay_S"
        }
      ],
      "start": 10.23,
      "startOffset": 171,
      "word": "I"
    },
    {
      "alignedWord": "don't",
      "case": "success",
      "end": 10.59,
      "endOffset": 178,
      "phones": [
        {
          "duration": 0.07,
          "phone": "d_B"
        },
        {
          "duration": 0.08,
          "phone": "ow_I"
        },
        {
          "duration": 0.06,
          "phone": "n_I"
        },
        {
          "duration": 0.05,
          "phone": "t_E"
        }
      ],
      "start": 10.33,
      "startOffset": 173,
      "word": "DON'T"
    },
    {
      "alignedWord": "like",
      "case": "success",
      "end": 11.06,
      "endOffset": 183,
      "phones": [
        {
          "duration": 0.09,
          "phone": "l_B"
        },
        {
          "duration": 0.12,
          "phone": "ay_I"
        },
        {
          "duration": 0.26,
          "phone": "k_E"
        }
      ],
      "start": 10.59,
      "startOffset": 179,
      "word": "LIKE"
    }
  ]
}