{
  "transcript": "THE LITTLE WEEPER ANSWERED EAGERLY SMILING THROUGH HER TEARS ELSIE RAN OUT OF THE ROOM AND WAS BACK AGAIN ALMOST IN A MOMENT WITH THE DOLL IN HER ARMS THERE DEAR LITTLE FLORA SHE SAID LAYING IT GENTLY ON THE CHILD'S LAP",
  "words": [
    {
      "alignedWord": "the",
      "case": "success",
      "end": 0.25,
      "endOffset": 3,
      "phones": [
        {
          "duration": 0.03,
          "phone": "dh_B"
        },
        {
          "duration": 0.08,
          "phone": "ah_E"
        }
      ],
      "start": 0.14,
      "startOffset": 0,
      "word": "THE"
    },
    {
      "alignedWord": "little",
      "case": "success",
      "end": 0.52,
      "endOffset": 10,
      "phones": [
        {
          "duration": 0.05,
          "phone": "l_B"
        },
        {
          "duration": 0.05,
          "phone": "ih_I"
        },
        {
          "duration": 0.04,
          "phone": "t_I"
        },
        {
          "duration": 0.05,
          "phone": "ah_I"
        },
        {
          "duration": 0.08,
          "phone": "l_E"
        }
      ],
      "start": 0.25,
      "startOffset": 4,
      "word": "LITTLE"
    },
    {
      "alignedWord": "<unk>",
      "case": "success",
      "end": 0.88,
      "endOffset": 17,
      "phones": [
        {
          "duration": 0.36,
          "phone": "oov_S"
        }
      ],
      "start": 0.52,
      "startOffset": 11,
      "word": "WEEPER"
    },
    {
      "alignedWord": "answered",
      "case": "success",
      "end": 1.3,
      "endOffset": 26,
      "phones": [
        {
          "duration": 0.12,
          "phone": "ae_B"
        },
        {
          "duration": 0.08,
          "phone": "n_I"
        },
        {
          "duration": 0.08,
          "phone": "s_I"
        },
        {
          "duration": 0.06,
          "phone": "er_I"
        },
        {
          "duration": 0.06,
          "phone": "d_E"
        }
      ],
      "start": 0.9,
      "startOffset": 18,
      "word": "ANSWERED"
    },
    {
      "alignedWord": "eagerly",
      "case": "success",
      "end": 1.9100000000000001,
      "endOffset": 34,
      "phones": [
        {
          "duration": 0.13,
          "phone": "iy_B"
        },
        {
          "duration": 0.07,
          "phone": "g_I"
        },
        {
          "duration": 0.11,
          "phone": "er_I"
        },
        {
          "duration": 0.08,
          "phone": "l_I"
        },
        {
          "duration": 0.19,
          "phone": "iy_E"
        }
      ],
      "start": 1.33,
      "startOffset": 27,
      "word": "EAGERLY"
    },
    {
      "alignedWord": "smiling",
      "case": "success",
      "end": 2.67,
      "endOffset": 42,
      "phones": [
        {
          "duration": 0.23,
          "phone": "s_B"
        },
        {
          "duration": 0.07,
          "phone": "m_I"
        },
        {
          "duration": 0.13,
          "phone": "ay_I"
        },
        {
          "duration": 0.05,
          "phone": "l_I"
        },
        {
          "duration": 0.06,
          "phone": "ih_I"
        },
        {
          "duration": 0.04,
          "phone": "ng_E"
        }
      ],
      "start": 2.09,
      "startOffset": 35,
      "word": "SMILING"
    },
    {
      "alignedWord": "through",
      "case": "success",
      "end": 2.83,
      "endOffset": 50,
      "phones": [
        {
          "duration": 0.07,
          "phone": "th_B"
        },
        {
          "duration": 0.05,
          "phone": "r_I"
        },
        {
          "duration": 0.04,
          "phone": "uw_E"
        }
      ],
      "start": 2.67,
      "startOffset": 43,
      "word": "THROUGH"
    },
    {
      "alignedWord": "her",
      "case": "success",
      "end": 2.98,
      "endOffset": 54,
      "phones": [
        {
          "duration": 0.09,
          "phone": "hh_B"
        },
        {
          "duration": 0.06,
          "phone": "er_E"
        }
      ],
      "start": 2.83,
      "startOffset": 51,
      "word": "HER"
    },
    {
      "alignedWord": "tears",
      "case": "success",
      "end": 3.5,
      "endOffset": 60,
      "phones": [
        {
          "duration": 0.07,
          "phone": "t_B"
        },
        {
          "duration": 0.15,
          "phone": "ih_I"
        },
        {
          "duration": 0.13,
          "phone": "r_I"
        },
        {
          "duration": 0.17,
          "phone": "z_E"
        }
      ],
      "start": 2.98,
      "startOffset": 55,
      "word": "TEARS"
    },
    {
      "alignedWord": "elsie",
      "case": "success",
      "end": 4.6,
      "endOffset": 66,
      "phones": [
        {
          "duration": 0.09,
          "phone": "eh_B"
        },
        {
          "duration": 0.09,
          "phone": "l_I"
        },
        {
          "duration": 0.1,
          "phone": "s_I"
        },
        {
          "duration": 0.1,
          "phone": "iy_E"
        }
      ],
      "start": 4.22,
      "startOffset": 61,
      "word": "ELSIE"
    },
    {
      "alignedWord": "ran",
      "case": "success",
      "end": 4.859999999999999,
      "endOffset": 70,
      "phones": [
        {
          "duration": 0.1,
          "phone": "r_B"
        },
        {
          "duration": 0.09,
          "phone": "ae_I"
        },
        {
          "duration": 0.07,
          "phone": "n_E"
        }
      ],
      "start": 4.6,
      "startOffset": 67,
      "word": "RAN"
    },
    {
      "alignedWord": "out",
      "case": "success",
      "end": 4.96,
      "endOffset": 74,
      "phones": [
        {
          "duration": 0.06,
          "phone": "aw_B"
        },
        {
          "duration": 0.04,
          "phone": "t_E"
        }
      ],
      "start": 4.86,
      "startOffset": 71,
      "word": "OUT"
    },
    {
      "alignedWord": "of",
      "case": "success",
      "end": 5.06,
      "endOffset": 77,
      "phones": [
        {
          "duration": 0.06,
          "phone": "ah_B"
        },
        {
          "duration": 0.04,
          "phone": "v_E"
        }
      ],
      "start": 4.96,
      "startOffset": 75,
      "word": "OF"
    },
    {
      "alignedWord": "the",
      "case": "success",
      "end": 5.159999999999999,
      "endOffset": 81,
      "phones": [
        {
          "duration": 0.02,
          "phone": "dh_B"
        },
        {
          "duration": 0.08,
          "phone": "ah_E"
        }
      ],
      "start": 5.06,
      "startOffset": 78,
      "word": "THE"
    },
    {
      "alignedWord": "room",
      "case": "success",
      "end": 5.45,
      "endOffset": 86,
      "phones": [
        {
          "duration": 0.13,
          "phone": "r_B"
        },
        {
          "duration": 0.09,
          "phone": "uw_I"
        },
        {
          "duration": 0.07,
          "phone": "m_E"
        }
      ],
      "start": 5.16,
      "startOffset": 82,
      "word": "ROOM"
    },
    {
      "alignedWord": "and",
      "case": "success",
      "end": 5.640000000000001,
      "endOffset": 90,
      "phones": [
        {
          "duration": 0.05,
          "phone": "ae_B"
        },
        {
          "duration": 0.04,
          "phone": "n_I"
        },
        {
          "duration": 0.07,
          "phone": "d_E"
        }
      ],
      "start": 5.48,
      "startOffset": 87,
      "word": "AND"
    },
    {
      "alignedWord": "was",
      "case": "success",
      "end": 5.79,
      "endOffset": 94,
      "phones": [
        {
          "duration": 0.02,
          "phone": "w_B"
        },
        {
          "duration": 0.05,
          "phone": "ah_I"
        },
        {
          "duration": 0.08,
          "phone": "z_E"
        }
      ],
      "start": 5.64,
      "startOffset": 91,
      "word": "WAS"
    },
    {
      "alignedWord": "back",
      "case": "success",
      "end": 6.05,
      "endOffset": 99,
      "phones": [
        {
          "duration": 0.06,
          "phone": "b_B"
        },
        {
          "duration": 0.11,
          "phone": "ae_I"
        },
        {
          "duration": 0.09,
          "phone": "k_E"
        }
      ],
      "start": 5.79,
      "startOffset": 95,
      "word": "BACK"
    },
    {
      "alignedWord": "again",
      "case": "success",
      "end": 6.35,
      "endOffset": 105,
      "phones": [
        {
          "duration": 0.06,
          "phone": "ah_B"
        },
        {
          "duration": 0.08,
          "phone": "g_I"
        },
        {
          "duration": 0.08,
          "phone": "eh_I"
        },
        {
          "duration": 0.08,
          "phone": "n_E"
        }
      ],
      "start": 6.05,
      "startOffset": 100,
      "word": "AGAIN"
    },
    {
      "alignedWord": "almost",
      "case": "success",
      "end": 6.8,
      "endOffset": 112,
      "phones": [
        {
          "duration": 0.1,
          "phone": "ao_B"
        },
        {
          "duration": 0.06,
          "phone": "l_I"
        },
        {
          "duration": 0.04,
          "phone": "m_I"
        },
        {
          "duration": 0.03,
          "phone": "ow_I"
        },
        {
          "duration": 0.11,
          "phone": "s_I"
        },
        {
          "duration": 0.07,
          "phone": "t_E"
        }
      ],
      "start": 6.39,
      "startOffset": 106,
      "word": "ALMOST"
    },
    {
      "alignedWord": "in",
      "case": "success",
      "end": 6.87,
      "endOffset": 115,
      "phones": [
        {
          "duration": 0.02,
          "phone": "ih_B"
        },
        {
          "duration": 0.05,
          "phone": "n_E"
        }
      ],
      "start": 6.8,
      "startOffset": 113,
      "word": "IN"
    },
    {
      "alignedWord": "a",
      "case": "success",
      "end": 6.93,
      "endOffset": 117,
      "phones": [
        {
          "duration": 0.06,
          "phone": "ah_S"
        }
      ],
      "start": 6.87,
      "startOffset": 116,
      "word": "A"
    },
    {
      "alignedWord": "moment",
      "case": "success",
      "end": 7.319999999999999,
      "endOffset": 124,
      "phones": [
        {
          "duration": 0.06,
          "phone": "m_B"
        },
        {
          "duration": 0.09,
          "phone": "ow_I"
        },
        {
          "duration": 0.07,
          "phone": "m_I"
        },
        {
          "duration": 0.06,
          "phone": "ah_I"
        },
        {
          "duration": 0.03,
          "phone": "n_I"
        },
        {
          "duration": 0.08,
          "phone": "t_E"
        }
      ],
      "start": 6.93,
      "startOffset": 118,
      "word": "MOMENT"
    },
    {
      "alignedWord": "with",
      "case": "success",
      "end": 7.5600000000000005,
      "endOffset": 129,
      "phones": [
        {
          "duration": 0.09,
          "phone": "w_B"
        },
        {
          "duration": 0.04,
          "phone": "ih_I"
        },
        {
          "duration": 0.06,
          "phone": "th_E"
        }
      ],
      "start": 7.37,
      "startOffset": 125,
      "word": "WITH"
    },
    {
      "alignedWord": "the",
      "case": "success",
      "end": 7.659999999999999,
      "endOffset": 133,
      "phones": [
        {
          "duration": 0.04,
          "phone": "dh_B"
        },
        {
          "duration": 0.06,
          "phone": "ah_E"
        }
      ],
      "start": 7.56,
      "startOffset": 130,
      "word": "THE"
    },
    {
      "alignedWord": "doll",
      "case": "success",
      "end": 7.87,
      "endOffset": 138,
      "phones": [
        {
          "duration": 0.06,
          "phone": "d_B"
        },
        {
          "duration": 0.1,
          "phone": "aa_I"
        },
        {
          "duration": 0.05,
          "phone": "l_E"
        }
      ],
      "start": 7.66,
      "startOffset": 134,
      "word": "DOLL"
    },
    {
      "alignedWord": "in",
      "case": "success",
      "end": 7.98,
      "endOffset": 141,
      "phones": [
        {
          "duration": 0.05,
          "phone": "ih_B"
        },
        {
          "duration": 0.06,
          "phone": "n_E"
        }
      ],
      "start": 7.87,
      "startOffset": 139,
      "word": "IN"
    },
    {
      "alignedWord": "her",
      "case": "success",
      "end": 8.110000000000001,
      "endOffset": 145,
      "phones": [
        {
          "duration": 0.06,
          "phone": "hh_B"
        },
        {
          "duration": 0.07,
          "phone": "er_E"
        }
      ],
      "start": 7.98,
      "startOffset": 142,
      "word": "HER"
    },
    {
      "alignedWord": "arms",
      "case": "success",
      "end": 8.61,
      "endOffset": 150,
      "phones": [
        {
          "duration": 0.09,
          "phone": "aa_B"
        },
        {
          "duration": 0.12,
          "phone": "r_I"
        },
        {
          "duration": 0.09,
          "phone": "m_I"
        },
        {
          "duration": 0.2,
          "phone": "z_E"
        }
      ],
      "start": 8.11,
      "startOffset": 146,
      "word": "ARMS"
    },
    {
      "alignedWord": "there",
      "case": "success",
      "end": 9.96,
      "endOffset": 156,
      "phones": [
        {
          "duration": 0.09,
          "phone": "dh_B"
        },
        {
          "duration": 0.15,
          "phone": "eh_I"
        },
        {
          "duration": 0.07,
          "phone": "r_E"
        }
      ],
      "start": 9.65,
      "startOffset": 151,
      "word": "THERE"
    },
    {
      "alignedWord": "dear",
      "case": "success",
      "end": 10.23,
      "endOffset": 161,
      "phones": [
        {
          "duration": 0.1,
          "phone": "d_B"
        },
        {
          "duration": 0.09,
          "phone": "ih_I"
        },
        {
          "duration": 0.08,
          "phone": "r_E"
        }
      ],
      "start": 9.96,
      "startOffset": 157,
      "word": "DEAR"
    },
    {
      "alignedWord": "little",
      "case": "success",
      "end": 10.46,
      "endOffset": 168,
      "phones": [
        {
          "duration": 0.04,
          "phone": "l_B"
        },
        {
          "duration": 0.04,
          "phone": "ih_I"
        },
        {
          "duration": 0.04,
          "phone": "t_I"
        },
        {
          "duration": 0.05,
          "phone": "ah_I"
        },
        {
          "duration": 0.06,
          "phone": "l_E"
        }
      ],
      "start": 10.23,
      "startOffset": 162,
      "word": "LITTLE"
    },
    {
      "alignedWord": "flora",
      "case": "success",
      "end": 10.950000000000001,
      "endOffset": 174,
      "phones": [
        {
          "duration": 0.11,
          "phone": "f_B"
        },
        {
          "duration": 0.03,
          "phone": "l_I"
        },
        {
          "duration": 0.08,
          "phone": "ao_I"
        },
        {
          "duration": 0.07,
          "phone": "r_I"
        },
        {
          "duration": 0.2,
          "phone": "ah_E"
        }
      ],
      "start": 10.46,
      "startOffset": 169,
      "word": "FLORA"
    },
    {
      "alignedWord": "she",
      "case": "success",
      "end": 11.22,
      "endOffset": 178,
      "phones": [
        {
          "duration": 0.18,
          "phone": "sh_B"
        },
        {
          "duration": 0.08,
          "phone": "iy_E"
        }
      ],
      "start": 10.96,
      "startOffset": 175,
      "word": "SHE"
    },
    {
      "alignedWord": "said",
      "case": "success",
      "end": 11.6,
      "endOffset": 183,
      "phones": [
        {
          "duration": 0.12,
          "phone": "s_B"
        },
        {
          "duration": 0.1,
          "phone": "eh_I"
        },
        {
          "duration": 0.15,
          "phone": "d_E"
        }
      ],
      "start": 11.23,
      "startOffset": 179,
      "word": "SAID"
    },
    {
      "alignedWord": "laying",
      "case": "success",
      "end": 12.29,
      "endOffset": 190,
      "phones": [
        {
          "duration": 0.13,
          "phone": "l_B"
        },
        {
          "duration": 0.08,
          "phone": "ey_I"
        },
        {
          "duration": 0.01,
          "phone": "ih_I"
        },
        {
          "duration": 0.07,
          "phone": "ng_E"
        }
      ],
      "start": 12.0,
      "startOffset": 184,
      "word": "LAYING"
    },
    {
      "alignedWord": "it",
      "case": "success",
      "end": 12.43,
      "endOffset": 193,
      "phones": [
        {
          "duration": 0.07,
          "phone": "ih_B"
        },
        {
          "duration": 0.07,
          "phone": "t_E"
        }
      ],
      "start": 12.29,
      "startOffset": 191,
      "word": "IT"
    },
    {
      "alignedWord": "gently",
      "case": "success",
      "end": 12.789999,
      "endOffset": 200,
      "phones": [
        {
          "duration": 0.06,
          "phone": "jh_B"
        },
        {
          "duration": 0.07,
          "phone": "eh_I"
        },
        {
          "duration": 0.04,
          "phone": "n_I"
        },
        {
          "duration": 0.05,
          "phone": "t_I"
        },
        {
          "duration": 0.07,
          "phone": "l_I"
        },
        {
          "duration": 0.07,
          "phone": "iy_E"
        }
      ],
      "start": 12.429999,
      "startOffset": 194,
      "word": "GENTLY"
    },
    {
      "alignedWord": "on",
      "case": "success",
      "end": 12.899999999999999,
      "endOffset": 203,
      "phones": [
        {
          "duration": 0.06,
          "phone": "ao_B"
        },
        {
          "duration": 0.05,
          "phone": "n_E"
        }
      ],
      "start": 12.79,
      "startOffset": 201,
      "word": "ON"
    },
    {
      "alignedWord": "the",
      "case": "success",
      "end": 13.0,
      "endOffset": 207,
      "phones": [
        {
          "duration": 0.06,
          "phone": "dh_B"
        },
        {
          "duration": 0.04,
          "phone": "ah_E"
        }
      ],
      "start": 12.9,
      "startOffset": 204,
      "word": "THE"
    },
    {
      "alignedWord": "child's",
      "case": "success",
      "end": 13.44,
      "endOffset": 215,
      "phones": [
        {
          "duration": 0.12,
          "phone": "ch_B"
        },
        {
          "duration": 0.14,
          "phone": "ay_I"
        },
        {
          "duration": 0.04,
          "phone": "l_I"
        },
        {
          "duration": 0.05,
          "phone": "d_I"
        },
        {
          "duration": 0.09,
          "phone": "z_E"
        }
      ],
      "start": 13.0,
      "startOffset": 208,
      "word": "CHILD'S"
    },
    {
      "alignedWord": "lap",
      "case": "success",
      "end": 13.78,
      "endOffset": 219,
      "phones": [
        {
          "duration": 0.07,
          "phone": "l_B"
        },
        {
          "duration": 0.12,
          "phone": "ae_I"
        },
        {
          "duration": 0.15,
          "phone": "p_E"
        }
      ],
      "start": 13.44,
      "startOffset": 216,
      "word": "LAP"
    }
  ]
}