{
  "transcript": "THE LIKE INCREASE OF THE BILLS WAS OBSERVED IN THE PARISHES OF SAINT BRIDE'S ADJOINING ON ONE SIDE OF HOLBORN PARISH AND IN THE PARISH OF SAINT JAMES CLERKENWELL ADJOINING ON THE OTHER SIDE OF HOLBORN",
  "words": [
    {
      "alignedWord": "the",
      "case": "success",
      "end": 0.45999999999999996,
      "endOffset": 3,
      "phones": [
        {
          "duration": 0.08,
          "phone": "dh_B"
        },
        {
          "duration": 0.07,
          "phone": "ah_E"
        }
      ],
      "start": 0.31,
      "startOffset": 0,
      "word": "THE"
    },
    {
      "alignedWord": "like",
      "case": "success",
      "end": 0.78,
      "endOffset": 8,
      "phones": [
        {
          "duration": 0.1,
          "phone": "l_B"
        },
        {
          "duration": 0.1,
          "phone": "ay_I"
        },
        {
          "duration": 0.12,
          "phone": "k_E"
        }
      ],
      "start": 0.46,
      "startOffset": 4,
      "word": "LIKE"
    },
    {
      "alignedWord": "increase",
      "case": "success",
      "end": 1.6099999999999999,
      "endOffset": 17,
      "phones": [
        {
          "duration": 0.14,
          "phone": "ih_B"
        },
        {
          "duration": 0.09,
          "phone": "n_I"
        },
        {
          "duration": 0.1,
          "phone": "k_I"
        },
        {
          "duration": 0.08,
          "phone": "r_I"
        },
        {
          "duration": 0.13,
          "phone": "iy_I"
        },
        {
          "duration": 0.28,
          "phone": "s_E"
        }
      ],
      "start": 0.79,
      "startOffset": 9,
      "word": "INCREASE"
    },
    {
      "alignedWord": "of",
      "case": "success",
      "end": 1.9,
      "endOffset": 20,
      "phones": [
        {
          "duration": 0.1,
          "phone": "ah_B"
        },
        {
          "duration": 0.07,
          "phone": "v_E"
        }
      ],
      "start": 1.73,
      "startOffset": 18,
      "word": "OF"
    },
    {
      "alignedWord": "the",
      "case": "success",
      "end": 1.96,
      "endOffset": 24,
      "phones": [
        {
          "duration": 0.01,
          "phone": "dh_B"
        },
        {
          "duration": 0.05,
          "phone": "ah_E"
        }
      ],
      "start": 1.9,
      "startOffset": 21,
      "word": "THE"
    },
    {
      "alignedWord": "bills",
      "case": "success",
      "end": 2.39,
      "endOffset": 30,
      "phones": [
        {
          "duration": 0.08,
          "phone": "b_B"
        },
        {
          "duration": 0.1,
          "phone": "ih_I"
        },
        {
          "duration": 0.15,
          "phone": "l_I"
        },
        {
          "duration": 0.1,
          "phone": "z_E"
        }
      ],
      "start": 1.96,
      "startOffset": 25,
      "word": "BILLS"
    },
    {
      "alignedWord": "was",
      "case": "success",
      "end": 2.58,
      "endOffset": 34,
      "phones": [
        {
          "duration": 0.06,
          "phone": "w_B"
        },
        {
          "duration": 0.06,
          "phone": "ah_I"
        },
        {
          "duration": 0.07,
          "phone": "z_E"
        }
      ],
      "start": 2.39,
      "startOffset": 31,
      "word": "WAS"
    },
    {
      "alignedWord": "observed",
      "case": "success",
      "end": 3.05,
      "endOffset": 43,
      "phones": [
        {
          "duration": 0.04,
          "phone": "ah_B"
        },
        {
          "duration": 0.08,
          "phone": "b_I"
        },
        {
          "duration": 0.09,
          "phone": "z_I"
        },
        {
          "duration": 0.14,
          "phone": "er_I"
        },
        {
          "duration": 0.07,
          "phone": "v_I"
        },
        {
          "duration": 0.05,
          "phone": "d_E"
        }
      ],
      "start": 2.58,
      "startOffset": 35,
      "word": "OBSERVED"
    },
    {
      "alignedWord": "in",
      "case": "success",
      "end": 3.1399999999999997,
      "endOffset": 46,
      "phones": [
        {
          "duration": 0.05,
          "phone": "ih_B"
        },
        {
          "duration": 0.04,
          "phone": "n_E"
        }
      ],
      "start": 3.05,
      "startOffset": 44,
      "word": "IN"
    },
    {
      "alignedWord": "the",
      "case": "success",
      "end": 3.22,
      "endOffset": 50,
      "phones": [
        {
          "duration": 0.04,
          "phone": "dh_B"
        },
        {
          "duration": 0.04,
          "phone": "ah_E"
        }
      ],
      "start": 3.14,
      "startOffset": 47,
      "word": "THE"
    },
    {
      "alignedWord": "parishes",
      "case": "success",
      "end": 3.8400000000000003,
      "endOffset": 59,
      "phones": [
        {
          "duration": 0.08,
          "phone": "p_B"
        },
        {
          "duration": 0.09,
          "phone": "eh_I"
        },
        {
          "duration": 0.08,
          "phone": "r_I"
        },
        {
          "duration": 0.08,
          "phone": "ih_I"
        },
        {
          "duration": 0.09,
          "phone": "sh_I"
        },
        {
          "duration": 0.1,
          "phone": "ih_I"
        },
        {
          "duration": 0.1,
          "phone": "z_E"
        }
      ],
      "start": 3.22,
      "startOffset": 51,
      "word": "PARISHES"
    },
    {
      "alignedWord": "of",
      "case": "success",
      "end": 4.01,
      "endOffset": 62,
      "phones": [
        {
          "duration": 0.08,
          "phone": "ah_B"
        },
        {
          "duration": 0.09,
          "phone": "v_E"
        }
      ],
      "start": 3.84,
      "startOffset": 60,
      "word": "OF"
    },
    {
      "alignedWord": "saint",
      "case": "success",
      "end": 4.3,
      "endOffset": 68,
      "phones": [
        {
          "duration": 0.11,
          "phone": "s_B"
        },
        {
          "duration": 0.06,
          "phone": "ey_I"
        },
        {
          "duration": 0.08,
          "phone": "n_I"
        },
        {
          "duration": 0.04,
          "phone": "t_E"
        }
      ],
      "start": 4.01,
      "startOffset": 63,
      "word": "SAINT"
    },
    {
      "alignedWord": "bride's",
      "case": "success",
      "end": 4.88,
      "endOffset": 76,
      "phones": [
        {
          "duration": 0.07,
          "phone": "b_B"
        },
        {
          "duration": 0.08,
          "phone": "r_I"
        },
        {
          "duration": 0.25,
          "phone": "ay_I"
        },
        {
          "duration": 0.08,
          "phone": "d_I"
        },
        {
          "duration": 0.1,
          "phone": "z_E"
        }
      ],
      "start": 4.3,
      "startOffset": 69,
      "word": "BRIDE'S"
    },
    {
      "alignedWord": "adjoining",
      "case": "success",
      "end": 5.67,
      "endOffset": 86,
      "phones": [
        {
          "duration": 0.09,
          "phone": "ah_B"
        },
        {
          "duration": 0.13,
          "phone": "jh_I"
        },
        {
          "duration": 0.1,
          "phone": "oy_I"
        },
        {
          "duration": 0.05,
          "phone": "n_I"
        },
        {
          "duration": 0.07,
          "phone": "ih_I"
        },
        {
          "duration": 0.08,
          "phone": "ng_E"
        }
      ],
      "start": 5.15,
      "startOffset": 77,
      "word": "ADJOINING"
    },
    {
      "alignedWord": "on",
      "case": "success",
      "end": 5.91,
      "endOffset": 89,
      "phones": [
        {
          "duration": 0.12,
          "phone": "ao_B"
        },
        {
          "duration": 0.11,
          "phone": "n_E"
        }
      ],
      "start": 5.68,
      "startOffset": 87,
      "word": "ON"
    },
    {
      "alignedWord": "one",
      "case": "success",
      "end": 6.16,
      "endOffset": 93,
      "phones": [
        {
          "duration": 0.07,
          "phone": "w_B"
        },
        {
          "duration": 0.09,
          "phone": "ah_I"
        },
        {
          "duration": 0.09,
          "phone": "n_E"
        }
      ],
      "start": 5.91,
      "startOffset": 90,
      "word": "ONE"
    },
    {
      "alignedWord": "side",
      "case": "success",
      "end": 6.53,
      "endOffset": 98,
      "phones": [
        {
          "duration": 0.12,
          "phone": "s_B"
        },
        {
          "duration": 0.17,
          "phone": "ay_I"
        },
        {
          "duration": 0.08,
          "phone": "d_E"
        }
      ],
      "start": 6.16,
      "startOffset": 94,
      "word": "SIDE"
    },
    {
      "alignedWord": "of",
      "case": "success",
      "end": 6.68,
      "endOffset": 101,
      "phones": [
        {
          "duration": 0.06,
          "phone": "ah_B"
        },
        {
          "duration": 0.08,
          "phone": "v_E"
        }
      ],
      "start": 6.54,
      "startOffset": 99,
      "word": "OF"
    },
    {
      "alignedWord": "<unk>",
      "case": "success",
      "end": 7.180000000000001,
      "endOffset": 109,
      "phones": [
        {
          "duration": 0.49,
          "phone": "oov_S"
        }
      ],
      "start": 6.69,
      "startOffset": 102,
      "word": "HOLBORN"
    },
    {
      "alignedWord": "parish",
      "case": "success",
      "end": 7.66,
      "endOffset": 116,
      "phones": [
        {
          "duration": 0.06,
          "phone": "p_B"
        },
        {
          "duration": 0.08,
          "phone": "eh_I"
        },
        {
          "duration": 0.08,
          "phone": "r_I"
        },
        {
          "duration": 0.07,
          "phone": "ih_I"
        },
        {
          "duration": 0.16,
          "phone": "sh_E"
        }
      ],
      "start": 7.21,
      "startOffset": 110,
      "word": "PARISH"
    },
    {
      "alignedWord": "and",
      "case": "success",
      "end": 8.32,
      "endOffset": 120,
      "phones": [
        {
          "duration": 0.11,
          "phone": "ae_B"
        },
        {
          "duration": 0.06,
          "phone": "n_I"
        },
        {
          "duration": 0.02,
          "phone": "d_E"
        }
      ],
      "start": 8.13,
      "startOffset": 117,
      "word": "AND"
    },
    {
      "alignedWord": "in",
      "case": "success",
      "end": 8.4,
      "endOffset": 123,
      "phones": [
        {
          "duration": 0.04,
          "phone": "ih_B"
        },
        {
          "duration": 0.04,
          "phone": "n_E"
        }
      ],
      "start": 8.32,
      "startOffset": 121,
      "word": "IN"
    },
    {
      "alignedWord": "the",
      "case": "success",
      "end": 8.49,
      "endOffset": 127,
      "phones": [
        {
          "duration": 0.04,
          "phone": "dh_B"
        },
        {
          "duration": 0.05,
          "phone": "ah_E"
        }
      ],
      "start": 8.4,
      "startOffset": 124,
      "word": "THE"
    },
    {
      "alignedWord": "parish",
      "case": "success",
      "end": 8.86,
      "endOffset": 134,
      "phones": [
        {
          "duration": 0.08,
          "phone": "p_B"
        },
        {
          "duration": 0.08,
          "phone": "eh_I"
        },
        {
          "duration": 0.06,
          "phone": "r_I"
        },
        {
          "duration": 0.07,
          "phone": "ih_I"
        },
        {
          "duration": 0.08,
          "phone": "sh_E"
        }
      ],
      "start": 8.49,
      "startOffset": 128,
      "word": "PARISH"
    },
    {
      "alignedWord": "of",
      "case": "success",
      "end": 9.01,
      "endOffset": 137,
      "phones": [
        {
          "duration": 0.08,
          "phone": "ah_B"
        },
        {
          "duration": 0.07,
          "phone": "v_E"
        }
      ],
      "start": 8.86,
      "startOffset": 135,
      "word": "OF"
    },
    {
      "alignedWord": "saint",
      "case": "success",
      "end": 9.29,
      "endOffset": 143,
      "phones": [
        {
          "duration": 0.12,
          "phone": "s_B"
        },
        {
          "duration": 0.07,
          "phone": "ey_I"
        },
        {
          "duration": 0.08,
          "phone": "n_I"
        },
        {
          "duration": 0.01,
          "phone": "t_E"
        }
      ],
      "start": 9.01,
      "startOffset": 138,
      "word": "SAINT"
    },
    {
      "alignedWord": "james",
      "case": "success",
      "end": 9.959999999999999,
      "endOffset": 149,
      "phones": [
        {
          "duration": 0.14,
          "phone": "jh_B"
        },
        {
          "duration": 0.19,
          "phone": "ey_I"
        },
        {
          "duration": 0.13,
          "phone": "m_I"
        },
        {
          "duration": 0.21,
          "phone": "z_E"
        }
      ],
      "start": 9.29,
      "startOffset": 144,
      "word": "JAMES"
    },
    {
      "alignedWord": "<unk>",
      "case": "success",
      "end": 11.11,
      "endOffset": 161,
      "phones": [
        {
          "duration": 0.67,
          "phone": "oov_S"
        }
      ],
      "start": 10.44,
      "startOffset": 150,
      "word": "CLERKENWELL"
    },
    {
      "alignedWord": "adjoining",
      "case": "success",
      "end": 12.33,
      "endOffset": 171,
      "phones": [
        {
          "duration": 0.11,
          "phone": "ah_B"
        },
        {
          "duration": 0.11,
          "phone": "jh_I"
        },
        {
          "duration": 0.1,
          "phone": "oy_I"
        },
        {
          "duration": 0.03,
          "phone": "n_I"
        },
        {
          "duration": 0.07,
          "phone": "ih_I"
        },
        {
          "duration": 0.08,
          "phone": "ng_E"
        }
      ],
      "start": 11.83,
      "startOffset": 162,
      "word": "ADJOINING"
    },
    {
      "alignedWord": "on",
      "case": "success",
      "end": 12.44,
      "endOffset": 174,
      "phones": [
        {
          "duration": 0.06,
          "phone": "aa_B"
        },
        {
          "duration": 0.05,
          "phone": "n_E"
        }
      ],
      "start": 12.33,
      "startOffset": 172,
      "word": "ON"
    },
    {
      "alignedWord": "the",
      "case": "success",
      "end": 12.59,
      "endOffset": 178,
      "phones": [
        {
          "duration": 0.05,
          "phone": "dh_B"
        },
        {
          "duration": 0.09,
          "phone": "iy_E"
        }
      ],
      "start": 12.45,
      "startOffset": 175,
      "word": "THE"
    },
    {
      "alignedWord": "other",
      "case": "success",
      "end": 12.829999,
      "endOffset": 184,
      "phones": [
        {
          "duration": 0.08,
          "phone": "ah_B"
        },
        {
          "duration": 0.07,
          "phone": "dh_I"
        },
        {
          "duration": 0.08,
          "phone": "er_E"
        }
      ],
      "start": 12.599999,
      "startOffset": 179,
      "word": "OTHER"
    },
    {
      "alignedWord": "side",
      "case": "success",
      "end": 13.17,
      "endOffset": 189,
      "phones": [
        {
          "duration": 0.13,
          "phone": "s_B"
        },
        {
          "duration": 0.14,
          "phone": "ay_I"
        },
        {
          "duration": 0.07,
          "phone": "d_E"
        }
      ],
      "start": 12.83,
      "startOffset": 185,
      "word": "SIDE"
    },
    {
      "alignedWord": "of",
      "case": "success",
      "end": 13.299999,
      "endOffset": 192,
      "phones": [
        {
          "duration": 0.05,
          "phone": "ah_B"
        },
        {
          "duration": 0.07,
          "phone": "v_E"
        }
      ],
      "start": 13.179999,
      "startOffset": 190,
      "word": "OF"
    },
    {
      "alignedWord": "<unk>",
      "case": "success",
      "end": 13.879999,
      "endOffset": 200,
      "phones": [
        {
          "duration": 0.58,
          "phone": "oov_S"
        }
      ],
      "start": 13.299999,
      "startOffset": 193,
      "word": "HOLBORN"
    }
  ]
}