{
  "transcript": "ONLY BECAUSE I COULD NOT HIRE A HORSE TO GO OR MY FELLOW WAS RUN AWAY THAT WAS TO ATTEND ME WAS RIDICULOUS SINCE AT THE TIME I HAD MY HEALTH AND LIMBS AND OTHER SERVANTS AND MIGHT",
  "words": [
    {
      "alignedWord": "only",
      "case": "success",
      "end": 0.5900000000000001,
      "endOffset": 4,
      "phones": [
        {
          "duration": 0.16,
          "phone": "ow_B"
        },
        {
          "duration": 0.07,
          "phone": "n_I"
        },
        {
          "duration": 0.05,
          "phone": "l_I"
        },
        {
          "duration": 0.05,
          "phone": "iy_E"
        }
      ],
      "start": 0.26,
      "startOffset": 0,
      "word": "ONLY"
    },
    {
      "alignedWord": "because",
      "case": "success",
      "end": 1.0,
      "endOffset": 12,
      "phones": [
        {
          "duration": 0.04,
          "phone": "b_B"
        },
        {
          "duration": 0.06,
          "phone": "ih_I"
        },
        {
          "duration": 0.08,
          "phone": "k_I"
        },
        {
          "duration": 0.12,
          "phone": "ao_I"
        },
        {
          "duration": 0.11,
          "phone": "z_E"
        }
      ],
      "start": 0.59,
      "startOffset": 5,
      "word": "BECAUSE"
    },
    {
      "alignedWord": "i",
      "case": "success",
      "end": 1.12,
      "endOffset": 14,
      "phones": [
        {
          "duration": 0.12,
          "phone": "ay_S"
        }
      ],
      "start": 1.0,
      "startOffset": 13,
      "word": "I"
    },
    {
      "alignedWord": "could",
      "case": "success",
      "end": 1.39,
      "endOffset": 20,
      "phones": [
        {
          "duration": 0.08,
          "phone": "k_B"
        },
        {
          "duration": 0.08,
          "phone": "uh_I"
        },
        {
          "duration": 0.08,
          "phone": "d_E"
        }
      ],
      "start": 1.15,
      "startOffset": 15,
      "word": "COULD"
    },
    {
      "alignedWord": "not",
      "case": "success",
      "end": 1.64,
      "endOffset": 24,
      "phones": [
        {
          "duration": 0.07,
          "phone": "n_B"
        },
        {
          "duration": 0.11,
          "phone": "aa_I"
        },
        {
          "duration": 0.07,
          "phone": "t_E"
        }
      ],
      "start": 1.39,
      "startOffset": 21,
      "word": "NOT"
    },
    {
      "alignedWord": "hire",
      "case": "success",
      "end": 2.05,
      "endOffset": 29,
      "phones": [
        {
          "duration": 0.12,
          "phone": "hh_B"
        },
        {
          "duration": 0.14,
          "phone": "ay_I"
        },
        {
          "duration": 0.14,
          "phone": "er_E"
        }
      ],
      "start": 1.65,
      "startOffset": 25,
      "word": "HIRE"
    },
    {
      "alignedWord": "a",
      "case": "success",
      "end": 2.15,
      "endOffset": 31,
      "phones": [
        {
          "duration": 0.1,
          "phone": "ah_S"
        }
      ],
      "start": 2.05,
      "startOffset": 30,
      "word": "A"
    },
    {
      "alignedWord": "horse",
      "case": "success",
      "end": 2.5,
      "endOffset": 37,
      "phones": [
        {
          "duration": 0.1,
          "phone": "hh_B"
        },
        {
          "duration": 0.09,
          "phone": "ao_I"
        },
        {
          "duration": 0.07,
          "phone": "r_I"
        },
        {
          "duration": 0.09,
          "phone": "s_E"
        }
      ],
      "start": 2.15,
      "startOffset": 32,
      "word": "HORSE"
    },
    {
      "alignedWord": "to",
      "case": "success",
      "end": 2.64,
      "endOffset": 40,
      "phones": [
        {
          "duration": 0.06,
          "phone": "t_B"
        },
        {
          "duration": 0.06,
          "phone": "ih_E"
        }
      ],
      "start": 2.52,
      "startOffset": 38,
      "word": "TO"
    },
    {
      "alignedWord": "go",
      "case": "success",
      "end": 3.0300000000000002,
      "endOffset": 43,
      "phones": [
        {
          "duration": 0.06,
          "phone": "g_B"
        },
        {
          "duration": 0.33,
          "phone": "ow_E"
        }
      ],
      "start": 2.64,
      "startOffset": 41,
      "word": "GO"
    },
    {
      "alignedWord": "or",
      "case": "success",
      "end": 3.69,
      "endOffset": 46,
      "phones": [
        {
          "duration": 0.14,
          "phone": "ao_B"
        },
        {
          "duration": 0.09,
          "phone": "r_E"
        }
      ],
      "start": 3.46,
      "startOffset": 44,
      "word": "OR"
    },
    {
      "alignedWord": "my",
      "case": "success",
      "end": 3.91,
      "endOffset": 49,
      "phones": [
        {
          "duration": 0.09,
          "phone": "m_B"
        },
        {
          "duration": 0.13,
          "phone": "ay_E"
        }
      ],
      "start": 3.69,
      "startOffset": 47,
      "word": "MY"
    },
    {
      "alignedWord": "fellow",
      "case": "success",
      "end": 4.23,
      "endOffset": 56,
      "phones": [
        {
          "duration": 0.1,
          "phone": "f_B"
        },
        {
          "duration": 0.07,
          "phone": "eh_I"
        },
        {
          "duration": 0.08,
          "phone": "l_I"
        },
        {
          "duration": 0.07,
          "phone": "ow_E"
        }
      ],
      "start": 3.91,
      "startOffset": 50,
      "word": "FELLOW"
    },
    {
      "alignedWord": "was",
      "case": "success",
      "end": 4.430000000000001,
      "endOffset": 60,
      "phones": [
        {
          "duration": 0.05,
          "phone": "w_B"
        },
        {
          "duration": 0.07,
          "phone": "ah_I"
        },
        {
          "duration": 0.08,
          "phone": "z_E"
        }
      ],
      "start": 4.23,
      "startOffset": 57,
      "word": "WAS"
    },
    {
      "alignedWord": "run",
      "case": "success",
      "end": 4.609999999999999,
      "endOffset": 64,
      "phones": [
        {
          "duration": 0.06,
          "phone": "r_B"
        },
        {
          "duration": 0.08,
          "phone": "ah_I"
        },
        {
          "duration": 0.04,
          "phone": "n_E"
        }
      ],
      "start": 4.43,
      "startOffset": 61,
      "word": "RUN"
    },
    {
      "alignedWord": "away",
      "case": "success",
      "end": 5.0600000000000005,
      "endOffset": 69,
      "phones": [
        {
          "duration": 0.07,
          "phone": "ah_B"
        },
        {
          "duration": 0.13,
          "phone": "w_I"
        },
        {
          "duration": 0.25,
          "phone": "ey_E"
        }
      ],
      "start": 4.61,
      "startOffset": 65,
      "word": "AWAY"
    },
    {
      "alignedWord": "that",
      "case": "success",
      "end": 5.25,
      "endOffset": 74,
      "phones": [
        {
          "duration": 0.07,
          "phone": "dh_B"
        },
        {
          "duration": 0.05,
          "phone": "ah_I"
        },
        {
          "duration": 0.06,
          "phone": "t_E"
        }
      ],
      "start": 5.07,
      "startOffset": 70,
      "word": "THAT"
    },
    {
      "alignedWord": "was",
      "case": "success",
      "end": 5.42,
      "endOffset": 78,
      "phones": [
        {
          "duration": 0.04,
          "phone": "w_B"
        },
        {
          "duration": 0.06,
          "phone": "ah_I"
        },
        {
          "duration": 0.07,
          "phone": "z_E"
        }
      ],
      "start": 5.25,
      "startOffset": 75,
      "word": "WAS"
    },
    {
      "alignedWord": "to",
      "case": "success",
      "end": 5.54,
      "endOffset": 81,
      "phones": [
        {
          "duration": 0.07,
          "phone": "t_B"
        },
        {
          "duration": 0.05,
          "phone": "uw_E"
        }
      ],
      "start": 5.42,
      "startOffset": 79,
      "word": "TO"
    },
    {
      "alignedWord": "attend",
      "case": "success",
      "end": 5.88,
      "endOffset": 88,
      "phones": [
        {
          "duration": 0.08,
          "phone": "ah_B"
        },
        {
          "duration": 0.09,
          "phone": "t_I"
        },
        {
          "duration": 0.09,
          "phone": "eh_I"
        },
        {
          "duration": 0.05,
          "phone": "n_I"
        },
        {
          "duration": 0.03,
          "phone": "d_E"
        }
      ],
      "start": 5.54,
      "startOffset": 82,
      "word": "ATTEND"
    },
    {
      "alignedWord": "me",
      "case": "success",
      "end": 6.12,
      "endOffset": 91,
      "phones": [
        {
          "duration": 0.08,
          "phone": "m_B"
        },
        {
          "duration": 0.16,
          "phone": "iy_E"
        }
      ],
      "start": 5.88,
      "startOffset": 89,
      "word": "ME"
    },
    {
      "alignedWord": "was",
      "case": "success",
      "end": 7.16,
      "endOffset": 95,
      "phones": [
        {
          "duration": 0.15,
          "phone": "w_B"
        },
        {
          "duration": 0.15,
          "phone": "aa_I"
        },
        {
          "duration": 0.24,
          "phone": "z_E"
        }
      ],
      "start": 6.62,
      "startOffset": 92,
      "word": "WAS"
    },
    {
      "alignedWord": "ridiculous",
      "case": "success",
      "end": 8.39,
      "endOffset": 106,
      "phones": [
        {
          "duration": 0.11,
          "phone": "r_B"
        },
        {
          "duration": 0.11,
          "phone": "ih_I"
        },
        {
          "duration": 0.09,
          "phone": "d_I"
        },
        {
          "duration": 0.11,
          "phone": "ih_I"
        },
        {
          "duration": 0.1,
          "phone": "k_I"
        },
        {
          "duration": 0.05,
          "phone": "y_I"
        },
        {
          "duration": 0.06,
          "phone": "ah_I"
        },
        {
          "duration": 0.06,
          "phone": "l_I"
        },
        {
          "duration": 0.08,
          "phone": "ah_I"
        },
        {
          "duration": 0.28,
          "phone": "s_E"
        }
      ],
      "start": 7.34,
      "startOffset": 96,
      "word": "RIDICULOUS"
    },
    {
      "alignedWord": "since",
      "case": "success",
      "end": 9.379999999999999,
      "endOffset": 112,
      "phones": [
        {
          "duration": 0.17,
          "phone": "s_B"
        },
        {
          "duration": 0.09,
          "phone": "ih_I"
        },
        {
          "duration": 0.1,
          "phone": "n_I"
        },
        {
          "duration": 0.16,
          "phone": "s_E"
        }
      ],
      "start": 8.86,
      "startOffset": 107,
      "word": "SINCE"
    },
    {
      "alignedWord": "at",
      "case": "success",
      "end": 9.529999,
      "endOffset": 115,
      "phones": [
        {
          "duration": 0.09,
          "phone": "ae_B"
        },
        {
          "duration": 0.05,
          "phone": "t_E"
        }
      ],
      "start": 9.389999,
      "startOffset": 113,
      "word": "AT"
    },
    {
      "alignedWord": "the",
      "case": "success",
      "end": 9.62,
      "endOffset": 119,
      "phones": [
        {
          "duration": 0.03,
          "phone": "dh_B"
        },
        {
          "duration": 0.06,
          "phone": "ah_E"
        }
      ],
      "start": 9.53,
      "startOffset": 116,
      "word": "THE"
    },
    {
      "alignedWord": "time",
      "case": "success",
      "end": 10.08,
      "endOffset": 124,
      "phones": [
        {
          "duration": 0.09,
          "phone": "t_B"
        },
        {
          "duration": 0.23,
          "phone": "ay_I"
        },
        {
          "duration": 0.14,
          "phone": "m_E"
        }
      ],
      "start": 9.62,
      "startOffset": 120,
      "word": "TIME"
    },
    {
      "alignedWord": "i",
      "case": "success",
      "end": 10.519999,
      "endOffset": 126,
      "phones": [
        {
          "duration": 0.17,
          "phone": "ay_S"
        }
      ],
      "start": 10.349999,
      "startOffset": 125,
      "word": "I"
    },
    {
      "alignedWord": "had",
      "case": "success",
      "end": 10.77,
      "endOffset": 130,
      "phones": [
        {
          "duration": 0.07,
          "phone": "hh_B"
        },
        {
          "duration": 0.08,
          "phone": "ae_I"
        },
        {
          "duration": 0.09,
          "phone": "d_E"
        }
      ],
      "start": 10.53,
      "startOffset": 127,
      "word": "HAD"
    },
    {
      "alignedWord": "my",
      "case": "success",
      "end": 10.95,
      "endOffset": 133,
      "phones": [
        {
          "duration": 0.06,
          "phone": "m_B"
        },
        {
          "duration": 0.12,
          "phone": "ay_E"
        }
      ],
      "start": 10.77,
      "startOffset": 131,
      "word": "MY"
    },
    {
      "alignedWord": "health",
      "case": "success",
      "end": 11.41,
      "endOffset": 140,
      "phones": [
        {
          "duration": 0.09,
          "phone": "hh_B"
        },
        {
          "duration": 0.09,
          "phone": "eh_I"
        },
        {
          "duration": 0.11,
          "phone": "l_I"
        },
        {
          "duration": 0.17,
          "phone": "th_E"
        }
      ],
      "start": 10.95,
      "startOffset": 134,
      "word": "HEALTH"
    },
    {
      "alignedWord": "and",
      "case": "success",
      "end": 11.809999,
      "endOffset": 144,
      "phones": [
        {
          "duration": 0.18,
          "phone": "ae_B"
        },
        {
          "duration": 0.09,
          "phone": "n_I"
        },
        {
          "duration": 0.07,
          "phone": "d_E"
        }
      ],
      "start": 11.469999,
      "startOffset": 141,
      "word": "AND"
    },
    {
      "alignedWord": "limbs",
      "case": "success",
      "end": 12.369999,
      "endOffset": 150,
      "phones": [
        {
          "duration": 0.09,
          "phone": "l_B"
        },
        {
          "duration": 0.15,
          "phone": "ih_I"
        },
        {
          "duration": 0.14,
          "phone": "m_I"
        },
        {
          "duration": 0.18,
          "phone": "z_E"
        }
      ],
      "start": 11.809999,
      "startOffset": 145,
      "word": "LIMBS"
    },
    {
      "alignedWord": "and",
      "case": "success",
      "end": 13.129999,
      "endOffset": 154,
      "phones": [
        {
          "duration": 0.2,
          "phone": "ae_B"
        },
        {
          "duration": 0.09,
          "phone": "n_I"
        },
        {
          "duration": 0.08,
          "phone": "d_E"
        }
      ],
      "start": 12.759999,
      "startOffset": 151,
      "word": "AND"
    },
    {
      "alignedWord": "other",
      "case": "success",
      "end": 13.41,
      "endOffset": 160,
      "phones": [
        {
          "duration": 0.1,
          "phone": "ah_B"
        },
        {
          "duration": 0.07,
          "phone": "dh_I"
        },
        {
          "duration": 0.08,
          "phone": "er_E"
        }
      ],
      "start": 13.16,
      "startOffset": 155,
      "word": "OTHER"
    },
    {
      "alignedWord": "servants",
      "case": "success",
      "end": 14.03,
      "endOffset": 169,
      "phones": [
        {
          "duration": 0.12,
          "phone": "s_B"
        },
        {
          "duration": 0.13,
          "phone": "er_I"
        },
        {
          "duration": 0.05,
          "phone": "v_I"
        },
        {
          "duration": 0.05,
          "phone": "ah_I"
        },
        {
          "duration": 0.06,
          "phone": "n_I"
        },
        {
          "duration": 0.03,
          "phone": "t_I"
        },
        {
          "duration": 0.18,
          "phone": "s_E"
        }
      ],
      "start": 13.41,
      "startOffset": 161,
      "word": "SERVANTS"
    },
    {
      "alignedWord": "and",
      "case": "success",
      "end": 14.57,
      "endOffset": 173,
      "phones": [
        {
          "duration": 0.12,
          "phone": "ae_B"
        },
        {
          "duration": 0.05,
          "phone": "n_I"
        },
        {
          "duration": 0.07,
          "phone": "d_E"
        }
      ],
      "start": 14.33,
      "startOffset": 170,
      "word": "AND"
    },
    {
      "alignedWord": "might",
      "case": "success",
      "end": 14.870000000000001,
      "endOffset": 179,
      "phones": [
        {
          "duration": 0.06,
          "phone": "m_B"
        },
        {
          "duration": 0.17,
          "phone": "ay_I"
        },
        {
          "duration": 0.07,
          "phone": "t_E"
        }
      ],
      "start": 14.57,
      "startOffset": 174,
      "word": "MIGHT"
    }
  ]
}