{
  "transcript": "CAN PROTECT ITS RESPIRATORY ORGANS FROM ANY PARCHING CONTACT WITH THE AIR AND CAN LIVE OUT OF WATER FOR A GOOD WHILE AND I'LL MENTION FOR THE RECORD SOME LITTLE BANDED BLENNIES",
  "words": [
    {
      "alignedWord": "can",
      "case": "success",
      "end": 0.33,
      "endOffset": 3,
      "phones": [
        {
          "duration": 0.08,
          "phone": "k_B"
        },
        {
          "duration": 0.04,
          "phone": "ah_I"
        },
        {
          "duration": 0.05,
          "phone": "n_E"
        }
      ],
      "start": 0.16,
      "startOffset": 0,
      "word": "CAN"
    },
    {
      "alignedWord": "protect",
      "case": "success",
      "end": 0.8,
      "endOffset": 11,
      "phones": [
        {
          "duration": 0.04,
          "phone": "p_B"
        },
        {
          "duration": 0.04,
          "phone": "r_I"
        },
        {
          "duration": 0.06,
          "phone": "ah_I"
        },
        {
          "duration": 0.09,
          "phone": "t_I"
        },
        {
          "duration": 0.1,
          "phone": "eh_I"
        },
        {
          "duration": 0.08,
          "phone": "k_I"
        },
        {
          "duration": 0.06,
          "phone": "t_E"
        }
      ],
      "start": 0.33,
      "startOffset": 4,
      "word": "PROTECT"
    },
    {
      "alignedWord": "its",
      "case": "success",
      "end": 0.9700000000000001,
      "endOffset": 15,
      "phones": [
        {
          "duration": 0.03,
          "phone": "ih_B"
        },
        {
          "duration": 0.06,
          "phone": "t_I"
        },
        {
          "duration": 0.08,
          "phone": "s_E"
        }
      ],
      "start": 0.8,
      "startOffset": 12,
      "word": "ITS"
    },
    {
      "alignedWord": "respiratory",
      "case": "success",
      "end": 1.62,
      "endOffset": 27,
      "phones": [
        {
          "duration": 0.09,
          "phone": "r_B"
        },
        {
          "duration": 0.05,
          "phone": "eh_I"
        },
        {
          "duration": 0.09,
          "phone": "s_I"
        },
        {
          "duration": 0.07,
          "phone": "p_I"
        },
        {
          "duration": 0.01,
          "phone": "er_I"
        },
        {
          "duration": 0.05,
          "phone": "ah_I"
        },
        {
          "duration": 0.07,
          "phone": "t_I"
        },
        {
          "duration": 0.08,
          "phone": "ao_I"
        },
        {
          "duration": 0.09,
          "phone": "r_I"
        },
        {
          "duration": 0.05,
          "phone": "iy_E"
        }
      ],
      "start": 0.97,
      "startOffset": 16,
      "word": "RESPIRATORY"
    },
    {
      "alignedWord": "organs",
      "case": "success",
      "end": 2.06,
      "endOffset": 34,
      "phones": [
        {
          "duration": 0.12,
          "phone": "ao_B"
        },
        {
          "duration": 0.06,
          "phone": "r_I"
        },
        {
          "duration": 0.06,
          "phone": "g_I"
        },
        {
          "duration": 0.06,
          "phone": "ah_I"
        },
        {
          "duration": 0.08,
          "phone": "n_I"
        },
        {
          "duration": 0.06,
          "phone": "z_E"
        }
      ],
      "start": 1.62,
      "startOffset": 28,
      "word": "ORGANS"
    },
    {
      "alignedWord": "from",
      "case": "success",
      "end": 2.22,
      "endOffset": 39,
      "phones": [
        {
          "duration": 0.04,
          "phone": "f_B"
        },
        {
          "duration": 0.04,
          "phone": "er_I"
        },
        {
          "duration": 0.08,
          "phone": "m_E"
        }
      ],
      "start": 2.06,
      "startOffset": 35,
      "word": "FROM"
    },
    {
      "alignedWord": "any",
      "case": "success",
      "end": 2.5300000000000002,
      "endOffset": 43,
      "phones": [
        {
          "duration": 0.1,
          "phone": "eh_B"
        },
        {
          "duration": 0.07,
          "phone": "n_I"
        },
        {
          "duration": 0.12,
          "phone": "iy_E"
        }
      ],
      "start": 2.24,
      "startOffset": 40,
      "word": "ANY"
    },
    {
      "alignedWord": "<unk>",
      "case": "success",
      "end": 3.06,
      "endOffset": 52,
      "phones": [
        {
          "duration": 0.52,
          "phone": "oov_S"
        }
      ],
      "start": 2.54,
      "startOffset": 44,
      "word": "PARCHING"
    },
    {
      "alignedWord": "contact",
      "case": "success",
      "end": 3.7600000000000002,
      "endOffset": 60,
      "phones": [
        {
          "duration": 0.1,
          "phone": "k_B"
        },
        {
          "duration": 0.12,
          "phone": "aa_I"
        },
        {
          "duration": 0.1,
          "phone": "n_I"
        },
        {
          "duration": 0.09,
          "phone": "t_I"
        },
        {
          "duration": 0.13,
          "phone": "ae_I"
        },
        {
          "duration": 0.05,
          "phone": "k_I"
        },
        {
          "duration": 0.07,
          "phone": "t_E"
        }
      ],
      "start": 3.1,
      "startOffset": 53,
      "word": "CONTACT"
    },
    {
      "alignedWord": "with",
      "case": "success",
      "end": 3.8899999999999997,
      "endOffset": 65,
      "phones": [
        {
          "duration": 0.02,
          "phone": "w_B"
        },
        {
          "duration": 0.05,
          "phone": "ih_I"
        },
        {
          "duration": 0.06,
          "phone": "th_E"
        }
      ],
      "start": 3.76,
      "startOffset": 61,
      "word": "WITH"
    },
    {
      "alignedWord": "the",
      "case": "success",
      "end": 3.92,
      "endOffset": 69,
      "phones": [
        {
          "duration": 0.01,
          "phone": "dh_B"
        },
        {
          "duration": 0.01,
          "phone": "ah_E"
        }
      ],
      "start": 3.9,
      "startOffset": 66,
      "word": "THE"
    },
    {
      "alignedWord": "air",
      "case": "success",
      "end": 4.32,
      "endOffset": 73,
      "phones": [
        {
          "duration": 0.19,
          "phone": "eh_B"
        },
        {
          "duration": 0.19,
          "phone": "r_E"
        }
      ],
      "start": 3.94,
      "startOffset": 70,
      "word": "AIR"
    },
    {
      "alignedWord": "and",
      "case": "success",
      "end": 4.94,
      "endOffset": 77,
      "phones": [
        {
          "duration": 0.06,
          "phone": "ae_B"
        },
        {
          "duration": 0.06,
          "phone": "n_I"
        },
        {
          "duration": 0.07,
          "phone": "d_E"
        }
      ],
      "start": 4.75,
      "startOffset": 74,
      "word": "AND"
    },
    {
      "alignedWord": "can",
      "case": "success",
      "end": 5.08,
      "endOffset": 81,
      "phones": [
        {
          "duration": 0.03,
          "phone": "k_B"
        },
        {
          "duration": 0.06,
          "phone": "ah_I"
        },
        {
          "duration": 0.05,
          "phone": "n_E"
        }
      ],
      "start": 4.94,
      "startOffset": 78,
      "word": "CAN"
    },
    {
      "alignedWord": "live",
      "case": "success",
      "end": 5.26,
      "endOffset": 86,
      "phones": [
        {
          "duration": 0.04,
          "phone": "l_B"
        },
        {
          "duration": 0.07,
          "phone": "ih_I"
        },
        {
          "duration": 0.07,
          "phone": "v_E"
        }
      ],
      "start": 5.08,
      "startOffset": 82,
      "word": "LIVE"
    },
    {
      "alignedWord": "out",
      "case": "success",
      "end": 5.38,
      "endOffset": 90,
      "phones": [
        {
          "duration": 0.08,
          "phone": "aw_B"
        },
        {
          "duration": 0.04,
          "phone": "t_E"
        }
      ],
      "start": 5.26,
      "startOffset": 87,
      "word": "OUT"
    },
    {
      "alignedWord": "of",
      "case": "success",
      "end": 5.4799999999999995,
      "endOffset": 93,
      "phones": [
        {
          "duration": 0.06,
          "phone": "ah_B"
        },
        {
          "duration": 0.04,
          "phone": "v_E"
        }
      ],
      "start": 5.38,
      "startOffset": 91,
      "word": "OF"
    },
    {
      "alignedWord": "water",
      "case": "success",
      "end": 5.840000000000001,
      "endOffset": 99,
      "phones": [
        {
          "duration": 0.09,
          "phone": "w_B"
        },
        {
          "duration": 0.11,
          "phone": "ao_I"
        },
        {
          "duration": 0.07,
          "phone": "t_I"
        },
        {
          "duration": 0.09,
          "phone": "er_E"
        }
      ],
      "start": 5.48,
      "startOffset": 94,
      "word": "WATER"
    },
    {
      "alignedWord": "for",
      "case": "success",
      "end": 6.0,
      "endOffset": 103,
      "phones": [
        {
          "duration": 0.09,
          "phone": "f_B"
        },
        {
          "duration": 0.07,
          "phone": "er_E"
        }
      ],
      "start": 5.84,
      "startOffset": 100,
      "word": "FOR"
    },
    {
      "alignedWord": "a",
      "case": "success",
      "end": 6.06,
      "endOffset": 105,
      "phones": [
        {
          "duration": 0.06,
          "phone": "ah_S"
        }
      ],
      "start": 6.0,
      "startOffset": 104,
      "word": "A"
    },
    {
      "alignedWord": "good",
      "case": "success",
      "end": 6.26,
      "endOffset": 110,
      "phones": [
        {
          "duration": 0.06,
          "phone": "g_B"
        },
        {
          "duration": 0.07,
          "phone": "uh_I"
        },
        {
          "duration": 0.07,
          "phone": "d_E"
        }
      ],
      "start": 6.06,
      "startOffset": 106,
      "word": "GOOD"
    },
    {
      "alignedWord": "while",
      "case": "success",
      "end": 6.67,
      "endOffset": 116,
      "phones": [
        {
          "duration": 0.12,
          "phone": "w_B"
        },
        {
          "duration": 0.14,
          "phone": "ay_I"
        },
        {
          "duration": 0.15,
          "phone": "l_E"
        }
      ],
      "start": 6.26,
      "startOffset": 111,
      "word": "WHILE"
    },
    {
      "alignedWord": "and",
      "case": "success",
      "end": 8.43,
      "endOffset": 120,
      "phones": [
        {
          "duration": 0.11,
          "phone": "ae_B"
        },
        {
          "duration": 0.07,
          "phone": "n_I"
        },
        {
          "duration": 0.06,
          "phone": "d_E"
        }
      ],
      "start": 8.19,
      "startOffset": 117,
      "word": "AND"
    },
    {
      "alignedWord": "i'll",
      "case": "success",
      "end": 8.529999,
      "endOffset": 125,
      "phones": [
        {
          "duration": 0.05,
          "phone": "ay_B"
        },
        {
          "duration": 0.05,
          "phone": "l_E"
        }
      ],
      "start": 8.429999,
      "startOffset": 121,
      "word": "I'LL"
    },
    {
      "alignedWord": "mention",
      "case": "success",
      "end": 8.92,
      "endOffset": 133,
      "phones": [
        {
          "duration": 0.08,
          "phone": "m_B"
        },
        {
          "duration": 0.06,
          "phone": "eh_I"
        },
        {
          "duration": 0.05,
          "phone": "n_I"
        },
        {
          "duration": 0.06,
          "phone": "sh_I"
        },
        {
          "duration": 0.06,
          "phone": "ah_I"
        },
        {
          "duration": 0.08,
          "phone": "n_E"
        }
      ],
      "start": 8.53,
      "startOffset": 126,
      "word": "MENTION"
    },
    {
      "alignedWord": "for",
      "case": "success",
      "end": 9.119999,
      "endOffset": 137,
      "phones": [
        {
          "duration": 0.11,
          "phone": "f_B"
        },
        {
          "duration": 0.08,
          "phone": "er_E"
        }
      ],
      "start": 8.929999,
      "startOffset": 134,
      "word": "FOR"
    },
    {
      "alignedWord": "the",
      "case": "success",
      "end": 9.219999999999999,
      "endOffset": 141,
      "phones": [
        {
          "duration": 0.03,
          "phone": "dh_B"
        },
        {
          "duration": 0.07,
          "phone": "ah_E"
        }
      ],
      "start": 9.12,
      "startOffset": 138,
      "word": "THE"
    },
    {
      "alignedWord": "record",
      "case": "success",
      "end": 9.680000000000001,
      "endOffset": 148,
      "phones": [
        {
          "duration": 0.07,
          "phone": "r_B"
        },
        {
          "duration": 0.07,
          "phone": "eh_I"
        },
        {
          "duration": 0.11,
          "phone": "k_I"
        },
        {
          "duration": 0.08,
          "phone": "er_I"
        },
        {
          "duration": 0.13,
          "phone": "d_E"
        }
      ],
      "start": 9.22,
      "startOffset": 142,
      "word": "RECORD"
    },
    {
      "alignedWord": "some",
      "case": "success",
      "end": 10.709999,
      "endOffset": 153,
      "phones": [
        {
          "duration": 0.13,
          "phone": "s_B"
        },
        {
          "duration": 0.07,
          "phone": "ah_I"
        },
        {
          "duration": 0.12,
          "phone": "m_E"
        }
      ],
      "start": 10.389999,
      "startOffset": 149,
      "word": "SOME"
    },
    {
      "alignedWord": "little",
      "case": "success",
      "end": 10.950000000000001,
      "endOffset": 160,
      "phones": [
        {
          "duration": 0.05,
          "phone": "l_B"
        },
        {
          "duration": 0.03,
          "phone": "ih_I"
        },
        {
          "duration": 0.04,
          "phone": "t_I"
        },
        {
          "duration": 0.04,
          "phone": "ah_I"
        },
        {
          "duration": 0.08,
          "phone": "l_E"
        }
      ],
      "start": 10.71,
      "startOffset": 154,
      "word": "LITTLE"
    },
    {
      "alignedWord": "banded",
      "case": "success",
      "end": 11.39,
      "endOffset": 167,
      "phones": [
        {
          "duration": 0.11,
          "phone": "b_B"
        },
        {
          "duration": 0.08,
          "phone": "ae_I"
        },
        {
          "duration": 0.05,
          "phone": "n_I"
        },
        {
          "duration": 0.04,
          "phone": "d_I"
        },
        {
          "duration": 0.07,
          "phone": "ih_I"
        },
        {
          "duration": 0.08,
          "phone": "d_E"
        }
      ],
      "start": 10.96,
      "startOffset": 161,
      "word": "BANDED"
    },
    {
      "alignedWord": "<unk>",
      "case": "success",
      "end": 11.989999,
      "endOffset": 176,
      "phones": [
        {
          "duration": 0.6,
          "phone": "oov_S"
        }
      ],
      "start": 11.389999,
      "startOffset": 168,
      "word": "BLENNIES"
    }
  ]
}