{
  "transcript": "WOULD THE NAUTILUS DARE TO TACKLE THE ENGLISH CHANNEL NED LAND WHO PROMPTLY REAPPEARED AFTER WE HUGGED SHORE NEVER STOPPED QUESTIONING ME WHAT COULD I ANSWER HIM",
  "words": [
    {
      "alignedWord": "would",
      "case": "success",
      "end": 0.7,
      "endOffset": 5,
      "phones": [
        {
          "duration": 0.08,
          "phone": "w_B"
        },
        {
          "duration": 0.05,
          "phone": "uh_I"
        },
        {
          "duration": 0.07,
          "phone": "d_E"
        }
      ],
      "start": 0.5,
      "startOffset": 0,
      "word": "WOULD"
    },
    {
      "alignedWord": "the",
      "case": "success",
      "end": 0.7799999999999999,
      "endOffset": 9,
      "phones": [
        {
          "duration": 0.01,
          "phone": "dh_B"
        },
        {
          "duration": 0.07,
          "phone": "ah_E"
        }
      ],
      "start": 0.7,
      "startOffset": 6,
      "word": "THE"
    },
    {
      "alignedWord": "nautilus",
      "case": "success",
      "end": 1.24,
      "endOffset": 18,
      "phones": [
        {
          "duration": 0.07,
          "phone": "n_B"
        },
        {
          "duration": 0.11,
          "phone": "ao_I"
        },
        {
          "duration": 0.03,
          "phone": "t_I"
        },
        {
          "duration": 0.05,
          "phone": "ah_I"
        },
        {
          "duration": 0.05,
          "phone": "l_I"
        },
        {
          "duration": 0.05,
          "phone": "ah_I"
        },
        {
          "duration": 0.1,
          "phone": "s_E"
        }
      ],
      "start": 0.78,
      "startOffset": 10,
      "word": "NAUTILUS"
    },
    {
      "alignedWord": "dare",
      "case": "success",
      "end": 1.88,
      "endOffset": 23,
      "phones": [
        {
          "duration": 0.27,
          "phone": "d_B"
        },
        {
          "duration": 0.19,
          "phone": "eh_I"
        },
        {
          "duration": 0.13,
          "phone": "r_E"
        }
      ],
      "start": 1.29,
      "startOffset": 19,
      "word": "DARE"
    },
    {
      "alignedWord": "to",
      "case": "success",
      "end": 2.01,
      "endOffset": 26,
      "phones": [
        {
          "duration": 0.07,
          "phone": "t_B"
        },
        {
          "duration": 0.06,
          "phone": "ah_E"
        }
      ],
      "start": 1.88,
      "startOffset": 24,
      "word": "TO"
    },
    {
      "alignedWord": "tackle",
      "case": "success",
      "end": 2.4499999999999997,
      "endOffset": 33,
      "phones": [
        {
          "duration": 0.12,
          "phone": "t_B"
        },
        {
          "duration": 0.15,
          "phone": "ae_I"
        },
        {
          "duration": 0.06,
          "phone": "k_I"
        },
        {
          "duration": 0.05,
          "phone": "ah_I"
        },
        {
          "duration": 0.06,
          "phone": "l_E"
        }
      ],
      "start": 2.01,
      "startOffset": 27,
      "word": "TACKLE"
    },
    {
      "alignedWord": "the",
      "case": "success",
      "end": 2.5900000000000003,
      "endOffset": 37,
      "phones": [
        {
          "duration": 0.06,
          "phone": "dh_B"
        },
        {
          "duration": 0.08,
          "phone": "iy_E"
        }
      ],
      "start": 2.45,
      "startOffset": 34,
      "word": "THE"
    },
    {
      "alignedWord": "english",
      "case": "success",
      "end": 2.97,
      "endOffset": 45,
      "phones": [
        {
          "duration": 0.07,
          "phone": "ih_B"
        },
        {
          "duration": 0.08,
          "phone": "ng_I"
        },
        {
          "duration": 0.03,
          "phone": "g_I"
        },
        {
          "duration": 0.05,
          "phone": "l_I"
        },
        {
          "duration": 0.07,
          "phone": "ih_I"
        },
        {
          "duration": 0.07,
          "phone": "sh_E"
        }
      ],
      "start": 2.6,
      "startOffset": 38,
      "word": "ENGLISH"
    },
    {
      "alignedWord": "channel",
      "case": "success",
      "end": 3.46,
      "endOffset": 53,
      "phones": [
        {
          "duration": 0.14,
          "phone": "ch_B"
        },
        {
          "duration": 0.08,
          "phone": "ae_I"
        },
        {
          "duration": 0.06,
          "phone": "n_I"
        },
        {
          "duration": 0.08,
          "phone": "ah_I"
        },
        {
          "duration": 0.13,
          "phone": "l_E"
        }
      ],
      "start": 2.97,
      "startOffset": 46,
      "word": "CHANNEL"
    },
    {
      "alignedWord": "ned",
      "case": "success",
      "end": 5.15,
      "endOffset": 57,
      "phones": [
        {
          "duration": 0.12,
          "phone": "n_B"
        },
        {
          "duration": 0.09,
          "phone": "eh_I"
        },
        {
          "duration": 0.11,
          "phone": "d_E"
        }
      ],
      "start": 4.83,
      "startOffset": 54,
      "word": "NED"
    },
    {
      "alignedWord": "land",
      "case": "success",
      "end": 5.630000000000001,
      "endOffset": 62,
      "phones": [
        {
          "duration": 0.09,
          "phone": "l_B"
        },
        {
          "duration": 0.17,
          "phone": "ae_I"
        },
        {
          "duration": 0.08,
          "phone": "n_I"
        },
        {
          "duration": 0.14,
          "phone": "d_E"
        }
      ],
      "start": 5.15,
      "startOffset": 58,
      "word": "LAND"
    },
    {
      "alignedWord": "who",
      "case": "success",
      "end": 6.23,
      "endOffset": 66,
      "phones": [
        {
          "duration": 0.1,
          "phone": "hh_B"
        },
        {
          "duration": 0.1,
          "phone": "uw_E"
        }
      ],
      "start": 6.03,
      "startOffset": 63,
      "word": "WHO"
    },
    {
      "alignedWord": "promptly",
      "case": "success",
      "end": 6.7700000000000005,
      "endOffset": 75,
      "phones": [
        {
          "duration": 0.13,
          "phone": "p_B"
        },
        {
          "duration": 0.07,
          "phone": "r_I"
        },
        {
          "duration": 0.08,
          "phone": "aa_I"
        },
        {
          "duration": 0.07,
          "phone": "m_I"
        },
        {
          "duration": 0.03,
          "phone": "p_I"
        },
        {
          "duration": 0.07,
          "phone": "l_I"
        },
        {
          "duration": 0.09,
          "phone": "iy_E"
        }
      ],
      "start": 6.23,
      "startOffset": 67,
      "word": "PROMPTLY"
    },
    {
      "alignedWord": "<unk>",
      "case": "success",
      "end": 7.58,
      "endOffset": 86,
      "phones": [
        {
          "duration": 0.81,
          "phone": "oov_S"
        }
      ],
      "start": 6.77,
      "startOffset": 76,
      "word": "REAPPEARED"
    },
    {
      "alignedWord": "after",
      "case": "success",
      "end": 7.75,
      "endOffset": 92,
      "phones": [
        {
          "duration": 0.01,
          "phone": "ae_B"
        },
        {
          "duration": 0.06,
          "phone": "f_I"
        },
        {
          "duration": 0.06,
          "phone": "t_I"
        },
        {
          "duration": 0.04,
          "phone": "er_E"
        }
      ],
      "start": 7.58,
      "startOffset": 87,
      "word": "AFTER"
    },
    {
      "alignedWord": "we",
      "case": "success",
      "end": 7.92,
      "endOffset": 95,
      "phones": [
        {
          "duration": 0.07,
          "phone": "w_B"
        },
        {
          "duration": 0.1,
          "phone": "iy_E"
        }
      ],
      "start": 7.75,
      "startOffset": 93,
      "word": "WE"
    },
    {
      "alignedWord": "hugged",
      "case": "success",
      "end": 8.15,
      "endOffset": 102,
      "phones": [
        {
          "duration": 0.07,
          "phone": "hh_B"
        },
        {
          "duration": 0.07,
          "phone": "ah_I"
        },
        {
          "duration": 0.02,
          "phone": "g_I"
        },
        {
          "duration": 0.07,
          "phone": "d_E"
        }
      ],
      "start": 7.92,
      "startOffset": 96,
      "word": "HUGGED"
    },
    {
      "alignedWord": "shore",
      "case": "success",
      "end": 8.59,
      "endOffset": 108,
      "phones": [
        {
          "duration": 0.14,
          "phone": "sh_B"
        },
        {
          "duration": 0.15,
          "phone": "ao_I"
        },
        {
          "duration": 0.15,
          "phone": "r_E"
        }
      ],
      "start": 8.15,
      "startOffset": 103,
      "word": "SHORE"
    },
    {
      "alignedWord": "never",
      "case": "success",
      "end": 9.33,
      "endOffset": 114,
      "phones": [
        {
          "duration": 0.09,
          "phone": "n_B"
        },
        {
          "duration": 0.08,
          "phone": "eh_I"
        },
        {
          "duration": 0.07,
          "phone": "v_I"
        },
        {
          "duration": 0.08,
          "phone": "er_E"
        }
      ],
      "start": 9.01,
      "startOffset": 109,
      "word": "NEVER"
    },
    {
      "alignedWord": "stopped",
      "case": "success",
      "end": 9.71,
      "endOffset": 122,
      "phones": [
        {
          "duration": 0.08,
          "phone": "s_B"
        },
        {
          "duration": 0.09,
          "phone": "t_I"
        },
        {
          "duration": 0.07,
          "phone": "aa_I"
        },
        {
          "duration": 0.08,
          "phone": "p_I"
        },
        {
          "duration": 0.06,
          "phone": "t_E"
        }
      ],
      "start": 9.33,
      "startOffset": 115,
      "word": "STOPPED"
    },
    {
      "alignedWord": "questioning",
      "case": "success",
      "end": 10.339998999999999,
      "endOffset": 134,
      "phones": [
        {
          "duration": 0.1,
          "phone": "k_B"
        },
        {
          "duration": 0.04,
          "phone": "w_I"
        },
        {
          "duration": 0.08,
          "phone": "eh_I"
        },
        {
          "duration": 0.08,
          "phone": "s_I"
        },
        {
          "duration": 0.09,
          "phone": "ch_I"
        },
        {
          "duration": 0.02,
          "phone": "ah_I"
        },
        {
          "duration": 0.04,
          "phone": "n_I"
        },
        {
          "duration": 0.09,
          "phone": "ih_I"
        },
        {
          "duration": 0.08,
          "phone": "ng_E"
        }
      ],
      "start": 9.719999,
      "startOffset": 123,
      "word": "QUESTIONING"
    },
    {
      "alignedWord": "me",
      "case": "success",
      "end": 10.64,
      "endOffset": 137,
      "phones": [
        {
          "duration": 0.06,
          "phone": "m_B"
        },
        {
          "duration": 0.24,
          "phone": "iy_E"
        }
      ],
      "start": 10.34,
      "startOffset": 135,
      "word": "ME"
    },
    {
      "alignedWord": "what",
      "case": "success",
      "end": 11.45,
      "endOffset": 142,
      "phones": [
        {
          "duration": 0.06,
          "phone": "hh_B"
        },
        {
          "duration": 0.08,
          "phone": "w_I"
        },
        {
          "duration": 0.06,
          "phone": "ah_I"
        },
        {
          "duration": 0.09,
          "phone": "t_E"
        }
      ],
      "start": 11.16,
      "startOffset": 138,
      "word": "WHAT"
    },
    {
      "alignedWord": "could",
      "case": "success",
      "end": 11.639999999999999,
      "endOffset": 148,
      "phones": [
        {
          "duration": 0.07,
          "phone": "k_B"
        },
        {
          "duration": 0.05,
          "phone": "uh_I"
        },
        {
          "duration": 0.07,
          "phone": "d_E"
        }
      ],
      "start": 11.45,
      "startOffset": 143,
      "word": "COULD"
    },
    {
      "alignedWord": "i",
      "case": "success",
      "end": 11.769999,
      "endOffset": 150,
      "phones": [
        {
          "duration": 0.13,
          "phone": "ay_S"
        }
      ],
      "start": 11.639999,
      "startOffset": 149,
      "word": "I"
    },
    {
      "alignedWord": "answer",
      "case": "success",
      "end": 12.139999999999999,
      "endOffset": 157,
      "phones": [
        {
          "duration": 0.06,
          "phone": "ae_B"
        },
        {
          "duration": 0.12,
          "phone": "n_I"
        },
        {
          "duration": 0.11,
          "phone": "s_I"
        },
        {
          "duration": 0.08,
          "phone": "er_E"
        }
      ],
      "start": 11.77,
      "startOffset": 151,
      "word": "ANSWER"
    },
    {
      "alignedWord": "him",
      "case": "success",
      "end": 12.409999,
      "endOffset": 161,
      "phones": [
        {
          "duration": 0.05,
          "phone": "hh_B"
        },
        {
          "duration": 0.09,
          "phone": "ih_I"
        },
        {
          "duration": 0.13,
          "phone": "m_E"
        }
      ],
      "start": 12.139999,
      "startOffset": 158,
      "word": "HIM"
    }
  ]
}