{
  "transcript": "HER EYES WERE TURNED IN THE DIRECTION OF THE STAIRS FROM WHICH ONLY SHE APPREHENDED SURPRISE HER GREAT MOUTH WAS OPEN AND HER EYES ABSOLUTELY GOGGLED WITH EAGERNESS SHE WAS DEVOURING ALL THAT WAS PASSING THERE",
  "words": [
    {
      "alignedWord": "her",
      "case": "success",
      "end": 0.5,
      "endOffset": 3,
      "phones": [
        {
          "duration": 0.08,
          "phone": "hh_B"
        },
        {
          "duration": 0.11,
          "phone": "er_E"
        }
      ],
      "start": 0.31,
      "startOffset": 0,
      "word": "HER"
    },
    {
      "alignedWord": "eyes",
      "case": "success",
      "end": 0.74,
      "endOffset": 8,
      "phones": [
        {
          "duration": 0.15,
          "phone": "ay_B"
        },
        {
          "duration": 0.09,
          "phone": "z_E"
        }
      ],
      "start": 0.5,
      "startOffset": 4,
      "word": "EYES"
    },
    {
      "alignedWord": "were",
      "case": "success",
      "end": 0.91,
      "endOffset": 13,
      "phones": [
        {
          "duration": 0.09,
          "phone": "w_B"
        },
        {
          "duration": 0.06,
          "phone": "er_E"
        }
      ],
      "start": 0.76,
      "startOffset": 9,
      "word": "WERE"
    },
    {
      "alignedWord": "turned",
      "case": "success",
      "end": 1.3,
      "endOffset": 20,
      "phones": [
        {
          "duration": 0.12,
          "phone": "t_B"
        },
        {
          "duration": 0.15,
          "phone": "er_I"
        },
        {
          "duration": 0.07,
          "phone": "n_I"
        },
        {
          "duration": 0.05,
          "phone": "d_E"
        }
      ],
      "start": 0.91,
      "startOffset": 14,
      "word": "TURNED"
    },
    {
      "alignedWord": "in",
      "case": "success",
      "end": 1.4300000000000002,
      "endOffset": 23,
      "phones": [
        {
          "duration": 0.06,
          "phone": "ih_B"
        },
        {
          "duration": 0.07,
          "phone": "n_E"
        }
      ],
      "start": 1.3,
      "startOffset": 21,
      "word": "IN"
    },
    {
      "alignedWord": "the",
      "case": "success",
      "end": 1.54,
      "endOffset": 27,
      "phones": [
        {
          "duration": 0.05,
          "phone": "dh_B"
        },
        {
          "duration": 0.06,
          "phone": "iy_E"
        }
      ],
      "start": 1.43,
      "startOffset": 24,
      "word": "THE"
    },
    {
      "alignedWord": "direction",
      "case": "success",
      "end": 2.0,
      "endOffset": 37,
      "phones": [
        {
          "duration": 0.05,
          "phone": "d_B"
        },
        {
          "duration": 0.1,
          "phone": "er_I"
        },
        {
          "duration": 0.08,
          "phone": "eh_I"
        },
        {
          "duration": 0.07,
          "phone": "k_I"
        },
        {
          "duration": 0.06,
          "phone": "sh_I"
        },
        {
          "duration": 0.05,
          "phone": "ah_I"
        },
        {
          "duration": 0.04,
          "phone": "n_E"
        }
      ],
      "start": 1.55,
      "startOffset": 28,
      "word": "DIRECTION"
    },
    {
      "alignedWord": "of",
      "case": "success",
      "end": 2.18,
      "endOffset": 40,
      "phones": [
        {
          "duration": 0.06,
          "phone": "ah_B"
        },
        {
          "duration": 0.12,
          "phone": "v_E"
        }
      ],
      "start": 2.0,
      "startOffset": 38,
      "word": "OF"
    },
    {
      "alignedWord": "the",
      "case": "success",
      "end": 2.2600000000000002,
      "endOffset": 44,
      "phones": [
        {
          "duration": 0.01,
          "phone": "dh_B"
        },
        {
          "duration": 0.07,
          "phone": "ah_E"
        }
      ],
      "start": 2.18,
      "startOffset": 41,
      "word": "THE"
    },
    {
      "alignedWord": "stairs",
      "case": "success",
      "end": 2.84,
      "endOffset": 51,
      "phones": [
        {
          "duration": 0.06,
          "phone": "s_B"
        },
        {
          "duration": 0.08,
          "phone": "t_I"
        },
        {
          "duration": 0.13,
          "phone": "eh_I"
        },
        {
          "duration": 0.14,
          "phone": "r_I"
        },
        {
          "duration": 0.17,
          "phone": "z_E"
        }
      ],
      "start": 2.26,
      "startOffset": 45,
      "word": "STAIRS"
    },
    {
      "alignedWord": "from",
      "case": "success",
      "end": 3.34,
      "endOffset": 56,
      "phones": [
        {
          "duration": 0.11,
          "phone": "f_B"
        },
        {
          "duration": 0.07,
          "phone": "er_I"
        },
        {
          "duration": 0.07,
          "phone": "m_E"
        }
      ],
      "start": 3.09,
      "startOffset": 52,
      "word": "FROM"
    },
    {
      "alignedWord": "which",
      "case": "success",
      "end": 3.59,
      "endOffset": 62,
      "phones": [
        {
          "duration": 0.07,
          "phone": "w_B"
        },
        {
          "duration": 0.06,
          "phone": "ih_I"
        },
        {
          "duration": 0.12,
          "phone": "ch_E"
        }
      ],
      "start": 3.34,
      "startOffset": 57,
      "word": "WHICH"
    },
    {
      "alignedWord": "only",
      "case": "success",
      "end": 3.93,
      "endOffset": 67,
      "phones": [
        {
          "duration": 0.14,
          "phone": "ow_B"
        },
        {
          "duration": 0.07,
          "phone": "n_I"
        },
        {
          "duration": 0.06,
          "phone": "l_I"
        },
        {
          "duration": 0.06,
          "phone": "iy_E"
        }
      ],
      "start": 3.6,
      "startOffset": 63,
      "word": "ONLY"
    },
    {
      "alignedWord": "she",
      "case": "success",
      "end": 4.3100000000000005,
      "endOffset": 71,
      "phones": [
        {
          "duration": 0.15,
          "phone": "sh_B"
        },
        {
          "duration": 0.23,
          "phone": "iy_E"
        }
      ],
      "start": 3.93,
      "startOffset": 68,
      "word": "SHE"
    },
    {
      "alignedWord": "apprehended",
      "case": "success",
      "end": 4.88,
      "endOffset": 83,
      "phones": [
        {
          "duration": 0.1,
          "phone": "ae_B"
        },
        {
          "duration": 0.09,
          "phone": "p_I"
        },
        {
          "duration": 0.01,
          "phone": "r_I"
        },
        {
          "duration": 0.02,
          "phone": "ih_I"
        },
        {
          "duration": 0.1,
          "phone": "hh_I"
        },
        {
          "duration": 0.04,
          "phone": "eh_I"
        },
        {
          "duration": 0.05,
          "phone": "n_I"
        },
        {
          "duration": 0.03,
          "phone": "d_I"
        },
        {
          "duration": 0.06,
          "phone": "ah_I"
        },
        {
          "duration": 0.07,
          "phone": "d_E"
        }
      ],
      "start": 4.31,
      "startOffset": 72,
      "word": "APPREHENDED"
    },
    {
      "alignedWord": "surprise",
      "case": "success",
      "end": 5.64,
      "endOffset": 92,
      "phones": [
        {
          "duration": 0.04,
          "phone": "s_B"
        },
        {
          "duration": 0.07,
          "phone": "ah_I"
        },
        {
          "duration": 0.07,
          "phone": "p_I"
        },
        {
          "duration": 0.1,
          "phone": "r_I"
        },
        {
          "duration": 0.22,
          "phone": "ay_I"
        },
        {
          "duration": 0.26,
          "phone": "z_E"
        }
      ],
      "start": 4.88,
      "startOffset": 84,
      "word": "SURPRISE"
    },
    {
      "alignedWord": "her",
      "case": "success",
      "end": 6.36,
      "endOffset": 96,
      "phones": [
        {
          "duration": 0.08,
          "phone": "hh_B"
        },
        {
          "duration": 0.09,
          "phone": "er_E"
        }
      ],
      "start": 6.19,
      "startOffset": 93,
      "word": "HER"
    },
    {
      "alignedWord": "great",
      "case": "success",
      "end": 6.66,
      "endOffset": 102,
      "phones": [
        {
          "duration": 0.07,
          "phone": "g_B"
        },
        {
          "duration": 0.08,
          "phone": "r_I"
        },
        {
          "duration": 0.07,
          "phone": "ey_I"
        },
        {
          "duration": 0.08,
          "phone": "t_E"
        }
      ],
      "start": 6.36,
      "startOffset": 97,
      "word": "GREAT"
    },
    {
      "alignedWord": "mouth",
      "case": "success",
      "end": 7.08,
      "endOffset": 108,
      "phones": [
        {
          "duration": 0.11,
          "phone": "m_B"
        },
        {
          "duration": 0.19,
          "phone": "aw_I"
        },
        {
          "duration": 0.11,
          "phone": "th_E"
        }
      ],
      "start": 6.67,
      "startOffset": 103,
      "word": "MOUTH"
    },
    {
      "alignedWord": "was",
      "case": "success",
      "end": 7.24,
      "endOffset": 112,
      "phones": [
        {
          "duration": 0.03,
          "phone": "w_B"
        },
        {
          "duration": 0.06,
          "phone": "ah_I"
        },
        {
          "duration": 0.07,
          "phone": "z_E"
        }
      ],
      "start": 7.08,
      "startOffset": 109,
      "word": "WAS"
    },
    {
      "alignedWord": "open",
      "case": "success",
      "end": 7.67,
      "endOffset": 117,
      "phones": [
        {
          "duration": 0.15,
          "phone": "ow_B"
        },
        {
          "duration": 0.08,
          "phone": "p_I"
        },
        {
          "duration": 0.09,
          "phone": "ah_I"
        },
        {
          "duration": 0.1,
          "phone": "n_E"
        }
      ],
      "start": 7.25,
      "startOffset": 113,
      "word": "OPEN"
    },
    {
      "alignedWord": "and",
      "case": "success",
      "end": 7.81,
      "endOffset": 121,
      "phones": [
        {
          "duration": 0.05,
          "phone": "ae_B"
        },
        {
          "duration": 0.06,
          "phone": "n_I"
        },
        {
          "duration": 0.03,
          "phone": "d_E"
        }
      ],
      "start": 7.67,
      "startOffset": 118,
      "word": "AND"
    },
    {
      "alignedWord": "her",
      "case": "success",
      "end": 8.0,
      "endOffset": 125,
      "phones": [
        {
          "duration": 0.09,
          "phone": "hh_B"
        },
        {
          "duration": 0.09,
          "phone": "er_E"
        }
      ],
      "start": 7.82,
      "startOffset": 122,
      "word": "HER"
    },
    {
      "alignedWord": "eyes",
      "case": "success",
      "end": 8.32,
      "endOffset": 130,
      "phones": [
        {
          "duration": 0.21,
          "phone": "ay_B"
        },
        {
          "duration": 0.11,
          "phone": "z_E"
        }
      ],
      "start": 8.0,
      "startOffset": 126,
      "word": "EYES"
    },
    {
      "alignedWord": "absolutely",
      "case": "success",
      "end": 9.089999,
      "endOffset": 141,
      "phones": [
        {
          "duration": 0.15,
          "phone": "ae_B"
        },
        {
          "duration": 0.09,
          "phone": "b_I"
        },
        {
          "duration": 0.06,
          "phone": "s_I"
        },
        {
          "duration": 0.05,
          "phone": "ah_I"
        },
        {
          "duration": 0.1,
          "phone": "l_I"
        },
        {
          "duration": 0.08,
          "phone": "uw_I"
        },
        {
          "duration": 0.04,
          "phone": "t_I"
        },
        {
          "duration": 0.06,
          "phone": "l_I"
        },
        {
          "duration": 0.11,
          "phone": "iy_E"
        }
      ],
      "start": 8.349999,
      "startOffset": 131,
      "word": "ABSOLUTELY"
    },
    {
      "alignedWord": "<unk>",
      "case": "success",
      "end": 9.58,
      "endOffset": 149,
      "phones": [
        {
          "duration": 0.49,
          "phone": "oov_S"
        }
      ],
      "start": 9.09,
      "startOffset": 142,
      "word": "GOGGLED"
    },
    {
      "alignedWord": "with",
      "case": "success",
      "end": 9.76,
      "endOffset": 154,
      "phones": [
        {
          "duration": 0.07,
          "phone": "w_B"
        },
        {
          "duration": 0.03,
          "phone": "ih_I"
        },
        {
          "duration": 0.07,
          "phone": "th_E"
        }
      ],
      "start": 9.59,
      "startOffset": 150,
      "word": "WITH"
    },
    {
      "alignedWord": "eagerness",
      "case": "success",
      "end": 10.549999999999999,
      "endOffset": 164,
      "phones": [
        {
          "duration": 0.14,
          "phone": "iy_B"
        },
        {
          "duration": 0.09,
          "phone": "g_I"
        },
        {
          "duration": 0.09,
          "phone": "er_I"
        },
        {
          "duration": 0.06,
          "phone": "n_I"
        },
        {
          "duration": 0.11,
          "phone": "ah_I"
        },
        {
          "duration": 0.27,
          "phone": "s_E"
        }
      ],
      "start": 9.79,
      "startOffset": 155,
      "word": "EAGERNESS"
    },
    {
      "alignedWord": "she",
      "case": "success",
      "end": 11.259999,
      "endOffset": 168,
      "phones": [
        {
          "duration": 0.11,
          "phone": "sh_B"
        },
        {
          "duration": 0.05,
          "phone": "iy_E"
        }
      ],
      "start": 11.099999,
      "startOffset": 165,
      "word": "SHE"
    },
    {
      "alignedWord": "was",
      "case": "success",
      "end": 11.459999,
      "endOffset": 172,
      "phones": [
        {
          "duration": 0.06,
          "phone": "w_B"
        },
        {
          "duration": 0.06,
          "phone": "ah_I"
        },
        {
          "duration": 0.08,
          "phone": "z_E"
        }
      ],
      "start": 11.259999,
      "startOffset": 169,
      "word": "WAS"
    },
    {
      "alignedWord": "<unk>",
      "case": "success",
      "end": 12.08,
      "endOffset": 182,
      "phones": [
        {
          "duration": 0.62,
          "phone": "oov_S"
        }
      ],
      "start": 11.46,
      "startOffset": 173,
      "word": "DEVOURING"
    },
    {
      "alignedWord": "all",
      "case": "success",
      "end": 12.399999000000001,
      "endOffset": 186,
      "phones": [
        {
          "duration": 0.14,
          "phone": "ao_B"
        },
        {
          "duration": 0.16,
          "phone": "l_E"
        }
      ],
      "start": 12.099999,
      "startOffset": 183,
      "word": "ALL"
    },
    {
      "alignedWord": "that",
      "case": "success",
      "end": 12.6,
      "endOffset": 191,
      "phones": [
        {
          "duration": 0.07,
          "phone": "dh_B"
        },
        {
          "duration": 0.05,
          "phone": "ae_I"
        },
        {
          "duration": 0.07,
          "phone": "t_E"
        }
      ],
      "start": 12.41,
      "startOffset": 187,
      "word": "THAT"
    },
    {
      "alignedWord": "was",
      "case": "success",
      "end": 12.789999,
      "endOffset": 195,
      "phones": [
        {
          "duration": 0.04,
          "phone": "w_B"
        },
        {
          "duration": 0.07,
          "phone": "ah_I"
        },
        {
          "duration": 0.08,
          "phone": "z_E"
        }
      ],
      "start": 12.599999,
      "startOffset": 192,
      "word": "WAS"
    },
    {
      "alignedWord": "passing",
      "case": "success",
      "end": 13.28,
      "endOffset": 203,
      "phones": [
        {
          "duration": 0.08,
          "phone": "p_B"
        },
        {
          "duration": 0.13,
          "phone": "ae_I"
        },
        {
          "duration": 0.09,
          "phone": "s_I"
        },
        {
          "duration": 0.09,
          "phone": "ih_I"
        },
        {
          "duration": 0.1,
          "phone": "ng_E"
        }
      ],
      "start": 12.79,
      "startOffset": 196,
      "word": "PASSING"
    },
    {
      "alignedWord": "there",
      "case": "success",
      "end": 13.639999999999999,
      "endOffset": 209,
      "phones": [
        {
          "duration": 0.05,
          "phone": "dh_B"
        },
        {
          "duration": 0.07,
          "phone": "eh_I"
        },
        {
          "duration": 0.24,
          "phone": "r_E"
        }
      ],
      "start": 13.28,
      "startOffset": 204,
      "word": "THERE"
    }
  ]
}