{
  "transcript": "WE NEVER THOUGHT OF THE EXPENSE OF KEEPING UP THE LAMP REBECCA NO WE DIDN'T BUT LET'S NOT WORRY ABOUT THAT TILL AFTER THE PARTY I HAVE A HANDFUL OF NUTS AND RAISINS AND SOME APPLES I HAVE PEPPERMINTS AND MAPLE SUGAR SAID EMMA JANE THEY HAD A REAL THANKSGIVING DINNER",
  "words": [
    {
      "alignedWord": "we",
      "case": "success",
      "end": 0.36,
      "endOffset": 2,
      "phones": [
        {
          "duration": 0.1,
          "phone": "w_B"
        },
        {
          "duration": 0.06,
          "phone": "iy_E"
        }
      ],
      "start": 0.2,
      "startOffset": 0,
      "word": "WE"
    },
    {
      "alignedWord": "never",
      "case": "success",
      "end": 0.61,
      "endOffset": 8,
      "phones": [
        {
          "duration": 0.04,
          "phone": "n_B"
        },
        {
          "duration": 0.07,
          "phone": "eh_I"
        },
        {
          "duration": 0.07,
          "phone": "v_I"
        },
        {
          "duration": 0.07,
          "phone": "er_E"
        }
      ],
      "start": 0.36,
      "startOffset": 3,
      "word": "NEVER"
    },
    {
      "alignedWord": "thought",
      "case": "success",
      "end": 0.87,
      "endOffset": 16,
      "phones": [
        {
          "duration": 0.11,
          "phone": "th_B"
        },
        {
          "duration": 0.09,
          "phone": "ao_I"
        },
        {
          "duration": 0.06,
          "phone": "t_E"
        }
      ],
      "start": 0.61,
      "startOffset": 9,
      "word": "THOUGHT"
    },
    {
      "alignedWord": "of",
      "case": "success",
      "end": 1.02,
      "endOffset": 19,
      "phones": [
        {
          "duration": 0.06,
          "phone": "ah_B"
        },
        {
          "duration": 0.09,
          "phone": "v_E"
        }
      ],
      "start": 0.87,
      "startOffset": 17,
      "word": "OF"
    },
    {
      "alignedWord": "the",
      "case": "success",
      "end": 1.15,
      "endOffset": 23,
      "phones": [
        {
          "duration": 0.04,
          "phone": "dh_B"
        },
        {
          "duration": 0.09,
          "phone": "iy_E"
        }
      ],
      "start": 1.02,
      "startOffset": 20,
      "word": "THE"
    },
    {
      "alignedWord": "expense",
      "case": "success",
      "end": 1.5499999999999998,
      "endOffset": 31,
      "phones": [
        {
          "duration": 0.07,
          "phone": "ih_B"
        },
        {
          "duration": 0.06,
          "phone": "k_I"
        },
        {
          "duration": 0.04,
          "phone": "s_I"
        },
        {
          "duration": 0.06,
          "phone": "p_I"
        },
        {
          "duration": 0.07,
          "phone": "eh_I"
        },
        {
          "duration": 0.07,
          "phone": "n_I"
        },
        {
          "duration": 0.03,
          "phone": "s_E"
        }
      ],
      "start": 1.15,
      "startOffset": 24,
      "word": "EXPENSE"
    },
    {
      "alignedWord": "of",
      "case": "success",
      "end": 1.69,
      "endOffset": 34,
      "phones": [
        {
          "duration": 0.08,
          "phone": "ah_B"
        },
        {
          "duration": 0.06,
          "phone": "v_E"
        }
      ],
      "start": 1.55,
      "startOffset": 32,
      "word": "OF"
    },
    {
      "alignedWord": "keeping",
      "case": "success",
      "end": 2.02,
      "endOffset": 42,
      "phones": [
        {
          "duration": 0.1,
          "phone": "k_B"
        },
        {
          "duration": 0.05,
          "phone": "iy_I"
        },
        {
          "duration": 0.04,
          "phone": "p_I"
        },
        {
          "duration": 0.06,
          "phone": "ih_I"
        },
        {
          "duration": 0.08,
          "phone": "ng_E"
        }
      ],
      "start": 1.69,
      "startOffset": 35,
      "word": "KEEPING"
    },
    {
      "alignedWord": "up",
      "case": "success",
      "end": 2.16,
      "endOffset": 45,
      "phones": [
        {
          "duration": 0.06,
          "phone": "ah_B"
        },
        {
          "duration": 0.08,
          "phone": "p_E"
        }
      ],
      "start": 2.02,
      "startOffset": 43,
      "word": "UP"
    },
    {
      "alignedWord": "the",
      "case": "success",
      "end": 2.27,
      "endOffset": 49,
      "phones": [
        {
          "duration": 0.05,
          "phone": "dh_B"
        },
        {
          "duration": 0.06,
          "phone": "ah_E"
        }
      ],
      "start": 2.16,
      "startOffset": 46,
      "word": "THE"
    },
    {
      "alignedWord": "lamp",
      "case": "success",
      "end": 2.5300000000000002,
      "endOffset": 54,
      "phones": [
        {
          "duration": 0.08,
          "phone": "l_B"
        },
        {
          "duration": 0.07,
          "phone": "ae_I"
        },
        {
          "duration": 0.06,
          "phone": "m_I"
        },
        {
          "duration": 0.05,
          "phone": "p_E"
        }
      ],
      "start": 2.27,
      "startOffset": 50,
      "word": "LAMP"
    },
    {
      "alignedWord": "rebecca",
      "case": "success",
      "end": 3.0999999999999996,
      "endOffset": 62,
      "phones": [
        {
          "duration": 0.01,
          "phone": "r_B"
        },
        {
          "duration": 0.06,
          "phone": "ah_I"
        },
        {
          "duration": 0.06,
          "phone": "b_I"
        },
        {
          "duration": 0.1,
          "phone": "eh_I"
        },
        {
          "duration": 0.07,
          "phone": "k_I"
        },
        {
          "duration": 0.27,
          "phone": "ah_E"
        }
      ],
      "start": 2.53,
      "startOffset": 55,
      "word": "REBECCA"
    },
    {
      "alignedWord": "no",
      "case": "success",
      "end": 4.13,
      "endOffset": 65,
      "phones": [
        {
          "duration": 0.16,
          "phone": "n_B"
        },
        {
          "duration": 0.15,
          "phone": "ow_E"
        }
      ],
      "start": 3.82,
      "startOffset": 63,
      "word": "NO"
    },
    {
      "alignedWord": "we",
      "case": "success",
      "end": 4.31,
      "endOffset": 68,
      "phones": [
        {
          "duration": 0.09,
          "phone": "w_B"
        },
        {
          "duration": 0.09,
          "phone": "iy_E"
        }
      ],
      "start": 4.13,
      "startOffset": 66,
      "word": "WE"
    },
    {
      "alignedWord": "didn't",
      "case": "success",
      "end": 4.88,
      "endOffset": 75,
      "phones": [
        {
          "duration": 0.08,
          "phone": "d_B"
        },
        {
          "duration": 0.1,
          "phone": "ih_I"
        },
        {
          "duration": 0.01,
          "phone": "d_I"
        },
        {
          "duration": 0.13,
          "phone": "ah_I"
        },
        {
          "duration": 0.04,
          "phone": "n_I"
        },
        {
          "duration": 0.21,
          "phone": "t_E"
        }
      ],
      "start": 4.31,
      "startOffset": 69,
      "word": "DIDN'T"
    },
    {
      "alignedWord": "but",
      "case": "success",
      "end": 5.09,
      "endOffset": 79,
      "phones": [
        {
          "duration": 0.04,
          "phone": "b_B"
        },
        {
          "duration": 0.06,
          "phone": "ah_I"
        },
        {
          "duration": 0.06,
          "phone": "t_E"
        }
      ],
      "start": 4.93,
      "startOffset": 76,
      "word": "BUT"
    },
    {
      "alignedWord": "let's",
      "case": "success",
      "end": 5.32,
      "endOffset": 85,
      "phones": [
        {
          "duration": 0.03,
          "phone": "l_B"
        },
        {
          "duration": 0.05,
          "phone": "eh_I"
        },
        {
          "duration": 0.05,
          "phone": "t_I"
        },
        {
          "duration": 0.1,
          "phone": "s_E"
        }
      ],
      "start": 5.09,
      "startOffset": 80,
      "word": "LET'S"
    },
    {
      "alignedWord": "not",
      "case": "success",
      "end": 5.45,
      "endOffset": 89,
      "phones": [
        {
          "duration": 0.02,
          "phone": "n_B"
        },
        {
          "duration": 0.04,
          "phone": "aa_I"
        },
        {
          "duration": 0.07,
          "phone": "t_E"
        }
      ],
      "start": 5.32,
      "startOffset": 86,
      "word": "NOT"
    },
    {
      "alignedWord": "worry",
      "case": "success",
      "end": 5.720000000000001,
      "endOffset": 95,
      "phones": [
        {
          "duration": 0.09,
          "phone": "w_B"
        },
        {
          "duration": 0.12,
          "phone": "er_I"
        },
        {
          "duration": 0.06,
          "phone": "iy_E"
        }
      ],
      "start": 5.45,
      "startOffset": 90,
      "word": "WORRY"
    },
    {
      "alignedWord": "about",
      "case": "success",
      "end": 5.97,
      "endOffset": 101,
      "phones": [
        {
          "duration": 0.05,
          "phone": "ah_B"
        },
        {
          "duration": 0.06,
          "phone": "b_I"
        },
        {
          "duration": 0.05,
          "phone": "aw_I"
        },
        {
          "duration": 0.09,
          "phone": "t_E"
        }
      ],
      "start": 5.72,
      "startOffset": 96,
      "word": "ABOUT"
    },
    {
      "alignedWord": "that",
      "case": "success",
      "end": 6.21,
      "endOffset": 106,
      "phones": [
        {
          "duration": 0.04,
          "phone": "dh_B"
        },
        {
          "duration": 0.1,
          "phone": "ae_I"
        },
        {
          "duration": 0.1,
          "phone": "t_E"
        }
      ],
      "start": 5.97,
      "startOffset": 102,
      "word": "THAT"
    },
    {
      "alignedWord": "till",
      "case": "success",
      "end": 6.38,
      "endOffset": 111,
      "phones": [
        {
          "duration": 0.03,
          "phone": "t_B"
        },
        {
          "duration": 0.07,
          "phone": "ih_I"
        },
        {
          "duration": 0.07,
          "phone": "l_E"
        }
      ],
      "start": 6.21,
      "startOffset": 107,
      "word": "TILL"
    },
    {
      "alignedWord": "after",
      "case": "success",
      "end": 6.72,
      "endOffset": 117,
      "phones": [
        {
          "duration": 0.11,
          "phone": "ae_B"
        },
        {
          "duration": 0.07,
          "phone": "f_I"
        },
        {
          "duration": 0.06,
          "phone": "t_I"
        },
        {
          "duration": 0.07,
          "phone": "er_E"
        }
      ],
      "start": 6.41,
      "startOffset": 112,
      "word": "AFTER"
    },
    {
      "alignedWord": "the",
      "case": "success",
      "end": 6.8,
      "endOffset": 121,
      "phones": [
        {
          "duration": 0.03,
          "phone": "dh_B"
        },
        {
          "duration": 0.05,
          "phone": "ah_E"
        }
      ],
      "start": 6.72,
      "startOffset": 118,
      "word": "THE"
    },
    {
      "alignedWord": "party",
      "case": "success",
      "end": 7.21,
      "endOffset": 127,
      "phones": [
        {
          "duration": 0.06,
          "phone": "p_B"
        },
        {
          "duration": 0.06,
          "phone": "aa_I"
        },
        {
          "duration": 0.06,
          "phone": "r_I"
        },
        {
          "duration": 0.06,
          "phone": "t_I"
        },
        {
          "duration": 0.17,
          "phone": "iy_E"
        }
      ],
      "start": 6.8,
      "startOffset": 122,
      "word": "PARTY"
    },
    {
      "alignedWord": "i",
      "case": "success",
      "end": 7.68,
      "endOffset": 129,
      "phones": [
        {
          "duration": 0.08,
          "phone": "ay_S"
        }
      ],
      "start": 7.6,
      "startOffset": 128,
      "word": "I"
    },
    {
      "alignedWord": "have",
      "case": "success",
      "end": 7.84,
      "endOffset": 134,
      "phones": [
        {
          "duration": 0.06,
          "phone": "hh_B"
        },
        {
          "duration": 0.04,
          "phone": "ae_I"
        },
        {
          "duration": 0.06,
          "phone": "v_E"
        }
      ],
      "start": 7.68,
      "startOffset": 130,
      "word": "HAVE"
    },
    {
      "alignedWord": "a",
      "case": "success",
      "end": 7.8999999999999995,
      "endOffset": 136,
      "phones": [
        {
          "duration": 0.06,
          "phone": "ah_S"
        }
      ],
      "start": 7.84,
      "startOffset": 135,
      "word": "A"
    },
    {
      "alignedWord": "handful",
      "case": "success",
      "end": 8.360000000000001,
      "endOffset": 144,
      "phones": [
        {
          "duration": 0.06,
          "phone": "hh_B"
        },
        {
          "duration": 0.09,
          "phone": "ae_I"
        },
        {
          "duration": 0.06,
          "phone": "n_I"
        },
        {
          "duration": 0.06,
          "phone": "d_I"
        },
        {
          "duration": 0.06,
          "phone": "f_I"
        },
        {
          "duration": 0.08,
          "phone": "uh_I"
        },
        {
          "duration": 0.05,
          "phone": "l_E"
        }
      ],
      "start": 7.9,
      "startOffset": 137,
      "word": "HANDFUL"
    },
    {
      "alignedWord": "of",
      "case": "success",
      "end": 8.469999999999999,
      "endOffset": 147,
      "phones": [
        {
          "duration": 0.04,
          "phone": "ah_B"
        },
        {
          "duration": 0.07,
          "phone": "v_E"
        }
      ],
      "start": 8.36,
      "startOffset": 145,
      "word": "OF"
    },
    {
      "alignedWord": "nuts",
      "case": "success",
      "end": 8.82,
      "endOffset": 152,
      "phones": [
        {
          "duration": 0.05,
          "phone": "n_B"
        },
        {
          "duration": 0.15,
          "phone": "ah_I"
        },
        {
          "duration": 0.08,
          "phone": "t_I"
        },
        {
          "duration": 0.07,
          "phone": "s_E"
        }
      ],
      "start": 8.47,
      "startOffset": 148,
      "word": "NUTS"
    },
    {
      "alignedWord": "and",
      "case": "success",
      "end": 8.97,
      "endOffset": 156,
      "phones": [
        {
          "duration": 0.03,
          "phone": "ah_B"
        },
        {
          "duration": 0.05,
          "phone": "n_I"
        },
        {
          "duration": 0.06,
          "phone": "d_E"
        }
      ],
      "start": 8.83,
      "startOffset": 153,
      "word": "AND"
    },
    {
      "alignedWord": "raisins",
      "case": "success",
      "end": 9.440000000000001,
      "endOffset": 164,
      "phones": [
        {
          "duration": 0.07,
          "phone": "r_B"
        },
        {
          "duration": 0.08,
          "phone": "ey_I"
        },
        {
          "duration": 0.06,
          "phone": "z_I"
        },
        {
          "duration": 0.08,
          "phone": "ah_I"
        },
        {
          "duration": 0.1,
          "phone": "n_I"
        },
        {
          "duration": 0.08,
          "phone": "z_E"
        }
      ],
      "start": 8.97,
      "startOffset": 157,
      "word": "RAISINS"
    },
    {
      "alignedWord": "and",
      "case": "success",
      "end": 9.67,
      "endOffset": 168,
      "phones": [
        {
          "duration": 0.12,
          "phone": "ae_B"
        },
        {
          "duration": 0.04,
          "phone": "n_I"
        },
        {
          "duration": 0.06,
          "phone": "d_E"
        }
      ],
      "start": 9.45,
      "startOffset": 165,
      "word": "AND"
    },
    {
      "alignedWord": "some",
      "case": "success",
      "end": 9.82,
      "endOffset": 173,
      "phones": [
        {
          "duration": 0.03,
          "phone": "s_B"
        },
        {
          "duration": 0.05,
          "phone": "ah_I"
        },
        {
          "duration": 0.07,
          "phone": "m_E"
        }
      ],
      "start": 9.67,
      "startOffset": 169,
      "word": "SOME"
    },
    {
      "alignedWord": "apples",
      "case": "success",
      "end": 10.31,
      "endOffset": 180,
      "phones": [
        {
          "duration": 0.08,
          "phone": "ae_B"
        },
        {
          "duration": 0.07,
          "phone": "p_I"
        },
        {
          "duration": 0.05,
          "phone": "ah_I"
        },
        {
          "duration": 0.09,
          "phone": "l_I"
        },
        {
          "duration": 0.2,
          "phone": "z_E"
        }
      ],
      "start": 9.82,
      "startOffset": 174,
      "word": "APPLES"
    },
    {
      "alignedWord": "i",
      "case": "success",
      "end": 11.459999999999999,
      "endOffset": 182,
      "phones": [
        {
          "duration": 0.09,
          "phone": "ay_S"
        }
      ],
      "start": 11.37,
      "startOffset": 181,
      "word": "I"
    },
    {
      "alignedWord": "have",
      "case": "success",
      "end": 11.63,
      "endOffset": 187,
      "phones": [
        {
          "duration": 0.07,
          "phone": "hh_B"
        },
        {
          "duration": 0.04,
          "phone": "ae_I"
        },
        {
          "duration": 0.06,
          "phone": "v_E"
        }
      ],
      "start": 11.46,
      "startOffset": 183,
      "word": "HAVE"
    },
    {
      "alignedWord": "<unk>",
      "case": "success",
      "end": 12.17,
      "endOffset": 199,
      "phones": [
        {
          "duration": 0.51,
          "phone": "oov_S"
        }
      ],
      "start": 11.66,
      "startOffset": 188,
      "word": "PEPPERMINTS"
    },
    {
      "alignedWord": "and",
      "case": "success",
      "end": 12.24,
      "endOffset": 203,
      "phones": [
        {
          "duration": 0.01,
          "phone": "ah_B"
        },
        {
          "duration": 0.04,
          "phone": "n_I"
        },
        {
          "duration": 0.02,
          "phone": "d_E"
        }
      ],
      "start": 12.17,
      "startOffset": 200,
      "word": "AND"
    },
    {
      "alignedWord": "maple",
      "case": "success",
      "end": 12.540000000000001,
      "endOffset": 209,
      "phones": [
        {
          "duration": 0.07,
          "phone": "m_B"
        },
        {
          "duration": 0.04,
          "phone": "ey_I"
        },
        {
          "duration": 0.09,
          "phone": "p_I"
        },
        {
          "duration": 0.03,
          "phone": "ah_I"
        },
        {
          "duration": 0.07,
          "phone": "l_E"
        }
      ],
      "start": 12.24,
      "startOffset": 204,
      "word": "MAPLE"
    },
    {
      "alignedWord": "sugar",
      "case": "success",
      "end": 12.909999999999998,
      "endOffset": 215,
      "phones": [
        {
          "duration": 0.12,
          "phone": "sh_B"
        },
        {
          "duration": 0.06,
          "phone": "uh_I"
        },
        {
          "duration": 0.11,
          "phone": "g_I"
        },
        {
          "duration": 0.08,
          "phone": "er_E"
        }
      ],
      "start": 12.54,
      "startOffset": 210,
      "word": "SUGAR"
    },
    {
      "alignedWord": "said",
      "case": "success",
      "end": 13.13,
      "endOffset": 220,
      "phones": [
        {
          "duration": 0.11,
          "phone": "s_B"
        },
        {
          "duration": 0.07,
          "phone": "eh_I"
        },
        {
          "duration": 0.04,
          "phone": "d_E"
        }
      ],
      "start": 12.91,
      "startOffset": 216,
      "word": "SAID"
    },
    {
      "alignedWord": "emma",
      "case": "success",
      "end": 13.3,
      "endOffset": 225,
      "phones": [
        {
          "duration": 0.06,
          "phone": "eh_B"
        },
        {
          "duration": 0.07,
          "phone": "m_I"
        },
        {
          "duration": 0.04,
          "phone": "ah_E"
        }
      ],
      "start": 13.13,
      "startOffset": 221,
      "word": "EMMA"
    },
    {
      "alignedWord": "jane",
      "case": "success",
      "end": 13.589998999999999,
      "endOffset": 230,
      "phones": [
        {
          "duration": 0.13,
          "phone": "jh_B"
        },
        {
          "duration": 0.09,
          "phone": "ey_I"
        },
        {
          "duration": 0.07,
          "phone": "n_E"
        }
      ],
      "start": 13.299999,
      "startOffset": 226,
      "word": "JANE"
    },
    {
      "alignedWord": "they",
      "case": "success",
      "end": 14.049999,
      "endOffset": 235,
      "phones": [
        {
          "duration": 0.08,
          "phone": "dh_B"
        },
        {
          "duration": 0.08,
          "phone": "ey_E"
        }
      ],
      "start": 13.889999,
      "startOffset": 231,
      "word": "THEY"
    },
    {
      "alignedWord": "had",
      "case": "success",
      "end": 14.249998999999999,
      "endOffset": 239,
      "phones": [
        {
          "duration": 0.08,
          "phone": "hh_B"
        },
        {
          "duration": 0.08,
          "phone": "ae_I"
        },
        {
          "duration": 0.04,
          "phone": "d_E"
        }
      ],
      "start": 14.049999,
      "startOffset": 236,
      "word": "HAD"
    },
    {
      "alignedWord": "a",
      "case": "success",
      "end": 14.33,
      "endOffset": 241,
      "phones": [
        {
          "duration": 0.08,
          "phone": "ah_S"
        }
      ],
      "start": 14.25,
      "startOffset": 240,
      "word": "A"
    },
    {
      "alignedWord": "real",
      "case": "success",
      "end": 14.61,
      "endOffset": 246,
      "phones": [
        {
          "duration": 0.09,
          "phone": "r_B"
        },
        {
          "duration": 0.1,
          "phone": "iy_I"
        },
        {
          "duration": 0.09,
          "phone": "l_E"
        }
      ],
      "start": 14.33,
      "startOffset": 242,
      "word": "REAL"
    },
    {
      "alignedWord": "thanksgiving",
      "case": "success",
      "end": 15.25,
      "endOffset": 259,
      "phones": [
        {
          "duration": 0.08,
          "phone": "th_B"
        },
        {
          "duration": 0.05,
          "phone": "ae_I"
        },
        {
          "duration": 0.08,
          "phone": "ng_I"
        },
        {
          "duration": 0.05,
          "phone": "k_I"
        },
        {
          "duration": 0.08,
          "phone": "s_I"
        },
        {
          "duration": 0.05,
          "phone": "g_I"
        },
        {
          "duration": 0.06,
          "phone": "ih_I"
        },
        {
          "duration": 0.03,
          "phone": "v_I"
        },
        {
          "duration": 0.08,
          "phone": "ih_I"
        },
        {
          "duration": 0.08,
          "phone": "ng_E"
        }
      ],
      "start": 14.61,
      "startOffset": 247,
      "word": "THANKSGIVING"
    },
    {
      "alignedWord": "dinner",
      "case": "success",
      "end": 15.61,
      "endOffset": 266,
      "phones": [
        {
          "duration": 0.06,
          "phone": "d_B"
        },
        {
          "duration": 0.08,
          "phone": "ih_I"
        },
        {
          "duration": 0.08,
          "phone": "n_I"
        },
        {
          "duration": 0.14,
          "phone": "er_E"
        }
      ],
      "start": 15.25,
      "startOffset": 260,
      "word": "DINNER"
    }
  ]
}