{
  "transcript": "MY CAPTOR MERELY STRODE UP TO THE ROSTRUM THE OTHERS MAKING WAY FOR HIM AS HE ADVANCED THE CHIEFTAIN ROSE TO HIS FEET AND UTTERED THE NAME OF MY ESCORT WHO IN TURN HALTED AND REPEATED THE NAME OF THE RULER FOLLOWED BY HIS TITLE",
  "words": [
    {
      "alignedWord": "my",
      "case": "success",
      "end": 0.49,
      "endOffset": 2,
      "phones": [
        {
          "duration": 0.11,
          "phone": "m_B"
        },
        {
          "duration": 0.15,
          "phone": "ay_E"
        }
      ],
      "start": 0.23,
      "startOffset": 0,
      "word": "MY"
    },
    {
      "alignedWord": "<unk>",
      "case": "success",
      "end": 0.9,
      "endOffset": 9,
      "phones": [
        {
          "duration": 0.01,
          "phone": "oov_S"
        }
      ],
      "start": 0.89,
      "startOffset": 3,
      "word": "CAPTOR"
    },
    {
      "alignedWord": "merely",
      "case": "success",
      "end": 1.09,
      "endOffset": 16,
      "phones": [
        {
          "duration": 0.09,
          "phone": "m_B"
        },
        {
          "duration": 0.06,
          "phone": "ih_I"
        },
        {
          "duration": 0.01,
          "phone": "r_I"
        },
        {
          "duration": 0.01,
          "phone": "l_I"
        },
        {
          "duration": 0.01,
          "phone": "iy_E"
        }
      ],
      "start": 0.91,
      "startOffset": 10,
      "word": "MERELY"
    },
    {
      "alignedWord": "<unk>",
      "case": "success",
      "end": 1.6,
      "endOffset": 23,
      "phones": [
        {
          "duration": 0.51,
          "phone": "oov_S"
        }
      ],
      "start": 1.09,
      "startOffset": 17,
      "word": "STRODE"
    },
    {
      "alignedWord": "up",
      "case": "success",
      "end": 1.76,
      "endOffset": 26,
      "phones": [
        {
          "duration": 0.09,
          "phone": "ah_B"
        },
        {
          "duration": 0.06,
          "phone": "p_E"
        }
      ],
      "start": 1.61,
      "startOffset": 24,
      "word": "UP"
    },
    {
      "alignedWord": "to",
      "case": "success",
      "end": 1.88,
      "endOffset": 29,
      "phones": [
        {
          "duration": 0.06,
          "phone": "t_B"
        },
        {
          "duration": 0.06,
          "phone": "ih_E"
        }
      ],
      "start": 1.76,
      "startOffset": 27,
      "word": "TO"
    },
    {
      "alignedWord": "the",
      "case": "success",
      "end": 2.02,
      "endOffset": 33,
      "phones": [
        {
          "duration": 0.05,
          "phone": "dh_B"
        },
        {
          "duration": 0.09,
          "phone": "ah_E"
        }
      ],
      "start": 1.88,
      "startOffset": 30,
      "word": "THE"
    },
    {
      "alignedWord": "<unk>",
      "case": "success",
      "end": 2.66,
      "endOffset": 41,
      "phones": [
        {
          "duration": 0.64,
          "phone": "oov_S"
        }
      ],
      "start": 2.02,
      "startOffset": 34,
      "word": "ROSTRUM"
    },
    {
      "alignedWord": "the",
      "case": "success",
      "end": 3.34,
      "endOffset": 45,
      "phones": [
        {
          "duration": 0.12,
          "phone": "dh_B"
        },
        {
          "duration": 0.09,
          "phone": "iy_E"
        }
      ],
      "start": 3.13,
      "startOffset": 42,
      "word": "THE"
    },
    {
      "alignedWord": "others",
      "case": "success",
      "end": 3.67,
      "endOffset": 52,
      "phones": [
        {
          "duration": 0.09,
          "phone": "ah_B"
        },
        {
          "duration": 0.09,
          "phone": "dh_I"
        },
        {
          "duration": 0.08,
          "phone": "er_I"
        },
        {
          "duration": 0.07,
          "phone": "z_E"
        }
      ],
      "start": 3.34,
      "startOffset": 46,
      "word": "OTHERS"
    },
    {
      "alignedWord": "making",
      "case": "success",
      "end": 4.15,
      "endOffset": 59,
      "phones": [
        {
          "duration": 0.12,
          "phone": "m_B"
        },
        {
          "duration": 0.1,
          "phone": "ey_I"
        },
        {
          "duration": 0.07,
          "phone": "k_I"
        },
        {
          "duration": 0.06,
          "phone": "ih_I"
        },
        {
          "duration": 0.12,
          "phone": "ng_E"
        }
      ],
      "start": 3.68,
      "startOffset": 53,
      "word": "MAKING"
    },
    {
      "alignedWord": "way",
      "case": "success",
      "end": 4.49,
      "endOffset": 63,
      "phones": [
        {
          "duration": 0.14,
          "phone": "w_B"
        },
        {
          "duration": 0.2,
          "phone": "ey_E"
        }
      ],
      "start": 4.15,
      "startOffset": 60,
      "word": "WAY"
    },
    {
      "alignedWord": "for",
      "case": "success",
      "end": 4.7,
      "endOffset": 67,
      "phones": [
        {
          "duration": 0.13,
          "phone": "f_B"
        },
        {
          "duration": 0.04,
          "phone": "ao_I"
        },
        {
          "duration": 0.04,
          "phone": "r_E"
        }
      ],
      "start": 4.49,
      "startOffset": 64,
      "word": "FOR"
    },
    {
      "alignedWord": "him",
      "case": "success",
      "end": 4.92,
      "endOffset": 71,
      "phones": [
        {
          "duration": 0.06,
          "phone": "hh_B"
        },
        {
          "duration": 0.09,
          "phone": "ih_I"
        },
        {
          "duration": 0.07,
          "phone": "m_E"
        }
      ],
      "start": 4.7,
      "startOffset": 68,
      "word": "HIM"
    },
    {
      "alignedWord": "as",
      "case": "success",
      "end": 5.08,
      "endOffset": 74,
      "phones": [
        {
          "duration": 0.1,
          "phone": "ae_B"
        },
        {
          "duration": 0.06,
          "phone": "z_E"
        }
      ],
      "start": 4.92,
      "startOffset": 72,
      "word": "AS"
    },
    {
      "alignedWord": "he",
      "case": "success",
      "end": 5.25,
      "endOffset": 77,
      "phones": [
        {
          "duration": 0.07,
          "phone": "hh_B"
        },
        {
          "duration": 0.1,
          "phone": "iy_E"
        }
      ],
      "start": 5.08,
      "startOffset": 75,
      "word": "HE"
    },
    {
      "alignedWord": "advanced",
      "case": "success",
      "end": 5.92,
      "endOffset": 86,
      "phones": [
        {
          "duration": 0.04,
          "phone": "ah_B"
        },
        {
          "duration": 0.02,
          "phone": "d_I"
        },
        {
          "duration": 0.1,
          "phone": "v_I"
        },
        {
          "duration": 0.19,
          "phone": "ae_I"
        },
        {
          "duration": 0.08,
          "phone": "n_I"
        },
        {
          "duration": 0.07,
          "phone": "s_I"
        },
        {
          "duration": 0.17,
          "phone": "t_E"
        }
      ],
      "start": 5.25,
      "startOffset": 78,
      "word": "ADVANCED"
    },
    {
      "alignedWord": "the",
      "case": "success",
      "end": 6.529999999999999,
      "endOffset": 90,
      "phones": [
        {
          "duration": 0.07,
          "phone": "dh_B"
        },
        {
          "duration": 0.07,
          "phone": "ah_E"
        }
      ],
      "start": 6.39,
      "startOffset": 87,
      "word": "THE"
    },
    {
      "alignedWord": "<unk>",
      "case": "success",
      "end": 7.050000000000001,
      "endOffset": 100,
      "phones": [
        {
          "duration": 0.52,
          "phone": "oov_S"
        }
      ],
      "start": 6.53,
      "startOffset": 91,
      "word": "CHIEFTAIN"
    },
    {
      "alignedWord": "rose",
      "case": "success",
      "end": 7.42,
      "endOffset": 105,
      "phones": [
        {
          "duration": 0.11,
          "phone": "r_B"
        },
        {
          "duration": 0.15,
          "phone": "ow_I"
        },
        {
          "duration": 0.1,
          "phone": "z_E"
        }
      ],
      "start": 7.06,
      "startOffset": 101,
      "word": "ROSE"
    },
    {
      "alignedWord": "to",
      "case": "success",
      "end": 7.58,
      "endOffset": 108,
      "phones": [
        {
          "duration": 0.08,
          "phone": "t_B"
        },
        {
          "duration": 0.08,
          "phone": "uw_E"
        }
      ],
      "start": 7.42,
      "startOffset": 106,
      "word": "TO"
    },
    {
      "alignedWord": "his",
      "case": "success",
      "end": 7.73,
      "endOffset": 112,
      "phones": [
        {
          "duration": 0.05,
          "phone": "hh_B"
        },
        {
          "duration": 0.03,
          "phone": "ih_I"
        },
        {
          "duration": 0.07,
          "phone": "z_E"
        }
      ],
      "start": 7.58,
      "startOffset": 109,
      "word": "HIS"
    },
    {
      "alignedWord": "feet",
      "case": "success",
      "end": 8.07,
      "endOffset": 117,
      "phones": [
        {
          "duration": 0.13,
          "phone": "f_B"
        },
        {
          "duration": 0.13,
          "phone": "iy_I"
        },
        {
          "duration": 0.08,
          "phone": "t_E"
        }
      ],
      "start": 7.73,
      "startOffset": 113,
      "word": "FEET"
    },
    {
      "alignedWord": "and",
      "case": "success",
      "end": 8.299999,
      "endOffset": 121,
      "phones": [
        {
          "duration": 0.09,
          "phone": "ae_B"
        },
        {
          "duration": 0.06,
          "phone": "n_I"
        },
        {
          "duration": 0.05,
          "phone": "d_E"
        }
      ],
      "start": 8.099999,
      "startOffset": 118,
      "word": "AND"
    },
    {
      "alignedWord": "uttered",
      "case": "success",
      "end": 8.82,
      "endOffset": 129,
      "phones": [
        {
          "duration": 0.18,
          "phone": "ah_B"
        },
        {
          "duration": 0.01,
          "phone": "t_I"
        },
        {
          "duration": 0.08,
          "phone": "er_I"
        },
        {
          "duration": 0.17,
          "phone": "d_E"
        }
      ],
      "start": 8.38,
      "startOffset": 122,
      "word": "UTTERED"
    },
    {
      "alignedWord": "the",
      "case": "success",
      "end": 9.23,
      "endOffset": 133,
      "phones": [
        {
          "duration": 0.08,
          "phone": "dh_B"
        },
        {
          "duration": 0.08,
          "phone": "ah_E"
        }
      ],
      "start": 9.07,
      "startOffset": 130,
      "word": "THE"
    },
    {
      "alignedWord": "name",
      "case": "success",
      "end": 9.59,
      "endOffset": 138,
      "phones": [
        {
          "duration": 0.13,
          "phone": "n_B"
        },
        {
          "duration": 0.16,
          "phone": "ey_I"
        },
        {
          "duration": 0.07,
          "phone": "m_E"
        }
      ],
      "start": 9.23,
      "startOffset": 134,
      "word": "NAME"
    },
    {
      "alignedWord": "of",
      "case": "success",
      "end": 9.7,
      "endOffset": 141,
      "phones": [
        {
          "duration": 0.06,
          "phone": "ah_B"
        },
        {
          "duration": 0.05,
          "phone": "v_E"
        }
      ],
      "start": 9.59,
      "startOffset": 139,
      "word": "OF"
    },
    {
      "alignedWord": "my",
      "case": "success",
      "end": 9.920000000000002,
      "endOffset": 144,
      "phones": [
        {
          "duration": 0.09,
          "phone": "m_B"
        },
        {
          "duration": 0.12,
          "phone": "ay_E"
        }
      ],
      "start": 9.71,
      "startOffset": 142,
      "word": "MY"
    },
    {
      "alignedWord": "escort",
      "case": "success",
      "end": 10.41,
      "endOffset": 151,
      "phones": [
        {
          "duration": 0.1,
          "phone": "eh_B"
        },
        {
          "duration": 0.12,
          "phone": "s_I"
        },
        {
          "duration": 0.07,
          "phone": "k_I"
        },
        {
          "duration": 0.1,
          "phone": "ao_I"
        },
        {
          "duration": 0.05,
          "phone": "r_I"
        },
        {
          "duration": 0.05,
          "phone": "t_E"
        }
      ],
      "start": 9.92,
      "startOffset": 145,
      "word": "ESCORT"
    },
    {
      "alignedWord": "who",
      "case": "success",
      "end": 10.7,
      "endOffset": 155,
      "phones": [
        {
          "duration": 0.09,
          "phone": "hh_B"
        },
        {
          "duration": 0.19,
          "phone": "uw_E"
        }
      ],
      "start": 10.42,
      "startOffset": 152,
      "word": "WHO"
    },
    {
      "alignedWord": "in",
      "case": "success",
      "end": 10.930000000000001,
      "endOffset": 158,
      "phones": [
        {
          "duration": 0.13,
          "phone": "ih_B"
        },
        {
          "duration": 0.09,
          "phone": "n_E"
        }
      ],
      "start": 10.71,
      "startOffset": 156,
      "word": "IN"
    },
    {
      "alignedWord": "turn",
      "case": "success",
      "end": 11.429999,
      "endOffset": 163,
      "phones": [
        {
          "duration": 0.12,
          "phone": "t_B"
        },
        {
          "duration": 0.23,
          "phone": "er_I"
        },
        {
          "duration": 0.15,
          "phone": "n_E"
        }
      ],
      "start": 10.929999,
      "startOffset": 159,
      "word": "TURN"
    },
    {
      "alignedWord": "halted",
      "case": "success",
      "end": 12.229999000000001,
      "endOffset": 170,
      "phones": [
        {
          "duration": 0.13,
          "phone": "hh_B"
        },
        {
          "duration": 0.03,
          "phone": "ao_I"
        },
        {
          "duration": 0.11,
          "phone": "l_I"
        },
        {
          "duration": 0.1,
          "phone": "t_I"
        },
        {
          "duration": 0.11,
          "phone": "ih_I"
        },
        {
          "duration": 0.15,
          "phone": "d_E"
        }
      ],
      "start": 11.599999,
      "startOffset": 164,
      "word": "HALTED"
    },
    {
      "alignedWord": "and",
      "case": "success",
      "end": 12.779999,
      "endOffset": 174,
      "phones": [
        {
          "duration": 0.09,
          "phone": "ae_B"
        },
        {
          "duration": 0.05,
          "phone": "n_I"
        },
        {
          "duration": 0.08,
          "phone": "d_E"
        }
      ],
      "start": 12.559999,
      "startOffset": 171,
      "word": "AND"
    },
    {
      "alignedWord": "repeated",
      "case": "success",
      "end": 13.229999999999999,
      "endOffset": 183,
      "phones": [
        {
          "duration": 0.02,
          "phone": "r_B"
        },
        {
          "duration": 0.07,
          "phone": "iy_I"
        },
        {
          "duration": 0.11,
          "phone": "p_I"
        },
        {
          "duration": 0.1,
          "phone": "iy_I"
        },
        {
          "duration": 0.02,
          "phone": "t_I"
        },
        {
          "duration": 0.07,
          "phone": "ih_I"
        },
        {
          "duration": 0.06,
          "phone": "d_E"
        }
      ],
      "start": 12.78,
      "startOffset": 175,
      "word": "REPEATED"
    },
    {
      "alignedWord": "the",
      "case": "success",
      "end": 13.32,
      "endOffset": 187,
      "phones": [
        {
          "duration": 0.01,
          "phone": "dh_B"
        },
        {
          "duration": 0.08,
          "phone": "ah_E"
        }
      ],
      "start": 13.23,
      "startOffset": 184,
      "word": "THE"
    },
    {
      "alignedWord": "name",
      "case": "success",
      "end": 13.71,
      "endOffset": 192,
      "phones": [
        {
          "duration": 0.14,
          "phone": "n_B"
        },
        {
          "duration": 0.17,
          "phone": "ey_I"
        },
        {
          "duration": 0.08,
          "phone": "m_E"
        }
      ],
      "start": 13.32,
      "startOffset": 188,
      "word": "NAME"
    },
    {
      "alignedWord": "of",
      "case": "success",
      "end": 13.860000000000001,
      "endOffset": 195,
      "phones": [
        {
          "duration": 0.07,
          "phone": "ah_B"
        },
        {
          "duration": 0.08,
          "phone": "v_E"
        }
      ],
      "start": 13.71,
      "startOffset": 193,
      "word": "OF"
    },
    {
      "alignedWord": "the",
      "case": "success",
      "end": 13.959999999999999,
      "endOffset": 199,
      "phones": [
        {
          "duration": 0.01,
          "phone": "dh_B"
        },
        {
          "duration": 0.09,
          "phone": "ah_E"
        }
      ],
      "start": 13.86,
      "startOffset": 196,
      "word": "THE"
    },
    {
      "alignedWord": "ruler",
      "case": "success",
      "end": 14.49,
      "endOffset": 205,
      "phones": [
        {
          "duration": 0.12,
          "phone": "r_B"
        },
        {
          "duration": 0.12,
          "phone": "uw_I"
        },
        {
          "duration": 0.1,
          "phone": "l_I"
        },
        {
          "duration": 0.19,
          "phone": "er_E"
        }
      ],
      "start": 13.96,
      "startOffset": 200,
      "word": "RULER"
    },
    {
      "alignedWord": "followed",
      "case": "success",
      "end": 15.149999000000001,
      "endOffset": 214,
      "phones": [
        {
          "duration": 0.13,
          "phone": "f_B"
        },
        {
          "duration": 0.08,
          "phone": "aa_I"
        },
        {
          "duration": 0.1,
          "phone": "l_I"
        },
        {
          "duration": 0.04,
          "phone": "ow_I"
        },
        {
          "duration": 0.04,
          "phone": "d_E"
        }
      ],
      "start": 14.759999,
      "startOffset": 206,
      "word": "FOLLOWED"
    },
    {
      "alignedWord": "by",
      "case": "success",
      "end": 15.370000000000001,
      "endOffset": 217,
      "phones": [
        {
          "duration": 0.11,
          "phone": "b_B"
        },
        {
          "duration": 0.1,
          "phone": "ay_E"
        }
      ],
      "start": 15.16,
      "startOffset": 215,
      "word": "BY"
    },
    {
      "alignedWord": "his",
      "case": "success",
      "end": 15.569999999999999,
      "endOffset": 221,
      "phones": [
        {
          "duration": 0.06,
          "phone": "hh_B"
        },
        {
          "duration": 0.07,
          "phone": "ih_I"
        },
        {
          "duration": 0.07,
          "phone": "z_E"
        }
      ],
      "start": 15.37,
      "startOffset": 218,
      "word": "HIS"
    },
    {
      "alignedWord": "title",
      "case": "success",
      "end": 16.0,
      "endOffset": 227,
      "phones": [
        {
          "duration": 0.1,
          "phone": "t_B"
        },
        {
          "duration": 0.13,
          "phone": "ay_I"
        },
        {
          "duration": 0.04,
          "phone": "t_I"
        },
        {
          "duration": 0.06,
          "phone": "ah_I"
        },
        {
          "duration": 0.1,
          "phone": "l_E"
        }
      ],
      "start": 15.57,
      "startOffset": 222,
      "word": "TITLE"
    }
  ]
}