{
  "transcript": "IF ALL THOSE WHO LOVE ONE ANOTHER WERE TO MARRY SAID DON QUIXOTE IT WOULD DEPRIVE PARENTS OF THE RIGHT TO CHOOSE AND MARRY THEIR CHILDREN TO THE PROPER PERSON AND AT THE PROPER TIME AND IF IT WAS LEFT TO DAUGHTERS TO CHOOSE HUSBANDS AS THEY PLEASED",
  "words": [
    {
      "alignedWord": "if",
      "case": "success",
      "end": 0.6499999999999999,
      "endOffset": 2,
      "phones": [
        {
          "duration": 0.13,
          "phone": "ih_B"
        },
        {
          "duration": 0.05,
          "phone": "f_E"
        }
      ],
      "start": 0.47,
      "startOffset": 0,
      "word": "IF"
    },
    {
      "alignedWord": "all",
      "case": "success",
      "end": 0.8,
      "endOffset": 6,
      "phones": [
        {
          "duration": 0.09,
          "phone": "ao_B"
        },
        {
          "duration": 0.06,
          "phone": "l_E"
        }
      ],
      "start": 0.65,
      "startOffset": 3,
      "word": "ALL"
    },
    {
      "alignedWord": "those",
      "case": "success",
      "end": 1.02,
      "endOffset": 12,
      "phones": [
        {
          "duration": 0.07,
          "phone": "dh_B"
        },
        {
          "duration": 0.08,
          "phone": "ow_I"
        },
        {
          "duration": 0.07,
          "phone": "z_E"
        }
      ],
      "start": 0.8,
      "startOffset": 7,
      "word": "THOSE"
    },
    {
      "alignedWord": "who",
      "case": "success",
      "end": 1.1400000000000001,
      "endOffset": 16,
      "phones": [
        {
          "duration": 0.06,
          "phone": "hh_B"
        },
        {
          "duration": 0.06,
          "phone": "uw_E"
        }
      ],
      "start": 1.02,
      "startOffset": 13,
      "word": "WHO"
    },
    {
      "alignedWord": "love",
      "case": "success",
      "end": 1.38,
      "endOffset": 21,
      "phones": [
        {
          "duration": 0.1,
          "phone": "l_B"
        },
        {
          "duration": 0.08,
          "phone": "ah_I"
        },
        {
          "duration": 0.06,
          "phone": "v_E"
        }
      ],
      "start": 1.14,
      "startOffset": 17,
      "word": "LOVE"
    },
    {
      "alignedWord": "one",
      "case": "success",
      "end": 1.52,
      "endOffset": 25,
      "phones": [
        {
          "duration": 0.03,
          "phone": "w_B"
        },
        {
          "duration": 0.07,
          "phone": "ah_I"
        },
        {
          "duration": 0.04,
          "phone": "n_E"
        }
      ],
      "start": 1.38,
      "startOffset": 22,
      "word": "ONE"
    },
    {
      "alignedWord": "another",
      "case": "success",
      "end": 1.86,
      "endOffset": 33,
      "phones": [
        {
          "duration": 0.06,
          "phone": "ah_B"
        },
        {
          "duration": 0.07,
          "phone": "n_I"
        },
        {
          "duration": 0.06,
          "phone": "ah_I"
        },
        {
          "duration": 0.08,
          "phone": "dh_I"
        },
        {
          "duration": 0.07,
          "phone": "er_E"
        }
      ],
      "start": 1.52,
      "startOffset": 26,
      "word": "ANOTHER"
    },
    {
      "alignedWord": "were",
      "case": "success",
      "end": 2.0,
      "endOffset": 38,
      "phones": [
        {
          "duration": 0.08,
          "phone": "w_B"
        },
        {
          "duration": 0.06,
          "phone": "er_E"
        }
      ],
      "start": 1.86,
      "startOffset": 34,
      "word": "WERE"
    },
    {
      "alignedWord": "to",
      "case": "success",
      "end": 2.12,
      "endOffset": 41,
      "phones": [
        {
          "duration": 0.06,
          "phone": "t_B"
        },
        {
          "duration": 0.06,
          "phone": "ih_E"
        }
      ],
      "start": 2.0,
      "startOffset": 39,
      "word": "TO"
    },
    {
      "alignedWord": "marry",
      "case": "success",
      "end": 2.5100000000000002,
      "endOffset": 47,
      "phones": [
        {
          "duration": 0.06,
          "phone": "m_B"
        },
        {
          "duration": 0.11,
          "phone": "eh_I"
        },
        {
          "duration": 0.11,
          "phone": "r_I"
        },
        {
          "duration": 0.11,
          "phone": "iy_E"
        }
      ],
      "start": 2.12,
      "startOffset": 42,
      "word": "MARRY"
    },
    {
      "alignedWord": "said",
      "case": "success",
      "end": 2.6999999999999997,
      "endOffset": 52,
      "phones": [
        {
          "duration": 0.07,
          "phone": "s_B"
        },
        {
          "duration": 0.05,
          "phone": "eh_I"
        },
        {
          "duration": 0.05,
          "phone": "d_E"
        }
      ],
      "start": 2.53,
      "startOffset": 48,
      "word": "SAID"
    },
    {
      "alignedWord": "don",
      "case": "success",
      "end": 2.9,
      "endOffset": 56,
      "phones": [
        {
          "duration": 0.06,
          "phone": "d_B"
        },
        {
          "duration": 0.06,
          "phone": "aa_I"
        },
        {
          "duration": 0.07,
          "phone": "n_E"
        }
      ],
      "start": 2.71,
      "startOffset": 53,
      "word": "DON"
    },
    {
      "alignedWord": "quixote",
      "case": "success",
      "end": 3.48,
      "endOffset": 64,
      "phones": [
        {
          "duration": 0.06,
          "phone": "k_B"
        },
        {
          "duration": 0.08,
          "phone": "iy_I"
        },
        {
          "duration": 0.05,
          "phone": "hh_I"
        },
        {
          "duration": 0.09,
          "phone": "ow_I"
        },
        {
          "duration": 0.09,
          "phone": "t_I"
        },
        {
          "duration": 0.21,
          "phone": "iy_E"
        }
      ],
      "start": 2.9,
      "startOffset": 57,
      "word": "QUIXOTE"
    },
    {
      "alignedWord": "it",
      "case": "success",
      "end": 3.92,
      "endOffset": 67,
      "phones": [
        {
          "duration": 0.09,
          "phone": "ih_B"
        },
        {
          "duration": 0.02,
          "phone": "t_E"
        }
      ],
      "start": 3.81,
      "startOffset": 65,
      "word": "IT"
    },
    {
      "alignedWord": "would",
      "case": "success",
      "end": 4.03,
      "endOffset": 73,
      "phones": [
        {
          "duration": 0.04,
          "phone": "w_B"
        },
        {
          "duration": 0.02,
          "phone": "uh_I"
        },
        {
          "duration": 0.05,
          "phone": "d_E"
        }
      ],
      "start": 3.92,
      "startOffset": 68,
      "word": "WOULD"
    },
    {
      "alignedWord": "deprive",
      "case": "success",
      "end": 4.430000000000001,
      "endOffset": 81,
      "phones": [
        {
          "duration": 0.02,
          "phone": "d_B"
        },
        {
          "duration": 0.05,
          "phone": "ih_I"
        },
        {
          "duration": 0.09,
          "phone": "p_I"
        },
        {
          "duration": 0.08,
          "phone": "r_I"
        },
        {
          "duration": 0.08,
          "phone": "ay_I"
        },
        {
          "duration": 0.08,
          "phone": "v_E"
        }
      ],
      "start": 4.03,
      "startOffset": 74,
      "word": "DEPRIVE"
    },
    {
      "alignedWord": "parents",
      "case": "success",
      "end": 4.77,
      "endOffset": 89,
      "phones": [
        {
          "duration": 0.07,
          "phone": "p_B"
        },
        {
          "duration": 0.08,
          "phone": "eh_I"
        },
        {
          "duration": 0.06,
          "phone": "r_I"
        },
        {
          "duration": 0.04,
          "phone": "ah_I"
        },
        {
          "duration": 0.04,
          "phone": "n_I"
        },
        {
          "duration": 0.03,
          "phone": "t_I"
        },
        {
          "duration": 0.02,
          "phone": "s_E"
        }
      ],
      "start": 4.43,
      "startOffset": 82,
      "word": "PARENTS"
    },
    {
      "alignedWord": "of",
      "case": "success",
      "end": 4.92,
      "endOffset": 92,
      "phones": [
        {
          "duration": 0.07,
          "phone": "ah_B"
        },
        {
          "duration": 0.08,
          "phone": "v_E"
        }
      ],
      "start": 4.77,
      "startOffset": 90,
      "word": "OF"
    },
    {
      "alignedWord": "the",
      "case": "success",
      "end": 5.01,
      "endOffset": 96,
      "phones": [
        {
          "duration": 0.01,
          "phone": "dh_B"
        },
        {
          "duration": 0.08,
          "phone": "ah_E"
        }
      ],
      "start": 4.92,
      "startOffset": 93,
      "word": "THE"
    },
    {
      "alignedWord": "right",
      "case": "success",
      "end": 5.1899999999999995,
      "endOffset": 102,
      "phones": [
        {
          "duration": 0.05,
          "phone": "r_B"
        },
        {
          "duration": 0.05,
          "phone": "ay_I"
        },
        {
          "duration": 0.08,
          "phone": "t_E"
        }
      ],
      "start": 5.01,
      "startOffset": 97,
      "word": "RIGHT"
    },
    {
      "alignedWord": "to",
      "case": "success",
      "end": 5.29,
      "endOffset": 105,
      "phones": [
        {
          "duration": 0.03,
          "phone": "t_B"
        },
        {
          "duration": 0.07,
          "phone": "ih_E"
        }
      ],
      "start": 5.19,
      "startOffset": 103,
      "word": "TO"
    },
    {
      "alignedWord": "choose",
      "case": "success",
      "end": 5.73,
      "endOffset": 112,
      "phones": [
        {
          "duration": 0.11,
          "phone": "ch_B"
        },
        {
          "duration": 0.23,
          "phone": "uw_I"
        },
        {
          "duration": 0.1,
          "phone": "z_E"
        }
      ],
      "start": 5.29,
      "startOffset": 106,
      "word": "CHOOSE"
    },
    {
      "alignedWord": "and",
      "case": "success",
      "end": 5.95,
      "endOffset": 116,
      "phones": [
        {
          "duration": 0.09,
          "phone": "ae_B"
        },
        {
          "duration": 0.07,
          "phone": "n_I"
        },
        {
          "duration": 0.03,
          "phone": "d_E"
        }
      ],
      "start": 5.76,
      "startOffset": 113,
      "word": "AND"
    },
    {
      "alignedWord": "marry",
      "case": "success",
      "end": 6.25,
      "endOffset": 122,
      "phones": [
        {
          "duration": 0.05,
          "phone": "m_B"
        },
        {
          "duration": 0.11,
          "phone": "eh_I"
        },
        {
          "duration": 0.07,
          "phone": "r_I"
        },
        {
          "duration": 0.07,
          "phone": "iy_E"
        }
      ],
      "start": 5.95,
      "startOffset": 117,
      "word": "MARRY"
    },
    {
      "alignedWord": "their",
      "case": "success",
      "end": 6.39,
      "endOffset": 128,
      "phones": [
        {
          "duration": 0.04,
          "phone": "dh_B"
        },
        {
          "duration": 0.05,
          "phone": "eh_I"
        },
        {
          "duration": 0.05,
          "phone": "r_E"
        }
      ],
      "start": 6.25,
      "startOffset": 123,
      "word": "THEIR"
    },
    {
      "alignedWord": "children",
      "case": "success",
      "end": 6.72,
      "endOffset": 137,
      "phones": [
        {
          "duration": 0.06,
          "phone": "ch_B"
        },
        {
          "duration": 0.06,
          "phone": "ih_I"
        },
        {
          "duration": 0.04,
          "phone": "l_I"
        },
        {
          "duration": 0.06,
          "phone": "d_I"
        },
        {
          "duration": 0.04,
          "phone": "r_I"
        },
        {
          "duration": 0.02,
          "phone": "ah_I"
        },
        {
          "duration": 0.05,
          "phone": "n_E"
        }
      ],
      "start": 6.39,
      "startOffset": 129,
      "word": "CHILDREN"
    },
    {
      "alignedWord": "to",
      "case": "success",
      "end": 6.84,
      "endOffset": 140,
      "phones": [
        {
          "duration": 0.06,
          "phone": "t_B"
        },
        {
          "duration": 0.06,
          "phone": "uw_E"
        }
      ],
      "start": 6.72,
      "startOffset": 138,
      "word": "TO"
    },
    {
      "alignedWord": "the",
      "case": "success",
      "end": 6.95,
      "endOffset": 144,
      "phones": [
        {
          "duration": 0.05,
          "phone": "dh_B"
        },
        {
          "duration": 0.06,
          "phone": "ah_E"
        }
      ],
      "start": 6.84,
      "startOffset": 141,
      "word": "THE"
    },
    {
      "alignedWord": "proper",
      "case": "success",
      "end": 7.28,
      "endOffset": 151,
      "phones": [
        {
          "duration": 0.06,
          "phone": "p_B"
        },
        {
          "duration": 0.05,
          "phone": "r_I"
        },
        {
          "duration": 0.07,
          "phone": "aa_I"
        },
        {
          "duration": 0.08,
          "phone": "p_I"
        },
        {
          "duration": 0.07,
          "phone": "er_E"
        }
      ],
      "start": 6.95,
      "startOffset": 145,
      "word": "PROPER"
    },
    {
      "alignedWord": "person",
      "case": "success",
      "end": 7.680000000000001,
      "endOffset": 158,
      "phones": [
        {
          "duration": 0.08,
          "phone": "p_B"
        },
        {
          "duration": 0.1,
          "phone": "er_I"
        },
        {
          "duration": 0.07,
          "phone": "s_I"
        },
        {
          "duration": 0.07,
          "phone": "ah_I"
        },
        {
          "duration": 0.08,
          "phone": "n_E"
        }
      ],
      "start": 7.28,
      "startOffset": 152,
      "word": "PERSON"
    },
    {
      "alignedWord": "and",
      "case": "success",
      "end": 7.83,
      "endOffset": 162,
      "phones": [
        {
          "duration": 0.06,
          "phone": "ae_B"
        },
        {
          "duration": 0.06,
          "phone": "n_I"
        },
        {
          "duration": 0.03,
          "phone": "d_E"
        }
      ],
      "start": 7.68,
      "startOffset": 159,
      "word": "AND"
    },
    {
      "alignedWord": "at",
      "case": "success",
      "end": 7.95,
      "endOffset": 165,
      "phones": [
        {
          "duration": 0.05,
          "phone": "ae_B"
        },
        {
          "duration": 0.07,
          "phone": "t_E"
        }
      ],
      "start": 7.83,
      "startOffset": 163,
      "word": "AT"
    },
    {
      "alignedWord": "the",
      "case": "success",
      "end": 8.040000000000001,
      "endOffset": 169,
      "phones": [
        {
          "duration": 0.04,
          "phone": "dh_B"
        },
        {
          "duration": 0.05,
          "phone": "ah_E"
        }
      ],
      "start": 7.95,
      "startOffset": 166,
      "word": "THE"
    },
    {
      "alignedWord": "proper",
      "case": "success",
      "end": 8.36,
      "endOffset": 176,
      "phones": [
        {
          "duration": 0.06,
          "phone": "p_B"
        },
        {
          "duration": 0.04,
          "phone": "r_I"
        },
        {
          "duration": 0.07,
          "phone": "aa_I"
        },
        {
          "duration": 0.07,
          "phone": "p_I"
        },
        {
          "duration": 0.08,
          "phone": "er_E"
        }
      ],
      "start": 8.04,
      "startOffset": 170,
      "word": "PROPER"
    },
    {
      "alignedWord": "time",
      "case": "success",
      "end": 8.83,
      "endOffset": 181,
      "phones": [
        {
          "duration": 0.09,
          "phone": "t_B"
        },
        {
          "duration": 0.21,
          "phone": "ay_I"
        },
        {
          "duration": 0.17,
          "phone": "m_E"
        }
      ],
      "start": 8.36,
      "startOffset": 177,
      "word": "TIME"
    },
    {
      "alignedWord": "and",
      "case": "success",
      "end": 9.529999,
      "endOffset": 185,
      "phones": [
        {
          "duration": 0.06,
          "phone": "ae_B"
        },
        {
          "duration": 0.06,
          "phone": "n_I"
        },
        {
          "duration": 0.02,
          "phone": "d_E"
        }
      ],
      "start": 9.389999,
      "startOffset": 182,
      "word": "AND"
    },
    {
      "alignedWord": "if",
      "case": "success",
      "end": 9.67,
      "endOffset": 188,
      "phones": [
        {
          "duration": 0.07,
          "phone": "ih_B"
        },
        {
          "duration": 0.07,
          "phone": "f_E"
        }
      ],
      "start": 9.53,
      "startOffset": 186,
      "word": "IF"
    },
    {
      "alignedWord": "it",
      "case": "success",
      "end": 9.75,
      "endOffset": 191,
      "phones": [
        {
          "duration": 0.04,
          "phone": "ih_B"
        },
        {
          "duration": 0.04,
          "phone": "t_E"
        }
      ],
      "start": 9.67,
      "startOffset": 189,
      "word": "IT"
    },
    {
      "alignedWord": "was",
      "case": "success",
      "end": 9.91,
      "endOffset": 195,
      "phones": [
        {
          "duration": 0.04,
          "phone": "w_B"
        },
        {
          "duration": 0.06,
          "phone": "ah_I"
        },
        {
          "duration": 0.06,
          "phone": "z_E"
        }
      ],
      "start": 9.75,
      "startOffset": 192,
      "word": "WAS"
    },
    {
      "alignedWord": "left",
      "case": "success",
      "end": 10.1,
      "endOffset": 200,
      "phones": [
        {
          "duration": 0.06,
          "phone": "l_B"
        },
        {
          "duration": 0.05,
          "phone": "eh_I"
        },
        {
          "duration": 0.07,
          "phone": "f_I"
        },
        {
          "duration": 0.01,
          "phone": "t_E"
        }
      ],
      "start": 9.91,
      "startOffset": 196,
      "word": "LEFT"
    },
    {
      "alignedWord": "to",
      "case": "success",
      "end": 10.209999999999999,
      "endOffset": 203,
      "phones": [
        {
          "duration": 0.04,
          "phone": "t_B"
        },
        {
          "duration": 0.06,
          "phone": "ih_E"
        }
      ],
      "start": 10.11,
      "startOffset": 201,
      "word": "TO"
    },
    {
      "alignedWord": "daughters",
      "case": "success",
      "end": 10.590000000000002,
      "endOffset": 213,
      "phones": [
        {
          "duration": 0.08,
          "phone": "d_B"
        },
        {
          "duration": 0.11,
          "phone": "ao_I"
        },
        {
          "duration": 0.06,
          "phone": "t_I"
        },
        {
          "duration": 0.06,
          "phone": "er_I"
        },
        {
          "duration": 0.07,
          "phone": "z_E"
        }
      ],
      "start": 10.21,
      "startOffset": 204,
      "word": "DAUGHTERS"
    },
    {
      "alignedWord": "to",
      "case": "success",
      "end": 10.7,
      "endOffset": 216,
      "phones": [
        {
          "duration": 0.04,
          "phone": "t_B"
        },
        {
          "duration": 0.07,
          "phone": "ih_E"
        }
      ],
      "start": 10.59,
      "startOffset": 214,
      "word": "TO"
    },
    {
      "alignedWord": "choose",
      "case": "success",
      "end": 10.959999999999999,
      "endOffset": 223,
      "phones": [
        {
          "duration": 0.11,
          "phone": "ch_B"
        },
        {
          "duration": 0.08,
          "phone": "uw_I"
        },
        {
          "duration": 0.07,
          "phone": "z_E"
        }
      ],
      "start": 10.7,
      "startOffset": 217,
      "word": "CHOOSE"
    },
    {
      "alignedWord": "husbands",
      "case": "success",
      "end": 11.38,
      "endOffset": 232,
      "phones": [
        {
          "duration": 0.06,
          "phone": "hh_B"
        },
        {
          "duration": 0.07,
          "phone": "ah_I"
        },
        {
          "duration": 0.08,
          "phone": "z_I"
        },
        {
          "duration": 0.01,
          "phone": "b_I"
        },
        {
          "duration": 0.07,
          "phone": "ah_I"
        },
        {
          "duration": 0.08,
          "phone": "n_I"
        },
        {
          "duration": 0.01,
          "phone": "d_I"
        },
        {
          "duration": 0.04,
          "phone": "z_E"
        }
      ],
      "start": 10.96,
      "startOffset": 224,
      "word": "HUSBANDS"
    },
    {
      "alignedWord": "as",
      "case": "success",
      "end": 11.510000000000002,
      "endOffset": 235,
      "phones": [
        {
          "duration": 0.06,
          "phone": "eh_B"
        },
        {
          "duration": 0.07,
          "phone": "z_E"
        }
      ],
      "start": 11.38,
      "startOffset": 233,
      "word": "AS"
    },
    {
      "alignedWord": "they",
      "case": "success",
      "end": 11.649999000000001,
      "endOffset": 240,
      "phones": [
        {
          "duration": 0.06,
          "phone": "dh_B"
        },
        {
          "duration": 0.08,
          "phone": "ey_E"
        }
      ],
      "start": 11.509999,
      "startOffset": 236,
      "word": "THEY"
    },
    {
      "alignedWord": "pleased",
      "case": "success",
      "end": 12.14,
      "endOffset": 248,
      "phones": [
        {
          "duration": 0.08,
          "phone": "p_B"
        },
        {
          "duration": 0.09,
          "phone": "l_I"
        },
        {
          "duration": 0.16,
          "phone": "iy_I"
        },
        {
          "duration": 0.09,
          "phone": "z_I"
        },
        {
          "duration": 0.07,
          "phone": "d_E"
        }
      ],
      "start": 11.65,
      "startOffset": 241,
      "word": "PLEASED"
    }
  ]
}