{
  "transcript": "A VERY GRACIOUS INVITATION WAS RETURNED AND THE EVENING NO LONGER DREADED BY THE FAIR MISTRESS OF THE MANSION HARRIET SMITH WAS THE NATURAL DAUGHTER OF SOMEBODY SOMEBODY HAD PLACED HER SEVERAL YEARS BACK AT MISSUS GODDARD'S SCHOOL",
  "words": [
    {
      "alignedWord": "a",
      "case": "success",
      "end": 0.53,
      "endOffset": 1,
      "phones": [
        {
          "duration": 0.11,
          "phone": "ah_S"
        }
      ],
      "start": 0.42,
      "startOffset": 0,
      "word": "A"
    },
    {
      "alignedWord": "very",
      "case": "success",
      "end": 0.89,
      "endOffset": 6,
      "phones": [
        {
          "duration": 0.08,
          "phone": "v_B"
        },
        {
          "duration": 0.08,
          "phone": "eh_I"
        },
        {
          "duration": 0.09,
          "phone": "r_I"
        },
        {
          "duration": 0.11,
          "phone": "iy_E"
        }
      ],
      "start": 0.53,
      "startOffset": 2,
      "word": "VERY"
    },
    {
      "alignedWord": "gracious",
      "case": "success",
      "end": 1.4500000000000002,
      "endOffset": 15,
      "phones": [
        {
          "duration": 0.08,
          "phone": "g_B"
        },
        {
          "duration": 0.09,
          "phone": "r_I"
        },
        {
          "duration": 0.09,
          "phone": "ey_I"
        },
        {
          "duration": 0.1,
          "phone": "sh_I"
        },
        {
          "duration": 0.09,
          "phone": "ah_I"
        },
        {
          "duration": 0.08,
          "phone": "s_E"
        }
      ],
      "start": 0.92,
      "startOffset": 7,
      "word": "GRACIOUS"
    },
    {
      "alignedWord": "invitation",
      "case": "success",
      "end": 2.17,
      "endOffset": 26,
      "phones": [
        {
          "duration": 0.08,
          "phone": "ih_B"
        },
        {
          "duration": 0.06,
          "phone": "n_I"
        },
        {
          "duration": 0.05,
          "phone": "v_I"
        },
        {
          "duration": 0.06,
          "phone": "ih_I"
        },
        {
          "duration": 0.11,
          "phone": "t_I"
        },
        {
          "duration": 0.12,
          "phone": "ey_I"
        },
        {
          "duration": 0.09,
          "phone": "sh_I"
        },
        {
          "duration": 0.05,
          "phone": "ah_I"
        },
        {
          "duration": 0.1,
          "phone": "n_E"
        }
      ],
      "start": 1.45,
      "startOffset": 16,
      "word": "INVITATION"
    },
    {
      "alignedWord": "was",
      "case": "success",
      "end": 2.35,
      "endOffset": 30,
      "phones": [
        {
          "duration": 0.04,
          "phone": "w_B"
        },
        {
          "duration": 0.05,
          "phone": "ah_I"
        },
        {
          "duration": 0.09,
          "phone": "z_E"
        }
      ],
      "start": 2.17,
      "startOffset": 27,
      "word": "WAS"
    },
    {
      "alignedWord": "returned",
      "case": "success",
      "end": 2.94,
      "endOffset": 39,
      "phones": [
        {
          "duration": 0.1,
          "phone": "r_B"
        },
        {
          "duration": 0.07,
          "phone": "iy_I"
        },
        {
          "duration": 0.12,
          "phone": "t_I"
        },
        {
          "duration": 0.16,
          "phone": "er_I"
        },
        {
          "duration": 0.06,
          "phone": "n_I"
        },
        {
          "duration": 0.07,
          "phone": "d_E"
        }
      ],
      "start": 2.36,
      "startOffset": 31,
      "word": "RETURNED"
    },
    {
      "alignedWord": "and",
      "case": "success",
      "end": 3.1300000000000003,
      "endOffset": 43,
      "phones": [
        {
          "duration": 0.08,
          "phone": "ae_B"
        },
        {
          "duration": 0.08,
          "phone": "n_I"
        },
        {
          "duration": 0.02,
          "phone": "d_E"
        }
      ],
      "start": 2.95,
      "startOffset": 40,
      "word": "AND"
    },
    {
      "alignedWord": "the",
      "case": "success",
      "end": 3.26,
      "endOffset": 47,
      "phones": [
        {
          "duration": 0.05,
          "phone": "dh_B"
        },
        {
          "duration": 0.08,
          "phone": "iy_E"
        }
      ],
      "start": 3.13,
      "startOffset": 44,
      "word": "THE"
    },
    {
      "alignedWord": "evening",
      "case": "success",
      "end": 3.69,
      "endOffset": 55,
      "phones": [
        {
          "duration": 0.16,
          "phone": "iy_B"
        },
        {
          "duration": 0.09,
          "phone": "v_I"
        },
        {
          "duration": 0.04,
          "phone": "n_I"
        },
        {
          "duration": 0.08,
          "phone": "ih_I"
        },
        {
          "duration": 0.06,
          "phone": "ng_E"
        }
      ],
      "start": 3.26,
      "startOffset": 48,
      "word": "EVENING"
    },
    {
      "alignedWord": "no",
      "case": "success",
      "end": 3.9200000000000004,
      "endOffset": 58,
      "phones": [
        {
          "duration": 0.1,
          "phone": "n_B"
        },
        {
          "duration": 0.12,
          "phone": "ow_E"
        }
      ],
      "start": 3.7,
      "startOffset": 56,
      "word": "NO"
    },
    {
      "alignedWord": "longer",
      "case": "success",
      "end": 4.41,
      "endOffset": 65,
      "phones": [
        {
          "duration": 0.1,
          "phone": "l_B"
        },
        {
          "duration": 0.11,
          "phone": "ao_I"
        },
        {
          "duration": 0.06,
          "phone": "ng_I"
        },
        {
          "duration": 0.09,
          "phone": "g_I"
        },
        {
          "duration": 0.13,
          "phone": "er_E"
        }
      ],
      "start": 3.92,
      "startOffset": 59,
      "word": "LONGER"
    },
    {
      "alignedWord": "dreaded",
      "case": "success",
      "end": 4.9,
      "endOffset": 73,
      "phones": [
        {
          "duration": 0.08,
          "phone": "d_B"
        },
        {
          "duration": 0.07,
          "phone": "r_I"
        },
        {
          "duration": 0.08,
          "phone": "eh_I"
        },
        {
          "duration": 0.07,
          "phone": "d_I"
        },
        {
          "duration": 0.09,
          "phone": "ih_I"
        },
        {
          "duration": 0.09,
          "phone": "d_E"
        }
      ],
      "start": 4.42,
      "startOffset": 66,
      "word": "DREADED"
    },
    {
      "alignedWord": "by",
      "case": "success",
      "end": 5.050000000000001,
      "endOffset": 76,
      "phones": [
        {
          "duration": 0.06,
          "phone": "b_B"
        },
        {
          "duration": 0.09,
          "phone": "ay_E"
        }
      ],
      "start": 4.9,
      "startOffset": 74,
      "word": "BY"
    },
    {
      "alignedWord": "the",
      "case": "success",
      "end": 5.220000000000001,
      "endOffset": 80,
      "phones": [
        {
          "duration": 0.07,
          "phone": "dh_B"
        },
        {
          "duration": 0.08,
          "phone": "ah_E"
        }
      ],
      "start": 5.07,
      "startOffset": 77,
      "word": "THE"
    },
    {
      "alignedWord": "fair",
      "case": "success",
      "end": 5.59,
      "endOffset": 85,
      "phones": [
        {
          "duration": 0.13,
          "phone": "f_B"
        },
        {
          "duration": 0.14,
          "phone": "eh_I"
        },
        {
          "duration": 0.1,
          "phone": "r_E"
        }
      ],
      "start": 5.22,
      "startOffset": 81,
      "word": "FAIR"
    },
    {
      "alignedWord": "mistress",
      "case": "success",
      "end": 6.18,
      "endOffset": 94,
      "phones": [
        {
          "duration": 0.07,
          "phone": "m_B"
        },
        {
          "duration": 0.08,
          "phone": "ih_I"
        },
        {
          "duration": 0.1,
          "phone": "s_I"
        },
        {
          "duration": 0.1,
          "phone": "t_I"
        },
        {
          "duration": 0.06,
          "phone": "r_I"
        },
        {
          "duration": 0.07,
          "phone": "ah_I"
        },
        {
          "duration": 0.11,
          "phone": "s_E"
        }
      ],
      "start": 5.59,
      "startOffset": 86,
      "word": "MISTRESS"
    },
    {
      "alignedWord": "of",
      "case": "success",
      "end": 6.35,
      "endOffset": 97,
      "phones": [
        {
          "duration": 0.08,
          "phone": "ah_B"
        },
        {
          "duration": 0.09,
          "phone": "v_E"
        }
      ],
      "start": 6.18,
      "startOffset": 95,
      "word": "OF"
    },
    {
      "alignedWord": "the",
      "case": "success",
      "end": 6.43,
      "endOffset": 101,
      "phones": [
        {
          "duration": 0.01,
          "phone": "dh_B"
        },
        {
          "duration": 0.07,
          "phone": "ah_E"
        }
      ],
      "start": 6.35,
      "startOffset": 98,
      "word": "THE"
    },
    {
      "alignedWord": "mansion",
      "case": "success",
      "end": 7.1499999999999995,
      "endOffset": 109,
      "phones": [
        {
          "duration": 0.08,
          "phone": "m_B"
        },
        {
          "duration": 0.14,
          "phone": "ae_I"
        },
        {
          "duration": 0.1,
          "phone": "n_I"
        },
        {
          "duration": 0.11,
          "phone": "sh_I"
        },
        {
          "duration": 0.09,
          "phone": "ah_I"
        },
        {
          "duration": 0.2,
          "phone": "n_E"
        }
      ],
      "start": 6.43,
      "startOffset": 102,
      "word": "MANSION"
    },
    {
      "alignedWord": "harriet",
      "case": "success",
      "end": 8.58,
      "endOffset": 117,
      "phones": [
        {
          "duration": 0.09,
          "phone": "hh_B"
        },
        {
          "duration": 0.06,
          "phone": "eh_I"
        },
        {
          "duration": 0.09,
          "phone": "r_I"
        },
        {
          "duration": 0.1,
          "phone": "iy_I"
        },
        {
          "duration": 0.06,
          "phone": "ah_I"
        },
        {
          "duration": 0.06,
          "phone": "t_E"
        }
      ],
      "start": 8.12,
      "startOffset": 110,
      "word": "HARRIET"
    },
    {
      "alignedWord": "smith",
      "case": "success",
      "end": 8.93,
      "endOffset": 123,
      "phones": [
        {
          "duration": 0.12,
          "phone": "s_B"
        },
        {
          "duration": 0.06,
          "phone": "m_I"
        },
        {
          "duration": 0.09,
          "phone": "ih_I"
        },
        {
          "duration": 0.08,
          "phone": "th_E"
        }
      ],
      "start": 8.58,
      "startOffset": 118,
      "word": "SMITH"
    },
    {
      "alignedWord": "was",
      "case": "success",
      "end": 9.16,
      "endOffset": 127,
      "phones": [
        {
          "duration": 0.08,
          "phone": "w_B"
        },
        {
          "duration": 0.06,
          "phone": "ah_I"
        },
        {
          "duration": 0.07,
          "phone": "z_E"
        }
      ],
      "start": 8.95,
      "startOffset": 124,
      "word": "WAS"
    },
    {
      "alignedWord": "the",
      "case": "success",
      "end": 9.27,
      "endOffset": 131,
      "phones": [
        {
          "duration": 0.05,
          "phone": "dh_B"
        },
        {
          "duration": 0.06,
          "phone": "ah_E"
        }
      ],
      "start": 9.16,
      "startOffset": 128,
      "word": "THE"
    },
    {
      "alignedWord": "natural",
      "case": "success",
      "end": 9.76,
      "endOffset": 139,
      "phones": [
        {
          "duration": 0.08,
          "phone": "n_B"
        },
        {
          "duration": 0.13,
          "phone": "ae_I"
        },
        {
          "duration": 0.13,
          "phone": "ch_I"
        },
        {
          "duration": 0.02,
          "phone": "r_I"
        },
        {
          "duration": 0.08,
          "phone": "ah_I"
        },
        {
          "duration": 0.05,
          "phone": "l_E"
        }
      ],
      "start": 9.27,
      "startOffset": 132,
      "word": "NATURAL"
    },
    {
      "alignedWord": "daughter",
      "case": "success",
      "end": 10.17,
      "endOffset": 148,
      "phones": [
        {
          "duration": 0.08,
          "phone": "d_B"
        },
        {
          "duration": 0.15,
          "phone": "ao_I"
        },
        {
          "duration": 0.08,
          "phone": "t_I"
        },
        {
          "duration": 0.1,
          "phone": "er_E"
        }
      ],
      "start": 9.76,
      "startOffset": 140,
      "word": "DAUGHTER"
    },
    {
      "alignedWord": "of",
      "case": "success",
      "end": 10.33,
      "endOffset": 151,
      "phones": [
        {
          "duration": 0.08,
          "phone": "ah_B"
        },
        {
          "duration": 0.08,
          "phone": "v_E"
        }
      ],
      "start": 10.17,
      "startOffset": 149,
      "word": "OF"
    },
    {
      "alignedWord": "somebody",
      "case": "success",
      "end": 10.98,
      "endOffset": 160,
      "phones": [
        {
          "duration": 0.09,
          "phone": "s_B"
        },
        {
          "duration": 0.09,
          "phone": "ah_I"
        },
        {
          "duration": 0.08,
          "phone": "m_I"
        },
        {
          "duration": 0.06,
          "phone": "b_I"
        },
        {
          "duration": 0.08,
          "phone": "aa_I"
        },
        {
          "duration": 0.06,
          "phone": "d_I"
        },
        {
          "duration": 0.19,
          "phone": "iy_E"
        }
      ],
      "start": 10.33,
      "startOffset": 152,
      "word": "SOMEBODY"
    },
    {
      "alignedWord": "somebody",
      "case": "success",
      "end": 11.86,
      "endOffset": 169,
      "phones": [
        {
          "duration": 0.15,
          "phone": "s_B"
        },
        {
          "duration": 0.08,
          "phone": "ah_I"
        },
        {
          "duration": 0.08,
          "phone": "m_I"
        },
        {
          "duration": 0.01,
          "phone": "b_I"
        },
        {
          "duration": 0.07,
          "phone": "aa_I"
        },
        {
          "duration": 0.06,
          "phone": "d_I"
        },
        {
          "duration": 0.09,
          "phone": "iy_E"
        }
      ],
      "start": 11.32,
      "startOffset": 161,
      "word": "SOMEBODY"
    },
    {
      "alignedWord": "had",
      "case": "success",
      "end": 12.07,
      "endOffset": 173,
      "phones": [
        {
          "duration": 0.05,
          "phone": "hh_B"
        },
        {
          "duration": 0.08,
          "phone": "ae_I"
        },
        {
          "duration": 0.08,
          "phone": "d_E"
        }
      ],
      "start": 11.86,
      "startOffset": 170,
      "word": "HAD"
    },
    {
      "alignedWord": "placed",
      "case": "success",
      "end": 12.540000000000001,
      "endOffset": 180,
      "phones": [
        {
          "duration": 0.1,
          "phone": "p_B"
        },
        {
          "duration": 0.09,
          "phone": "l_I"
        },
        {
          "duration": 0.08,
          "phone": "ey_I"
        },
        {
          "duration": 0.11,
          "phone": "s_I"
        },
        {
          "duration": 0.09,
          "phone": "t_E"
        }
      ],
      "start": 12.07,
      "startOffset": 174,
      "word": "PLACED"
    },
    {
      "alignedWord": "her",
      "case": "success",
      "end": 12.729999999999999,
      "endOffset": 184,
      "phones": [
        {
          "duration": 0.08,
          "phone": "hh_B"
        },
        {
          "duration": 0.11,
          "phone": "er_E"
        }
      ],
      "start": 12.54,
      "startOffset": 181,
      "word": "HER"
    },
    {
      "alignedWord": "several",
      "case": "success",
      "end": 13.23,
      "endOffset": 192,
      "phones": [
        {
          "duration": 0.15,
          "phone": "s_B"
        },
        {
          "duration": 0.1,
          "phone": "eh_I"
        },
        {
          "duration": 0.08,
          "phone": "v_I"
        },
        {
          "duration": 0.01,
          "phone": "er_I"
        },
        {
          "duration": 0.08,
          "phone": "ah_I"
        },
        {
          "duration": 0.07,
          "phone": "l_E"
        }
      ],
      "start": 12.74,
      "startOffset": 185,
      "word": "SEVERAL"
    },
    {
      "alignedWord": "years",
      "case": "success",
      "end": 13.65,
      "endOffset": 198,
      "phones": [
        {
          "duration": 0.12,
          "phone": "y_B"
        },
        {
          "duration": 0.09,
          "phone": "ih_I"
        },
        {
          "duration": 0.07,
          "phone": "r_I"
        },
        {
          "duration": 0.14,
          "phone": "z_E"
        }
      ],
      "start": 13.23,
      "startOffset": 193,
      "word": "YEARS"
    },
    {
      "alignedWord": "back",
      "case": "success",
      "end": 14.03,
      "endOffset": 203,
      "phones": [
        {
          "duration": 0.09,
          "phone": "b_B"
        },
        {
          "duration": 0.16,
          "phone": "ae_I"
        },
        {
          "duration": 0.12,
          "phone": "k_E"
        }
      ],
      "start": 13.66,
      "startOffset": 199,
      "word": "BACK"
    },
    {
      "alignedWord": "at",
      "case": "success",
      "end": 14.219999,
      "endOffset": 206,
      "phones": [
        {
          "duration": 0.12,
          "phone": "ae_B"
        },
        {
          "duration": 0.05,
          "phone": "t_E"
        }
      ],
      "start": 14.049999,
      "startOffset": 204,
      "word": "AT"
    },
    {
      "alignedWord": "missus",
      "case": "success",
      "end": 14.559999,
      "endOffset": 213,
      "phones": [
        {
          "duration": 0.07,
          "phone": "m_B"
        },
        {
          "duration": 0.07,
          "phone": "ih_I"
        },
        {
          "duration": 0.06,
          "phone": "s_I"
        },
        {
          "duration": 0.06,
          "phone": "ih_I"
        },
        {
          "duration": 0.08,
          "phone": "z_E"
        }
      ],
      "start": 14.219999,
      "startOffset": 207,
      "word": "MISSUS"
    },
    {
      "alignedWord": "<unk>",
      "case": "success",
      "end": 15.02,
      "endOffset": 223,
      "phones": [
        {
          "duration": 0.44,
          "phone": "oov_S"
        }
      ],
      "start": 14.58,
      "startOffset": 214,
      "word": "GODDARD'S"
    },
    {
      "alignedWord": "school",
      "case": "success",
      "end": 15.549999999999999,
      "endOffset": 230,
      "phones": [
        {
          "duration": 0.11,
          "phone": "s_B"
        },
        {
          "duration": 0.08,
          "phone": "k_I"
        },
        {
          "duration": 0.09,
          "phone": "uw_I"
        },
        {
          "duration": 0.25,
          "phone": "l_E"
        }
      ],
      "start": 15.02,
      "startOffset": 224,
      "word": "SCHOOL"
    }
  ]
}