{
  "transcript": "OH I WON'T BOTHER TO LOOK FOR PETER MINK TO DAY HE MUST BE MILES AWAY I'LL STEP RIGHT OUT OF MY TUNNEL AND HAVE MY SWIM WITHOUT TAKING A LOOK SEE FIRST BUT MASTER MEADOW MOUSE WAS NEVER SO LAZY AS THAT",
  "words": [
    {
      "alignedWord": "oh",
      "case": "success",
      "end": 0.53,
      "endOffset": 2,
      "phones": [
        {
          "duration": 0.38,
          "phone": "ow_S"
        }
      ],
      "start": 0.15,
      "startOffset": 0,
      "word": "OH"
    },
    {
      "alignedWord": "i",
      "case": "success",
      "end": 0.75,
      "endOffset": 4,
      "phones": [
        {
          "duration": 0.18,
          "phone": "ay_S"
        }
      ],
      "start": 0.57,
      "startOffset": 3,
      "word": "I"
    },
    {
      "alignedWord": "won't",
      "case": "success",
      "end": 1.03,
      "endOffset": 10,
      "phones": [
        {
          "duration": 0.09,
          "phone": "w_B"
        },
        {
          "duration": 0.1,
          "phone": "ow_I"
        },
        {
          "duration": 0.03,
          "phone": "n_I"
        },
        {
          "duration": 0.06,
          "phone": "t_E"
        }
      ],
      "start": 0.75,
      "startOffset": 5,
      "word": "WON'T"
    },
    {
      "alignedWord": "bother",
      "case": "success",
      "end": 1.38,
      "endOffset": 17,
      "phones": [
        {
          "duration": 0.07,
          "phone": "b_B"
        },
        {
          "duration": 0.14,
          "phone": "aa_I"
        },
        {
          "duration": 0.07,
          "phone": "dh_I"
        },
        {
          "duration": 0.07,
          "phone": "er_E"
        }
      ],
      "start": 1.03,
      "startOffset": 11,
      "word": "BOTHER"
    },
    {
      "alignedWord": "to",
      "case": "success",
      "end": 1.5399999999999998,
      "endOffset": 20,
      "phones": [
        {
          "duration": 0.08,
          "phone": "t_B"
        },
        {
          "duration": 0.08,
          "phone": "ah_E"
        }
      ],
      "start": 1.38,
      "startOffset": 18,
      "word": "TO"
    },
    {
      "alignedWord": "look",
      "case": "success",
      "end": 1.75,
      "endOffset": 25,
      "phones": [
        {
          "duration": 0.08,
          "phone": "l_B"
        },
        {
          "duration": 0.06,
          "phone": "uh_I"
        },
        {
          "duration": 0.07,
          "phone": "k_E"
        }
      ],
      "start": 1.54,
      "startOffset": 21,
      "word": "LOOK"
    },
    {
      "alignedWord": "for",
      "case": "success",
      "end": 1.88,
      "endOffset": 29,
      "phones": [
        {
          "duration": 0.07,
          "phone": "f_B"
        },
        {
          "duration": 0.06,
          "phone": "er_E"
        }
      ],
      "start": 1.75,
      "startOffset": 26,
      "word": "FOR"
    },
    {
      "alignedWord": "peter",
      "case": "success",
      "end": 2.19,
      "endOffset": 35,
      "phones": [
        {
          "duration": 0.08,
          "phone": "p_B"
        },
        {
          "duration": 0.09,
          "phone": "iy_I"
        },
        {
          "duration": 0.06,
          "phone": "t_I"
        },
        {
          "duration": 0.08,
          "phone": "er_E"
        }
      ],
      "start": 1.88,
      "startOffset": 30,
      "word": "PETER"
    },
    {
      "alignedWord": "mink",
      "case": "success",
      "end": 2.42,
      "endOffset": 40,
      "phones": [
        {
          "duration": 0.05,
          "phone": "m_B"
        },
        {
          "duration": 0.07,
          "phone": "ih_I"
        },
        {
          "duration": 0.04,
          "phone": "ng_I"
        },
        {
          "duration": 0.07,
          "phone": "k_E"
        }
      ],
      "start": 2.19,
      "startOffset": 36,
      "word": "MINK"
    },
    {
      "alignedWord": "to",
      "case": "success",
      "end": 2.54,
      "endOffset": 43,
      "phones": [
        {
          "duration": 0.05,
          "phone": "t_B"
        },
        {
          "duration": 0.07,
          "phone": "ih_E"
        }
      ],
      "start": 2.42,
      "startOffset": 41,
      "word": "TO"
    },
    {
      "alignedWord": "day",
      "case": "success",
      "end": 3.02,
      "endOffset": 47,
      "phones": [
        {
          "duration": 0.08,
          "phone": "d_B"
        },
        {
          "duration": 0.4,
          "phone": "ey_E"
        }
      ],
      "start": 2.54,
      "startOffset": 44,
      "word": "DAY"
    },
    {
      "alignedWord": "he",
      "case": "success",
      "end": 3.5100000000000002,
      "endOffset": 50,
      "phones": [
        {
          "duration": 0.13,
          "phone": "hh_B"
        },
        {
          "duration": 0.09,
          "phone": "iy_E"
        }
      ],
      "start": 3.29,
      "startOffset": 48,
      "word": "HE"
    },
    {
      "alignedWord": "must",
      "case": "success",
      "end": 3.78,
      "endOffset": 55,
      "phones": [
        {
          "duration": 0.06,
          "phone": "m_B"
        },
        {
          "duration": 0.09,
          "phone": "ah_I"
        },
        {
          "duration": 0.06,
          "phone": "s_I"
        },
        {
          "duration": 0.06,
          "phone": "t_E"
        }
      ],
      "start": 3.51,
      "startOffset": 51,
      "word": "MUST"
    },
    {
      "alignedWord": "be",
      "case": "success",
      "end": 3.94,
      "endOffset": 58,
      "phones": [
        {
          "duration": 0.07,
          "phone": "b_B"
        },
        {
          "duration": 0.09,
          "phone": "iy_E"
        }
      ],
      "start": 3.78,
      "startOffset": 56,
      "word": "BE"
    },
    {
      "alignedWord": "miles",
      "case": "success",
      "end": 4.33,
      "endOffset": 64,
      "phones": [
        {
          "duration": 0.07,
          "phone": "m_B"
        },
        {
          "duration": 0.2,
          "phone": "ay_I"
        },
        {
          "duration": 0.07,
          "phone": "l_I"
        },
        {
          "duration": 0.05,
          "phone": "z_E"
        }
      ],
      "start": 3.94,
      "startOffset": 59,
      "word": "MILES"
    },
    {
      "alignedWord": "away",
      "case": "success",
      "end": 4.890000000000001,
      "endOffset": 69,
      "phones": [
        {
          "duration": 0.09,
          "phone": "ah_B"
        },
        {
          "duration": 0.11,
          "phone": "w_I"
        },
        {
          "duration": 0.36,
          "phone": "ey_E"
        }
      ],
      "start": 4.33,
      "startOffset": 65,
      "word": "AWAY"
    },
    {
      "alignedWord": "i'll",
      "case": "success",
      "end": 5.680000000000001,
      "endOffset": 74,
      "phones": [
        {
          "duration": 0.21,
          "phone": "ay_B"
        },
        {
          "duration": 0.11,
          "phone": "l_E"
        }
      ],
      "start": 5.36,
      "startOffset": 70,
      "word": "I'LL"
    },
    {
      "alignedWord": "step",
      "case": "success",
      "end": 6.07,
      "endOffset": 79,
      "phones": [
        {
          "duration": 0.11,
          "phone": "s_B"
        },
        {
          "duration": 0.08,
          "phone": "t_I"
        },
        {
          "duration": 0.11,
          "phone": "eh_I"
        },
        {
          "duration": 0.08,
          "phone": "p_E"
        }
      ],
      "start": 5.69,
      "startOffset": 75,
      "word": "STEP"
    },
    {
      "alignedWord": "right",
      "case": "success",
      "end": 6.33,
      "endOffset": 85,
      "phones": [
        {
          "duration": 0.08,
          "phone": "r_B"
        },
        {
          "duration": 0.11,
          "phone": "ay_I"
        },
        {
          "duration": 0.07,
          "phone": "t_E"
        }
      ],
      "start": 6.07,
      "startOffset": 80,
      "word": "RIGHT"
    },
    {
      "alignedWord": "out",
      "case": "success",
      "end": 6.47,
      "endOffset": 89,
      "phones": [
        {
          "duration": 0.1,
          "phone": "aw_B"
        },
        {
          "duration": 0.04,
          "phone": "t_E"
        }
      ],
      "start": 6.33,
      "startOffset": 86,
      "word": "OUT"
    },
    {
      "alignedWord": "of",
      "case": "success",
      "end": 6.6,
      "endOffset": 92,
      "phones": [
        {
          "duration": 0.07,
          "phone": "ah_B"
        },
        {
          "duration": 0.06,
          "phone": "v_E"
        }
      ],
      "start": 6.47,
      "startOffset": 90,
      "word": "OF"
    },
    {
      "alignedWord": "my",
      "case": "success",
      "end": 6.82,
      "endOffset": 95,
      "phones": [
        {
          "duration": 0.07,
          "phone": "m_B"
        },
        {
          "duration": 0.13,
          "phone": "ay_E"
        }
      ],
      "start": 6.62,
      "startOffset": 93,
      "word": "MY"
    },
    {
      "alignedWord": "tunnel",
      "case": "success",
      "end": 7.37,
      "endOffset": 102,
      "phones": [
        {
          "duration": 0.12,
          "phone": "t_B"
        },
        {
          "duration": 0.16,
          "phone": "ah_I"
        },
        {
          "duration": 0.05,
          "phone": "n_I"
        },
        {
          "duration": 0.08,
          "phone": "ah_I"
        },
        {
          "duration": 0.14,
          "phone": "l_E"
        }
      ],
      "start": 6.82,
      "startOffset": 96,
      "word": "TUNNEL"
    },
    {
      "alignedWord": "and",
      "case": "success",
      "end": 7.59,
      "endOffset": 106,
      "phones": [
        {
          "duration": 0.08,
          "phone": "ae_B"
        },
        {
          "duration": 0.05,
          "phone": "n_I"
        },
        {
          "duration": 0.05,
          "phone": "d_E"
        }
      ],
      "start": 7.41,
      "startOffset": 103,
      "word": "AND"
    },
    {
      "alignedWord": "have",
      "case": "success",
      "end": 7.89,
      "endOffset": 111,
      "phones": [
        {
          "duration": 0.09,
          "phone": "hh_B"
        },
        {
          "duration": 0.13,
          "phone": "ae_I"
        },
        {
          "duration": 0.08,
          "phone": "v_E"
        }
      ],
      "start": 7.59,
      "startOffset": 107,
      "word": "HAVE"
    },
    {
      "alignedWord": "my",
      "case": "success",
      "end": 8.11,
      "endOffset": 114,
      "phones": [
        {
          "duration": 0.07,
          "phone": "m_B"
        },
        {
          "duration": 0.15,
          "phone": "ay_E"
        }
      ],
      "start": 7.89,
      "startOffset": 112,
      "word": "MY"
    },
    {
      "alignedWord": "swim",
      "case": "success",
      "end": 8.479999999999999,
      "endOffset": 119,
      "phones": [
        {
          "duration": 0.13,
          "phone": "s_B"
        },
        {
          "duration": 0.06,
          "phone": "w_I"
        },
        {
          "duration": 0.12,
          "phone": "ih_I"
        },
        {
          "duration": 0.06,
          "phone": "m_E"
        }
      ],
      "start": 8.11,
      "startOffset": 115,
      "word": "SWIM"
    },
    {
      "alignedWord": "without",
      "case": "success",
      "end": 8.89,
      "endOffset": 127,
      "phones": [
        {
          "duration": 0.05,
          "phone": "w_B"
        },
        {
          "duration": 0.06,
          "phone": "ih_I"
        },
        {
          "duration": 0.08,
          "phone": "th_I"
        },
        {
          "duration": 0.13,
          "phone": "aw_I"
        },
        {
          "duration": 0.09,
          "phone": "t_E"
        }
      ],
      "start": 8.48,
      "startOffset": 120,
      "word": "WITHOUT"
    },
    {
      "alignedWord": "taking",
      "case": "success",
      "end": 9.269999,
      "endOffset": 134,
      "phones": [
        {
          "duration": 0.08,
          "phone": "t_B"
        },
        {
          "duration": 0.1,
          "phone": "ey_I"
        },
        {
          "duration": 0.04,
          "phone": "k_I"
        },
        {
          "duration": 0.09,
          "phone": "ih_I"
        },
        {
          "duration": 0.07,
          "phone": "ng_E"
        }
      ],
      "start": 8.889999,
      "startOffset": 128,
      "word": "TAKING"
    },
    {
      "alignedWord": "a",
      "case": "success",
      "end": 9.34,
      "endOffset": 136,
      "phones": [
        {
          "duration": 0.07,
          "phone": "ah_S"
        }
      ],
      "start": 9.27,
      "startOffset": 135,
      "word": "A"
    },
    {
      "alignedWord": "look",
      "case": "success",
      "end": 9.67,
      "endOffset": 141,
      "phones": [
        {
          "duration": 0.15,
          "phone": "l_B"
        },
        {
          "duration": 0.08,
          "phone": "uh_I"
        },
        {
          "duration": 0.1,
          "phone": "k_E"
        }
      ],
      "start": 9.34,
      "startOffset": 137,
      "word": "LOOK"
    },
    {
      "alignedWord": "see",
      "case": "success",
      "end": 9.94,
      "endOffset": 145,
      "phones": [
        {
          "duration": 0.13,
          "phone": "s_B"
        },
        {
          "duration": 0.14,
          "phone": "iy_E"
        }
      ],
      "start": 9.67,
      "startOffset": 142,
      "word": "SEE"
    },
    {
      "alignedWord": "first",
      "case": "success",
      "end": 10.559999999999999,
      "endOffset": 151,
      "phones": [
        {
          "duration": 0.1,
          "phone": "f_B"
        },
        {
          "duration": 0.23,
          "phone": "er_I"
        },
        {
          "duration": 0.16,
          "phone": "s_I"
        },
        {
          "duration": 0.13,
          "phone": "t_E"
        }
      ],
      "start": 9.94,
      "startOffset": 146,
      "word": "FIRST"
    },
    {
      "alignedWord": "but",
      "case": "success",
      "end": 11.440000000000001,
      "endOffset": 155,
      "phones": [
        {
          "duration": 0.08,
          "phone": "b_B"
        },
        {
          "duration": 0.06,
          "phone": "ah_I"
        },
        {
          "duration": 0.07,
          "phone": "t_E"
        }
      ],
      "start": 11.23,
      "startOffset": 152,
      "word": "BUT"
    },
    {
      "alignedWord": "master",
      "case": "success",
      "end": 11.84,
      "endOffset": 162,
      "phones": [
        {
          "duration": 0.08,
          "phone": "m_B"
        },
        {
          "duration": 0.11,
          "phone": "ae_I"
        },
        {
          "duration": 0.07,
          "phone": "s_I"
        },
        {
          "duration": 0.08,
          "phone": "t_I"
        },
        {
          "duration": 0.06,
          "phone": "er_E"
        }
      ],
      "start": 11.44,
      "startOffset": 156,
      "word": "MASTER"
    },
    {
      "alignedWord": "meadow",
      "case": "success",
      "end": 12.07,
      "endOffset": 169,
      "phones": [
        {
          "duration": 0.08,
          "phone": "m_B"
        },
        {
          "duration": 0.09,
          "phone": "eh_I"
        },
        {
          "duration": 0.05,
          "phone": "d_I"
        },
        {
          "duration": 0.01,
          "phone": "ow_E"
        }
      ],
      "start": 11.84,
      "startOffset": 163,
      "word": "MEADOW"
    },
    {
      "alignedWord": "mouse",
      "case": "success",
      "end": 12.48,
      "endOffset": 175,
      "phones": [
        {
          "duration": 0.07,
          "phone": "m_B"
        },
        {
          "duration": 0.17,
          "phone": "aw_I"
        },
        {
          "duration": 0.11,
          "phone": "s_E"
        }
      ],
      "start": 12.13,
      "startOffset": 170,
      "word": "MOUSE"
    },
    {
      "alignedWord": "was",
      "case": "success",
      "end": 12.64,
      "endOffset": 179,
      "phones": [
        {
          "duration": 0.03,
          "phone": "w_B"
        },
        {
          "duration": 0.05,
          "phone": "ah_I"
        },
        {
          "duration": 0.08,
          "phone": "z_E"
        }
      ],
      "start": 12.48,
      "startOffset": 176,
      "word": "WAS"
    },
    {
      "alignedWord": "never",
      "case": "success",
      "end": 12.939999,
      "endOffset": 185,
      "phones": [
        {
          "duration": 0.06,
          "phone": "n_B"
        },
        {
          "duration": 0.1,
          "phone": "eh_I"
        },
        {
          "duration": 0.07,
          "phone": "v_I"
        },
        {
          "duration": 0.07,
          "phone": "er_E"
        }
      ],
      "start": 12.639999,
      "startOffset": 180,
      "word": "NEVER"
    },
    {
      "alignedWord": "so",
      "case": "success",
      "end": 13.24,
      "endOffset": 188,
      "phones": [
        {
          "duration": 0.14,
          "phone": "s_B"
        },
        {
          "duration": 0.16,
          "phone": "ow_E"
        }
      ],
      "start": 12.94,
      "startOffset": 186,
      "word": "SO"
    },
    {
      "alignedWord": "lazy",
      "case": "success",
      "end": 13.69,
      "endOffset": 193,
      "phones": [
        {
          "duration": 0.11,
          "phone": "l_B"
        },
        {
          "duration": 0.14,
          "phone": "ey_I"
        },
        {
          "duration": 0.12,
          "phone": "z_I"
        },
        {
          "duration": 0.08,
          "phone": "iy_E"
        }
      ],
      "start": 13.24,
      "startOffset": 189,
      "word": "LAZY"
    },
    {
      "alignedWord": "as",
      "case": "success",
      "end": 13.86,
      "endOffset": 196,
      "phones": [
        {
          "duration": 0.08,
          "phone": "eh_B"
        },
        {
          "duration": 0.09,
          "phone": "z_E"
        }
      ],
      "start": 13.69,
      "startOffset": 194,
      "word": "AS"
    },
    {
      "alignedWord": "that",
      "case": "success",
      "end": 14.32,
      "endOffset": 201,
      "phones": [
        {
          "duration": 0.06,
          "phone": "dh_B"
        },
        {
          "duration": 0.2,
          "phone": "ae_I"
        },
        {
          "duration": 0.2,
          "phone": "t_E"
        }
      ],
      "start": 13.86,
      "startOffset": 197,
      "word": "THAT"
    }
  ]
}