{
  "transcript": "THE UNCONSCIOUS FORM OF LIEUTENANT MACKINSON TUMBLED OUT UPON THE FLOOR HIS FACE WAS ALMOST BLUE FROM SUFFOCATION THE CAPTAIN SOUNDED THREE SHORT SHARP BLASTS UPON A WHISTLE WHICH HE HAD TAKEN FROM HIS POCKET AND TWO OILERS CAME RUNNING TO THE SPOT",
  "words": [
    {
      "alignedWord": "the",
      "case": "success",
      "end": 0.62,
      "endOffset": 3,
      "phones": [
        {
          "duration": 0.11,
          "phone": "dh_B"
        },
        {
          "duration": 0.07,
          "phone": "iy_E"
        }
      ],
      "start": 0.44,
      "startOffset": 0,
      "word": "THE"
    },
    {
      "alignedWord": "unconscious",
      "case": "success",
      "end": 1.21,
      "endOffset": 15,
      "phones": [
        {
          "duration": 0.06,
          "phone": "ah_B"
        },
        {
          "duration": 0.1,
          "phone": "n_I"
        },
        {
          "duration": 0.08,
          "phone": "k_I"
        },
        {
          "duration": 0.09,
          "phone": "aa_I"
        },
        {
          "duration": 0.04,
          "phone": "n_I"
        },
        {
          "duration": 0.08,
          "phone": "sh_I"
        },
        {
          "duration": 0.08,
          "phone": "ah_I"
        },
        {
          "duration": 0.06,
          "phone": "s_E"
        }
      ],
      "start": 0.62,
      "startOffset": 4,
      "word": "UNCONSCIOUS"
    },
    {
      "alignedWord": "form",
      "case": "success",
      "end": 1.53,
      "endOffset": 20,
      "phones": [
        {
          "duration": 0.09,
          "phone": "f_B"
        },
        {
          "duration": 0.08,
          "phone": "ao_I"
        },
        {
          "duration": 0.07,
          "phone": "r_I"
        },
        {
          "duration": 0.08,
          "phone": "m_E"
        }
      ],
      "start": 1.21,
      "startOffset": 16,
      "word": "FORM"
    },
    {
      "alignedWord": "of",
      "case": "success",
      "end": 1.6400000000000001,
      "endOffset": 23,
      "phones": [
        {
          "duration": 0.04,
          "phone": "ah_B"
        },
        {
          "duration": 0.06,
          "phone": "v_E"
        }
      ],
      "start": 1.54,
      "startOffset": 21,
      "word": "OF"
    },
    {
      "alignedWord": "lieutenant",
      "case": "success",
      "end": 2.03,
      "endOffset": 34,
      "phones": [
        {
          "duration": 0.05,
          "phone": "l_B"
        },
        {
          "duration": 0.06,
          "phone": "uw_I"
        },
        {
          "duration": 0.07,
          "phone": "t_I"
        },
        {
          "duration": 0.05,
          "phone": "eh_I"
        },
        {
          "duration": 0.07,
          "phone": "n_I"
        },
        {
          "duration": 0.01,
          "phone": "ah_I"
        },
        {
          "duration": 0.01,
          "phone": "n_I"
        },
        {
          "duration": 0.07,
          "phone": "t_E"
        }
      ],
      "start": 1.64,
      "startOffset": 24,
      "word": "LIEUTENANT"
    },
    {
      "alignedWord": "<unk>",
      "case": "success",
      "end": 2.55,
      "endOffset": 44,
      "phones": [
        {
          "duration": 0.52,
          "phone": "oov_S"
        }
      ],
      "start": 2.03,
      "startOffset": 35,
      "word": "MACKINSON"
    },
    {
      "alignedWord": "tumbled",
      "case": "success",
      "end": 2.93,
      "endOffset": 52,
      "phones": [
        {
          "duration": 0.09,
          "phone": "t_B"
        },
        {
          "duration": 0.06,
          "phone": "ah_I"
        },
        {
          "duration": 0.05,
          "phone": "m_I"
        },
        {
          "duration": 0.01,
          "phone": "b_I"
        },
        {
          "duration": 0.04,
          "phone": "ah_I"
        },
        {
          "duration": 0.04,
          "phone": "l_I"
        },
        {
          "duration": 0.06,
          "phone": "d_E"
        }
      ],
      "start": 2.58,
      "startOffset": 45,
      "word": "TUMBLED"
    },
    {
      "alignedWord": "out",
      "case": "success",
      "end": 3.0500000000000003,
      "endOffset": 56,
      "phones": [
        {
          "duration": 0.07,
          "phone": "aw_B"
        },
        {
          "duration": 0.05,
          "phone": "t_E"
        }
      ],
      "start": 2.93,
      "startOffset": 53,
      "word": "OUT"
    },
    {
      "alignedWord": "upon",
      "case": "success",
      "end": 3.2399999999999998,
      "endOffset": 61,
      "phones": [
        {
          "duration": 0.06,
          "phone": "ah_B"
        },
        {
          "duration": 0.05,
          "phone": "p_I"
        },
        {
          "duration": 0.05,
          "phone": "aa_I"
        },
        {
          "duration": 0.03,
          "phone": "n_E"
        }
      ],
      "start": 3.05,
      "startOffset": 57,
      "word": "UPON"
    },
    {
      "alignedWord": "the",
      "case": "success",
      "end": 3.33,
      "endOffset": 65,
      "phones": [
        {
          "duration": 0.05,
          "phone": "dh_B"
        },
        {
          "duration": 0.04,
          "phone": "ah_E"
        }
      ],
      "start": 3.24,
      "startOffset": 62,
      "word": "THE"
    },
    {
      "alignedWord": "floor",
      "case": "success",
      "end": 3.75,
      "endOffset": 71,
      "phones": [
        {
          "duration": 0.09,
          "phone": "f_B"
        },
        {
          "duration": 0.05,
          "phone": "l_I"
        },
        {
          "duration": 0.12,
          "phone": "ao_I"
        },
        {
          "duration": 0.16,
          "phone": "r_E"
        }
      ],
      "start": 3.33,
      "startOffset": 66,
      "word": "FLOOR"
    },
    {
      "alignedWord": "his",
      "case": "success",
      "end": 4.46,
      "endOffset": 75,
      "phones": [
        {
          "duration": 0.08,
          "phone": "hh_B"
        },
        {
          "duration": 0.07,
          "phone": "ih_I"
        },
        {
          "duration": 0.13,
          "phone": "z_E"
        }
      ],
      "start": 4.18,
      "startOffset": 72,
      "word": "HIS"
    },
    {
      "alignedWord": "face",
      "case": "success",
      "end": 4.85,
      "endOffset": 80,
      "phones": [
        {
          "duration": 0.11,
          "phone": "f_B"
        },
        {
          "duration": 0.16,
          "phone": "ey_I"
        },
        {
          "duration": 0.11,
          "phone": "s_E"
        }
      ],
      "start": 4.47,
      "startOffset": 76,
      "word": "FACE"
    },
    {
      "alignedWord": "was",
      "case": "success",
      "end": 5.01,
      "endOffset": 84,
      "phones": [
        {
          "duration": 0.03,
          "phone": "w_B"
        },
        {
          "duration": 0.05,
          "phone": "ah_I"
        },
        {
          "duration": 0.08,
          "phone": "z_E"
        }
      ],
      "start": 4.85,
      "startOffset": 81,
      "word": "WAS"
    },
    {
      "alignedWord": "almost",
      "case": "success",
      "end": 5.47,
      "endOffset": 91,
      "phones": [
        {
          "duration": 0.13,
          "phone": "ao_B"
        },
        {
          "duration": 0.08,
          "phone": "l_I"
        },
        {
          "duration": 0.05,
          "phone": "m_I"
        },
        {
          "duration": 0.04,
          "phone": "ow_I"
        },
        {
          "duration": 0.08,
          "phone": "s_I"
        },
        {
          "duration": 0.07,
          "phone": "t_E"
        }
      ],
      "start": 5.02,
      "startOffset": 85,
      "word": "ALMOST"
    },
    {
      "alignedWord": "blue",
      "case": "success",
      "end": 5.93,
      "endOffset": 96,
      "phones": [
        {
          "duration": 0.12,
          "phone": "b_B"
        },
        {
          "duration": 0.09,
          "phone": "l_I"
        },
        {
          "duration": 0.25,
          "phone": "uw_E"
        }
      ],
      "start": 5.47,
      "startOffset": 92,
      "word": "BLUE"
    },
    {
      "alignedWord": "from",
      "case": "success",
      "end": 6.18,
      "endOffset": 101,
      "phones": [
        {
          "duration": 0.07,
          "phone": "f_B"
        },
        {
          "duration": 0.05,
          "phone": "er_I"
        },
        {
          "duration": 0.06,
          "phone": "m_E"
        }
      ],
      "start": 6.0,
      "startOffset": 97,
      "word": "FROM"
    },
    {
      "alignedWord": "suffocation",
      "case": "success",
      "end": 6.8999999999999995,
      "endOffset": 113,
      "phones": [
        {
          "duration": 0.07,
          "phone": "s_B"
        },
        {
          "duration": 0.06,
          "phone": "ah_I"
        },
        {
          "duration": 0.08,
          "phone": "f_I"
        },
        {
          "duration": 0.04,
          "phone": "ah_I"
        },
        {
          "duration": 0.12,
          "phone": "k_I"
        },
        {
          "duration": 0.09,
          "phone": "ey_I"
        },
        {
          "duration": 0.09,
          "phone": "sh_I"
        },
        {
          "duration": 0.06,
          "phone": "ah_I"
        },
        {
          "duration": 0.11,
          "phone": "n_E"
        }
      ],
      "start": 6.18,
      "startOffset": 102,
      "word": "SUFFOCATION"
    },
    {
      "alignedWord": "the",
      "case": "success",
      "end": 7.92,
      "endOffset": 117,
      "phones": [
        {
          "duration": 0.09,
          "phone": "dh_B"
        },
        {
          "duration": 0.07,
          "phone": "iy_E"
        }
      ],
      "start": 7.76,
      "startOffset": 114,
      "word": "THE"
    },
    {
      "alignedWord": "captain",
      "case": "success",
      "end": 8.37,
      "endOffset": 125,
      "phones": [
        {
          "duration": 0.11,
          "phone": "k_B"
        },
        {
          "duration": 0.08,
          "phone": "ae_I"
        },
        {
          "duration": 0.06,
          "phone": "p_I"
        },
        {
          "duration": 0.05,
          "phone": "t_I"
        },
        {
          "duration": 0.05,
          "phone": "ah_I"
        },
        {
          "duration": 0.1,
          "phone": "n_E"
        }
      ],
      "start": 7.92,
      "startOffset": 118,
      "word": "CAPTAIN"
    },
    {
      "alignedWord": "sounded",
      "case": "success",
      "end": 8.719999999999999,
      "endOffset": 133,
      "phones": [
        {
          "duration": 0.09,
          "phone": "s_B"
        },
        {
          "duration": 0.07,
          "phone": "aw_I"
        },
        {
          "duration": 0.04,
          "phone": "n_I"
        },
        {
          "duration": 0.03,
          "phone": "d_I"
        },
        {
          "duration": 0.06,
          "phone": "ih_I"
        },
        {
          "duration": 0.06,
          "phone": "d_E"
        }
      ],
      "start": 8.37,
      "startOffset": 126,
      "word": "SOUNDED"
    },
    {
      "alignedWord": "three",
      "case": "success",
      "end": 8.98,
      "endOffset": 139,
      "phones": [
        {
          "duration": 0.08,
          "phone": "th_B"
        },
        {
          "duration": 0.1,
          "phone": "r_I"
        },
        {
          "duration": 0.08,
          "phone": "iy_E"
        }
      ],
      "start": 8.72,
      "startOffset": 134,
      "word": "THREE"
    },
    {
      "alignedWord": "short",
      "case": "success",
      "end": 9.290000000000001,
      "endOffset": 145,
      "phones": [
        {
          "duration": 0.1,
          "phone": "sh_B"
        },
        {
          "duration": 0.1,
          "phone": "ao_I"
        },
        {
          "duration": 0.03,
          "phone": "r_I"
        },
        {
          "duration": 0.08,
          "phone": "t_E"
        }
      ],
      "start": 8.98,
      "startOffset": 140,
      "word": "SHORT"
    },
    {
      "alignedWord": "sharp",
      "case": "success",
      "end": 9.600000000000001,
      "endOffset": 151,
      "phones": [
        {
          "duration": 0.12,
          "phone": "sh_B"
        },
        {
          "duration": 0.06,
          "phone": "aa_I"
        },
        {
          "duration": 0.07,
          "phone": "r_I"
        },
        {
          "duration": 0.05,
          "phone": "p_E"
        }
      ],
      "start": 9.3,
      "startOffset": 146,
      "word": "SHARP"
    },
    {
      "alignedWord": "blasts",
      "case": "success",
      "end": 9.899999000000001,
      "endOffset": 158,
      "phones": [
        {
          "duration": 0.06,
          "phone": "b_B"
        },
        {
          "duration": 0.07,
          "phone": "l_I"
        },
        {
          "duration": 0.11,
          "phone": "ae_I"
        },
        {
          "duration": 0.02,
          "phone": "s_I"
        },
        {
          "duration": 0.01,
          "phone": "t_I"
        },
        {
          "duration": 0.03,
          "phone": "s_E"
        }
      ],
      "start": 9.599999,
      "startOffset": 152,
      "word": "BLASTS"
    },
    {
      "alignedWord": "upon",
      "case": "success",
      "end": 10.15,
      "endOffset": 163,
      "phones": [
        {
          "duration": 0.07,
          "phone": "ah_B"
        },
        {
          "duration": 0.06,
          "phone": "p_I"
        },
        {
          "duration": 0.07,
          "phone": "aa_I"
        },
        {
          "duration": 0.05,
          "phone": "n_E"
        }
      ],
      "start": 9.9,
      "startOffset": 159,
      "word": "UPON"
    },
    {
      "alignedWord": "a",
      "case": "success",
      "end": 10.22,
      "endOffset": 165,
      "phones": [
        {
          "duration": 0.07,
          "phone": "ah_S"
        }
      ],
      "start": 10.15,
      "startOffset": 164,
      "word": "A"
    },
    {
      "alignedWord": "whistle",
      "case": "success",
      "end": 10.699999,
      "endOffset": 173,
      "phones": [
        {
          "duration": 0.07,
          "phone": "w_B"
        },
        {
          "duration": 0.09,
          "phone": "ih_I"
        },
        {
          "duration": 0.06,
          "phone": "s_I"
        },
        {
          "duration": 0.08,
          "phone": "ah_I"
        },
        {
          "duration": 0.18,
          "phone": "l_E"
        }
      ],
      "start": 10.219999,
      "startOffset": 166,
      "word": "WHISTLE"
    },
    {
      "alignedWord": "which",
      "case": "success",
      "end": 10.99,
      "endOffset": 179,
      "phones": [
        {
          "duration": 0.1,
          "phone": "w_B"
        },
        {
          "duration": 0.06,
          "phone": "ih_I"
        },
        {
          "duration": 0.08,
          "phone": "ch_E"
        }
      ],
      "start": 10.75,
      "startOffset": 174,
      "word": "WHICH"
    },
    {
      "alignedWord": "he",
      "case": "success",
      "end": 11.07,
      "endOffset": 182,
      "phones": [
        {
          "duration": 0.04,
          "phone": "hh_B"
        },
        {
          "duration": 0.04,
          "phone": "iy_E"
        }
      ],
      "start": 10.99,
      "startOffset": 180,
      "word": "HE"
    },
    {
      "alignedWord": "had",
      "case": "success",
      "end": 11.19,
      "endOffset": 186,
      "phones": [
        {
          "duration": 0.01,
          "phone": "hh_B"
        },
        {
          "duration": 0.03,
          "phone": "ae_I"
        },
        {
          "duration": 0.08,
          "phone": "d_E"
        }
      ],
      "start": 11.07,
      "startOffset": 183,
      "word": "HAD"
    },
    {
      "alignedWord": "taken",
      "case": "success",
      "end": 11.51,
      "endOffset": 192,
      "phones": [
        {
          "duration": 0.06,
          "phone": "t_B"
        },
        {
          "duration": 0.1,
          "phone": "ey_I"
        },
        {
          "duration": 0.03,
          "phone": "k_I"
        },
        {
          "duration": 0.06,
          "phone": "ah_I"
        },
        {
          "duration": 0.07,
          "phone": "n_E"
        }
      ],
      "start": 11.19,
      "startOffset": 187,
      "word": "TAKEN"
    },
    {
      "alignedWord": "from",
      "case": "success",
      "end": 11.669999,
      "endOffset": 197,
      "phones": [
        {
          "duration": 0.05,
          "phone": "f_B"
        },
        {
          "duration": 0.05,
          "phone": "er_I"
        },
        {
          "duration": 0.06,
          "phone": "m_E"
        }
      ],
      "start": 11.509999,
      "startOffset": 193,
      "word": "FROM"
    },
    {
      "alignedWord": "his",
      "case": "success",
      "end": 11.81,
      "endOffset": 201,
      "phones": [
        {
          "duration": 0.03,
          "phone": "hh_B"
        },
        {
          "duration": 0.03,
          "phone": "ih_I"
        },
        {
          "duration": 0.08,
          "phone": "z_E"
        }
      ],
      "start": 11.67,
      "startOffset": 198,
      "word": "HIS"
    },
    {
      "alignedWord": "pocket",
      "case": "success",
      "end": 12.239999,
      "endOffset": 208,
      "phones": [
        {
          "duration": 0.08,
          "phone": "p_B"
        },
        {
          "duration": 0.1,
          "phone": "aa_I"
        },
        {
          "duration": 0.08,
          "phone": "k_I"
        },
        {
          "duration": 0.07,
          "phone": "ah_I"
        },
        {
          "duration": 0.1,
          "phone": "t_E"
        }
      ],
      "start": 11.809999,
      "startOffset": 202,
      "word": "POCKET"
    },
    {
      "alignedWord": "and",
      "case": "success",
      "end": 12.57,
      "endOffset": 212,
      "phones": [
        {
          "duration": 0.08,
          "phone": "ae_B"
        },
        {
          "duration": 0.05,
          "phone": "n_I"
        },
        {
          "duration": 0.04,
          "phone": "d_E"
        }
      ],
      "start": 12.4,
      "startOffset": 209,
      "word": "AND"
    },
    {
      "alignedWord": "two",
      "case": "success",
      "end": 12.76,
      "endOffset": 216,
      "phones": [
        {
          "duration": 0.09,
          "phone": "t_B"
        },
        {
          "duration": 0.09,
          "phone": "uw_E"
        }
      ],
      "start": 12.58,
      "startOffset": 213,
      "word": "TWO"
    },
    {
      "alignedWord": "oilers",
      "case": "success",
      "end": 13.23,
      "endOffset": 223,
      "phones": [
        {
          "duration": 0.22,
          "phone": "oy_B"
        },
        {
          "duration": 0.06,
          "phone": "l_I"
        },
        {
          "duration": 0.1,
          "phone": "er_I"
        },
        {
          "duration": 0.08,
          "phone": "z_E"
        }
      ],
      "start": 12.77,
      "startOffset": 217,
      "word": "OILERS"
    },
    {
      "alignedWord": "came",
      "case": "success",
      "end": 13.440000000000001,
      "endOffset": 228,
      "phones": [
        {
          "duration": 0.06,
          "phone": "k_B"
        },
        {
          "duration": 0.06,
          "phone": "ey_I"
        },
        {
          "duration": 0.09,
          "phone": "m_E"
        }
      ],
      "start": 13.23,
      "startOffset": 224,
      "word": "CAME"
    },
    {
      "alignedWord": "running",
      "case": "success",
      "end": 13.75,
      "endOffset": 236,
      "phones": [
        {
          "duration": 0.06,
          "phone": "r_B"
        },
        {
          "duration": 0.07,
          "phone": "ah_I"
        },
        {
          "duration": 0.03,
          "phone": "n_I"
        },
        {
          "duration": 0.07,
          "phone": "ih_I"
        },
        {
          "duration": 0.08,
          "phone": "ng_E"
        }
      ],
      "start": 13.44,
      "startOffset": 229,
      "word": "RUNNING"
    },
    {
      "alignedWord": "to",
      "case": "success",
      "end": 13.85,
      "endOffset": 239,
      "phones": [
        {
          "duration": 0.04,
          "phone": "t_B"
        },
        {
          "duration": 0.06,
          "phone": "uw_E"
        }
      ],
      "start": 13.75,
      "startOffset": 237,
      "word": "TO"
    },
    {
      "alignedWord": "the",
      "case": "success",
      "end": 13.949999,
      "endOffset": 243,
      "phones": [
        {
          "duration": 0.06,
          "phone": "dh_B"
        },
        {
          "duration": 0.04,
          "phone": "ah_E"
        }
      ],
      "start": 13.849999,
      "startOffset": 240,
      "word": "THE"
    },
    {
      "alignedWord": "spot",
      "case": "success",
      "end": 14.34,
      "endOffset": 248,
      "phones": [
        {
          "duration": 0.06,
          "phone": "s_B"
        },
        {
          "duration": 0.08,
          "phone": "p_I"
        },
        {
          "duration": 0.13,
          "phone": "aa_I"
        },
        {
          "duration": 0.12,
          "phone": "t_E"
        }
      ],
      "start": 13.95,
      "startOffset": 244,
      "word": "SPOT"
    }
  ]
}