{
  "transcript": "WAS A THOUSAND PITIES AN PLEASE YOUR HONOUR TO DESTROY THESE WORKS",
  "words": [
    {
      "alignedWord": "was",
      "case": "success",
      "end": 0.74,
      "endOffset": 3,
      "phones": [
        {
          "duration": 0.08,
          "phone": "w_B"
        },
        {
          "duration": 0.05,
          "phone": "ah_I"
        },
        {
          "duration": 0.07,
          "phone": "z_E"
        }
      ],
      "start": 0.54,
      "startOffset": 0,
      "word": "WAS"
    },
    {
      "alignedWord": "a",
      "case": "success",
      "end": 0.79,
      "endOffset": 5,
      "phones": [
        {
          "duration": 0.05,
          "phone": "ah_S"
        }
      ],
      "start": 0.74,
      "startOffset": 4,
      "word": "A"
    },
    {
      "alignedWord": "thousand",
      "case": "success",
      "end": 1.27,
      "endOffset": 14,
      "phones": [
        {
          "duration": 0.09,
          "phone": "th_B"
        },
        {
          "duration": 0.16,
          "phone": "aw_I"
        },
        {
          "duration": 0.06,
          "phone": "z_I"
        },
        {
          "duration": 0.07,
          "phone": "ah_I"
        },
        {
          "duration": 0.1,
          "phone": "n_E"
        }
      ],
      "start": 0.79,
      "startOffset": 6,
      "word": "THOUSAND"
    },
    {
      "alignedWord": "<unk>",
      "case": "success",
      "end": 1.68,
      "endOffset": 21,
      "phones": [
        {
          "duration": 0.41,
          "phone": "oov_S"
        }
      ],
      "start": 1.27,
      "startOffset": 15,
      "word": "PITIES"
    },
    {
      "alignedWord": "an",
      "case": "success",
      "end": 1.81,
      "endOffset": 24,
      "phones": [
        {
          "duration": 0.05,
          "phone": "ah_B"
        },
        {
          "duration": 0.08,
          "phone": "n_E"
        }
      ],
      "start": 1.68,
      "startOffset": 22,
      "word": "AN"
    },
    {
      "alignedWord": "please",
      "case": "success",
      "end": 2.09,
      "endOffset": 31,
      "phones": [
        {
          "duration": 0.07,
          "phone": "p_B"
        },
        {
          "duration": 0.09,
          "phone": "l_I"
        },
        {
          "duration": 0.06,
          "phone": "iy_I"
        },
        {
          "duration": 0.06,
          "phone": "z_E"
        }
      ],
      "start": 1.81,
      "startOffset": 25,
      "word": "PLEASE"
    },
    {
      "alignedWord": "your",
      "case": "success",
      "end": 2.1199999999999997,
      "endOffset": 36,
      "phones": [
        {
          "duration": 0.01,
          "phone": "y_B"
        },
        {
          "duration": 0.01,
          "phone": "uh_I"
        },
        {
          "duration": 0.01,
          "phone": "r_E"
        }
      ],
      "start": 2.09,
      "startOffset": 32,
      "word": "YOUR"
    },
    {
      "alignedWord": "<unk>",
      "case": "success",
      "end": 2.5,
      "endOffset": 43,
      "phones": [
        {
          "duration": 0.38,
          "phone": "oov_S"
        }
      ],
      "start": 2.12,
      "startOffset": 37,
      "word": "HONOUR"
    },
    {
      "alignedWord": "to",
      "case": "success",
      "end": 2.83,
      "endOffset": 46,
      "phones": [
        {
          "duration": 0.08,
          "phone": "t_B"
        },
        {
          "duration": 0.05,
          "phone": "ih_E"
        }
      ],
      "start": 2.7,
      "startOffset": 44,
      "word": "TO"
    },
    {
      "alignedWord": "destroy",
      "case": "success",
      "end": 3.24,
      "endOffset": 54,
      "phones": [
        {
          "duration": 0.05,
          "phone": "d_B"
        },
        {
          "duration": 0.06,
          "phone": "ih_I"
        },
        {
          "duration": 0.03,
          "phone": "s_I"
        },
        {
          "duration": 0.07,
          "phone": "t_I"
        },
        {
          "duration": 0.07,
          "phone": "r_I"
        },
        {
          "duration": 0.13,
          "phone": "oy_E"
        }
      ],
      "start": 2.83,
      "startOffset": 47,
      "word": "DESTROY"
    },
    {
      "alignedWord": "these",
      "case": "success",
      "end": 3.4600000000000004,
      "endOffset": 60,
      "phones": [
        {
          "duration": 0.06,
          "phone": "dh_B"
        },
        {
          "duration": 0.07,
          "phone": "iy_I"
        },
        {
          "duration": 0.09,
          "phone": "z_E"
        }
      ],
      "start": 3.24,
      "startOffset": 55,
      "word": "THESE"
    },
    {
      "alignedWord": "works",
      "case": "success",
      "end": 3.94,
      "endOffset": 66,
      "phones": [
        {
          "duration": 0.12,
          "phone": "w_B"
        },
        {
          "duration": 0.11,
          "phone": "er_I"
        },
        {
          "duration": 0.11,
          "phone": "k_I"
        },
        {
          "duration": 0.14,
          "phone": "s_E"
        }
      ],
      "start": 3.46,
      "startOffset": 61,
      "word": "WORKS"
    }
  ]
}