{
  "transcript": "COME UNTO ME ALL YE THAT LABOUR AND ARE HEAVY LADEN AND I WILL GIVE YOU REST WHENCE CAME THE VOICE FROM HER MEMORY OR FROM THAT INNER CHAMBER OF THE SPIRIT WHICH THE ONE SPIRIT BEARING SPIRIT",
  "words": [
    {
      "alignedWord": "come",
      "case": "success",
      "end": 0.56,
      "endOffset": 4,
      "phones": [
        {
          "duration": 0.08,
          "phone": "k_B"
        },
        {
          "duration": 0.07,
          "phone": "ah_I"
        },
        {
          "duration": 0.07,
          "phone": "m_E"
        }
      ],
      "start": 0.34,
      "startOffset": 0,
      "word": "COME"
    },
    {
      "alignedWord": "unto",
      "case": "success",
      "end": 0.8400000000000001,
      "endOffset": 9,
      "phones": [
        {
          "duration": 0.07,
          "phone": "ah_B"
        },
        {
          "duration": 0.07,
          "phone": "n_I"
        },
        {
          "duration": 0.08,
          "phone": "t_I"
        },
        {
          "duration": 0.06,
          "phone": "uw_E"
        }
      ],
      "start": 0.56,
      "startOffset": 5,
      "word": "UNTO"
    },
    {
      "alignedWord": "me",
      "case": "success",
      "end": 1.23,
      "endOffset": 12,
      "phones": [
        {
          "duration": 0.09,
          "phone": "m_B"
        },
        {
          "duration": 0.3,
          "phone": "iy_E"
        }
      ],
      "start": 0.84,
      "startOffset": 10,
      "word": "ME"
    },
    {
      "alignedWord": "all",
      "case": "success",
      "end": 1.58,
      "endOffset": 16,
      "phones": [
        {
          "duration": 0.15,
          "phone": "ao_B"
        },
        {
          "duration": 0.09,
          "phone": "l_E"
        }
      ],
      "start": 1.34,
      "startOffset": 13,
      "word": "ALL"
    },
    {
      "alignedWord": "ye",
      "case": "success",
      "end": 1.75,
      "endOffset": 19,
      "phones": [
        {
          "duration": 0.11,
          "phone": "y_B"
        },
        {
          "duration": 0.06,
          "phone": "iy_E"
        }
      ],
      "start": 1.58,
      "startOffset": 17,
      "word": "YE"
    },
    {
      "alignedWord": "that",
      "case": "success",
      "end": 1.94,
      "endOffset": 24,
      "phones": [
        {
          "duration": 0.06,
          "phone": "dh_B"
        },
        {
          "duration": 0.05,
          "phone": "ah_I"
        },
        {
          "duration": 0.08,
          "phone": "t_E"
        }
      ],
      "start": 1.75,
      "startOffset": 20,
      "word": "THAT"
    },
    {
      "alignedWord": "labour",
      "case": "success",
      "end": 2.32,
      "endOffset": 31,
      "phones": [
        {
          "duration": 0.1,
          "phone": "l_B"
        },
        {
          "duration": 0.08,
          "phone": "ey_I"
        },
        {
          "duration": 0.09,
          "phone": "b_I"
        },
        {
          "duration": 0.11,
          "phone": "er_E"
        }
      ],
      "start": 1.94,
      "startOffset": 25,
      "word": "LABOUR"
    },
    {
      "alignedWord": "and",
      "case": "success",
      "end": 2.44,
      "endOffset": 35,
      "phones": [
        {
          "duration": 0.04,
          "phone": "ae_B"
        },
        {
          "duration": 0.05,
          "phone": "n_I"
        },
        {
          "duration": 0.03,
          "phone": "d_E"
        }
      ],
      "start": 2.32,
      "startOffset": 32,
      "word": "AND"
    },
    {
      "alignedWord": "are",
      "case": "success",
      "end": 2.58,
      "endOffset": 39,
      "phones": [
        {
          "duration": 0.05,
          "phone": "aa_B"
        },
        {
          "duration": 0.09,
          "phone": "r_E"
        }
      ],
      "start": 2.44,
      "startOffset": 36,
      "word": "ARE"
    },
    {
      "alignedWord": "heavy",
      "case": "success",
      "end": 2.92,
      "endOffset": 45,
      "phones": [
        {
          "duration": 0.08,
          "phone": "hh_B"
        },
        {
          "duration": 0.08,
          "phone": "eh_I"
        },
        {
          "duration": 0.09,
          "phone": "v_I"
        },
        {
          "duration": 0.09,
          "phone": "iy_E"
        }
      ],
      "start": 2.58,
      "startOffset": 40,
      "word": "HEAVY"
    },
    {
      "alignedWord": "laden",
      "case": "success",
      "end": 3.41,
      "endOffset": 51,
      "phones": [
        {
          "duration": 0.08,
          "phone": "l_B"
        },
        {
          "duration": 0.09,
          "phone": "ey_I"
        },
        {
          "duration": 0.04,
          "phone": "d_I"
        },
        {
          "duration": 0.08,
          "phone": "ah_I"
        },
        {
          "duration": 0.2,
          "phone": "n_E"
        }
      ],
      "start": 2.92,
      "startOffset": 46,
      "word": "LADEN"
    },
    {
      "alignedWord": "and",
      "case": "success",
      "end": 3.71,
      "endOffset": 55,
      "phones": [
        {
          "duration": 0.09,
          "phone": "ae_B"
        },
        {
          "duration": 0.05,
          "phone": "n_I"
        },
        {
          "duration": 0.05,
          "phone": "d_E"
        }
      ],
      "start": 3.52,
      "startOffset": 52,
      "word": "AND"
    },
    {
      "alignedWord": "i",
      "case": "success",
      "end": 3.79,
      "endOffset": 57,
      "phones": [
        {
          "duration": 0.08,
          "phone": "ay_S"
        }
      ],
      "start": 3.71,
      "startOffset": 56,
      "word": "I"
    },
    {
      "alignedWord": "will",
      "case": "success",
      "end": 3.93,
      "endOffset": 62,
      "phones": [
        {
          "duration": 0.05,
          "phone": "w_B"
        },
        {
          "duration": 0.04,
          "phone": "ih_I"
        },
        {
          "duration": 0.05,
          "phone": "l_E"
        }
      ],
      "start": 3.79,
      "startOffset": 58,
      "word": "WILL"
    },
    {
      "alignedWord": "give",
      "case": "success",
      "end": 4.12,
      "endOffset": 67,
      "phones": [
        {
          "duration": 0.06,
          "phone": "g_B"
        },
        {
          "duration": 0.07,
          "phone": "ih_I"
        },
        {
          "duration": 0.06,
          "phone": "v_E"
        }
      ],
      "start": 3.93,
      "startOffset": 63,
      "word": "GIVE"
    },
    {
      "alignedWord": "you",
      "case": "success",
      "end": 4.24,
      "endOffset": 71,
      "phones": [
        {
          "duration": 0.06,
          "phone": "y_B"
        },
        {
          "duration": 0.06,
          "phone": "uw_E"
        }
      ],
      "start": 4.12,
      "startOffset": 68,
      "word": "YOU"
    },
    {
      "alignedWord": "rest",
      "case": "success",
      "end": 4.7700000000000005,
      "endOffset": 76,
      "phones": [
        {
          "duration": 0.1,
          "phone": "r_B"
        },
        {
          "duration": 0.11,
          "phone": "eh_I"
        },
        {
          "duration": 0.16,
          "phone": "s_I"
        },
        {
          "duration": 0.16,
          "phone": "t_E"
        }
      ],
      "start": 4.24,
      "startOffset": 72,
      "word": "REST"
    },
    {
      "alignedWord": "<unk>",
      "case": "success",
      "end": 5.9799999999999995,
      "endOffset": 83,
      "phones": [
        {
          "duration": 0.26,
          "phone": "oov_S"
        }
      ],
      "start": 5.72,
      "startOffset": 77,
      "word": "WHENCE"
    },
    {
      "alignedWord": "came",
      "case": "success",
      "end": 6.34,
      "endOffset": 88,
      "phones": [
        {
          "duration": 0.12,
          "phone": "k_B"
        },
        {
          "duration": 0.12,
          "phone": "ey_I"
        },
        {
          "duration": 0.09,
          "phone": "m_E"
        }
      ],
      "start": 6.01,
      "startOffset": 84,
      "word": "CAME"
    },
    {
      "alignedWord": "the",
      "case": "success",
      "end": 6.4399999999999995,
      "endOffset": 92,
      "phones": [
        {
          "duration": 0.04,
          "phone": "dh_B"
        },
        {
          "duration": 0.06,
          "phone": "ah_E"
        }
      ],
      "start": 6.34,
      "startOffset": 89,
      "word": "THE"
    },
    {
      "alignedWord": "voice",
      "case": "success",
      "end": 7.0600000000000005,
      "endOffset": 98,
      "phones": [
        {
          "duration": 0.12,
          "phone": "v_B"
        },
        {
          "duration": 0.24,
          "phone": "oy_I"
        },
        {
          "duration": 0.26,
          "phone": "s_E"
        }
      ],
      "start": 6.44,
      "startOffset": 93,
      "word": "VOICE"
    },
    {
      "alignedWord": "from",
      "case": "success",
      "end": 7.92,
      "endOffset": 103,
      "phones": [
        {
          "duration": 0.1,
          "phone": "f_B"
        },
        {
          "duration": 0.05,
          "phone": "r_I"
        },
        {
          "duration": 0.04,
          "phone": "ah_I"
        },
        {
          "duration": 0.07,
          "phone": "m_E"
        }
      ],
      "start": 7.66,
      "startOffset": 99,
      "word": "FROM"
    },
    {
      "alignedWord": "her",
      "case": "success",
      "end": 8.04,
      "endOffset": 107,
      "phones": [
        {
          "duration": 0.08,
          "phone": "hh_B"
        },
        {
          "duration": 0.04,
          "phone": "er_E"
        }
      ],
      "start": 7.92,
      "startOffset": 104,
      "word": "HER"
    },
    {
      "alignedWord": "memory",
      "case": "success",
      "end": 8.649999999999999,
      "endOffset": 114,
      "phones": [
        {
          "duration": 0.09,
          "phone": "m_B"
        },
        {
          "duration": 0.11,
          "phone": "eh_I"
        },
        {
          "duration": 0.07,
          "phone": "m_I"
        },
        {
          "duration": 0.09,
          "phone": "er_I"
        },
        {
          "duration": 0.25,
          "phone": "iy_E"
        }
      ],
      "start": 8.04,
      "startOffset": 108,
      "word": "MEMORY"
    },
    {
      "alignedWord": "or",
      "case": "success",
      "end": 8.93,
      "endOffset": 117,
      "phones": [
        {
          "duration": 0.11,
          "phone": "ao_B"
        },
        {
          "duration": 0.07,
          "phone": "r_E"
        }
      ],
      "start": 8.75,
      "startOffset": 115,
      "word": "OR"
    },
    {
      "alignedWord": "from",
      "case": "success",
      "end": 9.149999000000001,
      "endOffset": 122,
      "phones": [
        {
          "duration": 0.06,
          "phone": "f_B"
        },
        {
          "duration": 0.05,
          "phone": "r_I"
        },
        {
          "duration": 0.03,
          "phone": "ah_I"
        },
        {
          "duration": 0.08,
          "phone": "m_E"
        }
      ],
      "start": 8.929999,
      "startOffset": 118,
      "word": "FROM"
    },
    {
      "alignedWord": "that",
      "case": "success",
      "end": 9.280000000000001,
      "endOffset": 127,
      "phones": [
        {
          "duration": 0.03,
          "phone": "dh_B"
        },
        {
          "duration": 0.04,
          "phone": "ae_I"
        },
        {
          "duration": 0.06,
          "phone": "t_E"
        }
      ],
      "start": 9.15,
      "startOffset": 123,
      "word": "THAT"
    },
    {
      "alignedWord": "inner",
      "case": "success",
      "end": 9.55,
      "endOffset": 133,
      "phones": [
        {
          "duration": 0.09,
          "phone": "ih_B"
        },
        {
          "duration": 0.09,
          "phone": "n_I"
        },
        {
          "duration": 0.07,
          "phone": "er_E"
        }
      ],
      "start": 9.3,
      "startOffset": 128,
      "word": "INNER"
    },
    {
      "alignedWord": "chamber",
      "case": "success",
      "end": 10.040000000000001,
      "endOffset": 141,
      "phones": [
        {
          "duration": 0.17,
          "phone": "ch_B"
        },
        {
          "duration": 0.1,
          "phone": "ey_I"
        },
        {
          "duration": 0.07,
          "phone": "m_I"
        },
        {
          "duration": 0.06,
          "phone": "b_I"
        },
        {
          "duration": 0.09,
          "phone": "er_E"
        }
      ],
      "start": 9.55,
      "startOffset": 134,
      "word": "CHAMBER"
    },
    {
      "alignedWord": "of",
      "case": "success",
      "end": 10.19,
      "endOffset": 144,
      "phones": [
        {
          "duration": 0.07,
          "phone": "ah_B"
        },
        {
          "duration": 0.08,
          "phone": "v_E"
        }
      ],
      "start": 10.04,
      "startOffset": 142,
      "word": "OF"
    },
    {
      "alignedWord": "the",
      "case": "success",
      "end": 10.29,
      "endOffset": 148,
      "phones": [
        {
          "duration": 0.01,
          "phone": "dh_B"
        },
        {
          "duration": 0.09,
          "phone": "ah_E"
        }
      ],
      "start": 10.19,
      "startOffset": 145,
      "word": "THE"
    },
    {
      "alignedWord": "spirit",
      "case": "success",
      "end": 10.809999999999999,
      "endOffset": 155,
      "phones": [
        {
          "duration": 0.1,
          "phone": "s_B"
        },
        {
          "duration": 0.08,
          "phone": "p_I"
        },
        {
          "duration": 0.11,
          "phone": "ih_I"
        },
        {
          "duration": 0.08,
          "phone": "r_I"
        },
        {
          "duration": 0.04,
          "phone": "ih_I"
        },
        {
          "duration": 0.11,
          "phone": "t_E"
        }
      ],
      "start": 10.29,
      "startOffset": 149,
      "word": "SPIRIT"
    },
    {
      "alignedWord": "which",
      "case": "success",
      "end": 11.16,
      "endOffset": 161,
      "phones": [
        {
          "duration": 0.1,
          "phone": "w_B"
        },
        {
          "duration": 0.05,
          "phone": "ih_I"
        },
        {
          "duration": 0.15,
          "phone": "ch_E"
        }
      ],
      "start": 10.86,
      "startOffset": 156,
      "word": "WHICH"
    },
    {
      "alignedWord": "the",
      "case": "success",
      "end": 11.3,
      "endOffset": 165,
      "phones": [
        {
          "duration": 0.07,
          "phone": "dh_B"
        },
        {
          "duration": 0.07,
          "phone": "ah_E"
        }
      ],
      "start": 11.16,
      "startOffset": 162,
      "word": "THE"
    },
    {
      "alignedWord": "one",
      "case": "success",
      "end": 11.73,
      "endOffset": 169,
      "phones": [
        {
          "duration": 0.16,
          "phone": "w_B"
        },
        {
          "duration": 0.11,
          "phone": "ah_I"
        },
        {
          "duration": 0.16,
          "phone": "n_E"
        }
      ],
      "start": 11.3,
      "startOffset": 166,
      "word": "ONE"
    },
    {
      "alignedWord": "spirit",
      "case": "success",
      "end": 12.27,
      "endOffset": 176,
      "phones": [
        {
          "duration": 0.16,
          "phone": "s_B"
        },
        {
          "duration": 0.07,
          "phone": "p_I"
        },
        {
          "duration": 0.08,
          "phone": "ih_I"
        },
        {
          "duration": 0.08,
          "phone": "r_I"
        },
        {
          "duration": 0.06,
          "phone": "ih_I"
        },
        {
          "duration": 0.08,
          "phone": "t_E"
        }
      ],
      "start": 11.74,
      "startOffset": 170,
      "word": "SPIRIT"
    },
    {
      "alignedWord": "bearing",
      "case": "success",
      "end": 12.7,
      "endOffset": 184,
      "phones": [
        {
          "duration": 0.06,
          "phone": "b_B"
        },
        {
          "duration": 0.08,
          "phone": "eh_I"
        },
        {
          "duration": 0.07,
          "phone": "r_I"
        },
        {
          "duration": 0.08,
          "phone": "ih_I"
        },
        {
          "duration": 0.13,
          "phone": "ng_E"
        }
      ],
      "start": 12.28,
      "startOffset": 177,
      "word": "BEARING"
    },
    {
      "alignedWord": "spirit",
      "case": "success",
      "end": 13.22,
      "endOffset": 191,
      "phones": [
        {
          "duration": 0.11,
          "phone": "s_B"
        },
        {
          "duration": 0.08,
          "phone": "p_I"
        },
        {
          "duration": 0.09,
          "phone": "ih_I"
        },
        {
          "duration": 0.07,
          "phone": "r_I"
        },
        {
          "duration": 0.06,
          "phone": "ih_I"
        },
        {
          "duration": 0.1,
          "phone": "t_E"
        }
      ],
      "start": 12.71,
      "startOffset": 185,
      "word": "SPIRIT"
    }
  ]
}