{
  "transcript": "BUT THE GREAT THING WAS THAT IT SHOULD BE ALL READY FOR ME WOULD RISE UP BEFORE ME AND I SHOULD COME OUT INTO THE LIGHT OF DAY ALMOST RIDING A WHITE HORSE AND CROWNED WITH LAUREL ANYTHING BUT THE FOREMOST PLACE I COULD NOT CONCEIVE FOR MYSELF",
  "words": [
    {
      "alignedWord": "but",
      "case": "success",
      "end": 0.27,
      "endOffset": 3,
      "phones": [
        {
          "duration": 0.03,
          "phone": "b_B"
        },
        {
          "duration": 0.02,
          "phone": "ah_I"
        },
        {
          "duration": 0.06,
          "phone": "t_E"
        }
      ],
      "start": 0.16,
      "startOffset": 0,
      "word": "BUT"
    },
    {
      "alignedWord": "the",
      "case": "success",
      "end": 0.35000000000000003,
      "endOffset": 7,
      "phones": [
        {
          "duration": 0.03,
          "phone": "dh_B"
        },
        {
          "duration": 0.05,
          "phone": "ah_E"
        }
      ],
      "start": 0.27,
      "startOffset": 4,
      "word": "THE"
    },
    {
      "alignedWord": "great",
      "case": "success",
      "end": 0.6499999999999999,
      "endOffset": 13,
      "phones": [
        {
          "duration": 0.07,
          "phone": "g_B"
        },
        {
          "duration": 0.08,
          "phone": "r_I"
        },
        {
          "duration": 0.06,
          "phone": "ey_I"
        },
        {
          "duration": 0.09,
          "phone": "t_E"
        }
      ],
      "start": 0.35,
      "startOffset": 8,
      "word": "GREAT"
    },
    {
      "alignedWord": "thing",
      "case": "success",
      "end": 0.96,
      "endOffset": 19,
      "phones": [
        {
          "duration": 0.09,
          "phone": "th_B"
        },
        {
          "duration": 0.12,
          "phone": "ih_I"
        },
        {
          "duration": 0.1,
          "phone": "ng_E"
        }
      ],
      "start": 0.65,
      "startOffset": 14,
      "word": "THING"
    },
    {
      "alignedWord": "was",
      "case": "success",
      "end": 1.16,
      "endOffset": 23,
      "phones": [
        {
          "duration": 0.08,
          "phone": "w_B"
        },
        {
          "duration": 0.06,
          "phone": "ah_I"
        },
        {
          "duration": 0.06,
          "phone": "z_E"
        }
      ],
      "start": 0.96,
      "startOffset": 20,
      "word": "WAS"
    },
    {
      "alignedWord": "that",
      "case": "success",
      "end": 1.29,
      "endOffset": 28,
      "phones": [
        {
          "duration": 0.04,
          "phone": "dh_B"
        },
        {
          "duration": 0.04,
          "phone": "ah_I"
        },
        {
          "duration": 0.05,
          "phone": "t_E"
        }
      ],
      "start": 1.16,
      "startOffset": 24,
      "word": "THAT"
    },
    {
      "alignedWord": "it",
      "case": "success",
      "end": 1.3900000000000001,
      "endOffset": 31,
      "phones": [
        {
          "duration": 0.03,
          "phone": "ih_B"
        },
        {
          "duration": 0.07,
          "phone": "t_E"
        }
      ],
      "start": 1.29,
      "startOffset": 29,
      "word": "IT"
    },
    {
      "alignedWord": "should",
      "case": "success",
      "end": 1.67,
      "endOffset": 38,
      "phones": [
        {
          "duration": 0.09,
          "phone": "sh_B"
        },
        {
          "duration": 0.07,
          "phone": "uh_I"
        },
        {
          "duration": 0.12,
          "phone": "d_E"
        }
      ],
      "start": 1.39,
      "startOffset": 32,
      "word": "SHOULD"
    },
    {
      "alignedWord": "be",
      "case": "success",
      "end": 1.95,
      "endOffset": 41,
      "phones": [
        {
          "duration": 0.07,
          "phone": "b_B"
        },
        {
          "duration": 0.11,
          "phone": "iy_E"
        }
      ],
      "start": 1.77,
      "startOffset": 39,
      "word": "BE"
    },
    {
      "alignedWord": "all",
      "case": "success",
      "end": 2.38,
      "endOffset": 45,
      "phones": [
        {
          "duration": 0.1,
          "phone": "ao_B"
        },
        {
          "duration": 0.23,
          "phone": "l_E"
        }
      ],
      "start": 2.05,
      "startOffset": 42,
      "word": "ALL"
    },
    {
      "alignedWord": "ready",
      "case": "success",
      "end": 2.74,
      "endOffset": 51,
      "phones": [
        {
          "duration": 0.11,
          "phone": "r_B"
        },
        {
          "duration": 0.08,
          "phone": "eh_I"
        },
        {
          "duration": 0.05,
          "phone": "d_I"
        },
        {
          "duration": 0.11,
          "phone": "iy_E"
        }
      ],
      "start": 2.39,
      "startOffset": 46,
      "word": "READY"
    },
    {
      "alignedWord": "for",
      "case": "success",
      "end": 3.0200000000000005,
      "endOffset": 55,
      "phones": [
        {
          "duration": 0.14,
          "phone": "f_B"
        },
        {
          "duration": 0.08,
          "phone": "ao_I"
        },
        {
          "duration": 0.06,
          "phone": "r_E"
        }
      ],
      "start": 2.74,
      "startOffset": 52,
      "word": "FOR"
    },
    {
      "alignedWord": "me",
      "case": "success",
      "end": 3.25,
      "endOffset": 58,
      "phones": [
        {
          "duration": 0.08,
          "phone": "m_B"
        },
        {
          "duration": 0.15,
          "phone": "iy_E"
        }
      ],
      "start": 3.02,
      "startOffset": 56,
      "word": "ME"
    },
    {
      "alignedWord": "would",
      "case": "success",
      "end": 4.19,
      "endOffset": 64,
      "phones": [
        {
          "duration": 0.1,
          "phone": "w_B"
        },
        {
          "duration": 0.05,
          "phone": "uh_I"
        },
        {
          "duration": 0.09,
          "phone": "d_E"
        }
      ],
      "start": 3.95,
      "startOffset": 59,
      "word": "WOULD"
    },
    {
      "alignedWord": "rise",
      "case": "success",
      "end": 4.53,
      "endOffset": 69,
      "phones": [
        {
          "duration": 0.11,
          "phone": "r_B"
        },
        {
          "duration": 0.13,
          "phone": "ay_I"
        },
        {
          "duration": 0.1,
          "phone": "z_E"
        }
      ],
      "start": 4.19,
      "startOffset": 65,
      "word": "RISE"
    },
    {
      "alignedWord": "up",
      "case": "success",
      "end": 4.87,
      "endOffset": 72,
      "phones": [
        {
          "duration": 0.11,
          "phone": "ah_B"
        },
        {
          "duration": 0.23,
          "phone": "p_E"
        }
      ],
      "start": 4.53,
      "startOffset": 70,
      "word": "UP"
    },
    {
      "alignedWord": "before",
      "case": "success",
      "end": 5.33,
      "endOffset": 79,
      "phones": [
        {
          "duration": 0.06,
          "phone": "b_B"
        },
        {
          "duration": 0.06,
          "phone": "ih_I"
        },
        {
          "duration": 0.12,
          "phone": "f_I"
        },
        {
          "duration": 0.1,
          "phone": "ao_I"
        },
        {
          "duration": 0.06,
          "phone": "r_E"
        }
      ],
      "start": 4.93,
      "startOffset": 73,
      "word": "BEFORE"
    },
    {
      "alignedWord": "me",
      "case": "success",
      "end": 5.55,
      "endOffset": 82,
      "phones": [
        {
          "duration": 0.07,
          "phone": "m_B"
        },
        {
          "duration": 0.15,
          "phone": "iy_E"
        }
      ],
      "start": 5.33,
      "startOffset": 80,
      "word": "ME"
    },
    {
      "alignedWord": "and",
      "case": "success",
      "end": 5.93,
      "endOffset": 86,
      "phones": [
        {
          "duration": 0.09,
          "phone": "ae_B"
        },
        {
          "duration": 0.03,
          "phone": "n_I"
        },
        {
          "duration": 0.05,
          "phone": "d_E"
        }
      ],
      "start": 5.76,
      "startOffset": 83,
      "word": "AND"
    },
    {
      "alignedWord": "i",
      "case": "success",
      "end": 6.2,
      "endOffset": 88,
      "phones": [
        {
          "duration": 0.22,
          "phone": "ay_S"
        }
      ],
      "start": 5.98,
      "startOffset": 87,
      "word": "I"
    },
    {
      "alignedWord": "should",
      "case": "success",
      "end": 6.42,
      "endOffset": 95,
      "phones": [
        {
          "duration": 0.01,
          "phone": "sh_B"
        },
        {
          "duration": 0.01,
          "phone": "uh_I"
        },
        {
          "duration": 0.08,
          "phone": "d_E"
        }
      ],
      "start": 6.32,
      "startOffset": 89,
      "word": "SHOULD"
    },
    {
      "alignedWord": "come",
      "case": "success",
      "end": 6.66,
      "endOffset": 100,
      "phones": [
        {
          "duration": 0.07,
          "phone": "k_B"
        },
        {
          "duration": 0.09,
          "phone": "ah_I"
        },
        {
          "duration": 0.08,
          "phone": "m_E"
        }
      ],
      "start": 6.42,
      "startOffset": 96,
      "word": "COME"
    },
    {
      "alignedWord": "out",
      "case": "success",
      "end": 6.87,
      "endOffset": 104,
      "phones": [
        {
          "duration": 0.12,
          "phone": "aw_B"
        },
        {
          "duration": 0.09,
          "phone": "t_E"
        }
      ],
      "start": 6.66,
      "startOffset": 101,
      "word": "OUT"
    },
    {
      "alignedWord": "into",
      "case": "success",
      "end": 7.18,
      "endOffset": 109,
      "phones": [
        {
          "duration": 0.11,
          "phone": "ih_B"
        },
        {
          "duration": 0.08,
          "phone": "n_I"
        },
        {
          "duration": 0.05,
          "phone": "t_I"
        },
        {
          "duration": 0.06,
          "phone": "uw_E"
        }
      ],
      "start": 6.88,
      "startOffset": 105,
      "word": "INTO"
    },
    {
      "alignedWord": "the",
      "case": "success",
      "end": 7.319999999999999,
      "endOffset": 113,
      "phones": [
        {
          "duration": 0.06,
          "phone": "dh_B"
        },
        {
          "duration": 0.08,
          "phone": "ah_E"
        }
      ],
      "start": 7.18,
      "startOffset": 110,
      "word": "THE"
    },
    {
      "alignedWord": "light",
      "case": "success",
      "end": 7.5600000000000005,
      "endOffset": 119,
      "phones": [
        {
          "duration": 0.08,
          "phone": "l_B"
        },
        {
          "duration": 0.1,
          "phone": "ay_I"
        },
        {
          "duration": 0.06,
          "phone": "t_E"
        }
      ],
      "start": 7.32,
      "startOffset": 114,
      "word": "LIGHT"
    },
    {
      "alignedWord": "of",
      "case": "success",
      "end": 7.699999999999999,
      "endOffset": 122,
      "phones": [
        {
          "duration": 0.04,
          "phone": "ah_B"
        },
        {
          "duration": 0.1,
          "phone": "v_E"
        }
      ],
      "start": 7.56,
      "startOffset": 120,
      "word": "OF"
    },
    {
      "alignedWord": "day",
      "case": "success",
      "end": 8.05,
      "endOffset": 126,
      "phones": [
        {
          "duration": 0.09,
          "phone": "d_B"
        },
        {
          "duration": 0.26,
          "phone": "ey_E"
        }
      ],
      "start": 7.7,
      "startOffset": 123,
      "word": "DAY"
    },
    {
      "alignedWord": "almost",
      "case": "success",
      "end": 8.86,
      "endOffset": 133,
      "phones": [
        {
          "duration": 0.16,
          "phone": "ao_B"
        },
        {
          "duration": 0.08,
          "phone": "l_I"
        },
        {
          "duration": 0.06,
          "phone": "m_I"
        },
        {
          "duration": 0.08,
          "phone": "ow_I"
        },
        {
          "duration": 0.07,
          "phone": "s_I"
        },
        {
          "duration": 0.08,
          "phone": "t_E"
        }
      ],
      "start": 8.33,
      "startOffset": 127,
      "word": "ALMOST"
    },
    {
      "alignedWord": "riding",
      "case": "success",
      "end": 9.19,
      "endOffset": 140,
      "phones": [
        {
          "duration": 0.09,
          "phone": "r_B"
        },
        {
          "duration": 0.08,
          "phone": "ay_I"
        },
        {
          "duration": 0.04,
          "phone": "d_I"
        },
        {
          "duration": 0.04,
          "phone": "ih_I"
        },
        {
          "duration": 0.08,
          "phone": "ng_E"
        }
      ],
      "start": 8.86,
      "startOffset": 134,
      "word": "RIDING"
    },
    {
      "alignedWord": "a",
      "case": "success",
      "end": 9.25,
      "endOffset": 142,
      "phones": [
        {
          "duration": 0.06,
          "phone": "ah_S"
        }
      ],
      "start": 9.19,
      "startOffset": 141,
      "word": "A"
    },
    {
      "alignedWord": "white",
      "case": "success",
      "end": 9.57,
      "endOffset": 148,
      "phones": [
        {
          "duration": 0.15,
          "phone": "w_B"
        },
        {
          "duration": 0.11,
          "phone": "ay_I"
        },
        {
          "duration": 0.06,
          "phone": "t_E"
        }
      ],
      "start": 9.25,
      "startOffset": 143,
      "word": "WHITE"
    },
    {
      "alignedWord": "horse",
      "case": "success",
      "end": 9.9,
      "endOffset": 154,
      "phones": [
        {
          "duration": 0.08,
          "phone": "hh_B"
        },
        {
          "duration": 0.12,
          "phone": "ao_I"
        },
        {
          "duration": 0.06,
          "phone": "r_I"
        },
        {
          "duration": 0.07,
          "phone": "s_E"
        }
      ],
      "start": 9.57,
      "startOffset": 149,
      "word": "HORSE"
    },
    {
      "alignedWord": "and",
      "case": "success",
      "end": 10.089999,
      "endOffset": 158,
      "phones": [
        {
          "duration": 0.06,
          "phone": "ae_B"
        },
        {
          "duration": 0.04,
          "phone": "n_I"
        },
        {
          "duration": 0.06,
          "phone": "d_E"
        }
      ],
      "start": 9.929999,
      "startOffset": 155,
      "word": "AND"
    },
    {
      "alignedWord": "crowned",
      "case": "success",
      "end": 10.51,
      "endOffset": 166,
      "phones": [
        {
          "duration": 0.12,
          "phone": "k_B"
        },
        {
          "duration": 0.07,
          "phone": "r_I"
        },
        {
          "duration": 0.13,
          "phone": "aw_I"
        },
        {
          "duration": 0.06,
          "phone": "n_I"
        },
        {
          "duration": 0.04,
          "phone": "d_E"
        }
      ],
      "start": 10.09,
      "startOffset": 159,
      "word": "CROWNED"
    },
    {
      "alignedWord": "with",
      "case": "success",
      "end": 10.7,
      "endOffset": 171,
      "phones": [
        {
          "duration": 0.07,
          "phone": "w_B"
        },
        {
          "duration": 0.03,
          "phone": "ih_I"
        },
        {
          "duration": 0.08,
          "phone": "th_E"
        }
      ],
      "start": 10.52,
      "startOffset": 167,
      "word": "WITH"
    },
    {
      "alignedWord": "laurel",
      "case": "success",
      "end": 11.170000000000002,
      "endOffset": 178,
      "phones": [
        {
          "duration": 0.09,
          "phone": "l_B"
        },
        {
          "duration": 0.12,
          "phone": "ao_I"
        },
        {
          "duration": 0.06,
          "phone": "r_I"
        },
        {
          "duration": 0.08,
          "phone": "ah_I"
        },
        {
          "duration": 0.11,
          "phone": "l_E"
        }
      ],
      "start": 10.71,
      "startOffset": 172,
      "word": "LAUREL"
    },
    {
      "alignedWord": "anything",
      "case": "success",
      "end": 12.47,
      "endOffset": 187,
      "phones": [
        {
          "duration": 0.14,
          "phone": "eh_B"
        },
        {
          "duration": 0.07,
          "phone": "n_I"
        },
        {
          "duration": 0.08,
          "phone": "iy_I"
        },
        {
          "duration": 0.08,
          "phone": "th_I"
        },
        {
          "duration": 0.09,
          "phone": "ih_I"
        },
        {
          "duration": 0.09,
          "phone": "ng_E"
        }
      ],
      "start": 11.92,
      "startOffset": 179,
      "word": "ANYTHING"
    },
    {
      "alignedWord": "but",
      "case": "success",
      "end": 12.609999,
      "endOffset": 191,
      "phones": [
        {
          "duration": 0.05,
          "phone": "b_B"
        },
        {
          "duration": 0.03,
          "phone": "ah_I"
        },
        {
          "duration": 0.06,
          "phone": "t_E"
        }
      ],
      "start": 12.469999,
      "startOffset": 188,
      "word": "BUT"
    },
    {
      "alignedWord": "the",
      "case": "success",
      "end": 12.709999999999999,
      "endOffset": 195,
      "phones": [
        {
          "duration": 0.03,
          "phone": "dh_B"
        },
        {
          "duration": 0.07,
          "phone": "ah_E"
        }
      ],
      "start": 12.61,
      "startOffset": 192,
      "word": "THE"
    },
    {
      "alignedWord": "foremost",
      "case": "success",
      "end": 13.3,
      "endOffset": 204,
      "phones": [
        {
          "duration": 0.13,
          "phone": "f_B"
        },
        {
          "duration": 0.11,
          "phone": "ao_I"
        },
        {
          "duration": 0.07,
          "phone": "r_I"
        },
        {
          "duration": 0.08,
          "phone": "m_I"
        },
        {
          "duration": 0.07,
          "phone": "ow_I"
        },
        {
          "duration": 0.1,
          "phone": "s_I"
        },
        {
          "duration": 0.03,
          "phone": "t_E"
        }
      ],
      "start": 12.71,
      "startOffset": 196,
      "word": "FOREMOST"
    },
    {
      "alignedWord": "place",
      "case": "success",
      "end": 13.69,
      "endOffset": 210,
      "phones": [
        {
          "duration": 0.07,
          "phone": "p_B"
        },
        {
          "duration": 0.09,
          "phone": "l_I"
        },
        {
          "duration": 0.11,
          "phone": "ey_I"
        },
        {
          "duration": 0.1,
          "phone": "s_E"
        }
      ],
      "start": 13.32,
      "startOffset": 205,
      "word": "PLACE"
    },
    {
      "alignedWord": "i",
      "case": "success",
      "end": 13.860000000000001,
      "endOffset": 212,
      "phones": [
        {
          "duration": 0.13,
          "phone": "ay_S"
        }
      ],
      "start": 13.73,
      "startOffset": 211,
      "word": "I"
    },
    {
      "alignedWord": "could",
      "case": "success",
      "end": 14.049999999999999,
      "endOffset": 218,
      "phones": [
        {
          "duration": 0.07,
          "phone": "k_B"
        },
        {
          "duration": 0.04,
          "phone": "uh_I"
        },
        {
          "duration": 0.08,
          "phone": "d_E"
        }
      ],
      "start": 13.86,
      "startOffset": 213,
      "word": "COULD"
    },
    {
      "alignedWord": "not",
      "case": "success",
      "end": 14.269999,
      "endOffset": 222,
      "phones": [
        {
          "duration": 0.05,
          "phone": "n_B"
        },
        {
          "duration": 0.1,
          "phone": "aa_I"
        },
        {
          "duration": 0.07,
          "phone": "t_E"
        }
      ],
      "start": 14.049999,
      "startOffset": 219,
      "word": "NOT"
    },
    {
      "alignedWord": "conceive",
      "case": "success",
      "end": 14.79,
      "endOffset": 231,
      "phones": [
        {
          "duration": 0.07,
          "phone": "k_B"
        },
        {
          "duration": 0.05,
          "phone": "ah_I"
        },
        {
          "duration": 0.07,
          "phone": "n_I"
        },
        {
          "duration": 0.13,
          "phone": "s_I"
        },
        {
          "duration": 0.13,
          "phone": "iy_I"
        },
        {
          "duration": 0.05,
          "phone": "v_E"
        }
      ],
      "start": 14.29,
      "startOffset": 223,
      "word": "CONCEIVE"
    },
    {
      "alignedWord": "for",
      "case": "success",
      "end": 14.919998999999999,
      "endOffset": 235,
      "phones": [
        {
          "duration": 0.06,
          "phone": "f_B"
        },
        {
          "duration": 0.06,
          "phone": "er_E"
        }
      ],
      "start": 14.799999,
      "startOffset": 232,
      "word": "FOR"
    },
    {
      "alignedWord": "myself",
      "case": "success",
      "end": 15.53,
      "endOffset": 242,
      "phones": [
        {
          "duration": 0.07,
          "phone": "m_B"
        },
        {
          "duration": 0.09,
          "phone": "ay_I"
        },
        {
          "duration": 0.09,
          "phone": "s_I"
        },
        {
          "duration": 0.1,
          "phone": "eh_I"
        },
        {
          "duration": 0.1,
          "phone": "l_I"
        },
        {
          "duration": 0.16,
          "phone": "f_E"
        }
      ],
      "start": 14.92,
      "startOffset": 236,
      "word": "MYSELF"
    }
  ]
}