{
  "transcript": "AFRAID TO SHOUT ANYTHING WHICH SHOULD CONVEY THE SLIGHTEST CLUE AS TO THE WHEREABOUTS OF THE LETTERS AS THE NEXT BEST THING I PULLED A COUPLE OF OLD SECTION REPORTS FROM MY POCKET",
  "words": [
    {
      "alignedWord": "afraid",
      "case": "success",
      "end": 1.1,
      "endOffset": 6,
      "phones": [
        {
          "duration": 0.14,
          "phone": "ah_B"
        },
        {
          "duration": 0.11,
          "phone": "f_I"
        },
        {
          "duration": 0.1,
          "phone": "r_I"
        },
        {
          "duration": 0.1,
          "phone": "ey_I"
        },
        {
          "duration": 0.17,
          "phone": "d_E"
        }
      ],
      "start": 0.48,
      "startOffset": 0,
      "word": "AFRAID"
    },
    {
      "alignedWord": "to",
      "case": "success",
      "end": 1.4,
      "endOffset": 9,
      "phones": [
        {
          "duration": 0.1,
          "phone": "t_B"
        },
        {
          "duration": 0.11,
          "phone": "uw_E"
        }
      ],
      "start": 1.19,
      "startOffset": 7,
      "word": "TO"
    },
    {
      "alignedWord": "shout",
      "case": "success",
      "end": 1.7999999999999998,
      "endOffset": 15,
      "phones": [
        {
          "duration": 0.16,
          "phone": "sh_B"
        },
        {
          "duration": 0.15,
          "phone": "aw_I"
        },
        {
          "duration": 0.09,
          "phone": "t_E"
        }
      ],
      "start": 1.4,
      "startOffset": 10,
      "word": "SHOUT"
    },
    {
      "alignedWord": "anything",
      "case": "success",
      "end": 2.49,
      "endOffset": 24,
      "phones": [
        {
          "duration": 0.07,
          "phone": "eh_B"
        },
        {
          "duration": 0.08,
          "phone": "n_I"
        },
        {
          "duration": 0.1,
          "phone": "iy_I"
        },
        {
          "duration": 0.1,
          "phone": "th_I"
        },
        {
          "duration": 0.12,
          "phone": "ih_I"
        },
        {
          "duration": 0.19,
          "phone": "ng_E"
        }
      ],
      "start": 1.83,
      "startOffset": 16,
      "word": "ANYTHING"
    },
    {
      "alignedWord": "which",
      "case": "success",
      "end": 2.82,
      "endOffset": 30,
      "phones": [
        {
          "duration": 0.12,
          "phone": "w_B"
        },
        {
          "duration": 0.09,
          "phone": "ih_I"
        },
        {
          "duration": 0.11,
          "phone": "ch_E"
        }
      ],
      "start": 2.5,
      "startOffset": 25,
      "word": "WHICH"
    },
    {
      "alignedWord": "should",
      "case": "success",
      "end": 3.15,
      "endOffset": 37,
      "phones": [
        {
          "duration": 0.11,
          "phone": "sh_B"
        },
        {
          "duration": 0.1,
          "phone": "uh_I"
        },
        {
          "duration": 0.11,
          "phone": "d_E"
        }
      ],
      "start": 2.83,
      "startOffset": 31,
      "word": "SHOULD"
    },
    {
      "alignedWord": "convey",
      "case": "success",
      "end": 3.52,
      "endOffset": 44,
      "phones": [
        {
          "duration": 0.03,
          "phone": "k_B"
        },
        {
          "duration": 0.05,
          "phone": "ah_I"
        },
        {
          "duration": 0.07,
          "phone": "n_I"
        },
        {
          "duration": 0.1,
          "phone": "v_I"
        },
        {
          "duration": 0.12,
          "phone": "ey_E"
        }
      ],
      "start": 3.15,
      "startOffset": 38,
      "word": "CONVEY"
    },
    {
      "alignedWord": "the",
      "case": "success",
      "end": 3.67,
      "endOffset": 48,
      "phones": [
        {
          "duration": 0.08,
          "phone": "dh_B"
        },
        {
          "duration": 0.07,
          "phone": "ah_E"
        }
      ],
      "start": 3.52,
      "startOffset": 45,
      "word": "THE"
    },
    {
      "alignedWord": "slightest",
      "case": "success",
      "end": 4.37,
      "endOffset": 58,
      "phones": [
        {
          "duration": 0.12,
          "phone": "s_B"
        },
        {
          "duration": 0.09,
          "phone": "l_I"
        },
        {
          "duration": 0.1,
          "phone": "ay_I"
        },
        {
          "duration": 0.07,
          "phone": "t_I"
        },
        {
          "duration": 0.09,
          "phone": "ah_I"
        },
        {
          "duration": 0.11,
          "phone": "s_I"
        },
        {
          "duration": 0.12,
          "phone": "t_E"
        }
      ],
      "start": 3.67,
      "startOffset": 49,
      "word": "SLIGHTEST"
    },
    {
      "alignedWord": "clue",
      "case": "success",
      "end": 4.91,
      "endOffset": 63,
      "phones": [
        {
          "duration": 0.16,
          "phone": "k_B"
        },
        {
          "duration": 0.09,
          "phone": "l_I"
        },
        {
          "duration": 0.25,
          "phone": "uw_E"
        }
      ],
      "start": 4.41,
      "startOffset": 59,
      "word": "CLUE"
    },
    {
      "alignedWord": "as",
      "case": "success",
      "end": 5.2700000000000005,
      "endOffset": 66,
      "phones": [
        {
          "duration": 0.2,
          "phone": "ae_B"
        },
        {
          "duration": 0.12,
          "phone": "z_E"
        }
      ],
      "start": 4.95,
      "startOffset": 64,
      "word": "AS"
    },
    {
      "alignedWord": "to",
      "case": "success",
      "end": 5.58,
      "endOffset": 69,
      "phones": [
        {
          "duration": 0.08,
          "phone": "t_B"
        },
        {
          "duration": 0.2,
          "phone": "uw_E"
        }
      ],
      "start": 5.3,
      "startOffset": 67,
      "word": "TO"
    },
    {
      "alignedWord": "the",
      "case": "success",
      "end": 5.97,
      "endOffset": 73,
      "phones": [
        {
          "duration": 0.09,
          "phone": "dh_B"
        },
        {
          "duration": 0.08,
          "phone": "ah_E"
        }
      ],
      "start": 5.8,
      "startOffset": 70,
      "word": "THE"
    },
    {
      "alignedWord": "whereabouts",
      "case": "success",
      "end": 6.67,
      "endOffset": 85,
      "phones": [
        {
          "duration": 0.1,
          "phone": "w_B"
        },
        {
          "duration": 0.09,
          "phone": "eh_I"
        },
        {
          "duration": 0.07,
          "phone": "r_I"
        },
        {
          "duration": 0.07,
          "phone": "ah_I"
        },
        {
          "duration": 0.08,
          "phone": "b_I"
        },
        {
          "duration": 0.13,
          "phone": "aw_I"
        },
        {
          "duration": 0.09,
          "phone": "t_I"
        },
        {
          "duration": 0.07,
          "phone": "s_E"
        }
      ],
      "start": 5.97,
      "startOffset": 74,
      "word": "WHEREABOUTS"
    },
    {
      "alignedWord": "of",
      "case": "success",
      "end": 6.82,
      "endOffset": 88,
      "phones": [
        {
          "duration": 0.07,
          "phone": "ah_B"
        },
        {
          "duration": 0.08,
          "phone": "v_E"
        }
      ],
      "start": 6.67,
      "startOffset": 86,
      "word": "OF"
    },
    {
      "alignedWord": "the",
      "case": "success",
      "end": 6.91,
      "endOffset": 92,
      "phones": [
        {
          "duration": 0.01,
          "phone": "dh_B"
        },
        {
          "duration": 0.08,
          "phone": "ah_E"
        }
      ],
      "start": 6.82,
      "startOffset": 89,
      "word": "THE"
    },
    {
      "alignedWord": "letters",
      "case": "success",
      "end": 7.53,
      "endOffset": 100,
      "phones": [
        {
          "duration": 0.08,
          "phone": "l_B"
        },
        {
          "duration": 0.09,
          "phone": "eh_I"
        },
        {
          "duration": 0.06,
          "phone": "t_I"
        },
        {
          "duration": 0.19,
          "phone": "er_I"
        },
        {
          "duration": 0.2,
          "phone": "z_E"
        }
      ],
      "start": 6.91,
      "startOffset": 93,
      "word": "LETTERS"
    },
    {
      "alignedWord": "as",
      "case": "success",
      "end": 8.18,
      "endOffset": 103,
      "phones": [
        {
          "duration": 0.26,
          "phone": "ae_B"
        },
        {
          "duration": 0.12,
          "phone": "z_E"
        }
      ],
      "start": 7.8,
      "startOffset": 101,
      "word": "AS"
    },
    {
      "alignedWord": "the",
      "case": "success",
      "end": 8.289999,
      "endOffset": 107,
      "phones": [
        {
          "duration": 0.05,
          "phone": "dh_B"
        },
        {
          "duration": 0.06,
          "phone": "ah_E"
        }
      ],
      "start": 8.179999,
      "startOffset": 104,
      "word": "THE"
    },
    {
      "alignedWord": "next",
      "case": "success",
      "end": 8.819999999999999,
      "endOffset": 112,
      "phones": [
        {
          "duration": 0.07,
          "phone": "n_B"
        },
        {
          "duration": 0.08,
          "phone": "eh_I"
        },
        {
          "duration": 0.09,
          "phone": "k_I"
        },
        {
          "duration": 0.13,
          "phone": "s_I"
        },
        {
          "duration": 0.16,
          "phone": "t_E"
        }
      ],
      "start": 8.29,
      "startOffset": 108,
      "word": "NEXT"
    },
    {
      "alignedWord": "best",
      "case": "success",
      "end": 9.32,
      "endOffset": 117,
      "phones": [
        {
          "duration": 0.12,
          "phone": "b_B"
        },
        {
          "duration": 0.11,
          "phone": "eh_I"
        },
        {
          "duration": 0.14,
          "phone": "s_I"
        },
        {
          "duration": 0.09,
          "phone": "t_E"
        }
      ],
      "start": 8.86,
      "startOffset": 113,
      "word": "BEST"
    },
    {
      "alignedWord": "thing",
      "case": "success",
      "end": 9.81,
      "endOffset": 123,
      "phones": [
        {
          "duration": 0.13,
          "phone": "th_B"
        },
        {
          "duration": 0.19,
          "phone": "ih_I"
        },
        {
          "duration": 0.16,
          "phone": "ng_E"
        }
      ],
      "start": 9.33,
      "startOffset": 118,
      "word": "THING"
    },
    {
      "alignedWord": "i",
      "case": "success",
      "end": 10.249999,
      "endOffset": 125,
      "phones": [
        {
          "duration": 0.15,
          "phone": "ay_S"
        }
      ],
      "start": 10.099999,
      "startOffset": 124,
      "word": "I"
    },
    {
      "alignedWord": "pulled",
      "case": "success",
      "end": 10.56,
      "endOffset": 132,
      "phones": [
        {
          "duration": 0.09,
          "phone": "p_B"
        },
        {
          "duration": 0.09,
          "phone": "uh_I"
        },
        {
          "duration": 0.07,
          "phone": "l_I"
        },
        {
          "duration": 0.06,
          "phone": "d_E"
        }
      ],
      "start": 10.25,
      "startOffset": 126,
      "word": "PULLED"
    },
    {
      "alignedWord": "a",
      "case": "success",
      "end": 10.629999,
      "endOffset": 134,
      "phones": [
        {
          "duration": 0.07,
          "phone": "ah_S"
        }
      ],
      "start": 10.559999,
      "startOffset": 133,
      "word": "A"
    },
    {
      "alignedWord": "couple",
      "case": "success",
      "end": 11.040000000000001,
      "endOffset": 141,
      "phones": [
        {
          "duration": 0.09,
          "phone": "k_B"
        },
        {
          "duration": 0.08,
          "phone": "ah_I"
        },
        {
          "duration": 0.07,
          "phone": "p_I"
        },
        {
          "duration": 0.01,
          "phone": "ah_I"
        },
        {
          "duration": 0.16,
          "phone": "l_E"
        }
      ],
      "start": 10.63,
      "startOffset": 135,
      "word": "COUPLE"
    },
    {
      "alignedWord": "of",
      "case": "success",
      "end": 11.18,
      "endOffset": 144,
      "phones": [
        {
          "duration": 0.04,
          "phone": "ah_B"
        },
        {
          "duration": 0.1,
          "phone": "v_E"
        }
      ],
      "start": 11.04,
      "startOffset": 142,
      "word": "OF"
    },
    {
      "alignedWord": "old",
      "case": "success",
      "end": 11.6,
      "endOffset": 148,
      "phones": [
        {
          "duration": 0.13,
          "phone": "ow_B"
        },
        {
          "duration": 0.18,
          "phone": "l_I"
        },
        {
          "duration": 0.09,
          "phone": "d_E"
        }
      ],
      "start": 11.2,
      "startOffset": 145,
      "word": "OLD"
    },
    {
      "alignedWord": "section",
      "case": "success",
      "end": 12.18,
      "endOffset": 156,
      "phones": [
        {
          "duration": 0.14,
          "phone": "s_B"
        },
        {
          "duration": 0.09,
          "phone": "eh_I"
        },
        {
          "duration": 0.07,
          "phone": "k_I"
        },
        {
          "duration": 0.08,
          "phone": "sh_I"
        },
        {
          "duration": 0.09,
          "phone": "ah_I"
        },
        {
          "duration": 0.1,
          "phone": "n_E"
        }
      ],
      "start": 11.61,
      "startOffset": 149,
      "word": "SECTION"
    },
    {
      "alignedWord": "reports",
      "case": "success",
      "end": 12.749999,
      "endOffset": 164,
      "phones": [
        {
          "duration": 0.04,
          "phone": "r_B"
        },
        {
          "duration": 0.07,
          "phone": "ih_I"
        },
        {
          "duration": 0.11,
          "phone": "p_I"
        },
        {
          "duration": 0.11,
          "phone": "ao_I"
        },
        {
          "duration": 0.05,
          "phone": "r_I"
        },
        {
          "duration": 0.08,
          "phone": "t_I"
        },
        {
          "duration": 0.11,
          "phone": "s_E"
        }
      ],
      "start": 12.179999,
      "startOffset": 157,
      "word": "REPORTS"
    },
    {
      "alignedWord": "from",
      "case": "success",
      "end": 12.959999,
      "endOffset": 169,
      "phones": [
        {
          "duration": 0.06,
          "phone": "f_B"
        },
        {
          "duration": 0.04,
          "phone": "r_I"
        },
        {
          "duration": 0.04,
          "phone": "ah_I"
        },
        {
          "duration": 0.06,
          "phone": "m_E"
        }
      ],
      "start": 12.759999,
      "startOffset": 165,
      "word": "FROM"
    },
    {
      "alignedWord": "my",
      "case": "success",
      "end": 13.15,
      "endOffset": 172,
      "phones": [
        {
          "duration": 0.07,
          "phone": "m_B"
        },
        {
          "duration": 0.12,
          "phone": "ay_E"
        }
      ],
      "start": 12.96,
      "startOffset": 170,
      "word": "MY"
    },
    {
      "alignedWord": "pocket",
      "case": "success",
      "end": 13.66,
      "endOffset": 179,
      "phones": [
        {
          "duration": 0.11,
          "phone": "p_B"
        },
        {
          "duration": 0.12,
          "phone": "aa_I"
        },
        {
          "duration": 0.1,
          "phone": "k_I"
        },
        {
          "duration": 0.08,
          "phone": "ah_I"
        },
        {
          "duration": 0.1,
          "phone": "t_E"
        }
      ],
      "start": 13.15,
      "startOffset": 173,
      "word": "POCKET"
    }
  ]
}