{
  "transcript": "WHO HAD STAYED UP TO SPREAD OUT SOME LINEN TO DRY EPONINE MADE A FINAL EFFORT WELL SAID SHE THEY'RE VERY POOR FOLKS",
  "words": [
    {
      "alignedWord": "who",
      "case": "success",
      "end": 0.44,
      "endOffset": 3,
      "phones": [
        {
          "duration": 0.07,
          "phone": "hh_B"
        },
        {
          "duration": 0.07,
          "phone": "uw_E"
        }
      ],
      "start": 0.3,
      "startOffset": 0,
      "word": "WHO"
    },
    {
      "alignedWord": "had",
      "case": "success",
      "end": 0.55,
      "endOffset": 7,
      "phones": [
        {
          "duration": 0.01,
          "phone": "hh_B"
        },
        {
          "duration": 0.03,
          "phone": "ae_I"
        },
        {
          "duration": 0.07,
          "phone": "d_E"
        }
      ],
      "start": 0.44,
      "startOffset": 4,
      "word": "HAD"
    },
    {
      "alignedWord": "stayed",
      "case": "success",
      "end": 0.8900000000000001,
      "endOffset": 14,
      "phones": [
        {
          "duration": 0.09,
          "phone": "s_B"
        },
        {
          "duration": 0.09,
          "phone": "t_I"
        },
        {
          "duration": 0.1,
          "phone": "ey_I"
        },
        {
          "duration": 0.06,
          "phone": "d_E"
        }
      ],
      "start": 0.55,
      "startOffset": 8,
      "word": "STAYED"
    },
    {
      "alignedWord": "up",
      "case": "success",
      "end": 1.06,
      "endOffset": 17,
      "phones": [
        {
          "duration": 0.1,
          "phone": "ah_B"
        },
        {
          "duration": 0.06,
          "phone": "p_E"
        }
      ],
      "start": 0.9,
      "startOffset": 15,
      "word": "UP"
    },
    {
      "alignedWord": "to",
      "case": "success",
      "end": 1.19,
      "endOffset": 20,
      "phones": [
        {
          "duration": 0.05,
          "phone": "t_B"
        },
        {
          "duration": 0.08,
          "phone": "ih_E"
        }
      ],
      "start": 1.06,
      "startOffset": 18,
      "word": "TO"
    },
    {
      "alignedWord": "spread",
      "case": "success",
      "end": 1.63,
      "endOffset": 27,
      "phones": [
        {
          "duration": 0.11,
          "phone": "s_B"
        },
        {
          "duration": 0.09,
          "phone": "p_I"
        },
        {
          "duration": 0.06,
          "phone": "r_I"
        },
        {
          "duration": 0.09,
          "phone": "eh_I"
        },
        {
          "duration": 0.09,
          "phone": "d_E"
        }
      ],
      "start": 1.19,
      "startOffset": 21,
      "word": "SPREAD"
    },
    {
      "alignedWord": "out",
      "case": "success",
      "end": 1.95,
      "endOffset": 31,
      "phones": [
        {
          "duration": 0.18,
          "phone": "aw_B"
        },
        {
          "duration": 0.1,
          "phone": "t_E"
        }
      ],
      "start": 1.67,
      "startOffset": 28,
      "word": "OUT"
    },
    {
      "alignedWord": "some",
      "case": "success",
      "end": 2.23,
      "endOffset": 36,
      "phones": [
        {
          "duration": 0.11,
          "phone": "s_B"
        },
        {
          "duration": 0.07,
          "phone": "ah_I"
        },
        {
          "duration": 0.1,
          "phone": "m_E"
        }
      ],
      "start": 1.95,
      "startOffset": 32,
      "word": "SOME"
    },
    {
      "alignedWord": "linen",
      "case": "success",
      "end": 2.6100000000000003,
      "endOffset": 42,
      "phones": [
        {
          "duration": 0.09,
          "phone": "l_B"
        },
        {
          "duration": 0.07,
          "phone": "ih_I"
        },
        {
          "duration": 0.05,
          "phone": "n_I"
        },
        {
          "duration": 0.08,
          "phone": "ah_I"
        },
        {
          "duration": 0.08,
          "phone": "n_E"
        }
      ],
      "start": 2.24,
      "startOffset": 37,
      "word": "LINEN"
    },
    {
      "alignedWord": "to",
      "case": "success",
      "end": 2.73,
      "endOffset": 45,
      "phones": [
        {
          "duration": 0.07,
          "phone": "t_B"
        },
        {
          "duration": 0.05,
          "phone": "ih_E"
        }
      ],
      "start": 2.61,
      "startOffset": 43,
      "word": "TO"
    },
    {
      "alignedWord": "dry",
      "case": "success",
      "end": 3.16,
      "endOffset": 49,
      "phones": [
        {
          "duration": 0.07,
          "phone": "d_B"
        },
        {
          "duration": 0.09,
          "phone": "r_I"
        },
        {
          "duration": 0.27,
          "phone": "ay_E"
        }
      ],
      "start": 2.73,
      "startOffset": 46,
      "word": "DRY"
    },
    {
      "alignedWord": "<unk>",
      "case": "success",
      "end": 4.08,
      "endOffset": 57,
      "phones": [
        {
          "duration": 0.51,
          "phone": "oov_S"
        }
      ],
      "start": 3.57,
      "startOffset": 50,
      "word": "EPONINE"
    },
    {
      "alignedWord": "made",
      "case": "success",
      "end": 4.26,
      "endOffset": 62,
      "phones": [
        {
          "duration": 0.05,
          "phone": "m_B"
        },
        {
          "duration": 0.06,
          "phone": "ey_I"
        },
        {
          "duration": 0.05,
          "phone": "d_E"
        }
      ],
      "start": 4.1,
      "startOffset": 58,
      "word": "MADE"
    },
    {
      "alignedWord": "a",
      "case": "success",
      "end": 4.33,
      "endOffset": 64,
      "phones": [
        {
          "duration": 0.07,
          "phone": "ah_S"
        }
      ],
      "start": 4.26,
      "startOffset": 63,
      "word": "A"
    },
    {
      "alignedWord": "final",
      "case": "success",
      "end": 4.7,
      "endOffset": 70,
      "phones": [
        {
          "duration": 0.12,
          "phone": "f_B"
        },
        {
          "duration": 0.09,
          "phone": "ay_I"
        },
        {
          "duration": 0.01,
          "phone": "n_I"
        },
        {
          "duration": 0.1,
          "phone": "ah_I"
        },
        {
          "duration": 0.05,
          "phone": "l_E"
        }
      ],
      "start": 4.33,
      "startOffset": 65,
      "word": "FINAL"
    },
    {
      "alignedWord": "effort",
      "case": "success",
      "end": 5.19,
      "endOffset": 77,
      "phones": [
        {
          "duration": 0.1,
          "phone": "eh_B"
        },
        {
          "duration": 0.1,
          "phone": "f_I"
        },
        {
          "duration": 0.07,
          "phone": "er_I"
        },
        {
          "duration": 0.19,
          "phone": "t_E"
        }
      ],
      "start": 4.73,
      "startOffset": 71,
      "word": "EFFORT"
    },
    {
      "alignedWord": "well",
      "case": "success",
      "end": 6.32,
      "endOffset": 82,
      "phones": [
        {
          "duration": 0.19,
          "phone": "w_B"
        },
        {
          "duration": 0.18,
          "phone": "eh_I"
        },
        {
          "duration": 0.22,
          "phone": "l_E"
        }
      ],
      "start": 5.73,
      "startOffset": 78,
      "word": "WELL"
    },
    {
      "alignedWord": "said",
      "case": "success",
      "end": 6.78,
      "endOffset": 87,
      "phones": [
        {
          "duration": 0.17,
          "phone": "s_B"
        },
        {
          "duration": 0.08,
          "phone": "eh_I"
        },
        {
          "duration": 0.07,
          "phone": "d_E"
        }
      ],
      "start": 6.46,
      "startOffset": 83,
      "word": "SAID"
    },
    {
      "alignedWord": "she",
      "case": "success",
      "end": 7.17,
      "endOffset": 91,
      "phones": [
        {
          "duration": 0.15,
          "phone": "sh_B"
        },
        {
          "duration": 0.24,
          "phone": "iy_E"
        }
      ],
      "start": 6.78,
      "startOffset": 88,
      "word": "SHE"
    },
    {
      "alignedWord": "they're",
      "case": "success",
      "end": 8.1,
      "endOffset": 99,
      "phones": [
        {
          "duration": 0.12,
          "phone": "dh_B"
        },
        {
          "duration": 0.11,
          "phone": "eh_I"
        },
        {
          "duration": 0.05,
          "phone": "r_E"
        }
      ],
      "start": 7.82,
      "startOffset": 92,
      "word": "THEY'RE"
    },
    {
      "alignedWord": "very",
      "case": "success",
      "end": 8.599999,
      "endOffset": 104,
      "phones": [
        {
          "duration": 0.17,
          "phone": "v_B"
        },
        {
          "duration": 0.11,
          "phone": "eh_I"
        },
        {
          "duration": 0.14,
          "phone": "r_I"
        },
        {
          "duration": 0.08,
          "phone": "iy_E"
        }
      ],
      "start": 8.099999,
      "startOffset": 100,
      "word": "VERY"
    },
    {
      "alignedWord": "poor",
      "case": "success",
      "end": 8.949999,
      "endOffset": 109,
      "phones": [
        {
          "duration": 0.12,
          "phone": "p_B"
        },
        {
          "duration": 0.14,
          "phone": "uw_I"
        },
        {
          "duration": 0.09,
          "phone": "r_E"
        }
      ],
      "start": 8.599999,
      "startOffset": 105,
      "word": "POOR"
    },
    {
      "alignedWord": "folks",
      "case": "success",
      "end": 9.520000000000001,
      "endOffset": 115,
      "phones": [
        {
          "duration": 0.15,
          "phone": "f_B"
        },
        {
          "duration": 0.11,
          "phone": "ow_I"
        },
        {
          "duration": 0.1,
          "phone": "k_I"
        },
        {
          "duration": 0.2,
          "phone": "s_E"
        }
      ],
      "start": 8.96,
      "startOffset": 110,
      "word": "FOLKS"
    }
  ]
}