{
  "transcript": "AT A LATER DATE FRAZER DEVELOPED THIS ASPECT OF THE CONCEPTION OF TABOO AND SHOWED HOW IT OCCURS AMONG SAVAGE RACES GENERALLY HE POINTED OUT THAT THE CONCEPTIONS OF HOLINESS AND POLLUTION NOT HAVING YET BEEN DIFFERENTIATED",
  "words": [
    {
      "alignedWord": "at",
      "case": "success",
      "end": 0.62,
      "endOffset": 2,
      "phones": [
        {
          "duration": 0.11,
          "phone": "ae_B"
        },
        {
          "duration": 0.06,
          "phone": "t_E"
        }
      ],
      "start": 0.45,
      "startOffset": 0,
      "word": "AT"
    },
    {
      "alignedWord": "a",
      "case": "success",
      "end": 0.6799999999999999,
      "endOffset": 4,
      "phones": [
        {
          "duration": 0.06,
          "phone": "ah_S"
        }
      ],
      "start": 0.62,
      "startOffset": 3,
      "word": "A"
    },
    {
      "alignedWord": "later",
      "case": "success",
      "end": 1.0,
      "endOffset": 10,
      "phones": [
        {
          "duration": 0.1,
          "phone": "l_B"
        },
        {
          "duration": 0.07,
          "phone": "ey_I"
        },
        {
          "duration": 0.07,
          "phone": "t_I"
        },
        {
          "duration": 0.08,
          "phone": "er_E"
        }
      ],
      "start": 0.68,
      "startOffset": 5,
      "word": "LATER"
    },
    {
      "alignedWord": "date",
      "case": "success",
      "end": 1.35,
      "endOffset": 15,
      "phones": [
        {
          "duration": 0.1,
          "phone": "d_B"
        },
        {
          "duration": 0.15,
          "phone": "ey_I"
        },
        {
          "duration": 0.1,
          "phone": "t_E"
        }
      ],
      "start": 1.0,
      "startOffset": 11,
      "word": "DATE"
    },
    {
      "alignedWord": "frazer",
      "case": "success",
      "end": 1.8900000000000001,
      "endOffset": 22,
      "phones": [
        {
          "duration": 0.12,
          "phone": "f_B"
        },
        {
          "duration": 0.06,
          "phone": "r_I"
        },
        {
          "duration": 0.07,
          "phone": "ey_I"
        },
        {
          "duration": 0.08,
          "phone": "z_I"
        },
        {
          "duration": 0.07,
          "phone": "er_E"
        }
      ],
      "start": 1.49,
      "startOffset": 16,
      "word": "FRAZER"
    },
    {
      "alignedWord": "developed",
      "case": "success",
      "end": 2.36,
      "endOffset": 32,
      "phones": [
        {
          "duration": 0.07,
          "phone": "d_B"
        },
        {
          "duration": 0.07,
          "phone": "ih_I"
        },
        {
          "duration": 0.05,
          "phone": "v_I"
        },
        {
          "duration": 0.08,
          "phone": "eh_I"
        },
        {
          "duration": 0.08,
          "phone": "l_I"
        },
        {
          "duration": 0.04,
          "phone": "ah_I"
        },
        {
          "duration": 0.07,
          "phone": "p_I"
        },
        {
          "duration": 0.01,
          "phone": "t_E"
        }
      ],
      "start": 1.89,
      "startOffset": 23,
      "word": "DEVELOPED"
    },
    {
      "alignedWord": "this",
      "case": "success",
      "end": 2.54,
      "endOffset": 37,
      "phones": [
        {
          "duration": 0.04,
          "phone": "dh_B"
        },
        {
          "duration": 0.06,
          "phone": "ih_I"
        },
        {
          "duration": 0.08,
          "phone": "s_E"
        }
      ],
      "start": 2.36,
      "startOffset": 33,
      "word": "THIS"
    },
    {
      "alignedWord": "aspect",
      "case": "success",
      "end": 3.04,
      "endOffset": 44,
      "phones": [
        {
          "duration": 0.15,
          "phone": "ae_B"
        },
        {
          "duration": 0.07,
          "phone": "s_I"
        },
        {
          "duration": 0.07,
          "phone": "p_I"
        },
        {
          "duration": 0.07,
          "phone": "eh_I"
        },
        {
          "duration": 0.07,
          "phone": "k_I"
        },
        {
          "duration": 0.05,
          "phone": "t_E"
        }
      ],
      "start": 2.56,
      "startOffset": 38,
      "word": "ASPECT"
    },
    {
      "alignedWord": "of",
      "case": "success",
      "end": 3.16,
      "endOffset": 47,
      "phones": [
        {
          "duration": 0.04,
          "phone": "ah_B"
        },
        {
          "duration": 0.08,
          "phone": "v_E"
        }
      ],
      "start": 3.04,
      "startOffset": 45,
      "word": "OF"
    },
    {
      "alignedWord": "the",
      "case": "success",
      "end": 3.23,
      "endOffset": 51,
      "phones": [
        {
          "duration": 0.02,
          "phone": "dh_B"
        },
        {
          "duration": 0.05,
          "phone": "ah_E"
        }
      ],
      "start": 3.16,
      "startOffset": 48,
      "word": "THE"
    },
    {
      "alignedWord": "conception",
      "case": "success",
      "end": 3.82,
      "endOffset": 62,
      "phones": [
        {
          "duration": 0.07,
          "phone": "k_B"
        },
        {
          "duration": 0.06,
          "phone": "ah_I"
        },
        {
          "duration": 0.07,
          "phone": "n_I"
        },
        {
          "duration": 0.09,
          "phone": "s_I"
        },
        {
          "duration": 0.08,
          "phone": "eh_I"
        },
        {
          "duration": 0.08,
          "phone": "p_I"
        },
        {
          "duration": 0.06,
          "phone": "sh_I"
        },
        {
          "duration": 0.06,
          "phone": "ah_I"
        },
        {
          "duration": 0.02,
          "phone": "n_E"
        }
      ],
      "start": 3.23,
      "startOffset": 52,
      "word": "CONCEPTION"
    },
    {
      "alignedWord": "of",
      "case": "success",
      "end": 3.96,
      "endOffset": 65,
      "phones": [
        {
          "duration": 0.05,
          "phone": "ah_B"
        },
        {
          "duration": 0.09,
          "phone": "v_E"
        }
      ],
      "start": 3.82,
      "startOffset": 63,
      "word": "OF"
    },
    {
      "alignedWord": "taboo",
      "case": "success",
      "end": 4.49,
      "endOffset": 71,
      "phones": [
        {
          "duration": 0.08,
          "phone": "t_B"
        },
        {
          "duration": 0.1,
          "phone": "ae_I"
        },
        {
          "duration": 0.09,
          "phone": "b_I"
        },
        {
          "duration": 0.26,
          "phone": "uw_E"
        }
      ],
      "start": 3.96,
      "startOffset": 66,
      "word": "TABOO"
    },
    {
      "alignedWord": "and",
      "case": "success",
      "end": 5.11,
      "endOffset": 75,
      "phones": [
        {
          "duration": 0.09,
          "phone": "ae_B"
        },
        {
          "duration": 0.05,
          "phone": "n_I"
        },
        {
          "duration": 0.06,
          "phone": "d_E"
        }
      ],
      "start": 4.91,
      "startOffset": 72,
      "word": "AND"
    },
    {
      "alignedWord": "showed",
      "case": "success",
      "end": 5.470000000000001,
      "endOffset": 82,
      "phones": [
        {
          "duration": 0.14,
          "phone": "sh_B"
        },
        {
          "duration": 0.14,
          "phone": "ow_I"
        },
        {
          "duration": 0.08,
          "phone": "d_E"
        }
      ],
      "start": 5.11,
      "startOffset": 76,
      "word": "SHOWED"
    },
    {
      "alignedWord": "how",
      "case": "success",
      "end": 5.67,
      "endOffset": 86,
      "phones": [
        {
          "duration": 0.08,
          "phone": "hh_B"
        },
        {
          "duration": 0.12,
          "phone": "aw_E"
        }
      ],
      "start": 5.47,
      "startOffset": 83,
      "word": "HOW"
    },
    {
      "alignedWord": "it",
      "case": "success",
      "end": 5.81,
      "endOffset": 89,
      "phones": [
        {
          "duration": 0.08,
          "phone": "ih_B"
        },
        {
          "duration": 0.06,
          "phone": "t_E"
        }
      ],
      "start": 5.67,
      "startOffset": 87,
      "word": "IT"
    },
    {
      "alignedWord": "occurs",
      "case": "success",
      "end": 6.31,
      "endOffset": 96,
      "phones": [
        {
          "duration": 0.05,
          "phone": "ah_B"
        },
        {
          "duration": 0.17,
          "phone": "k_I"
        },
        {
          "duration": 0.19,
          "phone": "er_I"
        },
        {
          "duration": 0.09,
          "phone": "z_E"
        }
      ],
      "start": 5.81,
      "startOffset": 90,
      "word": "OCCURS"
    },
    {
      "alignedWord": "among",
      "case": "success",
      "end": 6.54,
      "endOffset": 102,
      "phones": [
        {
          "duration": 0.04,
          "phone": "ah_B"
        },
        {
          "duration": 0.06,
          "phone": "m_I"
        },
        {
          "duration": 0.06,
          "phone": "ah_I"
        },
        {
          "duration": 0.07,
          "phone": "ng_E"
        }
      ],
      "start": 6.31,
      "startOffset": 97,
      "word": "AMONG"
    },
    {
      "alignedWord": "savage",
      "case": "success",
      "end": 6.91,
      "endOffset": 109,
      "phones": [
        {
          "duration": 0.09,
          "phone": "s_B"
        },
        {
          "duration": 0.08,
          "phone": "ae_I"
        },
        {
          "duration": 0.06,
          "phone": "v_I"
        },
        {
          "duration": 0.05,
          "phone": "ih_I"
        },
        {
          "duration": 0.09,
          "phone": "jh_E"
        }
      ],
      "start": 6.54,
      "startOffset": 103,
      "word": "SAVAGE"
    },
    {
      "alignedWord": "races",
      "case": "success",
      "end": 7.2700000000000005,
      "endOffset": 115,
      "phones": [
        {
          "duration": 0.06,
          "phone": "r_B"
        },
        {
          "duration": 0.07,
          "phone": "ey_I"
        },
        {
          "duration": 0.07,
          "phone": "s_I"
        },
        {
          "duration": 0.07,
          "phone": "ih_I"
        },
        {
          "duration": 0.09,
          "phone": "z_E"
        }
      ],
      "start": 6.91,
      "startOffset": 110,
      "word": "RACES"
    },
    {
      "alignedWord": "generally",
      "case": "success",
      "end": 7.9399999999999995,
      "endOffset": 125,
      "phones": [
        {
          "duration": 0.09,
          "phone": "jh_B"
        },
        {
          "duration": 0.07,
          "phone": "eh_I"
        },
        {
          "duration": 0.05,
          "phone": "n_I"
        },
        {
          "duration": 0.07,
          "phone": "er_I"
        },
        {
          "duration": 0.1,
          "phone": "ah_I"
        },
        {
          "duration": 0.07,
          "phone": "l_I"
        },
        {
          "duration": 0.22,
          "phone": "iy_E"
        }
      ],
      "start": 7.27,
      "startOffset": 116,
      "word": "GENERALLY"
    },
    {
      "alignedWord": "he",
      "case": "success",
      "end": 8.84,
      "endOffset": 128,
      "phones": [
        {
          "duration": 0.2,
          "phone": "hh_B"
        },
        {
          "duration": 0.05,
          "phone": "iy_E"
        }
      ],
      "start": 8.59,
      "startOffset": 126,
      "word": "HE"
    },
    {
      "alignedWord": "pointed",
      "case": "success",
      "end": 9.28,
      "endOffset": 136,
      "phones": [
        {
          "duration": 0.11,
          "phone": "p_B"
        },
        {
          "duration": 0.11,
          "phone": "oy_I"
        },
        {
          "duration": 0.03,
          "phone": "n_I"
        },
        {
          "duration": 0.08,
          "phone": "t_I"
        },
        {
          "duration": 0.05,
          "phone": "ih_I"
        },
        {
          "duration": 0.06,
          "phone": "d_E"
        }
      ],
      "start": 8.84,
      "startOffset": 129,
      "word": "POINTED"
    },
    {
      "alignedWord": "out",
      "case": "success",
      "end": 9.58,
      "endOffset": 140,
      "phones": [
        {
          "duration": 0.2,
          "phone": "aw_B"
        },
        {
          "duration": 0.1,
          "phone": "t_E"
        }
      ],
      "start": 9.28,
      "startOffset": 137,
      "word": "OUT"
    },
    {
      "alignedWord": "that",
      "case": "success",
      "end": 9.77,
      "endOffset": 145,
      "phones": [
        {
          "duration": 0.07,
          "phone": "dh_B"
        },
        {
          "duration": 0.07,
          "phone": "ah_I"
        },
        {
          "duration": 0.04,
          "phone": "t_E"
        }
      ],
      "start": 9.59,
      "startOffset": 141,
      "word": "THAT"
    },
    {
      "alignedWord": "the",
      "case": "success",
      "end": 9.86,
      "endOffset": 149,
      "phones": [
        {
          "duration": 0.04,
          "phone": "dh_B"
        },
        {
          "duration": 0.05,
          "phone": "ah_E"
        }
      ],
      "start": 9.77,
      "startOffset": 146,
      "word": "THE"
    },
    {
      "alignedWord": "conceptions",
      "case": "success",
      "end": 10.57,
      "endOffset": 161,
      "phones": [
        {
          "duration": 0.05,
          "phone": "k_B"
        },
        {
          "duration": 0.06,
          "phone": "ah_I"
        },
        {
          "duration": 0.09,
          "phone": "n_I"
        },
        {
          "duration": 0.11,
          "phone": "s_I"
        },
        {
          "duration": 0.09,
          "phone": "eh_I"
        },
        {
          "duration": 0.07,
          "phone": "p_I"
        },
        {
          "duration": 0.09,
          "phone": "sh_I"
        },
        {
          "duration": 0.05,
          "phone": "ah_I"
        },
        {
          "duration": 0.05,
          "phone": "n_I"
        },
        {
          "duration": 0.05,
          "phone": "z_E"
        }
      ],
      "start": 9.86,
      "startOffset": 150,
      "word": "CONCEPTIONS"
    },
    {
      "alignedWord": "of",
      "case": "success",
      "end": 10.72,
      "endOffset": 164,
      "phones": [
        {
          "duration": 0.06,
          "phone": "ah_B"
        },
        {
          "duration": 0.09,
          "phone": "v_E"
        }
      ],
      "start": 10.57,
      "startOffset": 162,
      "word": "OF"
    },
    {
      "alignedWord": "holiness",
      "case": "success",
      "end": 11.259999,
      "endOffset": 173,
      "phones": [
        {
          "duration": 0.08,
          "phone": "hh_B"
        },
        {
          "duration": 0.07,
          "phone": "ow_I"
        },
        {
          "duration": 0.1,
          "phone": "l_I"
        },
        {
          "duration": 0.07,
          "phone": "iy_I"
        },
        {
          "duration": 0.06,
          "phone": "n_I"
        },
        {
          "duration": 0.08,
          "phone": "ah_I"
        },
        {
          "duration": 0.08,
          "phone": "s_E"
        }
      ],
      "start": 10.719999,
      "startOffset": 165,
      "word": "HOLINESS"
    },
    {
      "alignedWord": "and",
      "case": "success",
      "end": 11.369999,
      "endOffset": 177,
      "phones": [
        {
          "duration": 0.03,
          "phone": "ah_B"
        },
        {
          "duration": 0.03,
          "phone": "n_I"
        },
        {
          "duration": 0.05,
          "phone": "d_E"
        }
      ],
      "start": 11.259999,
      "startOffset": 174,
      "word": "AND"
    },
    {
      "alignedWord": "pollution",
      "case": "success",
      "end": 12.09,
      "endOffset": 187,
      "phones": [
        {
          "duration": 0.06,
          "phone": "p_B"
        },
        {
          "duration": 0.08,
          "phone": "ah_I"
        },
        {
          "duration": 0.11,
          "phone": "l_I"
        },
        {
          "duration": 0.08,
          "phone": "uw_I"
        },
        {
          "duration": 0.14,
          "phone": "sh_I"
        },
        {
          "duration": 0.09,
          "phone": "ah_I"
        },
        {
          "duration": 0.16,
          "phone": "n_E"
        }
      ],
      "start": 11.37,
      "startOffset": 178,
      "word": "POLLUTION"
    },
    {
      "alignedWord": "not",
      "case": "success",
      "end": 12.279999,
      "endOffset": 191,
      "phones": [
        {
          "duration": 0.07,
          "phone": "n_B"
        },
        {
          "duration": 0.08,
          "phone": "aa_I"
        },
        {
          "duration": 0.03,
          "phone": "t_E"
        }
      ],
      "start": 12.099999,
      "startOffset": 188,
      "word": "NOT"
    },
    {
      "alignedWord": "having",
      "case": "success",
      "end": 12.639999999999999,
      "endOffset": 198,
      "phones": [
        {
          "duration": 0.1,
          "phone": "hh_B"
        },
        {
          "duration": 0.07,
          "phone": "ae_I"
        },
        {
          "duration": 0.04,
          "phone": "v_I"
        },
        {
          "duration": 0.07,
          "phone": "ih_I"
        },
        {
          "duration": 0.07,
          "phone": "ng_E"
        }
      ],
      "start": 12.29,
      "startOffset": 192,
      "word": "HAVING"
    },
    {
      "alignedWord": "yet",
      "case": "success",
      "end": 12.869999,
      "endOffset": 202,
      "phones": [
        {
          "duration": 0.08,
          "phone": "y_B"
        },
        {
          "duration": 0.08,
          "phone": "eh_I"
        },
        {
          "duration": 0.07,
          "phone": "t_E"
        }
      ],
      "start": 12.639999,
      "startOffset": 199,
      "word": "YET"
    },
    {
      "alignedWord": "been",
      "case": "success",
      "end": 13.059999999999999,
      "endOffset": 207,
      "phones": [
        {
          "duration": 0.07,
          "phone": "b_B"
        },
        {
          "duration": 0.06,
          "phone": "ih_I"
        },
        {
          "duration": 0.06,
          "phone": "n_E"
        }
      ],
      "start": 12.87,
      "startOffset": 203,
      "word": "BEEN"
    },
    {
      "alignedWord": "differentiated",
      "case": "success",
      "end": 14.009998999999999,
      "endOffset": 222,
      "phones": [
        {
          "duration": 0.03,
          "phone": "d_B"
        },
        {
          "duration": 0.1,
          "phone": "ih_I"
        },
        {
          "duration": 0.09,
          "phone": "f_I"
        },
        {
          "duration": 0.09,
          "phone": "er_I"
        },
        {
          "duration": 0.06,
          "phone": "eh_I"
        },
        {
          "duration": 0.07,
          "phone": "n_I"
        },
        {
          "duration": 0.1,
          "phone": "ch_I"
        },
        {
          "duration": 0.11,
          "phone": "iy_I"
        },
        {
          "duration": 0.05,
          "phone": "ey_I"
        },
        {
          "duration": 0.05,
          "phone": "t_I"
        },
        {
          "duration": 0.08,
          "phone": "ah_I"
        },
        {
          "duration": 0.12,
          "phone": "d_E"
        }
      ],
      "start": 13.059999,
      "startOffset": 208,
      "word": "DIFFERENTIATED"
    }
  ]
}