{
  "transcript": "DOCTOR SITGREAVES DOES NOT MEAN A RIG'LAR SOLDIER BUT A REGULAR PHYSICIAN MADAM SAID THE TROOPER OH CRIED THE MAIDEN AGAIN CORRECTING HERSELF FOR THE BEST OF ALL REASONS THERE WAS NONE TO BE HAD SO I TOOK CARE OF HIM MYSELF",
  "words": [
    {
      "alignedWord": "doctor",
      "case": "success",
      "end": 0.6699999999999999,
      "endOffset": 6,
      "phones": [
        {
          "duration": 0.09,
          "phone": "d_B"
        },
        {
          "duration": 0.07,
          "phone": "aa_I"
        },
        {
          "duration": 0.07,
          "phone": "k_I"
        },
        {
          "duration": 0.06,
          "phone": "t_I"
        },
        {
          "duration": 0.08,
          "phone": "er_E"
        }
      ],
      "start": 0.3,
      "startOffset": 0,
      "word": "DOCTOR"
    },
    {
      "alignedWord": "<unk>",
      "case": "success",
      "end": 1.1400000000000001,
      "endOffset": 17,
      "phones": [
        {
          "duration": 0.47,
          "phone": "oov_S"
        }
      ],
      "start": 0.67,
      "startOffset": 7,
      "word": "SITGREAVES"
    },
    {
      "alignedWord": "does",
      "case": "success",
      "end": 1.3699999999999999,
      "endOffset": 22,
      "phones": [
        {
          "duration": 0.06,
          "phone": "d_B"
        },
        {
          "duration": 0.05,
          "phone": "ih_I"
        },
        {
          "duration": 0.08,
          "phone": "z_E"
        }
      ],
      "start": 1.18,
      "startOffset": 18,
      "word": "DOES"
    },
    {
      "alignedWord": "not",
      "case": "success",
      "end": 1.55,
      "endOffset": 26,
      "phones": [
        {
          "duration": 0.04,
          "phone": "n_B"
        },
        {
          "duration": 0.07,
          "phone": "aa_I"
        },
        {
          "duration": 0.07,
          "phone": "t_E"
        }
      ],
      "start": 1.37,
      "startOffset": 23,
      "word": "NOT"
    },
    {
      "alignedWord": "mean",
      "case": "success",
      "end": 1.72,
      "endOffset": 31,
      "phones": [
        {
          "duration": 0.07,
          "phone": "m_B"
        },
        {
          "duration": 0.05,
          "phone": "iy_I"
        },
        {
          "duration": 0.05,
          "phone": "n_E"
        }
      ],
      "start": 1.55,
      "startOffset": 27,
      "word": "MEAN"
    },
    {
      "alignedWord": "a",
      "case": "success",
      "end": 1.81,
      "endOffset": 33,
      "phones": [
        {
          "duration": 0.09,
          "phone": "ah_S"
        }
      ],
      "start": 1.72,
      "startOffset": 32,
      "word": "A"
    },
    {
      "alignedWord": "<unk>",
      "case": "success",
      "end": 2.13,
      "endOffset": 41,
      "phones": [
        {
          "duration": 0.32,
          "phone": "oov_S"
        }
      ],
      "start": 1.81,
      "startOffset": 34,
      "word": "RIG'LAR"
    },
    {
      "alignedWord": "soldier",
      "case": "success",
      "end": 2.5700000000000003,
      "endOffset": 49,
      "phones": [
        {
          "duration": 0.12,
          "phone": "s_B"
        },
        {
          "duration": 0.08,
          "phone": "ow_I"
        },
        {
          "duration": 0.07,
          "phone": "l_I"
        },
        {
          "duration": 0.09,
          "phone": "jh_I"
        },
        {
          "duration": 0.07,
          "phone": "er_E"
        }
      ],
      "start": 2.14,
      "startOffset": 42,
      "word": "SOLDIER"
    },
    {
      "alignedWord": "but",
      "case": "success",
      "end": 2.73,
      "endOffset": 53,
      "phones": [
        {
          "duration": 0.06,
          "phone": "b_B"
        },
        {
          "duration": 0.07,
          "phone": "ah_I"
        },
        {
          "duration": 0.03,
          "phone": "t_E"
        }
      ],
      "start": 2.57,
      "startOffset": 50,
      "word": "BUT"
    },
    {
      "alignedWord": "a",
      "case": "success",
      "end": 2.82,
      "endOffset": 55,
      "phones": [
        {
          "duration": 0.09,
          "phone": "ah_S"
        }
      ],
      "start": 2.73,
      "startOffset": 54,
      "word": "A"
    },
    {
      "alignedWord": "regular",
      "case": "success",
      "end": 3.25,
      "endOffset": 63,
      "phones": [
        {
          "duration": 0.08,
          "phone": "r_B"
        },
        {
          "duration": 0.05,
          "phone": "eh_I"
        },
        {
          "duration": 0.07,
          "phone": "g_I"
        },
        {
          "duration": 0.01,
          "phone": "y_I"
        },
        {
          "duration": 0.06,
          "phone": "ah_I"
        },
        {
          "duration": 0.06,
          "phone": "l_I"
        },
        {
          "duration": 0.1,
          "phone": "er_E"
        }
      ],
      "start": 2.82,
      "startOffset": 56,
      "word": "REGULAR"
    },
    {
      "alignedWord": "physician",
      "case": "success",
      "end": 3.8,
      "endOffset": 73,
      "phones": [
        {
          "duration": 0.06,
          "phone": "f_B"
        },
        {
          "duration": 0.06,
          "phone": "ah_I"
        },
        {
          "duration": 0.08,
          "phone": "z_I"
        },
        {
          "duration": 0.1,
          "phone": "ih_I"
        },
        {
          "duration": 0.1,
          "phone": "sh_I"
        },
        {
          "duration": 0.06,
          "phone": "ah_I"
        },
        {
          "duration": 0.09,
          "phone": "n_E"
        }
      ],
      "start": 3.25,
      "startOffset": 64,
      "word": "PHYSICIAN"
    },
    {
      "alignedWord": "madam",
      "case": "success",
      "end": 4.1499999999999995,
      "endOffset": 79,
      "phones": [
        {
          "duration": 0.03,
          "phone": "m_B"
        },
        {
          "duration": 0.06,
          "phone": "ae_I"
        },
        {
          "duration": 0.07,
          "phone": "d_I"
        },
        {
          "duration": 0.11,
          "phone": "ah_I"
        },
        {
          "duration": 0.08,
          "phone": "m_E"
        }
      ],
      "start": 3.8,
      "startOffset": 74,
      "word": "MADAM"
    },
    {
      "alignedWord": "said",
      "case": "success",
      "end": 4.37,
      "endOffset": 84,
      "phones": [
        {
          "duration": 0.08,
          "phone": "s_B"
        },
        {
          "duration": 0.07,
          "phone": "eh_I"
        },
        {
          "duration": 0.07,
          "phone": "d_E"
        }
      ],
      "start": 4.15,
      "startOffset": 80,
      "word": "SAID"
    },
    {
      "alignedWord": "the",
      "case": "success",
      "end": 4.44,
      "endOffset": 88,
      "phones": [
        {
          "duration": 0.02,
          "phone": "dh_B"
        },
        {
          "duration": 0.05,
          "phone": "ah_E"
        }
      ],
      "start": 4.37,
      "startOffset": 85,
      "word": "THE"
    },
    {
      "alignedWord": "trooper",
      "case": "success",
      "end": 4.8500000000000005,
      "endOffset": 96,
      "phones": [
        {
          "duration": 0.07,
          "phone": "t_B"
        },
        {
          "duration": 0.06,
          "phone": "r_I"
        },
        {
          "duration": 0.06,
          "phone": "uw_I"
        },
        {
          "duration": 0.07,
          "phone": "p_I"
        },
        {
          "duration": 0.15,
          "phone": "er_E"
        }
      ],
      "start": 4.44,
      "startOffset": 89,
      "word": "TROOPER"
    },
    {
      "alignedWord": "oh",
      "case": "success",
      "end": 5.609999999999999,
      "endOffset": 99,
      "phones": [
        {
          "duration": 0.26,
          "phone": "ow_S"
        }
      ],
      "start": 5.35,
      "startOffset": 97,
      "word": "OH"
    },
    {
      "alignedWord": "cried",
      "case": "success",
      "end": 5.86,
      "endOffset": 105,
      "phones": [
        {
          "duration": 0.11,
          "phone": "k_B"
        },
        {
          "duration": 0.04,
          "phone": "r_I"
        },
        {
          "duration": 0.03,
          "phone": "ay_I"
        },
        {
          "duration": 0.07,
          "phone": "d_E"
        }
      ],
      "start": 5.61,
      "startOffset": 100,
      "word": "CRIED"
    },
    {
      "alignedWord": "the",
      "case": "success",
      "end": 5.92,
      "endOffset": 109,
      "phones": [
        {
          "duration": 0.01,
          "phone": "dh_B"
        },
        {
          "duration": 0.05,
          "phone": "ah_E"
        }
      ],
      "start": 5.86,
      "startOffset": 106,
      "word": "THE"
    },
    {
      "alignedWord": "maiden",
      "case": "success",
      "end": 6.31,
      "endOffset": 116,
      "phones": [
        {
          "duration": 0.09,
          "phone": "m_B"
        },
        {
          "duration": 0.08,
          "phone": "ey_I"
        },
        {
          "duration": 0.05,
          "phone": "d_I"
        },
        {
          "duration": 0.07,
          "phone": "ah_I"
        },
        {
          "duration": 0.1,
          "phone": "n_E"
        }
      ],
      "start": 5.92,
      "startOffset": 110,
      "word": "MAIDEN"
    },
    {
      "alignedWord": "again",
      "case": "success",
      "end": 6.62,
      "endOffset": 122,
      "phones": [
        {
          "duration": 0.08,
          "phone": "ah_B"
        },
        {
          "duration": 0.1,
          "phone": "g_I"
        },
        {
          "duration": 0.07,
          "phone": "eh_I"
        },
        {
          "duration": 0.05,
          "phone": "n_E"
        }
      ],
      "start": 6.32,
      "startOffset": 117,
      "word": "AGAIN"
    },
    {
      "alignedWord": "correcting",
      "case": "success",
      "end": 7.0200000000000005,
      "endOffset": 133,
      "phones": [
        {
          "duration": 0.06,
          "phone": "k_B"
        },
        {
          "duration": 0.09,
          "phone": "er_I"
        },
        {
          "duration": 0.06,
          "phone": "eh_I"
        },
        {
          "duration": 0.05,
          "phone": "k_I"
        },
        {
          "duration": 0.05,
          "phone": "t_I"
        },
        {
          "duration": 0.03,
          "phone": "ih_I"
        },
        {
          "duration": 0.06,
          "phone": "ng_E"
        }
      ],
      "start": 6.62,
      "startOffset": 123,
      "word": "CORRECTING"
    },
    {
      "alignedWord": "herself",
      "case": "success",
      "end": 7.449999999999999,
      "endOffset": 141,
      "phones": [
        {
          "duration": 0.08,
          "phone": "hh_B"
        },
        {
          "duration": 0.01,
          "phone": "er_I"
        },
        {
          "duration": 0.1,
          "phone": "s_I"
        },
        {
          "duration": 0.1,
          "phone": "eh_I"
        },
        {
          "duration": 0.05,
          "phone": "l_I"
        },
        {
          "duration": 0.09,
          "phone": "f_E"
        }
      ],
      "start": 7.02,
      "startOffset": 134,
      "word": "HERSELF"
    },
    {
      "alignedWord": "for",
      "case": "success",
      "end": 7.94,
      "endOffset": 145,
      "phones": [
        {
          "duration": 0.08,
          "phone": "f_B"
        },
        {
          "duration": 0.08,
          "phone": "er_E"
        }
      ],
      "start": 7.78,
      "startOffset": 142,
      "word": "FOR"
    },
    {
      "alignedWord": "the",
      "case": "success",
      "end": 8.040000000000001,
      "endOffset": 149,
      "phones": [
        {
          "duration": 0.04,
          "phone": "dh_B"
        },
        {
          "duration": 0.06,
          "phone": "ah_E"
        }
      ],
      "start": 7.94,
      "startOffset": 146,
      "word": "THE"
    },
    {
      "alignedWord": "best",
      "case": "success",
      "end": 8.319999999999999,
      "endOffset": 154,
      "phones": [
        {
          "duration": 0.08,
          "phone": "b_B"
        },
        {
          "duration": 0.08,
          "phone": "eh_I"
        },
        {
          "duration": 0.06,
          "phone": "s_I"
        },
        {
          "duration": 0.06,
          "phone": "t_E"
        }
      ],
      "start": 8.04,
      "startOffset": 150,
      "word": "BEST"
    },
    {
      "alignedWord": "of",
      "case": "success",
      "end": 8.44,
      "endOffset": 157,
      "phones": [
        {
          "duration": 0.05,
          "phone": "ah_B"
        },
        {
          "duration": 0.07,
          "phone": "v_E"
        }
      ],
      "start": 8.32,
      "startOffset": 155,
      "word": "OF"
    },
    {
      "alignedWord": "all",
      "case": "success",
      "end": 8.6,
      "endOffset": 161,
      "phones": [
        {
          "duration": 0.08,
          "phone": "ao_B"
        },
        {
          "duration": 0.08,
          "phone": "l_E"
        }
      ],
      "start": 8.44,
      "startOffset": 158,
      "word": "ALL"
    },
    {
      "alignedWord": "reasons",
      "case": "success",
      "end": 9.099999,
      "endOffset": 169,
      "phones": [
        {
          "duration": 0.08,
          "phone": "r_B"
        },
        {
          "duration": 0.09,
          "phone": "iy_I"
        },
        {
          "duration": 0.06,
          "phone": "z_I"
        },
        {
          "duration": 0.06,
          "phone": "ah_I"
        },
        {
          "duration": 0.06,
          "phone": "n_I"
        },
        {
          "duration": 0.15,
          "phone": "z_E"
        }
      ],
      "start": 8.599999,
      "startOffset": 162,
      "word": "REASONS"
    },
    {
      "alignedWord": "there",
      "case": "success",
      "end": 9.37,
      "endOffset": 175,
      "phones": [
        {
          "duration": 0.07,
          "phone": "dh_B"
        },
        {
          "duration": 0.05,
          "phone": "eh_I"
        },
        {
          "duration": 0.05,
          "phone": "r_E"
        }
      ],
      "start": 9.2,
      "startOffset": 170,
      "word": "THERE"
    },
    {
      "alignedWord": "was",
      "case": "success",
      "end": 9.569999999999999,
      "endOffset": 179,
      "phones": [
        {
          "duration": 0.05,
          "phone": "w_B"
        },
        {
          "duration": 0.07,
          "phone": "ah_I"
        },
        {
          "duration": 0.08,
          "phone": "z_E"
        }
      ],
      "start": 9.37,
      "startOffset": 176,
      "word": "WAS"
    },
    {
      "alignedWord": "none",
      "case": "success",
      "end": 9.77,
      "endOffset": 184,
      "phones": [
        {
          "duration": 0.07,
          "phone": "n_B"
        },
        {
          "duration": 0.1,
          "phone": "ah_I"
        },
        {
          "duration": 0.03,
          "phone": "n_E"
        }
      ],
      "start": 9.57,
      "startOffset": 180,
      "word": "NONE"
    },
    {
      "alignedWord": "to",
      "case": "success",
      "end": 9.879999999999999,
      "endOffset": 187,
      "phones": [
        {
          "duration": 0.06,
          "phone": "t_B"
        },
        {
          "duration": 0.05,
          "phone": "ih_E"
        }
      ],
      "start": 9.77,
      "startOffset": 185,
      "word": "TO"
    },
    {
      "alignedWord": "be",
      "case": "success",
      "end": 10.039999,
      "endOffset": 190,
      "phones": [
        {
          "duration": 0.07,
          "phone": "b_B"
        },
        {
          "duration": 0.08,
          "phone": "iy_E"
        }
      ],
      "start": 9.889999,
      "startOffset": 188,
      "word": "BE"
    },
    {
      "alignedWord": "had",
      "case": "success",
      "end": 10.399999999999999,
      "endOffset": 194,
      "phones": [
        {
          "duration": 0.08,
          "phone": "hh_B"
        },
        {
          "duration": 0.17,
          "phone": "ae_I"
        },
        {
          "duration": 0.11,
          "phone": "d_E"
        }
      ],
      "start": 10.04,
      "startOffset": 191,
      "word": "HAD"
    },
    {
      "alignedWord": "so",
      "case": "success",
      "end": 10.59,
      "endOffset": 197,
      "phones": [
        {
          "duration": 0.09,
          "phone": "s_B"
        },
        {
          "duration": 0.1,
          "phone": "ow_E"
        }
      ],
      "start": 10.4,
      "startOffset": 195,
      "word": "SO"
    },
    {
      "alignedWord": "i",
      "case": "success",
      "end": 10.69,
      "endOffset": 199,
      "phones": [
        {
          "duration": 0.1,
          "phone": "ay_S"
        }
      ],
      "start": 10.59,
      "startOffset": 198,
      "word": "I"
    },
    {
      "alignedWord": "took",
      "case": "success",
      "end": 10.879999999999999,
      "endOffset": 204,
      "phones": [
        {
          "duration": 0.08,
          "phone": "t_B"
        },
        {
          "duration": 0.1,
          "phone": "uh_I"
        },
        {
          "duration": 0.01,
          "phone": "k_E"
        }
      ],
      "start": 10.69,
      "startOffset": 200,
      "word": "TOOK"
    },
    {
      "alignedWord": "care",
      "case": "success",
      "end": 11.090000000000002,
      "endOffset": 209,
      "phones": [
        {
          "duration": 0.08,
          "phone": "k_B"
        },
        {
          "duration": 0.08,
          "phone": "eh_I"
        },
        {
          "duration": 0.05,
          "phone": "r_E"
        }
      ],
      "start": 10.88,
      "startOffset": 205,
      "word": "CARE"
    },
    {
      "alignedWord": "of",
      "case": "success",
      "end": 11.2,
      "endOffset": 212,
      "phones": [
        {
          "duration": 0.04,
          "phone": "ah_B"
        },
        {
          "duration": 0.07,
          "phone": "v_E"
        }
      ],
      "start": 11.09,
      "startOffset": 210,
      "word": "OF"
    },
    {
      "alignedWord": "him",
      "case": "success",
      "end": 11.33,
      "endOffset": 216,
      "phones": [
        {
          "duration": 0.01,
          "phone": "hh_B"
        },
        {
          "duration": 0.07,
          "phone": "ih_I"
        },
        {
          "duration": 0.05,
          "phone": "m_E"
        }
      ],
      "start": 11.2,
      "startOffset": 213,
      "word": "HIM"
    },
    {
      "alignedWord": "myself",
      "case": "success",
      "end": 11.870000000000001,
      "endOffset": 223,
      "phones": [
        {
          "duration": 0.05,
          "phone": "m_B"
        },
        {
          "duration": 0.09,
          "phone": "ay_I"
        },
        {
          "duration": 0.1,
          "phone": "s_I"
        },
        {
          "duration": 0.15,
          "phone": "eh_I"
        },
        {
          "duration": 0.06,
          "phone": "l_I"
        },
        {
          "duration": 0.09,
          "phone": "f_E"
        }
      ],
      "start": 11.33,
      "startOffset": 217,
      "word": "MYSELF"
    }
  ]
}