{
  "transcript": "MAKE ONE KNIT THREE KNIT TWO TOGETHER KNIT FOUR MAKE ONE AND KNIT THE REMAINDER TENTH ROW SEAMED MAKING ONE AT THE BEGINNING ELEVENTH ROW",
  "words": [
    {
      "alignedWord": "make",
      "case": "success",
      "end": 0.5,
      "endOffset": 4,
      "phones": [
        {
          "duration": 0.13,
          "phone": "m_B"
        },
        {
          "duration": 0.12,
          "phone": "ey_I"
        },
        {
          "duration": 0.08,
          "phone": "k_E"
        }
      ],
      "start": 0.17,
      "startOffset": 0,
      "word": "MAKE"
    },
    {
      "alignedWord": "one",
      "case": "success",
      "end": 0.94,
      "endOffset": 8,
      "phones": [
        {
          "duration": 0.11,
          "phone": "w_B"
        },
        {
          "duration": 0.17,
          "phone": "ah_I"
        },
        {
          "duration": 0.16,
          "phone": "n_E"
        }
      ],
      "start": 0.5,
      "startOffset": 5,
      "word": "ONE"
    },
    {
      "alignedWord": "knit",
      "case": "success",
      "end": 1.73,
      "endOffset": 13,
      "phones": [
        {
          "duration": 0.15,
          "phone": "n_B"
        },
        {
          "duration": 0.08,
          "phone": "ih_I"
        },
        {
          "duration": 0.08,
          "phone": "t_E"
        }
      ],
      "start": 1.42,
      "startOffset": 9,
      "word": "KNIT"
    },
    {
      "alignedWord": "three",
      "case": "success",
      "end": 2.2800000000000002,
      "endOffset": 19,
      "phones": [
        {
          "duration": 0.11,
          "phone": "th_B"
        },
        {
          "duration": 0.12,
          "phone": "r_I"
        },
        {
          "duration": 0.27,
          "phone": "iy_E"
        }
      ],
      "start": 1.78,
      "startOffset": 14,
      "word": "THREE"
    },
    {
      "alignedWord": "knit",
      "case": "success",
      "end": 3.1,
      "endOffset": 24,
      "phones": [
        {
          "duration": 0.15,
          "phone": "n_B"
        },
        {
          "duration": 0.07,
          "phone": "ih_I"
        },
        {
          "duration": 0.07,
          "phone": "t_E"
        }
      ],
      "start": 2.81,
      "startOffset": 20,
      "word": "KNIT"
    },
    {
      "alignedWord": "two",
      "case": "success",
      "end": 3.35,
      "endOffset": 28,
      "phones": [
        {
          "duration": 0.11,
          "phone": "t_B"
        },
        {
          "duration": 0.11,
          "phone": "uw_E"
        }
      ],
      "start": 3.13,
      "startOffset": 25,
      "word": "TWO"
    },
    {
      "alignedWord": "together",
      "case": "success",
      "end": 3.97,
      "endOffset": 37,
      "phones": [
        {
          "duration": 0.07,
          "phone": "t_B"
        },
        {
          "duration": 0.06,
          "phone": "ah_I"
        },
        {
          "duration": 0.08,
          "phone": "g_I"
        },
        {
          "duration": 0.1,
          "phone": "eh_I"
        },
        {
          "duration": 0.08,
          "phone": "dh_I"
        },
        {
          "duration": 0.23,
          "phone": "er_E"
        }
      ],
      "start": 3.35,
      "startOffset": 29,
      "word": "TOGETHER"
    },
    {
      "alignedWord": "knit",
      "case": "success",
      "end": 4.51,
      "endOffset": 42,
      "phones": [
        {
          "duration": 0.12,
          "phone": "n_B"
        },
        {
          "duration": 0.09,
          "phone": "ih_I"
        },
        {
          "duration": 0.09,
          "phone": "t_E"
        }
      ],
      "start": 4.21,
      "startOffset": 38,
      "word": "KNIT"
    },
    {
      "alignedWord": "four",
      "case": "success",
      "end": 5.04,
      "endOffset": 47,
      "phones": [
        {
          "duration": 0.15,
          "phone": "f_B"
        },
        {
          "duration": 0.2,
          "phone": "ao_I"
        },
        {
          "duration": 0.18,
          "phone": "r_E"
        }
      ],
      "start": 4.51,
      "startOffset": 43,
      "word": "FOUR"
    },
    {
      "alignedWord": "make",
      "case": "success",
      "end": 5.869999999999999,
      "endOffset": 52,
      "phones": [
        {
          "duration": 0.14,
          "phone": "m_B"
        },
        {
          "duration": 0.12,
          "phone": "ey_I"
        },
        {
          "duration": 0.09,
          "phone": "k_E"
        }
      ],
      "start": 5.52,
      "startOffset": 48,
      "word": "MAKE"
    },
    {
      "alignedWord": "one",
      "case": "success",
      "end": 6.29,
      "endOffset": 56,
      "phones": [
        {
          "duration": 0.12,
          "phone": "w_B"
        },
        {
          "duration": 0.15,
          "phone": "ah_I"
        },
        {
          "duration": 0.15,
          "phone": "n_E"
        }
      ],
      "start": 5.87,
      "startOffset": 53,
      "word": "ONE"
    },
    {
      "alignedWord": "and",
      "case": "success",
      "end": 6.8100000000000005,
      "endOffset": 60,
      "phones": [
        {
          "duration": 0.13,
          "phone": "ae_B"
        },
        {
          "duration": 0.05,
          "phone": "n_I"
        },
        {
          "duration": 0.05,
          "phone": "d_E"
        }
      ],
      "start": 6.58,
      "startOffset": 57,
      "word": "AND"
    },
    {
      "alignedWord": "knit",
      "case": "success",
      "end": 7.01,
      "endOffset": 65,
      "phones": [
        {
          "duration": 0.07,
          "phone": "n_B"
        },
        {
          "duration": 0.08,
          "phone": "ih_I"
        },
        {
          "duration": 0.05,
          "phone": "t_E"
        }
      ],
      "start": 6.81,
      "startOffset": 61,
      "word": "KNIT"
    },
    {
      "alignedWord": "the",
      "case": "success",
      "end": 7.17,
      "endOffset": 69,
      "phones": [
        {
          "duration": 0.08,
          "phone": "dh_B"
        },
        {
          "duration": 0.07,
          "phone": "ah_E"
        }
      ],
      "start": 7.02,
      "startOffset": 66,
      "word": "THE"
    },
    {
      "alignedWord": "remainder",
      "case": "success",
      "end": 7.81,
      "endOffset": 79,
      "phones": [
        {
          "duration": 0.05,
          "phone": "r_B"
        },
        {
          "duration": 0.05,
          "phone": "iy_I"
        },
        {
          "duration": 0.08,
          "phone": "m_I"
        },
        {
          "duration": 0.13,
          "phone": "ey_I"
        },
        {
          "duration": 0.03,
          "phone": "n_I"
        },
        {
          "duration": 0.09,
          "phone": "d_I"
        },
        {
          "duration": 0.21,
          "phone": "er_E"
        }
      ],
      "start": 7.17,
      "startOffset": 70,
      "word": "REMAINDER"
    },
    {
      "alignedWord": "tenth",
      "case": "success",
      "end": 9.439999,
      "endOffset": 85,
      "phones": [
        {
          "duration": 0.09,
          "phone": "t_B"
        },
        {
          "duration": 0.07,
          "phone": "eh_I"
        },
        {
          "duration": 0.07,
          "phone": "n_I"
        },
        {
          "duration": 0.11,
          "phone": "th_E"
        }
      ],
      "start": 9.099999,
      "startOffset": 80,
      "word": "TENTH"
    },
    {
      "alignedWord": "row",
      "case": "success",
      "end": 9.799999999999999,
      "endOffset": 89,
      "phones": [
        {
          "duration": 0.08,
          "phone": "r_B"
        },
        {
          "duration": 0.28,
          "phone": "ow_E"
        }
      ],
      "start": 9.44,
      "startOffset": 86,
      "word": "ROW"
    },
    {
      "alignedWord": "<unk>",
      "case": "success",
      "end": 11.139999,
      "endOffset": 96,
      "phones": [
        {
          "duration": 0.67,
          "phone": "oov_S"
        }
      ],
      "start": 10.469999,
      "startOffset": 90,
      "word": "SEAMED"
    },
    {
      "alignedWord": "making",
      "case": "success",
      "end": 11.589998999999999,
      "endOffset": 103,
      "phones": [
        {
          "duration": 0.1,
          "phone": "m_B"
        },
        {
          "duration": 0.05,
          "phone": "ey_I"
        },
        {
          "duration": 0.05,
          "phone": "k_I"
        },
        {
          "duration": 0.07,
          "phone": "ih_I"
        },
        {
          "duration": 0.1,
          "phone": "ng_E"
        }
      ],
      "start": 11.219999,
      "startOffset": 97,
      "word": "MAKING"
    },
    {
      "alignedWord": "one",
      "case": "success",
      "end": 11.9,
      "endOffset": 107,
      "phones": [
        {
          "duration": 0.08,
          "phone": "w_B"
        },
        {
          "duration": 0.12,
          "phone": "ah_I"
        },
        {
          "duration": 0.11,
          "phone": "n_E"
        }
      ],
      "start": 11.59,
      "startOffset": 104,
      "word": "ONE"
    },
    {
      "alignedWord": "at",
      "case": "success",
      "end": 12.05,
      "endOffset": 110,
      "phones": [
        {
          "duration": 0.08,
          "phone": "ae_B"
        },
        {
          "duration": 0.06,
          "phone": "t_E"
        }
      ],
      "start": 11.91,
      "startOffset": 108,
      "word": "AT"
    },
    {
      "alignedWord": "the",
      "case": "success",
      "end": 12.120000000000001,
      "endOffset": 114,
      "phones": [
        {
          "duration": 0.03,
          "phone": "dh_B"
        },
        {
          "duration": 0.04,
          "phone": "ah_E"
        }
      ],
      "start": 12.05,
      "startOffset": 111,
      "word": "THE"
    },
    {
      "alignedWord": "beginning",
      "case": "success",
      "end": 12.66,
      "endOffset": 124,
      "phones": [
        {
          "duration": 0.05,
          "phone": "b_B"
        },
        {
          "duration": 0.06,
          "phone": "ih_I"
        },
        {
          "duration": 0.07,
          "phone": "g_I"
        },
        {
          "duration": 0.09,
          "phone": "ih_I"
        },
        {
          "duration": 0.03,
          "phone": "n_I"
        },
        {
          "duration": 0.08,
          "phone": "ih_I"
        },
        {
          "duration": 0.16,
          "phone": "ng_E"
        }
      ],
      "start": 12.12,
      "startOffset": 115,
      "word": "BEGINNING"
    },
    {
      "alignedWord": "eleventh",
      "case": "success",
      "end": 14.48,
      "endOffset": 133,
      "phones": [
        {
          "duration": 0.09,
          "phone": "ih_B"
        },
        {
          "duration": 0.09,
          "phone": "l_I"
        },
        {
          "duration": 0.08,
          "phone": "eh_I"
        },
        {
          "duration": 0.01,
          "phone": "v_I"
        },
        {
          "duration": 0.04,
          "phone": "ah_I"
        },
        {
          "duration": 0.09,
          "phone": "n_I"
        },
        {
          "duration": 0.12,
          "phone": "th_E"
        }
      ],
      "start": 13.96,
      "startOffset": 125,
      "word": "ELEVENTH"
    },
    {
      "alignedWord": "row",
      "case": "success",
      "end": 14.77,
      "endOffset": 137,
      "phones": [
        {
          "duration": 0.08,
          "phone": "r_B"
        },
        {
          "duration": 0.21,
          "phone": "ow_E"
        }
      ],
      "start": 14.48,
      "startOffset": 134,
      "word": "ROW"
    }
  ]
}