{
  "transcript": "I FELT THAT ITS MYSTERIOUS LIFE WAS RICHER AND DEEPER THAN THE VULGAR HEALTH OF THE DREAMING SLEEP WALKERS ALL AROUND ME AND WITH THE SICKLINESS WHICH WAS NOT AT ALL UNPLEASANT",
  "words": [
    {
      "alignedWord": "i",
      "case": "success",
      "end": 0.74,
      "endOffset": 1,
      "phones": [
        {
          "duration": 0.24,
          "phone": "ay_S"
        }
      ],
      "start": 0.5,
      "startOffset": 0,
      "word": "I"
    },
    {
      "alignedWord": "felt",
      "case": "success",
      "end": 1.27,
      "endOffset": 6,
      "phones": [
        {
          "duration": 0.23,
          "phone": "f_B"
        },
        {
          "duration": 0.1,
          "phone": "eh_I"
        },
        {
          "duration": 0.09,
          "phone": "l_I"
        },
        {
          "duration": 0.11,
          "phone": "t_E"
        }
      ],
      "start": 0.74,
      "startOffset": 2,
      "word": "FELT"
    },
    {
      "alignedWord": "that",
      "case": "success",
      "end": 1.52,
      "endOffset": 11,
      "phones": [
        {
          "duration": 0.06,
          "phone": "dh_B"
        },
        {
          "duration": 0.1,
          "phone": "ae_I"
        },
        {
          "duration": 0.09,
          "phone": "t_E"
        }
      ],
      "start": 1.27,
      "startOffset": 7,
      "word": "THAT"
    },
    {
      "alignedWord": "its",
      "case": "success",
      "end": 1.9500000000000002,
      "endOffset": 15,
      "phones": [
        {
          "duration": 0.16,
          "phone": "ih_B"
        },
        {
          "duration": 0.1,
          "phone": "t_I"
        },
        {
          "duration": 0.12,
          "phone": "s_E"
        }
      ],
      "start": 1.57,
      "startOffset": 12,
      "word": "ITS"
    },
    {
      "alignedWord": "mysterious",
      "case": "success",
      "end": 2.86,
      "endOffset": 26,
      "phones": [
        {
          "duration": 0.08,
          "phone": "m_B"
        },
        {
          "duration": 0.08,
          "phone": "ih_I"
        },
        {
          "duration": 0.11,
          "phone": "s_I"
        },
        {
          "duration": 0.05,
          "phone": "t_I"
        },
        {
          "duration": 0.11,
          "phone": "ih_I"
        },
        {
          "duration": 0.11,
          "phone": "r_I"
        },
        {
          "duration": 0.1,
          "phone": "iy_I"
        },
        {
          "duration": 0.12,
          "phone": "ah_I"
        },
        {
          "duration": 0.15,
          "phone": "s_E"
        }
      ],
      "start": 1.95,
      "startOffset": 16,
      "word": "MYSTERIOUS"
    },
    {
      "alignedWord": "life",
      "case": "success",
      "end": 3.21,
      "endOffset": 31,
      "phones": [
        {
          "duration": 0.1,
          "phone": "l_B"
        },
        {
          "duration": 0.13,
          "phone": "ay_I"
        },
        {
          "duration": 0.12,
          "phone": "f_E"
        }
      ],
      "start": 2.86,
      "startOffset": 27,
      "word": "LIFE"
    },
    {
      "alignedWord": "was",
      "case": "success",
      "end": 3.45,
      "endOffset": 35,
      "phones": [
        {
          "duration": 0.06,
          "phone": "w_B"
        },
        {
          "duration": 0.09,
          "phone": "aa_I"
        },
        {
          "duration": 0.09,
          "phone": "z_E"
        }
      ],
      "start": 3.21,
      "startOffset": 32,
      "word": "WAS"
    },
    {
      "alignedWord": "richer",
      "case": "success",
      "end": 4.08,
      "endOffset": 42,
      "phones": [
        {
          "duration": 0.17,
          "phone": "r_B"
        },
        {
          "duration": 0.12,
          "phone": "ih_I"
        },
        {
          "duration": 0.17,
          "phone": "ch_I"
        },
        {
          "duration": 0.17,
          "phone": "er_E"
        }
      ],
      "start": 3.45,
      "startOffset": 36,
      "word": "RICHER"
    },
    {
      "alignedWord": "and",
      "case": "success",
      "end": 4.26,
      "endOffset": 46,
      "phones": [
        {
          "duration": 0.07,
          "phone": "ae_B"
        },
        {
          "duration": 0.09,
          "phone": "n_I"
        },
        {
          "duration": 0.02,
          "phone": "d_E"
        }
      ],
      "start": 4.08,
      "startOffset": 43,
      "word": "AND"
    },
    {
      "alignedWord": "deeper",
      "case": "success",
      "end": 4.81,
      "endOffset": 53,
      "phones": [
        {
          "duration": 0.11,
          "phone": "d_B"
        },
        {
          "duration": 0.12,
          "phone": "iy_I"
        },
        {
          "duration": 0.08,
          "phone": "p_I"
        },
        {
          "duration": 0.23,
          "phone": "er_E"
        }
      ],
      "start": 4.27,
      "startOffset": 47,
      "word": "DEEPER"
    },
    {
      "alignedWord": "than",
      "case": "success",
      "end": 5.109999999999999,
      "endOffset": 58,
      "phones": [
        {
          "duration": 0.08,
          "phone": "dh_B"
        },
        {
          "duration": 0.1,
          "phone": "ae_I"
        },
        {
          "duration": 0.08,
          "phone": "n_E"
        }
      ],
      "start": 4.85,
      "startOffset": 54,
      "word": "THAN"
    },
    {
      "alignedWord": "the",
      "case": "success",
      "end": 5.220000000000001,
      "endOffset": 62,
      "phones": [
        {
          "duration": 0.06,
          "phone": "dh_B"
        },
        {
          "duration": 0.05,
          "phone": "ah_E"
        }
      ],
      "start": 5.11,
      "startOffset": 59,
      "word": "THE"
    },
    {
      "alignedWord": "vulgar",
      "case": "success",
      "end": 5.8,
      "endOffset": 69,
      "phones": [
        {
          "duration": 0.1,
          "phone": "v_B"
        },
        {
          "duration": 0.09,
          "phone": "ah_I"
        },
        {
          "duration": 0.14,
          "phone": "l_I"
        },
        {
          "duration": 0.1,
          "phone": "g_I"
        },
        {
          "duration": 0.15,
          "phone": "er_E"
        }
      ],
      "start": 5.22,
      "startOffset": 63,
      "word": "VULGAR"
    },
    {
      "alignedWord": "health",
      "case": "success",
      "end": 6.2299999999999995,
      "endOffset": 76,
      "phones": [
        {
          "duration": 0.09,
          "phone": "hh_B"
        },
        {
          "duration": 0.09,
          "phone": "eh_I"
        },
        {
          "duration": 0.13,
          "phone": "l_I"
        },
        {
          "duration": 0.11,
          "phone": "th_E"
        }
      ],
      "start": 5.81,
      "startOffset": 70,
      "word": "HEALTH"
    },
    {
      "alignedWord": "of",
      "case": "success",
      "end": 6.43,
      "endOffset": 79,
      "phones": [
        {
          "duration": 0.09,
          "phone": "ah_B"
        },
        {
          "duration": 0.09,
          "phone": "v_E"
        }
      ],
      "start": 6.25,
      "startOffset": 77,
      "word": "OF"
    },
    {
      "alignedWord": "the",
      "case": "success",
      "end": 6.55,
      "endOffset": 83,
      "phones": [
        {
          "duration": 0.02,
          "phone": "dh_B"
        },
        {
          "duration": 0.1,
          "phone": "ah_E"
        }
      ],
      "start": 6.43,
      "startOffset": 80,
      "word": "THE"
    },
    {
      "alignedWord": "dreaming",
      "case": "success",
      "end": 7.16,
      "endOffset": 92,
      "phones": [
        {
          "duration": 0.08,
          "phone": "d_B"
        },
        {
          "duration": 0.09,
          "phone": "r_I"
        },
        {
          "duration": 0.13,
          "phone": "iy_I"
        },
        {
          "duration": 0.06,
          "phone": "m_I"
        },
        {
          "duration": 0.11,
          "phone": "ih_I"
        },
        {
          "duration": 0.14,
          "phone": "ng_E"
        }
      ],
      "start": 6.55,
      "startOffset": 84,
      "word": "DREAMING"
    },
    {
      "alignedWord": "sleep",
      "case": "success",
      "end": 7.62,
      "endOffset": 98,
      "phones": [
        {
          "duration": 0.18,
          "phone": "s_B"
        },
        {
          "duration": 0.09,
          "phone": "l_I"
        },
        {
          "duration": 0.08,
          "phone": "iy_I"
        },
        {
          "duration": 0.1,
          "phone": "p_E"
        }
      ],
      "start": 7.17,
      "startOffset": 93,
      "word": "SLEEP"
    },
    {
      "alignedWord": "walkers",
      "case": "success",
      "end": 8.3,
      "endOffset": 106,
      "phones": [
        {
          "duration": 0.08,
          "phone": "w_B"
        },
        {
          "duration": 0.15,
          "phone": "ao_I"
        },
        {
          "duration": 0.11,
          "phone": "k_I"
        },
        {
          "duration": 0.13,
          "phone": "er_I"
        },
        {
          "duration": 0.2,
          "phone": "z_E"
        }
      ],
      "start": 7.63,
      "startOffset": 99,
      "word": "WALKERS"
    },
    {
      "alignedWord": "all",
      "case": "success",
      "end": 8.899999999999999,
      "endOffset": 110,
      "phones": [
        {
          "duration": 0.23,
          "phone": "ao_B"
        },
        {
          "duration": 0.13,
          "phone": "l_E"
        }
      ],
      "start": 8.54,
      "startOffset": 107,
      "word": "ALL"
    },
    {
      "alignedWord": "around",
      "case": "success",
      "end": 9.42,
      "endOffset": 117,
      "phones": [
        {
          "duration": 0.17,
          "phone": "er_B"
        },
        {
          "duration": 0.17,
          "phone": "aw_I"
        },
        {
          "duration": 0.09,
          "phone": "n_I"
        },
        {
          "duration": 0.08,
          "phone": "d_E"
        }
      ],
      "start": 8.91,
      "startOffset": 111,
      "word": "AROUND"
    },
    {
      "alignedWord": "me",
      "case": "success",
      "end": 9.77,
      "endOffset": 120,
      "phones": [
        {
          "duration": 0.09,
          "phone": "m_B"
        },
        {
          "duration": 0.23,
          "phone": "iy_E"
        }
      ],
      "start": 9.45,
      "startOffset": 118,
      "word": "ME"
    },
    {
      "alignedWord": "and",
      "case": "success",
      "end": 11.38,
      "endOffset": 124,
      "phones": [
        {
          "duration": 0.14,
          "phone": "ae_B"
        },
        {
          "duration": 0.06,
          "phone": "n_I"
        },
        {
          "duration": 0.05,
          "phone": "d_E"
        }
      ],
      "start": 11.13,
      "startOffset": 121,
      "word": "AND"
    },
    {
      "alignedWord": "with",
      "case": "success",
      "end": 11.66,
      "endOffset": 129,
      "phones": [
        {
          "duration": 0.08,
          "phone": "w_B"
        },
        {
          "duration": 0.1,
          "phone": "ih_I"
        },
        {
          "duration": 0.1,
          "phone": "th_E"
        }
      ],
      "start": 11.38,
      "startOffset": 125,
      "word": "WITH"
    },
    {
      "alignedWord": "the",
      "case": "success",
      "end": 11.860000000000001,
      "endOffset": 133,
      "phones": [
        {
          "duration": 0.06,
          "phone": "dh_B"
        },
        {
          "duration": 0.09,
          "phone": "ah_E"
        }
      ],
      "start": 11.71,
      "startOffset": 130,
      "word": "THE"
    },
    {
      "alignedWord": "<unk>",
      "case": "success",
      "end": 12.69,
      "endOffset": 144,
      "phones": [
        {
          "duration": 0.83,
          "phone": "oov_S"
        }
      ],
      "start": 11.86,
      "startOffset": 134,
      "word": "SICKLINESS"
    },
    {
      "alignedWord": "which",
      "case": "success",
      "end": 13.159999999999998,
      "endOffset": 150,
      "phones": [
        {
          "duration": 0.1,
          "phone": "w_B"
        },
        {
          "duration": 0.09,
          "phone": "ih_I"
        },
        {
          "duration": 0.1,
          "phone": "ch_E"
        }
      ],
      "start": 12.87,
      "startOffset": 145,
      "word": "WHICH"
    },
    {
      "alignedWord": "was",
      "case": "success",
      "end": 13.41,
      "endOffset": 154,
      "phones": [
        {
          "duration": 0.06,
          "phone": "w_B"
        },
        {
          "duration": 0.1,
          "phone": "aa_I"
        },
        {
          "duration": 0.09,
          "phone": "z_E"
        }
      ],
      "start": 13.16,
      "startOffset": 151,
      "word": "WAS"
    },
    {
      "alignedWord": "not",
      "case": "success",
      "end": 13.72,
      "endOffset": 158,
      "phones": [
        {
          "duration": 0.06,
          "phone": "n_B"
        },
        {
          "duration": 0.17,
          "phone": "aa_I"
        },
        {
          "duration": 0.08,
          "phone": "t_E"
        }
      ],
      "start": 13.41,
      "startOffset": 155,
      "word": "NOT"
    },
    {
      "alignedWord": "at",
      "case": "success",
      "end": 13.849999,
      "endOffset": 161,
      "phones": [
        {
          "duration": 0.06,
          "phone": "ae_B"
        },
        {
          "duration": 0.07,
          "phone": "t_E"
        }
      ],
      "start": 13.719999,
      "startOffset": 159,
      "word": "AT"
    },
    {
      "alignedWord": "all",
      "case": "success",
      "end": 14.119999,
      "endOffset": 165,
      "phones": [
        {
          "duration": 0.15,
          "phone": "ao_B"
        },
        {
          "duration": 0.12,
          "phone": "l_E"
        }
      ],
      "start": 13.849999,
      "startOffset": 162,
      "word": "ALL"
    },
    {
      "alignedWord": "unpleasant",
      "case": "success",
      "end": 15.05,
      "endOffset": 176,
      "phones": [
        {
          "duration": 0.14,
          "phone": "ah_B"
        },
        {
          "duration": 0.14,
          "phone": "n_I"
        },
        {
          "duration": 0.09,
          "phone": "p_I"
        },
        {
          "duration": 0.09,
          "phone": "l_I"
        },
        {
          "duration": 0.09,
          "phone": "eh_I"
        },
        {
          "duration": 0.05,
          "phone": "z_I"
        },
        {
          "duration": 0.08,
          "phone": "ah_I"
        },
        {
          "duration": 0.06,
          "phone": "n_I"
        },
        {
          "duration": 0.14,
          "phone": "t_E"
        }
      ],
      "start": 14.17,
      "startOffset": 166,
      "word": "UNPLEASANT"
    }
  ]
}