{
  "transcript": "MARY ELLEN I HAVE A REAL TREAT AND SURPRISE FOR YOU JUST WAIT A FEW MINUTES AN I'LL BET YOU'LL BE HAPPY WE TOOK OUR ACCUSTOMED PLACES AROUND THE FIRE WHILE MISTER MURRY HOBBLED HIS CAYUSE AND TOOK AN ODD LOOKING BUNDLE FROM HIS SADDLE",
  "words": [
    {
      "alignedWord": "mary",
      "case": "success",
      "end": 0.6799999999999999,
      "endOffset": 4,
      "phones": [
        {
          "duration": 0.08,
          "phone": "m_B"
        },
        {
          "duration": 0.09,
          "phone": "eh_I"
        },
        {
          "duration": 0.09,
          "phone": "r_I"
        },
        {
          "duration": 0.07,
          "phone": "iy_E"
        }
      ],
      "start": 0.35,
      "startOffset": 0,
      "word": "MARY"
    },
    {
      "alignedWord": "ellen",
      "case": "success",
      "end": 1.07,
      "endOffset": 10,
      "phones": [
        {
          "duration": 0.11,
          "phone": "eh_B"
        },
        {
          "duration": 0.06,
          "phone": "l_I"
        },
        {
          "duration": 0.07,
          "phone": "ah_I"
        },
        {
          "duration": 0.15,
          "phone": "n_E"
        }
      ],
      "start": 0.68,
      "startOffset": 5,
      "word": "ELLEN"
    },
    {
      "alignedWord": "i",
      "case": "success",
      "end": 1.31,
      "endOffset": 12,
      "phones": [
        {
          "duration": 0.1,
          "phone": "ay_S"
        }
      ],
      "start": 1.21,
      "startOffset": 11,
      "word": "I"
    },
    {
      "alignedWord": "have",
      "case": "success",
      "end": 1.44,
      "endOffset": 17,
      "phones": [
        {
          "duration": 0.03,
          "phone": "hh_B"
        },
        {
          "duration": 0.05,
          "phone": "ae_I"
        },
        {
          "duration": 0.05,
          "phone": "v_E"
        }
      ],
      "start": 1.31,
      "startOffset": 13,
      "word": "HAVE"
    },
    {
      "alignedWord": "a",
      "case": "success",
      "end": 1.52,
      "endOffset": 19,
      "phones": [
        {
          "duration": 0.08,
          "phone": "ah_S"
        }
      ],
      "start": 1.44,
      "startOffset": 18,
      "word": "A"
    },
    {
      "alignedWord": "real",
      "case": "success",
      "end": 1.79,
      "endOffset": 24,
      "phones": [
        {
          "duration": 0.09,
          "phone": "r_B"
        },
        {
          "duration": 0.1,
          "phone": "iy_I"
        },
        {
          "duration": 0.08,
          "phone": "l_E"
        }
      ],
      "start": 1.52,
      "startOffset": 20,
      "word": "REAL"
    },
    {
      "alignedWord": "treat",
      "case": "success",
      "end": 2.13,
      "endOffset": 30,
      "phones": [
        {
          "duration": 0.12,
          "phone": "t_B"
        },
        {
          "duration": 0.1,
          "phone": "r_I"
        },
        {
          "duration": 0.09,
          "phone": "iy_I"
        },
        {
          "duration": 0.03,
          "phone": "t_E"
        }
      ],
      "start": 1.79,
      "startOffset": 25,
      "word": "TREAT"
    },
    {
      "alignedWord": "and",
      "case": "success",
      "end": 2.28,
      "endOffset": 34,
      "phones": [
        {
          "duration": 0.06,
          "phone": "ah_B"
        },
        {
          "duration": 0.01,
          "phone": "n_I"
        },
        {
          "duration": 0.08,
          "phone": "d_E"
        }
      ],
      "start": 2.13,
      "startOffset": 31,
      "word": "AND"
    },
    {
      "alignedWord": "surprise",
      "case": "success",
      "end": 2.82,
      "endOffset": 43,
      "phones": [
        {
          "duration": 0.05,
          "phone": "s_B"
        },
        {
          "duration": 0.08,
          "phone": "ah_I"
        },
        {
          "duration": 0.09,
          "phone": "p_I"
        },
        {
          "duration": 0.09,
          "phone": "r_I"
        },
        {
          "duration": 0.12,
          "phone": "ay_I"
        },
        {
          "duration": 0.11,
          "phone": "z_E"
        }
      ],
      "start": 2.28,
      "startOffset": 35,
      "word": "SURPRISE"
    },
    {
      "alignedWord": "for",
      "case": "success",
      "end": 2.98,
      "endOffset": 47,
      "phones": [
        {
          "duration": 0.06,
          "phone": "f_B"
        },
        {
          "duration": 0.07,
          "phone": "er_E"
        }
      ],
      "start": 2.85,
      "startOffset": 44,
      "word": "FOR"
    },
    {
      "alignedWord": "you",
      "case": "success",
      "end": 3.34,
      "endOffset": 51,
      "phones": [
        {
          "duration": 0.13,
          "phone": "y_B"
        },
        {
          "duration": 0.23,
          "phone": "uw_E"
        }
      ],
      "start": 2.98,
      "startOffset": 48,
      "word": "YOU"
    },
    {
      "alignedWord": "just",
      "case": "success",
      "end": 3.9400000000000004,
      "endOffset": 56,
      "phones": [
        {
          "duration": 0.08,
          "phone": "jh_B"
        },
        {
          "duration": 0.06,
          "phone": "ah_I"
        },
        {
          "duration": 0.06,
          "phone": "s_I"
        },
        {
          "duration": 0.08,
          "phone": "t_E"
        }
      ],
      "start": 3.66,
      "startOffset": 52,
      "word": "JUST"
    },
    {
      "alignedWord": "wait",
      "case": "success",
      "end": 4.13,
      "endOffset": 61,
      "phones": [
        {
          "duration": 0.06,
          "phone": "w_B"
        },
        {
          "duration": 0.07,
          "phone": "ey_I"
        },
        {
          "duration": 0.06,
          "phone": "t_E"
        }
      ],
      "start": 3.94,
      "startOffset": 57,
      "word": "WAIT"
    },
    {
      "alignedWord": "a",
      "case": "success",
      "end": 4.2,
      "endOffset": 63,
      "phones": [
        {
          "duration": 0.07,
          "phone": "ah_S"
        }
      ],
      "start": 4.13,
      "startOffset": 62,
      "word": "A"
    },
    {
      "alignedWord": "few",
      "case": "success",
      "end": 4.4,
      "endOffset": 67,
      "phones": [
        {
          "duration": 0.07,
          "phone": "f_B"
        },
        {
          "duration": 0.07,
          "phone": "y_I"
        },
        {
          "duration": 0.06,
          "phone": "uw_E"
        }
      ],
      "start": 4.2,
      "startOffset": 64,
      "word": "FEW"
    },
    {
      "alignedWord": "minutes",
      "case": "success",
      "end": 4.78,
      "endOffset": 75,
      "phones": [
        {
          "duration": 0.06,
          "phone": "m_B"
        },
        {
          "duration": 0.08,
          "phone": "ih_I"
        },
        {
          "duration": 0.06,
          "phone": "n_I"
        },
        {
          "duration": 0.06,
          "phone": "ah_I"
        },
        {
          "duration": 0.07,
          "phone": "t_I"
        },
        {
          "duration": 0.05,
          "phone": "s_E"
        }
      ],
      "start": 4.4,
      "startOffset": 68,
      "word": "MINUTES"
    },
    {
      "alignedWord": "an",
      "case": "success",
      "end": 4.9,
      "endOffset": 78,
      "phones": [
        {
          "duration": 0.05,
          "phone": "ah_B"
        },
        {
          "duration": 0.07,
          "phone": "n_E"
        }
      ],
      "start": 4.78,
      "startOffset": 76,
      "word": "AN"
    },
    {
      "alignedWord": "i'll",
      "case": "success",
      "end": 5.16,
      "endOffset": 83,
      "phones": [
        {
          "duration": 0.1,
          "phone": "ay_B"
        },
        {
          "duration": 0.15,
          "phone": "l_E"
        }
      ],
      "start": 4.91,
      "startOffset": 79,
      "word": "I'LL"
    },
    {
      "alignedWord": "bet",
      "case": "success",
      "end": 5.43,
      "endOffset": 87,
      "phones": [
        {
          "duration": 0.1,
          "phone": "b_B"
        },
        {
          "duration": 0.08,
          "phone": "eh_I"
        },
        {
          "duration": 0.08,
          "phone": "t_E"
        }
      ],
      "start": 5.17,
      "startOffset": 84,
      "word": "BET"
    },
    {
      "alignedWord": "you'll",
      "case": "success",
      "end": 5.62,
      "endOffset": 94,
      "phones": [
        {
          "duration": 0.05,
          "phone": "y_B"
        },
        {
          "duration": 0.1,
          "phone": "uw_I"
        },
        {
          "duration": 0.04,
          "phone": "l_E"
        }
      ],
      "start": 5.43,
      "startOffset": 88,
      "word": "YOU'LL"
    },
    {
      "alignedWord": "be",
      "case": "success",
      "end": 5.82,
      "endOffset": 97,
      "phones": [
        {
          "duration": 0.08,
          "phone": "b_B"
        },
        {
          "duration": 0.11,
          "phone": "iy_E"
        }
      ],
      "start": 5.63,
      "startOffset": 95,
      "word": "BE"
    },
    {
      "alignedWord": "happy",
      "case": "success",
      "end": 6.29,
      "endOffset": 103,
      "phones": [
        {
          "duration": 0.07,
          "phone": "hh_B"
        },
        {
          "duration": 0.1,
          "phone": "ae_I"
        },
        {
          "duration": 0.1,
          "phone": "p_I"
        },
        {
          "duration": 0.2,
          "phone": "iy_E"
        }
      ],
      "start": 5.82,
      "startOffset": 98,
      "word": "HAPPY"
    },
    {
      "alignedWord": "we",
      "case": "success",
      "end": 7.45,
      "endOffset": 106,
      "phones": [
        {
          "duration": 0.12,
          "phone": "w_B"
        },
        {
          "duration": 0.07,
          "phone": "iy_E"
        }
      ],
      "start": 7.26,
      "startOffset": 104,
      "word": "WE"
    },
    {
      "alignedWord": "took",
      "case": "success",
      "end": 7.66,
      "endOffset": 111,
      "phones": [
        {
          "duration": 0.06,
          "phone": "t_B"
        },
        {
          "duration": 0.08,
          "phone": "uh_I"
        },
        {
          "duration": 0.07,
          "phone": "k_E"
        }
      ],
      "start": 7.45,
      "startOffset": 107,
      "word": "TOOK"
    },
    {
      "alignedWord": "our",
      "case": "success",
      "end": 7.8,
      "endOffset": 115,
      "phones": [
        {
          "duration": 0.07,
          "phone": "aa_B"
        },
        {
          "duration": 0.07,
          "phone": "r_E"
        }
      ],
      "start": 7.66,
      "startOffset": 112,
      "word": "OUR"
    },
    {
      "alignedWord": "accustomed",
      "case": "success",
      "end": 8.32,
      "endOffset": 126,
      "phones": [
        {
          "duration": 0.09,
          "phone": "ah_B"
        },
        {
          "duration": 0.09,
          "phone": "k_I"
        },
        {
          "duration": 0.06,
          "phone": "ah_I"
        },
        {
          "duration": 0.07,
          "phone": "s_I"
        },
        {
          "duration": 0.07,
          "phone": "t_I"
        },
        {
          "duration": 0.07,
          "phone": "ah_I"
        },
        {
          "duration": 0.04,
          "phone": "m_I"
        },
        {
          "duration": 0.03,
          "phone": "d_E"
        }
      ],
      "start": 7.8,
      "startOffset": 116,
      "word": "ACCUSTOMED"
    },
    {
      "alignedWord": "places",
      "case": "success",
      "end": 8.790000000000001,
      "endOffset": 133,
      "phones": [
        {
          "duration": 0.09,
          "phone": "p_B"
        },
        {
          "duration": 0.08,
          "phone": "l_I"
        },
        {
          "duration": 0.06,
          "phone": "ey_I"
        },
        {
          "duration": 0.08,
          "phone": "s_I"
        },
        {
          "duration": 0.06,
          "phone": "ih_I"
        },
        {
          "duration": 0.1,
          "phone": "z_E"
        }
      ],
      "start": 8.32,
      "startOffset": 127,
      "word": "PLACES"
    },
    {
      "alignedWord": "around",
      "case": "success",
      "end": 9.049999999999999,
      "endOffset": 140,
      "phones": [
        {
          "duration": 0.1,
          "phone": "er_B"
        },
        {
          "duration": 0.1,
          "phone": "aw_I"
        },
        {
          "duration": 0.06,
          "phone": "n_E"
        }
      ],
      "start": 8.79,
      "startOffset": 134,
      "word": "AROUND"
    },
    {
      "alignedWord": "the",
      "case": "success",
      "end": 9.15,
      "endOffset": 144,
      "phones": [
        {
          "duration": 0.04,
          "phone": "dh_B"
        },
        {
          "duration": 0.06,
          "phone": "ah_E"
        }
      ],
      "start": 9.05,
      "startOffset": 141,
      "word": "THE"
    },
    {
      "alignedWord": "fire",
      "case": "success",
      "end": 9.6,
      "endOffset": 149,
      "phones": [
        {
          "duration": 0.12,
          "phone": "f_B"
        },
        {
          "duration": 0.13,
          "phone": "ay_I"
        },
        {
          "duration": 0.2,
          "phone": "r_E"
        }
      ],
      "start": 9.15,
      "startOffset": 145,
      "word": "FIRE"
    },
    {
      "alignedWord": "while",
      "case": "success",
      "end": 10.03,
      "endOffset": 155,
      "phones": [
        {
          "duration": 0.09,
          "phone": "w_B"
        },
        {
          "duration": 0.03,
          "phone": "ay_I"
        },
        {
          "duration": 0.07,
          "phone": "l_E"
        }
      ],
      "start": 9.84,
      "startOffset": 150,
      "word": "WHILE"
    },
    {
      "alignedWord": "mister",
      "case": "success",
      "end": 10.36,
      "endOffset": 162,
      "phones": [
        {
          "duration": 0.07,
          "phone": "m_B"
        },
        {
          "duration": 0.07,
          "phone": "ih_I"
        },
        {
          "duration": 0.04,
          "phone": "s_I"
        },
        {
          "duration": 0.08,
          "phone": "t_I"
        },
        {
          "duration": 0.07,
          "phone": "er_E"
        }
      ],
      "start": 10.03,
      "startOffset": 156,
      "word": "MISTER"
    },
    {
      "alignedWord": "<unk>",
      "case": "success",
      "end": 10.7,
      "endOffset": 168,
      "phones": [
        {
          "duration": 0.34,
          "phone": "oov_S"
        }
      ],
      "start": 10.36,
      "startOffset": 163,
      "word": "MURRY"
    },
    {
      "alignedWord": "<unk>",
      "case": "success",
      "end": 11.15,
      "endOffset": 176,
      "phones": [
        {
          "duration": 0.4,
          "phone": "oov_S"
        }
      ],
      "start": 10.75,
      "startOffset": 169,
      "word": "HOBBLED"
    },
    {
      "alignedWord": "his",
      "case": "success",
      "end": 11.41,
      "endOffset": 180,
      "phones": [
        {
          "duration": 0.07,
          "phone": "hh_B"
        },
        {
          "duration": 0.08,
          "phone": "ih_I"
        },
        {
          "duration": 0.1,
          "phone": "z_E"
        }
      ],
      "start": 11.16,
      "startOffset": 177,
      "word": "HIS"
    },
    {
      "alignedWord": "<unk>",
      "case": "success",
      "end": 11.97,
      "endOffset": 187,
      "phones": [
        {
          "duration": 0.56,
          "phone": "oov_S"
        }
      ],
      "start": 11.41,
      "startOffset": 181,
      "word": "CAYUSE"
    },
    {
      "alignedWord": "and",
      "case": "success",
      "end": 12.370000000000001,
      "endOffset": 191,
      "phones": [
        {
          "duration": 0.06,
          "phone": "ae_B"
        },
        {
          "duration": 0.02,
          "phone": "n_I"
        },
        {
          "duration": 0.06,
          "phone": "d_E"
        }
      ],
      "start": 12.23,
      "startOffset": 188,
      "word": "AND"
    },
    {
      "alignedWord": "took",
      "case": "success",
      "end": 12.5,
      "endOffset": 196,
      "phones": [
        {
          "duration": 0.02,
          "phone": "t_B"
        },
        {
          "duration": 0.08,
          "phone": "uh_I"
        },
        {
          "duration": 0.03,
          "phone": "k_E"
        }
      ],
      "start": 12.37,
      "startOffset": 192,
      "word": "TOOK"
    },
    {
      "alignedWord": "an",
      "case": "success",
      "end": 12.66,
      "endOffset": 199,
      "phones": [
        {
          "duration": 0.07,
          "phone": "ah_B"
        },
        {
          "duration": 0.09,
          "phone": "n_E"
        }
      ],
      "start": 12.5,
      "startOffset": 197,
      "word": "AN"
    },
    {
      "alignedWord": "odd",
      "case": "success",
      "end": 13.0,
      "endOffset": 203,
      "phones": [
        {
          "duration": 0.24,
          "phone": "aa_B"
        },
        {
          "duration": 0.09,
          "phone": "d_E"
        }
      ],
      "start": 12.67,
      "startOffset": 200,
      "word": "ODD"
    },
    {
      "alignedWord": "looking",
      "case": "success",
      "end": 13.35,
      "endOffset": 211,
      "phones": [
        {
          "duration": 0.04,
          "phone": "l_B"
        },
        {
          "duration": 0.05,
          "phone": "uh_I"
        },
        {
          "duration": 0.06,
          "phone": "k_I"
        },
        {
          "duration": 0.09,
          "phone": "ih_I"
        },
        {
          "duration": 0.11,
          "phone": "ng_E"
        }
      ],
      "start": 13.0,
      "startOffset": 204,
      "word": "LOOKING"
    },
    {
      "alignedWord": "bundle",
      "case": "success",
      "end": 13.729999000000001,
      "endOffset": 218,
      "phones": [
        {
          "duration": 0.05,
          "phone": "b_B"
        },
        {
          "duration": 0.08,
          "phone": "ah_I"
        },
        {
          "duration": 0.06,
          "phone": "n_I"
        },
        {
          "duration": 0.07,
          "phone": "d_I"
        },
        {
          "duration": 0.06,
          "phone": "ah_I"
        },
        {
          "duration": 0.06,
          "phone": "l_E"
        }
      ],
      "start": 13.349999,
      "startOffset": 212,
      "word": "BUNDLE"
    },
    {
      "alignedWord": "from",
      "case": "success",
      "end": 13.96,
      "endOffset": 223,
      "phones": [
        {
          "duration": 0.08,
          "phone": "f_B"
        },
        {
          "duration": 0.05,
          "phone": "er_I"
        },
        {
          "duration": 0.1,
          "phone": "m_E"
        }
      ],
      "start": 13.73,
      "startOffset": 219,
      "word": "FROM"
    },
    {
      "alignedWord": "his",
      "case": "success",
      "end": 13.999998999999999,
      "endOffset": 227,
      "phones": [
        {
          "duration": 0.01,
          "phone": "hh_B"
        },
        {
          "duration": 0.01,
          "phone": "ih_I"
        },
        {
          "duration": 0.01,
          "phone": "z_E"
        }
      ],
      "start": 13.969999,
      "startOffset": 224,
      "word": "HIS"
    },
    {
      "alignedWord": "saddle",
      "case": "success",
      "end": 14.549999,
      "endOffset": 234,
      "phones": [
        {
          "duration": 0.16,
          "phone": "s_B"
        },
        {
          "duration": 0.13,
          "phone": "ae_I"
        },
        {
          "duration": 0.04,
          "phone": "d_I"
        },
        {
          "duration": 0.07,
          "phone": "ah_I"
        },
        {
          "duration": 0.14,
          "phone": "l_E"
        }
      ],
      "start": 14.009999,
      "startOffset": 228,
      "word": "SADDLE"
    }
  ]
}