{
  "transcript": "HAPPILY THE CANNONADING WAS NOT RENEWED THAT NIGHT AND AT DAWN OF DAY SHE RETURNED TO HER APARTMENTS WITH HER HUSBAND BY HER SIDE ON THAT DAY THE FRENCH ARMY ENTERED ROME AND THE GATES BEING OPENED MADAME OSSOLI ACCOMPANIED BY THE MARQUIS",
  "words": [
    {
      "alignedWord": "happily",
      "case": "success",
      "end": 0.9099999999999999,
      "endOffset": 7,
      "phones": [
        {
          "duration": 0.1,
          "phone": "hh_B"
        },
        {
          "duration": 0.08,
          "phone": "ae_I"
        },
        {
          "duration": 0.06,
          "phone": "p_I"
        },
        {
          "duration": 0.07,
          "phone": "ah_I"
        },
        {
          "duration": 0.09,
          "phone": "l_I"
        },
        {
          "duration": 0.1,
          "phone": "iy_E"
        }
      ],
      "start": 0.41,
      "startOffset": 0,
      "word": "HAPPILY"
    },
    {
      "alignedWord": "the",
      "case": "success",
      "end": 1.05,
      "endOffset": 11,
      "phones": [
        {
          "duration": 0.06,
          "phone": "dh_B"
        },
        {
          "duration": 0.08,
          "phone": "ah_E"
        }
      ],
      "start": 0.91,
      "startOffset": 8,
      "word": "THE"
    },
    {
      "alignedWord": "<unk>",
      "case": "success",
      "end": 1.6400000000000001,
      "endOffset": 23,
      "phones": [
        {
          "duration": 0.59,
          "phone": "oov_S"
        }
      ],
      "start": 1.05,
      "startOffset": 12,
      "word": "CANNONADING"
    },
    {
      "alignedWord": "was",
      "case": "success",
      "end": 1.8599999999999999,
      "endOffset": 27,
      "phones": [
        {
          "duration": 0.08,
          "phone": "w_B"
        },
        {
          "duration": 0.05,
          "phone": "ah_I"
        },
        {
          "duration": 0.08,
          "phone": "z_E"
        }
      ],
      "start": 1.65,
      "startOffset": 24,
      "word": "WAS"
    },
    {
      "alignedWord": "not",
      "case": "success",
      "end": 2.08,
      "endOffset": 31,
      "phones": [
        {
          "duration": 0.05,
          "phone": "n_B"
        },
        {
          "duration": 0.11,
          "phone": "aa_I"
        },
        {
          "duration": 0.06,
          "phone": "t_E"
        }
      ],
      "start": 1.86,
      "startOffset": 28,
      "word": "NOT"
    },
    {
      "alignedWord": "renewed",
      "case": "success",
      "end": 2.46,
      "endOffset": 39,
      "phones": [
        {
          "duration": 0.06,
          "phone": "r_B"
        },
        {
          "duration": 0.04,
          "phone": "iy_I"
        },
        {
          "duration": 0.1,
          "phone": "n_I"
        },
        {
          "duration": 0.09,
          "phone": "uw_I"
        },
        {
          "duration": 0.08,
          "phone": "d_E"
        }
      ],
      "start": 2.09,
      "startOffset": 32,
      "word": "RENEWED"
    },
    {
      "alignedWord": "that",
      "case": "success",
      "end": 2.63,
      "endOffset": 44,
      "phones": [
        {
          "duration": 0.01,
          "phone": "dh_B"
        },
        {
          "duration": 0.08,
          "phone": "ae_I"
        },
        {
          "duration": 0.08,
          "phone": "t_E"
        }
      ],
      "start": 2.46,
      "startOffset": 40,
      "word": "THAT"
    },
    {
      "alignedWord": "night",
      "case": "success",
      "end": 2.9899999999999998,
      "endOffset": 50,
      "phones": [
        {
          "duration": 0.06,
          "phone": "n_B"
        },
        {
          "duration": 0.12,
          "phone": "ay_I"
        },
        {
          "duration": 0.18,
          "phone": "t_E"
        }
      ],
      "start": 2.63,
      "startOffset": 45,
      "word": "NIGHT"
    },
    {
      "alignedWord": "and",
      "case": "success",
      "end": 3.5100000000000002,
      "endOffset": 54,
      "phones": [
        {
          "duration": 0.09,
          "phone": "ae_B"
        },
        {
          "duration": 0.07,
          "phone": "n_I"
        },
        {
          "duration": 0.04,
          "phone": "d_E"
        }
      ],
      "start": 3.31,
      "startOffset": 51,
      "word": "AND"
    },
    {
      "alignedWord": "at",
      "case": "success",
      "end": 3.6399999999999997,
      "endOffset": 57,
      "phones": [
        {
          "duration": 0.05,
          "phone": "ae_B"
        },
        {
          "duration": 0.08,
          "phone": "t_E"
        }
      ],
      "start": 3.51,
      "startOffset": 55,
      "word": "AT"
    },
    {
      "alignedWord": "dawn",
      "case": "success",
      "end": 3.9000000000000004,
      "endOffset": 62,
      "phones": [
        {
          "duration": 0.08,
          "phone": "d_B"
        },
        {
          "duration": 0.13,
          "phone": "ao_I"
        },
        {
          "duration": 0.05,
          "phone": "n_E"
        }
      ],
      "start": 3.64,
      "startOffset": 58,
      "word": "DAWN"
    },
    {
      "alignedWord": "of",
      "case": "success",
      "end": 4.01,
      "endOffset": 65,
      "phones": [
        {
          "duration": 0.04,
          "phone": "ah_B"
        },
        {
          "duration": 0.07,
          "phone": "v_E"
        }
      ],
      "start": 3.9,
      "startOffset": 63,
      "word": "OF"
    },
    {
      "alignedWord": "day",
      "case": "success",
      "end": 4.26,
      "endOffset": 69,
      "phones": [
        {
          "duration": 0.09,
          "phone": "d_B"
        },
        {
          "duration": 0.16,
          "phone": "ey_E"
        }
      ],
      "start": 4.01,
      "startOffset": 66,
      "word": "DAY"
    },
    {
      "alignedWord": "she",
      "case": "success",
      "end": 4.45,
      "endOffset": 73,
      "phones": [
        {
          "duration": 0.11,
          "phone": "sh_B"
        },
        {
          "duration": 0.08,
          "phone": "iy_E"
        }
      ],
      "start": 4.26,
      "startOffset": 70,
      "word": "SHE"
    },
    {
      "alignedWord": "returned",
      "case": "success",
      "end": 4.92,
      "endOffset": 82,
      "phones": [
        {
          "duration": 0.07,
          "phone": "r_B"
        },
        {
          "duration": 0.07,
          "phone": "iy_I"
        },
        {
          "duration": 0.09,
          "phone": "t_I"
        },
        {
          "duration": 0.12,
          "phone": "er_I"
        },
        {
          "duration": 0.05,
          "phone": "n_I"
        },
        {
          "duration": 0.07,
          "phone": "d_E"
        }
      ],
      "start": 4.45,
      "startOffset": 74,
      "word": "RETURNED"
    },
    {
      "alignedWord": "to",
      "case": "success",
      "end": 5.11,
      "endOffset": 85,
      "phones": [
        {
          "duration": 0.07,
          "phone": "t_B"
        },
        {
          "duration": 0.09,
          "phone": "uw_E"
        }
      ],
      "start": 4.95,
      "startOffset": 83,
      "word": "TO"
    },
    {
      "alignedWord": "her",
      "case": "success",
      "end": 5.28,
      "endOffset": 89,
      "phones": [
        {
          "duration": 0.08,
          "phone": "hh_B"
        },
        {
          "duration": 0.09,
          "phone": "er_E"
        }
      ],
      "start": 5.11,
      "startOffset": 86,
      "word": "HER"
    },
    {
      "alignedWord": "apartments",
      "case": "success",
      "end": 5.79,
      "endOffset": 100,
      "phones": [
        {
          "duration": 0.05,
          "phone": "ah_B"
        },
        {
          "duration": 0.08,
          "phone": "p_I"
        },
        {
          "duration": 0.05,
          "phone": "aa_I"
        },
        {
          "duration": 0.04,
          "phone": "r_I"
        },
        {
          "duration": 0.05,
          "phone": "t_I"
        },
        {
          "duration": 0.06,
          "phone": "m_I"
        },
        {
          "duration": 0.03,
          "phone": "ah_I"
        },
        {
          "duration": 0.05,
          "phone": "n_I"
        },
        {
          "duration": 0.03,
          "phone": "t_I"
        },
        {
          "duration": 0.07,
          "phone": "s_E"
        }
      ],
      "start": 5.28,
      "startOffset": 90,
      "word": "APARTMENTS"
    },
    {
      "alignedWord": "with",
      "case": "success",
      "end": 5.93,
      "endOffset": 105,
      "phones": [
        {
          "duration": 0.04,
          "phone": "w_B"
        },
        {
          "duration": 0.05,
          "phone": "ih_I"
        },
        {
          "duration": 0.05,
          "phone": "th_E"
        }
      ],
      "start": 5.79,
      "startOffset": 101,
      "word": "WITH"
    },
    {
      "alignedWord": "her",
      "case": "success",
      "end": 6.02,
      "endOffset": 109,
      "phones": [
        {
          "duration": 0.03,
          "phone": "hh_B"
        },
        {
          "duration": 0.06,
          "phone": "er_E"
        }
      ],
      "start": 5.93,
      "startOffset": 106,
      "word": "HER"
    },
    {
      "alignedWord": "husband",
      "case": "success",
      "end": 6.39,
      "endOffset": 117,
      "phones": [
        {
          "duration": 0.05,
          "phone": "hh_B"
        },
        {
          "duration": 0.06,
          "phone": "ah_I"
        },
        {
          "duration": 0.09,
          "phone": "z_I"
        },
        {
          "duration": 0.01,
          "phone": "b_I"
        },
        {
          "duration": 0.07,
          "phone": "ah_I"
        },
        {
          "duration": 0.03,
          "phone": "n_I"
        },
        {
          "duration": 0.06,
          "phone": "d_E"
        }
      ],
      "start": 6.02,
      "startOffset": 110,
      "word": "HUSBAND"
    },
    {
      "alignedWord": "by",
      "case": "success",
      "end": 6.54,
      "endOffset": 120,
      "phones": [
        {
          "duration": 0.07,
          "phone": "b_B"
        },
        {
          "duration": 0.07,
          "phone": "ay_E"
        }
      ],
      "start": 6.4,
      "startOffset": 118,
      "word": "BY"
    },
    {
      "alignedWord": "her",
      "case": "success",
      "end": 6.66,
      "endOffset": 124,
      "phones": [
        {
          "duration": 0.06,
          "phone": "hh_B"
        },
        {
          "duration": 0.06,
          "phone": "er_E"
        }
      ],
      "start": 6.54,
      "startOffset": 121,
      "word": "HER"
    },
    {
      "alignedWord": "side",
      "case": "success",
      "end": 7.09,
      "endOffset": 129,
      "phones": [
        {
          "duration": 0.12,
          "phone": "s_B"
        },
        {
          "duration": 0.18,
          "phone": "ay_I"
        },
        {
          "duration": 0.13,
          "phone": "d_E"
        }
      ],
      "start": 6.66,
      "startOffset": 125,
      "word": "SIDE"
    },
    {
      "alignedWord": "on",
      "case": "success",
      "end": 7.82,
      "endOffset": 132,
      "phones": [
        {
          "duration": 0.14,
          "phone": "ao_B"
        },
        {
          "duration": 0.07,
          "phone": "n_E"
        }
      ],
      "start": 7.61,
      "startOffset": 130,
      "word": "ON"
    },
    {
      "alignedWord": "that",
      "case": "success",
      "end": 7.99,
      "endOffset": 137,
      "phones": [
        {
          "duration": 0.05,
          "phone": "dh_B"
        },
        {
          "duration": 0.06,
          "phone": "ae_I"
        },
        {
          "duration": 0.06,
          "phone": "t_E"
        }
      ],
      "start": 7.82,
      "startOffset": 133,
      "word": "THAT"
    },
    {
      "alignedWord": "day",
      "case": "success",
      "end": 8.23,
      "endOffset": 141,
      "phones": [
        {
          "duration": 0.1,
          "phone": "d_B"
        },
        {
          "duration": 0.14,
          "phone": "ey_E"
        }
      ],
      "start": 7.99,
      "startOffset": 138,
      "word": "DAY"
    },
    {
      "alignedWord": "the",
      "case": "success",
      "end": 8.34,
      "endOffset": 145,
      "phones": [
        {
          "duration": 0.05,
          "phone": "dh_B"
        },
        {
          "duration": 0.06,
          "phone": "ah_E"
        }
      ],
      "start": 8.23,
      "startOffset": 142,
      "word": "THE"
    },
    {
      "alignedWord": "french",
      "case": "success",
      "end": 8.629999999999999,
      "endOffset": 152,
      "phones": [
        {
          "duration": 0.06,
          "phone": "f_B"
        },
        {
          "duration": 0.05,
          "phone": "r_I"
        },
        {
          "duration": 0.04,
          "phone": "eh_I"
        },
        {
          "duration": 0.07,
          "phone": "n_I"
        },
        {
          "duration": 0.07,
          "phone": "ch_E"
        }
      ],
      "start": 8.34,
      "startOffset": 146,
      "word": "FRENCH"
    },
    {
      "alignedWord": "army",
      "case": "success",
      "end": 8.930000000000001,
      "endOffset": 157,
      "phones": [
        {
          "duration": 0.06,
          "phone": "aa_B"
        },
        {
          "duration": 0.08,
          "phone": "r_I"
        },
        {
          "duration": 0.07,
          "phone": "m_I"
        },
        {
          "duration": 0.09,
          "phone": "iy_E"
        }
      ],
      "start": 8.63,
      "startOffset": 153,
      "word": "ARMY"
    },
    {
      "alignedWord": "entered",
      "case": "success",
      "end": 9.239999000000001,
      "endOffset": 165,
      "phones": [
        {
          "duration": 0.05,
          "phone": "eh_B"
        },
        {
          "duration": 0.08,
          "phone": "n_I"
        },
        {
          "duration": 0.05,
          "phone": "t_I"
        },
        {
          "duration": 0.05,
          "phone": "er_I"
        },
        {
          "duration": 0.08,
          "phone": "d_E"
        }
      ],
      "start": 8.929999,
      "startOffset": 158,
      "word": "ENTERED"
    },
    {
      "alignedWord": "rome",
      "case": "success",
      "end": 9.61,
      "endOffset": 170,
      "phones": [
        {
          "duration": 0.09,
          "phone": "r_B"
        },
        {
          "duration": 0.12,
          "phone": "ow_I"
        },
        {
          "duration": 0.16,
          "phone": "m_E"
        }
      ],
      "start": 9.24,
      "startOffset": 166,
      "word": "ROME"
    },
    {
      "alignedWord": "and",
      "case": "success",
      "end": 9.93,
      "endOffset": 174,
      "phones": [
        {
          "duration": 0.08,
          "phone": "ae_B"
        },
        {
          "duration": 0.06,
          "phone": "n_I"
        },
        {
          "duration": 0.04,
          "phone": "d_E"
        }
      ],
      "start": 9.75,
      "startOffset": 171,
      "word": "AND"
    },
    {
      "alignedWord": "the",
      "case": "success",
      "end": 9.999999,
      "endOffset": 178,
      "phones": [
        {
          "duration": 0.01,
          "phone": "dh_B"
        },
        {
          "duration": 0.06,
          "phone": "ah_E"
        }
      ],
      "start": 9.929999,
      "startOffset": 175,
      "word": "THE"
    },
    {
      "alignedWord": "gates",
      "case": "success",
      "end": 10.27,
      "endOffset": 184,
      "phones": [
        {
          "duration": 0.08,
          "phone": "g_B"
        },
        {
          "duration": 0.08,
          "phone": "ey_I"
        },
        {
          "duration": 0.06,
          "phone": "t_I"
        },
        {
          "duration": 0.05,
          "phone": "s_E"
        }
      ],
      "start": 10.0,
      "startOffset": 179,
      "word": "GATES"
    },
    {
      "alignedWord": "being",
      "case": "success",
      "end": 10.52,
      "endOffset": 190,
      "phones": [
        {
          "duration": 0.08,
          "phone": "b_B"
        },
        {
          "duration": 0.04,
          "phone": "iy_I"
        },
        {
          "duration": 0.05,
          "phone": "ih_I"
        },
        {
          "duration": 0.08,
          "phone": "ng_E"
        }
      ],
      "start": 10.27,
      "startOffset": 185,
      "word": "BEING"
    },
    {
      "alignedWord": "opened",
      "case": "success",
      "end": 10.92,
      "endOffset": 197,
      "phones": [
        {
          "duration": 0.07,
          "phone": "ow_B"
        },
        {
          "duration": 0.08,
          "phone": "p_I"
        },
        {
          "duration": 0.07,
          "phone": "ah_I"
        },
        {
          "duration": 0.08,
          "phone": "n_I"
        },
        {
          "duration": 0.1,
          "phone": "d_E"
        }
      ],
      "start": 10.52,
      "startOffset": 191,
      "word": "OPENED"
    },
    {
      "alignedWord": "madame",
      "case": "success",
      "end": 11.53,
      "endOffset": 204,
      "phones": [
        {
          "duration": 0.1,
          "phone": "m_B"
        },
        {
          "duration": 0.05,
          "phone": "ah_I"
        },
        {
          "duration": 0.09,
          "phone": "d_I"
        },
        {
          "duration": 0.06,
          "phone": "ae_I"
        },
        {
          "duration": 0.14,
          "phone": "m_E"
        }
      ],
      "start": 11.09,
      "startOffset": 198,
      "word": "MADAME"
    },
    {
      "alignedWord": "<unk>",
      "case": "success",
      "end": 11.99,
      "endOffset": 211,
      "phones": [
        {
          "duration": 0.42,
          "phone": "oov_S"
        }
      ],
      "start": 11.57,
      "startOffset": 205,
      "word": "OSSOLI"
    },
    {
      "alignedWord": "accompanied",
      "case": "success",
      "end": 12.549999999999999,
      "endOffset": 223,
      "phones": [
        {
          "duration": 0.09,
          "phone": "ah_B"
        },
        {
          "duration": 0.07,
          "phone": "k_I"
        },
        {
          "duration": 0.07,
          "phone": "ah_I"
        },
        {
          "duration": 0.01,
          "phone": "m_I"
        },
        {
          "duration": 0.1,
          "phone": "p_I"
        },
        {
          "duration": 0.03,
          "phone": "ah_I"
        },
        {
          "duration": 0.05,
          "phone": "n_I"
        },
        {
          "duration": 0.05,
          "phone": "iy_I"
        },
        {
          "duration": 0.04,
          "phone": "d_E"
        }
      ],
      "start": 12.04,
      "startOffset": 212,
      "word": "ACCOMPANIED"
    },
    {
      "alignedWord": "by",
      "case": "success",
      "end": 12.689999,
      "endOffset": 226,
      "phones": [
        {
          "duration": 0.09,
          "phone": "b_B"
        },
        {
          "duration": 0.04,
          "phone": "ay_E"
        }
      ],
      "start": 12.559999,
      "startOffset": 224,
      "word": "BY"
    },
    {
      "alignedWord": "the",
      "case": "success",
      "end": 12.79,
      "endOffset": 230,
      "phones": [
        {
          "duration": 0.06,
          "phone": "dh_B"
        },
        {
          "duration": 0.04,
          "phone": "ah_E"
        }
      ],
      "start": 12.69,
      "startOffset": 227,
      "word": "THE"
    },
    {
      "alignedWord": "marquis",
      "case": "success",
      "end": 13.319999999999999,
      "endOffset": 238,
      "phones": [
        {
          "duration": 0.06,
          "phone": "m_B"
        },
        {
          "duration": 0.04,
          "phone": "aa_I"
        },
        {
          "duration": 0.08,
          "phone": "r_I"
        },
        {
          "duration": 0.14,
          "phone": "k_I"
        },
        {
          "duration": 0.21,
          "phone": "iy_E"
        }
      ],
      "start": 12.79,
      "startOffset": 231,
      "word": "MARQUIS"
    }
  ]
}