{
  "transcript": "ALL THROUGH THE DAY THE AMERICAN LEGATION SENT MESSAGE AFTER MESSAGE TO THE GERMAN AUTHORITIES ASKING FOR INFORMATION THEY RECEIVED NONE AT SIX TWENTY IN THE EVENING THEY WERE TOLD BY A SUBORDINATE THAT THE SENTENCE HAD NOT BEEN GIVEN",
  "words": [
    {
      "alignedWord": "all",
      "case": "success",
      "end": 0.8500000000000001,
      "endOffset": 3,
      "phones": [
        {
          "duration": 0.24,
          "phone": "ao_B"
        },
        {
          "duration": 0.08,
          "phone": "l_E"
        }
      ],
      "start": 0.53,
      "startOffset": 0,
      "word": "ALL"
    },
    {
      "alignedWord": "through",
      "case": "success",
      "end": 1.02,
      "endOffset": 11,
      "phones": [
        {
          "duration": 0.07,
          "phone": "th_B"
        },
        {
          "duration": 0.05,
          "phone": "r_I"
        },
        {
          "duration": 0.05,
          "phone": "uw_E"
        }
      ],
      "start": 0.85,
      "startOffset": 4,
      "word": "THROUGH"
    },
    {
      "alignedWord": "the",
      "case": "success",
      "end": 1.15,
      "endOffset": 15,
      "phones": [
        {
          "duration": 0.07,
          "phone": "dh_B"
        },
        {
          "duration": 0.06,
          "phone": "ah_E"
        }
      ],
      "start": 1.02,
      "startOffset": 12,
      "word": "THE"
    },
    {
      "alignedWord": "day",
      "case": "success",
      "end": 1.5599999999999998,
      "endOffset": 19,
      "phones": [
        {
          "duration": 0.14,
          "phone": "d_B"
        },
        {
          "duration": 0.27,
          "phone": "ey_E"
        }
      ],
      "start": 1.15,
      "startOffset": 16,
      "word": "DAY"
    },
    {
      "alignedWord": "the",
      "case": "success",
      "end": 1.7000000000000002,
      "endOffset": 23,
      "phones": [
        {
          "duration": 0.08,
          "phone": "dh_B"
        },
        {
          "duration": 0.06,
          "phone": "iy_E"
        }
      ],
      "start": 1.56,
      "startOffset": 20,
      "word": "THE"
    },
    {
      "alignedWord": "american",
      "case": "success",
      "end": 2.21,
      "endOffset": 32,
      "phones": [
        {
          "duration": 0.04,
          "phone": "ah_B"
        },
        {
          "duration": 0.08,
          "phone": "m_I"
        },
        {
          "duration": 0.1,
          "phone": "eh_I"
        },
        {
          "duration": 0.04,
          "phone": "r_I"
        },
        {
          "duration": 0.06,
          "phone": "ah_I"
        },
        {
          "duration": 0.04,
          "phone": "k_I"
        },
        {
          "duration": 0.06,
          "phone": "ah_I"
        },
        {
          "duration": 0.09,
          "phone": "n_E"
        }
      ],
      "start": 1.7,
      "startOffset": 24,
      "word": "AMERICAN"
    },
    {
      "alignedWord": "<unk>",
      "case": "success",
      "end": 2.8,
      "endOffset": 41,
      "phones": [
        {
          "duration": 0.59,
          "phone": "oov_S"
        }
      ],
      "start": 2.21,
      "startOffset": 33,
      "word": "LEGATION"
    },
    {
      "alignedWord": "sent",
      "case": "success",
      "end": 2.98,
      "endOffset": 46,
      "phones": [
        {
          "duration": 0.08,
          "phone": "s_B"
        },
        {
          "duration": 0.04,
          "phone": "eh_I"
        },
        {
          "duration": 0.04,
          "phone": "n_I"
        },
        {
          "duration": 0.01,
          "phone": "t_E"
        }
      ],
      "start": 2.81,
      "startOffset": 42,
      "word": "SENT"
    },
    {
      "alignedWord": "message",
      "case": "success",
      "end": 3.51,
      "endOffset": 54,
      "phones": [
        {
          "duration": 0.12,
          "phone": "m_B"
        },
        {
          "duration": 0.07,
          "phone": "eh_I"
        },
        {
          "duration": 0.09,
          "phone": "s_I"
        },
        {
          "duration": 0.1,
          "phone": "ih_I"
        },
        {
          "duration": 0.12,
          "phone": "jh_E"
        }
      ],
      "start": 3.01,
      "startOffset": 47,
      "word": "MESSAGE"
    },
    {
      "alignedWord": "after",
      "case": "success",
      "end": 3.82,
      "endOffset": 60,
      "phones": [
        {
          "duration": 0.1,
          "phone": "ae_B"
        },
        {
          "duration": 0.07,
          "phone": "f_I"
        },
        {
          "duration": 0.06,
          "phone": "t_I"
        },
        {
          "duration": 0.06,
          "phone": "er_E"
        }
      ],
      "start": 3.53,
      "startOffset": 55,
      "word": "AFTER"
    },
    {
      "alignedWord": "message",
      "case": "success",
      "end": 4.32,
      "endOffset": 68,
      "phones": [
        {
          "duration": 0.11,
          "phone": "m_B"
        },
        {
          "duration": 0.08,
          "phone": "eh_I"
        },
        {
          "duration": 0.09,
          "phone": "s_I"
        },
        {
          "duration": 0.1,
          "phone": "ih_I"
        },
        {
          "duration": 0.12,
          "phone": "jh_E"
        }
      ],
      "start": 3.82,
      "startOffset": 61,
      "word": "MESSAGE"
    },
    {
      "alignedWord": "to",
      "case": "success",
      "end": 4.430000000000001,
      "endOffset": 71,
      "phones": [
        {
          "duration": 0.06,
          "phone": "t_B"
        },
        {
          "duration": 0.05,
          "phone": "ih_E"
        }
      ],
      "start": 4.32,
      "startOffset": 69,
      "word": "TO"
    },
    {
      "alignedWord": "the",
      "case": "success",
      "end": 4.54,
      "endOffset": 75,
      "phones": [
        {
          "duration": 0.06,
          "phone": "dh_B"
        },
        {
          "duration": 0.05,
          "phone": "ah_E"
        }
      ],
      "start": 4.43,
      "startOffset": 72,
      "word": "THE"
    },
    {
      "alignedWord": "german",
      "case": "success",
      "end": 4.87,
      "endOffset": 82,
      "phones": [
        {
          "duration": 0.1,
          "phone": "jh_B"
        },
        {
          "duration": 0.08,
          "phone": "er_I"
        },
        {
          "duration": 0.04,
          "phone": "m_I"
        },
        {
          "duration": 0.05,
          "phone": "ah_I"
        },
        {
          "duration": 0.06,
          "phone": "n_E"
        }
      ],
      "start": 4.54,
      "startOffset": 76,
      "word": "GERMAN"
    },
    {
      "alignedWord": "authorities",
      "case": "success",
      "end": 5.48,
      "endOffset": 94,
      "phones": [
        {
          "duration": 0.05,
          "phone": "ah_B"
        },
        {
          "duration": 0.1,
          "phone": "th_I"
        },
        {
          "duration": 0.06,
          "phone": "ao_I"
        },
        {
          "duration": 0.1,
          "phone": "r_I"
        },
        {
          "duration": 0.02,
          "phone": "ah_I"
        },
        {
          "duration": 0.06,
          "phone": "t_I"
        },
        {
          "duration": 0.11,
          "phone": "iy_I"
        },
        {
          "duration": 0.11,
          "phone": "z_E"
        }
      ],
      "start": 4.87,
      "startOffset": 83,
      "word": "AUTHORITIES"
    },
    {
      "alignedWord": "asking",
      "case": "success",
      "end": 6.03,
      "endOffset": 101,
      "phones": [
        {
          "duration": 0.16,
          "phone": "ae_B"
        },
        {
          "duration": 0.08,
          "phone": "s_I"
        },
        {
          "duration": 0.07,
          "phone": "k_I"
        },
        {
          "duration": 0.09,
          "phone": "ih_I"
        },
        {
          "duration": 0.09,
          "phone": "ng_E"
        }
      ],
      "start": 5.54,
      "startOffset": 95,
      "word": "ASKING"
    },
    {
      "alignedWord": "for",
      "case": "success",
      "end": 6.16,
      "endOffset": 105,
      "phones": [
        {
          "duration": 0.06,
          "phone": "f_B"
        },
        {
          "duration": 0.07,
          "phone": "er_E"
        }
      ],
      "start": 6.03,
      "startOffset": 102,
      "word": "FOR"
    },
    {
      "alignedWord": "information",
      "case": "success",
      "end": 6.99,
      "endOffset": 117,
      "phones": [
        {
          "duration": 0.08,
          "phone": "ih_B"
        },
        {
          "duration": 0.06,
          "phone": "n_I"
        },
        {
          "duration": 0.07,
          "phone": "f_I"
        },
        {
          "duration": 0.05,
          "phone": "er_I"
        },
        {
          "duration": 0.07,
          "phone": "m_I"
        },
        {
          "duration": 0.08,
          "phone": "ey_I"
        },
        {
          "duration": 0.12,
          "phone": "sh_I"
        },
        {
          "duration": 0.09,
          "phone": "ah_I"
        },
        {
          "duration": 0.19,
          "phone": "n_E"
        }
      ],
      "start": 6.18,
      "startOffset": 106,
      "word": "INFORMATION"
    },
    {
      "alignedWord": "they",
      "case": "success",
      "end": 7.62,
      "endOffset": 122,
      "phones": [
        {
          "duration": 0.09,
          "phone": "dh_B"
        },
        {
          "duration": 0.11,
          "phone": "ey_E"
        }
      ],
      "start": 7.42,
      "startOffset": 118,
      "word": "THEY"
    },
    {
      "alignedWord": "received",
      "case": "success",
      "end": 8.17,
      "endOffset": 131,
      "phones": [
        {
          "duration": 0.06,
          "phone": "r_B"
        },
        {
          "duration": 0.09,
          "phone": "iy_I"
        },
        {
          "duration": 0.13,
          "phone": "s_I"
        },
        {
          "duration": 0.14,
          "phone": "iy_I"
        },
        {
          "duration": 0.06,
          "phone": "v_I"
        },
        {
          "duration": 0.07,
          "phone": "d_E"
        }
      ],
      "start": 7.62,
      "startOffset": 123,
      "word": "RECEIVED"
    },
    {
      "alignedWord": "none",
      "case": "success",
      "end": 8.619999,
      "endOffset": 136,
      "phones": [
        {
          "duration": 0.1,
          "phone": "n_B"
        },
        {
          "duration": 0.15,
          "phone": "ah_I"
        },
        {
          "duration": 0.19,
          "phone": "n_E"
        }
      ],
      "start": 8.179999,
      "startOffset": 132,
      "word": "NONE"
    },
    {
      "alignedWord": "at",
      "case": "success",
      "end": 9.34,
      "endOffset": 139,
      "phones": [
        {
          "duration": 0.11,
          "phone": "ae_B"
        },
        {
          "duration": 0.07,
          "phone": "t_E"
        }
      ],
      "start": 9.16,
      "startOffset": 137,
      "word": "AT"
    },
    {
      "alignedWord": "six",
      "case": "success",
      "end": 9.62,
      "endOffset": 143,
      "phones": [
        {
          "duration": 0.08,
          "phone": "s_B"
        },
        {
          "duration": 0.07,
          "phone": "ih_I"
        },
        {
          "duration": 0.07,
          "phone": "k_I"
        },
        {
          "duration": 0.06,
          "phone": "s_E"
        }
      ],
      "start": 9.34,
      "startOffset": 140,
      "word": "SIX"
    },
    {
      "alignedWord": "twenty",
      "case": "success",
      "end": 9.99,
      "endOffset": 150,
      "phones": [
        {
          "duration": 0.07,
          "phone": "t_B"
        },
        {
          "duration": 0.05,
          "phone": "w_I"
        },
        {
          "duration": 0.04,
          "phone": "eh_I"
        },
        {
          "duration": 0.07,
          "phone": "n_I"
        },
        {
          "duration": 0.07,
          "phone": "t_I"
        },
        {
          "duration": 0.06,
          "phone": "iy_E"
        }
      ],
      "start": 9.63,
      "startOffset": 144,
      "word": "TWENTY"
    },
    {
      "alignedWord": "in",
      "case": "success",
      "end": 10.09,
      "endOffset": 153,
      "phones": [
        {
          "duration": 0.06,
          "phone": "ih_B"
        },
        {
          "duration": 0.04,
          "phone": "n_E"
        }
      ],
      "start": 9.99,
      "startOffset": 151,
      "word": "IN"
    },
    {
      "alignedWord": "the",
      "case": "success",
      "end": 10.2,
      "endOffset": 157,
      "phones": [
        {
          "duration": 0.06,
          "phone": "dh_B"
        },
        {
          "duration": 0.05,
          "phone": "iy_E"
        }
      ],
      "start": 10.09,
      "startOffset": 154,
      "word": "THE"
    },
    {
      "alignedWord": "evening",
      "case": "success",
      "end": 10.66,
      "endOffset": 165,
      "phones": [
        {
          "duration": 0.14,
          "phone": "iy_B"
        },
        {
          "duration": 0.07,
          "phone": "v_I"
        },
        {
          "duration": 0.04,
          "phone": "n_I"
        },
        {
          "duration": 0.1,
          "phone": "ih_I"
        },
        {
          "duration": 0.11,
          "phone": "ng_E"
        }
      ],
      "start": 10.2,
      "startOffset": 158,
      "word": "EVENING"
    },
    {
      "alignedWord": "they",
      "case": "success",
      "end": 10.8,
      "endOffset": 170,
      "phones": [
        {
          "duration": 0.07,
          "phone": "dh_B"
        },
        {
          "duration": 0.06,
          "phone": "ey_E"
        }
      ],
      "start": 10.67,
      "startOffset": 166,
      "word": "THEY"
    },
    {
      "alignedWord": "were",
      "case": "success",
      "end": 10.92,
      "endOffset": 175,
      "phones": [
        {
          "duration": 0.06,
          "phone": "w_B"
        },
        {
          "duration": 0.06,
          "phone": "er_E"
        }
      ],
      "start": 10.8,
      "startOffset": 171,
      "word": "WERE"
    },
    {
      "alignedWord": "told",
      "case": "success",
      "end": 11.23,
      "endOffset": 180,
      "phones": [
        {
          "duration": 0.09,
          "phone": "t_B"
        },
        {
          "duration": 0.1,
          "phone": "ow_I"
        },
        {
          "duration": 0.06,
          "phone": "l_I"
        },
        {
          "duration": 0.06,
          "phone": "d_E"
        }
      ],
      "start": 10.92,
      "startOffset": 176,
      "word": "TOLD"
    },
    {
      "alignedWord": "by",
      "case": "success",
      "end": 11.38,
      "endOffset": 183,
      "phones": [
        {
          "duration": 0.07,
          "phone": "b_B"
        },
        {
          "duration": 0.08,
          "phone": "ay_E"
        }
      ],
      "start": 11.23,
      "startOffset": 181,
      "word": "BY"
    },
    {
      "alignedWord": "a",
      "case": "success",
      "end": 11.47,
      "endOffset": 185,
      "phones": [
        {
          "duration": 0.09,
          "phone": "ah_S"
        }
      ],
      "start": 11.38,
      "startOffset": 184,
      "word": "A"
    },
    {
      "alignedWord": "subordinate",
      "case": "success",
      "end": 12.119999,
      "endOffset": 197,
      "phones": [
        {
          "duration": 0.07,
          "phone": "s_B"
        },
        {
          "duration": 0.06,
          "phone": "ah_I"
        },
        {
          "duration": 0.09,
          "phone": "b_I"
        },
        {
          "duration": 0.1,
          "phone": "ao_I"
        },
        {
          "duration": 0.02,
          "phone": "r_I"
        },
        {
          "duration": 0.04,
          "phone": "d_I"
        },
        {
          "duration": 0.06,
          "phone": "ah_I"
        },
        {
          "duration": 0.04,
          "phone": "n_I"
        },
        {
          "duration": 0.11,
          "phone": "ah_I"
        },
        {
          "duration": 0.06,
          "phone": "t_E"
        }
      ],
      "start": 11.469999,
      "startOffset": 186,
      "word": "SUBORDINATE"
    },
    {
      "alignedWord": "that",
      "case": "success",
      "end": 12.3,
      "endOffset": 202,
      "phones": [
        {
          "duration": 0.06,
          "phone": "dh_B"
        },
        {
          "duration": 0.05,
          "phone": "ah_I"
        },
        {
          "duration": 0.06,
          "phone": "t_E"
        }
      ],
      "start": 12.13,
      "startOffset": 198,
      "word": "THAT"
    },
    {
      "alignedWord": "the",
      "case": "success",
      "end": 12.4,
      "endOffset": 206,
      "phones": [
        {
          "duration": 0.02,
          "phone": "dh_B"
        },
        {
          "duration": 0.08,
          "phone": "ah_E"
        }
      ],
      "start": 12.3,
      "startOffset": 203,
      "word": "THE"
    },
    {
      "alignedWord": "sentence",
      "case": "success",
      "end": 12.81,
      "endOffset": 215,
      "phones": [
        {
          "duration": 0.09,
          "phone": "s_B"
        },
        {
          "duration": 0.08,
          "phone": "eh_I"
        },
        {
          "duration": 0.04,
          "phone": "n_I"
        },
        {
          "duration": 0.01,
          "phone": "t_I"
        },
        {
          "duration": 0.07,
          "phone": "ah_I"
        },
        {
          "duration": 0.08,
          "phone": "n_I"
        },
        {
          "duration": 0.04,
          "phone": "s_E"
        }
      ],
      "start": 12.4,
      "startOffset": 207,
      "word": "SENTENCE"
    },
    {
      "alignedWord": "had",
      "case": "success",
      "end": 12.959999,
      "endOffset": 219,
      "phones": [
        {
          "duration": 0.05,
          "phone": "hh_B"
        },
        {
          "duration": 0.03,
          "phone": "ae_I"
        },
        {
          "duration": 0.07,
          "phone": "d_E"
        }
      ],
      "start": 12.809999,
      "startOffset": 216,
      "word": "HAD"
    },
    {
      "alignedWord": "not",
      "case": "success",
      "end": 13.180000000000001,
      "endOffset": 223,
      "phones": [
        {
          "duration": 0.04,
          "phone": "n_B"
        },
        {
          "duration": 0.1,
          "phone": "aa_I"
        },
        {
          "duration": 0.08,
          "phone": "t_E"
        }
      ],
      "start": 12.96,
      "startOffset": 220,
      "word": "NOT"
    },
    {
      "alignedWord": "been",
      "case": "success",
      "end": 13.349999,
      "endOffset": 228,
      "phones": [
        {
          "duration": 0.04,
          "phone": "b_B"
        },
        {
          "duration": 0.06,
          "phone": "ih_I"
        },
        {
          "duration": 0.07,
          "phone": "n_E"
        }
      ],
      "start": 13.179999,
      "startOffset": 224,
      "word": "BEEN"
    },
    {
      "alignedWord": "given",
      "case": "success",
      "end": 13.78,
      "endOffset": 234,
      "phones": [
        {
          "duration": 0.05,
          "phone": "g_B"
        },
        {
          "duration": 0.07,
          "phone": "ih_I"
        },
        {
          "duration": 0.06,
          "phone": "v_I"
        },
        {
          "duration": 0.07,
          "phone": "ih_I"
        },
        {
          "duration": 0.17,
          "phone": "n_E"
        }
      ],
      "start": 13.36,
      "startOffset": 229,
      "word": "GIVEN"
    }
  ]
}