{
  "transcript": "I'VE HAD NOTHING BUT DREAMS BIBBS SAID DESOLATELY BUT THEY WEREN'T LIKE THAT SIBYL SAID NO GIRL COULD CARE ABOUT ME HE SMILED FAINTLY",
  "words": [
    {
      "alignedWord": "i've",
      "case": "success",
      "end": 0.72,
      "endOffset": 4,
      "phones": [
        {
          "duration": 0.14,
          "phone": "ay_B"
        },
        {
          "duration": 0.06,
          "phone": "v_E"
        }
      ],
      "start": 0.52,
      "startOffset": 0,
      "word": "I'VE"
    },
    {
      "alignedWord": "had",
      "case": "success",
      "end": 0.8999999999999999,
      "endOffset": 8,
      "phones": [
        {
          "duration": 0.05,
          "phone": "hh_B"
        },
        {
          "duration": 0.07,
          "phone": "ae_I"
        },
        {
          "duration": 0.06,
          "phone": "d_E"
        }
      ],
      "start": 0.72,
      "startOffset": 5,
      "word": "HAD"
    },
    {
      "alignedWord": "nothing",
      "case": "success",
      "end": 1.23,
      "endOffset": 16,
      "phones": [
        {
          "duration": 0.06,
          "phone": "n_B"
        },
        {
          "duration": 0.08,
          "phone": "ah_I"
        },
        {
          "duration": 0.08,
          "phone": "th_I"
        },
        {
          "duration": 0.04,
          "phone": "ih_I"
        },
        {
          "duration": 0.06,
          "phone": "ng_E"
        }
      ],
      "start": 0.91,
      "startOffset": 9,
      "word": "NOTHING"
    },
    {
      "alignedWord": "but",
      "case": "success",
      "end": 1.38,
      "endOffset": 20,
      "phones": [
        {
          "duration": 0.03,
          "phone": "b_B"
        },
        {
          "duration": 0.05,
          "phone": "ah_I"
        },
        {
          "duration": 0.07,
          "phone": "t_E"
        }
      ],
      "start": 1.23,
      "startOffset": 17,
      "word": "BUT"
    },
    {
      "alignedWord": "dreams",
      "case": "success",
      "end": 1.91,
      "endOffset": 27,
      "phones": [
        {
          "duration": 0.05,
          "phone": "d_B"
        },
        {
          "duration": 0.1,
          "phone": "r_I"
        },
        {
          "duration": 0.15,
          "phone": "iy_I"
        },
        {
          "duration": 0.11,
          "phone": "m_I"
        },
        {
          "duration": 0.12,
          "phone": "z_E"
        }
      ],
      "start": 1.38,
      "startOffset": 21,
      "word": "DREAMS"
    },
    {
      "alignedWord": "<unk>",
      "case": "success",
      "end": 2.4400000000000004,
      "endOffset": 33,
      "phones": [
        {
          "duration": 0.26,
          "phone": "oov_S"
        }
      ],
      "start": 2.18,
      "startOffset": 28,
      "word": "BIBBS"
    },
    {
      "alignedWord": "said",
      "case": "success",
      "end": 2.88,
      "endOffset": 38,
      "phones": [
        {
          "duration": 0.13,
          "phone": "s_B"
        },
        {
          "duration": 0.14,
          "phone": "eh_I"
        },
        {
          "duration": 0.17,
          "phone": "d_E"
        }
      ],
      "start": 2.44,
      "startOffset": 34,
      "word": "SAID"
    },
    {
      "alignedWord": "<unk>",
      "case": "success",
      "end": 3.6999999999999997,
      "endOffset": 49,
      "phones": [
        {
          "duration": 0.69,
          "phone": "oov_S"
        }
      ],
      "start": 3.01,
      "startOffset": 39,
      "word": "DESOLATELY"
    },
    {
      "alignedWord": "but",
      "case": "success",
      "end": 4.17,
      "endOffset": 53,
      "phones": [
        {
          "duration": 0.06,
          "phone": "b_B"
        },
        {
          "duration": 0.05,
          "phone": "ah_I"
        },
        {
          "duration": 0.06,
          "phone": "t_E"
        }
      ],
      "start": 4.0,
      "startOffset": 50,
      "word": "BUT"
    },
    {
      "alignedWord": "they",
      "case": "success",
      "end": 4.28,
      "endOffset": 58,
      "phones": [
        {
          "duration": 0.03,
          "phone": "dh_B"
        },
        {
          "duration": 0.08,
          "phone": "ey_E"
        }
      ],
      "start": 4.17,
      "startOffset": 54,
      "word": "THEY"
    },
    {
      "alignedWord": "weren't",
      "case": "success",
      "end": 4.5,
      "endOffset": 66,
      "phones": [
        {
          "duration": 0.08,
          "phone": "w_B"
        },
        {
          "duration": 0.05,
          "phone": "er_I"
        },
        {
          "duration": 0.05,
          "phone": "n_I"
        },
        {
          "duration": 0.04,
          "phone": "t_E"
        }
      ],
      "start": 4.28,
      "startOffset": 59,
      "word": "WEREN'T"
    },
    {
      "alignedWord": "like",
      "case": "success",
      "end": 4.72,
      "endOffset": 71,
      "phones": [
        {
          "duration": 0.07,
          "phone": "l_B"
        },
        {
          "duration": 0.08,
          "phone": "ay_I"
        },
        {
          "duration": 0.07,
          "phone": "k_E"
        }
      ],
      "start": 4.5,
      "startOffset": 67,
      "word": "LIKE"
    },
    {
      "alignedWord": "that",
      "case": "success",
      "end": 5.08,
      "endOffset": 76,
      "phones": [
        {
          "duration": 0.06,
          "phone": "dh_B"
        },
        {
          "duration": 0.16,
          "phone": "ae_I"
        },
        {
          "duration": 0.14,
          "phone": "t_E"
        }
      ],
      "start": 4.72,
      "startOffset": 72,
      "word": "THAT"
    },
    {
      "alignedWord": "<unk>",
      "case": "success",
      "end": 6.369999999999999,
      "endOffset": 82,
      "phones": [
        {
          "duration": 0.31,
          "phone": "oov_S"
        }
      ],
      "start": 6.06,
      "startOffset": 77,
      "word": "SIBYL"
    },
    {
      "alignedWord": "said",
      "case": "success",
      "end": 6.59,
      "endOffset": 87,
      "phones": [
        {
          "duration": 0.08,
          "phone": "s_B"
        },
        {
          "duration": 0.08,
          "phone": "eh_I"
        },
        {
          "duration": 0.06,
          "phone": "d_E"
        }
      ],
      "start": 6.37,
      "startOffset": 83,
      "word": "SAID"
    },
    {
      "alignedWord": "no",
      "case": "success",
      "end": 6.859999999999999,
      "endOffset": 90,
      "phones": [
        {
          "duration": 0.14,
          "phone": "n_B"
        },
        {
          "duration": 0.12,
          "phone": "ow_E"
        }
      ],
      "start": 6.6,
      "startOffset": 88,
      "word": "NO"
    },
    {
      "alignedWord": "girl",
      "case": "success",
      "end": 7.140000000000001,
      "endOffset": 95,
      "phones": [
        {
          "duration": 0.1,
          "phone": "g_B"
        },
        {
          "duration": 0.11,
          "phone": "er_I"
        },
        {
          "duration": 0.07,
          "phone": "l_E"
        }
      ],
      "start": 6.86,
      "startOffset": 91,
      "word": "GIRL"
    },
    {
      "alignedWord": "could",
      "case": "success",
      "end": 7.29,
      "endOffset": 101,
      "phones": [
        {
          "duration": 0.05,
          "phone": "k_B"
        },
        {
          "duration": 0.03,
          "phone": "uh_I"
        },
        {
          "duration": 0.07,
          "phone": "d_E"
        }
      ],
      "start": 7.14,
      "startOffset": 96,
      "word": "COULD"
    },
    {
      "alignedWord": "care",
      "case": "success",
      "end": 7.53,
      "endOffset": 106,
      "phones": [
        {
          "duration": 0.1,
          "phone": "k_B"
        },
        {
          "duration": 0.08,
          "phone": "eh_I"
        },
        {
          "duration": 0.06,
          "phone": "r_E"
        }
      ],
      "start": 7.29,
      "startOffset": 102,
      "word": "CARE"
    },
    {
      "alignedWord": "about",
      "case": "success",
      "end": 7.82,
      "endOffset": 112,
      "phones": [
        {
          "duration": 0.05,
          "phone": "ah_B"
        },
        {
          "duration": 0.09,
          "phone": "b_I"
        },
        {
          "duration": 0.09,
          "phone": "aw_I"
        },
        {
          "duration": 0.06,
          "phone": "t_E"
        }
      ],
      "start": 7.53,
      "startOffset": 107,
      "word": "ABOUT"
    },
    {
      "alignedWord": "me",
      "case": "success",
      "end": 8.22,
      "endOffset": 115,
      "phones": [
        {
          "duration": 0.11,
          "phone": "m_B"
        },
        {
          "duration": 0.28,
          "phone": "iy_E"
        }
      ],
      "start": 7.83,
      "startOffset": 113,
      "word": "ME"
    },
    {
      "alignedWord": "he",
      "case": "success",
      "end": 9.0,
      "endOffset": 118,
      "phones": [
        {
          "duration": 0.07,
          "phone": "hh_B"
        },
        {
          "duration": 0.06,
          "phone": "iy_E"
        }
      ],
      "start": 8.87,
      "startOffset": 116,
      "word": "HE"
    },
    {
      "alignedWord": "smiled",
      "case": "success",
      "end": 9.45,
      "endOffset": 125,
      "phones": [
        {
          "duration": 0.12,
          "phone": "s_B"
        },
        {
          "duration": 0.04,
          "phone": "m_I"
        },
        {
          "duration": 0.14,
          "phone": "ay_I"
        },
        {
          "duration": 0.05,
          "phone": "l_I"
        },
        {
          "duration": 0.1,
          "phone": "d_E"
        }
      ],
      "start": 9.0,
      "startOffset": 119,
      "word": "SMILED"
    },
    {
      "alignedWord": "<unk>",
      "case": "success",
      "end": 9.94,
      "endOffset": 133,
      "phones": [
        {
          "duration": 0.49,
          "phone": "oov_S"
        }
      ],
      "start": 9.45,
      "startOffset": 126,
      "word": "FAINTLY"
    }
  ]
}