{
    "1": {
        "alignedWord": "ice",
        "case": "success",
        "end": 5.379937500000001,
        "phones": [
            {
                "duration": 0.21,
                "phone": "ay_B"
            },
            {
                "duration": 0.21,
                "phone": "s_E"
            }
        ],
        "start": 4.9599375000000006,
        "word": "ICE"
    },
    "10": {
        "alignedWord": "into",
        "case": "success",
        "end": 9.2899365,
        "phones": [
            {
                "duration": 0.1,
                "phone": "ih_B"
            },
            {
                "duration": 0.04,
                "phone": "n_I"
            },
            {
                "duration": 0.05,
                "phone": "t_I"
            },
            {
                "duration": 0.04,
                "phone": "ah_E"
            }
        ],
        "start": 9.0599365,
        "word": "INTO"
    },
    "11": {
        "alignedWord": "the",
        "case": "success",
        "end": 9.4199375,
        "phones": [
            {
                "duration": 0.06,
                "phone": "dh_B"
            },
            {
                "duration": 0.07,
                "phone": "ah_E"
            }
        ],
        "start": 9.2899375,
        "word": "THE"
    },
    "12": {
        "alignedWord": "sea",
        "case": "success",
        "end": 9.9199375,
        "phones": [
            {
                "duration": 0.14,
                "phone": "s_B"
            },
            {
                "duration": 0.36,
                "phone": "iy_E"
            }
        ],
        "start": 9.4199375,
        "word": "SEA"
    },
    "13": {
        "alignedWord": "their",
        "case": "success",
        "end": 10.769937500000001,
        "phones": [
            {
                "duration": 0.06,
                "phone": "dh_B"
            },
            {
                "duration": 0.05,
                "phone": "eh_I"
            },
            {
                "duration": 0.05,
                "phone": "r_E"
            }
        ],
        "start": 10.609937500000001,
        "word": "THEIR"
    },
    "14": {
        "alignedWord": "and",
        "case": "success",
        "end": 13.099937500000001,
        "phones": [
            {
                "duration": 0.06,
                "phone": "ae_B"
            },
            {
                "duration": 0.05,
                "phone": "n_I"
            },
            {
                "duration": 0.05,
                "phone": "d_E"
            }
        ],
        "start": 12.939937500000001,
        "word": "AND"
    },
    "15": {
        "alignedWord": "the",
        "case": "success",
        "end": 13.209937500000002,
        "phones": [
            {
                "duration": 0.01,
                "phone": "dh_B"
            },
            {
                "duration": 0.1,
                "phone": "ah_E"
            }
        ],
        "start": 13.099937500000001,
        "word": "THE"
    },
    "16": {
        "alignedWord": "bold",
        "case": "success",
        "end": 13.569937500000002,
        "phones": [
            {
                "duration": 0.09,
                "phone": "b_B"
            },
            {
                "duration": 0.13,
                "phone": "ow_I"
            },
            {
                "duration": 0.06,
                "phone": "l_I"
            },
            {
                "duration": 0.07,
                "phone": "d_E"
            }
        ],
        "start": 13.219937500000002,
        "word": "BOLD"
    },
    "17": {
        "alignedWord": "dignity",
        "case": "success",
        "end": 14.2899375,
        "phones": [
            {
                "duration": 0.1,
                "phone": "d_B"
            },
            {
                "duration": 0.12,
                "phone": "ih_I"
            },
            {
                "duration": 0.08,
                "phone": "g_I"
            },
            {
                "duration": 0.08,
                "phone": "n_I"
            },
            {
                "duration": 0.07,
                "phone": "ah_I"
            },
            {
                "duration": 0.12,
                "phone": "t_I"
            },
            {
                "duration": 0.14,
                "phone": "iy_E"
            }
        ],
        "start": 13.579937500000002,
        "word": "DIGNITY"
    },
    "18": {
        "alignedWord": "and",
        "case": "success",
        "end": 14.459937500000002,
        "phones": [
            {
                "duration": 0.07,
                "phone": "ah_B"
            },
            {
                "duration": 0.01,
                "phone": "n_I"
            },
            {
                "duration": 0.09,
                "phone": "d_E"
            }
        ],
        "start": 14.2899375,
        "word": "AND"
    },
    "19": {
        "alignedWord": "grandeur",
        "case": "success",
        "end": 14.9699375,
        "phones": [
            {
                "duration": 0.07,
                "phone": "g_B"
            },
            {
                "duration": 0.08,
                "phone": "r_I"
            },
            {
                "duration": 0.11,
                "phone": "ae_I"
            },
            {
                "duration": 0.08,
                "phone": "n_I"
            },
            {
                "duration": 0.06,
                "phone": "d_I"
            },
            {
                "duration": 0.05,
                "phone": "uw_I"
            },
            {
                "duration": 0.06,
                "phone": "r_E"
            }
        ],
        "start": 14.459937500000002,
        "word": "GRANDEUR"
    },
    "2": {
        "alignedWord": "hurrying",
        "case": "success",
        "end": 6.5099375,
        "phones": [
            {
                "duration": 0.11,
                "phone": "hh_B"
            },
            {
                "duration": 0.17,
                "phone": "er_I"
            },
            {
                "duration": 0.12,
                "phone": "iy_I"
            },
            {
                "duration": 0.06,
                "phone": "ih_I"
            },
            {
                "duration": 0.1,
                "phone": "ng_E"
            }
        ],
        "start": 5.9499375,
        "word": "HURRYING"
    },
    "20": {
        "alignedWord": "of",
        "case": "success",
        "end": 15.109937500000001,
        "phones": [
            {
                "duration": 0.06,
                "phone": "ah_B"
            },
            {
                "duration": 0.08,
                "phone": "v_E"
            }
        ],
        "start": 14.9699375,
        "word": "OF"
    },
    "21": {
        "alignedWord": "the",
        "case": "success",
        "end": 15.179937500000001,
        "phones": [
            {
                "duration": 0.01,
                "phone": "dh_B"
            },
            {
                "duration": 0.06,
                "phone": "ah_E"
            }
        ],
        "start": 15.109937500000001,
        "word": "THE"
    },
    "22": {
        "alignedWord": "mountains",
        "case": "success",
        "end": 15.749937500000001,
        "phones": [
            {
                "duration": 0.08,
                "phone": "m_B"
            },
            {
                "duration": 0.15,
                "phone": "aw_I"
            },
            {
                "duration": 0.03,
                "phone": "n_I"
            },
            {
                "duration": 0.01,
                "phone": "t_I"
            },
            {
                "duration": 0.04,
                "phone": "ah_I"
            },
            {
                "duration": 0.07,
                "phone": "n_I"
            },
            {
                "duration": 0.19,
                "phone": "z_E"
            }
        ],
        "start": 15.179937500000001,
        "word": "MOUNTAINS"
    },
    "23": {
        "alignedWord": "is",
        "case": "success",
        "end": 16.0199375,
        "phones": [
            {
                "duration": 0.13,
                "phone": "ih_B"
            },
            {
                "duration": 0.11,
                "phone": "z_E"
            }
        ],
        "start": 15.7799375,
        "word": "IS"
    },
    "24": {
        "alignedWord": "never",
        "case": "success",
        "end": 16.3299375,
        "phones": [
            {
                "duration": 0.08,
                "phone": "n_B"
            },
            {
                "duration": 0.1,
                "phone": "eh_I"
            },
            {
                "duration": 0.07,
                "phone": "v_I"
            },
            {
                "duration": 0.06,
                "phone": "er_E"
            }
        ],
        "start": 16.0199375,
        "word": "NEVER"
    },
    "25": {
        "alignedWord": "diminished",
        "case": "success",
        "end": 16.979937500000002,
        "phones": [
            {
                "duration": 0.08,
                "phone": "d_B"
            },
            {
                "duration": 0.08,
                "phone": "ih_I"
            },
            {
                "duration": 0.03,
                "phone": "m_I"
            },
            {
                "duration": 0.12,
                "phone": "ih_I"
            },
            {
                "duration": 0.07,
                "phone": "n_I"
            },
            {
                "duration": 0.09,
                "phone": "ih_I"
            },
            {
                "duration": 0.11,
                "phone": "sh_I"
            },
            {
                "duration": 0.07,
                "phone": "t_E"
            }
        ],
        "start": 16.3299375,
        "word": "DIMINISHED"
    },
    "26": {
        "alignedWord": "by",
        "case": "success",
        "end": 17.1599375,
        "phones": [
            {
                "duration": 0.08,
                "phone": "b_B"
            },
            {
                "duration": 0.09,
                "phone": "ay_E"
            }
        ],
        "start": 16.989937500000003,
        "word": "BY"
    },
    "27": {
        "alignedWord": "these",
        "case": "success",
        "end": 17.4499375,
        "phones": [
            {
                "duration": 0.08,
                "phone": "dh_B"
            },
            {
                "duration": 0.08,
                "phone": "iy_I"
            },
            {
                "duration": 0.13,
                "phone": "z_E"
            }
        ],
        "start": 17.1599375,
        "word": "THESE"
    },
    "28": {
        "alignedWord": "lesser",
        "case": "success",
        "end": 17.869937500000002,
        "phones": [
            {
                "duration": 0.1,
                "phone": "l_B"
            },
            {
                "duration": 0.09,
                "phone": "eh_I"
            },
            {
                "duration": 0.1,
                "phone": "s_I"
            },
            {
                "duration": 0.13,
                "phone": "er_E"
            }
        ],
        "start": 17.4499375,
        "word": "LESSER"
    },
    "29": {
        "alignedWord": "objects",
        "case": "success",
        "end": 18.489937500000003,
        "phones": [
            {
                "duration": 0.12,
                "phone": "aa_B"
            },
            {
                "duration": 0.08,
                "phone": "b_I"
            },
            {
                "duration": 0.08,
                "phone": "jh_I"
            },
            {
                "duration": 0.08,
                "phone": "eh_I"
            },
            {
                "duration": 0.06,
                "phone": "k_I"
            },
            {
                "duration": 0.05,
                "phone": "t_I"
            },
            {
                "duration": 0.15,
                "phone": "s_E"
            }
        ],
        "start": 17.869937500000002,
        "word": "OBJECTS"
    },
    "3": {
        "alignedWord": "to",
        "case": "success",
        "end": 6.659937500000001,
        "phones": [
            {
                "duration": 0.07,
                "phone": "t_B"
            },
            {
                "duration": 0.08,
                "phone": "ah_E"
            }
        ],
        "start": 6.5099375,
        "word": "TO"
    },
    "4": {
        "alignedWord": "leap",
        "case": "success",
        "end": 7.0299375,
        "phones": [
            {
                "duration": 0.16,
                "phone": "l_B"
            },
            {
                "duration": 0.1,
                "phone": "iy_I"
            },
            {
                "duration": 0.11,
                "phone": "p_E"
            }
        ],
        "start": 6.659937500000001,
        "word": "LEAP"
    },
    "5": {
        "alignedWord": "off",
        "case": "success",
        "end": 7.319937499999999,
        "phones": [
            {
                "duration": 0.18,
                "phone": "ao_B"
            },
            {
                "duration": 0.11,
                "phone": "f_E"
            }
        ],
        "start": 7.0299375,
        "word": "OFF"
    },
    "6": {
        "alignedWord": "<unk>",
        "case": "success",
        "end": 7.889937499999999,
        "phones": [
            {
                "duration": 0.52,
                "phone": "oov_S"
            }
        ],
        "start": 7.3699375,
        "word": "GULLIED"
    },
    "7": {
        "alignedWord": "and",
        "case": "success",
        "end": 8.0799375,
        "phones": [
            {
                "duration": 0.06,
                "phone": "ae_B"
            },
            {
                "duration": 0.06,
                "phone": "n_I"
            },
            {
                "duration": 0.07,
                "phone": "d_E"
            }
        ],
        "start": 7.889937500000001,
        "word": "AND"
    },
    "8": {
        "alignedWord": "rocky",
        "case": "success",
        "end": 8.499937500000001,
        "phones": [
            {
                "duration": 0.09,
                "phone": "r_B"
            },
            {
                "duration": 0.1,
                "phone": "aa_I"
            },
            {
                "duration": 0.11,
                "phone": "k_I"
            },
            {
                "duration": 0.12,
                "phone": "iy_E"
            }
        ],
        "start": 8.0799375,
        "word": "ROCKY"
    },
    "9": {
        "alignedWord": "cliffs",
        "case": "success",
        "end": 9.049937500000002,
        "phones": [
            {
                "duration": 0.11,
                "phone": "k_B"
            },
            {
                "duration": 0.08,
                "phone": "l_I"
            },
            {
                "duration": 0.12,
                "phone": "ih_I"
            },
            {
                "duration": 0.08,
                "phone": "f_I"
            },
            {
                "duration": 0.11,
                "phone": "s_E"
            }
        ],
        "start": 8.549937500000002,
        "word": "CLIFFS"
    },
    "session_info": {
        "absorption_applied": "0.25",
        "absorption_range": "[0.25, 0.25]",
        "dialogue_prob": "[0.1, 0.1, 0.13333333333333333, 0.13333333333333333, 0.13333333333333333, 0.13333333333333333, 0.13333333333333333, 0.13333333333333333]",
        "distance_prime_spk": "11.250980187908425",
        "distance_spk3_ch1": "15.916970937427342",
        "distance_spk3_ch2": "18.013136934298036",
        "distance_spk4_ch1": "2.1448450735367226",
        "distance_spk4_ch2": "10.434806262206052",
        "distance_spk5_ch1": "19.236867308586035",
        "distance_spk5_ch2": "14.150529222130793",
        "distance_spk6_ch1": "7.729119647697775",
        "distance_spk6_ch2": "11.856942200998626",
        "noise_gain_dB_applied": "[-6.17, -10.11]",
        "noise_gain_dB_range": "[-20, -5]",
        "noise_path": "QUT-NOISE/QUT-NOISE/HOME-LIVINGB-2.wav",
        "session index": "14",
        "spk_id_sequence": "[4, 2, 1, 2, 1, 5, 2, 5, 4, 4]"
    }
}