{
  "transcript": "IT SHALL HAVE A BIT OHIO CHALLENGE TO STUMP ANOTHER BOY TO DO A THING IS CONSIDERED AS PUTTING A CERTAIN OBLIGATION ON HIM TO PERFORM THE ACTION INDICATED",
  "words": [
    {
      "alignedWord": "it",
      "case": "success",
      "end": 0.26,
      "endOffset": 2,
      "phones": [
        {
          "duration": 0.08,
          "phone": "ih_B"
        },
        {
          "duration": 0.04,
          "phone": "t_E"
        }
      ],
      "start": 0.14,
      "startOffset": 0,
      "word": "IT"
    },
    {
      "alignedWord": "shall",
      "case": "success",
      "end": 0.47,
      "endOffset": 8,
      "phones": [
        {
          "duration": 0.1,
          "phone": "sh_B"
        },
        {
          "duration": 0.06,
          "phone": "ae_I"
        },
        {
          "duration": 0.05,
          "phone": "l_E"
        }
      ],
      "start": 0.26,
      "startOffset": 3,
      "word": "SHALL"
    },
    {
      "alignedWord": "have",
      "case": "success",
      "end": 0.75,
      "endOffset": 13,
      "phones": [
        {
          "duration": 0.11,
          "phone": "hh_B"
        },
        {
          "duration": 0.1,
          "phone": "ae_I"
        },
        {
          "duration": 0.07,
          "phone": "v_E"
        }
      ],
      "start": 0.47,
      "startOffset": 9,
      "word": "HAVE"
    },
    {
      "alignedWord": "a",
      "case": "success",
      "end": 0.81,
      "endOffset": 15,
      "phones": [
        {
          "duration": 0.06,
          "phone": "ah_S"
        }
      ],
      "start": 0.75,
      "startOffset": 14,
      "word": "A"
    },
    {
      "alignedWord": "bit",
      "case": "success",
      "end": 1.24,
      "endOffset": 19,
      "phones": [
        {
          "duration": 0.09,
          "phone": "b_B"
        },
        {
          "duration": 0.09,
          "phone": "ih_I"
        },
        {
          "duration": 0.25,
          "phone": "t_E"
        }
      ],
      "start": 0.81,
      "startOffset": 16,
      "word": "BIT"
    },
    {
      "alignedWord": "ohio",
      "case": "success",
      "end": 2.14,
      "endOffset": 24,
      "phones": [
        {
          "duration": 0.14,
          "phone": "ow_B"
        },
        {
          "duration": 0.11,
          "phone": "hh_I"
        },
        {
          "duration": 0.17,
          "phone": "ay_I"
        },
        {
          "duration": 0.17,
          "phone": "ow_E"
        }
      ],
      "start": 1.55,
      "startOffset": 20,
      "word": "OHIO"
    },
    {
      "alignedWord": "challenge",
      "case": "success",
      "end": 4.37,
      "endOffset": 34,
      "phones": [
        {
          "duration": 0.19,
          "phone": "ch_B"
        },
        {
          "duration": 0.12,
          "phone": "ae_I"
        },
        {
          "duration": 0.08,
          "phone": "l_I"
        },
        {
          "duration": 0.11,
          "phone": "ah_I"
        },
        {
          "duration": 0.13,
          "phone": "n_I"
        },
        {
          "duration": 0.33,
          "phone": "jh_E"
        }
      ],
      "start": 3.41,
      "startOffset": 25,
      "word": "CHALLENGE"
    },
    {
      "alignedWord": "to",
      "case": "success",
      "end": 5.4,
      "endOffset": 37,
      "phones": [
        {
          "duration": 0.08,
          "phone": "t_B"
        },
        {
          "duration": 0.08,
          "phone": "ih_E"
        }
      ],
      "start": 5.24,
      "startOffset": 35,
      "word": "TO"
    },
    {
      "alignedWord": "stump",
      "case": "success",
      "end": 5.79,
      "endOffset": 43,
      "phones": [
        {
          "duration": 0.09,
          "phone": "s_B"
        },
        {
          "duration": 0.09,
          "phone": "t_I"
        },
        {
          "duration": 0.08,
          "phone": "ah_I"
        },
        {
          "duration": 0.06,
          "phone": "m_I"
        },
        {
          "duration": 0.07,
          "phone": "p_E"
        }
      ],
      "start": 5.4,
      "startOffset": 38,
      "word": "STUMP"
    },
    {
      "alignedWord": "another",
      "case": "success",
      "end": 6.09,
      "endOffset": 51,
      "phones": [
        {
          "duration": 0.05,
          "phone": "ah_B"
        },
        {
          "duration": 0.06,
          "phone": "n_I"
        },
        {
          "duration": 0.05,
          "phone": "ah_I"
        },
        {
          "duration": 0.07,
          "phone": "dh_I"
        },
        {
          "duration": 0.07,
          "phone": "er_E"
        }
      ],
      "start": 5.79,
      "startOffset": 44,
      "word": "ANOTHER"
    },
    {
      "alignedWord": "boy",
      "case": "success",
      "end": 6.359999999999999,
      "endOffset": 55,
      "phones": [
        {
          "duration": 0.11,
          "phone": "b_B"
        },
        {
          "duration": 0.16,
          "phone": "oy_E"
        }
      ],
      "start": 6.09,
      "startOffset": 52,
      "word": "BOY"
    },
    {
      "alignedWord": "to",
      "case": "success",
      "end": 6.51,
      "endOffset": 58,
      "phones": [
        {
          "duration": 0.06,
          "phone": "t_B"
        },
        {
          "duration": 0.06,
          "phone": "ih_E"
        }
      ],
      "start": 6.39,
      "startOffset": 56,
      "word": "TO"
    },
    {
      "alignedWord": "do",
      "case": "success",
      "end": 6.699999999999999,
      "endOffset": 61,
      "phones": [
        {
          "duration": 0.1,
          "phone": "d_B"
        },
        {
          "duration": 0.08,
          "phone": "uw_E"
        }
      ],
      "start": 6.52,
      "startOffset": 59,
      "word": "DO"
    },
    {
      "alignedWord": "a",
      "case": "success",
      "end": 6.7700000000000005,
      "endOffset": 63,
      "phones": [
        {
          "duration": 0.07,
          "phone": "ah_S"
        }
      ],
      "start": 6.7,
      "startOffset": 62,
      "word": "A"
    },
    {
      "alignedWord": "thing",
      "case": "success",
      "end": 6.9799999999999995,
      "endOffset": 69,
      "phones": [
        {
          "duration": 0.08,
          "phone": "th_B"
        },
        {
          "duration": 0.08,
          "phone": "ih_I"
        },
        {
          "duration": 0.05,
          "phone": "ng_E"
        }
      ],
      "start": 6.77,
      "startOffset": 64,
      "word": "THING"
    },
    {
      "alignedWord": "is",
      "case": "success",
      "end": 7.130000000000001,
      "endOffset": 72,
      "phones": [
        {
          "duration": 0.05,
          "phone": "ih_B"
        },
        {
          "duration": 0.1,
          "phone": "z_E"
        }
      ],
      "start": 6.98,
      "startOffset": 70,
      "word": "IS"
    },
    {
      "alignedWord": "considered",
      "case": "success",
      "end": 7.59,
      "endOffset": 83,
      "phones": [
        {
          "duration": 0.04,
          "phone": "k_B"
        },
        {
          "duration": 0.05,
          "phone": "ah_I"
        },
        {
          "duration": 0.07,
          "phone": "n_I"
        },
        {
          "duration": 0.07,
          "phone": "s_I"
        },
        {
          "duration": 0.07,
          "phone": "ih_I"
        },
        {
          "duration": 0.03,
          "phone": "d_I"
        },
        {
          "duration": 0.07,
          "phone": "er_I"
        },
        {
          "duration": 0.06,
          "phone": "d_E"
        }
      ],
      "start": 7.13,
      "startOffset": 73,
      "word": "CONSIDERED"
    },
    {
      "alignedWord": "as",
      "case": "success",
      "end": 7.72,
      "endOffset": 86,
      "phones": [
        {
          "duration": 0.06,
          "phone": "eh_B"
        },
        {
          "duration": 0.07,
          "phone": "z_E"
        }
      ],
      "start": 7.59,
      "startOffset": 84,
      "word": "AS"
    },
    {
      "alignedWord": "putting",
      "case": "success",
      "end": 8.0,
      "endOffset": 94,
      "phones": [
        {
          "duration": 0.06,
          "phone": "p_B"
        },
        {
          "duration": 0.07,
          "phone": "uh_I"
        },
        {
          "duration": 0.03,
          "phone": "t_I"
        },
        {
          "duration": 0.06,
          "phone": "ih_I"
        },
        {
          "duration": 0.06,
          "phone": "ng_E"
        }
      ],
      "start": 7.72,
      "startOffset": 87,
      "word": "PUTTING"
    },
    {
      "alignedWord": "a",
      "case": "success",
      "end": 8.06,
      "endOffset": 96,
      "phones": [
        {
          "duration": 0.06,
          "phone": "ah_S"
        }
      ],
      "start": 8.0,
      "startOffset": 95,
      "word": "A"
    },
    {
      "alignedWord": "certain",
      "case": "success",
      "end": 8.409999,
      "endOffset": 104,
      "phones": [
        {
          "duration": 0.13,
          "phone": "s_B"
        },
        {
          "duration": 0.09,
          "phone": "er_I"
        },
        {
          "duration": 0.01,
          "phone": "t_I"
        },
        {
          "duration": 0.04,
          "phone": "ah_I"
        },
        {
          "duration": 0.08,
          "phone": "n_E"
        }
      ],
      "start": 8.059999,
      "startOffset": 97,
      "word": "CERTAIN"
    },
    {
      "alignedWord": "obligation",
      "case": "success",
      "end": 8.97,
      "endOffset": 115,
      "phones": [
        {
          "duration": 0.09,
          "phone": "aa_B"
        },
        {
          "duration": 0.03,
          "phone": "b_I"
        },
        {
          "duration": 0.03,
          "phone": "l_I"
        },
        {
          "duration": 0.06,
          "phone": "ah_I"
        },
        {
          "duration": 0.07,
          "phone": "g_I"
        },
        {
          "duration": 0.1,
          "phone": "ey_I"
        },
        {
          "duration": 0.11,
          "phone": "sh_I"
        },
        {
          "duration": 0.03,
          "phone": "ah_I"
        },
        {
          "duration": 0.04,
          "phone": "n_E"
        }
      ],
      "start": 8.41,
      "startOffset": 105,
      "word": "OBLIGATION"
    },
    {
      "alignedWord": "on",
      "case": "success",
      "end": 9.100000000000001,
      "endOffset": 118,
      "phones": [
        {
          "duration": 0.05,
          "phone": "ao_B"
        },
        {
          "duration": 0.08,
          "phone": "n_E"
        }
      ],
      "start": 8.97,
      "startOffset": 116,
      "word": "ON"
    },
    {
      "alignedWord": "him",
      "case": "success",
      "end": 9.299999,
      "endOffset": 122,
      "phones": [
        {
          "duration": 0.06,
          "phone": "hh_B"
        },
        {
          "duration": 0.06,
          "phone": "ih_I"
        },
        {
          "duration": 0.08,
          "phone": "m_E"
        }
      ],
      "start": 9.099999,
      "startOffset": 119,
      "word": "HIM"
    },
    {
      "alignedWord": "to",
      "case": "success",
      "end": 9.4,
      "endOffset": 125,
      "phones": [
        {
          "duration": 0.04,
          "phone": "t_B"
        },
        {
          "duration": 0.06,
          "phone": "uw_E"
        }
      ],
      "start": 9.3,
      "startOffset": 123,
      "word": "TO"
    },
    {
      "alignedWord": "perform",
      "case": "success",
      "end": 9.780000000000001,
      "endOffset": 133,
      "phones": [
        {
          "duration": 0.06,
          "phone": "p_B"
        },
        {
          "duration": 0.06,
          "phone": "er_I"
        },
        {
          "duration": 0.11,
          "phone": "f_I"
        },
        {
          "duration": 0.05,
          "phone": "ao_I"
        },
        {
          "duration": 0.05,
          "phone": "r_I"
        },
        {
          "duration": 0.05,
          "phone": "m_E"
        }
      ],
      "start": 9.4,
      "startOffset": 126,
      "word": "PERFORM"
    },
    {
      "alignedWord": "the",
      "case": "success",
      "end": 9.879999999999999,
      "endOffset": 137,
      "phones": [
        {
          "duration": 0.04,
          "phone": "dh_B"
        },
        {
          "duration": 0.06,
          "phone": "iy_E"
        }
      ],
      "start": 9.78,
      "startOffset": 134,
      "word": "THE"
    },
    {
      "alignedWord": "action",
      "case": "success",
      "end": 10.3,
      "endOffset": 144,
      "phones": [
        {
          "duration": 0.12,
          "phone": "ae_B"
        },
        {
          "duration": 0.08,
          "phone": "k_I"
        },
        {
          "duration": 0.09,
          "phone": "sh_I"
        },
        {
          "duration": 0.05,
          "phone": "ah_I"
        },
        {
          "duration": 0.06,
          "phone": "n_E"
        }
      ],
      "start": 9.9,
      "startOffset": 138,
      "word": "ACTION"
    },
    {
      "alignedWord": "indicated",
      "case": "success",
      "end": 10.939999,
      "endOffset": 154,
      "phones": [
        {
          "duration": 0.08,
          "phone": "ih_B"
        },
        {
          "duration": 0.08,
          "phone": "n_I"
        },
        {
          "duration": 0.01,
          "phone": "d_I"
        },
        {
          "duration": 0.03,
          "phone": "ah_I"
        },
        {
          "duration": 0.13,
          "phone": "k_I"
        },
        {
          "duration": 0.08,
          "phone": "ey_I"
        },
        {
          "duration": 0.04,
          "phone": "t_I"
        },
        {
          "duration": 0.07,
          "phone": "ah_I"
        },
        {
          "duration": 0.11,
          "phone": "d_E"
        }
      ],
      "start": 10.309999,
      "startOffset": 145,
      "word": "INDICATED"
    }
  ]
}