{
  "transcript": "I KNEW OF COURSE THAT THEY MUST DESPISE ME NOW FOR MY LACK OF SUCCESS IN THE SERVICE AND FOR MY HAVING LET MYSELF SINK SO LOW GOING ABOUT BADLY DRESSED AND SO ON WHICH SEEMED TO THEM A SIGN OF MY INCAPACITY AND INSIGNIFICANCE",
  "words": [
    {
      "alignedWord": "i",
      "case": "success",
      "end": 0.45999999999999996,
      "endOffset": 1,
      "phones": [
        {
          "duration": 0.11,
          "phone": "ay_S"
        }
      ],
      "start": 0.35,
      "startOffset": 0,
      "word": "I"
    },
    {
      "alignedWord": "knew",
      "case": "success",
      "end": 0.63,
      "endOffset": 6,
      "phones": [
        {
          "duration": 0.03,
          "phone": "n_B"
        },
        {
          "duration": 0.09,
          "phone": "y_I"
        },
        {
          "duration": 0.05,
          "phone": "uw_E"
        }
      ],
      "start": 0.46,
      "startOffset": 2,
      "word": "KNEW"
    },
    {
      "alignedWord": "of",
      "case": "success",
      "end": 0.78,
      "endOffset": 9,
      "phones": [
        {
          "duration": 0.08,
          "phone": "ah_B"
        },
        {
          "duration": 0.07,
          "phone": "v_E"
        }
      ],
      "start": 0.63,
      "startOffset": 7,
      "word": "OF"
    },
    {
      "alignedWord": "course",
      "case": "success",
      "end": 1.15,
      "endOffset": 16,
      "phones": [
        {
          "duration": 0.09,
          "phone": "k_B"
        },
        {
          "duration": 0.11,
          "phone": "ao_I"
        },
        {
          "duration": 0.08,
          "phone": "r_I"
        },
        {
          "duration": 0.09,
          "phone": "s_E"
        }
      ],
      "start": 0.78,
      "startOffset": 10,
      "word": "COURSE"
    },
    {
      "alignedWord": "that",
      "case": "success",
      "end": 1.33,
      "endOffset": 21,
      "phones": [
        {
          "duration": 0.05,
          "phone": "dh_B"
        },
        {
          "duration": 0.04,
          "phone": "ah_I"
        },
        {
          "duration": 0.05,
          "phone": "t_E"
        }
      ],
      "start": 1.19,
      "startOffset": 17,
      "word": "THAT"
    },
    {
      "alignedWord": "they",
      "case": "success",
      "end": 1.4400000000000002,
      "endOffset": 26,
      "phones": [
        {
          "duration": 0.04,
          "phone": "dh_B"
        },
        {
          "duration": 0.07,
          "phone": "ey_E"
        }
      ],
      "start": 1.33,
      "startOffset": 22,
      "word": "THEY"
    },
    {
      "alignedWord": "must",
      "case": "success",
      "end": 1.64,
      "endOffset": 31,
      "phones": [
        {
          "duration": 0.05,
          "phone": "m_B"
        },
        {
          "duration": 0.08,
          "phone": "ah_I"
        },
        {
          "duration": 0.03,
          "phone": "s_I"
        },
        {
          "duration": 0.04,
          "phone": "t_E"
        }
      ],
      "start": 1.44,
      "startOffset": 27,
      "word": "MUST"
    },
    {
      "alignedWord": "despise",
      "case": "success",
      "end": 2.2399999999999998,
      "endOffset": 39,
      "phones": [
        {
          "duration": 0.03,
          "phone": "d_B"
        },
        {
          "duration": 0.08,
          "phone": "ih_I"
        },
        {
          "duration": 0.11,
          "phone": "s_I"
        },
        {
          "duration": 0.09,
          "phone": "p_I"
        },
        {
          "duration": 0.19,
          "phone": "ay_I"
        },
        {
          "duration": 0.08,
          "phone": "z_E"
        }
      ],
      "start": 1.66,
      "startOffset": 32,
      "word": "DESPISE"
    },
    {
      "alignedWord": "me",
      "case": "success",
      "end": 2.3800000000000003,
      "endOffset": 42,
      "phones": [
        {
          "duration": 0.07,
          "phone": "m_B"
        },
        {
          "duration": 0.07,
          "phone": "iy_E"
        }
      ],
      "start": 2.24,
      "startOffset": 40,
      "word": "ME"
    },
    {
      "alignedWord": "now",
      "case": "success",
      "end": 2.59,
      "endOffset": 46,
      "phones": [
        {
          "duration": 0.08,
          "phone": "n_B"
        },
        {
          "duration": 0.13,
          "phone": "aw_E"
        }
      ],
      "start": 2.38,
      "startOffset": 43,
      "word": "NOW"
    },
    {
      "alignedWord": "for",
      "case": "success",
      "end": 2.7199999999999998,
      "endOffset": 50,
      "phones": [
        {
          "duration": 0.07,
          "phone": "f_B"
        },
        {
          "duration": 0.06,
          "phone": "er_E"
        }
      ],
      "start": 2.59,
      "startOffset": 47,
      "word": "FOR"
    },
    {
      "alignedWord": "my",
      "case": "success",
      "end": 2.8600000000000003,
      "endOffset": 53,
      "phones": [
        {
          "duration": 0.06,
          "phone": "m_B"
        },
        {
          "duration": 0.08,
          "phone": "ay_E"
        }
      ],
      "start": 2.72,
      "startOffset": 51,
      "word": "MY"
    },
    {
      "alignedWord": "lack",
      "case": "success",
      "end": 3.12,
      "endOffset": 58,
      "phones": [
        {
          "duration": 0.1,
          "phone": "l_B"
        },
        {
          "duration": 0.1,
          "phone": "ae_I"
        },
        {
          "duration": 0.06,
          "phone": "k_E"
        }
      ],
      "start": 2.86,
      "startOffset": 54,
      "word": "LACK"
    },
    {
      "alignedWord": "of",
      "case": "success",
      "end": 3.2600000000000002,
      "endOffset": 61,
      "phones": [
        {
          "duration": 0.06,
          "phone": "ah_B"
        },
        {
          "duration": 0.08,
          "phone": "v_E"
        }
      ],
      "start": 3.12,
      "startOffset": 59,
      "word": "OF"
    },
    {
      "alignedWord": "success",
      "case": "success",
      "end": 3.71,
      "endOffset": 69,
      "phones": [
        {
          "duration": 0.03,
          "phone": "s_B"
        },
        {
          "duration": 0.08,
          "phone": "ah_I"
        },
        {
          "duration": 0.06,
          "phone": "k_I"
        },
        {
          "duration": 0.1,
          "phone": "s_I"
        },
        {
          "duration": 0.11,
          "phone": "eh_I"
        },
        {
          "duration": 0.07,
          "phone": "s_E"
        }
      ],
      "start": 3.26,
      "startOffset": 62,
      "word": "SUCCESS"
    },
    {
      "alignedWord": "in",
      "case": "success",
      "end": 3.8,
      "endOffset": 72,
      "phones": [
        {
          "duration": 0.06,
          "phone": "ih_B"
        },
        {
          "duration": 0.03,
          "phone": "n_E"
        }
      ],
      "start": 3.71,
      "startOffset": 70,
      "word": "IN"
    },
    {
      "alignedWord": "the",
      "case": "success",
      "end": 3.9,
      "endOffset": 76,
      "phones": [
        {
          "duration": 0.04,
          "phone": "dh_B"
        },
        {
          "duration": 0.06,
          "phone": "ah_E"
        }
      ],
      "start": 3.8,
      "startOffset": 73,
      "word": "THE"
    },
    {
      "alignedWord": "service",
      "case": "success",
      "end": 4.35,
      "endOffset": 84,
      "phones": [
        {
          "duration": 0.12,
          "phone": "s_B"
        },
        {
          "duration": 0.11,
          "phone": "er_I"
        },
        {
          "duration": 0.05,
          "phone": "v_I"
        },
        {
          "duration": 0.08,
          "phone": "ah_I"
        },
        {
          "duration": 0.09,
          "phone": "s_E"
        }
      ],
      "start": 3.9,
      "startOffset": 77,
      "word": "SERVICE"
    },
    {
      "alignedWord": "and",
      "case": "success",
      "end": 4.75,
      "endOffset": 88,
      "phones": [
        {
          "duration": 0.05,
          "phone": "ae_B"
        },
        {
          "duration": 0.04,
          "phone": "n_I"
        },
        {
          "duration": 0.06,
          "phone": "d_E"
        }
      ],
      "start": 4.6,
      "startOffset": 85,
      "word": "AND"
    },
    {
      "alignedWord": "for",
      "case": "success",
      "end": 4.85,
      "endOffset": 92,
      "phones": [
        {
          "duration": 0.03,
          "phone": "f_B"
        },
        {
          "duration": 0.07,
          "phone": "er_E"
        }
      ],
      "start": 4.75,
      "startOffset": 89,
      "word": "FOR"
    },
    {
      "alignedWord": "my",
      "case": "success",
      "end": 5.04,
      "endOffset": 95,
      "phones": [
        {
          "duration": 0.08,
          "phone": "m_B"
        },
        {
          "duration": 0.11,
          "phone": "ay_E"
        }
      ],
      "start": 4.85,
      "startOffset": 93,
      "word": "MY"
    },
    {
      "alignedWord": "having",
      "case": "success",
      "end": 5.38,
      "endOffset": 102,
      "phones": [
        {
          "duration": 0.08,
          "phone": "hh_B"
        },
        {
          "duration": 0.07,
          "phone": "ae_I"
        },
        {
          "duration": 0.04,
          "phone": "v_I"
        },
        {
          "duration": 0.06,
          "phone": "ih_I"
        },
        {
          "duration": 0.09,
          "phone": "ng_E"
        }
      ],
      "start": 5.04,
      "startOffset": 96,
      "word": "HAVING"
    },
    {
      "alignedWord": "let",
      "case": "success",
      "end": 5.55,
      "endOffset": 106,
      "phones": [
        {
          "duration": 0.03,
          "phone": "l_B"
        },
        {
          "duration": 0.07,
          "phone": "eh_I"
        },
        {
          "duration": 0.07,
          "phone": "t_E"
        }
      ],
      "start": 5.38,
      "startOffset": 103,
      "word": "LET"
    },
    {
      "alignedWord": "myself",
      "case": "success",
      "end": 5.93,
      "endOffset": 113,
      "phones": [
        {
          "duration": 0.03,
          "phone": "m_B"
        },
        {
          "duration": 0.08,
          "phone": "ay_I"
        },
        {
          "duration": 0.09,
          "phone": "s_I"
        },
        {
          "duration": 0.06,
          "phone": "eh_I"
        },
        {
          "duration": 0.05,
          "phone": "l_I"
        },
        {
          "duration": 0.07,
          "phone": "f_E"
        }
      ],
      "start": 5.55,
      "startOffset": 107,
      "word": "MYSELF"
    },
    {
      "alignedWord": "sink",
      "case": "success",
      "end": 6.1899999999999995,
      "endOffset": 118,
      "phones": [
        {
          "duration": 0.09,
          "phone": "s_B"
        },
        {
          "duration": 0.05,
          "phone": "ih_I"
        },
        {
          "duration": 0.05,
          "phone": "ng_I"
        },
        {
          "duration": 0.07,
          "phone": "k_E"
        }
      ],
      "start": 5.93,
      "startOffset": 114,
      "word": "SINK"
    },
    {
      "alignedWord": "so",
      "case": "success",
      "end": 6.4,
      "endOffset": 121,
      "phones": [
        {
          "duration": 0.09,
          "phone": "s_B"
        },
        {
          "duration": 0.12,
          "phone": "ow_E"
        }
      ],
      "start": 6.19,
      "startOffset": 119,
      "word": "SO"
    },
    {
      "alignedWord": "low",
      "case": "success",
      "end": 6.83,
      "endOffset": 125,
      "phones": [
        {
          "duration": 0.12,
          "phone": "l_B"
        },
        {
          "duration": 0.31,
          "phone": "ow_E"
        }
      ],
      "start": 6.4,
      "startOffset": 122,
      "word": "LOW"
    },
    {
      "alignedWord": "going",
      "case": "success",
      "end": 7.39,
      "endOffset": 131,
      "phones": [
        {
          "duration": 0.08,
          "phone": "g_B"
        },
        {
          "duration": 0.05,
          "phone": "ow_I"
        },
        {
          "duration": 0.06,
          "phone": "ih_I"
        },
        {
          "duration": 0.06,
          "phone": "ng_E"
        }
      ],
      "start": 7.14,
      "startOffset": 126,
      "word": "GOING"
    },
    {
      "alignedWord": "about",
      "case": "success",
      "end": 7.66,
      "endOffset": 137,
      "phones": [
        {
          "duration": 0.02,
          "phone": "ah_B"
        },
        {
          "duration": 0.09,
          "phone": "b_I"
        },
        {
          "duration": 0.07,
          "phone": "aw_I"
        },
        {
          "duration": 0.09,
          "phone": "t_E"
        }
      ],
      "start": 7.39,
      "startOffset": 132,
      "word": "ABOUT"
    },
    {
      "alignedWord": "badly",
      "case": "success",
      "end": 8.06,
      "endOffset": 143,
      "phones": [
        {
          "duration": 0.1,
          "phone": "b_B"
        },
        {
          "duration": 0.09,
          "phone": "ae_I"
        },
        {
          "duration": 0.08,
          "phone": "d_I"
        },
        {
          "duration": 0.05,
          "phone": "l_I"
        },
        {
          "duration": 0.06,
          "phone": "iy_E"
        }
      ],
      "start": 7.68,
      "startOffset": 138,
      "word": "BADLY"
    },
    {
      "alignedWord": "dressed",
      "case": "success",
      "end": 8.409999,
      "endOffset": 151,
      "phones": [
        {
          "duration": 0.05,
          "phone": "d_B"
        },
        {
          "duration": 0.07,
          "phone": "r_I"
        },
        {
          "duration": 0.08,
          "phone": "eh_I"
        },
        {
          "duration": 0.1,
          "phone": "s_I"
        },
        {
          "duration": 0.05,
          "phone": "t_E"
        }
      ],
      "start": 8.059999,
      "startOffset": 144,
      "word": "DRESSED"
    },
    {
      "alignedWord": "and",
      "case": "success",
      "end": 8.57,
      "endOffset": 155,
      "phones": [
        {
          "duration": 0.05,
          "phone": "ah_B"
        },
        {
          "duration": 0.03,
          "phone": "n_I"
        },
        {
          "duration": 0.08,
          "phone": "d_E"
        }
      ],
      "start": 8.41,
      "startOffset": 152,
      "word": "AND"
    },
    {
      "alignedWord": "so",
      "case": "success",
      "end": 8.81,
      "endOffset": 158,
      "phones": [
        {
          "duration": 0.07,
          "phone": "s_B"
        },
        {
          "duration": 0.17,
          "phone": "ow_E"
        }
      ],
      "start": 8.57,
      "startOffset": 156,
      "word": "SO"
    },
    {
      "alignedWord": "on",
      "case": "success",
      "end": 9.099998999999999,
      "endOffset": 161,
      "phones": [
        {
          "duration": 0.12,
          "phone": "ao_B"
        },
        {
          "duration": 0.17,
          "phone": "n_E"
        }
      ],
      "start": 8.809999,
      "startOffset": 159,
      "word": "ON"
    },
    {
      "alignedWord": "which",
      "case": "success",
      "end": 9.499998999999999,
      "endOffset": 167,
      "phones": [
        {
          "duration": 0.07,
          "phone": "w_B"
        },
        {
          "duration": 0.05,
          "phone": "ih_I"
        },
        {
          "duration": 0.07,
          "phone": "ch_E"
        }
      ],
      "start": 9.309999,
      "startOffset": 162,
      "word": "WHICH"
    },
    {
      "alignedWord": "seemed",
      "case": "success",
      "end": 9.73,
      "endOffset": 174,
      "phones": [
        {
          "duration": 0.09,
          "phone": "s_B"
        },
        {
          "duration": 0.07,
          "phone": "iy_I"
        },
        {
          "duration": 0.06,
          "phone": "m_I"
        },
        {
          "duration": 0.01,
          "phone": "d_E"
        }
      ],
      "start": 9.5,
      "startOffset": 168,
      "word": "SEEMED"
    },
    {
      "alignedWord": "to",
      "case": "success",
      "end": 9.86,
      "endOffset": 177,
      "phones": [
        {
          "duration": 0.05,
          "phone": "t_B"
        },
        {
          "duration": 0.07,
          "phone": "ih_E"
        }
      ],
      "start": 9.74,
      "startOffset": 175,
      "word": "TO"
    },
    {
      "alignedWord": "them",
      "case": "success",
      "end": 10.19,
      "endOffset": 182,
      "phones": [
        {
          "duration": 0.03,
          "phone": "dh_B"
        },
        {
          "duration": 0.16,
          "phone": "eh_I"
        },
        {
          "duration": 0.14,
          "phone": "m_E"
        }
      ],
      "start": 9.86,
      "startOffset": 178,
      "word": "THEM"
    },
    {
      "alignedWord": "a",
      "case": "success",
      "end": 10.34,
      "endOffset": 184,
      "phones": [
        {
          "duration": 0.11,
          "phone": "ah_S"
        }
      ],
      "start": 10.23,
      "startOffset": 183,
      "word": "A"
    },
    {
      "alignedWord": "sign",
      "case": "success",
      "end": 10.66,
      "endOffset": 189,
      "phones": [
        {
          "duration": 0.15,
          "phone": "s_B"
        },
        {
          "duration": 0.1,
          "phone": "ay_I"
        },
        {
          "duration": 0.07,
          "phone": "n_E"
        }
      ],
      "start": 10.34,
      "startOffset": 185,
      "word": "SIGN"
    },
    {
      "alignedWord": "of",
      "case": "success",
      "end": 10.8,
      "endOffset": 192,
      "phones": [
        {
          "duration": 0.05,
          "phone": "ah_B"
        },
        {
          "duration": 0.09,
          "phone": "v_E"
        }
      ],
      "start": 10.66,
      "startOffset": 190,
      "word": "OF"
    },
    {
      "alignedWord": "my",
      "case": "success",
      "end": 11.0,
      "endOffset": 195,
      "phones": [
        {
          "duration": 0.06,
          "phone": "m_B"
        },
        {
          "duration": 0.14,
          "phone": "ay_E"
        }
      ],
      "start": 10.8,
      "startOffset": 193,
      "word": "MY"
    },
    {
      "alignedWord": "incapacity",
      "case": "success",
      "end": 11.959999999999999,
      "endOffset": 206,
      "phones": [
        {
          "duration": 0.12,
          "phone": "ih_B"
        },
        {
          "duration": 0.11,
          "phone": "n_I"
        },
        {
          "duration": 0.07,
          "phone": "k_I"
        },
        {
          "duration": 0.05,
          "phone": "ah_I"
        },
        {
          "duration": 0.1,
          "phone": "p_I"
        },
        {
          "duration": 0.1,
          "phone": "ae_I"
        },
        {
          "duration": 0.08,
          "phone": "s_I"
        },
        {
          "duration": 0.06,
          "phone": "ah_I"
        },
        {
          "duration": 0.07,
          "phone": "t_I"
        },
        {
          "duration": 0.18,
          "phone": "iy_E"
        }
      ],
      "start": 11.02,
      "startOffset": 196,
      "word": "INCAPACITY"
    },
    {
      "alignedWord": "and",
      "case": "success",
      "end": 12.43,
      "endOffset": 210,
      "phones": [
        {
          "duration": 0.07,
          "phone": "ah_B"
        },
        {
          "duration": 0.09,
          "phone": "n_I"
        },
        {
          "duration": 0.03,
          "phone": "d_E"
        }
      ],
      "start": 12.24,
      "startOffset": 207,
      "word": "AND"
    },
    {
      "alignedWord": "<unk>",
      "case": "success",
      "end": 12.669999,
      "endOffset": 225,
      "phones": [
        {
          "duration": 0.24,
          "phone": "oov_S"
        }
      ],
      "start": 12.429999,
      "startOffset": 211,
      "word": "INSIGNIFICANCE"
    }
  ]
}