{
  "transcript": "GAVE HIM A CERTAIN IMPORTANCE AMONG US HE ALWAYS THOUGHT ME OF NO CONSEQUENCE WHATEVER HIS BEHAVIOUR TO ME THOUGH NOT QUITE COURTEOUS WAS TOLERABLE WELL WITH SEVEN ROUBLES EACH SAID TRUDOLYUBOV TWENTY ONE ROUBLES BETWEEN THE THREE OF US",
  "words": [
    {
      "alignedWord": "gave",
      "case": "success",
      "end": 0.44,
      "endOffset": 4,
      "phones": [
        {
          "duration": 0.1,
          "phone": "g_B"
        },
        {
          "duration": 0.07,
          "phone": "ey_I"
        },
        {
          "duration": 0.07,
          "phone": "v_E"
        }
      ],
      "start": 0.2,
      "startOffset": 0,
      "word": "GAVE"
    },
    {
      "alignedWord": "him",
      "case": "success",
      "end": 0.6,
      "endOffset": 8,
      "phones": [
        {
          "duration": 0.03,
          "phone": "hh_B"
        },
        {
          "duration": 0.07,
          "phone": "ih_I"
        },
        {
          "duration": 0.06,
          "phone": "m_E"
        }
      ],
      "start": 0.44,
      "startOffset": 5,
      "word": "HIM"
    },
    {
      "alignedWord": "a",
      "case": "success",
      "end": 0.6599999999999999,
      "endOffset": 10,
      "phones": [
        {
          "duration": 0.06,
          "phone": "ah_S"
        }
      ],
      "start": 0.6,
      "startOffset": 9,
      "word": "A"
    },
    {
      "alignedWord": "certain",
      "case": "success",
      "end": 0.99,
      "endOffset": 18,
      "phones": [
        {
          "duration": 0.12,
          "phone": "s_B"
        },
        {
          "duration": 0.08,
          "phone": "er_I"
        },
        {
          "duration": 0.02,
          "phone": "t_I"
        },
        {
          "duration": 0.06,
          "phone": "ah_I"
        },
        {
          "duration": 0.05,
          "phone": "n_E"
        }
      ],
      "start": 0.66,
      "startOffset": 11,
      "word": "CERTAIN"
    },
    {
      "alignedWord": "importance",
      "case": "success",
      "end": 1.6,
      "endOffset": 29,
      "phones": [
        {
          "duration": 0.05,
          "phone": "ih_B"
        },
        {
          "duration": 0.07,
          "phone": "m_I"
        },
        {
          "duration": 0.11,
          "phone": "p_I"
        },
        {
          "duration": 0.08,
          "phone": "ao_I"
        },
        {
          "duration": 0.03,
          "phone": "r_I"
        },
        {
          "duration": 0.06,
          "phone": "t_I"
        },
        {
          "duration": 0.06,
          "phone": "ah_I"
        },
        {
          "duration": 0.07,
          "phone": "n_I"
        },
        {
          "duration": 0.08,
          "phone": "s_E"
        }
      ],
      "start": 0.99,
      "startOffset": 19,
      "word": "IMPORTANCE"
    },
    {
      "alignedWord": "among",
      "case": "success",
      "end": 1.87,
      "endOffset": 35,
      "phones": [
        {
          "duration": 0.05,
          "phone": "ah_B"
        },
        {
          "duration": 0.08,
          "phone": "m_I"
        },
        {
          "duration": 0.09,
          "phone": "ah_I"
        },
        {
          "duration": 0.05,
          "phone": "ng_E"
        }
      ],
      "start": 1.6,
      "startOffset": 30,
      "word": "AMONG"
    },
    {
      "alignedWord": "us",
      "case": "success",
      "end": 2.21,
      "endOffset": 38,
      "phones": [
        {
          "duration": 0.11,
          "phone": "ah_B"
        },
        {
          "duration": 0.23,
          "phone": "s_E"
        }
      ],
      "start": 1.87,
      "startOffset": 36,
      "word": "US"
    },
    {
      "alignedWord": "he",
      "case": "success",
      "end": 3.2,
      "endOffset": 41,
      "phones": [
        {
          "duration": 0.21,
          "phone": "hh_B"
        },
        {
          "duration": 0.08,
          "phone": "iy_E"
        }
      ],
      "start": 2.91,
      "startOffset": 39,
      "word": "HE"
    },
    {
      "alignedWord": "always",
      "case": "success",
      "end": 3.5100000000000002,
      "endOffset": 48,
      "phones": [
        {
          "duration": 0.06,
          "phone": "ao_B"
        },
        {
          "duration": 0.06,
          "phone": "l_I"
        },
        {
          "duration": 0.09,
          "phone": "w_I"
        },
        {
          "duration": 0.07,
          "phone": "iy_I"
        },
        {
          "duration": 0.03,
          "phone": "z_E"
        }
      ],
      "start": 3.2,
      "startOffset": 42,
      "word": "ALWAYS"
    },
    {
      "alignedWord": "thought",
      "case": "success",
      "end": 3.8,
      "endOffset": 56,
      "phones": [
        {
          "duration": 0.11,
          "phone": "th_B"
        },
        {
          "duration": 0.1,
          "phone": "ao_I"
        },
        {
          "duration": 0.08,
          "phone": "t_E"
        }
      ],
      "start": 3.51,
      "startOffset": 49,
      "word": "THOUGHT"
    },
    {
      "alignedWord": "me",
      "case": "success",
      "end": 3.96,
      "endOffset": 59,
      "phones": [
        {
          "duration": 0.08,
          "phone": "m_B"
        },
        {
          "duration": 0.08,
          "phone": "iy_E"
        }
      ],
      "start": 3.8,
      "startOffset": 57,
      "word": "ME"
    },
    {
      "alignedWord": "of",
      "case": "success",
      "end": 4.09,
      "endOffset": 62,
      "phones": [
        {
          "duration": 0.05,
          "phone": "ah_B"
        },
        {
          "duration": 0.08,
          "phone": "v_E"
        }
      ],
      "start": 3.96,
      "startOffset": 60,
      "word": "OF"
    },
    {
      "alignedWord": "no",
      "case": "success",
      "end": 4.24,
      "endOffset": 65,
      "phones": [
        {
          "duration": 0.06,
          "phone": "n_B"
        },
        {
          "duration": 0.09,
          "phone": "ow_E"
        }
      ],
      "start": 4.09,
      "startOffset": 63,
      "word": "NO"
    },
    {
      "alignedWord": "consequence",
      "case": "success",
      "end": 4.84,
      "endOffset": 77,
      "phones": [
        {
          "duration": 0.1,
          "phone": "k_B"
        },
        {
          "duration": 0.07,
          "phone": "aa_I"
        },
        {
          "duration": 0.06,
          "phone": "n_I"
        },
        {
          "duration": 0.05,
          "phone": "s_I"
        },
        {
          "duration": 0.07,
          "phone": "ah_I"
        },
        {
          "duration": 0.05,
          "phone": "k_I"
        },
        {
          "duration": 0.04,
          "phone": "w_I"
        },
        {
          "duration": 0.05,
          "phone": "ah_I"
        },
        {
          "duration": 0.04,
          "phone": "n_I"
        },
        {
          "duration": 0.07,
          "phone": "s_E"
        }
      ],
      "start": 4.24,
      "startOffset": 66,
      "word": "CONSEQUENCE"
    },
    {
      "alignedWord": "whatever",
      "case": "success",
      "end": 5.32,
      "endOffset": 86,
      "phones": [
        {
          "duration": 0.03,
          "phone": "w_B"
        },
        {
          "duration": 0.06,
          "phone": "ah_I"
        },
        {
          "duration": 0.05,
          "phone": "t_I"
        },
        {
          "duration": 0.07,
          "phone": "eh_I"
        },
        {
          "duration": 0.08,
          "phone": "v_I"
        },
        {
          "duration": 0.19,
          "phone": "er_E"
        }
      ],
      "start": 4.84,
      "startOffset": 78,
      "word": "WHATEVER"
    },
    {
      "alignedWord": "his",
      "case": "success",
      "end": 5.8500000000000005,
      "endOffset": 90,
      "phones": [
        {
          "duration": 0.07,
          "phone": "hh_B"
        },
        {
          "duration": 0.05,
          "phone": "ih_I"
        },
        {
          "duration": 0.08,
          "phone": "z_E"
        }
      ],
      "start": 5.65,
      "startOffset": 87,
      "word": "HIS"
    },
    {
      "alignedWord": "<unk>",
      "case": "success",
      "end": 6.26,
      "endOffset": 100,
      "phones": [
        {
          "duration": 0.41,
          "phone": "oov_S"
        }
      ],
      "start": 5.85,
      "startOffset": 91,
      "word": "BEHAVIOUR"
    },
    {
      "alignedWord": "to",
      "case": "success",
      "end": 6.41,
      "endOffset": 103,
      "phones": [
        {
          "duration": 0.05,
          "phone": "t_B"
        },
        {
          "duration": 0.06,
          "phone": "ih_E"
        }
      ],
      "start": 6.3,
      "startOffset": 101,
      "word": "TO"
    },
    {
      "alignedWord": "me",
      "case": "success",
      "end": 6.76,
      "endOffset": 106,
      "phones": [
        {
          "duration": 0.09,
          "phone": "m_B"
        },
        {
          "duration": 0.26,
          "phone": "iy_E"
        }
      ],
      "start": 6.41,
      "startOffset": 104,
      "word": "ME"
    },
    {
      "alignedWord": "though",
      "case": "success",
      "end": 6.93,
      "endOffset": 113,
      "phones": [
        {
          "duration": 0.09,
          "phone": "dh_B"
        },
        {
          "duration": 0.07,
          "phone": "ow_E"
        }
      ],
      "start": 6.77,
      "startOffset": 107,
      "word": "THOUGH"
    },
    {
      "alignedWord": "not",
      "case": "success",
      "end": 7.13,
      "endOffset": 117,
      "phones": [
        {
          "duration": 0.06,
          "phone": "n_B"
        },
        {
          "duration": 0.07,
          "phone": "aa_I"
        },
        {
          "duration": 0.07,
          "phone": "t_E"
        }
      ],
      "start": 6.93,
      "startOffset": 114,
      "word": "NOT"
    },
    {
      "alignedWord": "quite",
      "case": "success",
      "end": 7.36,
      "endOffset": 123,
      "phones": [
        {
          "duration": 0.07,
          "phone": "k_B"
        },
        {
          "duration": 0.02,
          "phone": "w_I"
        },
        {
          "duration": 0.08,
          "phone": "ay_I"
        },
        {
          "duration": 0.06,
          "phone": "t_E"
        }
      ],
      "start": 7.13,
      "startOffset": 118,
      "word": "QUITE"
    },
    {
      "alignedWord": "courteous",
      "case": "success",
      "end": 7.91,
      "endOffset": 133,
      "phones": [
        {
          "duration": 0.1,
          "phone": "k_B"
        },
        {
          "duration": 0.06,
          "phone": "er_I"
        },
        {
          "duration": 0.07,
          "phone": "t_I"
        },
        {
          "duration": 0.1,
          "phone": "iy_I"
        },
        {
          "duration": 0.07,
          "phone": "ah_I"
        },
        {
          "duration": 0.15,
          "phone": "s_E"
        }
      ],
      "start": 7.36,
      "startOffset": 124,
      "word": "COURTEOUS"
    },
    {
      "alignedWord": "was",
      "case": "success",
      "end": 8.709999999999999,
      "endOffset": 137,
      "phones": [
        {
          "duration": 0.14,
          "phone": "w_B"
        },
        {
          "duration": 0.09,
          "phone": "aa_I"
        },
        {
          "duration": 0.14,
          "phone": "z_E"
        }
      ],
      "start": 8.34,
      "startOffset": 134,
      "word": "WAS"
    },
    {
      "alignedWord": "tolerable",
      "case": "success",
      "end": 9.450000000000001,
      "endOffset": 147,
      "phones": [
        {
          "duration": 0.09,
          "phone": "t_B"
        },
        {
          "duration": 0.1,
          "phone": "aa_I"
        },
        {
          "duration": 0.11,
          "phone": "l_I"
        },
        {
          "duration": 0.09,
          "phone": "er_I"
        },
        {
          "duration": 0.05,
          "phone": "ah_I"
        },
        {
          "duration": 0.06,
          "phone": "b_I"
        },
        {
          "duration": 0.06,
          "phone": "ah_I"
        },
        {
          "duration": 0.17,
          "phone": "l_E"
        }
      ],
      "start": 8.72,
      "startOffset": 138,
      "word": "TOLERABLE"
    },
    {
      "alignedWord": "well",
      "case": "success",
      "end": 10.569999,
      "endOffset": 152,
      "phones": [
        {
          "duration": 0.12,
          "phone": "w_B"
        },
        {
          "duration": 0.09,
          "phone": "eh_I"
        },
        {
          "duration": 0.14,
          "phone": "l_E"
        }
      ],
      "start": 10.219999,
      "startOffset": 148,
      "word": "WELL"
    },
    {
      "alignedWord": "with",
      "case": "success",
      "end": 10.8,
      "endOffset": 157,
      "phones": [
        {
          "duration": 0.07,
          "phone": "w_B"
        },
        {
          "duration": 0.04,
          "phone": "ih_I"
        },
        {
          "duration": 0.06,
          "phone": "th_E"
        }
      ],
      "start": 10.63,
      "startOffset": 153,
      "word": "WITH"
    },
    {
      "alignedWord": "seven",
      "case": "success",
      "end": 11.09,
      "endOffset": 163,
      "phones": [
        {
          "duration": 0.06,
          "phone": "s_B"
        },
        {
          "duration": 0.06,
          "phone": "eh_I"
        },
        {
          "duration": 0.04,
          "phone": "v_I"
        },
        {
          "duration": 0.04,
          "phone": "ah_I"
        },
        {
          "duration": 0.09,
          "phone": "n_E"
        }
      ],
      "start": 10.8,
      "startOffset": 158,
      "word": "SEVEN"
    },
    {
      "alignedWord": "<unk>",
      "case": "success",
      "end": 11.41,
      "endOffset": 171,
      "phones": [
        {
          "duration": 0.32,
          "phone": "oov_S"
        }
      ],
      "start": 11.09,
      "startOffset": 164,
      "word": "ROUBLES"
    },
    {
      "alignedWord": "each",
      "case": "success",
      "end": 11.76,
      "endOffset": 176,
      "phones": [
        {
          "duration": 0.14,
          "phone": "iy_B"
        },
        {
          "duration": 0.18,
          "phone": "ch_E"
        }
      ],
      "start": 11.44,
      "startOffset": 172,
      "word": "EACH"
    },
    {
      "alignedWord": "said",
      "case": "success",
      "end": 12.01,
      "endOffset": 181,
      "phones": [
        {
          "duration": 0.11,
          "phone": "s_B"
        },
        {
          "duration": 0.07,
          "phone": "eh_I"
        },
        {
          "duration": 0.04,
          "phone": "d_E"
        }
      ],
      "start": 11.79,
      "startOffset": 177,
      "word": "SAID"
    },
    {
      "alignedWord": "<unk>",
      "case": "success",
      "end": 12.88,
      "endOffset": 193,
      "phones": [
        {
          "duration": 0.83,
          "phone": "oov_S"
        }
      ],
      "start": 12.05,
      "startOffset": 182,
      "word": "TRUDOLYUBOV"
    },
    {
      "alignedWord": "twenty",
      "case": "success",
      "end": 13.629999,
      "endOffset": 200,
      "phones": [
        {
          "duration": 0.08,
          "phone": "t_B"
        },
        {
          "duration": 0.05,
          "phone": "w_I"
        },
        {
          "duration": 0.05,
          "phone": "eh_I"
        },
        {
          "duration": 0.06,
          "phone": "n_I"
        },
        {
          "duration": 0.07,
          "phone": "t_I"
        },
        {
          "duration": 0.06,
          "phone": "iy_E"
        }
      ],
      "start": 13.259999,
      "startOffset": 194,
      "word": "TWENTY"
    },
    {
      "alignedWord": "one",
      "case": "success",
      "end": 13.850000000000001,
      "endOffset": 204,
      "phones": [
        {
          "duration": 0.05,
          "phone": "w_B"
        },
        {
          "duration": 0.08,
          "phone": "ah_I"
        },
        {
          "duration": 0.09,
          "phone": "n_E"
        }
      ],
      "start": 13.63,
      "startOffset": 201,
      "word": "ONE"
    },
    {
      "alignedWord": "<unk>",
      "case": "success",
      "end": 14.179999,
      "endOffset": 212,
      "phones": [
        {
          "duration": 0.33,
          "phone": "oov_S"
        }
      ],
      "start": 13.849999,
      "startOffset": 205,
      "word": "ROUBLES"
    },
    {
      "alignedWord": "between",
      "case": "success",
      "end": 14.489999,
      "endOffset": 220,
      "phones": [
        {
          "duration": 0.01,
          "phone": "b_B"
        },
        {
          "duration": 0.06,
          "phone": "ih_I"
        },
        {
          "duration": 0.07,
          "phone": "t_I"
        },
        {
          "duration": 0.04,
          "phone": "w_I"
        },
        {
          "duration": 0.06,
          "phone": "iy_I"
        },
        {
          "duration": 0.03,
          "phone": "n_E"
        }
      ],
      "start": 14.219999,
      "startOffset": 213,
      "word": "BETWEEN"
    },
    {
      "alignedWord": "the",
      "case": "success",
      "end": 14.58,
      "endOffset": 224,
      "phones": [
        {
          "duration": 0.05,
          "phone": "dh_B"
        },
        {
          "duration": 0.04,
          "phone": "ah_E"
        }
      ],
      "start": 14.49,
      "startOffset": 221,
      "word": "THE"
    },
    {
      "alignedWord": "three",
      "case": "success",
      "end": 14.81,
      "endOffset": 230,
      "phones": [
        {
          "duration": 0.09,
          "phone": "th_B"
        },
        {
          "duration": 0.08,
          "phone": "r_I"
        },
        {
          "duration": 0.06,
          "phone": "iy_E"
        }
      ],
      "start": 14.58,
      "startOffset": 225,
      "word": "THREE"
    },
    {
      "alignedWord": "of",
      "case": "success",
      "end": 14.929998999999999,
      "endOffset": 233,
      "phones": [
        {
          "duration": 0.05,
          "phone": "ah_B"
        },
        {
          "duration": 0.07,
          "phone": "v_E"
        }
      ],
      "start": 14.809999,
      "startOffset": 231,
      "word": "OF"
    },
    {
      "alignedWord": "us",
      "case": "success",
      "end": 15.219999,
      "endOffset": 236,
      "phones": [
        {
          "duration": 0.09,
          "phone": "ah_B"
        },
        {
          "duration": 0.2,
          "phone": "s_E"
        }
      ],
      "start": 14.929999,
      "startOffset": 234,
      "word": "US"
    }
  ]
}