{
  "transcript": "AND IN ITS FAIR BOSOM REFLECTS BEAUTIFUL LANDSCAPE VIEWS THAT ARE CHANGED AND REBEAUTIFIED BY THE MASTER HAND OF THE SUN EVERY HOUR OF THE DAY AND DOUBLY EMBELLISHED AT NIGHT BY THE MOON IT IS WHISPERED THAT DURING THE LATE UNPLEASANTNESS",
  "words": [
    {
      "alignedWord": "and",
      "case": "success",
      "end": 0.48,
      "endOffset": 3,
      "phones": [
        {
          "duration": 0.17,
          "phone": "ae_B"
        },
        {
          "duration": 0.06,
          "phone": "n_I"
        },
        {
          "duration": 0.07,
          "phone": "d_E"
        }
      ],
      "start": 0.18,
      "startOffset": 0,
      "word": "AND"
    },
    {
      "alignedWord": "in",
      "case": "success",
      "end": 0.66,
      "endOffset": 6,
      "phones": [
        {
          "duration": 0.11,
          "phone": "ih_B"
        },
        {
          "duration": 0.05,
          "phone": "n_E"
        }
      ],
      "start": 0.5,
      "startOffset": 4,
      "word": "IN"
    },
    {
      "alignedWord": "its",
      "case": "success",
      "end": 0.88,
      "endOffset": 10,
      "phones": [
        {
          "duration": 0.06,
          "phone": "ih_B"
        },
        {
          "duration": 0.08,
          "phone": "t_I"
        },
        {
          "duration": 0.08,
          "phone": "s_E"
        }
      ],
      "start": 0.66,
      "startOffset": 7,
      "word": "ITS"
    },
    {
      "alignedWord": "fair",
      "case": "success",
      "end": 1.2,
      "endOffset": 15,
      "phones": [
        {
          "duration": 0.09,
          "phone": "f_B"
        },
        {
          "duration": 0.12,
          "phone": "eh_I"
        },
        {
          "duration": 0.1,
          "phone": "r_E"
        }
      ],
      "start": 0.89,
      "startOffset": 11,
      "word": "FAIR"
    },
    {
      "alignedWord": "bosom",
      "case": "success",
      "end": 1.66,
      "endOffset": 21,
      "phones": [
        {
          "duration": 0.13,
          "phone": "b_B"
        },
        {
          "duration": 0.07,
          "phone": "uh_I"
        },
        {
          "duration": 0.08,
          "phone": "z_I"
        },
        {
          "duration": 0.09,
          "phone": "ah_I"
        },
        {
          "duration": 0.09,
          "phone": "m_E"
        }
      ],
      "start": 1.2,
      "startOffset": 16,
      "word": "BOSOM"
    },
    {
      "alignedWord": "reflects",
      "case": "success",
      "end": 2.12,
      "endOffset": 30,
      "phones": [
        {
          "duration": 0.03,
          "phone": "r_B"
        },
        {
          "duration": 0.08,
          "phone": "ih_I"
        },
        {
          "duration": 0.11,
          "phone": "f_I"
        },
        {
          "duration": 0.05,
          "phone": "l_I"
        },
        {
          "duration": 0.07,
          "phone": "eh_I"
        },
        {
          "duration": 0.06,
          "phone": "k_I"
        },
        {
          "duration": 0.06,
          "phone": "s_E"
        }
      ],
      "start": 1.66,
      "startOffset": 22,
      "word": "REFLECTS"
    },
    {
      "alignedWord": "beautiful",
      "case": "success",
      "end": 2.62,
      "endOffset": 40,
      "phones": [
        {
          "duration": 0.02,
          "phone": "b_B"
        },
        {
          "duration": 0.11,
          "phone": "y_I"
        },
        {
          "duration": 0.07,
          "phone": "uw_I"
        },
        {
          "duration": 0.05,
          "phone": "t_I"
        },
        {
          "duration": 0.04,
          "phone": "ah_I"
        },
        {
          "duration": 0.08,
          "phone": "f_I"
        },
        {
          "duration": 0.04,
          "phone": "ah_I"
        },
        {
          "duration": 0.06,
          "phone": "l_E"
        }
      ],
      "start": 2.15,
      "startOffset": 31,
      "word": "BEAUTIFUL"
    },
    {
      "alignedWord": "landscape",
      "case": "success",
      "end": 3.16,
      "endOffset": 50,
      "phones": [
        {
          "duration": 0.09,
          "phone": "l_B"
        },
        {
          "duration": 0.07,
          "phone": "ae_I"
        },
        {
          "duration": 0.08,
          "phone": "n_I"
        },
        {
          "duration": 0.07,
          "phone": "s_I"
        },
        {
          "duration": 0.08,
          "phone": "k_I"
        },
        {
          "duration": 0.09,
          "phone": "ey_I"
        },
        {
          "duration": 0.05,
          "phone": "p_E"
        }
      ],
      "start": 2.63,
      "startOffset": 41,
      "word": "LANDSCAPE"
    },
    {
      "alignedWord": "views",
      "case": "success",
      "end": 3.78,
      "endOffset": 56,
      "phones": [
        {
          "duration": 0.05,
          "phone": "v_B"
        },
        {
          "duration": 0.09,
          "phone": "y_I"
        },
        {
          "duration": 0.19,
          "phone": "uw_I"
        },
        {
          "duration": 0.28,
          "phone": "z_E"
        }
      ],
      "start": 3.17,
      "startOffset": 51,
      "word": "VIEWS"
    },
    {
      "alignedWord": "that",
      "case": "success",
      "end": 4.56,
      "endOffset": 61,
      "phones": [
        {
          "duration": 0.08,
          "phone": "dh_B"
        },
        {
          "duration": 0.05,
          "phone": "ah_I"
        },
        {
          "duration": 0.05,
          "phone": "t_E"
        }
      ],
      "start": 4.38,
      "startOffset": 57,
      "word": "THAT"
    },
    {
      "alignedWord": "are",
      "case": "success",
      "end": 4.64,
      "endOffset": 65,
      "phones": [
        {
          "duration": 0.08,
          "phone": "er_S"
        }
      ],
      "start": 4.56,
      "startOffset": 62,
      "word": "ARE"
    },
    {
      "alignedWord": "changed",
      "case": "success",
      "end": 5.1499999999999995,
      "endOffset": 73,
      "phones": [
        {
          "duration": 0.14,
          "phone": "ch_B"
        },
        {
          "duration": 0.15,
          "phone": "ey_I"
        },
        {
          "duration": 0.06,
          "phone": "n_I"
        },
        {
          "duration": 0.08,
          "phone": "jh_I"
        },
        {
          "duration": 0.08,
          "phone": "d_E"
        }
      ],
      "start": 4.64,
      "startOffset": 66,
      "word": "CHANGED"
    },
    {
      "alignedWord": "and",
      "case": "success",
      "end": 5.33,
      "endOffset": 77,
      "phones": [
        {
          "duration": 0.06,
          "phone": "ae_B"
        },
        {
          "duration": 0.06,
          "phone": "n_I"
        },
        {
          "duration": 0.05,
          "phone": "d_E"
        }
      ],
      "start": 5.16,
      "startOffset": 74,
      "word": "AND"
    },
    {
      "alignedWord": "<unk>",
      "case": "success",
      "end": 5.92,
      "endOffset": 90,
      "phones": [
        {
          "duration": 0.59,
          "phone": "oov_S"
        }
      ],
      "start": 5.33,
      "startOffset": 78,
      "word": "REBEAUTIFIED"
    },
    {
      "alignedWord": "by",
      "case": "success",
      "end": 6.21,
      "endOffset": 93,
      "phones": [
        {
          "duration": 0.1,
          "phone": "b_B"
        },
        {
          "duration": 0.05,
          "phone": "ay_E"
        }
      ],
      "start": 6.06,
      "startOffset": 91,
      "word": "BY"
    },
    {
      "alignedWord": "the",
      "case": "success",
      "end": 6.33,
      "endOffset": 97,
      "phones": [
        {
          "duration": 0.07,
          "phone": "dh_B"
        },
        {
          "duration": 0.05,
          "phone": "ah_E"
        }
      ],
      "start": 6.21,
      "startOffset": 94,
      "word": "THE"
    },
    {
      "alignedWord": "master",
      "case": "success",
      "end": 6.75,
      "endOffset": 104,
      "phones": [
        {
          "duration": 0.09,
          "phone": "m_B"
        },
        {
          "duration": 0.11,
          "phone": "ae_I"
        },
        {
          "duration": 0.06,
          "phone": "s_I"
        },
        {
          "duration": 0.09,
          "phone": "t_I"
        },
        {
          "duration": 0.07,
          "phone": "er_E"
        }
      ],
      "start": 6.33,
      "startOffset": 98,
      "word": "MASTER"
    },
    {
      "alignedWord": "hand",
      "case": "success",
      "end": 7.19,
      "endOffset": 109,
      "phones": [
        {
          "duration": 0.12,
          "phone": "hh_B"
        },
        {
          "duration": 0.16,
          "phone": "ae_I"
        },
        {
          "duration": 0.07,
          "phone": "n_I"
        },
        {
          "duration": 0.09,
          "phone": "d_E"
        }
      ],
      "start": 6.75,
      "startOffset": 105,
      "word": "HAND"
    },
    {
      "alignedWord": "of",
      "case": "success",
      "end": 7.41,
      "endOffset": 112,
      "phones": [
        {
          "duration": 0.13,
          "phone": "ah_B"
        },
        {
          "duration": 0.07,
          "phone": "v_E"
        }
      ],
      "start": 7.21,
      "startOffset": 110,
      "word": "OF"
    },
    {
      "alignedWord": "the",
      "case": "success",
      "end": 7.51,
      "endOffset": 116,
      "phones": [
        {
          "duration": 0.01,
          "phone": "dh_B"
        },
        {
          "duration": 0.09,
          "phone": "ah_E"
        }
      ],
      "start": 7.41,
      "startOffset": 113,
      "word": "THE"
    },
    {
      "alignedWord": "sun",
      "case": "success",
      "end": 7.92,
      "endOffset": 120,
      "phones": [
        {
          "duration": 0.15,
          "phone": "s_B"
        },
        {
          "duration": 0.14,
          "phone": "ah_I"
        },
        {
          "duration": 0.12,
          "phone": "n_E"
        }
      ],
      "start": 7.51,
      "startOffset": 117,
      "word": "SUN"
    },
    {
      "alignedWord": "every",
      "case": "success",
      "end": 8.35,
      "endOffset": 126,
      "phones": [
        {
          "duration": 0.13,
          "phone": "eh_B"
        },
        {
          "duration": 0.09,
          "phone": "v_I"
        },
        {
          "duration": 0.06,
          "phone": "r_I"
        },
        {
          "duration": 0.12,
          "phone": "iy_E"
        }
      ],
      "start": 7.95,
      "startOffset": 121,
      "word": "EVERY"
    },
    {
      "alignedWord": "hour",
      "case": "success",
      "end": 8.67,
      "endOffset": 131,
      "phones": [
        {
          "duration": 0.2,
          "phone": "aw_B"
        },
        {
          "duration": 0.1,
          "phone": "er_E"
        }
      ],
      "start": 8.37,
      "startOffset": 127,
      "word": "HOUR"
    },
    {
      "alignedWord": "of",
      "case": "success",
      "end": 8.87,
      "endOffset": 134,
      "phones": [
        {
          "duration": 0.1,
          "phone": "ah_B"
        },
        {
          "duration": 0.1,
          "phone": "v_E"
        }
      ],
      "start": 8.67,
      "startOffset": 132,
      "word": "OF"
    },
    {
      "alignedWord": "the",
      "case": "success",
      "end": 8.95,
      "endOffset": 138,
      "phones": [
        {
          "duration": 0.01,
          "phone": "dh_B"
        },
        {
          "duration": 0.07,
          "phone": "ah_E"
        }
      ],
      "start": 8.87,
      "startOffset": 135,
      "word": "THE"
    },
    {
      "alignedWord": "day",
      "case": "success",
      "end": 9.44,
      "endOffset": 142,
      "phones": [
        {
          "duration": 0.1,
          "phone": "d_B"
        },
        {
          "duration": 0.39,
          "phone": "ey_E"
        }
      ],
      "start": 8.95,
      "startOffset": 139,
      "word": "DAY"
    },
    {
      "alignedWord": "and",
      "case": "success",
      "end": 9.639999999999999,
      "endOffset": 146,
      "phones": [
        {
          "duration": 0.07,
          "phone": "ae_B"
        },
        {
          "duration": 0.03,
          "phone": "n_I"
        },
        {
          "duration": 0.01,
          "phone": "d_E"
        }
      ],
      "start": 9.53,
      "startOffset": 143,
      "word": "AND"
    },
    {
      "alignedWord": "doubly",
      "case": "success",
      "end": 10.15,
      "endOffset": 153,
      "phones": [
        {
          "duration": 0.11,
          "phone": "d_B"
        },
        {
          "duration": 0.09,
          "phone": "ah_I"
        },
        {
          "duration": 0.07,
          "phone": "b_I"
        },
        {
          "duration": 0.08,
          "phone": "l_I"
        },
        {
          "duration": 0.15,
          "phone": "iy_E"
        }
      ],
      "start": 9.65,
      "startOffset": 147,
      "word": "DOUBLY"
    },
    {
      "alignedWord": "<unk>",
      "case": "success",
      "end": 10.729999999999999,
      "endOffset": 165,
      "phones": [
        {
          "duration": 0.53,
          "phone": "oov_S"
        }
      ],
      "start": 10.2,
      "startOffset": 154,
      "word": "EMBELLISHED"
    },
    {
      "alignedWord": "at",
      "case": "success",
      "end": 10.94,
      "endOffset": 168,
      "phones": [
        {
          "duration": 0.11,
          "phone": "ae_B"
        },
        {
          "duration": 0.07,
          "phone": "t_E"
        }
      ],
      "start": 10.76,
      "startOffset": 166,
      "word": "AT"
    },
    {
      "alignedWord": "night",
      "case": "success",
      "end": 11.229999999999999,
      "endOffset": 174,
      "phones": [
        {
          "duration": 0.07,
          "phone": "n_B"
        },
        {
          "duration": 0.13,
          "phone": "ay_I"
        },
        {
          "duration": 0.09,
          "phone": "t_E"
        }
      ],
      "start": 10.94,
      "startOffset": 169,
      "word": "NIGHT"
    },
    {
      "alignedWord": "by",
      "case": "success",
      "end": 11.38,
      "endOffset": 177,
      "phones": [
        {
          "duration": 0.09,
          "phone": "b_B"
        },
        {
          "duration": 0.05,
          "phone": "ay_E"
        }
      ],
      "start": 11.24,
      "startOffset": 175,
      "word": "BY"
    },
    {
      "alignedWord": "the",
      "case": "success",
      "end": 11.49,
      "endOffset": 181,
      "phones": [
        {
          "duration": 0.07,
          "phone": "dh_B"
        },
        {
          "duration": 0.04,
          "phone": "ah_E"
        }
      ],
      "start": 11.38,
      "startOffset": 178,
      "word": "THE"
    },
    {
      "alignedWord": "moon",
      "case": "success",
      "end": 11.93,
      "endOffset": 186,
      "phones": [
        {
          "duration": 0.05,
          "phone": "m_B"
        },
        {
          "duration": 0.2,
          "phone": "uw_I"
        },
        {
          "duration": 0.19,
          "phone": "n_E"
        }
      ],
      "start": 11.49,
      "startOffset": 182,
      "word": "MOON"
    },
    {
      "alignedWord": "it",
      "case": "success",
      "end": 12.82,
      "endOffset": 189,
      "phones": [
        {
          "duration": 0.11,
          "phone": "ih_B"
        },
        {
          "duration": 0.06,
          "phone": "t_E"
        }
      ],
      "start": 12.65,
      "startOffset": 187,
      "word": "IT"
    },
    {
      "alignedWord": "is",
      "case": "success",
      "end": 13.01,
      "endOffset": 192,
      "phones": [
        {
          "duration": 0.1,
          "phone": "ih_B"
        },
        {
          "duration": 0.09,
          "phone": "z_E"
        }
      ],
      "start": 12.82,
      "startOffset": 190,
      "word": "IS"
    },
    {
      "alignedWord": "whispered",
      "case": "success",
      "end": 13.589999,
      "endOffset": 202,
      "phones": [
        {
          "duration": 0.09,
          "phone": "w_B"
        },
        {
          "duration": 0.11,
          "phone": "ih_I"
        },
        {
          "duration": 0.1,
          "phone": "s_I"
        },
        {
          "duration": 0.08,
          "phone": "p_I"
        },
        {
          "duration": 0.11,
          "phone": "er_I"
        },
        {
          "duration": 0.09,
          "phone": "d_E"
        }
      ],
      "start": 13.009999,
      "startOffset": 193,
      "word": "WHISPERED"
    },
    {
      "alignedWord": "that",
      "case": "success",
      "end": 13.74,
      "endOffset": 207,
      "phones": [
        {
          "duration": 0.01,
          "phone": "dh_B"
        },
        {
          "duration": 0.09,
          "phone": "ah_I"
        },
        {
          "duration": 0.05,
          "phone": "t_E"
        }
      ],
      "start": 13.59,
      "startOffset": 203,
      "word": "THAT"
    },
    {
      "alignedWord": "during",
      "case": "success",
      "end": 14.11,
      "endOffset": 214,
      "phones": [
        {
          "duration": 0.08,
          "phone": "d_B"
        },
        {
          "duration": 0.14,
          "phone": "er_I"
        },
        {
          "duration": 0.07,
          "phone": "ih_I"
        },
        {
          "duration": 0.08,
          "phone": "ng_E"
        }
      ],
      "start": 13.74,
      "startOffset": 208,
      "word": "DURING"
    },
    {
      "alignedWord": "the",
      "case": "success",
      "end": 14.24,
      "endOffset": 218,
      "phones": [
        {
          "duration": 0.04,
          "phone": "dh_B"
        },
        {
          "duration": 0.09,
          "phone": "ah_E"
        }
      ],
      "start": 14.11,
      "startOffset": 215,
      "word": "THE"
    },
    {
      "alignedWord": "late",
      "case": "success",
      "end": 14.59,
      "endOffset": 223,
      "phones": [
        {
          "duration": 0.15,
          "phone": "l_B"
        },
        {
          "duration": 0.1,
          "phone": "ey_I"
        },
        {
          "duration": 0.1,
          "phone": "t_E"
        }
      ],
      "start": 14.24,
      "startOffset": 219,
      "word": "LATE"
    },
    {
      "alignedWord": "<unk>",
      "case": "success",
      "end": 15.65,
      "endOffset": 238,
      "phones": [
        {
          "duration": 1.02,
          "phone": "oov_S"
        }
      ],
      "start": 14.63,
      "startOffset": 224,
      "word": "UNPLEASANTNESS"
    }
  ]
}