{
  "transcript": "AND SCARCELY KNOW A WORD OF ENGLISH YET A FAT PHLEGMATIC LOOKING BABY IS PEACEFULLY REPOSING IN A CRADLE WHICH IS SIMPLY HALF A MONSTER PUMPKIN SCOOPED OUT AND DRIED IT IS THE MOST INTENSELY RUSTIC CRADLE IN THE WORLD",
  "words": [
    {
      "alignedWord": "and",
      "case": "success",
      "end": 0.32,
      "endOffset": 3,
      "phones": [
        {
          "duration": 0.06,
          "phone": "ae_B"
        },
        {
          "duration": 0.03,
          "phone": "n_I"
        },
        {
          "duration": 0.07,
          "phone": "d_E"
        }
      ],
      "start": 0.16,
      "startOffset": 0,
      "word": "AND"
    },
    {
      "alignedWord": "scarcely",
      "case": "success",
      "end": 0.97,
      "endOffset": 12,
      "phones": [
        {
          "duration": 0.07,
          "phone": "s_B"
        },
        {
          "duration": 0.08,
          "phone": "k_I"
        },
        {
          "duration": 0.1,
          "phone": "eh_I"
        },
        {
          "duration": 0.08,
          "phone": "r_I"
        },
        {
          "duration": 0.12,
          "phone": "s_I"
        },
        {
          "duration": 0.1,
          "phone": "l_I"
        },
        {
          "duration": 0.1,
          "phone": "iy_E"
        }
      ],
      "start": 0.32,
      "startOffset": 4,
      "word": "SCARCELY"
    },
    {
      "alignedWord": "know",
      "case": "success",
      "end": 1.26,
      "endOffset": 17,
      "phones": [
        {
          "duration": 0.12,
          "phone": "n_B"
        },
        {
          "duration": 0.17,
          "phone": "ow_E"
        }
      ],
      "start": 0.97,
      "startOffset": 13,
      "word": "KNOW"
    },
    {
      "alignedWord": "a",
      "case": "success",
      "end": 1.35,
      "endOffset": 19,
      "phones": [
        {
          "duration": 0.09,
          "phone": "ah_S"
        }
      ],
      "start": 1.26,
      "startOffset": 18,
      "word": "A"
    },
    {
      "alignedWord": "word",
      "case": "success",
      "end": 1.61,
      "endOffset": 24,
      "phones": [
        {
          "duration": 0.16,
          "phone": "w_B"
        },
        {
          "duration": 0.05,
          "phone": "er_I"
        },
        {
          "duration": 0.05,
          "phone": "d_E"
        }
      ],
      "start": 1.35,
      "startOffset": 20,
      "word": "WORD"
    },
    {
      "alignedWord": "of",
      "case": "success",
      "end": 1.73,
      "endOffset": 27,
      "phones": [
        {
          "duration": 0.06,
          "phone": "ah_B"
        },
        {
          "duration": 0.06,
          "phone": "v_E"
        }
      ],
      "start": 1.61,
      "startOffset": 25,
      "word": "OF"
    },
    {
      "alignedWord": "english",
      "case": "success",
      "end": 2.13,
      "endOffset": 35,
      "phones": [
        {
          "duration": 0.08,
          "phone": "ih_B"
        },
        {
          "duration": 0.08,
          "phone": "ng_I"
        },
        {
          "duration": 0.05,
          "phone": "g_I"
        },
        {
          "duration": 0.05,
          "phone": "l_I"
        },
        {
          "duration": 0.06,
          "phone": "ih_I"
        },
        {
          "duration": 0.08,
          "phone": "sh_E"
        }
      ],
      "start": 1.73,
      "startOffset": 28,
      "word": "ENGLISH"
    },
    {
      "alignedWord": "yet",
      "case": "success",
      "end": 2.51,
      "endOffset": 39,
      "phones": [
        {
          "duration": 0.08,
          "phone": "y_B"
        },
        {
          "duration": 0.09,
          "phone": "eh_I"
        },
        {
          "duration": 0.21,
          "phone": "t_E"
        }
      ],
      "start": 2.13,
      "startOffset": 36,
      "word": "YET"
    },
    {
      "alignedWord": "a",
      "case": "success",
      "end": 2.98,
      "endOffset": 41,
      "phones": [
        {
          "duration": 0.15,
          "phone": "ah_S"
        }
      ],
      "start": 2.83,
      "startOffset": 40,
      "word": "A"
    },
    {
      "alignedWord": "fat",
      "case": "success",
      "end": 3.31,
      "endOffset": 45,
      "phones": [
        {
          "duration": 0.14,
          "phone": "f_B"
        },
        {
          "duration": 0.11,
          "phone": "ae_I"
        },
        {
          "duration": 0.08,
          "phone": "t_E"
        }
      ],
      "start": 2.98,
      "startOffset": 42,
      "word": "FAT"
    },
    {
      "alignedWord": "<unk>",
      "case": "success",
      "end": 3.96,
      "endOffset": 56,
      "phones": [
        {
          "duration": 0.64,
          "phone": "oov_S"
        }
      ],
      "start": 3.32,
      "startOffset": 46,
      "word": "PHLEGMATIC"
    },
    {
      "alignedWord": "looking",
      "case": "success",
      "end": 4.3100000000000005,
      "endOffset": 64,
      "phones": [
        {
          "duration": 0.07,
          "phone": "l_B"
        },
        {
          "duration": 0.04,
          "phone": "uh_I"
        },
        {
          "duration": 0.07,
          "phone": "k_I"
        },
        {
          "duration": 0.08,
          "phone": "ih_I"
        },
        {
          "duration": 0.08,
          "phone": "ng_E"
        }
      ],
      "start": 3.97,
      "startOffset": 57,
      "word": "LOOKING"
    },
    {
      "alignedWord": "baby",
      "case": "success",
      "end": 4.699999999999999,
      "endOffset": 69,
      "phones": [
        {
          "duration": 0.08,
          "phone": "b_B"
        },
        {
          "duration": 0.13,
          "phone": "ey_I"
        },
        {
          "duration": 0.08,
          "phone": "b_I"
        },
        {
          "duration": 0.1,
          "phone": "iy_E"
        }
      ],
      "start": 4.31,
      "startOffset": 65,
      "word": "BABY"
    },
    {
      "alignedWord": "is",
      "case": "success",
      "end": 4.84,
      "endOffset": 72,
      "phones": [
        {
          "duration": 0.07,
          "phone": "ih_B"
        },
        {
          "duration": 0.07,
          "phone": "z_E"
        }
      ],
      "start": 4.7,
      "startOffset": 70,
      "word": "IS"
    },
    {
      "alignedWord": "peacefully",
      "case": "success",
      "end": 5.59,
      "endOffset": 83,
      "phones": [
        {
          "duration": 0.12,
          "phone": "p_B"
        },
        {
          "duration": 0.14,
          "phone": "iy_I"
        },
        {
          "duration": 0.08,
          "phone": "s_I"
        },
        {
          "duration": 0.08,
          "phone": "f_I"
        },
        {
          "duration": 0.08,
          "phone": "ah_I"
        },
        {
          "duration": 0.12,
          "phone": "l_I"
        },
        {
          "duration": 0.13,
          "phone": "iy_E"
        }
      ],
      "start": 4.84,
      "startOffset": 73,
      "word": "PEACEFULLY"
    },
    {
      "alignedWord": "<unk>",
      "case": "success",
      "end": 6.2299999999999995,
      "endOffset": 92,
      "phones": [
        {
          "duration": 0.64,
          "phone": "oov_S"
        }
      ],
      "start": 5.59,
      "startOffset": 84,
      "word": "REPOSING"
    },
    {
      "alignedWord": "in",
      "case": "success",
      "end": 6.34,
      "endOffset": 95,
      "phones": [
        {
          "duration": 0.05,
          "phone": "ih_B"
        },
        {
          "duration": 0.05,
          "phone": "n_E"
        }
      ],
      "start": 6.24,
      "startOffset": 93,
      "word": "IN"
    },
    {
      "alignedWord": "a",
      "case": "success",
      "end": 6.3999999999999995,
      "endOffset": 97,
      "phones": [
        {
          "duration": 0.06,
          "phone": "ah_S"
        }
      ],
      "start": 6.34,
      "startOffset": 96,
      "word": "A"
    },
    {
      "alignedWord": "cradle",
      "case": "success",
      "end": 7.010000000000001,
      "endOffset": 104,
      "phones": [
        {
          "duration": 0.16,
          "phone": "k_B"
        },
        {
          "duration": 0.12,
          "phone": "r_I"
        },
        {
          "duration": 0.09,
          "phone": "ey_I"
        },
        {
          "duration": 0.06,
          "phone": "d_I"
        },
        {
          "duration": 0.06,
          "phone": "ah_I"
        },
        {
          "duration": 0.12,
          "phone": "l_E"
        }
      ],
      "start": 6.4,
      "startOffset": 98,
      "word": "CRADLE"
    },
    {
      "alignedWord": "which",
      "case": "success",
      "end": 7.82,
      "endOffset": 110,
      "phones": [
        {
          "duration": 0.04,
          "phone": "hh_B"
        },
        {
          "duration": 0.07,
          "phone": "w_I"
        },
        {
          "duration": 0.05,
          "phone": "ih_I"
        },
        {
          "duration": 0.08,
          "phone": "ch_E"
        }
      ],
      "start": 7.58,
      "startOffset": 105,
      "word": "WHICH"
    },
    {
      "alignedWord": "is",
      "case": "success",
      "end": 7.98,
      "endOffset": 113,
      "phones": [
        {
          "duration": 0.08,
          "phone": "ih_B"
        },
        {
          "duration": 0.08,
          "phone": "z_E"
        }
      ],
      "start": 7.82,
      "startOffset": 111,
      "word": "IS"
    },
    {
      "alignedWord": "simply",
      "case": "success",
      "end": 8.5,
      "endOffset": 120,
      "phones": [
        {
          "duration": 0.09,
          "phone": "s_B"
        },
        {
          "duration": 0.11,
          "phone": "ih_I"
        },
        {
          "duration": 0.01,
          "phone": "m_I"
        },
        {
          "duration": 0.07,
          "phone": "p_I"
        },
        {
          "duration": 0.1,
          "phone": "l_I"
        },
        {
          "duration": 0.14,
          "phone": "iy_E"
        }
      ],
      "start": 7.98,
      "startOffset": 114,
      "word": "SIMPLY"
    },
    {
      "alignedWord": "half",
      "case": "success",
      "end": 8.86,
      "endOffset": 125,
      "phones": [
        {
          "duration": 0.13,
          "phone": "hh_B"
        },
        {
          "duration": 0.14,
          "phone": "ae_I"
        },
        {
          "duration": 0.08,
          "phone": "f_E"
        }
      ],
      "start": 8.51,
      "startOffset": 121,
      "word": "HALF"
    },
    {
      "alignedWord": "a",
      "case": "success",
      "end": 8.95,
      "endOffset": 127,
      "phones": [
        {
          "duration": 0.09,
          "phone": "ah_S"
        }
      ],
      "start": 8.86,
      "startOffset": 126,
      "word": "A"
    },
    {
      "alignedWord": "monster",
      "case": "success",
      "end": 9.530000000000001,
      "endOffset": 135,
      "phones": [
        {
          "duration": 0.14,
          "phone": "m_B"
        },
        {
          "duration": 0.07,
          "phone": "aa_I"
        },
        {
          "duration": 0.08,
          "phone": "n_I"
        },
        {
          "duration": 0.09,
          "phone": "s_I"
        },
        {
          "duration": 0.09,
          "phone": "t_I"
        },
        {
          "duration": 0.1,
          "phone": "er_E"
        }
      ],
      "start": 8.96,
      "startOffset": 128,
      "word": "MONSTER"
    },
    {
      "alignedWord": "pumpkin",
      "case": "success",
      "end": 10.049999999999999,
      "endOffset": 143,
      "phones": [
        {
          "duration": 0.11,
          "phone": "p_B"
        },
        {
          "duration": 0.08,
          "phone": "ah_I"
        },
        {
          "duration": 0.12,
          "phone": "m_I"
        },
        {
          "duration": 0.04,
          "phone": "k_I"
        },
        {
          "duration": 0.07,
          "phone": "ih_I"
        },
        {
          "duration": 0.1,
          "phone": "n_E"
        }
      ],
      "start": 9.53,
      "startOffset": 136,
      "word": "PUMPKIN"
    },
    {
      "alignedWord": "scooped",
      "case": "success",
      "end": 10.57,
      "endOffset": 151,
      "phones": [
        {
          "duration": 0.1,
          "phone": "s_B"
        },
        {
          "duration": 0.11,
          "phone": "k_I"
        },
        {
          "duration": 0.13,
          "phone": "uw_I"
        },
        {
          "duration": 0.09,
          "phone": "p_I"
        },
        {
          "duration": 0.09,
          "phone": "t_E"
        }
      ],
      "start": 10.05,
      "startOffset": 144,
      "word": "SCOOPED"
    },
    {
      "alignedWord": "out",
      "case": "success",
      "end": 10.899999999999999,
      "endOffset": 155,
      "phones": [
        {
          "duration": 0.21,
          "phone": "aw_B"
        },
        {
          "duration": 0.07,
          "phone": "t_E"
        }
      ],
      "start": 10.62,
      "startOffset": 152,
      "word": "OUT"
    },
    {
      "alignedWord": "and",
      "case": "success",
      "end": 11.09,
      "endOffset": 159,
      "phones": [
        {
          "duration": 0.07,
          "phone": "ae_B"
        },
        {
          "duration": 0.07,
          "phone": "n_I"
        },
        {
          "duration": 0.05,
          "phone": "d_E"
        }
      ],
      "start": 10.9,
      "startOffset": 156,
      "word": "AND"
    },
    {
      "alignedWord": "dried",
      "case": "success",
      "end": 11.709999999999999,
      "endOffset": 165,
      "phones": [
        {
          "duration": 0.07,
          "phone": "d_B"
        },
        {
          "duration": 0.13,
          "phone": "r_I"
        },
        {
          "duration": 0.25,
          "phone": "ay_I"
        },
        {
          "duration": 0.17,
          "phone": "d_E"
        }
      ],
      "start": 11.09,
      "startOffset": 160,
      "word": "DRIED"
    },
    {
      "alignedWord": "it",
      "case": "success",
      "end": 12.19,
      "endOffset": 168,
      "phones": [
        {
          "duration": 0.14,
          "phone": "ih_B"
        },
        {
          "duration": 0.06,
          "phone": "t_E"
        }
      ],
      "start": 11.99,
      "startOffset": 166,
      "word": "IT"
    },
    {
      "alignedWord": "is",
      "case": "success",
      "end": 12.35,
      "endOffset": 171,
      "phones": [
        {
          "duration": 0.08,
          "phone": "ih_B"
        },
        {
          "duration": 0.08,
          "phone": "z_E"
        }
      ],
      "start": 12.19,
      "startOffset": 169,
      "word": "IS"
    },
    {
      "alignedWord": "the",
      "case": "success",
      "end": 12.449999,
      "endOffset": 175,
      "phones": [
        {
          "duration": 0.05,
          "phone": "dh_B"
        },
        {
          "duration": 0.05,
          "phone": "ah_E"
        }
      ],
      "start": 12.349999,
      "startOffset": 172,
      "word": "THE"
    },
    {
      "alignedWord": "most",
      "case": "success",
      "end": 12.76,
      "endOffset": 180,
      "phones": [
        {
          "duration": 0.08,
          "phone": "m_B"
        },
        {
          "duration": 0.09,
          "phone": "ow_I"
        },
        {
          "duration": 0.07,
          "phone": "s_I"
        },
        {
          "duration": 0.07,
          "phone": "t_E"
        }
      ],
      "start": 12.45,
      "startOffset": 176,
      "word": "MOST"
    },
    {
      "alignedWord": "intensely",
      "case": "success",
      "end": 13.539999,
      "endOffset": 190,
      "phones": [
        {
          "duration": 0.08,
          "phone": "ih_B"
        },
        {
          "duration": 0.09,
          "phone": "n_I"
        },
        {
          "duration": 0.11,
          "phone": "t_I"
        },
        {
          "duration": 0.1,
          "phone": "eh_I"
        },
        {
          "duration": 0.08,
          "phone": "n_I"
        },
        {
          "duration": 0.11,
          "phone": "s_I"
        },
        {
          "duration": 0.08,
          "phone": "l_I"
        },
        {
          "duration": 0.13,
          "phone": "iy_E"
        }
      ],
      "start": 12.759999,
      "startOffset": 181,
      "word": "INTENSELY"
    },
    {
      "alignedWord": "rustic",
      "case": "success",
      "end": 14.1,
      "endOffset": 197,
      "phones": [
        {
          "duration": 0.15,
          "phone": "r_B"
        },
        {
          "duration": 0.06,
          "phone": "ah_I"
        },
        {
          "duration": 0.06,
          "phone": "s_I"
        },
        {
          "duration": 0.07,
          "phone": "t_I"
        },
        {
          "duration": 0.07,
          "phone": "ih_I"
        },
        {
          "duration": 0.15,
          "phone": "k_E"
        }
      ],
      "start": 13.54,
      "startOffset": 191,
      "word": "RUSTIC"
    },
    {
      "alignedWord": "cradle",
      "case": "success",
      "end": 14.63,
      "endOffset": 204,
      "phones": [
        {
          "duration": 0.15,
          "phone": "k_B"
        },
        {
          "duration": 0.08,
          "phone": "r_I"
        },
        {
          "duration": 0.07,
          "phone": "ey_I"
        },
        {
          "duration": 0.05,
          "phone": "d_I"
        },
        {
          "duration": 0.05,
          "phone": "ah_I"
        },
        {
          "duration": 0.07,
          "phone": "l_E"
        }
      ],
      "start": 14.16,
      "startOffset": 198,
      "word": "CRADLE"
    },
    {
      "alignedWord": "in",
      "case": "success",
      "end": 14.790000000000001,
      "endOffset": 207,
      "phones": [
        {
          "duration": 0.09,
          "phone": "ih_B"
        },
        {
          "duration": 0.07,
          "phone": "n_E"
        }
      ],
      "start": 14.63,
      "startOffset": 205,
      "word": "IN"
    },
    {
      "alignedWord": "the",
      "case": "success",
      "end": 14.889999999999999,
      "endOffset": 211,
      "phones": [
        {
          "duration": 0.04,
          "phone": "dh_B"
        },
        {
          "duration": 0.06,
          "phone": "ah_E"
        }
      ],
      "start": 14.79,
      "startOffset": 208,
      "word": "THE"
    },
    {
      "alignedWord": "world",
      "case": "success",
      "end": 15.409999,
      "endOffset": 217,
      "phones": [
        {
          "duration": 0.19,
          "phone": "w_B"
        },
        {
          "duration": 0.12,
          "phone": "er_I"
        },
        {
          "duration": 0.1,
          "phone": "l_I"
        },
        {
          "duration": 0.11,
          "phone": "d_E"
        }
      ],
      "start": 14.889999,
      "startOffset": 212,
      "word": "WORLD"
    }
  ]
}