{
  "transcript": "HE WOULD BE DEPRESSED FOR MANY DAYS AFTER WITNESSING A DEATH BED OR HEARING OF ANY CRIME BUT NOW MARGARET NOTICED AN ABSENCE OF MIND AS IF HIS THOUGHTS WERE PRE OCCUPIED BY SOME SUBJECT",
  "words": [
    {
      "alignedWord": "he",
      "case": "success",
      "end": 0.65,
      "endOffset": 2,
      "phones": [
        {
          "duration": 0.1,
          "phone": "hh_B"
        },
        {
          "duration": 0.06,
          "phone": "iy_E"
        }
      ],
      "start": 0.49,
      "startOffset": 0,
      "word": "HE"
    },
    {
      "alignedWord": "would",
      "case": "success",
      "end": 0.8,
      "endOffset": 8,
      "phones": [
        {
          "duration": 0.05,
          "phone": "w_B"
        },
        {
          "duration": 0.06,
          "phone": "uh_I"
        },
        {
          "duration": 0.04,
          "phone": "d_E"
        }
      ],
      "start": 0.65,
      "startOffset": 3,
      "word": "WOULD"
    },
    {
      "alignedWord": "be",
      "case": "success",
      "end": 0.9500000000000001,
      "endOffset": 11,
      "phones": [
        {
          "duration": 0.07,
          "phone": "b_B"
        },
        {
          "duration": 0.07,
          "phone": "iy_E"
        }
      ],
      "start": 0.81,
      "startOffset": 9,
      "word": "BE"
    },
    {
      "alignedWord": "depressed",
      "case": "success",
      "end": 1.58,
      "endOffset": 21,
      "phones": [
        {
          "duration": 0.06,
          "phone": "d_B"
        },
        {
          "duration": 0.05,
          "phone": "ih_I"
        },
        {
          "duration": 0.12,
          "phone": "p_I"
        },
        {
          "duration": 0.09,
          "phone": "r_I"
        },
        {
          "duration": 0.11,
          "phone": "eh_I"
        },
        {
          "duration": 0.09,
          "phone": "s_I"
        },
        {
          "duration": 0.11,
          "phone": "t_E"
        }
      ],
      "start": 0.95,
      "startOffset": 12,
      "word": "DEPRESSED"
    },
    {
      "alignedWord": "for",
      "case": "success",
      "end": 1.71,
      "endOffset": 25,
      "phones": [
        {
          "duration": 0.07,
          "phone": "f_B"
        },
        {
          "duration": 0.05,
          "phone": "er_E"
        }
      ],
      "start": 1.59,
      "startOffset": 22,
      "word": "FOR"
    },
    {
      "alignedWord": "many",
      "case": "success",
      "end": 1.97,
      "endOffset": 30,
      "phones": [
        {
          "duration": 0.07,
          "phone": "m_B"
        },
        {
          "duration": 0.06,
          "phone": "eh_I"
        },
        {
          "duration": 0.06,
          "phone": "n_I"
        },
        {
          "duration": 0.07,
          "phone": "iy_E"
        }
      ],
      "start": 1.71,
      "startOffset": 26,
      "word": "MANY"
    },
    {
      "alignedWord": "days",
      "case": "success",
      "end": 2.4,
      "endOffset": 35,
      "phones": [
        {
          "duration": 0.12,
          "phone": "d_B"
        },
        {
          "duration": 0.21,
          "phone": "ey_I"
        },
        {
          "duration": 0.1,
          "phone": "z_E"
        }
      ],
      "start": 1.97,
      "startOffset": 31,
      "word": "DAYS"
    },
    {
      "alignedWord": "after",
      "case": "success",
      "end": 2.71,
      "endOffset": 41,
      "phones": [
        {
          "duration": 0.09,
          "phone": "ae_B"
        },
        {
          "duration": 0.07,
          "phone": "f_I"
        },
        {
          "duration": 0.08,
          "phone": "t_I"
        },
        {
          "duration": 0.07,
          "phone": "er_E"
        }
      ],
      "start": 2.4,
      "startOffset": 36,
      "word": "AFTER"
    },
    {
      "alignedWord": "witnessing",
      "case": "success",
      "end": 3.2199999999999998,
      "endOffset": 52,
      "phones": [
        {
          "duration": 0.06,
          "phone": "w_B"
        },
        {
          "duration": 0.06,
          "phone": "ih_I"
        },
        {
          "duration": 0.04,
          "phone": "t_I"
        },
        {
          "duration": 0.04,
          "phone": "n_I"
        },
        {
          "duration": 0.08,
          "phone": "ah_I"
        },
        {
          "duration": 0.08,
          "phone": "s_I"
        },
        {
          "duration": 0.08,
          "phone": "ih_I"
        },
        {
          "duration": 0.07,
          "phone": "ng_E"
        }
      ],
      "start": 2.71,
      "startOffset": 42,
      "word": "WITNESSING"
    },
    {
      "alignedWord": "a",
      "case": "success",
      "end": 3.29,
      "endOffset": 54,
      "phones": [
        {
          "duration": 0.07,
          "phone": "ah_S"
        }
      ],
      "start": 3.22,
      "startOffset": 53,
      "word": "A"
    },
    {
      "alignedWord": "death",
      "case": "success",
      "end": 3.6,
      "endOffset": 60,
      "phones": [
        {
          "duration": 0.1,
          "phone": "d_B"
        },
        {
          "duration": 0.1,
          "phone": "eh_I"
        },
        {
          "duration": 0.11,
          "phone": "th_E"
        }
      ],
      "start": 3.29,
      "startOffset": 55,
      "word": "DEATH"
    },
    {
      "alignedWord": "bed",
      "case": "success",
      "end": 3.94,
      "endOffset": 64,
      "phones": [
        {
          "duration": 0.08,
          "phone": "b_B"
        },
        {
          "duration": 0.12,
          "phone": "eh_I"
        },
        {
          "duration": 0.11,
          "phone": "d_E"
        }
      ],
      "start": 3.63,
      "startOffset": 61,
      "word": "BED"
    },
    {
      "alignedWord": "or",
      "case": "success",
      "end": 4.71,
      "endOffset": 67,
      "phones": [
        {
          "duration": 0.15,
          "phone": "ao_B"
        },
        {
          "duration": 0.07,
          "phone": "r_E"
        }
      ],
      "start": 4.49,
      "startOffset": 65,
      "word": "OR"
    },
    {
      "alignedWord": "hearing",
      "case": "success",
      "end": 5.06,
      "endOffset": 75,
      "phones": [
        {
          "duration": 0.08,
          "phone": "hh_B"
        },
        {
          "duration": 0.08,
          "phone": "iy_I"
        },
        {
          "duration": 0.06,
          "phone": "r_I"
        },
        {
          "duration": 0.06,
          "phone": "ih_I"
        },
        {
          "duration": 0.07,
          "phone": "ng_E"
        }
      ],
      "start": 4.71,
      "startOffset": 68,
      "word": "HEARING"
    },
    {
      "alignedWord": "of",
      "case": "success",
      "end": 5.1499999999999995,
      "endOffset": 78,
      "phones": [
        {
          "duration": 0.02,
          "phone": "ah_B"
        },
        {
          "duration": 0.07,
          "phone": "v_E"
        }
      ],
      "start": 5.06,
      "startOffset": 76,
      "word": "OF"
    },
    {
      "alignedWord": "any",
      "case": "success",
      "end": 5.41,
      "endOffset": 82,
      "phones": [
        {
          "duration": 0.09,
          "phone": "eh_B"
        },
        {
          "duration": 0.07,
          "phone": "n_I"
        },
        {
          "duration": 0.09,
          "phone": "iy_E"
        }
      ],
      "start": 5.16,
      "startOffset": 79,
      "word": "ANY"
    },
    {
      "alignedWord": "crime",
      "case": "success",
      "end": 6.0,
      "endOffset": 88,
      "phones": [
        {
          "duration": 0.11,
          "phone": "k_B"
        },
        {
          "duration": 0.1,
          "phone": "r_I"
        },
        {
          "duration": 0.23,
          "phone": "ay_I"
        },
        {
          "duration": 0.15,
          "phone": "m_E"
        }
      ],
      "start": 5.41,
      "startOffset": 83,
      "word": "CRIME"
    },
    {
      "alignedWord": "but",
      "case": "success",
      "end": 7.48,
      "endOffset": 92,
      "phones": [
        {
          "duration": 0.05,
          "phone": "b_B"
        },
        {
          "duration": 0.05,
          "phone": "ah_I"
        },
        {
          "duration": 0.09,
          "phone": "t_E"
        }
      ],
      "start": 7.29,
      "startOffset": 89,
      "word": "BUT"
    },
    {
      "alignedWord": "now",
      "case": "success",
      "end": 7.69,
      "endOffset": 96,
      "phones": [
        {
          "duration": 0.08,
          "phone": "n_B"
        },
        {
          "duration": 0.13,
          "phone": "aw_E"
        }
      ],
      "start": 7.48,
      "startOffset": 93,
      "word": "NOW"
    },
    {
      "alignedWord": "margaret",
      "case": "success",
      "end": 8.2,
      "endOffset": 105,
      "phones": [
        {
          "duration": 0.08,
          "phone": "m_B"
        },
        {
          "duration": 0.09,
          "phone": "aa_I"
        },
        {
          "duration": 0.08,
          "phone": "r_I"
        },
        {
          "duration": 0.07,
          "phone": "g_I"
        },
        {
          "duration": 0.04,
          "phone": "r_I"
        },
        {
          "duration": 0.04,
          "phone": "ah_I"
        },
        {
          "duration": 0.08,
          "phone": "t_E"
        }
      ],
      "start": 7.72,
      "startOffset": 97,
      "word": "MARGARET"
    },
    {
      "alignedWord": "noticed",
      "case": "success",
      "end": 8.67,
      "endOffset": 113,
      "phones": [
        {
          "duration": 0.08,
          "phone": "n_B"
        },
        {
          "duration": 0.11,
          "phone": "ow_I"
        },
        {
          "duration": 0.05,
          "phone": "t_I"
        },
        {
          "duration": 0.05,
          "phone": "ah_I"
        },
        {
          "duration": 0.07,
          "phone": "s_I"
        },
        {
          "duration": 0.11,
          "phone": "t_E"
        }
      ],
      "start": 8.2,
      "startOffset": 106,
      "word": "NOTICED"
    },
    {
      "alignedWord": "an",
      "case": "success",
      "end": 9.35,
      "endOffset": 116,
      "phones": [
        {
          "duration": 0.09,
          "phone": "ah_B"
        },
        {
          "duration": 0.1,
          "phone": "n_E"
        }
      ],
      "start": 9.16,
      "startOffset": 114,
      "word": "AN"
    },
    {
      "alignedWord": "absence",
      "case": "success",
      "end": 10.07,
      "endOffset": 124,
      "phones": [
        {
          "duration": 0.18,
          "phone": "ae_B"
        },
        {
          "duration": 0.1,
          "phone": "b_I"
        },
        {
          "duration": 0.08,
          "phone": "s_I"
        },
        {
          "duration": 0.08,
          "phone": "ah_I"
        },
        {
          "duration": 0.11,
          "phone": "n_I"
        },
        {
          "duration": 0.11,
          "phone": "s_E"
        }
      ],
      "start": 9.41,
      "startOffset": 117,
      "word": "ABSENCE"
    },
    {
      "alignedWord": "of",
      "case": "success",
      "end": 10.28,
      "endOffset": 127,
      "phones": [
        {
          "duration": 0.08,
          "phone": "ah_B"
        },
        {
          "duration": 0.11,
          "phone": "v_E"
        }
      ],
      "start": 10.09,
      "startOffset": 125,
      "word": "OF"
    },
    {
      "alignedWord": "mind",
      "case": "success",
      "end": 10.809999999999999,
      "endOffset": 132,
      "phones": [
        {
          "duration": 0.08,
          "phone": "m_B"
        },
        {
          "duration": 0.23,
          "phone": "ay_I"
        },
        {
          "duration": 0.07,
          "phone": "n_I"
        },
        {
          "duration": 0.15,
          "phone": "d_E"
        }
      ],
      "start": 10.28,
      "startOffset": 128,
      "word": "MIND"
    },
    {
      "alignedWord": "as",
      "case": "success",
      "end": 11.499998999999999,
      "endOffset": 135,
      "phones": [
        {
          "duration": 0.12,
          "phone": "ae_B"
        },
        {
          "duration": 0.07,
          "phone": "z_E"
        }
      ],
      "start": 11.309999,
      "startOffset": 133,
      "word": "AS"
    },
    {
      "alignedWord": "if",
      "case": "success",
      "end": 11.65,
      "endOffset": 138,
      "phones": [
        {
          "duration": 0.09,
          "phone": "ih_B"
        },
        {
          "duration": 0.06,
          "phone": "f_E"
        }
      ],
      "start": 11.5,
      "startOffset": 136,
      "word": "IF"
    },
    {
      "alignedWord": "his",
      "case": "success",
      "end": 11.870000000000001,
      "endOffset": 142,
      "phones": [
        {
          "duration": 0.05,
          "phone": "hh_B"
        },
        {
          "duration": 0.05,
          "phone": "ih_I"
        },
        {
          "duration": 0.12,
          "phone": "z_E"
        }
      ],
      "start": 11.65,
      "startOffset": 139,
      "word": "HIS"
    },
    {
      "alignedWord": "thoughts",
      "case": "success",
      "end": 12.27,
      "endOffset": 151,
      "phones": [
        {
          "duration": 0.07,
          "phone": "th_B"
        },
        {
          "duration": 0.13,
          "phone": "ao_I"
        },
        {
          "duration": 0.08,
          "phone": "t_I"
        },
        {
          "duration": 0.08,
          "phone": "s_E"
        }
      ],
      "start": 11.91,
      "startOffset": 143,
      "word": "THOUGHTS"
    },
    {
      "alignedWord": "were",
      "case": "success",
      "end": 12.45,
      "endOffset": 156,
      "phones": [
        {
          "duration": 0.08,
          "phone": "w_B"
        },
        {
          "duration": 0.1,
          "phone": "er_E"
        }
      ],
      "start": 12.27,
      "startOffset": 152,
      "word": "WERE"
    },
    {
      "alignedWord": "pre",
      "case": "success",
      "end": 12.729999,
      "endOffset": 160,
      "phones": [
        {
          "duration": 0.08,
          "phone": "p_B"
        },
        {
          "duration": 0.09,
          "phone": "r_I"
        },
        {
          "duration": 0.09,
          "phone": "iy_E"
        }
      ],
      "start": 12.469999,
      "startOffset": 157,
      "word": "PRE"
    },
    {
      "alignedWord": "occupied",
      "case": "success",
      "end": 13.34,
      "endOffset": 169,
      "phones": [
        {
          "duration": 0.08,
          "phone": "aa_B"
        },
        {
          "duration": 0.11,
          "phone": "k_I"
        },
        {
          "duration": 0.03,
          "phone": "y_I"
        },
        {
          "duration": 0.06,
          "phone": "ah_I"
        },
        {
          "duration": 0.13,
          "phone": "p_I"
        },
        {
          "duration": 0.12,
          "phone": "ay_I"
        },
        {
          "duration": 0.08,
          "phone": "d_E"
        }
      ],
      "start": 12.73,
      "startOffset": 161,
      "word": "OCCUPIED"
    },
    {
      "alignedWord": "by",
      "case": "success",
      "end": 13.56,
      "endOffset": 172,
      "phones": [
        {
          "duration": 0.08,
          "phone": "b_B"
        },
        {
          "duration": 0.14,
          "phone": "ay_E"
        }
      ],
      "start": 13.34,
      "startOffset": 170,
      "word": "BY"
    },
    {
      "alignedWord": "some",
      "case": "success",
      "end": 13.9,
      "endOffset": 177,
      "phones": [
        {
          "duration": 0.14,
          "phone": "s_B"
        },
        {
          "duration": 0.08,
          "phone": "ah_I"
        },
        {
          "duration": 0.11,
          "phone": "m_E"
        }
      ],
      "start": 13.57,
      "startOffset": 173,
      "word": "SOME"
    },
    {
      "alignedWord": "subject",
      "case": "success",
      "end": 14.47,
      "endOffset": 185,
      "phones": [
        {
          "duration": 0.12,
          "phone": "s_B"
        },
        {
          "duration": 0.09,
          "phone": "ah_I"
        },
        {
          "duration": 0.06,
          "phone": "b_I"
        },
        {
          "duration": 0.04,
          "phone": "jh_I"
        },
        {
          "duration": 0.06,
          "phone": "eh_I"
        },
        {
          "duration": 0.06,
          "phone": "k_I"
        },
        {
          "duration": 0.14,
          "phone": "t_E"
        }
      ],
      "start": 13.9,
      "startOffset": 178,
      "word": "SUBJECT"
    }
  ]
}