{
  "transcript": "NOT SO THEY WHO WEAR THE PETTICOATS OF SQUAWS ON THEIR OWN RIVER ONE OF THEM HAS BEEN PASSING THE TRIBE DID MY YOUNG MEN TAKE HIS SCALP",
  "words": [
    {
      "alignedWord": "not",
      "case": "success",
      "end": 0.78,
      "endOffset": 3,
      "phones": [
        {
          "duration": 0.08,
          "phone": "n_B"
        },
        {
          "duration": 0.07,
          "phone": "aa_I"
        },
        {
          "duration": 0.1,
          "phone": "t_E"
        }
      ],
      "start": 0.53,
      "startOffset": 0,
      "word": "NOT"
    },
    {
      "alignedWord": "so",
      "case": "success",
      "end": 1.27,
      "endOffset": 6,
      "phones": [
        {
          "duration": 0.12,
          "phone": "s_B"
        },
        {
          "duration": 0.37,
          "phone": "ow_E"
        }
      ],
      "start": 0.78,
      "startOffset": 4,
      "word": "SO"
    },
    {
      "alignedWord": "they",
      "case": "success",
      "end": 1.72,
      "endOffset": 11,
      "phones": [
        {
          "duration": 0.08,
          "phone": "dh_B"
        },
        {
          "duration": 0.07,
          "phone": "ey_E"
        }
      ],
      "start": 1.57,
      "startOffset": 7,
      "word": "THEY"
    },
    {
      "alignedWord": "who",
      "case": "success",
      "end": 1.8599999999999999,
      "endOffset": 15,
      "phones": [
        {
          "duration": 0.05,
          "phone": "hh_B"
        },
        {
          "duration": 0.09,
          "phone": "uw_E"
        }
      ],
      "start": 1.72,
      "startOffset": 12,
      "word": "WHO"
    },
    {
      "alignedWord": "wear",
      "case": "success",
      "end": 2.04,
      "endOffset": 20,
      "phones": [
        {
          "duration": 0.07,
          "phone": "w_B"
        },
        {
          "duration": 0.06,
          "phone": "eh_I"
        },
        {
          "duration": 0.05,
          "phone": "r_E"
        }
      ],
      "start": 1.86,
      "startOffset": 16,
      "word": "WEAR"
    },
    {
      "alignedWord": "the",
      "case": "success",
      "end": 2.17,
      "endOffset": 24,
      "phones": [
        {
          "duration": 0.05,
          "phone": "dh_B"
        },
        {
          "duration": 0.08,
          "phone": "ah_E"
        }
      ],
      "start": 2.04,
      "startOffset": 21,
      "word": "THE"
    },
    {
      "case": "not-found-in-audio",
      "endOffset": 35,
      "startOffset": 25,
      "word": "PETTICOATS"
    },
    {
      "case": "not-found-in-audio",
      "endOffset": 38,
      "startOffset": 36,
      "word": "OF"
    },
    {
      "alignedWord": "<unk>",
      "case": "success",
      "end": 3.3099999999999996,
      "endOffset": 45,
      "phones": [
        {
          "duration": 1.14,
          "phone": "oov_S"
        }
      ],
      "start": 2.17,
      "startOffset": 39,
      "word": "SQUAWS"
    },
    {
      "alignedWord": "on",
      "case": "success",
      "end": 3.42,
      "endOffset": 48,
      "phones": [
        {
          "duration": 0.05,
          "phone": "ao_B"
        },
        {
          "duration": 0.04,
          "phone": "n_E"
        }
      ],
      "start": 3.33,
      "startOffset": 46,
      "word": "ON"
    },
    {
      "alignedWord": "their",
      "case": "success",
      "end": 3.54,
      "endOffset": 54,
      "phones": [
        {
          "duration": 0.02,
          "phone": "dh_B"
        },
        {
          "duration": 0.05,
          "phone": "eh_I"
        },
        {
          "duration": 0.05,
          "phone": "r_E"
        }
      ],
      "start": 3.42,
      "startOffset": 49,
      "word": "THEIR"
    },
    {
      "alignedWord": "own",
      "case": "success",
      "end": 3.69,
      "endOffset": 58,
      "phones": [
        {
          "duration": 0.13,
          "phone": "ow_B"
        },
        {
          "duration": 0.02,
          "phone": "n_E"
        }
      ],
      "start": 3.54,
      "startOffset": 55,
      "word": "OWN"
    },
    {
      "alignedWord": "river",
      "case": "success",
      "end": 4.16,
      "endOffset": 64,
      "phones": [
        {
          "duration": 0.13,
          "phone": "r_B"
        },
        {
          "duration": 0.08,
          "phone": "ih_I"
        },
        {
          "duration": 0.08,
          "phone": "v_I"
        },
        {
          "duration": 0.17,
          "phone": "er_E"
        }
      ],
      "start": 3.7,
      "startOffset": 59,
      "word": "RIVER"
    },
    {
      "alignedWord": "one",
      "case": "success",
      "end": 5.13,
      "endOffset": 68,
      "phones": [
        {
          "duration": 0.1,
          "phone": "w_B"
        },
        {
          "duration": 0.06,
          "phone": "ah_I"
        },
        {
          "duration": 0.06,
          "phone": "n_E"
        }
      ],
      "start": 4.91,
      "startOffset": 65,
      "word": "ONE"
    },
    {
      "alignedWord": "of",
      "case": "success",
      "end": 5.25,
      "endOffset": 71,
      "phones": [
        {
          "duration": 0.02,
          "phone": "ah_B"
        },
        {
          "duration": 0.1,
          "phone": "v_E"
        }
      ],
      "start": 5.13,
      "startOffset": 69,
      "word": "OF"
    },
    {
      "alignedWord": "them",
      "case": "success",
      "end": 5.46,
      "endOffset": 76,
      "phones": [
        {
          "duration": 0.01,
          "phone": "dh_B"
        },
        {
          "duration": 0.14,
          "phone": "eh_I"
        },
        {
          "duration": 0.06,
          "phone": "m_E"
        }
      ],
      "start": 5.25,
      "startOffset": 72,
      "word": "THEM"
    },
    {
      "alignedWord": "has",
      "case": "success",
      "end": 5.6,
      "endOffset": 80,
      "phones": [
        {
          "duration": 0.01,
          "phone": "hh_B"
        },
        {
          "duration": 0.05,
          "phone": "ah_I"
        },
        {
          "duration": 0.08,
          "phone": "z_E"
        }
      ],
      "start": 5.46,
      "startOffset": 77,
      "word": "HAS"
    },
    {
      "alignedWord": "been",
      "case": "success",
      "end": 5.8,
      "endOffset": 85,
      "phones": [
        {
          "duration": 0.04,
          "phone": "b_B"
        },
        {
          "duration": 0.08,
          "phone": "ih_I"
        },
        {
          "duration": 0.08,
          "phone": "n_E"
        }
      ],
      "start": 5.6,
      "startOffset": 81,
      "word": "BEEN"
    },
    {
      "alignedWord": "passing",
      "case": "success",
      "end": 6.1899999999999995,
      "endOffset": 93,
      "phones": [
        {
          "duration": 0.07,
          "phone": "p_B"
        },
        {
          "duration": 0.13,
          "phone": "ae_I"
        },
        {
          "duration": 0.08,
          "phone": "s_I"
        },
        {
          "duration": 0.05,
          "phone": "ih_I"
        },
        {
          "duration": 0.06,
          "phone": "ng_E"
        }
      ],
      "start": 5.8,
      "startOffset": 86,
      "word": "PASSING"
    },
    {
      "alignedWord": "the",
      "case": "success",
      "end": 6.28,
      "endOffset": 97,
      "phones": [
        {
          "duration": 0.04,
          "phone": "dh_B"
        },
        {
          "duration": 0.05,
          "phone": "ah_E"
        }
      ],
      "start": 6.19,
      "startOffset": 94,
      "word": "THE"
    },
    {
      "alignedWord": "tribe",
      "case": "success",
      "end": 6.73,
      "endOffset": 103,
      "phones": [
        {
          "duration": 0.08,
          "phone": "t_B"
        },
        {
          "duration": 0.11,
          "phone": "r_I"
        },
        {
          "duration": 0.16,
          "phone": "ay_I"
        },
        {
          "duration": 0.1,
          "phone": "b_E"
        }
      ],
      "start": 6.28,
      "startOffset": 98,
      "word": "TRIBE"
    },
    {
      "alignedWord": "did",
      "case": "success",
      "end": 8.3,
      "endOffset": 107,
      "phones": [
        {
          "duration": 0.08,
          "phone": "d_B"
        },
        {
          "duration": 0.06,
          "phone": "ih_I"
        },
        {
          "duration": 0.08,
          "phone": "d_E"
        }
      ],
      "start": 8.08,
      "startOffset": 104,
      "word": "DID"
    },
    {
      "alignedWord": "my",
      "case": "success",
      "end": 8.48,
      "endOffset": 110,
      "phones": [
        {
          "duration": 0.07,
          "phone": "m_B"
        },
        {
          "duration": 0.11,
          "phone": "ay_E"
        }
      ],
      "start": 8.3,
      "startOffset": 108,
      "word": "MY"
    },
    {
      "alignedWord": "young",
      "case": "success",
      "end": 8.74,
      "endOffset": 116,
      "phones": [
        {
          "duration": 0.08,
          "phone": "y_B"
        },
        {
          "duration": 0.1,
          "phone": "ah_I"
        },
        {
          "duration": 0.08,
          "phone": "ng_E"
        }
      ],
      "start": 8.48,
      "startOffset": 111,
      "word": "YOUNG"
    },
    {
      "alignedWord": "men",
      "case": "success",
      "end": 8.94,
      "endOffset": 120,
      "phones": [
        {
          "duration": 0.04,
          "phone": "m_B"
        },
        {
          "duration": 0.1,
          "phone": "eh_I"
        },
        {
          "duration": 0.06,
          "phone": "n_E"
        }
      ],
      "start": 8.74,
      "startOffset": 117,
      "word": "MEN"
    },
    {
      "alignedWord": "take",
      "case": "success",
      "end": 9.19,
      "endOffset": 125,
      "phones": [
        {
          "duration": 0.08,
          "phone": "t_B"
        },
        {
          "duration": 0.08,
          "phone": "ey_I"
        },
        {
          "duration": 0.09,
          "phone": "k_E"
        }
      ],
      "start": 8.94,
      "startOffset": 121,
      "word": "TAKE"
    },
    {
      "alignedWord": "his",
      "case": "success",
      "end": 9.299999999999999,
      "endOffset": 129,
      "phones": [
        {
          "duration": 0.01,
          "phone": "hh_B"
        },
        {
          "duration": 0.03,
          "phone": "ih_I"
        },
        {
          "duration": 0.07,
          "phone": "z_E"
        }
      ],
      "start": 9.19,
      "startOffset": 126,
      "word": "HIS"
    },
    {
      "alignedWord": "scalp",
      "case": "success",
      "end": 9.850000000000001,
      "endOffset": 135,
      "phones": [
        {
          "duration": 0.08,
          "phone": "s_B"
        },
        {
          "duration": 0.08,
          "phone": "k_I"
        },
        {
          "duration": 0.13,
          "phone": "ae_I"
        },
        {
          "duration": 0.05,
          "phone": "l_I"
        },
        {
          "duration": 0.21,
          "phone": "p_E"
        }
      ],
      "start": 9.3,
      "startOffset": 130,
      "word": "SCALP"
    }
  ]
}