{
  "transcript": "DURING THE WHOLE STAY ON THE BARRIER I MYSELF WORE A PAIR OF ORDINARY SPECTACLES WITH YELLOW GLASSES OF QUITE A LIGHT TINT",
  "words": [
    {
      "alignedWord": "during",
      "case": "success",
      "end": 0.61,
      "endOffset": 6,
      "phones": [
        {
          "duration": 0.07,
          "phone": "d_B"
        },
        {
          "duration": 0.08,
          "phone": "er_I"
        },
        {
          "duration": 0.06,
          "phone": "ih_I"
        },
        {
          "duration": 0.08,
          "phone": "ng_E"
        }
      ],
      "start": 0.32,
      "startOffset": 0,
      "word": "DURING"
    },
    {
      "alignedWord": "the",
      "case": "success",
      "end": 0.69,
      "endOffset": 10,
      "phones": [
        {
          "duration": 0.03,
          "phone": "dh_B"
        },
        {
          "duration": 0.05,
          "phone": "ah_E"
        }
      ],
      "start": 0.61,
      "startOffset": 7,
      "word": "THE"
    },
    {
      "alignedWord": "whole",
      "case": "success",
      "end": 1.06,
      "endOffset": 16,
      "phones": [
        {
          "duration": 0.12,
          "phone": "hh_B"
        },
        {
          "duration": 0.07,
          "phone": "ow_I"
        },
        {
          "duration": 0.17,
          "phone": "l_E"
        }
      ],
      "start": 0.7,
      "startOffset": 11,
      "word": "WHOLE"
    },
    {
      "alignedWord": "stay",
      "case": "success",
      "end": 1.55,
      "endOffset": 21,
      "phones": [
        {
          "duration": 0.13,
          "phone": "s_B"
        },
        {
          "duration": 0.1,
          "phone": "t_I"
        },
        {
          "duration": 0.25,
          "phone": "ey_E"
        }
      ],
      "start": 1.07,
      "startOffset": 17,
      "word": "STAY"
    },
    {
      "alignedWord": "on",
      "case": "success",
      "end": 1.71,
      "endOffset": 24,
      "phones": [
        {
          "duration": 0.08,
          "phone": "aa_B"
        },
        {
          "duration": 0.04,
          "phone": "n_E"
        }
      ],
      "start": 1.59,
      "startOffset": 22,
      "word": "ON"
    },
    {
      "alignedWord": "the",
      "case": "success",
      "end": 1.82,
      "endOffset": 28,
      "phones": [
        {
          "duration": 0.05,
          "phone": "dh_B"
        },
        {
          "duration": 0.06,
          "phone": "ah_E"
        }
      ],
      "start": 1.71,
      "startOffset": 25,
      "word": "THE"
    },
    {
      "alignedWord": "barrier",
      "case": "success",
      "end": 2.37,
      "endOffset": 36,
      "phones": [
        {
          "duration": 0.08,
          "phone": "b_B"
        },
        {
          "duration": 0.08,
          "phone": "eh_I"
        },
        {
          "duration": 0.12,
          "phone": "r_I"
        },
        {
          "duration": 0.1,
          "phone": "iy_I"
        },
        {
          "duration": 0.16,
          "phone": "er_E"
        }
      ],
      "start": 1.83,
      "startOffset": 29,
      "word": "BARRIER"
    },
    {
      "alignedWord": "i",
      "case": "success",
      "end": 2.53,
      "endOffset": 38,
      "phones": [
        {
          "duration": 0.11,
          "phone": "ay_S"
        }
      ],
      "start": 2.42,
      "startOffset": 37,
      "word": "I"
    },
    {
      "alignedWord": "myself",
      "case": "success",
      "end": 3.07,
      "endOffset": 45,
      "phones": [
        {
          "duration": 0.06,
          "phone": "m_B"
        },
        {
          "duration": 0.08,
          "phone": "ay_I"
        },
        {
          "duration": 0.13,
          "phone": "s_I"
        },
        {
          "duration": 0.09,
          "phone": "eh_I"
        },
        {
          "duration": 0.09,
          "phone": "l_I"
        },
        {
          "duration": 0.09,
          "phone": "f_E"
        }
      ],
      "start": 2.53,
      "startOffset": 39,
      "word": "MYSELF"
    },
    {
      "alignedWord": "wore",
      "case": "success",
      "end": 3.28,
      "endOffset": 50,
      "phones": [
        {
          "duration": 0.05,
          "phone": "w_B"
        },
        {
          "duration": 0.1,
          "phone": "ao_I"
        },
        {
          "duration": 0.06,
          "phone": "r_E"
        }
      ],
      "start": 3.07,
      "startOffset": 46,
      "word": "WORE"
    },
    {
      "alignedWord": "a",
      "case": "success",
      "end": 3.3499999999999996,
      "endOffset": 52,
      "phones": [
        {
          "duration": 0.07,
          "phone": "ah_S"
        }
      ],
      "start": 3.28,
      "startOffset": 51,
      "word": "A"
    },
    {
      "alignedWord": "pair",
      "case": "success",
      "end": 3.6100000000000003,
      "endOffset": 57,
      "phones": [
        {
          "duration": 0.11,
          "phone": "p_B"
        },
        {
          "duration": 0.07,
          "phone": "eh_I"
        },
        {
          "duration": 0.08,
          "phone": "r_E"
        }
      ],
      "start": 3.35,
      "startOffset": 53,
      "word": "PAIR"
    },
    {
      "alignedWord": "of",
      "case": "success",
      "end": 3.73,
      "endOffset": 60,
      "phones": [
        {
          "duration": 0.04,
          "phone": "ah_B"
        },
        {
          "duration": 0.08,
          "phone": "v_E"
        }
      ],
      "start": 3.61,
      "startOffset": 58,
      "word": "OF"
    },
    {
      "alignedWord": "ordinary",
      "case": "success",
      "end": 4.32,
      "endOffset": 69,
      "phones": [
        {
          "duration": 0.14,
          "phone": "ao_B"
        },
        {
          "duration": 0.03,
          "phone": "r_I"
        },
        {
          "duration": 0.06,
          "phone": "d_I"
        },
        {
          "duration": 0.07,
          "phone": "ah_I"
        },
        {
          "duration": 0.05,
          "phone": "n_I"
        },
        {
          "duration": 0.06,
          "phone": "eh_I"
        },
        {
          "duration": 0.09,
          "phone": "r_I"
        },
        {
          "duration": 0.08,
          "phone": "iy_E"
        }
      ],
      "start": 3.74,
      "startOffset": 61,
      "word": "ORDINARY"
    },
    {
      "alignedWord": "spectacles",
      "case": "success",
      "end": 5.0600000000000005,
      "endOffset": 80,
      "phones": [
        {
          "duration": 0.11,
          "phone": "s_B"
        },
        {
          "duration": 0.07,
          "phone": "p_I"
        },
        {
          "duration": 0.07,
          "phone": "eh_I"
        },
        {
          "duration": 0.06,
          "phone": "k_I"
        },
        {
          "duration": 0.06,
          "phone": "t_I"
        },
        {
          "duration": 0.07,
          "phone": "ah_I"
        },
        {
          "duration": 0.03,
          "phone": "k_I"
        },
        {
          "duration": 0.1,
          "phone": "ah_I"
        },
        {
          "duration": 0.08,
          "phone": "l_I"
        },
        {
          "duration": 0.09,
          "phone": "z_E"
        }
      ],
      "start": 4.32,
      "startOffset": 70,
      "word": "SPECTACLES"
    },
    {
      "alignedWord": "with",
      "case": "success",
      "end": 5.25,
      "endOffset": 85,
      "phones": [
        {
          "duration": 0.05,
          "phone": "w_B"
        },
        {
          "duration": 0.04,
          "phone": "ih_I"
        },
        {
          "duration": 0.1,
          "phone": "th_E"
        }
      ],
      "start": 5.06,
      "startOffset": 81,
      "word": "WITH"
    },
    {
      "alignedWord": "yellow",
      "case": "success",
      "end": 5.54,
      "endOffset": 92,
      "phones": [
        {
          "duration": 0.05,
          "phone": "y_B"
        },
        {
          "duration": 0.09,
          "phone": "eh_I"
        },
        {
          "duration": 0.08,
          "phone": "l_I"
        },
        {
          "duration": 0.07,
          "phone": "ow_E"
        }
      ],
      "start": 5.25,
      "startOffset": 86,
      "word": "YELLOW"
    },
    {
      "alignedWord": "glasses",
      "case": "success",
      "end": 6.07,
      "endOffset": 100,
      "phones": [
        {
          "duration": 0.07,
          "phone": "g_B"
        },
        {
          "duration": 0.08,
          "phone": "l_I"
        },
        {
          "duration": 0.11,
          "phone": "ae_I"
        },
        {
          "duration": 0.1,
          "phone": "s_I"
        },
        {
          "duration": 0.07,
          "phone": "ih_I"
        },
        {
          "duration": 0.1,
          "phone": "z_E"
        }
      ],
      "start": 5.54,
      "startOffset": 93,
      "word": "GLASSES"
    },
    {
      "alignedWord": "of",
      "case": "success",
      "end": 6.26,
      "endOffset": 103,
      "phones": [
        {
          "duration": 0.09,
          "phone": "ah_B"
        },
        {
          "duration": 0.08,
          "phone": "v_E"
        }
      ],
      "start": 6.09,
      "startOffset": 101,
      "word": "OF"
    },
    {
      "alignedWord": "quite",
      "case": "success",
      "end": 6.609999999999999,
      "endOffset": 109,
      "phones": [
        {
          "duration": 0.12,
          "phone": "k_B"
        },
        {
          "duration": 0.07,
          "phone": "w_I"
        },
        {
          "duration": 0.08,
          "phone": "ay_I"
        },
        {
          "duration": 0.08,
          "phone": "t_E"
        }
      ],
      "start": 6.26,
      "startOffset": 104,
      "word": "QUITE"
    },
    {
      "alignedWord": "a",
      "case": "success",
      "end": 6.7299999999999995,
      "endOffset": 111,
      "phones": [
        {
          "duration": 0.09,
          "phone": "ah_S"
        }
      ],
      "start": 6.64,
      "startOffset": 110,
      "word": "A"
    },
    {
      "alignedWord": "light",
      "case": "success",
      "end": 7.010000000000001,
      "endOffset": 117,
      "phones": [
        {
          "duration": 0.12,
          "phone": "l_B"
        },
        {
          "duration": 0.1,
          "phone": "ay_I"
        },
        {
          "duration": 0.06,
          "phone": "t_E"
        }
      ],
      "start": 6.73,
      "startOffset": 112,
      "word": "LIGHT"
    },
    {
      "alignedWord": "tint",
      "case": "success",
      "end": 7.539999999999999,
      "endOffset": 122,
      "phones": [
        {
          "duration": 0.11,
          "phone": "t_B"
        },
        {
          "duration": 0.11,
          "phone": "ih_I"
        },
        {
          "duration": 0.07,
          "phone": "n_I"
        },
        {
          "duration": 0.23,
          "phone": "t_E"
        }
      ],
      "start": 7.02,
      "startOffset": 118,
      "word": "TINT"
    }
  ]
}