{
  "transcript": "EVENTS OF WORLD WIDE IMPORTANCE HAD BEEN TAKING PLACE IN THE ARABIAN PENINSULA FOR THE FIRST AND LAST TIME IN HISTORY THERE HAD ARISEN AMONG THE ARABS ONE OF THOSE WORLD COMPELLING MINDS THAT ARE DESTINED TO TURN ASIDE THE CURRENT OF EVENTS",
  "words": [
    {
      "alignedWord": "events",
      "case": "success",
      "end": 0.63,
      "endOffset": 6,
      "phones": [
        {
          "duration": 0.13,
          "phone": "iy_B"
        },
        {
          "duration": 0.09,
          "phone": "v_I"
        },
        {
          "duration": 0.09,
          "phone": "eh_I"
        },
        {
          "duration": 0.06,
          "phone": "n_I"
        },
        {
          "duration": 0.06,
          "phone": "t_I"
        },
        {
          "duration": 0.04,
          "phone": "s_E"
        }
      ],
      "start": 0.16,
      "startOffset": 0,
      "word": "EVENTS"
    },
    {
      "alignedWord": "of",
      "case": "success",
      "end": 0.8300000000000001,
      "endOffset": 9,
      "phones": [
        {
          "duration": 0.07,
          "phone": "ah_B"
        },
        {
          "duration": 0.13,
          "phone": "v_E"
        }
      ],
      "start": 0.63,
      "startOffset": 7,
      "word": "OF"
    },
    {
      "alignedWord": "world",
      "case": "success",
      "end": 1.21,
      "endOffset": 15,
      "phones": [
        {
          "duration": 0.13,
          "phone": "w_B"
        },
        {
          "duration": 0.1,
          "phone": "er_I"
        },
        {
          "duration": 0.08,
          "phone": "l_I"
        },
        {
          "duration": 0.07,
          "phone": "d_E"
        }
      ],
      "start": 0.83,
      "startOffset": 10,
      "word": "WORLD"
    },
    {
      "alignedWord": "wide",
      "case": "success",
      "end": 1.56,
      "endOffset": 20,
      "phones": [
        {
          "duration": 0.14,
          "phone": "w_B"
        },
        {
          "duration": 0.16,
          "phone": "ay_I"
        },
        {
          "duration": 0.04,
          "phone": "d_E"
        }
      ],
      "start": 1.22,
      "startOffset": 16,
      "word": "WIDE"
    },
    {
      "alignedWord": "importance",
      "case": "success",
      "end": 2.23,
      "endOffset": 31,
      "phones": [
        {
          "duration": 0.07,
          "phone": "ih_B"
        },
        {
          "duration": 0.06,
          "phone": "m_I"
        },
        {
          "duration": 0.09,
          "phone": "p_I"
        },
        {
          "duration": 0.08,
          "phone": "ao_I"
        },
        {
          "duration": 0.05,
          "phone": "r_I"
        },
        {
          "duration": 0.02,
          "phone": "t_I"
        },
        {
          "duration": 0.11,
          "phone": "ah_I"
        },
        {
          "duration": 0.07,
          "phone": "n_I"
        },
        {
          "duration": 0.12,
          "phone": "s_E"
        }
      ],
      "start": 1.56,
      "startOffset": 21,
      "word": "IMPORTANCE"
    },
    {
      "alignedWord": "had",
      "case": "success",
      "end": 2.72,
      "endOffset": 35,
      "phones": [
        {
          "duration": 0.09,
          "phone": "hh_B"
        },
        {
          "duration": 0.05,
          "phone": "ae_I"
        },
        {
          "duration": 0.06,
          "phone": "d_E"
        }
      ],
      "start": 2.52,
      "startOffset": 32,
      "word": "HAD"
    },
    {
      "alignedWord": "been",
      "case": "success",
      "end": 2.91,
      "endOffset": 40,
      "phones": [
        {
          "duration": 0.05,
          "phone": "b_B"
        },
        {
          "duration": 0.06,
          "phone": "ih_I"
        },
        {
          "duration": 0.08,
          "phone": "n_E"
        }
      ],
      "start": 2.72,
      "startOffset": 36,
      "word": "BEEN"
    },
    {
      "alignedWord": "taking",
      "case": "success",
      "end": 3.25,
      "endOffset": 47,
      "phones": [
        {
          "duration": 0.08,
          "phone": "t_B"
        },
        {
          "duration": 0.09,
          "phone": "ey_I"
        },
        {
          "duration": 0.04,
          "phone": "k_I"
        },
        {
          "duration": 0.06,
          "phone": "ih_I"
        },
        {
          "duration": 0.07,
          "phone": "ng_E"
        }
      ],
      "start": 2.91,
      "startOffset": 41,
      "word": "TAKING"
    },
    {
      "alignedWord": "place",
      "case": "success",
      "end": 3.69,
      "endOffset": 53,
      "phones": [
        {
          "duration": 0.08,
          "phone": "p_B"
        },
        {
          "duration": 0.11,
          "phone": "l_I"
        },
        {
          "duration": 0.11,
          "phone": "ey_I"
        },
        {
          "duration": 0.14,
          "phone": "s_E"
        }
      ],
      "start": 3.25,
      "startOffset": 48,
      "word": "PLACE"
    },
    {
      "alignedWord": "in",
      "case": "success",
      "end": 3.9,
      "endOffset": 56,
      "phones": [
        {
          "duration": 0.1,
          "phone": "ih_B"
        },
        {
          "duration": 0.07,
          "phone": "n_E"
        }
      ],
      "start": 3.73,
      "startOffset": 54,
      "word": "IN"
    },
    {
      "alignedWord": "the",
      "case": "success",
      "end": 4.06,
      "endOffset": 60,
      "phones": [
        {
          "duration": 0.07,
          "phone": "dh_B"
        },
        {
          "duration": 0.09,
          "phone": "iy_E"
        }
      ],
      "start": 3.9,
      "startOffset": 57,
      "word": "THE"
    },
    {
      "alignedWord": "arabian",
      "case": "success",
      "end": 4.6499999999999995,
      "endOffset": 68,
      "phones": [
        {
          "duration": 0.07,
          "phone": "ah_B"
        },
        {
          "duration": 0.11,
          "phone": "r_I"
        },
        {
          "duration": 0.12,
          "phone": "ey_I"
        },
        {
          "duration": 0.07,
          "phone": "b_I"
        },
        {
          "duration": 0.07,
          "phone": "iy_I"
        },
        {
          "duration": 0.06,
          "phone": "ah_I"
        },
        {
          "duration": 0.09,
          "phone": "n_E"
        }
      ],
      "start": 4.06,
      "startOffset": 61,
      "word": "ARABIAN"
    },
    {
      "alignedWord": "peninsula",
      "case": "success",
      "end": 5.37,
      "endOffset": 78,
      "phones": [
        {
          "duration": 0.06,
          "phone": "p_B"
        },
        {
          "duration": 0.05,
          "phone": "ah_I"
        },
        {
          "duration": 0.06,
          "phone": "n_I"
        },
        {
          "duration": 0.08,
          "phone": "ih_I"
        },
        {
          "duration": 0.07,
          "phone": "n_I"
        },
        {
          "duration": 0.05,
          "phone": "s_I"
        },
        {
          "duration": 0.09,
          "phone": "ah_I"
        },
        {
          "duration": 0.07,
          "phone": "l_I"
        },
        {
          "duration": 0.19,
          "phone": "ah_E"
        }
      ],
      "start": 4.65,
      "startOffset": 69,
      "word": "PENINSULA"
    },
    {
      "alignedWord": "for",
      "case": "success",
      "end": 5.949999999999999,
      "endOffset": 82,
      "phones": [
        {
          "duration": 0.11,
          "phone": "f_B"
        },
        {
          "duration": 0.07,
          "phone": "er_E"
        }
      ],
      "start": 5.77,
      "startOffset": 79,
      "word": "FOR"
    },
    {
      "alignedWord": "the",
      "case": "success",
      "end": 6.0600000000000005,
      "endOffset": 86,
      "phones": [
        {
          "duration": 0.05,
          "phone": "dh_B"
        },
        {
          "duration": 0.06,
          "phone": "ah_E"
        }
      ],
      "start": 5.95,
      "startOffset": 83,
      "word": "THE"
    },
    {
      "alignedWord": "first",
      "case": "success",
      "end": 6.47,
      "endOffset": 92,
      "phones": [
        {
          "duration": 0.13,
          "phone": "f_B"
        },
        {
          "duration": 0.16,
          "phone": "er_I"
        },
        {
          "duration": 0.07,
          "phone": "s_I"
        },
        {
          "duration": 0.05,
          "phone": "t_E"
        }
      ],
      "start": 6.06,
      "startOffset": 87,
      "word": "FIRST"
    },
    {
      "alignedWord": "and",
      "case": "success",
      "end": 6.62,
      "endOffset": 96,
      "phones": [
        {
          "duration": 0.05,
          "phone": "ah_B"
        },
        {
          "duration": 0.03,
          "phone": "n_I"
        },
        {
          "duration": 0.07,
          "phone": "d_E"
        }
      ],
      "start": 6.47,
      "startOffset": 93,
      "word": "AND"
    },
    {
      "alignedWord": "last",
      "case": "success",
      "end": 6.99,
      "endOffset": 101,
      "phones": [
        {
          "duration": 0.08,
          "phone": "l_B"
        },
        {
          "duration": 0.18,
          "phone": "ae_I"
        },
        {
          "duration": 0.11,
          "phone": "s_E"
        }
      ],
      "start": 6.62,
      "startOffset": 97,
      "word": "LAST"
    },
    {
      "alignedWord": "time",
      "case": "success",
      "end": 7.39,
      "endOffset": 106,
      "phones": [
        {
          "duration": 0.1,
          "phone": "t_B"
        },
        {
          "duration": 0.24,
          "phone": "ay_I"
        },
        {
          "duration": 0.05,
          "phone": "m_E"
        }
      ],
      "start": 7.0,
      "startOffset": 102,
      "word": "TIME"
    },
    {
      "alignedWord": "in",
      "case": "success",
      "end": 7.529999999999999,
      "endOffset": 109,
      "phones": [
        {
          "duration": 0.06,
          "phone": "ih_B"
        },
        {
          "duration": 0.08,
          "phone": "n_E"
        }
      ],
      "start": 7.39,
      "startOffset": 107,
      "word": "IN"
    },
    {
      "alignedWord": "history",
      "case": "success",
      "end": 8.02,
      "endOffset": 117,
      "phones": [
        {
          "duration": 0.08,
          "phone": "hh_B"
        },
        {
          "duration": 0.08,
          "phone": "ih_I"
        },
        {
          "duration": 0.07,
          "phone": "s_I"
        },
        {
          "duration": 0.08,
          "phone": "t_I"
        },
        {
          "duration": 0.08,
          "phone": "r_I"
        },
        {
          "duration": 0.1,
          "phone": "iy_E"
        }
      ],
      "start": 7.53,
      "startOffset": 110,
      "word": "HISTORY"
    },
    {
      "alignedWord": "there",
      "case": "success",
      "end": 8.23,
      "endOffset": 123,
      "phones": [
        {
          "duration": 0.06,
          "phone": "dh_B"
        },
        {
          "duration": 0.08,
          "phone": "eh_I"
        },
        {
          "duration": 0.07,
          "phone": "r_E"
        }
      ],
      "start": 8.02,
      "startOffset": 118,
      "word": "THERE"
    },
    {
      "alignedWord": "had",
      "case": "success",
      "end": 8.450000000000001,
      "endOffset": 127,
      "phones": [
        {
          "duration": 0.08,
          "phone": "hh_B"
        },
        {
          "duration": 0.07,
          "phone": "ae_I"
        },
        {
          "duration": 0.06,
          "phone": "d_E"
        }
      ],
      "start": 8.24,
      "startOffset": 124,
      "word": "HAD"
    },
    {
      "alignedWord": "arisen",
      "case": "success",
      "end": 8.889999999999999,
      "endOffset": 134,
      "phones": [
        {
          "duration": 0.14,
          "phone": "er_B"
        },
        {
          "duration": 0.09,
          "phone": "ih_I"
        },
        {
          "duration": 0.08,
          "phone": "z_I"
        },
        {
          "duration": 0.07,
          "phone": "ah_I"
        },
        {
          "duration": 0.06,
          "phone": "n_E"
        }
      ],
      "start": 8.45,
      "startOffset": 128,
      "word": "ARISEN"
    },
    {
      "alignedWord": "among",
      "case": "success",
      "end": 9.169998999999999,
      "endOffset": 140,
      "phones": [
        {
          "duration": 0.03,
          "phone": "ah_B"
        },
        {
          "duration": 0.08,
          "phone": "m_I"
        },
        {
          "duration": 0.09,
          "phone": "ah_I"
        },
        {
          "duration": 0.08,
          "phone": "ng_E"
        }
      ],
      "start": 8.889999,
      "startOffset": 135,
      "word": "AMONG"
    },
    {
      "alignedWord": "the",
      "case": "success",
      "end": 9.34,
      "endOffset": 144,
      "phones": [
        {
          "duration": 0.05,
          "phone": "dh_B"
        },
        {
          "duration": 0.12,
          "phone": "iy_E"
        }
      ],
      "start": 9.17,
      "startOffset": 141,
      "word": "THE"
    },
    {
      "alignedWord": "arabs",
      "case": "success",
      "end": 9.86,
      "endOffset": 150,
      "phones": [
        {
          "duration": 0.11,
          "phone": "ae_B"
        },
        {
          "duration": 0.13,
          "phone": "r_I"
        },
        {
          "duration": 0.05,
          "phone": "ah_I"
        },
        {
          "duration": 0.11,
          "phone": "b_I"
        },
        {
          "duration": 0.12,
          "phone": "z_E"
        }
      ],
      "start": 9.34,
      "startOffset": 145,
      "word": "ARABS"
    },
    {
      "alignedWord": "one",
      "case": "success",
      "end": 10.359999,
      "endOffset": 154,
      "phones": [
        {
          "duration": 0.12,
          "phone": "w_B"
        },
        {
          "duration": 0.06,
          "phone": "ah_I"
        },
        {
          "duration": 0.04,
          "phone": "n_E"
        }
      ],
      "start": 10.139999,
      "startOffset": 151,
      "word": "ONE"
    },
    {
      "alignedWord": "of",
      "case": "success",
      "end": 10.51,
      "endOffset": 157,
      "phones": [
        {
          "duration": 0.05,
          "phone": "ah_B"
        },
        {
          "duration": 0.1,
          "phone": "v_E"
        }
      ],
      "start": 10.36,
      "startOffset": 155,
      "word": "OF"
    },
    {
      "alignedWord": "those",
      "case": "success",
      "end": 10.76,
      "endOffset": 163,
      "phones": [
        {
          "duration": 0.01,
          "phone": "dh_B"
        },
        {
          "duration": 0.12,
          "phone": "ow_I"
        },
        {
          "duration": 0.12,
          "phone": "z_E"
        }
      ],
      "start": 10.51,
      "startOffset": 158,
      "word": "THOSE"
    },
    {
      "alignedWord": "world",
      "case": "success",
      "end": 11.17,
      "endOffset": 169,
      "phones": [
        {
          "duration": 0.14,
          "phone": "w_B"
        },
        {
          "duration": 0.08,
          "phone": "er_I"
        },
        {
          "duration": 0.09,
          "phone": "l_I"
        },
        {
          "duration": 0.09,
          "phone": "d_E"
        }
      ],
      "start": 10.77,
      "startOffset": 164,
      "word": "WORLD"
    },
    {
      "alignedWord": "compelling",
      "case": "success",
      "end": 11.67,
      "endOffset": 180,
      "phones": [
        {
          "duration": 0.04,
          "phone": "k_B"
        },
        {
          "duration": 0.06,
          "phone": "ah_I"
        },
        {
          "duration": 0.04,
          "phone": "m_I"
        },
        {
          "duration": 0.07,
          "phone": "p_I"
        },
        {
          "duration": 0.07,
          "phone": "eh_I"
        },
        {
          "duration": 0.06,
          "phone": "l_I"
        },
        {
          "duration": 0.07,
          "phone": "ih_I"
        },
        {
          "duration": 0.09,
          "phone": "ng_E"
        }
      ],
      "start": 11.17,
      "startOffset": 170,
      "word": "COMPELLING"
    },
    {
      "alignedWord": "minds",
      "case": "success",
      "end": 12.29,
      "endOffset": 186,
      "phones": [
        {
          "duration": 0.07,
          "phone": "m_B"
        },
        {
          "duration": 0.25,
          "phone": "ay_I"
        },
        {
          "duration": 0.12,
          "phone": "n_I"
        },
        {
          "duration": 0.05,
          "phone": "d_I"
        },
        {
          "duration": 0.13,
          "phone": "z_E"
        }
      ],
      "start": 11.67,
      "startOffset": 181,
      "word": "MINDS"
    },
    {
      "alignedWord": "that",
      "case": "success",
      "end": 12.73,
      "endOffset": 191,
      "phones": [
        {
          "duration": 0.07,
          "phone": "dh_B"
        },
        {
          "duration": 0.06,
          "phone": "ah_I"
        },
        {
          "duration": 0.05,
          "phone": "t_E"
        }
      ],
      "start": 12.55,
      "startOffset": 187,
      "word": "THAT"
    },
    {
      "alignedWord": "are",
      "case": "success",
      "end": 12.860000000000001,
      "endOffset": 195,
      "phones": [
        {
          "duration": 0.06,
          "phone": "aa_B"
        },
        {
          "duration": 0.07,
          "phone": "r_E"
        }
      ],
      "start": 12.73,
      "startOffset": 192,
      "word": "ARE"
    },
    {
      "alignedWord": "destined",
      "case": "success",
      "end": 13.459999999999999,
      "endOffset": 204,
      "phones": [
        {
          "duration": 0.11,
          "phone": "d_B"
        },
        {
          "duration": 0.11,
          "phone": "eh_I"
        },
        {
          "duration": 0.09,
          "phone": "s_I"
        },
        {
          "duration": 0.07,
          "phone": "t_I"
        },
        {
          "duration": 0.09,
          "phone": "ih_I"
        },
        {
          "duration": 0.05,
          "phone": "n_I"
        },
        {
          "duration": 0.08,
          "phone": "d_E"
        }
      ],
      "start": 12.86,
      "startOffset": 196,
      "word": "DESTINED"
    },
    {
      "alignedWord": "to",
      "case": "success",
      "end": 13.58,
      "endOffset": 207,
      "phones": [
        {
          "duration": 0.05,
          "phone": "t_B"
        },
        {
          "duration": 0.07,
          "phone": "ih_E"
        }
      ],
      "start": 13.46,
      "startOffset": 205,
      "word": "TO"
    },
    {
      "alignedWord": "turn",
      "case": "success",
      "end": 13.95,
      "endOffset": 212,
      "phones": [
        {
          "duration": 0.13,
          "phone": "t_B"
        },
        {
          "duration": 0.19,
          "phone": "er_I"
        },
        {
          "duration": 0.05,
          "phone": "n_E"
        }
      ],
      "start": 13.58,
      "startOffset": 208,
      "word": "TURN"
    },
    {
      "alignedWord": "aside",
      "case": "success",
      "end": 14.42,
      "endOffset": 218,
      "phones": [
        {
          "duration": 0.07,
          "phone": "ah_B"
        },
        {
          "duration": 0.14,
          "phone": "s_I"
        },
        {
          "duration": 0.17,
          "phone": "ay_I"
        },
        {
          "duration": 0.09,
          "phone": "d_E"
        }
      ],
      "start": 13.95,
      "startOffset": 213,
      "word": "ASIDE"
    },
    {
      "alignedWord": "the",
      "case": "success",
      "end": 14.51,
      "endOffset": 222,
      "phones": [
        {
          "duration": 0.01,
          "phone": "dh_B"
        },
        {
          "duration": 0.08,
          "phone": "ah_E"
        }
      ],
      "start": 14.42,
      "startOffset": 219,
      "word": "THE"
    },
    {
      "alignedWord": "current",
      "case": "success",
      "end": 14.929999,
      "endOffset": 230,
      "phones": [
        {
          "duration": 0.15,
          "phone": "k_B"
        },
        {
          "duration": 0.09,
          "phone": "er_I"
        },
        {
          "duration": 0.05,
          "phone": "ah_I"
        },
        {
          "duration": 0.06,
          "phone": "n_I"
        },
        {
          "duration": 0.07,
          "phone": "t_E"
        }
      ],
      "start": 14.509999,
      "startOffset": 223,
      "word": "CURRENT"
    },
    {
      "alignedWord": "of",
      "case": "success",
      "end": 15.059999000000001,
      "endOffset": 233,
      "phones": [
        {
          "duration": 0.04,
          "phone": "ah_B"
        },
        {
          "duration": 0.09,
          "phone": "v_E"
        }
      ],
      "start": 14.929999,
      "startOffset": 231,
      "word": "OF"
    },
    {
      "alignedWord": "events",
      "case": "success",
      "end": 15.449999,
      "endOffset": 240,
      "phones": [
        {
          "duration": 0.07,
          "phone": "ih_B"
        },
        {
          "duration": 0.07,
          "phone": "v_I"
        },
        {
          "duration": 0.14,
          "phone": "eh_I"
        },
        {
          "duration": 0.05,
          "phone": "n_I"
        },
        {
          "duration": 0.05,
          "phone": "t_I"
        },
        {
          "duration": 0.01,
          "phone": "s_E"
        }
      ],
      "start": 15.059999,
      "startOffset": 234,
      "word": "EVENTS"
    }
  ]
}