{
  "transcript": "AM I SAID DOCTOR MARTINEAU AND BROUGHT A SCRUTINIZING EYE TO BEAR ON SIR RICHMOND'S FACE I WANT TO GO ON TALKING TO MISS GRAMMONT FOR A DAY OR SO SIR RICHMOND ADMITTED THEN I SHALL PREFER TO LEAVE YOUR PARTY",
  "words": [
    {
      "alignedWord": "am",
      "case": "success",
      "end": 0.51,
      "endOffset": 2,
      "phones": [
        {
          "duration": 0.16,
          "phone": "ae_B"
        },
        {
          "duration": 0.09,
          "phone": "m_E"
        }
      ],
      "start": 0.26,
      "startOffset": 0,
      "word": "AM"
    },
    {
      "alignedWord": "i",
      "case": "success",
      "end": 0.95,
      "endOffset": 4,
      "phones": [
        {
          "duration": 0.44,
          "phone": "ay_S"
        }
      ],
      "start": 0.51,
      "startOffset": 3,
      "word": "I"
    },
    {
      "alignedWord": "said",
      "case": "success",
      "end": 1.43,
      "endOffset": 9,
      "phones": [
        {
          "duration": 0.14,
          "phone": "s_B"
        },
        {
          "duration": 0.07,
          "phone": "eh_I"
        },
        {
          "duration": 0.05,
          "phone": "d_E"
        }
      ],
      "start": 1.17,
      "startOffset": 5,
      "word": "SAID"
    },
    {
      "alignedWord": "doctor",
      "case": "success",
      "end": 1.81,
      "endOffset": 16,
      "phones": [
        {
          "duration": 0.08,
          "phone": "d_B"
        },
        {
          "duration": 0.09,
          "phone": "aa_I"
        },
        {
          "duration": 0.07,
          "phone": "k_I"
        },
        {
          "duration": 0.07,
          "phone": "t_I"
        },
        {
          "duration": 0.06,
          "phone": "er_E"
        }
      ],
      "start": 1.44,
      "startOffset": 10,
      "word": "DOCTOR"
    },
    {
      "alignedWord": "<unk>",
      "case": "success",
      "end": 2.44,
      "endOffset": 26,
      "phones": [
        {
          "duration": 0.63,
          "phone": "oov_S"
        }
      ],
      "start": 1.81,
      "startOffset": 17,
      "word": "MARTINEAU"
    },
    {
      "alignedWord": "and",
      "case": "success",
      "end": 2.6700000000000004,
      "endOffset": 30,
      "phones": [
        {
          "duration": 0.06,
          "phone": "ae_B"
        },
        {
          "duration": 0.07,
          "phone": "n_I"
        },
        {
          "duration": 0.05,
          "phone": "d_E"
        }
      ],
      "start": 2.49,
      "startOffset": 27,
      "word": "AND"
    },
    {
      "alignedWord": "brought",
      "case": "success",
      "end": 2.95,
      "endOffset": 38,
      "phones": [
        {
          "duration": 0.06,
          "phone": "b_B"
        },
        {
          "duration": 0.05,
          "phone": "r_I"
        },
        {
          "duration": 0.1,
          "phone": "ao_I"
        },
        {
          "duration": 0.07,
          "phone": "t_E"
        }
      ],
      "start": 2.67,
      "startOffset": 31,
      "word": "BROUGHT"
    },
    {
      "alignedWord": "a",
      "case": "success",
      "end": 3.02,
      "endOffset": 40,
      "phones": [
        {
          "duration": 0.07,
          "phone": "ah_S"
        }
      ],
      "start": 2.95,
      "startOffset": 39,
      "word": "A"
    },
    {
      "alignedWord": "scrutinizing",
      "case": "success",
      "end": 3.79,
      "endOffset": 53,
      "phones": [
        {
          "duration": 0.09,
          "phone": "s_B"
        },
        {
          "duration": 0.05,
          "phone": "k_I"
        },
        {
          "duration": 0.05,
          "phone": "r_I"
        },
        {
          "duration": 0.05,
          "phone": "uw_I"
        },
        {
          "duration": 0.03,
          "phone": "t_I"
        },
        {
          "duration": 0.09,
          "phone": "ah_I"
        },
        {
          "duration": 0.06,
          "phone": "n_I"
        },
        {
          "duration": 0.13,
          "phone": "ay_I"
        },
        {
          "duration": 0.07,
          "phone": "z_I"
        },
        {
          "duration": 0.07,
          "phone": "ih_I"
        },
        {
          "duration": 0.08,
          "phone": "ng_E"
        }
      ],
      "start": 3.02,
      "startOffset": 41,
      "word": "SCRUTINIZING"
    },
    {
      "alignedWord": "eye",
      "case": "success",
      "end": 4.05,
      "endOffset": 57,
      "phones": [
        {
          "duration": 0.26,
          "phone": "ay_S"
        }
      ],
      "start": 3.79,
      "startOffset": 54,
      "word": "EYE"
    },
    {
      "alignedWord": "to",
      "case": "success",
      "end": 4.180000000000001,
      "endOffset": 60,
      "phones": [
        {
          "duration": 0.05,
          "phone": "t_B"
        },
        {
          "duration": 0.06,
          "phone": "ih_E"
        }
      ],
      "start": 4.07,
      "startOffset": 58,
      "word": "TO"
    },
    {
      "alignedWord": "bear",
      "case": "success",
      "end": 4.5200000000000005,
      "endOffset": 65,
      "phones": [
        {
          "duration": 0.1,
          "phone": "b_B"
        },
        {
          "duration": 0.14,
          "phone": "eh_I"
        },
        {
          "duration": 0.09,
          "phone": "r_E"
        }
      ],
      "start": 4.19,
      "startOffset": 61,
      "word": "BEAR"
    },
    {
      "alignedWord": "on",
      "case": "success",
      "end": 4.739999999999999,
      "endOffset": 68,
      "phones": [
        {
          "duration": 0.12,
          "phone": "ao_B"
        },
        {
          "duration": 0.1,
          "phone": "n_E"
        }
      ],
      "start": 4.52,
      "startOffset": 66,
      "word": "ON"
    },
    {
      "alignedWord": "sir",
      "case": "success",
      "end": 4.99,
      "endOffset": 72,
      "phones": [
        {
          "duration": 0.15,
          "phone": "s_B"
        },
        {
          "duration": 0.1,
          "phone": "er_E"
        }
      ],
      "start": 4.74,
      "startOffset": 69,
      "word": "SIR"
    },
    {
      "alignedWord": "richmond's",
      "case": "success",
      "end": 5.5,
      "endOffset": 83,
      "phones": [
        {
          "duration": 0.05,
          "phone": "r_B"
        },
        {
          "duration": 0.07,
          "phone": "ih_I"
        },
        {
          "duration": 0.11,
          "phone": "ch_I"
        },
        {
          "duration": 0.04,
          "phone": "m_I"
        },
        {
          "duration": 0.06,
          "phone": "ah_I"
        },
        {
          "duration": 0.06,
          "phone": "n_I"
        },
        {
          "duration": 0.05,
          "phone": "d_I"
        },
        {
          "duration": 0.07,
          "phone": "z_E"
        }
      ],
      "start": 4.99,
      "startOffset": 73,
      "word": "RICHMOND'S"
    },
    {
      "alignedWord": "face",
      "case": "success",
      "end": 6.09,
      "endOffset": 88,
      "phones": [
        {
          "duration": 0.11,
          "phone": "f_B"
        },
        {
          "duration": 0.21,
          "phone": "ey_I"
        },
        {
          "duration": 0.27,
          "phone": "s_E"
        }
      ],
      "start": 5.5,
      "startOffset": 84,
      "word": "FACE"
    },
    {
      "alignedWord": "i",
      "case": "success",
      "end": 6.68,
      "endOffset": 90,
      "phones": [
        {
          "duration": 0.12,
          "phone": "ay_S"
        }
      ],
      "start": 6.56,
      "startOffset": 89,
      "word": "I"
    },
    {
      "alignedWord": "want",
      "case": "success",
      "end": 6.87,
      "endOffset": 95,
      "phones": [
        {
          "duration": 0.08,
          "phone": "w_B"
        },
        {
          "duration": 0.03,
          "phone": "ao_I"
        },
        {
          "duration": 0.05,
          "phone": "n_I"
        },
        {
          "duration": 0.03,
          "phone": "t_E"
        }
      ],
      "start": 6.68,
      "startOffset": 91,
      "word": "WANT"
    },
    {
      "alignedWord": "to",
      "case": "success",
      "end": 6.98,
      "endOffset": 98,
      "phones": [
        {
          "duration": 0.04,
          "phone": "t_B"
        },
        {
          "duration": 0.07,
          "phone": "uw_E"
        }
      ],
      "start": 6.87,
      "startOffset": 96,
      "word": "TO"
    },
    {
      "alignedWord": "go",
      "case": "success",
      "end": 7.15,
      "endOffset": 101,
      "phones": [
        {
          "duration": 0.07,
          "phone": "g_B"
        },
        {
          "duration": 0.1,
          "phone": "ow_E"
        }
      ],
      "start": 6.98,
      "startOffset": 99,
      "word": "GO"
    },
    {
      "alignedWord": "on",
      "case": "success",
      "end": 7.36,
      "endOffset": 104,
      "phones": [
        {
          "duration": 0.12,
          "phone": "ao_B"
        },
        {
          "duration": 0.09,
          "phone": "n_E"
        }
      ],
      "start": 7.15,
      "startOffset": 102,
      "word": "ON"
    },
    {
      "alignedWord": "talking",
      "case": "success",
      "end": 7.8500000000000005,
      "endOffset": 112,
      "phones": [
        {
          "duration": 0.09,
          "phone": "t_B"
        },
        {
          "duration": 0.11,
          "phone": "ao_I"
        },
        {
          "duration": 0.08,
          "phone": "k_I"
        },
        {
          "duration": 0.09,
          "phone": "ih_I"
        },
        {
          "duration": 0.12,
          "phone": "ng_E"
        }
      ],
      "start": 7.36,
      "startOffset": 105,
      "word": "TALKING"
    },
    {
      "alignedWord": "to",
      "case": "success",
      "end": 7.9799999999999995,
      "endOffset": 115,
      "phones": [
        {
          "duration": 0.06,
          "phone": "t_B"
        },
        {
          "duration": 0.07,
          "phone": "uw_E"
        }
      ],
      "start": 7.85,
      "startOffset": 113,
      "word": "TO"
    },
    {
      "alignedWord": "miss",
      "case": "success",
      "end": 8.15,
      "endOffset": 120,
      "phones": [
        {
          "duration": 0.07,
          "phone": "m_B"
        },
        {
          "duration": 0.05,
          "phone": "ih_I"
        },
        {
          "duration": 0.05,
          "phone": "s_E"
        }
      ],
      "start": 7.98,
      "startOffset": 116,
      "word": "MISS"
    },
    {
      "alignedWord": "<unk>",
      "case": "success",
      "end": 8.629999,
      "endOffset": 129,
      "phones": [
        {
          "duration": 0.45,
          "phone": "oov_S"
        }
      ],
      "start": 8.179999,
      "startOffset": 121,
      "word": "GRAMMONT"
    },
    {
      "alignedWord": "for",
      "case": "success",
      "end": 8.839998999999999,
      "endOffset": 133,
      "phones": [
        {
          "duration": 0.1,
          "phone": "f_B"
        },
        {
          "duration": 0.1,
          "phone": "er_E"
        }
      ],
      "start": 8.639999,
      "startOffset": 130,
      "word": "FOR"
    },
    {
      "alignedWord": "a",
      "case": "success",
      "end": 8.89,
      "endOffset": 135,
      "phones": [
        {
          "duration": 0.05,
          "phone": "ah_S"
        }
      ],
      "start": 8.84,
      "startOffset": 134,
      "word": "A"
    },
    {
      "alignedWord": "day",
      "case": "success",
      "end": 9.149999,
      "endOffset": 139,
      "phones": [
        {
          "duration": 0.12,
          "phone": "d_B"
        },
        {
          "duration": 0.14,
          "phone": "ey_E"
        }
      ],
      "start": 8.889999,
      "startOffset": 136,
      "word": "DAY"
    },
    {
      "alignedWord": "or",
      "case": "success",
      "end": 9.290000000000001,
      "endOffset": 142,
      "phones": [
        {
          "duration": 0.14,
          "phone": "er_S"
        }
      ],
      "start": 9.15,
      "startOffset": 140,
      "word": "OR"
    },
    {
      "alignedWord": "so",
      "case": "success",
      "end": 9.75,
      "endOffset": 145,
      "phones": [
        {
          "duration": 0.12,
          "phone": "s_B"
        },
        {
          "duration": 0.34,
          "phone": "ow_E"
        }
      ],
      "start": 9.29,
      "startOffset": 143,
      "word": "SO"
    },
    {
      "alignedWord": "sir",
      "case": "success",
      "end": 10.189999,
      "endOffset": 149,
      "phones": [
        {
          "duration": 0.16,
          "phone": "s_B"
        },
        {
          "duration": 0.06,
          "phone": "er_E"
        }
      ],
      "start": 9.969999,
      "startOffset": 146,
      "word": "SIR"
    },
    {
      "alignedWord": "richmond",
      "case": "success",
      "end": 10.62,
      "endOffset": 158,
      "phones": [
        {
          "duration": 0.04,
          "phone": "r_B"
        },
        {
          "duration": 0.08,
          "phone": "ih_I"
        },
        {
          "duration": 0.11,
          "phone": "ch_I"
        },
        {
          "duration": 0.04,
          "phone": "m_I"
        },
        {
          "duration": 0.03,
          "phone": "ah_I"
        },
        {
          "duration": 0.08,
          "phone": "n_I"
        },
        {
          "duration": 0.05,
          "phone": "d_E"
        }
      ],
      "start": 10.19,
      "startOffset": 150,
      "word": "RICHMOND"
    },
    {
      "alignedWord": "admitted",
      "case": "success",
      "end": 11.199999,
      "endOffset": 167,
      "phones": [
        {
          "duration": 0.05,
          "phone": "ah_B"
        },
        {
          "duration": 0.06,
          "phone": "d_I"
        },
        {
          "duration": 0.06,
          "phone": "m_I"
        },
        {
          "duration": 0.06,
          "phone": "ih_I"
        },
        {
          "duration": 0.05,
          "phone": "t_I"
        },
        {
          "duration": 0.09,
          "phone": "ah_I"
        },
        {
          "duration": 0.19,
          "phone": "d_E"
        }
      ],
      "start": 10.639999,
      "startOffset": 159,
      "word": "ADMITTED"
    },
    {
      "alignedWord": "then",
      "case": "success",
      "end": 11.819999000000001,
      "endOffset": 172,
      "phones": [
        {
          "duration": 0.08,
          "phone": "dh_B"
        },
        {
          "duration": 0.06,
          "phone": "eh_I"
        },
        {
          "duration": 0.08,
          "phone": "n_E"
        }
      ],
      "start": 11.599999,
      "startOffset": 168,
      "word": "THEN"
    },
    {
      "alignedWord": "i",
      "case": "success",
      "end": 11.93,
      "endOffset": 174,
      "phones": [
        {
          "duration": 0.11,
          "phone": "ay_S"
        }
      ],
      "start": 11.82,
      "startOffset": 173,
      "word": "I"
    },
    {
      "alignedWord": "shall",
      "case": "success",
      "end": 12.15,
      "endOffset": 180,
      "phones": [
        {
          "duration": 0.1,
          "phone": "sh_B"
        },
        {
          "duration": 0.05,
          "phone": "ae_I"
        },
        {
          "duration": 0.06,
          "phone": "l_E"
        }
      ],
      "start": 11.94,
      "startOffset": 175,
      "word": "SHALL"
    },
    {
      "alignedWord": "prefer",
      "case": "success",
      "end": 12.57,
      "endOffset": 187,
      "phones": [
        {
          "duration": 0.07,
          "phone": "p_B"
        },
        {
          "duration": 0.04,
          "phone": "r_I"
        },
        {
          "duration": 0.06,
          "phone": "ah_I"
        },
        {
          "duration": 0.11,
          "phone": "f_I"
        },
        {
          "duration": 0.14,
          "phone": "er_E"
        }
      ],
      "start": 12.15,
      "startOffset": 181,
      "word": "PREFER"
    },
    {
      "alignedWord": "to",
      "case": "success",
      "end": 12.719999999999999,
      "endOffset": 190,
      "phones": [
        {
          "duration": 0.06,
          "phone": "t_B"
        },
        {
          "duration": 0.05,
          "phone": "uw_E"
        }
      ],
      "start": 12.61,
      "startOffset": 188,
      "word": "TO"
    },
    {
      "alignedWord": "leave",
      "case": "success",
      "end": 12.959999,
      "endOffset": 196,
      "phones": [
        {
          "duration": 0.09,
          "phone": "l_B"
        },
        {
          "duration": 0.09,
          "phone": "iy_I"
        },
        {
          "duration": 0.06,
          "phone": "v_E"
        }
      ],
      "start": 12.719999,
      "startOffset": 191,
      "word": "LEAVE"
    },
    {
      "alignedWord": "your",
      "case": "success",
      "end": 13.180000000000001,
      "endOffset": 201,
      "phones": [
        {
          "duration": 0.08,
          "phone": "y_B"
        },
        {
          "duration": 0.1,
          "phone": "ao_I"
        },
        {
          "duration": 0.04,
          "phone": "r_E"
        }
      ],
      "start": 12.96,
      "startOffset": 197,
      "word": "YOUR"
    },
    {
      "alignedWord": "party",
      "case": "success",
      "end": 13.749999,
      "endOffset": 207,
      "phones": [
        {
          "duration": 0.11,
          "phone": "p_B"
        },
        {
          "duration": 0.13,
          "phone": "aa_I"
        },
        {
          "duration": 0.04,
          "phone": "r_I"
        },
        {
          "duration": 0.07,
          "phone": "t_I"
        },
        {
          "duration": 0.22,
          "phone": "iy_E"
        }
      ],
      "start": 13.179999,
      "startOffset": 202,
      "word": "PARTY"
    }
  ]
}