{
  "transcript": "THE GREAT DAILIES WERE THOUGHT GREY NOT WICKED ONLY GENERAL AND VAGUE THE FREE PRESS IN ITS BEGINNINGS DID NOT ATTACK AS AN ENEMY IT ONLY TIMIDLY CLAIMED TO BE HEARD IT REGARDED ITSELF AS A SPECIALITY IT WAS HUMBLE AND THERE WENT WITH IT A MASS OF EX CENTRIC STUFF",
  "words": [
    {
      "alignedWord": "the",
      "case": "success",
      "end": 0.64,
      "endOffset": 3,
      "phones": [
        {
          "duration": 0.08,
          "phone": "dh_B"
        },
        {
          "duration": 0.06,
          "phone": "ah_E"
        }
      ],
      "start": 0.5,
      "startOffset": 0,
      "word": "THE"
    },
    {
      "alignedWord": "great",
      "case": "success",
      "end": 0.95,
      "endOffset": 9,
      "phones": [
        {
          "duration": 0.08,
          "phone": "g_B"
        },
        {
          "duration": 0.1,
          "phone": "r_I"
        },
        {
          "duration": 0.05,
          "phone": "ey_I"
        },
        {
          "duration": 0.08,
          "phone": "t_E"
        }
      ],
      "start": 0.64,
      "startOffset": 4,
      "word": "GREAT"
    },
    {
      "alignedWord": "dailies",
      "case": "success",
      "end": 1.46,
      "endOffset": 17,
      "phones": [
        {
          "duration": 0.09,
          "phone": "d_B"
        },
        {
          "duration": 0.13,
          "phone": "ey_I"
        },
        {
          "duration": 0.08,
          "phone": "l_I"
        },
        {
          "duration": 0.1,
          "phone": "iy_I"
        },
        {
          "duration": 0.11,
          "phone": "z_E"
        }
      ],
      "start": 0.95,
      "startOffset": 10,
      "word": "DAILIES"
    },
    {
      "alignedWord": "were",
      "case": "success",
      "end": 1.6099999999999999,
      "endOffset": 22,
      "phones": [
        {
          "duration": 0.09,
          "phone": "w_B"
        },
        {
          "duration": 0.06,
          "phone": "er_E"
        }
      ],
      "start": 1.46,
      "startOffset": 18,
      "word": "WERE"
    },
    {
      "alignedWord": "thought",
      "case": "success",
      "end": 1.87,
      "endOffset": 30,
      "phones": [
        {
          "duration": 0.08,
          "phone": "th_B"
        },
        {
          "duration": 0.09,
          "phone": "ao_I"
        },
        {
          "duration": 0.09,
          "phone": "t_E"
        }
      ],
      "start": 1.61,
      "startOffset": 23,
      "word": "THOUGHT"
    },
    {
      "alignedWord": "grey",
      "case": "success",
      "end": 2.32,
      "endOffset": 35,
      "phones": [
        {
          "duration": 0.09,
          "phone": "g_B"
        },
        {
          "duration": 0.11,
          "phone": "r_I"
        },
        {
          "duration": 0.23,
          "phone": "ey_E"
        }
      ],
      "start": 1.89,
      "startOffset": 31,
      "word": "GREY"
    },
    {
      "alignedWord": "not",
      "case": "success",
      "end": 2.67,
      "endOffset": 39,
      "phones": [
        {
          "duration": 0.11,
          "phone": "n_B"
        },
        {
          "duration": 0.1,
          "phone": "aa_I"
        },
        {
          "duration": 0.08,
          "phone": "t_E"
        }
      ],
      "start": 2.38,
      "startOffset": 36,
      "word": "NOT"
    },
    {
      "alignedWord": "wicked",
      "case": "success",
      "end": 3.19,
      "endOffset": 46,
      "phones": [
        {
          "duration": 0.06,
          "phone": "w_B"
        },
        {
          "duration": 0.12,
          "phone": "ih_I"
        },
        {
          "duration": 0.09,
          "phone": "k_I"
        },
        {
          "duration": 0.12,
          "phone": "ah_I"
        },
        {
          "duration": 0.13,
          "phone": "d_E"
        }
      ],
      "start": 2.67,
      "startOffset": 40,
      "word": "WICKED"
    },
    {
      "alignedWord": "only",
      "case": "success",
      "end": 3.5799999999999996,
      "endOffset": 51,
      "phones": [
        {
          "duration": 0.11,
          "phone": "ow_B"
        },
        {
          "duration": 0.08,
          "phone": "n_I"
        },
        {
          "duration": 0.06,
          "phone": "l_I"
        },
        {
          "duration": 0.07,
          "phone": "iy_E"
        }
      ],
      "start": 3.26,
      "startOffset": 47,
      "word": "ONLY"
    },
    {
      "alignedWord": "general",
      "case": "success",
      "end": 4.0,
      "endOffset": 59,
      "phones": [
        {
          "duration": 0.08,
          "phone": "jh_B"
        },
        {
          "duration": 0.06,
          "phone": "eh_I"
        },
        {
          "duration": 0.05,
          "phone": "n_I"
        },
        {
          "duration": 0.07,
          "phone": "er_I"
        },
        {
          "duration": 0.08,
          "phone": "ah_I"
        },
        {
          "duration": 0.08,
          "phone": "l_E"
        }
      ],
      "start": 3.58,
      "startOffset": 52,
      "word": "GENERAL"
    },
    {
      "alignedWord": "and",
      "case": "success",
      "end": 4.11,
      "endOffset": 63,
      "phones": [
        {
          "duration": 0.04,
          "phone": "ae_B"
        },
        {
          "duration": 0.03,
          "phone": "n_I"
        },
        {
          "duration": 0.04,
          "phone": "d_E"
        }
      ],
      "start": 4.0,
      "startOffset": 60,
      "word": "AND"
    },
    {
      "alignedWord": "vague",
      "case": "success",
      "end": 4.49,
      "endOffset": 69,
      "phones": [
        {
          "duration": 0.11,
          "phone": "v_B"
        },
        {
          "duration": 0.13,
          "phone": "ey_I"
        },
        {
          "duration": 0.14,
          "phone": "g_E"
        }
      ],
      "start": 4.11,
      "startOffset": 64,
      "word": "VAGUE"
    },
    {
      "alignedWord": "the",
      "case": "success",
      "end": 5.11,
      "endOffset": 73,
      "phones": [
        {
          "duration": 0.07,
          "phone": "dh_B"
        },
        {
          "duration": 0.06,
          "phone": "ah_E"
        }
      ],
      "start": 4.98,
      "startOffset": 70,
      "word": "THE"
    },
    {
      "alignedWord": "free",
      "case": "success",
      "end": 5.36,
      "endOffset": 78,
      "phones": [
        {
          "duration": 0.08,
          "phone": "f_B"
        },
        {
          "duration": 0.09,
          "phone": "r_I"
        },
        {
          "duration": 0.08,
          "phone": "iy_E"
        }
      ],
      "start": 5.11,
      "startOffset": 74,
      "word": "FREE"
    },
    {
      "alignedWord": "press",
      "case": "success",
      "end": 5.71,
      "endOffset": 84,
      "phones": [
        {
          "duration": 0.11,
          "phone": "p_B"
        },
        {
          "duration": 0.07,
          "phone": "r_I"
        },
        {
          "duration": 0.1,
          "phone": "eh_I"
        },
        {
          "duration": 0.07,
          "phone": "s_E"
        }
      ],
      "start": 5.36,
      "startOffset": 79,
      "word": "PRESS"
    },
    {
      "alignedWord": "in",
      "case": "success",
      "end": 5.8500000000000005,
      "endOffset": 87,
      "phones": [
        {
          "duration": 0.08,
          "phone": "ih_B"
        },
        {
          "duration": 0.04,
          "phone": "n_E"
        }
      ],
      "start": 5.73,
      "startOffset": 85,
      "word": "IN"
    },
    {
      "alignedWord": "its",
      "case": "success",
      "end": 5.989999999999999,
      "endOffset": 91,
      "phones": [
        {
          "duration": 0.05,
          "phone": "ih_B"
        },
        {
          "duration": 0.03,
          "phone": "t_I"
        },
        {
          "duration": 0.06,
          "phone": "s_E"
        }
      ],
      "start": 5.85,
      "startOffset": 88,
      "word": "ITS"
    },
    {
      "alignedWord": "beginnings",
      "case": "success",
      "end": 6.41,
      "endOffset": 102,
      "phones": [
        {
          "duration": 0.04,
          "phone": "b_B"
        },
        {
          "duration": 0.07,
          "phone": "ih_I"
        },
        {
          "duration": 0.05,
          "phone": "g_I"
        },
        {
          "duration": 0.07,
          "phone": "ih_I"
        },
        {
          "duration": 0.01,
          "phone": "n_I"
        },
        {
          "duration": 0.07,
          "phone": "ih_I"
        },
        {
          "duration": 0.05,
          "phone": "ng_I"
        },
        {
          "duration": 0.06,
          "phone": "z_E"
        }
      ],
      "start": 5.99,
      "startOffset": 92,
      "word": "BEGINNINGS"
    },
    {
      "alignedWord": "did",
      "case": "success",
      "end": 6.57,
      "endOffset": 106,
      "phones": [
        {
          "duration": 0.06,
          "phone": "d_B"
        },
        {
          "duration": 0.04,
          "phone": "ih_I"
        },
        {
          "duration": 0.06,
          "phone": "d_E"
        }
      ],
      "start": 6.41,
      "startOffset": 103,
      "word": "DID"
    },
    {
      "alignedWord": "not",
      "case": "success",
      "end": 6.74,
      "endOffset": 110,
      "phones": [
        {
          "duration": 0.02,
          "phone": "n_B"
        },
        {
          "duration": 0.11,
          "phone": "aa_I"
        },
        {
          "duration": 0.04,
          "phone": "t_E"
        }
      ],
      "start": 6.57,
      "startOffset": 107,
      "word": "NOT"
    },
    {
      "alignedWord": "attack",
      "case": "success",
      "end": 7.31,
      "endOffset": 117,
      "phones": [
        {
          "duration": 0.09,
          "phone": "ah_B"
        },
        {
          "duration": 0.15,
          "phone": "t_I"
        },
        {
          "duration": 0.18,
          "phone": "ae_I"
        },
        {
          "duration": 0.12,
          "phone": "k_E"
        }
      ],
      "start": 6.77,
      "startOffset": 111,
      "word": "ATTACK"
    },
    {
      "alignedWord": "as",
      "case": "success",
      "end": 7.46,
      "endOffset": 120,
      "phones": [
        {
          "duration": 0.08,
          "phone": "eh_B"
        },
        {
          "duration": 0.06,
          "phone": "z_E"
        }
      ],
      "start": 7.32,
      "startOffset": 118,
      "word": "AS"
    },
    {
      "alignedWord": "an",
      "case": "success",
      "end": 7.55,
      "endOffset": 123,
      "phones": [
        {
          "duration": 0.04,
          "phone": "ah_B"
        },
        {
          "duration": 0.05,
          "phone": "n_E"
        }
      ],
      "start": 7.46,
      "startOffset": 121,
      "word": "AN"
    },
    {
      "alignedWord": "enemy",
      "case": "success",
      "end": 7.9399999999999995,
      "endOffset": 129,
      "phones": [
        {
          "duration": 0.07,
          "phone": "eh_B"
        },
        {
          "duration": 0.08,
          "phone": "n_I"
        },
        {
          "duration": 0.02,
          "phone": "ah_I"
        },
        {
          "duration": 0.06,
          "phone": "m_I"
        },
        {
          "duration": 0.16,
          "phone": "iy_E"
        }
      ],
      "start": 7.55,
      "startOffset": 124,
      "word": "ENEMY"
    },
    {
      "alignedWord": "it",
      "case": "success",
      "end": 8.29,
      "endOffset": 132,
      "phones": [
        {
          "duration": 0.11,
          "phone": "ih_B"
        },
        {
          "duration": 0.06,
          "phone": "t_E"
        }
      ],
      "start": 8.12,
      "startOffset": 130,
      "word": "IT"
    },
    {
      "alignedWord": "only",
      "case": "success",
      "end": 8.53,
      "endOffset": 137,
      "phones": [
        {
          "duration": 0.05,
          "phone": "ow_B"
        },
        {
          "duration": 0.06,
          "phone": "n_I"
        },
        {
          "duration": 0.03,
          "phone": "l_I"
        },
        {
          "duration": 0.1,
          "phone": "iy_E"
        }
      ],
      "start": 8.29,
      "startOffset": 133,
      "word": "ONLY"
    },
    {
      "alignedWord": "<unk>",
      "case": "success",
      "end": 9.049999,
      "endOffset": 145,
      "phones": [
        {
          "duration": 0.49,
          "phone": "oov_S"
        }
      ],
      "start": 8.559999,
      "startOffset": 138,
      "word": "TIMIDLY"
    },
    {
      "alignedWord": "claimed",
      "case": "success",
      "end": 9.359999,
      "endOffset": 153,
      "phones": [
        {
          "duration": 0.09,
          "phone": "k_B"
        },
        {
          "duration": 0.06,
          "phone": "l_I"
        },
        {
          "duration": 0.08,
          "phone": "ey_I"
        },
        {
          "duration": 0.06,
          "phone": "m_I"
        },
        {
          "duration": 0.01,
          "phone": "d_E"
        }
      ],
      "start": 9.059999,
      "startOffset": 146,
      "word": "CLAIMED"
    },
    {
      "alignedWord": "to",
      "case": "success",
      "end": 9.479999999999999,
      "endOffset": 156,
      "phones": [
        {
          "duration": 0.06,
          "phone": "t_B"
        },
        {
          "duration": 0.05,
          "phone": "ih_E"
        }
      ],
      "start": 9.37,
      "startOffset": 154,
      "word": "TO"
    },
    {
      "alignedWord": "be",
      "case": "success",
      "end": 9.620000000000001,
      "endOffset": 159,
      "phones": [
        {
          "duration": 0.06,
          "phone": "b_B"
        },
        {
          "duration": 0.08,
          "phone": "iy_E"
        }
      ],
      "start": 9.48,
      "startOffset": 157,
      "word": "BE"
    },
    {
      "alignedWord": "heard",
      "case": "success",
      "end": 10.01,
      "endOffset": 165,
      "phones": [
        {
          "duration": 0.08,
          "phone": "hh_B"
        },
        {
          "duration": 0.14,
          "phone": "er_I"
        },
        {
          "duration": 0.17,
          "phone": "d_E"
        }
      ],
      "start": 9.62,
      "startOffset": 160,
      "word": "HEARD"
    },
    {
      "alignedWord": "it",
      "case": "success",
      "end": 10.36,
      "endOffset": 168,
      "phones": [
        {
          "duration": 0.08,
          "phone": "ih_B"
        },
        {
          "duration": 0.09,
          "phone": "t_E"
        }
      ],
      "start": 10.19,
      "startOffset": 166,
      "word": "IT"
    },
    {
      "alignedWord": "regarded",
      "case": "success",
      "end": 10.799999999999999,
      "endOffset": 177,
      "phones": [
        {
          "duration": 0.01,
          "phone": "r_B"
        },
        {
          "duration": 0.08,
          "phone": "ah_I"
        },
        {
          "duration": 0.06,
          "phone": "g_I"
        },
        {
          "duration": 0.05,
          "phone": "aa_I"
        },
        {
          "duration": 0.06,
          "phone": "r_I"
        },
        {
          "duration": 0.06,
          "phone": "d_I"
        },
        {
          "duration": 0.07,
          "phone": "ah_I"
        },
        {
          "duration": 0.05,
          "phone": "d_E"
        }
      ],
      "start": 10.36,
      "startOffset": 169,
      "word": "REGARDED"
    },
    {
      "alignedWord": "itself",
      "case": "success",
      "end": 11.22,
      "endOffset": 184,
      "phones": [
        {
          "duration": 0.04,
          "phone": "ih_B"
        },
        {
          "duration": 0.07,
          "phone": "t_I"
        },
        {
          "duration": 0.08,
          "phone": "s_I"
        },
        {
          "duration": 0.09,
          "phone": "eh_I"
        },
        {
          "duration": 0.07,
          "phone": "l_I"
        },
        {
          "duration": 0.07,
          "phone": "f_E"
        }
      ],
      "start": 10.8,
      "startOffset": 178,
      "word": "ITSELF"
    },
    {
      "alignedWord": "as",
      "case": "success",
      "end": 11.42,
      "endOffset": 187,
      "phones": [
        {
          "duration": 0.12,
          "phone": "eh_B"
        },
        {
          "duration": 0.06,
          "phone": "z_E"
        }
      ],
      "start": 11.24,
      "startOffset": 185,
      "word": "AS"
    },
    {
      "alignedWord": "a",
      "case": "success",
      "end": 11.5,
      "endOffset": 189,
      "phones": [
        {
          "duration": 0.08,
          "phone": "ah_S"
        }
      ],
      "start": 11.42,
      "startOffset": 188,
      "word": "A"
    },
    {
      "alignedWord": "speciality",
      "case": "success",
      "end": 12.4,
      "endOffset": 200,
      "phones": [
        {
          "duration": 0.08,
          "phone": "s_B"
        },
        {
          "duration": 0.07,
          "phone": "p_I"
        },
        {
          "duration": 0.08,
          "phone": "eh_I"
        },
        {
          "duration": 0.11,
          "phone": "sh_I"
        },
        {
          "duration": 0.11,
          "phone": "iy_I"
        },
        {
          "duration": 0.09,
          "phone": "ae_I"
        },
        {
          "duration": 0.08,
          "phone": "l_I"
        },
        {
          "duration": 0.05,
          "phone": "ih_I"
        },
        {
          "duration": 0.05,
          "phone": "t_I"
        },
        {
          "duration": 0.18,
          "phone": "iy_E"
        }
      ],
      "start": 11.5,
      "startOffset": 190,
      "word": "SPECIALITY"
    },
    {
      "alignedWord": "it",
      "case": "success",
      "end": 12.99,
      "endOffset": 203,
      "phones": [
        {
          "duration": 0.09,
          "phone": "ih_B"
        },
        {
          "duration": 0.07,
          "phone": "t_E"
        }
      ],
      "start": 12.83,
      "startOffset": 201,
      "word": "IT"
    },
    {
      "alignedWord": "was",
      "case": "success",
      "end": 13.16,
      "endOffset": 207,
      "phones": [
        {
          "duration": 0.04,
          "phone": "w_B"
        },
        {
          "duration": 0.06,
          "phone": "ah_I"
        },
        {
          "duration": 0.07,
          "phone": "z_E"
        }
      ],
      "start": 12.99,
      "startOffset": 204,
      "word": "WAS"
    },
    {
      "alignedWord": "humble",
      "case": "success",
      "end": 13.68,
      "endOffset": 214,
      "phones": [
        {
          "duration": 0.06,
          "phone": "hh_B"
        },
        {
          "duration": 0.07,
          "phone": "ah_I"
        },
        {
          "duration": 0.06,
          "phone": "m_I"
        },
        {
          "duration": 0.01,
          "phone": "b_I"
        },
        {
          "duration": 0.07,
          "phone": "ah_I"
        },
        {
          "duration": 0.25,
          "phone": "l_E"
        }
      ],
      "start": 13.16,
      "startOffset": 208,
      "word": "HUMBLE"
    },
    {
      "alignedWord": "and",
      "case": "success",
      "end": 14.099999,
      "endOffset": 218,
      "phones": [
        {
          "duration": 0.08,
          "phone": "ae_B"
        },
        {
          "duration": 0.06,
          "phone": "n_I"
        },
        {
          "duration": 0.03,
          "phone": "d_E"
        }
      ],
      "start": 13.929999,
      "startOffset": 215,
      "word": "AND"
    },
    {
      "alignedWord": "there",
      "case": "success",
      "end": 14.219999,
      "endOffset": 224,
      "phones": [
        {
          "duration": 0.01,
          "phone": "dh_B"
        },
        {
          "duration": 0.05,
          "phone": "eh_I"
        },
        {
          "duration": 0.06,
          "phone": "r_E"
        }
      ],
      "start": 14.099999,
      "startOffset": 219,
      "word": "THERE"
    },
    {
      "alignedWord": "went",
      "case": "success",
      "end": 14.449999,
      "endOffset": 229,
      "phones": [
        {
          "duration": 0.06,
          "phone": "w_B"
        },
        {
          "duration": 0.07,
          "phone": "eh_I"
        },
        {
          "duration": 0.04,
          "phone": "n_I"
        },
        {
          "duration": 0.06,
          "phone": "t_E"
        }
      ],
      "start": 14.219999,
      "startOffset": 225,
      "word": "WENT"
    },
    {
      "alignedWord": "with",
      "case": "success",
      "end": 14.67,
      "endOffset": 234,
      "phones": [
        {
          "duration": 0.08,
          "phone": "w_B"
        },
        {
          "duration": 0.09,
          "phone": "ih_I"
        },
        {
          "duration": 0.05,
          "phone": "th_E"
        }
      ],
      "start": 14.45,
      "startOffset": 230,
      "word": "WITH"
    },
    {
      "alignedWord": "it",
      "case": "success",
      "end": 14.84,
      "endOffset": 237,
      "phones": [
        {
          "duration": 0.09,
          "phone": "ih_B"
        },
        {
          "duration": 0.08,
          "phone": "t_E"
        }
      ],
      "start": 14.67,
      "startOffset": 235,
      "word": "IT"
    },
    {
      "alignedWord": "a",
      "case": "success",
      "end": 14.95,
      "endOffset": 239,
      "phones": [
        {
          "duration": 0.09,
          "phone": "ah_S"
        }
      ],
      "start": 14.86,
      "startOffset": 238,
      "word": "A"
    },
    {
      "alignedWord": "mass",
      "case": "success",
      "end": 15.25,
      "endOffset": 244,
      "phones": [
        {
          "duration": 0.1,
          "phone": "m_B"
        },
        {
          "duration": 0.12,
          "phone": "ae_I"
        },
        {
          "duration": 0.08,
          "phone": "s_E"
        }
      ],
      "start": 14.95,
      "startOffset": 240,
      "word": "MASS"
    },
    {
      "alignedWord": "of",
      "case": "success",
      "end": 15.37,
      "endOffset": 247,
      "phones": [
        {
          "duration": 0.06,
          "phone": "ah_B"
        },
        {
          "duration": 0.06,
          "phone": "v_E"
        }
      ],
      "start": 15.25,
      "startOffset": 245,
      "word": "OF"
    },
    {
      "alignedWord": "ex",
      "case": "success",
      "end": 15.479999999999999,
      "endOffset": 250,
      "phones": [
        {
          "duration": 0.03,
          "phone": "eh_B"
        },
        {
          "duration": 0.07,
          "phone": "k_I"
        },
        {
          "duration": 0.01,
          "phone": "s_E"
        }
      ],
      "start": 15.37,
      "startOffset": 248,
      "word": "EX"
    },
    {
      "alignedWord": "<unk>",
      "case": "success",
      "end": 15.860000000000001,
      "endOffset": 258,
      "phones": [
        {
          "duration": 0.38,
          "phone": "oov_S"
        }
      ],
      "start": 15.48,
      "startOffset": 251,
      "word": "CENTRIC"
    },
    {
      "alignedWord": "stuff",
      "case": "success",
      "end": 16.31,
      "endOffset": 264,
      "phones": [
        {
          "duration": 0.07,
          "phone": "s_B"
        },
        {
          "duration": 0.06,
          "phone": "t_I"
        },
        {
          "duration": 0.12,
          "phone": "ah_I"
        },
        {
          "duration": 0.19,
          "phone": "f_E"
        }
      ],
      "start": 15.87,
      "startOffset": 259,
      "word": "STUFF"
    }
  ]
}