{
  "transcript": "AND HAVE CONCLUDED NOT TO GET YOURSELF SCORCHED TO A CINDER IN ATTEMPTING TO TAME MY BRAZEN LUNGED BULLS",
  "words": [
    {
      "alignedWord": "and",
      "case": "success",
      "end": 0.35,
      "endOffset": 3,
      "phones": [
        {
          "duration": 0.09,
          "phone": "ae_B"
        },
        {
          "duration": 0.04,
          "phone": "n_I"
        },
        {
          "duration": 0.04,
          "phone": "d_E"
        }
      ],
      "start": 0.18,
      "startOffset": 0,
      "word": "AND"
    },
    {
      "alignedWord": "have",
      "case": "success",
      "end": 0.52,
      "endOffset": 8,
      "phones": [
        {
          "duration": 0.05,
          "phone": "hh_B"
        },
        {
          "duration": 0.06,
          "phone": "ae_I"
        },
        {
          "duration": 0.06,
          "phone": "v_E"
        }
      ],
      "start": 0.35,
      "startOffset": 4,
      "word": "HAVE"
    },
    {
      "alignedWord": "concluded",
      "case": "success",
      "end": 1.32,
      "endOffset": 18,
      "phones": [
        {
          "duration": 0.06,
          "phone": "k_B"
        },
        {
          "duration": 0.06,
          "phone": "ah_I"
        },
        {
          "duration": 0.1,
          "phone": "n_I"
        },
        {
          "duration": 0.11,
          "phone": "k_I"
        },
        {
          "duration": 0.08,
          "phone": "l_I"
        },
        {
          "duration": 0.08,
          "phone": "uw_I"
        },
        {
          "duration": 0.05,
          "phone": "d_I"
        },
        {
          "duration": 0.11,
          "phone": "ih_I"
        },
        {
          "duration": 0.15,
          "phone": "d_E"
        }
      ],
      "start": 0.52,
      "startOffset": 9,
      "word": "CONCLUDED"
    },
    {
      "alignedWord": "not",
      "case": "success",
      "end": 1.5399999999999998,
      "endOffset": 22,
      "phones": [
        {
          "duration": 0.07,
          "phone": "n_B"
        },
        {
          "duration": 0.06,
          "phone": "aa_I"
        },
        {
          "duration": 0.02,
          "phone": "t_E"
        }
      ],
      "start": 1.39,
      "startOffset": 19,
      "word": "NOT"
    },
    {
      "alignedWord": "to",
      "case": "success",
      "end": 1.6800000000000002,
      "endOffset": 25,
      "phones": [
        {
          "duration": 0.06,
          "phone": "t_B"
        },
        {
          "duration": 0.04,
          "phone": "ih_E"
        }
      ],
      "start": 1.58,
      "startOffset": 23,
      "word": "TO"
    },
    {
      "alignedWord": "get",
      "case": "success",
      "end": 1.8399999999999999,
      "endOffset": 29,
      "phones": [
        {
          "duration": 0.04,
          "phone": "g_B"
        },
        {
          "duration": 0.06,
          "phone": "eh_I"
        },
        {
          "duration": 0.06,
          "phone": "t_E"
        }
      ],
      "start": 1.68,
      "startOffset": 26,
      "word": "GET"
    },
    {
      "alignedWord": "yourself",
      "case": "success",
      "end": 2.19,
      "endOffset": 38,
      "phones": [
        {
          "duration": 0.06,
          "phone": "y_B"
        },
        {
          "duration": 0.01,
          "phone": "uh_I"
        },
        {
          "duration": 0.05,
          "phone": "r_I"
        },
        {
          "duration": 0.07,
          "phone": "s_I"
        },
        {
          "duration": 0.06,
          "phone": "eh_I"
        },
        {
          "duration": 0.05,
          "phone": "l_I"
        },
        {
          "duration": 0.05,
          "phone": "f_E"
        }
      ],
      "start": 1.84,
      "startOffset": 30,
      "word": "YOURSELF"
    },
    {
      "alignedWord": "<unk>",
      "case": "success",
      "end": 2.64,
      "endOffset": 47,
      "phones": [
        {
          "duration": 0.44,
          "phone": "oov_S"
        }
      ],
      "start": 2.2,
      "startOffset": 39,
      "word": "SCORCHED"
    },
    {
      "alignedWord": "to",
      "case": "success",
      "end": 2.79,
      "endOffset": 50,
      "phones": [
        {
          "duration": 0.07,
          "phone": "t_B"
        },
        {
          "duration": 0.05,
          "phone": "uw_E"
        }
      ],
      "start": 2.67,
      "startOffset": 48,
      "word": "TO"
    },
    {
      "alignedWord": "a",
      "case": "success",
      "end": 2.89,
      "endOffset": 52,
      "phones": [
        {
          "duration": 0.1,
          "phone": "ah_S"
        }
      ],
      "start": 2.79,
      "startOffset": 51,
      "word": "A"
    },
    {
      "alignedWord": "cinder",
      "case": "success",
      "end": 3.4000000000000004,
      "endOffset": 59,
      "phones": [
        {
          "duration": 0.1,
          "phone": "s_B"
        },
        {
          "duration": 0.09,
          "phone": "ih_I"
        },
        {
          "duration": 0.05,
          "phone": "n_I"
        },
        {
          "duration": 0.09,
          "phone": "d_I"
        },
        {
          "duration": 0.18,
          "phone": "er_E"
        }
      ],
      "start": 2.89,
      "startOffset": 53,
      "word": "CINDER"
    },
    {
      "alignedWord": "in",
      "case": "success",
      "end": 3.92,
      "endOffset": 62,
      "phones": [
        {
          "duration": 0.09,
          "phone": "ih_B"
        },
        {
          "duration": 0.06,
          "phone": "n_E"
        }
      ],
      "start": 3.77,
      "startOffset": 60,
      "word": "IN"
    },
    {
      "alignedWord": "attempting",
      "case": "success",
      "end": 4.3,
      "endOffset": 73,
      "phones": [
        {
          "duration": 0.06,
          "phone": "ah_B"
        },
        {
          "duration": 0.06,
          "phone": "t_I"
        },
        {
          "duration": 0.07,
          "phone": "eh_I"
        },
        {
          "duration": 0.01,
          "phone": "m_I"
        },
        {
          "duration": 0.05,
          "phone": "p_I"
        },
        {
          "duration": 0.04,
          "phone": "t_I"
        },
        {
          "duration": 0.03,
          "phone": "ih_I"
        },
        {
          "duration": 0.06,
          "phone": "ng_E"
        }
      ],
      "start": 3.92,
      "startOffset": 63,
      "word": "ATTEMPTING"
    },
    {
      "alignedWord": "to",
      "case": "success",
      "end": 4.41,
      "endOffset": 76,
      "phones": [
        {
          "duration": 0.05,
          "phone": "t_B"
        },
        {
          "duration": 0.06,
          "phone": "ah_E"
        }
      ],
      "start": 4.3,
      "startOffset": 74,
      "word": "TO"
    },
    {
      "alignedWord": "tame",
      "case": "success",
      "end": 4.92,
      "endOffset": 81,
      "phones": [
        {
          "duration": 0.18,
          "phone": "t_B"
        },
        {
          "duration": 0.19,
          "phone": "ey_I"
        },
        {
          "duration": 0.14,
          "phone": "m_E"
        }
      ],
      "start": 4.41,
      "startOffset": 77,
      "word": "TAME"
    },
    {
      "alignedWord": "my",
      "case": "success",
      "end": 5.32,
      "endOffset": 84,
      "phones": [
        {
          "duration": 0.11,
          "phone": "m_B"
        },
        {
          "duration": 0.1,
          "phone": "ay_E"
        }
      ],
      "start": 5.11,
      "startOffset": 82,
      "word": "MY"
    },
    {
      "alignedWord": "brazen",
      "case": "success",
      "end": 5.8100000000000005,
      "endOffset": 91,
      "phones": [
        {
          "duration": 0.09,
          "phone": "b_B"
        },
        {
          "duration": 0.08,
          "phone": "r_I"
        },
        {
          "duration": 0.1,
          "phone": "ey_I"
        },
        {
          "duration": 0.05,
          "phone": "z_I"
        },
        {
          "duration": 0.07,
          "phone": "ah_I"
        },
        {
          "duration": 0.1,
          "phone": "n_E"
        }
      ],
      "start": 5.32,
      "startOffset": 85,
      "word": "BRAZEN"
    },
    {
      "alignedWord": "<unk>",
      "case": "success",
      "end": 6.109999999999999,
      "endOffset": 98,
      "phones": [
        {
          "duration": 0.3,
          "phone": "oov_S"
        }
      ],
      "start": 5.81,
      "startOffset": 92,
      "word": "LUNGED"
    },
    {
      "alignedWord": "bulls",
      "case": "success",
      "end": 6.72,
      "endOffset": 104,
      "phones": [
        {
          "duration": 0.1,
          "phone": "b_B"
        },
        {
          "duration": 0.05,
          "phone": "uh_I"
        },
        {
          "duration": 0.17,
          "phone": "l_I"
        },
        {
          "duration": 0.27,
          "phone": "z_E"
        }
      ],
      "start": 6.13,
      "startOffset": 99,
      "word": "BULLS"
    }
  ]
}