{
  "transcript": "OH VERY WELL IF YOU'RE GOING TO DROP ALL YOUR FORMER FRIENDS GO ON THEN BUT WHEN I'M MARRIED THERE WILL ALWAYS BE A PLACE FOR UNDERSTAND ONCE AND FOR ALL SAID UDO ANGRILY THAT I AM NOT GETTING MARRIED NO DON'T TAKE MY ARM",
  "words": [
    {
      "alignedWord": "oh",
      "case": "success",
      "end": 0.43,
      "endOffset": 2,
      "phones": [
        {
          "duration": 0.18,
          "phone": "ow_S"
        }
      ],
      "start": 0.25,
      "startOffset": 0,
      "word": "OH"
    },
    {
      "alignedWord": "very",
      "case": "success",
      "end": 0.75,
      "endOffset": 7,
      "phones": [
        {
          "duration": 0.11,
          "phone": "v_B"
        },
        {
          "duration": 0.06,
          "phone": "eh_I"
        },
        {
          "duration": 0.09,
          "phone": "r_I"
        },
        {
          "duration": 0.06,
          "phone": "iy_E"
        }
      ],
      "start": 0.43,
      "startOffset": 3,
      "word": "VERY"
    },
    {
      "alignedWord": "well",
      "case": "success",
      "end": 0.98,
      "endOffset": 12,
      "phones": [
        {
          "duration": 0.08,
          "phone": "w_B"
        },
        {
          "duration": 0.07,
          "phone": "eh_I"
        },
        {
          "duration": 0.08,
          "phone": "l_E"
        }
      ],
      "start": 0.75,
      "startOffset": 8,
      "word": "WELL"
    },
    {
      "alignedWord": "if",
      "case": "success",
      "end": 1.07,
      "endOffset": 15,
      "phones": [
        {
          "duration": 0.04,
          "phone": "ih_B"
        },
        {
          "duration": 0.05,
          "phone": "f_E"
        }
      ],
      "start": 0.98,
      "startOffset": 13,
      "word": "IF"
    },
    {
      "alignedWord": "you're",
      "case": "success",
      "end": 1.19,
      "endOffset": 22,
      "phones": [
        {
          "duration": 0.04,
          "phone": "y_B"
        },
        {
          "duration": 0.01,
          "phone": "uh_I"
        },
        {
          "duration": 0.07,
          "phone": "r_E"
        }
      ],
      "start": 1.07,
      "startOffset": 16,
      "word": "YOU'RE"
    },
    {
      "alignedWord": "going",
      "case": "success",
      "end": 1.39,
      "endOffset": 28,
      "phones": [
        {
          "duration": 0.05,
          "phone": "g_B"
        },
        {
          "duration": 0.06,
          "phone": "ow_I"
        },
        {
          "duration": 0.06,
          "phone": "ih_I"
        },
        {
          "duration": 0.03,
          "phone": "ng_E"
        }
      ],
      "start": 1.19,
      "startOffset": 23,
      "word": "GOING"
    },
    {
      "alignedWord": "to",
      "case": "success",
      "end": 1.5,
      "endOffset": 31,
      "phones": [
        {
          "duration": 0.05,
          "phone": "t_B"
        },
        {
          "duration": 0.06,
          "phone": "ih_E"
        }
      ],
      "start": 1.39,
      "startOffset": 29,
      "word": "TO"
    },
    {
      "alignedWord": "drop",
      "case": "success",
      "end": 1.8,
      "endOffset": 36,
      "phones": [
        {
          "duration": 0.07,
          "phone": "d_B"
        },
        {
          "duration": 0.06,
          "phone": "r_I"
        },
        {
          "duration": 0.07,
          "phone": "aa_I"
        },
        {
          "duration": 0.1,
          "phone": "p_E"
        }
      ],
      "start": 1.5,
      "startOffset": 32,
      "word": "DROP"
    },
    {
      "alignedWord": "all",
      "case": "success",
      "end": 2.11,
      "endOffset": 40,
      "phones": [
        {
          "duration": 0.19,
          "phone": "ao_B"
        },
        {
          "duration": 0.11,
          "phone": "l_E"
        }
      ],
      "start": 1.81,
      "startOffset": 37,
      "word": "ALL"
    },
    {
      "alignedWord": "your",
      "case": "success",
      "end": 2.29,
      "endOffset": 45,
      "phones": [
        {
          "duration": 0.05,
          "phone": "y_B"
        },
        {
          "duration": 0.05,
          "phone": "uh_I"
        },
        {
          "duration": 0.08,
          "phone": "r_E"
        }
      ],
      "start": 2.11,
      "startOffset": 41,
      "word": "YOUR"
    },
    {
      "alignedWord": "former",
      "case": "success",
      "end": 2.6799999999999997,
      "endOffset": 52,
      "phones": [
        {
          "duration": 0.09,
          "phone": "f_B"
        },
        {
          "duration": 0.07,
          "phone": "ao_I"
        },
        {
          "duration": 0.04,
          "phone": "r_I"
        },
        {
          "duration": 0.09,
          "phone": "m_I"
        },
        {
          "duration": 0.09,
          "phone": "er_E"
        }
      ],
      "start": 2.3,
      "startOffset": 46,
      "word": "FORMER"
    },
    {
      "alignedWord": "friends",
      "case": "success",
      "end": 3.0700000000000003,
      "endOffset": 60,
      "phones": [
        {
          "duration": 0.08,
          "phone": "f_B"
        },
        {
          "duration": 0.05,
          "phone": "r_I"
        },
        {
          "duration": 0.08,
          "phone": "eh_I"
        },
        {
          "duration": 0.1,
          "phone": "n_I"
        },
        {
          "duration": 0.08,
          "phone": "z_E"
        }
      ],
      "start": 2.68,
      "startOffset": 53,
      "word": "FRIENDS"
    },
    {
      "alignedWord": "go",
      "case": "success",
      "end": 3.25,
      "endOffset": 63,
      "phones": [
        {
          "duration": 0.07,
          "phone": "g_B"
        },
        {
          "duration": 0.11,
          "phone": "ow_E"
        }
      ],
      "start": 3.07,
      "startOffset": 61,
      "word": "GO"
    },
    {
      "alignedWord": "on",
      "case": "success",
      "end": 3.48,
      "endOffset": 66,
      "phones": [
        {
          "duration": 0.15,
          "phone": "ao_B"
        },
        {
          "duration": 0.08,
          "phone": "n_E"
        }
      ],
      "start": 3.25,
      "startOffset": 64,
      "word": "ON"
    },
    {
      "alignedWord": "then",
      "case": "success",
      "end": 3.8,
      "endOffset": 71,
      "phones": [
        {
          "duration": 0.06,
          "phone": "dh_B"
        },
        {
          "duration": 0.1,
          "phone": "eh_I"
        },
        {
          "duration": 0.16,
          "phone": "n_E"
        }
      ],
      "start": 3.48,
      "startOffset": 67,
      "word": "THEN"
    },
    {
      "alignedWord": "but",
      "case": "success",
      "end": 4.26,
      "endOffset": 75,
      "phones": [
        {
          "duration": 0.07,
          "phone": "b_B"
        },
        {
          "duration": 0.05,
          "phone": "ah_I"
        },
        {
          "duration": 0.05,
          "phone": "t_E"
        }
      ],
      "start": 4.09,
      "startOffset": 72,
      "word": "BUT"
    },
    {
      "alignedWord": "when",
      "case": "success",
      "end": 4.47,
      "endOffset": 80,
      "phones": [
        {
          "duration": 0.05,
          "phone": "w_B"
        },
        {
          "duration": 0.07,
          "phone": "eh_I"
        },
        {
          "duration": 0.09,
          "phone": "n_E"
        }
      ],
      "start": 4.26,
      "startOffset": 76,
      "word": "WHEN"
    },
    {
      "alignedWord": "i'm",
      "case": "success",
      "end": 4.87,
      "endOffset": 84,
      "phones": [
        {
          "duration": 0.26,
          "phone": "ay_B"
        },
        {
          "duration": 0.1,
          "phone": "m_E"
        }
      ],
      "start": 4.51,
      "startOffset": 81,
      "word": "I'M"
    },
    {
      "alignedWord": "married",
      "case": "success",
      "end": 5.2700000000000005,
      "endOffset": 92,
      "phones": [
        {
          "duration": 0.05,
          "phone": "m_B"
        },
        {
          "duration": 0.09,
          "phone": "eh_I"
        },
        {
          "duration": 0.09,
          "phone": "r_I"
        },
        {
          "duration": 0.08,
          "phone": "iy_I"
        },
        {
          "duration": 0.09,
          "phone": "d_E"
        }
      ],
      "start": 4.87,
      "startOffset": 85,
      "word": "MARRIED"
    },
    {
      "alignedWord": "there",
      "case": "success",
      "end": 5.3999999999999995,
      "endOffset": 98,
      "phones": [
        {
          "duration": 0.01,
          "phone": "dh_B"
        },
        {
          "duration": 0.07,
          "phone": "eh_I"
        },
        {
          "duration": 0.05,
          "phone": "r_E"
        }
      ],
      "start": 5.27,
      "startOffset": 93,
      "word": "THERE"
    },
    {
      "alignedWord": "will",
      "case": "success",
      "end": 5.57,
      "endOffset": 103,
      "phones": [
        {
          "duration": 0.03,
          "phone": "w_B"
        },
        {
          "duration": 0.06,
          "phone": "ih_I"
        },
        {
          "duration": 0.08,
          "phone": "l_E"
        }
      ],
      "start": 5.4,
      "startOffset": 99,
      "word": "WILL"
    },
    {
      "alignedWord": "always",
      "case": "success",
      "end": 6.17,
      "endOffset": 110,
      "phones": [
        {
          "duration": 0.13,
          "phone": "ao_B"
        },
        {
          "duration": 0.06,
          "phone": "l_I"
        },
        {
          "duration": 0.11,
          "phone": "w_I"
        },
        {
          "duration": 0.11,
          "phone": "ey_I"
        },
        {
          "duration": 0.09,
          "phone": "z_E"
        }
      ],
      "start": 5.67,
      "startOffset": 104,
      "word": "ALWAYS"
    },
    {
      "alignedWord": "be",
      "case": "success",
      "end": 6.340000000000001,
      "endOffset": 113,
      "phones": [
        {
          "duration": 0.08,
          "phone": "b_B"
        },
        {
          "duration": 0.07,
          "phone": "iy_E"
        }
      ],
      "start": 6.19,
      "startOffset": 111,
      "word": "BE"
    },
    {
      "alignedWord": "a",
      "case": "success",
      "end": 6.39,
      "endOffset": 115,
      "phones": [
        {
          "duration": 0.05,
          "phone": "ah_S"
        }
      ],
      "start": 6.34,
      "startOffset": 114,
      "word": "A"
    },
    {
      "alignedWord": "place",
      "case": "success",
      "end": 6.72,
      "endOffset": 121,
      "phones": [
        {
          "duration": 0.1,
          "phone": "p_B"
        },
        {
          "duration": 0.08,
          "phone": "l_I"
        },
        {
          "duration": 0.08,
          "phone": "ey_I"
        },
        {
          "duration": 0.07,
          "phone": "s_E"
        }
      ],
      "start": 6.39,
      "startOffset": 116,
      "word": "PLACE"
    },
    {
      "alignedWord": "for",
      "case": "success",
      "end": 7.069999999999999,
      "endOffset": 125,
      "phones": [
        {
          "duration": 0.09,
          "phone": "f_B"
        },
        {
          "duration": 0.1,
          "phone": "ao_I"
        },
        {
          "duration": 0.16,
          "phone": "r_E"
        }
      ],
      "start": 6.72,
      "startOffset": 122,
      "word": "FOR"
    },
    {
      "alignedWord": "understand",
      "case": "success",
      "end": 9.07,
      "endOffset": 136,
      "phones": [
        {
          "duration": 0.12,
          "phone": "ah_B"
        },
        {
          "duration": 0.09,
          "phone": "n_I"
        },
        {
          "duration": 0.09,
          "phone": "d_I"
        },
        {
          "duration": 0.08,
          "phone": "er_I"
        },
        {
          "duration": 0.16,
          "phone": "s_I"
        },
        {
          "duration": 0.09,
          "phone": "t_I"
        },
        {
          "duration": 0.2,
          "phone": "ae_I"
        },
        {
          "duration": 0.09,
          "phone": "n_I"
        },
        {
          "duration": 0.1,
          "phone": "d_E"
        }
      ],
      "start": 8.05,
      "startOffset": 126,
      "word": "UNDERSTAND"
    },
    {
      "alignedWord": "once",
      "case": "success",
      "end": 9.63,
      "endOffset": 141,
      "phones": [
        {
          "duration": 0.16,
          "phone": "w_B"
        },
        {
          "duration": 0.12,
          "phone": "ah_I"
        },
        {
          "duration": 0.11,
          "phone": "n_I"
        },
        {
          "duration": 0.16,
          "phone": "s_E"
        }
      ],
      "start": 9.08,
      "startOffset": 137,
      "word": "ONCE"
    },
    {
      "alignedWord": "and",
      "case": "success",
      "end": 9.9,
      "endOffset": 145,
      "phones": [
        {
          "duration": 0.13,
          "phone": "ae_B"
        },
        {
          "duration": 0.06,
          "phone": "n_I"
        },
        {
          "duration": 0.05,
          "phone": "d_E"
        }
      ],
      "start": 9.66,
      "startOffset": 142,
      "word": "AND"
    },
    {
      "alignedWord": "for",
      "case": "success",
      "end": 10.1,
      "endOffset": 149,
      "phones": [
        {
          "duration": 0.09,
          "phone": "f_B"
        },
        {
          "duration": 0.04,
          "phone": "ao_I"
        },
        {
          "duration": 0.06,
          "phone": "r_E"
        }
      ],
      "start": 9.91,
      "startOffset": 146,
      "word": "FOR"
    },
    {
      "alignedWord": "all",
      "case": "success",
      "end": 10.629999,
      "endOffset": 153,
      "phones": [
        {
          "duration": 0.17,
          "phone": "ao_B"
        },
        {
          "duration": 0.36,
          "phone": "l_E"
        }
      ],
      "start": 10.099999,
      "startOffset": 150,
      "word": "ALL"
    },
    {
      "alignedWord": "said",
      "case": "success",
      "end": 11.22,
      "endOffset": 158,
      "phones": [
        {
          "duration": 0.18,
          "phone": "s_B"
        },
        {
          "duration": 0.08,
          "phone": "eh_I"
        },
        {
          "duration": 0.08,
          "phone": "d_E"
        }
      ],
      "start": 10.88,
      "startOffset": 154,
      "word": "SAID"
    },
    {
      "alignedWord": "<unk>",
      "case": "success",
      "end": 11.569999000000001,
      "endOffset": 162,
      "phones": [
        {
          "duration": 0.31,
          "phone": "oov_S"
        }
      ],
      "start": 11.259999,
      "startOffset": 159,
      "word": "UDO"
    },
    {
      "alignedWord": "<unk>",
      "case": "success",
      "end": 12.249999,
      "endOffset": 170,
      "phones": [
        {
          "duration": 0.65,
          "phone": "oov_S"
        }
      ],
      "start": 11.599999,
      "startOffset": 163,
      "word": "ANGRILY"
    },
    {
      "alignedWord": "that",
      "case": "success",
      "end": 12.61,
      "endOffset": 175,
      "phones": [
        {
          "duration": 0.1,
          "phone": "dh_B"
        },
        {
          "duration": 0.07,
          "phone": "ah_I"
        },
        {
          "duration": 0.07,
          "phone": "t_E"
        }
      ],
      "start": 12.37,
      "startOffset": 171,
      "word": "THAT"
    },
    {
      "alignedWord": "i",
      "case": "success",
      "end": 12.719999999999999,
      "endOffset": 177,
      "phones": [
        {
          "duration": 0.11,
          "phone": "ay_S"
        }
      ],
      "start": 12.61,
      "startOffset": 176,
      "word": "I"
    },
    {
      "alignedWord": "am",
      "case": "success",
      "end": 12.989999,
      "endOffset": 180,
      "phones": [
        {
          "duration": 0.13,
          "phone": "ae_B"
        },
        {
          "duration": 0.14,
          "phone": "m_E"
        }
      ],
      "start": 12.719999,
      "startOffset": 178,
      "word": "AM"
    },
    {
      "alignedWord": "not",
      "case": "success",
      "end": 13.38,
      "endOffset": 184,
      "phones": [
        {
          "duration": 0.01,
          "phone": "n_B"
        },
        {
          "duration": 0.24,
          "phone": "aa_I"
        },
        {
          "duration": 0.14,
          "phone": "t_E"
        }
      ],
      "start": 12.99,
      "startOffset": 181,
      "word": "NOT"
    },
    {
      "alignedWord": "getting",
      "case": "success",
      "end": 13.72,
      "endOffset": 192,
      "phones": [
        {
          "duration": 0.07,
          "phone": "g_B"
        },
        {
          "duration": 0.07,
          "phone": "ih_I"
        },
        {
          "duration": 0.01,
          "phone": "t_I"
        },
        {
          "duration": 0.08,
          "phone": "ih_I"
        },
        {
          "duration": 0.08,
          "phone": "ng_E"
        }
      ],
      "start": 13.41,
      "startOffset": 185,
      "word": "GETTING"
    },
    {
      "alignedWord": "married",
      "case": "success",
      "end": 14.229999,
      "endOffset": 200,
      "phones": [
        {
          "duration": 0.06,
          "phone": "m_B"
        },
        {
          "duration": 0.11,
          "phone": "eh_I"
        },
        {
          "duration": 0.1,
          "phone": "r_I"
        },
        {
          "duration": 0.12,
          "phone": "iy_I"
        },
        {
          "duration": 0.12,
          "phone": "d_E"
        }
      ],
      "start": 13.719999,
      "startOffset": 193,
      "word": "MARRIED"
    },
    {
      "alignedWord": "no",
      "case": "success",
      "end": 14.76,
      "endOffset": 203,
      "phones": [
        {
          "duration": 0.15,
          "phone": "n_B"
        },
        {
          "duration": 0.17,
          "phone": "ow_E"
        }
      ],
      "start": 14.44,
      "startOffset": 201,
      "word": "NO"
    },
    {
      "alignedWord": "don't",
      "case": "success",
      "end": 15.03,
      "endOffset": 209,
      "phones": [
        {
          "duration": 0.09,
          "phone": "d_B"
        },
        {
          "duration": 0.09,
          "phone": "ow_I"
        },
        {
          "duration": 0.04,
          "phone": "n_I"
        },
        {
          "duration": 0.04,
          "phone": "t_E"
        }
      ],
      "start": 14.77,
      "startOffset": 204,
      "word": "DON'T"
    },
    {
      "alignedWord": "take",
      "case": "success",
      "end": 15.229999999999999,
      "endOffset": 214,
      "phones": [
        {
          "duration": 0.05,
          "phone": "t_B"
        },
        {
          "duration": 0.07,
          "phone": "ey_I"
        },
        {
          "duration": 0.07,
          "phone": "k_E"
        }
      ],
      "start": 15.04,
      "startOffset": 210,
      "word": "TAKE"
    },
    {
      "alignedWord": "my",
      "case": "success",
      "end": 15.370000000000001,
      "endOffset": 217,
      "phones": [
        {
          "duration": 0.05,
          "phone": "m_B"
        },
        {
          "duration": 0.09,
          "phone": "ay_E"
        }
      ],
      "start": 15.23,
      "startOffset": 215,
      "word": "MY"
    },
    {
      "alignedWord": "arm",
      "case": "success",
      "end": 15.639999999999999,
      "endOffset": 221,
      "phones": [
        {
          "duration": 0.16,
          "phone": "aa_B"
        },
        {
          "duration": 0.11,
          "phone": "r_I"
        }
      ],
      "start": 15.37,
      "startOffset": 218,
      "word": "ARM"
    }
  ]
}