{
  "transcript": "THE SMUGGLERS GOT OFF CLEAR BUT THEY SAY THE HUE AND CRY IS UP ALREADY AND THAT A HEAD PRICE WILL BE FIXED OF TWENTY POUND SO IF I SELL YOU A FOWLING PIECE MAYBE I SHALL DO WRONG AND HAVE THE GOVERNMENT UPON ME AS WELL AS MY MASTER THE SURPRISE IN HIS VOICE WAS CHANGED TO SUSPICION",
  "words": [
    {
      "alignedWord": "the",
      "case": "success",
      "end": 0.59,
      "endOffset": 3,
      "phones": [
        {
          "duration": 0.08,
          "phone": "dh_B"
        },
        {
          "duration": 0.07,
          "phone": "ah_E"
        }
      ],
      "start": 0.44,
      "startOffset": 0,
      "word": "THE"
    },
    {
      "alignedWord": "smugglers",
      "case": "success",
      "end": 1.02,
      "endOffset": 13,
      "phones": [
        {
          "duration": 0.08,
          "phone": "s_B"
        },
        {
          "duration": 0.05,
          "phone": "m_I"
        },
        {
          "duration": 0.08,
          "phone": "ah_I"
        },
        {
          "duration": 0.04,
          "phone": "g_I"
        },
        {
          "duration": 0.02,
          "phone": "ah_I"
        },
        {
          "duration": 0.06,
          "phone": "l_I"
        },
        {
          "duration": 0.04,
          "phone": "er_I"
        },
        {
          "duration": 0.06,
          "phone": "z_E"
        }
      ],
      "start": 0.59,
      "startOffset": 4,
      "word": "SMUGGLERS"
    },
    {
      "alignedWord": "got",
      "case": "success",
      "end": 1.1600000000000001,
      "endOffset": 17,
      "phones": [
        {
          "duration": 0.05,
          "phone": "g_B"
        },
        {
          "duration": 0.05,
          "phone": "aa_I"
        },
        {
          "duration": 0.04,
          "phone": "t_E"
        }
      ],
      "start": 1.02,
      "startOffset": 14,
      "word": "GOT"
    },
    {
      "alignedWord": "off",
      "case": "success",
      "end": 1.3299999999999998,
      "endOffset": 21,
      "phones": [
        {
          "duration": 0.07,
          "phone": "ao_B"
        },
        {
          "duration": 0.1,
          "phone": "f_E"
        }
      ],
      "start": 1.16,
      "startOffset": 18,
      "word": "OFF"
    },
    {
      "alignedWord": "clear",
      "case": "success",
      "end": 1.96,
      "endOffset": 27,
      "phones": [
        {
          "duration": 0.1,
          "phone": "k_B"
        },
        {
          "duration": 0.06,
          "phone": "l_I"
        },
        {
          "duration": 0.1,
          "phone": "ih_I"
        },
        {
          "duration": 0.35,
          "phone": "r_E"
        }
      ],
      "start": 1.35,
      "startOffset": 22,
      "word": "CLEAR"
    },
    {
      "alignedWord": "but",
      "case": "success",
      "end": 2.2,
      "endOffset": 31,
      "phones": [
        {
          "duration": 0.07,
          "phone": "b_B"
        },
        {
          "duration": 0.04,
          "phone": "ah_I"
        },
        {
          "duration": 0.07,
          "phone": "t_E"
        }
      ],
      "start": 2.02,
      "startOffset": 28,
      "word": "BUT"
    },
    {
      "alignedWord": "they",
      "case": "success",
      "end": 2.33,
      "endOffset": 36,
      "phones": [
        {
          "duration": 0.03,
          "phone": "dh_B"
        },
        {
          "duration": 0.1,
          "phone": "ey_E"
        }
      ],
      "start": 2.2,
      "startOffset": 32,
      "word": "THEY"
    },
    {
      "alignedWord": "say",
      "case": "success",
      "end": 2.47,
      "endOffset": 40,
      "phones": [
        {
          "duration": 0.07,
          "phone": "s_B"
        },
        {
          "duration": 0.07,
          "phone": "ey_E"
        }
      ],
      "start": 2.33,
      "startOffset": 37,
      "word": "SAY"
    },
    {
      "alignedWord": "the",
      "case": "success",
      "end": 2.5700000000000003,
      "endOffset": 44,
      "phones": [
        {
          "duration": 0.05,
          "phone": "dh_B"
        },
        {
          "duration": 0.05,
          "phone": "ah_E"
        }
      ],
      "start": 2.47,
      "startOffset": 41,
      "word": "THE"
    },
    {
      "alignedWord": "hue",
      "case": "success",
      "end": 2.77,
      "endOffset": 48,
      "phones": [
        {
          "duration": 0.07,
          "phone": "hh_B"
        },
        {
          "duration": 0.05,
          "phone": "y_I"
        },
        {
          "duration": 0.08,
          "phone": "uw_E"
        }
      ],
      "start": 2.57,
      "startOffset": 45,
      "word": "HUE"
    },
    {
      "alignedWord": "and",
      "case": "success",
      "end": 2.93,
      "endOffset": 52,
      "phones": [
        {
          "duration": 0.05,
          "phone": "ah_B"
        },
        {
          "duration": 0.05,
          "phone": "n_I"
        },
        {
          "duration": 0.06,
          "phone": "d_E"
        }
      ],
      "start": 2.77,
      "startOffset": 49,
      "word": "AND"
    },
    {
      "alignedWord": "cry",
      "case": "success",
      "end": 3.17,
      "endOffset": 56,
      "phones": [
        {
          "duration": 0.08,
          "phone": "k_B"
        },
        {
          "duration": 0.07,
          "phone": "r_I"
        },
        {
          "duration": 0.09,
          "phone": "ay_E"
        }
      ],
      "start": 2.93,
      "startOffset": 53,
      "word": "CRY"
    },
    {
      "alignedWord": "is",
      "case": "success",
      "end": 3.31,
      "endOffset": 59,
      "phones": [
        {
          "duration": 0.08,
          "phone": "ih_B"
        },
        {
          "duration": 0.06,
          "phone": "z_E"
        }
      ],
      "start": 3.17,
      "startOffset": 57,
      "word": "IS"
    },
    {
      "alignedWord": "up",
      "case": "success",
      "end": 3.47,
      "endOffset": 62,
      "phones": [
        {
          "duration": 0.09,
          "phone": "ah_B"
        },
        {
          "duration": 0.07,
          "phone": "p_E"
        }
      ],
      "start": 3.31,
      "startOffset": 60,
      "word": "UP"
    },
    {
      "alignedWord": "already",
      "case": "success",
      "end": 4.07,
      "endOffset": 70,
      "phones": [
        {
          "duration": 0.05,
          "phone": "ao_B"
        },
        {
          "duration": 0.06,
          "phone": "l_I"
        },
        {
          "duration": 0.1,
          "phone": "r_I"
        },
        {
          "duration": 0.07,
          "phone": "eh_I"
        },
        {
          "duration": 0.06,
          "phone": "d_I"
        },
        {
          "duration": 0.24,
          "phone": "iy_E"
        }
      ],
      "start": 3.49,
      "startOffset": 63,
      "word": "ALREADY"
    },
    {
      "alignedWord": "and",
      "case": "success",
      "end": 4.49,
      "endOffset": 74,
      "phones": [
        {
          "duration": 0.08,
          "phone": "ah_B"
        },
        {
          "duration": 0.05,
          "phone": "n_I"
        },
        {
          "duration": 0.06,
          "phone": "d_E"
        }
      ],
      "start": 4.3,
      "startOffset": 71,
      "word": "AND"
    },
    {
      "alignedWord": "that",
      "case": "success",
      "end": 4.59,
      "endOffset": 79,
      "phones": [
        {
          "duration": 0.01,
          "phone": "dh_B"
        },
        {
          "duration": 0.06,
          "phone": "ah_I"
        },
        {
          "duration": 0.03,
          "phone": "t_E"
        }
      ],
      "start": 4.49,
      "startOffset": 75,
      "word": "THAT"
    },
    {
      "alignedWord": "a",
      "case": "success",
      "end": 4.64,
      "endOffset": 81,
      "phones": [
        {
          "duration": 0.05,
          "phone": "ah_S"
        }
      ],
      "start": 4.59,
      "startOffset": 80,
      "word": "A"
    },
    {
      "alignedWord": "head",
      "case": "success",
      "end": 4.859999999999999,
      "endOffset": 86,
      "phones": [
        {
          "duration": 0.06,
          "phone": "hh_B"
        },
        {
          "duration": 0.08,
          "phone": "eh_I"
        },
        {
          "duration": 0.08,
          "phone": "d_E"
        }
      ],
      "start": 4.64,
      "startOffset": 82,
      "word": "HEAD"
    },
    {
      "alignedWord": "price",
      "case": "success",
      "end": 5.130000000000001,
      "endOffset": 92,
      "phones": [
        {
          "duration": 0.06,
          "phone": "p_B"
        },
        {
          "duration": 0.04,
          "phone": "r_I"
        },
        {
          "duration": 0.08,
          "phone": "ay_I"
        },
        {
          "duration": 0.09,
          "phone": "s_E"
        }
      ],
      "start": 4.86,
      "startOffset": 87,
      "word": "PRICE"
    },
    {
      "alignedWord": "will",
      "case": "success",
      "end": 5.2299999999999995,
      "endOffset": 97,
      "phones": [
        {
          "duration": 0.03,
          "phone": "w_B"
        },
        {
          "duration": 0.05,
          "phone": "ih_I"
        },
        {
          "duration": 0.02,
          "phone": "l_E"
        }
      ],
      "start": 5.13,
      "startOffset": 93,
      "word": "WILL"
    },
    {
      "alignedWord": "be",
      "case": "success",
      "end": 5.3500000000000005,
      "endOffset": 100,
      "phones": [
        {
          "duration": 0.06,
          "phone": "b_B"
        },
        {
          "duration": 0.06,
          "phone": "iy_E"
        }
      ],
      "start": 5.23,
      "startOffset": 98,
      "word": "BE"
    },
    {
      "alignedWord": "fixed",
      "case": "success",
      "end": 5.72,
      "endOffset": 106,
      "phones": [
        {
          "duration": 0.11,
          "phone": "f_B"
        },
        {
          "duration": 0.09,
          "phone": "ih_I"
        },
        {
          "duration": 0.08,
          "phone": "k_I"
        },
        {
          "duration": 0.04,
          "phone": "s_I"
        },
        {
          "duration": 0.05,
          "phone": "t_E"
        }
      ],
      "start": 5.35,
      "startOffset": 101,
      "word": "FIXED"
    },
    {
      "alignedWord": "of",
      "case": "success",
      "end": 5.84,
      "endOffset": 109,
      "phones": [
        {
          "duration": 0.05,
          "phone": "ah_B"
        },
        {
          "duration": 0.07,
          "phone": "v_E"
        }
      ],
      "start": 5.72,
      "startOffset": 107,
      "word": "OF"
    },
    {
      "alignedWord": "twenty",
      "case": "success",
      "end": 6.16,
      "endOffset": 116,
      "phones": [
        {
          "duration": 0.06,
          "phone": "t_B"
        },
        {
          "duration": 0.06,
          "phone": "w_I"
        },
        {
          "duration": 0.03,
          "phone": "eh_I"
        },
        {
          "duration": 0.04,
          "phone": "n_I"
        },
        {
          "duration": 0.06,
          "phone": "t_I"
        },
        {
          "duration": 0.07,
          "phone": "iy_E"
        }
      ],
      "start": 5.84,
      "startOffset": 110,
      "word": "TWENTY"
    },
    {
      "alignedWord": "pound",
      "case": "success",
      "end": 6.68,
      "endOffset": 122,
      "phones": [
        {
          "duration": 0.09,
          "phone": "p_B"
        },
        {
          "duration": 0.21,
          "phone": "aw_I"
        },
        {
          "duration": 0.1,
          "phone": "n_I"
        },
        {
          "duration": 0.12,
          "phone": "d_E"
        }
      ],
      "start": 6.16,
      "startOffset": 117,
      "word": "POUND"
    },
    {
      "alignedWord": "so",
      "case": "success",
      "end": 7.75,
      "endOffset": 125,
      "phones": [
        {
          "duration": 0.15,
          "phone": "s_B"
        },
        {
          "duration": 0.06,
          "phone": "ow_E"
        }
      ],
      "start": 7.54,
      "startOffset": 123,
      "word": "SO"
    },
    {
      "alignedWord": "if",
      "case": "success",
      "end": 7.89,
      "endOffset": 128,
      "phones": [
        {
          "duration": 0.06,
          "phone": "ih_B"
        },
        {
          "duration": 0.08,
          "phone": "f_E"
        }
      ],
      "start": 7.75,
      "startOffset": 126,
      "word": "IF"
    },
    {
      "alignedWord": "i",
      "case": "success",
      "end": 8.02,
      "endOffset": 130,
      "phones": [
        {
          "duration": 0.13,
          "phone": "ay_S"
        }
      ],
      "start": 7.89,
      "startOffset": 129,
      "word": "I"
    },
    {
      "alignedWord": "sell",
      "case": "success",
      "end": 8.219999999999999,
      "endOffset": 135,
      "phones": [
        {
          "duration": 0.07,
          "phone": "s_B"
        },
        {
          "duration": 0.08,
          "phone": "eh_I"
        },
        {
          "duration": 0.04,
          "phone": "l_E"
        }
      ],
      "start": 8.03,
      "startOffset": 131,
      "word": "SELL"
    },
    {
      "alignedWord": "you",
      "case": "success",
      "end": 8.370000000000001,
      "endOffset": 139,
      "phones": [
        {
          "duration": 0.08,
          "phone": "y_B"
        },
        {
          "duration": 0.07,
          "phone": "uw_E"
        }
      ],
      "start": 8.22,
      "startOffset": 136,
      "word": "YOU"
    },
    {
      "alignedWord": "a",
      "case": "success",
      "end": 8.43,
      "endOffset": 141,
      "phones": [
        {
          "duration": 0.06,
          "phone": "ah_S"
        }
      ],
      "start": 8.37,
      "startOffset": 140,
      "word": "A"
    },
    {
      "alignedWord": "<unk>",
      "case": "success",
      "end": 8.759999,
      "endOffset": 149,
      "phones": [
        {
          "duration": 0.33,
          "phone": "oov_S"
        }
      ],
      "start": 8.429999,
      "startOffset": 142,
      "word": "FOWLING"
    },
    {
      "alignedWord": "piece",
      "case": "success",
      "end": 9.19,
      "endOffset": 155,
      "phones": [
        {
          "duration": 0.08,
          "phone": "p_B"
        },
        {
          "duration": 0.14,
          "phone": "iy_I"
        },
        {
          "duration": 0.19,
          "phone": "s_E"
        }
      ],
      "start": 8.78,
      "startOffset": 150,
      "word": "PIECE"
    },
    {
      "alignedWord": "maybe",
      "case": "success",
      "end": 9.57,
      "endOffset": 161,
      "phones": [
        {
          "duration": 0.12,
          "phone": "m_B"
        },
        {
          "duration": 0.08,
          "phone": "ey_I"
        },
        {
          "duration": 0.06,
          "phone": "b_I"
        },
        {
          "duration": 0.07,
          "phone": "iy_E"
        }
      ],
      "start": 9.24,
      "startOffset": 156,
      "word": "MAYBE"
    },
    {
      "alignedWord": "i",
      "case": "success",
      "end": 9.64,
      "endOffset": 163,
      "phones": [
        {
          "duration": 0.07,
          "phone": "ay_S"
        }
      ],
      "start": 9.57,
      "startOffset": 162,
      "word": "I"
    },
    {
      "alignedWord": "shall",
      "case": "success",
      "end": 9.829998999999999,
      "endOffset": 169,
      "phones": [
        {
          "duration": 0.11,
          "phone": "sh_B"
        },
        {
          "duration": 0.03,
          "phone": "ae_I"
        },
        {
          "duration": 0.05,
          "phone": "l_E"
        }
      ],
      "start": 9.639999,
      "startOffset": 164,
      "word": "SHALL"
    },
    {
      "alignedWord": "do",
      "case": "success",
      "end": 9.98,
      "endOffset": 172,
      "phones": [
        {
          "duration": 0.07,
          "phone": "d_B"
        },
        {
          "duration": 0.08,
          "phone": "uw_E"
        }
      ],
      "start": 9.83,
      "startOffset": 170,
      "word": "DO"
    },
    {
      "alignedWord": "wrong",
      "case": "success",
      "end": 10.450000000000001,
      "endOffset": 178,
      "phones": [
        {
          "duration": 0.11,
          "phone": "r_B"
        },
        {
          "duration": 0.18,
          "phone": "ao_I"
        },
        {
          "duration": 0.18,
          "phone": "ng_E"
        }
      ],
      "start": 9.98,
      "startOffset": 173,
      "word": "WRONG"
    },
    {
      "alignedWord": "and",
      "case": "success",
      "end": 10.68,
      "endOffset": 182,
      "phones": [
        {
          "duration": 0.04,
          "phone": "ah_B"
        },
        {
          "duration": 0.04,
          "phone": "n_I"
        },
        {
          "duration": 0.06,
          "phone": "d_E"
        }
      ],
      "start": 10.54,
      "startOffset": 179,
      "word": "AND"
    },
    {
      "alignedWord": "have",
      "case": "success",
      "end": 10.839999,
      "endOffset": 187,
      "phones": [
        {
          "duration": 0.05,
          "phone": "hh_B"
        },
        {
          "duration": 0.04,
          "phone": "ae_I"
        },
        {
          "duration": 0.07,
          "phone": "v_E"
        }
      ],
      "start": 10.679999,
      "startOffset": 183,
      "word": "HAVE"
    },
    {
      "alignedWord": "the",
      "case": "success",
      "end": 10.92,
      "endOffset": 191,
      "phones": [
        {
          "duration": 0.02,
          "phone": "dh_B"
        },
        {
          "duration": 0.06,
          "phone": "ah_E"
        }
      ],
      "start": 10.84,
      "startOffset": 188,
      "word": "THE"
    },
    {
      "alignedWord": "government",
      "case": "success",
      "end": 11.3,
      "endOffset": 202,
      "phones": [
        {
          "duration": 0.05,
          "phone": "g_B"
        },
        {
          "duration": 0.07,
          "phone": "ah_I"
        },
        {
          "duration": 0.06,
          "phone": "v_I"
        },
        {
          "duration": 0.03,
          "phone": "er_I"
        },
        {
          "duration": 0.05,
          "phone": "m_I"
        },
        {
          "duration": 0.04,
          "phone": "ah_I"
        },
        {
          "duration": 0.03,
          "phone": "n_I"
        },
        {
          "duration": 0.05,
          "phone": "t_E"
        }
      ],
      "start": 10.92,
      "startOffset": 192,
      "word": "GOVERNMENT"
    },
    {
      "alignedWord": "upon",
      "case": "success",
      "end": 11.58,
      "endOffset": 207,
      "phones": [
        {
          "duration": 0.05,
          "phone": "ah_B"
        },
        {
          "duration": 0.07,
          "phone": "p_I"
        },
        {
          "duration": 0.07,
          "phone": "aa_I"
        },
        {
          "duration": 0.09,
          "phone": "n_E"
        }
      ],
      "start": 11.3,
      "startOffset": 203,
      "word": "UPON"
    },
    {
      "alignedWord": "me",
      "case": "success",
      "end": 11.71,
      "endOffset": 210,
      "phones": [
        {
          "duration": 0.06,
          "phone": "m_B"
        },
        {
          "duration": 0.07,
          "phone": "iy_E"
        }
      ],
      "start": 11.58,
      "startOffset": 208,
      "word": "ME"
    },
    {
      "alignedWord": "as",
      "case": "success",
      "end": 11.83,
      "endOffset": 213,
      "phones": [
        {
          "duration": 0.06,
          "phone": "eh_B"
        },
        {
          "duration": 0.06,
          "phone": "z_E"
        }
      ],
      "start": 11.71,
      "startOffset": 211,
      "word": "AS"
    },
    {
      "alignedWord": "well",
      "case": "success",
      "end": 11.97,
      "endOffset": 218,
      "phones": [
        {
          "duration": 0.04,
          "phone": "w_B"
        },
        {
          "duration": 0.04,
          "phone": "eh_I"
        },
        {
          "duration": 0.06,
          "phone": "l_E"
        }
      ],
      "start": 11.83,
      "startOffset": 214,
      "word": "WELL"
    },
    {
      "alignedWord": "as",
      "case": "success",
      "end": 12.109999,
      "endOffset": 221,
      "phones": [
        {
          "duration": 0.08,
          "phone": "eh_B"
        },
        {
          "duration": 0.06,
          "phone": "z_E"
        }
      ],
      "start": 11.969999,
      "startOffset": 219,
      "word": "AS"
    },
    {
      "alignedWord": "my",
      "case": "success",
      "end": 12.25,
      "endOffset": 224,
      "phones": [
        {
          "duration": 0.05,
          "phone": "m_B"
        },
        {
          "duration": 0.09,
          "phone": "ay_E"
        }
      ],
      "start": 12.11,
      "startOffset": 222,
      "word": "MY"
    },
    {
      "alignedWord": "master",
      "case": "success",
      "end": 12.87,
      "endOffset": 231,
      "phones": [
        {
          "duration": 0.08,
          "phone": "m_B"
        },
        {
          "duration": 0.13,
          "phone": "ae_I"
        },
        {
          "duration": 0.09,
          "phone": "s_I"
        },
        {
          "duration": 0.09,
          "phone": "t_I"
        },
        {
          "duration": 0.23,
          "phone": "er_E"
        }
      ],
      "start": 12.25,
      "startOffset": 225,
      "word": "MASTER"
    },
    {
      "alignedWord": "the",
      "case": "success",
      "end": 13.969999,
      "endOffset": 235,
      "phones": [
        {
          "duration": 0.07,
          "phone": "dh_B"
        },
        {
          "duration": 0.05,
          "phone": "ah_E"
        }
      ],
      "start": 13.849999,
      "startOffset": 232,
      "word": "THE"
    },
    {
      "alignedWord": "surprise",
      "case": "success",
      "end": 14.379999,
      "endOffset": 244,
      "phones": [
        {
          "duration": 0.06,
          "phone": "s_B"
        },
        {
          "duration": 0.07,
          "phone": "ah_I"
        },
        {
          "duration": 0.08,
          "phone": "p_I"
        },
        {
          "duration": 0.06,
          "phone": "r_I"
        },
        {
          "duration": 0.08,
          "phone": "ay_I"
        },
        {
          "duration": 0.06,
          "phone": "z_E"
        }
      ],
      "start": 13.969999,
      "startOffset": 236,
      "word": "SURPRISE"
    },
    {
      "alignedWord": "in",
      "case": "success",
      "end": 14.49,
      "endOffset": 247,
      "phones": [
        {
          "duration": 0.07,
          "phone": "ih_B"
        },
        {
          "duration": 0.04,
          "phone": "n_E"
        }
      ],
      "start": 14.38,
      "startOffset": 245,
      "word": "IN"
    },
    {
      "alignedWord": "his",
      "case": "success",
      "end": 14.620000000000001,
      "endOffset": 251,
      "phones": [
        {
          "duration": 0.03,
          "phone": "hh_B"
        },
        {
          "duration": 0.05,
          "phone": "ih_I"
        },
        {
          "duration": 0.05,
          "phone": "z_E"
        }
      ],
      "start": 14.49,
      "startOffset": 248,
      "word": "HIS"
    },
    {
      "alignedWord": "voice",
      "case": "success",
      "end": 14.909999999999998,
      "endOffset": 257,
      "phones": [
        {
          "duration": 0.07,
          "phone": "v_B"
        },
        {
          "duration": 0.12,
          "phone": "oy_I"
        },
        {
          "duration": 0.1,
          "phone": "s_E"
        }
      ],
      "start": 14.62,
      "startOffset": 252,
      "word": "VOICE"
    },
    {
      "alignedWord": "was",
      "case": "success",
      "end": 15.040000000000001,
      "endOffset": 261,
      "phones": [
        {
          "duration": 0.02,
          "phone": "w_B"
        },
        {
          "duration": 0.05,
          "phone": "ah_I"
        },
        {
          "duration": 0.06,
          "phone": "z_E"
        }
      ],
      "start": 14.91,
      "startOffset": 258,
      "word": "WAS"
    },
    {
      "alignedWord": "changed",
      "case": "success",
      "end": 15.34,
      "endOffset": 269,
      "phones": [
        {
          "duration": 0.1,
          "phone": "ch_B"
        },
        {
          "duration": 0.07,
          "phone": "ey_I"
        },
        {
          "duration": 0.05,
          "phone": "n_I"
        },
        {
          "duration": 0.07,
          "phone": "jh_I"
        },
        {
          "duration": 0.01,
          "phone": "d_E"
        }
      ],
      "start": 15.04,
      "startOffset": 262,
      "word": "CHANGED"
    },
    {
      "alignedWord": "to",
      "case": "success",
      "end": 15.489999000000001,
      "endOffset": 272,
      "phones": [
        {
          "duration": 0.06,
          "phone": "t_B"
        },
        {
          "duration": 0.08,
          "phone": "ih_E"
        }
      ],
      "start": 15.349999,
      "startOffset": 270,
      "word": "TO"
    },
    {
      "alignedWord": "suspicion",
      "case": "success",
      "end": 16.18,
      "endOffset": 282,
      "phones": [
        {
          "duration": 0.07,
          "phone": "s_B"
        },
        {
          "duration": 0.08,
          "phone": "ah_I"
        },
        {
          "duration": 0.07,
          "phone": "s_I"
        },
        {
          "duration": 0.06,
          "phone": "p_I"
        },
        {
          "duration": 0.07,
          "phone": "ih_I"
        },
        {
          "duration": 0.11,
          "phone": "sh_I"
        },
        {
          "duration": 0.07,
          "phone": "ah_I"
        },
        {
          "duration": 0.16,
          "phone": "n_E"
        }
      ],
      "start": 15.49,
      "startOffset": 273,
      "word": "SUSPICION"
    }
  ]
}