{
  "transcript": "AND WHO HAD HEARD OF HIS VARIOUS EXPLOITS HE THEREFORE WENT TO THE CAPTAIN OF THE VESSEL AND INFORMED HIM THAT HE HAD ON BOARD ONE OF THE VERY WORST PIRATES IN THE WHOLE WORLD WHOSE WICKED DEEDS WERE WELL KNOWN IN VARIOUS PARTS OF THE WEST INDIES",
  "words": [
    {
      "alignedWord": "and",
      "case": "success",
      "end": 0.28,
      "endOffset": 3,
      "phones": [
        {
          "duration": 0.04,
          "phone": "ae_B"
        },
        {
          "duration": 0.03,
          "phone": "n_I"
        },
        {
          "duration": 0.05,
          "phone": "d_E"
        }
      ],
      "start": 0.16,
      "startOffset": 0,
      "word": "AND"
    },
    {
      "alignedWord": "who",
      "case": "success",
      "end": 0.4,
      "endOffset": 7,
      "phones": [
        {
          "duration": 0.04,
          "phone": "hh_B"
        },
        {
          "duration": 0.08,
          "phone": "uw_E"
        }
      ],
      "start": 0.28,
      "startOffset": 4,
      "word": "WHO"
    },
    {
      "alignedWord": "had",
      "case": "success",
      "end": 0.52,
      "endOffset": 11,
      "phones": [
        {
          "duration": 0.05,
          "phone": "hh_B"
        },
        {
          "duration": 0.01,
          "phone": "ae_I"
        },
        {
          "duration": 0.06,
          "phone": "d_E"
        }
      ],
      "start": 0.4,
      "startOffset": 8,
      "word": "HAD"
    },
    {
      "alignedWord": "heard",
      "case": "success",
      "end": 0.72,
      "endOffset": 17,
      "phones": [
        {
          "duration": 0.09,
          "phone": "hh_B"
        },
        {
          "duration": 0.07,
          "phone": "er_I"
        },
        {
          "duration": 0.04,
          "phone": "d_E"
        }
      ],
      "start": 0.52,
      "startOffset": 12,
      "word": "HEARD"
    },
    {
      "alignedWord": "of",
      "case": "success",
      "end": 0.83,
      "endOffset": 20,
      "phones": [
        {
          "duration": 0.05,
          "phone": "ah_B"
        },
        {
          "duration": 0.06,
          "phone": "v_E"
        }
      ],
      "start": 0.72,
      "startOffset": 18,
      "word": "OF"
    },
    {
      "alignedWord": "his",
      "case": "success",
      "end": 1.03,
      "endOffset": 24,
      "phones": [
        {
          "duration": 0.03,
          "phone": "hh_B"
        },
        {
          "duration": 0.06,
          "phone": "ih_I"
        },
        {
          "duration": 0.11,
          "phone": "z_E"
        }
      ],
      "start": 0.83,
      "startOffset": 21,
      "word": "HIS"
    },
    {
      "alignedWord": "various",
      "case": "success",
      "end": 1.5,
      "endOffset": 32,
      "phones": [
        {
          "duration": 0.08,
          "phone": "v_B"
        },
        {
          "duration": 0.08,
          "phone": "eh_I"
        },
        {
          "duration": 0.1,
          "phone": "r_I"
        },
        {
          "duration": 0.06,
          "phone": "iy_I"
        },
        {
          "duration": 0.05,
          "phone": "ah_I"
        },
        {
          "duration": 0.09,
          "phone": "s_E"
        }
      ],
      "start": 1.04,
      "startOffset": 25,
      "word": "VARIOUS"
    },
    {
      "alignedWord": "exploits",
      "case": "success",
      "end": 2.3200000000000003,
      "endOffset": 41,
      "phones": [
        {
          "duration": 0.1,
          "phone": "eh_B"
        },
        {
          "duration": 0.07,
          "phone": "k_I"
        },
        {
          "duration": 0.07,
          "phone": "s_I"
        },
        {
          "duration": 0.09,
          "phone": "p_I"
        },
        {
          "duration": 0.07,
          "phone": "l_I"
        },
        {
          "duration": 0.09,
          "phone": "oy_I"
        },
        {
          "duration": 0.07,
          "phone": "t_I"
        },
        {
          "duration": 0.23,
          "phone": "s_E"
        }
      ],
      "start": 1.53,
      "startOffset": 33,
      "word": "EXPLOITS"
    },
    {
      "alignedWord": "he",
      "case": "success",
      "end": 3.05,
      "endOffset": 44,
      "phones": [
        {
          "duration": 0.12,
          "phone": "hh_B"
        },
        {
          "duration": 0.09,
          "phone": "iy_E"
        }
      ],
      "start": 2.84,
      "startOffset": 42,
      "word": "HE"
    },
    {
      "alignedWord": "therefore",
      "case": "success",
      "end": 3.54,
      "endOffset": 54,
      "phones": [
        {
          "duration": 0.06,
          "phone": "dh_B"
        },
        {
          "duration": 0.07,
          "phone": "eh_I"
        },
        {
          "duration": 0.09,
          "phone": "r_I"
        },
        {
          "duration": 0.1,
          "phone": "f_I"
        },
        {
          "duration": 0.07,
          "phone": "ao_I"
        },
        {
          "duration": 0.08,
          "phone": "r_E"
        }
      ],
      "start": 3.07,
      "startOffset": 45,
      "word": "THEREFORE"
    },
    {
      "alignedWord": "went",
      "case": "success",
      "end": 3.75,
      "endOffset": 59,
      "phones": [
        {
          "duration": 0.03,
          "phone": "w_B"
        },
        {
          "duration": 0.07,
          "phone": "eh_I"
        },
        {
          "duration": 0.05,
          "phone": "n_I"
        },
        {
          "duration": 0.06,
          "phone": "t_E"
        }
      ],
      "start": 3.54,
      "startOffset": 55,
      "word": "WENT"
    },
    {
      "alignedWord": "to",
      "case": "success",
      "end": 3.84,
      "endOffset": 62,
      "phones": [
        {
          "duration": 0.03,
          "phone": "t_B"
        },
        {
          "duration": 0.06,
          "phone": "ih_E"
        }
      ],
      "start": 3.75,
      "startOffset": 60,
      "word": "TO"
    },
    {
      "alignedWord": "the",
      "case": "success",
      "end": 3.9499999999999997,
      "endOffset": 66,
      "phones": [
        {
          "duration": 0.06,
          "phone": "dh_B"
        },
        {
          "duration": 0.05,
          "phone": "ah_E"
        }
      ],
      "start": 3.84,
      "startOffset": 63,
      "word": "THE"
    },
    {
      "alignedWord": "captain",
      "case": "success",
      "end": 4.34,
      "endOffset": 74,
      "phones": [
        {
          "duration": 0.09,
          "phone": "k_B"
        },
        {
          "duration": 0.07,
          "phone": "ae_I"
        },
        {
          "duration": 0.09,
          "phone": "p_I"
        },
        {
          "duration": 0.04,
          "phone": "t_I"
        },
        {
          "duration": 0.05,
          "phone": "ah_I"
        },
        {
          "duration": 0.05,
          "phone": "n_E"
        }
      ],
      "start": 3.95,
      "startOffset": 67,
      "word": "CAPTAIN"
    },
    {
      "alignedWord": "of",
      "case": "success",
      "end": 4.47,
      "endOffset": 77,
      "phones": [
        {
          "duration": 0.04,
          "phone": "ah_B"
        },
        {
          "duration": 0.09,
          "phone": "v_E"
        }
      ],
      "start": 4.34,
      "startOffset": 75,
      "word": "OF"
    },
    {
      "alignedWord": "the",
      "case": "success",
      "end": 4.54,
      "endOffset": 81,
      "phones": [
        {
          "duration": 0.02,
          "phone": "dh_B"
        },
        {
          "duration": 0.05,
          "phone": "ah_E"
        }
      ],
      "start": 4.47,
      "startOffset": 78,
      "word": "THE"
    },
    {
      "alignedWord": "vessel",
      "case": "success",
      "end": 4.9,
      "endOffset": 88,
      "phones": [
        {
          "duration": 0.07,
          "phone": "v_B"
        },
        {
          "duration": 0.1,
          "phone": "eh_I"
        },
        {
          "duration": 0.07,
          "phone": "s_I"
        },
        {
          "duration": 0.06,
          "phone": "ah_I"
        },
        {
          "duration": 0.06,
          "phone": "l_E"
        }
      ],
      "start": 4.54,
      "startOffset": 82,
      "word": "VESSEL"
    },
    {
      "alignedWord": "and",
      "case": "success",
      "end": 5.0200000000000005,
      "endOffset": 92,
      "phones": [
        {
          "duration": 0.07,
          "phone": "ah_B"
        },
        {
          "duration": 0.02,
          "phone": "n_I"
        },
        {
          "duration": 0.03,
          "phone": "d_E"
        }
      ],
      "start": 4.9,
      "startOffset": 89,
      "word": "AND"
    },
    {
      "alignedWord": "informed",
      "case": "success",
      "end": 5.51,
      "endOffset": 101,
      "phones": [
        {
          "duration": 0.06,
          "phone": "ih_B"
        },
        {
          "duration": 0.09,
          "phone": "n_I"
        },
        {
          "duration": 0.09,
          "phone": "f_I"
        },
        {
          "duration": 0.08,
          "phone": "ao_I"
        },
        {
          "duration": 0.06,
          "phone": "r_I"
        },
        {
          "duration": 0.08,
          "phone": "m_I"
        },
        {
          "duration": 0.03,
          "phone": "d_E"
        }
      ],
      "start": 5.02,
      "startOffset": 93,
      "word": "INFORMED"
    },
    {
      "alignedWord": "him",
      "case": "success",
      "end": 5.77,
      "endOffset": 105,
      "phones": [
        {
          "duration": 0.06,
          "phone": "hh_B"
        },
        {
          "duration": 0.08,
          "phone": "ih_I"
        },
        {
          "duration": 0.12,
          "phone": "m_E"
        }
      ],
      "start": 5.51,
      "startOffset": 102,
      "word": "HIM"
    },
    {
      "alignedWord": "that",
      "case": "success",
      "end": 5.99,
      "endOffset": 110,
      "phones": [
        {
          "duration": 0.08,
          "phone": "dh_B"
        },
        {
          "duration": 0.05,
          "phone": "ah_I"
        },
        {
          "duration": 0.06,
          "phone": "t_E"
        }
      ],
      "start": 5.8,
      "startOffset": 106,
      "word": "THAT"
    },
    {
      "alignedWord": "he",
      "case": "success",
      "end": 6.12,
      "endOffset": 113,
      "phones": [
        {
          "duration": 0.04,
          "phone": "hh_B"
        },
        {
          "duration": 0.09,
          "phone": "iy_E"
        }
      ],
      "start": 5.99,
      "startOffset": 111,
      "word": "HE"
    },
    {
      "alignedWord": "had",
      "case": "success",
      "end": 6.33,
      "endOffset": 117,
      "phones": [
        {
          "duration": 0.08,
          "phone": "hh_B"
        },
        {
          "duration": 0.06,
          "phone": "ae_I"
        },
        {
          "duration": 0.06,
          "phone": "d_E"
        }
      ],
      "start": 6.13,
      "startOffset": 114,
      "word": "HAD"
    },
    {
      "alignedWord": "on",
      "case": "success",
      "end": 6.48,
      "endOffset": 120,
      "phones": [
        {
          "duration": 0.07,
          "phone": "ao_B"
        },
        {
          "duration": 0.08,
          "phone": "n_E"
        }
      ],
      "start": 6.33,
      "startOffset": 118,
      "word": "ON"
    },
    {
      "alignedWord": "board",
      "case": "success",
      "end": 6.800000000000001,
      "endOffset": 126,
      "phones": [
        {
          "duration": 0.08,
          "phone": "b_B"
        },
        {
          "duration": 0.09,
          "phone": "ao_I"
        },
        {
          "duration": 0.06,
          "phone": "r_I"
        },
        {
          "duration": 0.09,
          "phone": "d_E"
        }
      ],
      "start": 6.48,
      "startOffset": 121,
      "word": "BOARD"
    },
    {
      "alignedWord": "one",
      "case": "success",
      "end": 7.01,
      "endOffset": 130,
      "phones": [
        {
          "duration": 0.03,
          "phone": "hh_B"
        },
        {
          "duration": 0.07,
          "phone": "w_I"
        },
        {
          "duration": 0.05,
          "phone": "ah_I"
        },
        {
          "duration": 0.03,
          "phone": "n_E"
        }
      ],
      "start": 6.83,
      "startOffset": 127,
      "word": "ONE"
    },
    {
      "alignedWord": "of",
      "case": "success",
      "end": 7.14,
      "endOffset": 133,
      "phones": [
        {
          "duration": 0.05,
          "phone": "ah_B"
        },
        {
          "duration": 0.08,
          "phone": "v_E"
        }
      ],
      "start": 7.01,
      "startOffset": 131,
      "word": "OF"
    },
    {
      "alignedWord": "the",
      "case": "success",
      "end": 7.2299999999999995,
      "endOffset": 137,
      "phones": [
        {
          "duration": 0.03,
          "phone": "dh_B"
        },
        {
          "duration": 0.06,
          "phone": "ah_E"
        }
      ],
      "start": 7.14,
      "startOffset": 134,
      "word": "THE"
    },
    {
      "alignedWord": "very",
      "case": "success",
      "end": 7.6000000000000005,
      "endOffset": 142,
      "phones": [
        {
          "duration": 0.08,
          "phone": "v_B"
        },
        {
          "duration": 0.07,
          "phone": "eh_I"
        },
        {
          "duration": 0.1,
          "phone": "r_I"
        },
        {
          "duration": 0.12,
          "phone": "iy_E"
        }
      ],
      "start": 7.23,
      "startOffset": 138,
      "word": "VERY"
    },
    {
      "alignedWord": "worst",
      "case": "success",
      "end": 8.05,
      "endOffset": 148,
      "phones": [
        {
          "duration": 0.21,
          "phone": "w_B"
        },
        {
          "duration": 0.1,
          "phone": "er_I"
        },
        {
          "duration": 0.09,
          "phone": "s_I"
        },
        {
          "duration": 0.04,
          "phone": "t_E"
        }
      ],
      "start": 7.61,
      "startOffset": 143,
      "word": "WORST"
    },
    {
      "alignedWord": "pirates",
      "case": "success",
      "end": 8.51,
      "endOffset": 156,
      "phones": [
        {
          "duration": 0.09,
          "phone": "p_B"
        },
        {
          "duration": 0.11,
          "phone": "ay_I"
        },
        {
          "duration": 0.08,
          "phone": "r_I"
        },
        {
          "duration": 0.05,
          "phone": "ah_I"
        },
        {
          "duration": 0.06,
          "phone": "t_I"
        },
        {
          "duration": 0.05,
          "phone": "s_E"
        }
      ],
      "start": 8.07,
      "startOffset": 149,
      "word": "PIRATES"
    },
    {
      "alignedWord": "in",
      "case": "success",
      "end": 8.6,
      "endOffset": 159,
      "phones": [
        {
          "duration": 0.07,
          "phone": "ih_B"
        },
        {
          "duration": 0.02,
          "phone": "n_E"
        }
      ],
      "start": 8.51,
      "startOffset": 157,
      "word": "IN"
    },
    {
      "alignedWord": "the",
      "case": "success",
      "end": 8.729999000000001,
      "endOffset": 163,
      "phones": [
        {
          "duration": 0.06,
          "phone": "dh_B"
        },
        {
          "duration": 0.07,
          "phone": "ah_E"
        }
      ],
      "start": 8.599999,
      "startOffset": 160,
      "word": "THE"
    },
    {
      "alignedWord": "whole",
      "case": "success",
      "end": 9.17,
      "endOffset": 169,
      "phones": [
        {
          "duration": 0.14,
          "phone": "hh_B"
        },
        {
          "duration": 0.08,
          "phone": "ow_I"
        },
        {
          "duration": 0.22,
          "phone": "l_E"
        }
      ],
      "start": 8.73,
      "startOffset": 164,
      "word": "WHOLE"
    },
    {
      "alignedWord": "world",
      "case": "success",
      "end": 9.579999,
      "endOffset": 175,
      "phones": [
        {
          "duration": 0.11,
          "phone": "w_B"
        },
        {
          "duration": 0.11,
          "phone": "er_I"
        },
        {
          "duration": 0.08,
          "phone": "l_I"
        },
        {
          "duration": 0.1,
          "phone": "d_E"
        }
      ],
      "start": 9.179999,
      "startOffset": 170,
      "word": "WORLD"
    },
    {
      "alignedWord": "whose",
      "case": "success",
      "end": 10.12,
      "endOffset": 181,
      "phones": [
        {
          "duration": 0.09,
          "phone": "hh_B"
        },
        {
          "duration": 0.11,
          "phone": "uw_I"
        },
        {
          "duration": 0.09,
          "phone": "z_E"
        }
      ],
      "start": 9.83,
      "startOffset": 176,
      "word": "WHOSE"
    },
    {
      "alignedWord": "wicked",
      "case": "success",
      "end": 10.56,
      "endOffset": 188,
      "phones": [
        {
          "duration": 0.12,
          "phone": "w_B"
        },
        {
          "duration": 0.11,
          "phone": "ih_I"
        },
        {
          "duration": 0.05,
          "phone": "k_I"
        },
        {
          "duration": 0.07,
          "phone": "ah_I"
        },
        {
          "duration": 0.08,
          "phone": "d_E"
        }
      ],
      "start": 10.13,
      "startOffset": 182,
      "word": "WICKED"
    },
    {
      "alignedWord": "deeds",
      "case": "success",
      "end": 10.91,
      "endOffset": 194,
      "phones": [
        {
          "duration": 0.09,
          "phone": "d_B"
        },
        {
          "duration": 0.13,
          "phone": "iy_I"
        },
        {
          "duration": 0.05,
          "phone": "d_I"
        },
        {
          "duration": 0.07,
          "phone": "z_E"
        }
      ],
      "start": 10.57,
      "startOffset": 189,
      "word": "DEEDS"
    },
    {
      "alignedWord": "were",
      "case": "success",
      "end": 11.05,
      "endOffset": 199,
      "phones": [
        {
          "duration": 0.09,
          "phone": "w_B"
        },
        {
          "duration": 0.05,
          "phone": "er_E"
        }
      ],
      "start": 10.91,
      "startOffset": 195,
      "word": "WERE"
    },
    {
      "alignedWord": "well",
      "case": "success",
      "end": 11.31,
      "endOffset": 204,
      "phones": [
        {
          "duration": 0.08,
          "phone": "w_B"
        },
        {
          "duration": 0.1,
          "phone": "eh_I"
        },
        {
          "duration": 0.08,
          "phone": "l_E"
        }
      ],
      "start": 11.05,
      "startOffset": 200,
      "word": "WELL"
    },
    {
      "alignedWord": "known",
      "case": "success",
      "end": 11.519999,
      "endOffset": 210,
      "phones": [
        {
          "duration": 0.07,
          "phone": "n_B"
        },
        {
          "duration": 0.09,
          "phone": "ow_I"
        },
        {
          "duration": 0.05,
          "phone": "n_E"
        }
      ],
      "start": 11.309999,
      "startOffset": 205,
      "word": "KNOWN"
    },
    {
      "alignedWord": "in",
      "case": "success",
      "end": 11.639999999999999,
      "endOffset": 213,
      "phones": [
        {
          "duration": 0.06,
          "phone": "ih_B"
        },
        {
          "duration": 0.06,
          "phone": "n_E"
        }
      ],
      "start": 11.52,
      "startOffset": 211,
      "word": "IN"
    },
    {
      "alignedWord": "various",
      "case": "success",
      "end": 12.06,
      "endOffset": 221,
      "phones": [
        {
          "duration": 0.06,
          "phone": "v_B"
        },
        {
          "duration": 0.08,
          "phone": "eh_I"
        },
        {
          "duration": 0.11,
          "phone": "r_I"
        },
        {
          "duration": 0.05,
          "phone": "iy_I"
        },
        {
          "duration": 0.04,
          "phone": "ah_I"
        },
        {
          "duration": 0.07,
          "phone": "s_E"
        }
      ],
      "start": 11.65,
      "startOffset": 214,
      "word": "VARIOUS"
    },
    {
      "alignedWord": "parts",
      "case": "success",
      "end": 12.379999,
      "endOffset": 227,
      "phones": [
        {
          "duration": 0.07,
          "phone": "p_B"
        },
        {
          "duration": 0.09,
          "phone": "aa_I"
        },
        {
          "duration": 0.06,
          "phone": "r_I"
        },
        {
          "duration": 0.06,
          "phone": "t_I"
        },
        {
          "duration": 0.04,
          "phone": "s_E"
        }
      ],
      "start": 12.059999,
      "startOffset": 222,
      "word": "PARTS"
    },
    {
      "alignedWord": "of",
      "case": "success",
      "end": 12.520000000000001,
      "endOffset": 230,
      "phones": [
        {
          "duration": 0.06,
          "phone": "ah_B"
        },
        {
          "duration": 0.08,
          "phone": "v_E"
        }
      ],
      "start": 12.38,
      "startOffset": 228,
      "word": "OF"
    },
    {
      "alignedWord": "the",
      "case": "success",
      "end": 12.59,
      "endOffset": 234,
      "phones": [
        {
          "duration": 0.01,
          "phone": "dh_B"
        },
        {
          "duration": 0.06,
          "phone": "ah_E"
        }
      ],
      "start": 12.52,
      "startOffset": 231,
      "word": "THE"
    },
    {
      "alignedWord": "west",
      "case": "success",
      "end": 12.879999999999999,
      "endOffset": 239,
      "phones": [
        {
          "duration": 0.05,
          "phone": "w_B"
        },
        {
          "duration": 0.07,
          "phone": "eh_I"
        },
        {
          "duration": 0.09,
          "phone": "s_I"
        },
        {
          "duration": 0.08,
          "phone": "t_E"
        }
      ],
      "start": 12.59,
      "startOffset": 235,
      "word": "WEST"
    },
    {
      "alignedWord": "indies",
      "case": "success",
      "end": 13.3,
      "endOffset": 246,
      "phones": [
        {
          "duration": 0.05,
          "phone": "ih_B"
        },
        {
          "duration": 0.08,
          "phone": "n_I"
        },
        {
          "duration": 0.07,
          "phone": "d_I"
        },
        {
          "duration": 0.1,
          "phone": "iy_I"
        },
        {
          "duration": 0.12,
          "phone": "z_E"
        }
      ],
      "start": 12.88,
      "startOffset": 240,
      "word": "INDIES"
    }
  ]
}