{
  "transcript": "AND WHO BEGAN TO RUB A CROW BAR ON A STONE IN ORDER TO REDUCE IT TO THE PROPER SIZE BARTHOLEMY CAREFULLY KNOCKED ALL THE NAILS OUT OF THE BOARD AND THEN FINDING A LARGE FLAT STONE HE RUBBED DOWN ONE OF THEM UNTIL HE HAD FORMED IT INTO THE SHAPE OF A RUDE KNIFE BLADE",
  "words": [
    {
      "alignedWord": "and",
      "case": "success",
      "end": 0.29000000000000004,
      "endOffset": 3,
      "phones": [
        {
          "duration": 0.03,
          "phone": "ae_B"
        },
        {
          "duration": 0.05,
          "phone": "n_I"
        },
        {
          "duration": 0.05,
          "phone": "d_E"
        }
      ],
      "start": 0.16,
      "startOffset": 0,
      "word": "AND"
    },
    {
      "alignedWord": "who",
      "case": "success",
      "end": 0.39999999999999997,
      "endOffset": 7,
      "phones": [
        {
          "duration": 0.05,
          "phone": "hh_B"
        },
        {
          "duration": 0.06,
          "phone": "uw_E"
        }
      ],
      "start": 0.29,
      "startOffset": 4,
      "word": "WHO"
    },
    {
      "alignedWord": "began",
      "case": "success",
      "end": 0.74,
      "endOffset": 13,
      "phones": [
        {
          "duration": 0.05,
          "phone": "b_B"
        },
        {
          "duration": 0.06,
          "phone": "ih_I"
        },
        {
          "duration": 0.09,
          "phone": "g_I"
        },
        {
          "duration": 0.07,
          "phone": "ae_I"
        },
        {
          "duration": 0.07,
          "phone": "n_E"
        }
      ],
      "start": 0.4,
      "startOffset": 8,
      "word": "BEGAN"
    },
    {
      "alignedWord": "to",
      "case": "success",
      "end": 0.89,
      "endOffset": 16,
      "phones": [
        {
          "duration": 0.08,
          "phone": "t_B"
        },
        {
          "duration": 0.07,
          "phone": "uw_E"
        }
      ],
      "start": 0.74,
      "startOffset": 14,
      "word": "TO"
    },
    {
      "alignedWord": "rub",
      "case": "success",
      "end": 1.05,
      "endOffset": 20,
      "phones": [
        {
          "duration": 0.07,
          "phone": "r_B"
        },
        {
          "duration": 0.07,
          "phone": "ah_I"
        },
        {
          "duration": 0.02,
          "phone": "b_E"
        }
      ],
      "start": 0.89,
      "startOffset": 17,
      "word": "RUB"
    },
    {
      "alignedWord": "a",
      "case": "success",
      "end": 1.09,
      "endOffset": 22,
      "phones": [
        {
          "duration": 0.04,
          "phone": "ah_S"
        }
      ],
      "start": 1.05,
      "startOffset": 21,
      "word": "A"
    },
    {
      "alignedWord": "crow",
      "case": "success",
      "end": 1.4300000000000002,
      "endOffset": 27,
      "phones": [
        {
          "duration": 0.15,
          "phone": "k_B"
        },
        {
          "duration": 0.08,
          "phone": "r_I"
        },
        {
          "duration": 0.11,
          "phone": "ow_E"
        }
      ],
      "start": 1.09,
      "startOffset": 23,
      "word": "CROW"
    },
    {
      "alignedWord": "bar",
      "case": "success",
      "end": 1.7,
      "endOffset": 31,
      "phones": [
        {
          "duration": 0.1,
          "phone": "b_B"
        },
        {
          "duration": 0.09,
          "phone": "aa_I"
        },
        {
          "duration": 0.08,
          "phone": "r_E"
        }
      ],
      "start": 1.43,
      "startOffset": 28,
      "word": "BAR"
    },
    {
      "alignedWord": "on",
      "case": "success",
      "end": 1.8399999999999999,
      "endOffset": 34,
      "phones": [
        {
          "duration": 0.07,
          "phone": "ao_B"
        },
        {
          "duration": 0.07,
          "phone": "n_E"
        }
      ],
      "start": 1.7,
      "startOffset": 32,
      "word": "ON"
    },
    {
      "alignedWord": "a",
      "case": "success",
      "end": 1.9000000000000001,
      "endOffset": 36,
      "phones": [
        {
          "duration": 0.06,
          "phone": "ah_S"
        }
      ],
      "start": 1.84,
      "startOffset": 35,
      "word": "A"
    },
    {
      "alignedWord": "stone",
      "case": "success",
      "end": 2.3899999999999997,
      "endOffset": 42,
      "phones": [
        {
          "duration": 0.15,
          "phone": "s_B"
        },
        {
          "duration": 0.11,
          "phone": "t_I"
        },
        {
          "duration": 0.14,
          "phone": "ow_I"
        },
        {
          "duration": 0.09,
          "phone": "n_E"
        }
      ],
      "start": 1.9,
      "startOffset": 37,
      "word": "STONE"
    },
    {
      "alignedWord": "in",
      "case": "success",
      "end": 2.5300000000000002,
      "endOffset": 45,
      "phones": [
        {
          "duration": 0.07,
          "phone": "ih_B"
        },
        {
          "duration": 0.07,
          "phone": "n_E"
        }
      ],
      "start": 2.39,
      "startOffset": 43,
      "word": "IN"
    },
    {
      "alignedWord": "order",
      "case": "success",
      "end": 2.7699999999999996,
      "endOffset": 51,
      "phones": [
        {
          "duration": 0.08,
          "phone": "ao_B"
        },
        {
          "duration": 0.02,
          "phone": "r_I"
        },
        {
          "duration": 0.07,
          "phone": "d_I"
        },
        {
          "duration": 0.07,
          "phone": "er_E"
        }
      ],
      "start": 2.53,
      "startOffset": 46,
      "word": "ORDER"
    },
    {
      "alignedWord": "to",
      "case": "success",
      "end": 2.91,
      "endOffset": 54,
      "phones": [
        {
          "duration": 0.05,
          "phone": "t_B"
        },
        {
          "duration": 0.09,
          "phone": "ah_E"
        }
      ],
      "start": 2.77,
      "startOffset": 52,
      "word": "TO"
    },
    {
      "alignedWord": "reduce",
      "case": "success",
      "end": 3.29,
      "endOffset": 61,
      "phones": [
        {
          "duration": 0.04,
          "phone": "r_B"
        },
        {
          "duration": 0.08,
          "phone": "ih_I"
        },
        {
          "duration": 0.1,
          "phone": "d_I"
        },
        {
          "duration": 0.09,
          "phone": "uw_I"
        },
        {
          "duration": 0.07,
          "phone": "s_E"
        }
      ],
      "start": 2.91,
      "startOffset": 55,
      "word": "REDUCE"
    },
    {
      "alignedWord": "it",
      "case": "success",
      "end": 3.42,
      "endOffset": 64,
      "phones": [
        {
          "duration": 0.06,
          "phone": "ih_B"
        },
        {
          "duration": 0.07,
          "phone": "t_E"
        }
      ],
      "start": 3.29,
      "startOffset": 62,
      "word": "IT"
    },
    {
      "alignedWord": "to",
      "case": "success",
      "end": 3.51,
      "endOffset": 67,
      "phones": [
        {
          "duration": 0.02,
          "phone": "t_B"
        },
        {
          "duration": 0.07,
          "phone": "ih_E"
        }
      ],
      "start": 3.42,
      "startOffset": 65,
      "word": "TO"
    },
    {
      "alignedWord": "the",
      "case": "success",
      "end": 3.6199999999999997,
      "endOffset": 71,
      "phones": [
        {
          "duration": 0.05,
          "phone": "dh_B"
        },
        {
          "duration": 0.06,
          "phone": "ah_E"
        }
      ],
      "start": 3.51,
      "startOffset": 68,
      "word": "THE"
    },
    {
      "alignedWord": "proper",
      "case": "success",
      "end": 3.98,
      "endOffset": 78,
      "phones": [
        {
          "duration": 0.06,
          "phone": "p_B"
        },
        {
          "duration": 0.05,
          "phone": "r_I"
        },
        {
          "duration": 0.06,
          "phone": "aa_I"
        },
        {
          "duration": 0.09,
          "phone": "p_I"
        },
        {
          "duration": 0.09,
          "phone": "er_E"
        }
      ],
      "start": 3.63,
      "startOffset": 72,
      "word": "PROPER"
    },
    {
      "alignedWord": "size",
      "case": "success",
      "end": 4.55,
      "endOffset": 83,
      "phones": [
        {
          "duration": 0.13,
          "phone": "s_B"
        },
        {
          "duration": 0.25,
          "phone": "ay_I"
        },
        {
          "duration": 0.19,
          "phone": "z_E"
        }
      ],
      "start": 3.98,
      "startOffset": 79,
      "word": "SIZE"
    },
    {
      "alignedWord": "<unk>",
      "case": "success",
      "end": 6.23,
      "endOffset": 94,
      "phones": [
        {
          "duration": 0.61,
          "phone": "oov_S"
        }
      ],
      "start": 5.62,
      "startOffset": 84,
      "word": "BARTHOLEMY"
    },
    {
      "alignedWord": "carefully",
      "case": "success",
      "end": 6.69,
      "endOffset": 104,
      "phones": [
        {
          "duration": 0.12,
          "phone": "k_B"
        },
        {
          "duration": 0.07,
          "phone": "eh_I"
        },
        {
          "duration": 0.06,
          "phone": "r_I"
        },
        {
          "duration": 0.05,
          "phone": "f_I"
        },
        {
          "duration": 0.03,
          "phone": "ah_I"
        },
        {
          "duration": 0.07,
          "phone": "l_I"
        },
        {
          "duration": 0.06,
          "phone": "iy_E"
        }
      ],
      "start": 6.23,
      "startOffset": 95,
      "word": "CAREFULLY"
    },
    {
      "alignedWord": "knocked",
      "case": "success",
      "end": 7.03,
      "endOffset": 112,
      "phones": [
        {
          "duration": 0.09,
          "phone": "n_B"
        },
        {
          "duration": 0.1,
          "phone": "aa_I"
        },
        {
          "duration": 0.07,
          "phone": "k_I"
        },
        {
          "duration": 0.08,
          "phone": "t_E"
        }
      ],
      "start": 6.69,
      "startOffset": 105,
      "word": "KNOCKED"
    },
    {
      "alignedWord": "all",
      "case": "success",
      "end": 7.16,
      "endOffset": 116,
      "phones": [
        {
          "duration": 0.07,
          "phone": "ao_B"
        },
        {
          "duration": 0.06,
          "phone": "l_E"
        }
      ],
      "start": 7.03,
      "startOffset": 113,
      "word": "ALL"
    },
    {
      "alignedWord": "the",
      "case": "success",
      "end": 7.26,
      "endOffset": 120,
      "phones": [
        {
          "duration": 0.05,
          "phone": "dh_B"
        },
        {
          "duration": 0.05,
          "phone": "ah_E"
        }
      ],
      "start": 7.16,
      "startOffset": 117,
      "word": "THE"
    },
    {
      "alignedWord": "nails",
      "case": "success",
      "end": 7.63,
      "endOffset": 126,
      "phones": [
        {
          "duration": 0.09,
          "phone": "n_B"
        },
        {
          "duration": 0.12,
          "phone": "ey_I"
        },
        {
          "duration": 0.09,
          "phone": "l_I"
        },
        {
          "duration": 0.07,
          "phone": "z_E"
        }
      ],
      "start": 7.26,
      "startOffset": 121,
      "word": "NAILS"
    },
    {
      "alignedWord": "out",
      "case": "success",
      "end": 7.74,
      "endOffset": 130,
      "phones": [
        {
          "duration": 0.1,
          "phone": "aw_B"
        },
        {
          "duration": 0.01,
          "phone": "t_E"
        }
      ],
      "start": 7.63,
      "startOffset": 127,
      "word": "OUT"
    },
    {
      "alignedWord": "of",
      "case": "success",
      "end": 7.82,
      "endOffset": 133,
      "phones": [
        {
          "duration": 0.06,
          "phone": "ah_B"
        },
        {
          "duration": 0.02,
          "phone": "v_E"
        }
      ],
      "start": 7.74,
      "startOffset": 131,
      "word": "OF"
    },
    {
      "alignedWord": "the",
      "case": "success",
      "end": 7.98,
      "endOffset": 137,
      "phones": [
        {
          "duration": 0.08,
          "phone": "dh_B"
        },
        {
          "duration": 0.04,
          "phone": "ah_E"
        }
      ],
      "start": 7.86,
      "startOffset": 134,
      "word": "THE"
    },
    {
      "alignedWord": "board",
      "case": "success",
      "end": 8.440000000000001,
      "endOffset": 143,
      "phones": [
        {
          "duration": 0.12,
          "phone": "b_B"
        },
        {
          "duration": 0.12,
          "phone": "ao_I"
        },
        {
          "duration": 0.08,
          "phone": "r_I"
        },
        {
          "duration": 0.14,
          "phone": "d_E"
        }
      ],
      "start": 7.98,
      "startOffset": 138,
      "word": "BOARD"
    },
    {
      "alignedWord": "and",
      "case": "success",
      "end": 8.73,
      "endOffset": 147,
      "phones": [
        {
          "duration": 0.09,
          "phone": "ae_B"
        },
        {
          "duration": 0.06,
          "phone": "n_I"
        },
        {
          "duration": 0.06,
          "phone": "d_E"
        }
      ],
      "start": 8.52,
      "startOffset": 144,
      "word": "AND"
    },
    {
      "alignedWord": "then",
      "case": "success",
      "end": 8.91,
      "endOffset": 152,
      "phones": [
        {
          "duration": 0.01,
          "phone": "dh_B"
        },
        {
          "duration": 0.08,
          "phone": "eh_I"
        },
        {
          "duration": 0.09,
          "phone": "n_E"
        }
      ],
      "start": 8.73,
      "startOffset": 148,
      "word": "THEN"
    },
    {
      "alignedWord": "finding",
      "case": "success",
      "end": 9.31,
      "endOffset": 160,
      "phones": [
        {
          "duration": 0.1,
          "phone": "f_B"
        },
        {
          "duration": 0.08,
          "phone": "ay_I"
        },
        {
          "duration": 0.03,
          "phone": "n_I"
        },
        {
          "duration": 0.06,
          "phone": "d_I"
        },
        {
          "duration": 0.05,
          "phone": "ih_I"
        },
        {
          "duration": 0.07,
          "phone": "ng_E"
        }
      ],
      "start": 8.92,
      "startOffset": 153,
      "word": "FINDING"
    },
    {
      "alignedWord": "a",
      "case": "success",
      "end": 9.369999,
      "endOffset": 162,
      "phones": [
        {
          "duration": 0.06,
          "phone": "ah_S"
        }
      ],
      "start": 9.309999,
      "startOffset": 161,
      "word": "A"
    },
    {
      "alignedWord": "large",
      "case": "success",
      "end": 9.76,
      "endOffset": 168,
      "phones": [
        {
          "duration": 0.1,
          "phone": "l_B"
        },
        {
          "duration": 0.11,
          "phone": "aa_I"
        },
        {
          "duration": 0.08,
          "phone": "r_I"
        },
        {
          "duration": 0.1,
          "phone": "jh_E"
        }
      ],
      "start": 9.37,
      "startOffset": 163,
      "word": "LARGE"
    },
    {
      "alignedWord": "flat",
      "case": "success",
      "end": 10.07,
      "endOffset": 173,
      "phones": [
        {
          "duration": 0.08,
          "phone": "f_B"
        },
        {
          "duration": 0.07,
          "phone": "l_I"
        },
        {
          "duration": 0.07,
          "phone": "ae_I"
        },
        {
          "duration": 0.09,
          "phone": "t_E"
        }
      ],
      "start": 9.76,
      "startOffset": 169,
      "word": "FLAT"
    },
    {
      "alignedWord": "stone",
      "case": "success",
      "end": 10.56,
      "endOffset": 179,
      "phones": [
        {
          "duration": 0.1,
          "phone": "s_B"
        },
        {
          "duration": 0.09,
          "phone": "t_I"
        },
        {
          "duration": 0.14,
          "phone": "ow_I"
        },
        {
          "duration": 0.16,
          "phone": "n_E"
        }
      ],
      "start": 10.07,
      "startOffset": 174,
      "word": "STONE"
    },
    {
      "alignedWord": "he",
      "case": "success",
      "end": 10.98,
      "endOffset": 182,
      "phones": [
        {
          "duration": 0.11,
          "phone": "hh_B"
        },
        {
          "duration": 0.1,
          "phone": "iy_E"
        }
      ],
      "start": 10.77,
      "startOffset": 180,
      "word": "HE"
    },
    {
      "alignedWord": "rubbed",
      "case": "success",
      "end": 11.26,
      "endOffset": 189,
      "phones": [
        {
          "duration": 0.09,
          "phone": "r_B"
        },
        {
          "duration": 0.06,
          "phone": "ah_I"
        },
        {
          "duration": 0.08,
          "phone": "b_I"
        },
        {
          "duration": 0.01,
          "phone": "d_E"
        }
      ],
      "start": 11.02,
      "startOffset": 183,
      "word": "RUBBED"
    },
    {
      "alignedWord": "down",
      "case": "success",
      "end": 11.58,
      "endOffset": 194,
      "phones": [
        {
          "duration": 0.1,
          "phone": "d_B"
        },
        {
          "duration": 0.11,
          "phone": "aw_I"
        },
        {
          "duration": 0.1,
          "phone": "n_E"
        }
      ],
      "start": 11.27,
      "startOffset": 190,
      "word": "DOWN"
    },
    {
      "alignedWord": "one",
      "case": "success",
      "end": 11.72,
      "endOffset": 198,
      "phones": [
        {
          "duration": 0.05,
          "phone": "w_B"
        },
        {
          "duration": 0.06,
          "phone": "ah_I"
        },
        {
          "duration": 0.03,
          "phone": "n_E"
        }
      ],
      "start": 11.58,
      "startOffset": 195,
      "word": "ONE"
    },
    {
      "alignedWord": "of",
      "case": "success",
      "end": 11.859999,
      "endOffset": 201,
      "phones": [
        {
          "duration": 0.04,
          "phone": "ah_B"
        },
        {
          "duration": 0.1,
          "phone": "v_E"
        }
      ],
      "start": 11.719999,
      "startOffset": 199,
      "word": "OF"
    },
    {
      "alignedWord": "them",
      "case": "success",
      "end": 12.02,
      "endOffset": 206,
      "phones": [
        {
          "duration": 0.01,
          "phone": "dh_B"
        },
        {
          "duration": 0.11,
          "phone": "eh_I"
        },
        {
          "duration": 0.04,
          "phone": "m_E"
        }
      ],
      "start": 11.86,
      "startOffset": 202,
      "word": "THEM"
    },
    {
      "alignedWord": "until",
      "case": "success",
      "end": 12.299999999999999,
      "endOffset": 212,
      "phones": [
        {
          "duration": 0.04,
          "phone": "ah_B"
        },
        {
          "duration": 0.06,
          "phone": "n_I"
        },
        {
          "duration": 0.06,
          "phone": "t_I"
        },
        {
          "duration": 0.07,
          "phone": "ih_I"
        },
        {
          "duration": 0.05,
          "phone": "l_E"
        }
      ],
      "start": 12.02,
      "startOffset": 207,
      "word": "UNTIL"
    },
    {
      "alignedWord": "he",
      "case": "success",
      "end": 12.46,
      "endOffset": 215,
      "phones": [
        {
          "duration": 0.07,
          "phone": "hh_B"
        },
        {
          "duration": 0.09,
          "phone": "iy_E"
        }
      ],
      "start": 12.3,
      "startOffset": 213,
      "word": "HE"
    },
    {
      "alignedWord": "had",
      "case": "success",
      "end": 12.590000000000002,
      "endOffset": 219,
      "phones": [
        {
          "duration": 0.01,
          "phone": "hh_B"
        },
        {
          "duration": 0.05,
          "phone": "ae_I"
        },
        {
          "duration": 0.07,
          "phone": "d_E"
        }
      ],
      "start": 12.46,
      "startOffset": 216,
      "word": "HAD"
    },
    {
      "alignedWord": "formed",
      "case": "success",
      "end": 12.93,
      "endOffset": 226,
      "phones": [
        {
          "duration": 0.09,
          "phone": "f_B"
        },
        {
          "duration": 0.08,
          "phone": "ao_I"
        },
        {
          "duration": 0.06,
          "phone": "r_I"
        },
        {
          "duration": 0.07,
          "phone": "m_I"
        },
        {
          "duration": 0.04,
          "phone": "d_E"
        }
      ],
      "start": 12.59,
      "startOffset": 220,
      "word": "FORMED"
    },
    {
      "alignedWord": "it",
      "case": "success",
      "end": 13.059999000000001,
      "endOffset": 229,
      "phones": [
        {
          "duration": 0.06,
          "phone": "ih_B"
        },
        {
          "duration": 0.07,
          "phone": "t_E"
        }
      ],
      "start": 12.929999,
      "startOffset": 227,
      "word": "IT"
    },
    {
      "alignedWord": "into",
      "case": "success",
      "end": 13.269999,
      "endOffset": 234,
      "phones": [
        {
          "duration": 0.05,
          "phone": "ih_B"
        },
        {
          "duration": 0.07,
          "phone": "n_I"
        },
        {
          "duration": 0.04,
          "phone": "t_I"
        },
        {
          "duration": 0.05,
          "phone": "uw_E"
        }
      ],
      "start": 13.059999,
      "startOffset": 230,
      "word": "INTO"
    },
    {
      "alignedWord": "the",
      "case": "success",
      "end": 13.37,
      "endOffset": 238,
      "phones": [
        {
          "duration": 0.06,
          "phone": "dh_B"
        },
        {
          "duration": 0.04,
          "phone": "ah_E"
        }
      ],
      "start": 13.27,
      "startOffset": 235,
      "word": "THE"
    },
    {
      "alignedWord": "shape",
      "case": "success",
      "end": 13.7,
      "endOffset": 244,
      "phones": [
        {
          "duration": 0.16,
          "phone": "sh_B"
        },
        {
          "duration": 0.09,
          "phone": "ey_I"
        },
        {
          "duration": 0.08,
          "phone": "p_E"
        }
      ],
      "start": 13.37,
      "startOffset": 239,
      "word": "SHAPE"
    },
    {
      "alignedWord": "of",
      "case": "success",
      "end": 13.89,
      "endOffset": 247,
      "phones": [
        {
          "duration": 0.08,
          "phone": "ah_B"
        },
        {
          "duration": 0.08,
          "phone": "v_E"
        }
      ],
      "start": 13.73,
      "startOffset": 245,
      "word": "OF"
    },
    {
      "alignedWord": "a",
      "case": "success",
      "end": 13.959999,
      "endOffset": 249,
      "phones": [
        {
          "duration": 0.07,
          "phone": "ah_S"
        }
      ],
      "start": 13.889999,
      "startOffset": 248,
      "word": "A"
    },
    {
      "alignedWord": "rude",
      "case": "success",
      "end": 14.260000000000002,
      "endOffset": 254,
      "phones": [
        {
          "duration": 0.1,
          "phone": "r_B"
        },
        {
          "duration": 0.14,
          "phone": "uw_I"
        },
        {
          "duration": 0.06,
          "phone": "d_E"
        }
      ],
      "start": 13.96,
      "startOffset": 250,
      "word": "RUDE"
    },
    {
      "alignedWord": "knife",
      "case": "success",
      "end": 14.629999,
      "endOffset": 260,
      "phones": [
        {
          "duration": 0.09,
          "phone": "n_B"
        },
        {
          "duration": 0.14,
          "phone": "ay_I"
        },
        {
          "duration": 0.1,
          "phone": "f_E"
        }
      ],
      "start": 14.299999,
      "startOffset": 255,
      "word": "KNIFE"
    },
    {
      "alignedWord": "blade",
      "case": "success",
      "end": 15.0,
      "endOffset": 266,
      "phones": [
        {
          "duration": 0.07,
          "phone": "b_B"
        },
        {
          "duration": 0.09,
          "phone": "l_I"
        },
        {
          "duration": 0.15,
          "phone": "ey_I"
        },
        {
          "duration": 0.06,
          "phone": "d_E"
        }
      ],
      "start": 14.63,
      "startOffset": 261,
      "word": "BLADE"
    }
  ]
}