{
  "transcript": "THAT AT LAST THE GOOD NATURED LITTLE PRINCESS CONSENTED BUT AT MIDNIGHT WHEN THE ODD FOLK APPEARED THE ELDER SISTER SCREAMED WITH TERROR AND FROM THIS TIME ON THE YOUNGEST PRINCESS",
  "words": [
    {
      "alignedWord": "that",
      "case": "success",
      "end": 0.46,
      "endOffset": 4,
      "phones": [
        {
          "duration": 0.09,
          "phone": "dh_B"
        },
        {
          "duration": 0.07,
          "phone": "ae_I"
        },
        {
          "duration": 0.1,
          "phone": "t_E"
        }
      ],
      "start": 0.2,
      "startOffset": 0,
      "word": "THAT"
    },
    {
      "alignedWord": "at",
      "case": "success",
      "end": 0.6799999999999999,
      "endOffset": 7,
      "phones": [
        {
          "duration": 0.12,
          "phone": "ae_B"
        },
        {
          "duration": 0.08,
          "phone": "t_E"
        }
      ],
      "start": 0.48,
      "startOffset": 5,
      "word": "AT"
    },
    {
      "alignedWord": "last",
      "case": "success",
      "end": 1.2,
      "endOffset": 12,
      "phones": [
        {
          "duration": 0.16,
          "phone": "l_B"
        },
        {
          "duration": 0.18,
          "phone": "ae_I"
        },
        {
          "duration": 0.11,
          "phone": "s_I"
        },
        {
          "duration": 0.06,
          "phone": "t_E"
        }
      ],
      "start": 0.69,
      "startOffset": 8,
      "word": "LAST"
    },
    {
      "alignedWord": "the",
      "case": "success",
      "end": 1.3599999999999999,
      "endOffset": 16,
      "phones": [
        {
          "duration": 0.07,
          "phone": "dh_B"
        },
        {
          "duration": 0.07,
          "phone": "ah_E"
        }
      ],
      "start": 1.22,
      "startOffset": 13,
      "word": "THE"
    },
    {
      "alignedWord": "good",
      "case": "success",
      "end": 1.6600000000000001,
      "endOffset": 21,
      "phones": [
        {
          "duration": 0.1,
          "phone": "g_B"
        },
        {
          "duration": 0.1,
          "phone": "uh_I"
        },
        {
          "duration": 0.1,
          "phone": "d_E"
        }
      ],
      "start": 1.36,
      "startOffset": 17,
      "word": "GOOD"
    },
    {
      "alignedWord": "natured",
      "case": "success",
      "end": 2.13,
      "endOffset": 29,
      "phones": [
        {
          "duration": 0.09,
          "phone": "n_B"
        },
        {
          "duration": 0.12,
          "phone": "ey_I"
        },
        {
          "duration": 0.13,
          "phone": "ch_I"
        },
        {
          "duration": 0.06,
          "phone": "er_I"
        },
        {
          "duration": 0.07,
          "phone": "d_E"
        }
      ],
      "start": 1.66,
      "startOffset": 22,
      "word": "NATURED"
    },
    {
      "alignedWord": "little",
      "case": "success",
      "end": 2.43,
      "endOffset": 36,
      "phones": [
        {
          "duration": 0.08,
          "phone": "l_B"
        },
        {
          "duration": 0.06,
          "phone": "ih_I"
        },
        {
          "duration": 0.03,
          "phone": "t_I"
        },
        {
          "duration": 0.04,
          "phone": "ah_I"
        },
        {
          "duration": 0.06,
          "phone": "l_E"
        }
      ],
      "start": 2.16,
      "startOffset": 30,
      "word": "LITTLE"
    },
    {
      "alignedWord": "princess",
      "case": "success",
      "end": 3.1,
      "endOffset": 45,
      "phones": [
        {
          "duration": 0.07,
          "phone": "p_B"
        },
        {
          "duration": 0.06,
          "phone": "r_I"
        },
        {
          "duration": 0.08,
          "phone": "ih_I"
        },
        {
          "duration": 0.08,
          "phone": "n_I"
        },
        {
          "duration": 0.11,
          "phone": "s_I"
        },
        {
          "duration": 0.14,
          "phone": "eh_I"
        },
        {
          "duration": 0.13,
          "phone": "s_E"
        }
      ],
      "start": 2.43,
      "startOffset": 37,
      "word": "PRINCESS"
    },
    {
      "alignedWord": "consented",
      "case": "success",
      "end": 3.9699999999999998,
      "endOffset": 55,
      "phones": [
        {
          "duration": 0.09,
          "phone": "k_B"
        },
        {
          "duration": 0.06,
          "phone": "ah_I"
        },
        {
          "duration": 0.07,
          "phone": "n_I"
        },
        {
          "duration": 0.09,
          "phone": "s_I"
        },
        {
          "duration": 0.1,
          "phone": "eh_I"
        },
        {
          "duration": 0.07,
          "phone": "n_I"
        },
        {
          "duration": 0.09,
          "phone": "t_I"
        },
        {
          "duration": 0.1,
          "phone": "ih_I"
        },
        {
          "duration": 0.19,
          "phone": "d_E"
        }
      ],
      "start": 3.11,
      "startOffset": 46,
      "word": "CONSENTED"
    },
    {
      "alignedWord": "but",
      "case": "success",
      "end": 4.9,
      "endOffset": 59,
      "phones": [
        {
          "duration": 0.08,
          "phone": "b_B"
        },
        {
          "duration": 0.07,
          "phone": "ah_I"
        },
        {
          "duration": 0.04,
          "phone": "t_E"
        }
      ],
      "start": 4.71,
      "startOffset": 56,
      "word": "BUT"
    },
    {
      "alignedWord": "at",
      "case": "success",
      "end": 5.07,
      "endOffset": 62,
      "phones": [
        {
          "duration": 0.08,
          "phone": "ae_B"
        },
        {
          "duration": 0.09,
          "phone": "t_E"
        }
      ],
      "start": 4.9,
      "startOffset": 60,
      "word": "AT"
    },
    {
      "alignedWord": "midnight",
      "case": "success",
      "end": 5.73,
      "endOffset": 71,
      "phones": [
        {
          "duration": 0.11,
          "phone": "m_B"
        },
        {
          "duration": 0.09,
          "phone": "ih_I"
        },
        {
          "duration": 0.1,
          "phone": "d_I"
        },
        {
          "duration": 0.05,
          "phone": "n_I"
        },
        {
          "duration": 0.17,
          "phone": "ay_I"
        },
        {
          "duration": 0.13,
          "phone": "t_E"
        }
      ],
      "start": 5.08,
      "startOffset": 63,
      "word": "MIDNIGHT"
    },
    {
      "alignedWord": "when",
      "case": "success",
      "end": 6.11,
      "endOffset": 76,
      "phones": [
        {
          "duration": 0.09,
          "phone": "w_B"
        },
        {
          "duration": 0.05,
          "phone": "eh_I"
        },
        {
          "duration": 0.06,
          "phone": "n_E"
        }
      ],
      "start": 5.91,
      "startOffset": 72,
      "word": "WHEN"
    },
    {
      "alignedWord": "the",
      "case": "success",
      "end": 6.2700000000000005,
      "endOffset": 80,
      "phones": [
        {
          "duration": 0.04,
          "phone": "dh_B"
        },
        {
          "duration": 0.12,
          "phone": "iy_E"
        }
      ],
      "start": 6.11,
      "startOffset": 77,
      "word": "THE"
    },
    {
      "alignedWord": "odd",
      "case": "success",
      "end": 6.63,
      "endOffset": 84,
      "phones": [
        {
          "duration": 0.24,
          "phone": "aa_B"
        },
        {
          "duration": 0.11,
          "phone": "d_E"
        }
      ],
      "start": 6.28,
      "startOffset": 81,
      "word": "ODD"
    },
    {
      "alignedWord": "folk",
      "case": "success",
      "end": 6.95,
      "endOffset": 89,
      "phones": [
        {
          "duration": 0.12,
          "phone": "f_B"
        },
        {
          "duration": 0.11,
          "phone": "ow_I"
        },
        {
          "duration": 0.09,
          "phone": "k_E"
        }
      ],
      "start": 6.63,
      "startOffset": 85,
      "word": "FOLK"
    },
    {
      "alignedWord": "appeared",
      "case": "success",
      "end": 7.54,
      "endOffset": 98,
      "phones": [
        {
          "duration": 0.07,
          "phone": "ah_B"
        },
        {
          "duration": 0.1,
          "phone": "p_I"
        },
        {
          "duration": 0.18,
          "phone": "ih_I"
        },
        {
          "duration": 0.12,
          "phone": "r_I"
        },
        {
          "duration": 0.12,
          "phone": "d_E"
        }
      ],
      "start": 6.95,
      "startOffset": 90,
      "word": "APPEARED"
    },
    {
      "alignedWord": "the",
      "case": "success",
      "end": 7.9799999999999995,
      "endOffset": 102,
      "phones": [
        {
          "duration": 0.1,
          "phone": "dh_B"
        },
        {
          "duration": 0.08,
          "phone": "iy_E"
        }
      ],
      "start": 7.8,
      "startOffset": 99,
      "word": "THE"
    },
    {
      "alignedWord": "elder",
      "case": "success",
      "end": 8.37,
      "endOffset": 108,
      "phones": [
        {
          "duration": 0.12,
          "phone": "eh_B"
        },
        {
          "duration": 0.08,
          "phone": "l_I"
        },
        {
          "duration": 0.07,
          "phone": "d_I"
        },
        {
          "duration": 0.1,
          "phone": "er_E"
        }
      ],
      "start": 8.0,
      "startOffset": 103,
      "word": "ELDER"
    },
    {
      "alignedWord": "sister",
      "case": "success",
      "end": 8.889999999999999,
      "endOffset": 115,
      "phones": [
        {
          "duration": 0.14,
          "phone": "s_B"
        },
        {
          "duration": 0.09,
          "phone": "ih_I"
        },
        {
          "duration": 0.08,
          "phone": "s_I"
        },
        {
          "duration": 0.1,
          "phone": "t_I"
        },
        {
          "duration": 0.11,
          "phone": "er_E"
        }
      ],
      "start": 8.37,
      "startOffset": 109,
      "word": "SISTER"
    },
    {
      "alignedWord": "screamed",
      "case": "success",
      "end": 9.489999,
      "endOffset": 124,
      "phones": [
        {
          "duration": 0.15,
          "phone": "s_B"
        },
        {
          "duration": 0.11,
          "phone": "k_I"
        },
        {
          "duration": 0.09,
          "phone": "r_I"
        },
        {
          "duration": 0.12,
          "phone": "iy_I"
        },
        {
          "duration": 0.08,
          "phone": "m_I"
        },
        {
          "duration": 0.05,
          "phone": "d_E"
        }
      ],
      "start": 8.889999,
      "startOffset": 116,
      "word": "SCREAMED"
    },
    {
      "alignedWord": "with",
      "case": "success",
      "end": 9.73,
      "endOffset": 129,
      "phones": [
        {
          "duration": 0.08,
          "phone": "w_B"
        },
        {
          "duration": 0.06,
          "phone": "ih_I"
        },
        {
          "duration": 0.07,
          "phone": "th_E"
        }
      ],
      "start": 9.52,
      "startOffset": 125,
      "word": "WITH"
    },
    {
      "alignedWord": "terror",
      "case": "success",
      "end": 10.34,
      "endOffset": 136,
      "phones": [
        {
          "duration": 0.12,
          "phone": "t_B"
        },
        {
          "duration": 0.1,
          "phone": "eh_I"
        },
        {
          "duration": 0.11,
          "phone": "r_I"
        },
        {
          "duration": 0.24,
          "phone": "er_E"
        }
      ],
      "start": 9.77,
      "startOffset": 130,
      "word": "TERROR"
    },
    {
      "alignedWord": "and",
      "case": "success",
      "end": 10.839998999999999,
      "endOffset": 140,
      "phones": [
        {
          "duration": 0.09,
          "phone": "ae_B"
        },
        {
          "duration": 0.07,
          "phone": "n_I"
        },
        {
          "duration": 0.04,
          "phone": "d_E"
        }
      ],
      "start": 10.639999,
      "startOffset": 137,
      "word": "AND"
    },
    {
      "alignedWord": "from",
      "case": "success",
      "end": 11.129999,
      "endOffset": 145,
      "phones": [
        {
          "duration": 0.07,
          "phone": "f_B"
        },
        {
          "duration": 0.05,
          "phone": "r_I"
        },
        {
          "duration": 0.04,
          "phone": "ah_I"
        },
        {
          "duration": 0.12,
          "phone": "m_E"
        }
      ],
      "start": 10.849999,
      "startOffset": 141,
      "word": "FROM"
    },
    {
      "alignedWord": "this",
      "case": "success",
      "end": 11.39,
      "endOffset": 150,
      "phones": [
        {
          "duration": 0.04,
          "phone": "dh_B"
        },
        {
          "duration": 0.12,
          "phone": "ih_I"
        },
        {
          "duration": 0.1,
          "phone": "s_E"
        }
      ],
      "start": 11.13,
      "startOffset": 146,
      "word": "THIS"
    },
    {
      "alignedWord": "time",
      "case": "success",
      "end": 11.76,
      "endOffset": 155,
      "phones": [
        {
          "duration": 0.08,
          "phone": "t_B"
        },
        {
          "duration": 0.17,
          "phone": "ay_I"
        },
        {
          "duration": 0.09,
          "phone": "m_E"
        }
      ],
      "start": 11.42,
      "startOffset": 151,
      "word": "TIME"
    },
    {
      "alignedWord": "on",
      "case": "success",
      "end": 12.179999,
      "endOffset": 158,
      "phones": [
        {
          "duration": 0.24,
          "phone": "aa_B"
        },
        {
          "duration": 0.18,
          "phone": "n_E"
        }
      ],
      "start": 11.759999,
      "startOffset": 156,
      "word": "ON"
    },
    {
      "alignedWord": "the",
      "case": "success",
      "end": 12.57,
      "endOffset": 162,
      "phones": [
        {
          "duration": 0.08,
          "phone": "dh_B"
        },
        {
          "duration": 0.05,
          "phone": "iy_E"
        }
      ],
      "start": 12.44,
      "startOffset": 159,
      "word": "THE"
    },
    {
      "alignedWord": "youngest",
      "case": "success",
      "end": 13.05,
      "endOffset": 171,
      "phones": [
        {
          "duration": 0.1,
          "phone": "y_B"
        },
        {
          "duration": 0.08,
          "phone": "ah_I"
        },
        {
          "duration": 0.07,
          "phone": "ng_I"
        },
        {
          "duration": 0.04,
          "phone": "g_I"
        },
        {
          "duration": 0.06,
          "phone": "ah_I"
        },
        {
          "duration": 0.07,
          "phone": "s_I"
        },
        {
          "duration": 0.06,
          "phone": "t_E"
        }
      ],
      "start": 12.57,
      "startOffset": 163,
      "word": "YOUNGEST"
    },
    {
      "alignedWord": "princess",
      "case": "success",
      "end": 13.67,
      "endOffset": 180,
      "phones": [
        {
          "duration": 0.06,
          "phone": "p_B"
        },
        {
          "duration": 0.04,
          "phone": "r_I"
        },
        {
          "duration": 0.07,
          "phone": "ih_I"
        },
        {
          "duration": 0.07,
          "phone": "n_I"
        },
        {
          "duration": 0.09,
          "phone": "s_I"
        },
        {
          "duration": 0.15,
          "phone": "eh_I"
        },
        {
          "duration": 0.11,
          "phone": "s_E"
        }
      ],
      "start": 13.08,
      "startOffset": 172,
      "word": "PRINCESS"
    }
  ]
}