{
  "transcript": "AND THE HEAT IN THE LOW CEILINGED ROOM ON THE THIRD FLOOR WHICH JULIET OCCUPIED FOR THE SAKE OF ECONOMY WAS OPPRESSIVE IN SPITE OF THE SMALL SASH WINDOWS BEING OPENED TO THEIR UTMOST CAPACITY",
  "words": [
    {
      "alignedWord": "and",
      "case": "success",
      "end": 0.5700000000000001,
      "endOffset": 3,
      "phones": [
        {
          "duration": 0.13,
          "phone": "ae_B"
        },
        {
          "duration": 0.08,
          "phone": "n_I"
        },
        {
          "duration": 0.03,
          "phone": "d_E"
        }
      ],
      "start": 0.33,
      "startOffset": 0,
      "word": "AND"
    },
    {
      "alignedWord": "the",
      "case": "success",
      "end": 0.6599999999999999,
      "endOffset": 7,
      "phones": [
        {
          "duration": 0.01,
          "phone": "dh_B"
        },
        {
          "duration": 0.08,
          "phone": "ah_E"
        }
      ],
      "start": 0.57,
      "startOffset": 4,
      "word": "THE"
    },
    {
      "alignedWord": "heat",
      "case": "success",
      "end": 0.99,
      "endOffset": 12,
      "phones": [
        {
          "duration": 0.13,
          "phone": "hh_B"
        },
        {
          "duration": 0.11,
          "phone": "iy_I"
        },
        {
          "duration": 0.09,
          "phone": "t_E"
        }
      ],
      "start": 0.66,
      "startOffset": 8,
      "word": "HEAT"
    },
    {
      "alignedWord": "in",
      "case": "success",
      "end": 1.18,
      "endOffset": 15,
      "phones": [
        {
          "duration": 0.1,
          "phone": "ih_B"
        },
        {
          "duration": 0.08,
          "phone": "n_E"
        }
      ],
      "start": 1.0,
      "startOffset": 13,
      "word": "IN"
    },
    {
      "alignedWord": "the",
      "case": "success",
      "end": 1.31,
      "endOffset": 19,
      "phones": [
        {
          "duration": 0.04,
          "phone": "dh_B"
        },
        {
          "duration": 0.09,
          "phone": "ah_E"
        }
      ],
      "start": 1.18,
      "startOffset": 16,
      "word": "THE"
    },
    {
      "alignedWord": "low",
      "case": "success",
      "end": 1.54,
      "endOffset": 23,
      "phones": [
        {
          "duration": 0.12,
          "phone": "l_B"
        },
        {
          "duration": 0.11,
          "phone": "ow_E"
        }
      ],
      "start": 1.31,
      "startOffset": 20,
      "word": "LOW"
    },
    {
      "alignedWord": "<unk>",
      "case": "success",
      "end": 2.06,
      "endOffset": 33,
      "phones": [
        {
          "duration": 0.51,
          "phone": "oov_S"
        }
      ],
      "start": 1.55,
      "startOffset": 24,
      "word": "CEILINGED"
    },
    {
      "alignedWord": "room",
      "case": "success",
      "end": 2.36,
      "endOffset": 38,
      "phones": [
        {
          "duration": 0.12,
          "phone": "r_B"
        },
        {
          "duration": 0.1,
          "phone": "uw_I"
        },
        {
          "duration": 0.08,
          "phone": "m_E"
        }
      ],
      "start": 2.06,
      "startOffset": 34,
      "word": "ROOM"
    },
    {
      "alignedWord": "on",
      "case": "success",
      "end": 2.5300000000000002,
      "endOffset": 41,
      "phones": [
        {
          "duration": 0.07,
          "phone": "aa_B"
        },
        {
          "duration": 0.07,
          "phone": "n_E"
        }
      ],
      "start": 2.39,
      "startOffset": 39,
      "word": "ON"
    },
    {
      "alignedWord": "the",
      "case": "success",
      "end": 2.6599999999999997,
      "endOffset": 45,
      "phones": [
        {
          "duration": 0.06,
          "phone": "dh_B"
        },
        {
          "duration": 0.07,
          "phone": "ah_E"
        }
      ],
      "start": 2.53,
      "startOffset": 42,
      "word": "THE"
    },
    {
      "alignedWord": "third",
      "case": "success",
      "end": 3.0100000000000002,
      "endOffset": 51,
      "phones": [
        {
          "duration": 0.11,
          "phone": "th_B"
        },
        {
          "duration": 0.14,
          "phone": "er_I"
        },
        {
          "duration": 0.1,
          "phone": "d_E"
        }
      ],
      "start": 2.66,
      "startOffset": 46,
      "word": "THIRD"
    },
    {
      "alignedWord": "floor",
      "case": "success",
      "end": 3.4799999999999995,
      "endOffset": 57,
      "phones": [
        {
          "duration": 0.08,
          "phone": "f_B"
        },
        {
          "duration": 0.07,
          "phone": "l_I"
        },
        {
          "duration": 0.11,
          "phone": "ao_I"
        },
        {
          "duration": 0.21,
          "phone": "r_E"
        }
      ],
      "start": 3.01,
      "startOffset": 52,
      "word": "FLOOR"
    },
    {
      "alignedWord": "which",
      "case": "success",
      "end": 4.07,
      "endOffset": 63,
      "phones": [
        {
          "duration": 0.05,
          "phone": "hh_B"
        },
        {
          "duration": 0.07,
          "phone": "w_I"
        },
        {
          "duration": 0.05,
          "phone": "ih_I"
        },
        {
          "duration": 0.1,
          "phone": "ch_E"
        }
      ],
      "start": 3.8,
      "startOffset": 58,
      "word": "WHICH"
    },
    {
      "alignedWord": "juliet",
      "case": "success",
      "end": 4.640000000000001,
      "endOffset": 70,
      "phones": [
        {
          "duration": 0.1,
          "phone": "jh_B"
        },
        {
          "duration": 0.06,
          "phone": "uw_I"
        },
        {
          "duration": 0.09,
          "phone": "l_I"
        },
        {
          "duration": 0.07,
          "phone": "iy_I"
        },
        {
          "duration": 0.08,
          "phone": "eh_I"
        },
        {
          "duration": 0.17,
          "phone": "t_E"
        }
      ],
      "start": 4.07,
      "startOffset": 64,
      "word": "JULIET"
    },
    {
      "alignedWord": "occupied",
      "case": "success",
      "end": 5.34,
      "endOffset": 79,
      "phones": [
        {
          "duration": 0.1,
          "phone": "aa_B"
        },
        {
          "duration": 0.09,
          "phone": "k_I"
        },
        {
          "duration": 0.03,
          "phone": "y_I"
        },
        {
          "duration": 0.05,
          "phone": "ah_I"
        },
        {
          "duration": 0.12,
          "phone": "p_I"
        },
        {
          "duration": 0.17,
          "phone": "ay_I"
        },
        {
          "duration": 0.14,
          "phone": "d_E"
        }
      ],
      "start": 4.64,
      "startOffset": 71,
      "word": "OCCUPIED"
    },
    {
      "alignedWord": "for",
      "case": "success",
      "end": 5.5600000000000005,
      "endOffset": 83,
      "phones": [
        {
          "duration": 0.08,
          "phone": "f_B"
        },
        {
          "duration": 0.08,
          "phone": "er_E"
        }
      ],
      "start": 5.4,
      "startOffset": 80,
      "word": "FOR"
    },
    {
      "alignedWord": "the",
      "case": "success",
      "end": 5.6899999999999995,
      "endOffset": 87,
      "phones": [
        {
          "duration": 0.05,
          "phone": "dh_B"
        },
        {
          "duration": 0.08,
          "phone": "ah_E"
        }
      ],
      "start": 5.56,
      "startOffset": 84,
      "word": "THE"
    },
    {
      "alignedWord": "sake",
      "case": "success",
      "end": 5.99,
      "endOffset": 92,
      "phones": [
        {
          "duration": 0.14,
          "phone": "s_B"
        },
        {
          "duration": 0.09,
          "phone": "ey_I"
        },
        {
          "duration": 0.07,
          "phone": "k_E"
        }
      ],
      "start": 5.69,
      "startOffset": 88,
      "word": "SAKE"
    },
    {
      "alignedWord": "of",
      "case": "success",
      "end": 6.1000000000000005,
      "endOffset": 95,
      "phones": [
        {
          "duration": 0.04,
          "phone": "ah_B"
        },
        {
          "duration": 0.07,
          "phone": "v_E"
        }
      ],
      "start": 5.99,
      "startOffset": 93,
      "word": "OF"
    },
    {
      "alignedWord": "economy",
      "case": "success",
      "end": 6.76,
      "endOffset": 103,
      "phones": [
        {
          "duration": 0.05,
          "phone": "ih_B"
        },
        {
          "duration": 0.14,
          "phone": "k_I"
        },
        {
          "duration": 0.09,
          "phone": "aa_I"
        },
        {
          "duration": 0.07,
          "phone": "n_I"
        },
        {
          "duration": 0.05,
          "phone": "ah_I"
        },
        {
          "duration": 0.08,
          "phone": "m_I"
        },
        {
          "duration": 0.18,
          "phone": "iy_E"
        }
      ],
      "start": 6.1,
      "startOffset": 96,
      "word": "ECONOMY"
    },
    {
      "alignedWord": "was",
      "case": "success",
      "end": 7.47,
      "endOffset": 107,
      "phones": [
        {
          "duration": 0.09,
          "phone": "w_B"
        },
        {
          "duration": 0.05,
          "phone": "ah_I"
        },
        {
          "duration": 0.08,
          "phone": "z_E"
        }
      ],
      "start": 7.25,
      "startOffset": 104,
      "word": "WAS"
    },
    {
      "alignedWord": "oppressive",
      "case": "success",
      "end": 7.97,
      "endOffset": 118,
      "phones": [
        {
          "duration": 0.06,
          "phone": "ah_B"
        },
        {
          "duration": 0.11,
          "phone": "p_I"
        },
        {
          "duration": 0.07,
          "phone": "r_I"
        },
        {
          "duration": 0.08,
          "phone": "eh_I"
        },
        {
          "duration": 0.06,
          "phone": "s_I"
        },
        {
          "duration": 0.06,
          "phone": "ih_I"
        },
        {
          "duration": 0.06,
          "phone": "v_E"
        }
      ],
      "start": 7.47,
      "startOffset": 108,
      "word": "OPPRESSIVE"
    },
    {
      "alignedWord": "in",
      "case": "success",
      "end": 8.11,
      "endOffset": 121,
      "phones": [
        {
          "duration": 0.06,
          "phone": "ih_B"
        },
        {
          "duration": 0.08,
          "phone": "n_E"
        }
      ],
      "start": 7.97,
      "startOffset": 119,
      "word": "IN"
    },
    {
      "alignedWord": "spite",
      "case": "success",
      "end": 8.5,
      "endOffset": 127,
      "phones": [
        {
          "duration": 0.14,
          "phone": "s_B"
        },
        {
          "duration": 0.09,
          "phone": "p_I"
        },
        {
          "duration": 0.09,
          "phone": "ay_I"
        },
        {
          "duration": 0.07,
          "phone": "t_E"
        }
      ],
      "start": 8.11,
      "startOffset": 122,
      "word": "SPITE"
    },
    {
      "alignedWord": "of",
      "case": "success",
      "end": 8.63,
      "endOffset": 130,
      "phones": [
        {
          "duration": 0.03,
          "phone": "ah_B"
        },
        {
          "duration": 0.1,
          "phone": "v_E"
        }
      ],
      "start": 8.5,
      "startOffset": 128,
      "word": "OF"
    },
    {
      "alignedWord": "the",
      "case": "success",
      "end": 8.73,
      "endOffset": 134,
      "phones": [
        {
          "duration": 0.01,
          "phone": "dh_B"
        },
        {
          "duration": 0.09,
          "phone": "ah_E"
        }
      ],
      "start": 8.63,
      "startOffset": 131,
      "word": "THE"
    },
    {
      "alignedWord": "small",
      "case": "success",
      "end": 9.13,
      "endOffset": 140,
      "phones": [
        {
          "duration": 0.13,
          "phone": "s_B"
        },
        {
          "duration": 0.06,
          "phone": "m_I"
        },
        {
          "duration": 0.11,
          "phone": "ao_I"
        },
        {
          "duration": 0.1,
          "phone": "l_E"
        }
      ],
      "start": 8.73,
      "startOffset": 135,
      "word": "SMALL"
    },
    {
      "alignedWord": "sash",
      "case": "success",
      "end": 9.530000000000001,
      "endOffset": 145,
      "phones": [
        {
          "duration": 0.15,
          "phone": "s_B"
        },
        {
          "duration": 0.13,
          "phone": "ae_I"
        },
        {
          "duration": 0.12,
          "phone": "sh_E"
        }
      ],
      "start": 9.13,
      "startOffset": 141,
      "word": "SASH"
    },
    {
      "alignedWord": "windows",
      "case": "success",
      "end": 10.010000000000002,
      "endOffset": 153,
      "phones": [
        {
          "duration": 0.09,
          "phone": "w_B"
        },
        {
          "duration": 0.07,
          "phone": "ih_I"
        },
        {
          "duration": 0.03,
          "phone": "n_I"
        },
        {
          "duration": 0.07,
          "phone": "d_I"
        },
        {
          "duration": 0.1,
          "phone": "ow_I"
        },
        {
          "duration": 0.1,
          "phone": "z_E"
        }
      ],
      "start": 9.55,
      "startOffset": 146,
      "word": "WINDOWS"
    },
    {
      "alignedWord": "being",
      "case": "success",
      "end": 10.299999999999999,
      "endOffset": 159,
      "phones": [
        {
          "duration": 0.09,
          "phone": "b_B"
        },
        {
          "duration": 0.06,
          "phone": "iy_I"
        },
        {
          "duration": 0.05,
          "phone": "ih_I"
        },
        {
          "duration": 0.07,
          "phone": "ng_E"
        }
      ],
      "start": 10.03,
      "startOffset": 154,
      "word": "BEING"
    },
    {
      "alignedWord": "opened",
      "case": "success",
      "end": 10.73,
      "endOffset": 166,
      "phones": [
        {
          "duration": 0.13,
          "phone": "ow_B"
        },
        {
          "duration": 0.08,
          "phone": "p_I"
        },
        {
          "duration": 0.06,
          "phone": "ah_I"
        },
        {
          "duration": 0.06,
          "phone": "n_I"
        },
        {
          "duration": 0.07,
          "phone": "d_E"
        }
      ],
      "start": 10.33,
      "startOffset": 160,
      "word": "OPENED"
    },
    {
      "alignedWord": "to",
      "case": "success",
      "end": 10.83,
      "endOffset": 169,
      "phones": [
        {
          "duration": 0.03,
          "phone": "t_B"
        },
        {
          "duration": 0.07,
          "phone": "ih_E"
        }
      ],
      "start": 10.73,
      "startOffset": 167,
      "word": "TO"
    },
    {
      "alignedWord": "their",
      "case": "success",
      "end": 11.01,
      "endOffset": 175,
      "phones": [
        {
          "duration": 0.05,
          "phone": "dh_B"
        },
        {
          "duration": 0.05,
          "phone": "eh_I"
        },
        {
          "duration": 0.08,
          "phone": "r_E"
        }
      ],
      "start": 10.83,
      "startOffset": 170,
      "word": "THEIR"
    },
    {
      "alignedWord": "utmost",
      "case": "success",
      "end": 11.459999,
      "endOffset": 182,
      "phones": [
        {
          "duration": 0.11,
          "phone": "ah_B"
        },
        {
          "duration": 0.08,
          "phone": "t_I"
        },
        {
          "duration": 0.06,
          "phone": "m_I"
        },
        {
          "duration": 0.08,
          "phone": "ow_I"
        },
        {
          "duration": 0.06,
          "phone": "s_I"
        },
        {
          "duration": 0.01,
          "phone": "t_E"
        }
      ],
      "start": 11.059999,
      "startOffset": 176,
      "word": "UTMOST"
    },
    {
      "alignedWord": "capacity",
      "case": "success",
      "end": 12.2,
      "endOffset": 191,
      "phones": [
        {
          "duration": 0.06,
          "phone": "k_B"
        },
        {
          "duration": 0.03,
          "phone": "ah_I"
        },
        {
          "duration": 0.11,
          "phone": "p_I"
        },
        {
          "duration": 0.13,
          "phone": "ae_I"
        },
        {
          "duration": 0.08,
          "phone": "s_I"
        },
        {
          "duration": 0.08,
          "phone": "ah_I"
        },
        {
          "duration": 0.05,
          "phone": "t_I"
        },
        {
          "duration": 0.17,
          "phone": "iy_E"
        }
      ],
      "start": 11.49,
      "startOffset": 183,
      "word": "CAPACITY"
    }
  ]
}