{
  "transcript": "AND HE ALSO LEANED FORWARD IN SILENCE FROM HIS CHAIR A FAT RED HAND UPON EITHER KNEE AND STARED CRITICALLY AT THE YOUNG ASSISTANT SO DID THE THIRD VISITOR FAWCETT THE HORSE BREAKER WHO LEANED BACK HIS LONG THIN LEGS WITH THEIR BOXCLOTH RIDING GAITERS",
  "words": [
    {
      "alignedWord": "and",
      "case": "success",
      "end": 0.35,
      "endOffset": 3,
      "phones": [
        {
          "duration": 0.08,
          "phone": "ae_B"
        },
        {
          "duration": 0.04,
          "phone": "n_I"
        },
        {
          "duration": 0.02,
          "phone": "d_E"
        }
      ],
      "start": 0.21,
      "startOffset": 0,
      "word": "AND"
    },
    {
      "alignedWord": "he",
      "case": "success",
      "end": 0.44999999999999996,
      "endOffset": 6,
      "phones": [
        {
          "duration": 0.03,
          "phone": "hh_B"
        },
        {
          "duration": 0.07,
          "phone": "iy_E"
        }
      ],
      "start": 0.35,
      "startOffset": 4,
      "word": "HE"
    },
    {
      "alignedWord": "also",
      "case": "success",
      "end": 0.76,
      "endOffset": 11,
      "phones": [
        {
          "duration": 0.06,
          "phone": "ao_B"
        },
        {
          "duration": 0.09,
          "phone": "l_I"
        },
        {
          "duration": 0.08,
          "phone": "s_I"
        },
        {
          "duration": 0.08,
          "phone": "ow_E"
        }
      ],
      "start": 0.45,
      "startOffset": 7,
      "word": "ALSO"
    },
    {
      "alignedWord": "leaned",
      "case": "success",
      "end": 1.09,
      "endOffset": 18,
      "phones": [
        {
          "duration": 0.09,
          "phone": "l_B"
        },
        {
          "duration": 0.11,
          "phone": "iy_I"
        },
        {
          "duration": 0.05,
          "phone": "n_I"
        },
        {
          "duration": 0.08,
          "phone": "d_E"
        }
      ],
      "start": 0.76,
      "startOffset": 12,
      "word": "LEANED"
    },
    {
      "alignedWord": "forward",
      "case": "success",
      "end": 1.46,
      "endOffset": 26,
      "phones": [
        {
          "duration": 0.06,
          "phone": "f_B"
        },
        {
          "duration": 0.08,
          "phone": "ao_I"
        },
        {
          "duration": 0.06,
          "phone": "r_I"
        },
        {
          "duration": 0.06,
          "phone": "w_I"
        },
        {
          "duration": 0.05,
          "phone": "er_I"
        },
        {
          "duration": 0.06,
          "phone": "d_E"
        }
      ],
      "start": 1.09,
      "startOffset": 19,
      "word": "FORWARD"
    },
    {
      "alignedWord": "in",
      "case": "success",
      "end": 1.6099999999999999,
      "endOffset": 29,
      "phones": [
        {
          "duration": 0.06,
          "phone": "ih_B"
        },
        {
          "duration": 0.09,
          "phone": "n_E"
        }
      ],
      "start": 1.46,
      "startOffset": 27,
      "word": "IN"
    },
    {
      "alignedWord": "silence",
      "case": "success",
      "end": 2.0100000000000002,
      "endOffset": 37,
      "phones": [
        {
          "duration": 0.11,
          "phone": "s_B"
        },
        {
          "duration": 0.11,
          "phone": "ay_I"
        },
        {
          "duration": 0.05,
          "phone": "l_I"
        },
        {
          "duration": 0.06,
          "phone": "ah_I"
        },
        {
          "duration": 0.04,
          "phone": "n_I"
        },
        {
          "duration": 0.03,
          "phone": "s_E"
        }
      ],
      "start": 1.61,
      "startOffset": 30,
      "word": "SILENCE"
    },
    {
      "alignedWord": "from",
      "case": "success",
      "end": 2.1999999999999997,
      "endOffset": 42,
      "phones": [
        {
          "duration": 0.06,
          "phone": "f_B"
        },
        {
          "duration": 0.06,
          "phone": "er_I"
        },
        {
          "duration": 0.07,
          "phone": "m_E"
        }
      ],
      "start": 2.01,
      "startOffset": 38,
      "word": "FROM"
    },
    {
      "alignedWord": "his",
      "case": "success",
      "end": 2.3600000000000003,
      "endOffset": 46,
      "phones": [
        {
          "duration": 0.02,
          "phone": "hh_B"
        },
        {
          "duration": 0.05,
          "phone": "ih_I"
        },
        {
          "duration": 0.09,
          "phone": "z_E"
        }
      ],
      "start": 2.2,
      "startOffset": 43,
      "word": "HIS"
    },
    {
      "alignedWord": "chair",
      "case": "success",
      "end": 2.84,
      "endOffset": 52,
      "phones": [
        {
          "duration": 0.13,
          "phone": "ch_B"
        },
        {
          "duration": 0.11,
          "phone": "eh_I"
        },
        {
          "duration": 0.24,
          "phone": "r_E"
        }
      ],
      "start": 2.36,
      "startOffset": 47,
      "word": "CHAIR"
    },
    {
      "alignedWord": "a",
      "case": "success",
      "end": 3.25,
      "endOffset": 54,
      "phones": [
        {
          "duration": 0.12,
          "phone": "ah_S"
        }
      ],
      "start": 3.13,
      "startOffset": 53,
      "word": "A"
    },
    {
      "alignedWord": "fat",
      "case": "success",
      "end": 3.62,
      "endOffset": 58,
      "phones": [
        {
          "duration": 0.13,
          "phone": "f_B"
        },
        {
          "duration": 0.14,
          "phone": "ae_I"
        },
        {
          "duration": 0.1,
          "phone": "t_E"
        }
      ],
      "start": 3.25,
      "startOffset": 55,
      "word": "FAT"
    },
    {
      "alignedWord": "red",
      "case": "success",
      "end": 4.0,
      "endOffset": 62,
      "phones": [
        {
          "duration": 0.19,
          "phone": "r_B"
        },
        {
          "duration": 0.11,
          "phone": "eh_I"
        },
        {
          "duration": 0.07,
          "phone": "d_E"
        }
      ],
      "start": 3.63,
      "startOffset": 59,
      "word": "RED"
    },
    {
      "alignedWord": "hand",
      "case": "success",
      "end": 4.32,
      "endOffset": 67,
      "phones": [
        {
          "duration": 0.07,
          "phone": "hh_B"
        },
        {
          "duration": 0.14,
          "phone": "ae_I"
        },
        {
          "duration": 0.07,
          "phone": "n_I"
        },
        {
          "duration": 0.04,
          "phone": "d_E"
        }
      ],
      "start": 4.0,
      "startOffset": 63,
      "word": "HAND"
    },
    {
      "alignedWord": "upon",
      "case": "success",
      "end": 4.63,
      "endOffset": 72,
      "phones": [
        {
          "duration": 0.06,
          "phone": "ah_B"
        },
        {
          "duration": 0.07,
          "phone": "p_I"
        },
        {
          "duration": 0.11,
          "phone": "aa_I"
        },
        {
          "duration": 0.07,
          "phone": "n_E"
        }
      ],
      "start": 4.32,
      "startOffset": 68,
      "word": "UPON"
    },
    {
      "alignedWord": "either",
      "case": "success",
      "end": 4.85,
      "endOffset": 79,
      "phones": [
        {
          "duration": 0.08,
          "phone": "iy_B"
        },
        {
          "duration": 0.07,
          "phone": "dh_I"
        },
        {
          "duration": 0.07,
          "phone": "er_E"
        }
      ],
      "start": 4.63,
      "startOffset": 73,
      "word": "EITHER"
    },
    {
      "alignedWord": "knee",
      "case": "success",
      "end": 5.18,
      "endOffset": 84,
      "phones": [
        {
          "duration": 0.07,
          "phone": "n_B"
        },
        {
          "duration": 0.26,
          "phone": "iy_E"
        }
      ],
      "start": 4.85,
      "startOffset": 80,
      "word": "KNEE"
    },
    {
      "alignedWord": "and",
      "case": "success",
      "end": 5.720000000000001,
      "endOffset": 88,
      "phones": [
        {
          "duration": 0.08,
          "phone": "ae_B"
        },
        {
          "duration": 0.05,
          "phone": "n_I"
        },
        {
          "duration": 0.06,
          "phone": "d_E"
        }
      ],
      "start": 5.53,
      "startOffset": 85,
      "word": "AND"
    },
    {
      "alignedWord": "stared",
      "case": "success",
      "end": 6.04,
      "endOffset": 95,
      "phones": [
        {
          "duration": 0.04,
          "phone": "s_B"
        },
        {
          "duration": 0.05,
          "phone": "t_I"
        },
        {
          "duration": 0.08,
          "phone": "eh_I"
        },
        {
          "duration": 0.06,
          "phone": "r_I"
        },
        {
          "duration": 0.09,
          "phone": "d_E"
        }
      ],
      "start": 5.72,
      "startOffset": 89,
      "word": "STARED"
    },
    {
      "alignedWord": "critically",
      "case": "success",
      "end": 6.68,
      "endOffset": 106,
      "phones": [
        {
          "duration": 0.09,
          "phone": "k_B"
        },
        {
          "duration": 0.06,
          "phone": "r_I"
        },
        {
          "duration": 0.02,
          "phone": "ih_I"
        },
        {
          "duration": 0.04,
          "phone": "t_I"
        },
        {
          "duration": 0.05,
          "phone": "ih_I"
        },
        {
          "duration": 0.08,
          "phone": "k_I"
        },
        {
          "duration": 0.08,
          "phone": "l_I"
        },
        {
          "duration": 0.22,
          "phone": "iy_E"
        }
      ],
      "start": 6.04,
      "startOffset": 96,
      "word": "CRITICALLY"
    },
    {
      "alignedWord": "at",
      "case": "success",
      "end": 7.04,
      "endOffset": 109,
      "phones": [
        {
          "duration": 0.1,
          "phone": "ae_B"
        },
        {
          "duration": 0.05,
          "phone": "t_E"
        }
      ],
      "start": 6.89,
      "startOffset": 107,
      "word": "AT"
    },
    {
      "alignedWord": "the",
      "case": "success",
      "end": 7.13,
      "endOffset": 113,
      "phones": [
        {
          "duration": 0.04,
          "phone": "dh_B"
        },
        {
          "duration": 0.05,
          "phone": "iy_E"
        }
      ],
      "start": 7.04,
      "startOffset": 110,
      "word": "THE"
    },
    {
      "alignedWord": "young",
      "case": "success",
      "end": 7.34,
      "endOffset": 119,
      "phones": [
        {
          "duration": 0.07,
          "phone": "y_B"
        },
        {
          "duration": 0.09,
          "phone": "ah_I"
        },
        {
          "duration": 0.05,
          "phone": "ng_E"
        }
      ],
      "start": 7.13,
      "startOffset": 114,
      "word": "YOUNG"
    },
    {
      "alignedWord": "assistant",
      "case": "success",
      "end": 7.97,
      "endOffset": 129,
      "phones": [
        {
          "duration": 0.07,
          "phone": "ah_B"
        },
        {
          "duration": 0.05,
          "phone": "s_I"
        },
        {
          "duration": 0.07,
          "phone": "ih_I"
        },
        {
          "duration": 0.08,
          "phone": "s_I"
        },
        {
          "duration": 0.06,
          "phone": "t_I"
        },
        {
          "duration": 0.07,
          "phone": "ah_I"
        },
        {
          "duration": 0.06,
          "phone": "n_I"
        },
        {
          "duration": 0.17,
          "phone": "t_E"
        }
      ],
      "start": 7.34,
      "startOffset": 120,
      "word": "ASSISTANT"
    },
    {
      "alignedWord": "so",
      "case": "success",
      "end": 9.270000000000001,
      "endOffset": 132,
      "phones": [
        {
          "duration": 0.19,
          "phone": "s_B"
        },
        {
          "duration": 0.12,
          "phone": "ow_E"
        }
      ],
      "start": 8.96,
      "startOffset": 130,
      "word": "SO"
    },
    {
      "alignedWord": "did",
      "case": "success",
      "end": 9.469999999999999,
      "endOffset": 136,
      "phones": [
        {
          "duration": 0.07,
          "phone": "d_B"
        },
        {
          "duration": 0.06,
          "phone": "ih_I"
        },
        {
          "duration": 0.07,
          "phone": "d_E"
        }
      ],
      "start": 9.27,
      "startOffset": 133,
      "word": "DID"
    },
    {
      "alignedWord": "the",
      "case": "success",
      "end": 9.549999,
      "endOffset": 140,
      "phones": [
        {
          "duration": 0.01,
          "phone": "dh_B"
        },
        {
          "duration": 0.07,
          "phone": "ah_E"
        }
      ],
      "start": 9.469999,
      "startOffset": 137,
      "word": "THE"
    },
    {
      "alignedWord": "third",
      "case": "success",
      "end": 9.82,
      "endOffset": 146,
      "phones": [
        {
          "duration": 0.09,
          "phone": "th_B"
        },
        {
          "duration": 0.1,
          "phone": "er_I"
        },
        {
          "duration": 0.08,
          "phone": "d_E"
        }
      ],
      "start": 9.55,
      "startOffset": 141,
      "word": "THIRD"
    },
    {
      "alignedWord": "visitor",
      "case": "success",
      "end": 10.35,
      "endOffset": 154,
      "phones": [
        {
          "duration": 0.03,
          "phone": "v_B"
        },
        {
          "duration": 0.07,
          "phone": "ih_I"
        },
        {
          "duration": 0.05,
          "phone": "z_I"
        },
        {
          "duration": 0.08,
          "phone": "ih_I"
        },
        {
          "duration": 0.07,
          "phone": "t_I"
        },
        {
          "duration": 0.23,
          "phone": "er_E"
        }
      ],
      "start": 9.82,
      "startOffset": 147,
      "word": "VISITOR"
    },
    {
      "alignedWord": "fawcett",
      "case": "success",
      "end": 11.06,
      "endOffset": 162,
      "phones": [
        {
          "duration": 0.1,
          "phone": "f_B"
        },
        {
          "duration": 0.11,
          "phone": "ao_I"
        },
        {
          "duration": 0.08,
          "phone": "s_I"
        },
        {
          "duration": 0.08,
          "phone": "ih_I"
        },
        {
          "duration": 0.2,
          "phone": "t_E"
        }
      ],
      "start": 10.49,
      "startOffset": 155,
      "word": "FAWCETT"
    },
    {
      "alignedWord": "the",
      "case": "success",
      "end": 11.32,
      "endOffset": 166,
      "phones": [
        {
          "duration": 0.06,
          "phone": "dh_B"
        },
        {
          "duration": 0.05,
          "phone": "ah_E"
        }
      ],
      "start": 11.21,
      "startOffset": 163,
      "word": "THE"
    },
    {
      "alignedWord": "horse",
      "case": "success",
      "end": 11.56,
      "endOffset": 172,
      "phones": [
        {
          "duration": 0.04,
          "phone": "hh_B"
        },
        {
          "duration": 0.08,
          "phone": "ao_I"
        },
        {
          "duration": 0.05,
          "phone": "r_I"
        },
        {
          "duration": 0.07,
          "phone": "s_E"
        }
      ],
      "start": 11.32,
      "startOffset": 167,
      "word": "HORSE"
    },
    {
      "alignedWord": "breaker",
      "case": "success",
      "end": 12.039999,
      "endOffset": 180,
      "phones": [
        {
          "duration": 0.07,
          "phone": "b_B"
        },
        {
          "duration": 0.05,
          "phone": "r_I"
        },
        {
          "duration": 0.06,
          "phone": "ey_I"
        },
        {
          "duration": 0.08,
          "phone": "k_I"
        },
        {
          "duration": 0.22,
          "phone": "er_E"
        }
      ],
      "start": 11.559999,
      "startOffset": 173,
      "word": "BREAKER"
    },
    {
      "alignedWord": "who",
      "case": "success",
      "end": 12.599999,
      "endOffset": 184,
      "phones": [
        {
          "duration": 0.1,
          "phone": "hh_B"
        },
        {
          "duration": 0.11,
          "phone": "uw_E"
        }
      ],
      "start": 12.389999,
      "startOffset": 181,
      "word": "WHO"
    },
    {
      "alignedWord": "leaned",
      "case": "success",
      "end": 12.869999,
      "endOffset": 191,
      "phones": [
        {
          "duration": 0.08,
          "phone": "l_B"
        },
        {
          "duration": 0.13,
          "phone": "iy_I"
        },
        {
          "duration": 0.05,
          "phone": "n_I"
        },
        {
          "duration": 0.01,
          "phone": "d_E"
        }
      ],
      "start": 12.599999,
      "startOffset": 185,
      "word": "LEANED"
    },
    {
      "alignedWord": "back",
      "case": "success",
      "end": 13.3,
      "endOffset": 196,
      "phones": [
        {
          "duration": 0.08,
          "phone": "b_B"
        },
        {
          "duration": 0.17,
          "phone": "ae_I"
        },
        {
          "duration": 0.17,
          "phone": "k_E"
        }
      ],
      "start": 12.88,
      "startOffset": 192,
      "word": "BACK"
    },
    {
      "alignedWord": "his",
      "case": "success",
      "end": 13.75,
      "endOffset": 200,
      "phones": [
        {
          "duration": 0.11,
          "phone": "hh_B"
        },
        {
          "duration": 0.05,
          "phone": "ih_I"
        },
        {
          "duration": 0.1,
          "phone": "z_E"
        }
      ],
      "start": 13.49,
      "startOffset": 197,
      "word": "HIS"
    },
    {
      "alignedWord": "long",
      "case": "success",
      "end": 14.1,
      "endOffset": 205,
      "phones": [
        {
          "duration": 0.09,
          "phone": "l_B"
        },
        {
          "duration": 0.14,
          "phone": "ao_I"
        },
        {
          "duration": 0.12,
          "phone": "ng_E"
        }
      ],
      "start": 13.75,
      "startOffset": 201,
      "word": "LONG"
    },
    {
      "alignedWord": "thin",
      "case": "success",
      "end": 14.47,
      "endOffset": 210,
      "phones": [
        {
          "duration": 0.08,
          "phone": "th_B"
        },
        {
          "duration": 0.12,
          "phone": "ih_I"
        },
        {
          "duration": 0.11,
          "phone": "n_E"
        }
      ],
      "start": 14.16,
      "startOffset": 206,
      "word": "THIN"
    },
    {
      "alignedWord": "legs",
      "case": "success",
      "end": 14.879999,
      "endOffset": 215,
      "phones": [
        {
          "duration": 0.06,
          "phone": "l_B"
        },
        {
          "duration": 0.15,
          "phone": "eh_I"
        },
        {
          "duration": 0.08,
          "phone": "g_I"
        },
        {
          "duration": 0.12,
          "phone": "z_E"
        }
      ],
      "start": 14.469999,
      "startOffset": 211,
      "word": "LEGS"
    },
    {
      "alignedWord": "with",
      "case": "success",
      "end": 15.319999999999999,
      "endOffset": 220,
      "phones": [
        {
          "duration": 0.18,
          "phone": "w_B"
        },
        {
          "duration": 0.04,
          "phone": "ih_I"
        },
        {
          "duration": 0.06,
          "phone": "th_E"
        }
      ],
      "start": 15.04,
      "startOffset": 216,
      "word": "WITH"
    },
    {
      "alignedWord": "their",
      "case": "success",
      "end": 15.450000000000001,
      "endOffset": 226,
      "phones": [
        {
          "duration": 0.01,
          "phone": "dh_B"
        },
        {
          "duration": 0.06,
          "phone": "eh_I"
        },
        {
          "duration": 0.06,
          "phone": "r_E"
        }
      ],
      "start": 15.32,
      "startOffset": 221,
      "word": "THEIR"
    },
    {
      "alignedWord": "<unk>",
      "case": "success",
      "end": 16.04,
      "endOffset": 235,
      "phones": [
        {
          "duration": 0.59,
          "phone": "oov_S"
        }
      ],
      "start": 15.45,
      "startOffset": 227,
      "word": "BOXCLOTH"
    },
    {
      "alignedWord": "riding",
      "case": "success",
      "end": 16.409999000000003,
      "endOffset": 242,
      "phones": [
        {
          "duration": 0.13,
          "phone": "r_B"
        },
        {
          "duration": 0.07,
          "phone": "ay_I"
        },
        {
          "duration": 0.04,
          "phone": "d_I"
        },
        {
          "duration": 0.05,
          "phone": "ih_I"
        },
        {
          "duration": 0.08,
          "phone": "ng_E"
        }
      ],
      "start": 16.039999,
      "startOffset": 236,
      "word": "RIDING"
    },
    {
      "alignedWord": "<unk>",
      "case": "success",
      "end": 16.8,
      "endOffset": 250,
      "phones": [
        {
          "duration": 0.39,
          "phone": "oov_S"
        }
      ],
      "start": 16.41,
      "startOffset": 243,
      "word": "GAITERS"
    }
  ]
}