{
  "transcript": "YES ADAM I AND THE CHAPLAIN HAVE BOTH BEEN WITH HER THIS EVENING DID YOU ASK HER SIR DID YOU SAY ANYTHING ABOUT ME YES SAID MISTER IRWINE WITH SOME HESITATION",
  "words": [
    {
      "alignedWord": "yes",
      "case": "success",
      "end": 0.77,
      "endOffset": 3,
      "phones": [
        {
          "duration": 0.14,
          "phone": "y_B"
        },
        {
          "duration": 0.09,
          "phone": "eh_I"
        },
        {
          "duration": 0.1,
          "phone": "s_E"
        }
      ],
      "start": 0.44,
      "startOffset": 0,
      "word": "YES"
    },
    {
      "alignedWord": "adam",
      "case": "success",
      "end": 1.22,
      "endOffset": 8,
      "phones": [
        {
          "duration": 0.15,
          "phone": "ae_B"
        },
        {
          "duration": 0.05,
          "phone": "d_I"
        },
        {
          "duration": 0.06,
          "phone": "ah_I"
        },
        {
          "duration": 0.16,
          "phone": "m_E"
        }
      ],
      "start": 0.8,
      "startOffset": 4,
      "word": "ADAM"
    },
    {
      "alignedWord": "i",
      "case": "success",
      "end": 2.25,
      "endOffset": 10,
      "phones": [
        {
          "duration": 0.25,
          "phone": "ay_S"
        }
      ],
      "start": 2.0,
      "startOffset": 9,
      "word": "I"
    },
    {
      "alignedWord": "and",
      "case": "success",
      "end": 2.36,
      "endOffset": 14,
      "phones": [
        {
          "duration": 0.07,
          "phone": "ah_B"
        },
        {
          "duration": 0.01,
          "phone": "n_I"
        },
        {
          "duration": 0.03,
          "phone": "d_E"
        }
      ],
      "start": 2.25,
      "startOffset": 11,
      "word": "AND"
    },
    {
      "alignedWord": "the",
      "case": "success",
      "end": 2.42,
      "endOffset": 18,
      "phones": [
        {
          "duration": 0.01,
          "phone": "dh_B"
        },
        {
          "duration": 0.05,
          "phone": "ah_E"
        }
      ],
      "start": 2.36,
      "startOffset": 15,
      "word": "THE"
    },
    {
      "alignedWord": "chaplain",
      "case": "success",
      "end": 2.86,
      "endOffset": 27,
      "phones": [
        {
          "duration": 0.13,
          "phone": "ch_B"
        },
        {
          "duration": 0.1,
          "phone": "ae_I"
        },
        {
          "duration": 0.08,
          "phone": "p_I"
        },
        {
          "duration": 0.04,
          "phone": "l_I"
        },
        {
          "duration": 0.04,
          "phone": "ah_I"
        },
        {
          "duration": 0.05,
          "phone": "n_E"
        }
      ],
      "start": 2.42,
      "startOffset": 19,
      "word": "CHAPLAIN"
    },
    {
      "alignedWord": "have",
      "case": "success",
      "end": 3.02,
      "endOffset": 32,
      "phones": [
        {
          "duration": 0.04,
          "phone": "hh_B"
        },
        {
          "duration": 0.06,
          "phone": "ae_I"
        },
        {
          "duration": 0.06,
          "phone": "v_E"
        }
      ],
      "start": 2.86,
      "startOffset": 28,
      "word": "HAVE"
    },
    {
      "alignedWord": "both",
      "case": "success",
      "end": 3.32,
      "endOffset": 37,
      "phones": [
        {
          "duration": 0.08,
          "phone": "b_B"
        },
        {
          "duration": 0.13,
          "phone": "ow_I"
        },
        {
          "duration": 0.09,
          "phone": "th_E"
        }
      ],
      "start": 3.02,
      "startOffset": 33,
      "word": "BOTH"
    },
    {
      "alignedWord": "been",
      "case": "success",
      "end": 3.55,
      "endOffset": 42,
      "phones": [
        {
          "duration": 0.06,
          "phone": "b_B"
        },
        {
          "duration": 0.09,
          "phone": "ih_I"
        },
        {
          "duration": 0.08,
          "phone": "n_E"
        }
      ],
      "start": 3.32,
      "startOffset": 38,
      "word": "BEEN"
    },
    {
      "alignedWord": "with",
      "case": "success",
      "end": 3.6999999999999997,
      "endOffset": 47,
      "phones": [
        {
          "duration": 0.05,
          "phone": "w_B"
        },
        {
          "duration": 0.03,
          "phone": "ih_I"
        },
        {
          "duration": 0.07,
          "phone": "th_E"
        }
      ],
      "start": 3.55,
      "startOffset": 43,
      "word": "WITH"
    },
    {
      "alignedWord": "her",
      "case": "success",
      "end": 3.85,
      "endOffset": 51,
      "phones": [
        {
          "duration": 0.07,
          "phone": "hh_B"
        },
        {
          "duration": 0.08,
          "phone": "er_E"
        }
      ],
      "start": 3.7,
      "startOffset": 48,
      "word": "HER"
    },
    {
      "alignedWord": "this",
      "case": "success",
      "end": 4.07,
      "endOffset": 56,
      "phones": [
        {
          "duration": 0.05,
          "phone": "dh_B"
        },
        {
          "duration": 0.06,
          "phone": "ih_I"
        },
        {
          "duration": 0.11,
          "phone": "s_E"
        }
      ],
      "start": 3.85,
      "startOffset": 52,
      "word": "THIS"
    },
    {
      "alignedWord": "evening",
      "case": "success",
      "end": 4.46,
      "endOffset": 64,
      "phones": [
        {
          "duration": 0.09,
          "phone": "iy_B"
        },
        {
          "duration": 0.08,
          "phone": "v_I"
        },
        {
          "duration": 0.04,
          "phone": "n_I"
        },
        {
          "duration": 0.06,
          "phone": "ih_I"
        },
        {
          "duration": 0.12,
          "phone": "ng_E"
        }
      ],
      "start": 4.07,
      "startOffset": 57,
      "word": "EVENING"
    },
    {
      "alignedWord": "did",
      "case": "success",
      "end": 6.09,
      "endOffset": 68,
      "phones": [
        {
          "duration": 0.08,
          "phone": "d_B"
        },
        {
          "duration": 0.06,
          "phone": "ih_I"
        },
        {
          "duration": 0.08,
          "phone": "d_E"
        }
      ],
      "start": 5.87,
      "startOffset": 65,
      "word": "DID"
    },
    {
      "alignedWord": "you",
      "case": "success",
      "end": 6.3,
      "endOffset": 72,
      "phones": [
        {
          "duration": 0.08,
          "phone": "y_B"
        },
        {
          "duration": 0.13,
          "phone": "uw_E"
        }
      ],
      "start": 6.09,
      "startOffset": 69,
      "word": "YOU"
    },
    {
      "alignedWord": "ask",
      "case": "success",
      "end": 6.66,
      "endOffset": 76,
      "phones": [
        {
          "duration": 0.17,
          "phone": "ae_B"
        },
        {
          "duration": 0.09,
          "phone": "s_I"
        },
        {
          "duration": 0.07,
          "phone": "k_E"
        }
      ],
      "start": 6.33,
      "startOffset": 73,
      "word": "ASK"
    },
    {
      "alignedWord": "her",
      "case": "success",
      "end": 6.84,
      "endOffset": 80,
      "phones": [
        {
          "duration": 0.08,
          "phone": "hh_B"
        },
        {
          "duration": 0.1,
          "phone": "er_E"
        }
      ],
      "start": 6.66,
      "startOffset": 77,
      "word": "HER"
    },
    {
      "alignedWord": "sir",
      "case": "success",
      "end": 7.34,
      "endOffset": 84,
      "phones": [
        {
          "duration": 0.17,
          "phone": "s_B"
        },
        {
          "duration": 0.33,
          "phone": "er_E"
        }
      ],
      "start": 6.84,
      "startOffset": 81,
      "word": "SIR"
    },
    {
      "alignedWord": "did",
      "case": "success",
      "end": 8.590000000000002,
      "endOffset": 88,
      "phones": [
        {
          "duration": 0.08,
          "phone": "d_B"
        },
        {
          "duration": 0.07,
          "phone": "ih_I"
        },
        {
          "duration": 0.06,
          "phone": "d_E"
        }
      ],
      "start": 8.38,
      "startOffset": 85,
      "word": "DID"
    },
    {
      "alignedWord": "you",
      "case": "success",
      "end": 8.73,
      "endOffset": 92,
      "phones": [
        {
          "duration": 0.06,
          "phone": "y_B"
        },
        {
          "duration": 0.08,
          "phone": "uw_E"
        }
      ],
      "start": 8.59,
      "startOffset": 89,
      "word": "YOU"
    },
    {
      "alignedWord": "say",
      "case": "success",
      "end": 8.96,
      "endOffset": 96,
      "phones": [
        {
          "duration": 0.12,
          "phone": "s_B"
        },
        {
          "duration": 0.11,
          "phone": "ey_E"
        }
      ],
      "start": 8.73,
      "startOffset": 93,
      "word": "SAY"
    },
    {
      "alignedWord": "anything",
      "case": "success",
      "end": 9.32,
      "endOffset": 105,
      "phones": [
        {
          "duration": 0.03,
          "phone": "eh_B"
        },
        {
          "duration": 0.05,
          "phone": "n_I"
        },
        {
          "duration": 0.08,
          "phone": "iy_I"
        },
        {
          "duration": 0.07,
          "phone": "th_I"
        },
        {
          "duration": 0.07,
          "phone": "ih_I"
        },
        {
          "duration": 0.06,
          "phone": "ng_E"
        }
      ],
      "start": 8.96,
      "startOffset": 97,
      "word": "ANYTHING"
    },
    {
      "alignedWord": "about",
      "case": "success",
      "end": 9.62,
      "endOffset": 111,
      "phones": [
        {
          "duration": 0.06,
          "phone": "ah_B"
        },
        {
          "duration": 0.08,
          "phone": "b_I"
        },
        {
          "duration": 0.08,
          "phone": "aw_I"
        },
        {
          "duration": 0.07,
          "phone": "t_E"
        }
      ],
      "start": 9.33,
      "startOffset": 106,
      "word": "ABOUT"
    },
    {
      "alignedWord": "me",
      "case": "success",
      "end": 9.959999999999999,
      "endOffset": 114,
      "phones": [
        {
          "duration": 0.06,
          "phone": "m_B"
        },
        {
          "duration": 0.28,
          "phone": "iy_E"
        }
      ],
      "start": 9.62,
      "startOffset": 112,
      "word": "ME"
    },
    {
      "alignedWord": "yes",
      "case": "success",
      "end": 12.38,
      "endOffset": 118,
      "phones": [
        {
          "duration": 0.25,
          "phone": "y_B"
        },
        {
          "duration": 0.25,
          "phone": "eh_I"
        },
        {
          "duration": 0.42,
          "phone": "s_E"
        }
      ],
      "start": 11.46,
      "startOffset": 115,
      "word": "YES"
    },
    {
      "alignedWord": "said",
      "case": "success",
      "end": 12.809999999999999,
      "endOffset": 123,
      "phones": [
        {
          "duration": 0.13,
          "phone": "s_B"
        },
        {
          "duration": 0.08,
          "phone": "eh_I"
        },
        {
          "duration": 0.07,
          "phone": "d_E"
        }
      ],
      "start": 12.53,
      "startOffset": 119,
      "word": "SAID"
    },
    {
      "alignedWord": "mister",
      "case": "success",
      "end": 13.319999,
      "endOffset": 130,
      "phones": [
        {
          "duration": 0.06,
          "phone": "m_B"
        },
        {
          "duration": 0.08,
          "phone": "ih_I"
        },
        {
          "duration": 0.04,
          "phone": "s_I"
        },
        {
          "duration": 0.1,
          "phone": "t_I"
        },
        {
          "duration": 0.23,
          "phone": "er_E"
        }
      ],
      "start": 12.809999,
      "startOffset": 124,
      "word": "MISTER"
    },
    {
      "alignedWord": "<unk>",
      "case": "success",
      "end": 13.46,
      "endOffset": 137,
      "phones": [
        {
          "duration": 0.14,
          "phone": "oov_S"
        }
      ],
      "start": 13.32,
      "startOffset": 131,
      "word": "IRWINE"
    },
    {
      "alignedWord": "with",
      "case": "success",
      "end": 13.629999,
      "endOffset": 142,
      "phones": [
        {
          "duration": 0.06,
          "phone": "w_B"
        },
        {
          "duration": 0.04,
          "phone": "ih_I"
        },
        {
          "duration": 0.06,
          "phone": "th_E"
        }
      ],
      "start": 13.469999,
      "startOffset": 138,
      "word": "WITH"
    },
    {
      "alignedWord": "some",
      "case": "success",
      "end": 13.850000000000001,
      "endOffset": 147,
      "phones": [
        {
          "duration": 0.06,
          "phone": "s_B"
        },
        {
          "duration": 0.08,
          "phone": "ah_I"
        },
        {
          "duration": 0.08,
          "phone": "m_E"
        }
      ],
      "start": 13.63,
      "startOffset": 143,
      "word": "SOME"
    },
    {
      "alignedWord": "hesitation",
      "case": "success",
      "end": 14.619999,
      "endOffset": 158,
      "phones": [
        {
          "duration": 0.03,
          "phone": "hh_B"
        },
        {
          "duration": 0.08,
          "phone": "eh_I"
        },
        {
          "duration": 0.04,
          "phone": "z_I"
        },
        {
          "duration": 0.08,
          "phone": "ah_I"
        },
        {
          "duration": 0.09,
          "phone": "t_I"
        },
        {
          "duration": 0.1,
          "phone": "ey_I"
        },
        {
          "duration": 0.11,
          "phone": "sh_I"
        },
        {
          "duration": 0.07,
          "phone": "ah_I"
        },
        {
          "duration": 0.17,
          "phone": "n_E"
        }
      ],
      "start": 13.849999,
      "startOffset": 148,
      "word": "HESITATION"
    }
  ]
}