{
  "transcript": "HE WILL SEE NO CHANGE IT IS TRUE MY YOUNG MEN DID NOT GO OUT ON THE WAR PATH THEY HAD DREAMS FOR NOT DOING SO BUT THEY LOVE AND VENERATE THE GREAT WHITE CHIEF",
  "words": [
    {
      "alignedWord": "he",
      "case": "success",
      "end": 0.5,
      "endOffset": 2,
      "phones": [
        {
          "duration": 0.16,
          "phone": "hh_B"
        },
        {
          "duration": 0.09,
          "phone": "iy_E"
        }
      ],
      "start": 0.25,
      "startOffset": 0,
      "word": "HE"
    },
    {
      "alignedWord": "will",
      "case": "success",
      "end": 0.6799999999999999,
      "endOffset": 7,
      "phones": [
        {
          "duration": 0.06,
          "phone": "w_B"
        },
        {
          "duration": 0.05,
          "phone": "ih_I"
        },
        {
          "duration": 0.07,
          "phone": "l_E"
        }
      ],
      "start": 0.5,
      "startOffset": 3,
      "word": "WILL"
    },
    {
      "alignedWord": "see",
      "case": "success",
      "end": 0.86,
      "endOffset": 11,
      "phones": [
        {
          "duration": 0.1,
          "phone": "s_B"
        },
        {
          "duration": 0.07,
          "phone": "iy_E"
        }
      ],
      "start": 0.69,
      "startOffset": 8,
      "word": "SEE"
    },
    {
      "alignedWord": "no",
      "case": "success",
      "end": 1.07,
      "endOffset": 14,
      "phones": [
        {
          "duration": 0.09,
          "phone": "n_B"
        },
        {
          "duration": 0.12,
          "phone": "ow_E"
        }
      ],
      "start": 0.86,
      "startOffset": 12,
      "word": "NO"
    },
    {
      "alignedWord": "change",
      "case": "success",
      "end": 1.7000000000000002,
      "endOffset": 21,
      "phones": [
        {
          "duration": 0.17,
          "phone": "ch_B"
        },
        {
          "duration": 0.2,
          "phone": "ey_I"
        },
        {
          "duration": 0.1,
          "phone": "n_I"
        },
        {
          "duration": 0.16,
          "phone": "jh_E"
        }
      ],
      "start": 1.07,
      "startOffset": 15,
      "word": "CHANGE"
    },
    {
      "alignedWord": "it",
      "case": "success",
      "end": 2.55,
      "endOffset": 24,
      "phones": [
        {
          "duration": 0.13,
          "phone": "ih_B"
        },
        {
          "duration": 0.06,
          "phone": "t_E"
        }
      ],
      "start": 2.36,
      "startOffset": 22,
      "word": "IT"
    },
    {
      "alignedWord": "is",
      "case": "success",
      "end": 2.73,
      "endOffset": 27,
      "phones": [
        {
          "duration": 0.08,
          "phone": "ih_B"
        },
        {
          "duration": 0.1,
          "phone": "z_E"
        }
      ],
      "start": 2.55,
      "startOffset": 25,
      "word": "IS"
    },
    {
      "alignedWord": "true",
      "case": "success",
      "end": 3.23,
      "endOffset": 32,
      "phones": [
        {
          "duration": 0.12,
          "phone": "t_B"
        },
        {
          "duration": 0.13,
          "phone": "r_I"
        },
        {
          "duration": 0.25,
          "phone": "uw_E"
        }
      ],
      "start": 2.73,
      "startOffset": 28,
      "word": "TRUE"
    },
    {
      "alignedWord": "my",
      "case": "success",
      "end": 3.84,
      "endOffset": 35,
      "phones": [
        {
          "duration": 0.11,
          "phone": "m_B"
        },
        {
          "duration": 0.06,
          "phone": "ay_E"
        }
      ],
      "start": 3.67,
      "startOffset": 33,
      "word": "MY"
    },
    {
      "alignedWord": "young",
      "case": "success",
      "end": 4.1499999999999995,
      "endOffset": 41,
      "phones": [
        {
          "duration": 0.1,
          "phone": "y_B"
        },
        {
          "duration": 0.12,
          "phone": "ah_I"
        },
        {
          "duration": 0.09,
          "phone": "ng_E"
        }
      ],
      "start": 3.84,
      "startOffset": 36,
      "word": "YOUNG"
    },
    {
      "alignedWord": "men",
      "case": "success",
      "end": 4.33,
      "endOffset": 45,
      "phones": [
        {
          "duration": 0.04,
          "phone": "m_B"
        },
        {
          "duration": 0.08,
          "phone": "eh_I"
        },
        {
          "duration": 0.06,
          "phone": "n_E"
        }
      ],
      "start": 4.15,
      "startOffset": 42,
      "word": "MEN"
    },
    {
      "alignedWord": "did",
      "case": "success",
      "end": 4.47,
      "endOffset": 49,
      "phones": [
        {
          "duration": 0.07,
          "phone": "d_B"
        },
        {
          "duration": 0.04,
          "phone": "ih_I"
        },
        {
          "duration": 0.03,
          "phone": "d_E"
        }
      ],
      "start": 4.33,
      "startOffset": 46,
      "word": "DID"
    },
    {
      "alignedWord": "not",
      "case": "success",
      "end": 4.6899999999999995,
      "endOffset": 53,
      "phones": [
        {
          "duration": 0.03,
          "phone": "n_B"
        },
        {
          "duration": 0.1,
          "phone": "aa_I"
        },
        {
          "duration": 0.09,
          "phone": "t_E"
        }
      ],
      "start": 4.47,
      "startOffset": 50,
      "word": "NOT"
    },
    {
      "alignedWord": "go",
      "case": "success",
      "end": 4.890000000000001,
      "endOffset": 56,
      "phones": [
        {
          "duration": 0.08,
          "phone": "g_B"
        },
        {
          "duration": 0.12,
          "phone": "ow_E"
        }
      ],
      "start": 4.69,
      "startOffset": 54,
      "word": "GO"
    },
    {
      "alignedWord": "out",
      "case": "success",
      "end": 5.14,
      "endOffset": 60,
      "phones": [
        {
          "duration": 0.17,
          "phone": "aw_B"
        },
        {
          "duration": 0.08,
          "phone": "t_E"
        }
      ],
      "start": 4.89,
      "startOffset": 57,
      "word": "OUT"
    },
    {
      "alignedWord": "on",
      "case": "success",
      "end": 5.25,
      "endOffset": 63,
      "phones": [
        {
          "duration": 0.07,
          "phone": "aa_B"
        },
        {
          "duration": 0.04,
          "phone": "n_E"
        }
      ],
      "start": 5.14,
      "startOffset": 61,
      "word": "ON"
    },
    {
      "alignedWord": "the",
      "case": "success",
      "end": 5.34,
      "endOffset": 67,
      "phones": [
        {
          "duration": 0.05,
          "phone": "dh_B"
        },
        {
          "duration": 0.04,
          "phone": "ah_E"
        }
      ],
      "start": 5.25,
      "startOffset": 64,
      "word": "THE"
    },
    {
      "alignedWord": "war",
      "case": "success",
      "end": 5.55,
      "endOffset": 71,
      "phones": [
        {
          "duration": 0.07,
          "phone": "w_B"
        },
        {
          "duration": 0.08,
          "phone": "ao_I"
        },
        {
          "duration": 0.06,
          "phone": "r_E"
        }
      ],
      "start": 5.34,
      "startOffset": 68,
      "word": "WAR"
    },
    {
      "alignedWord": "path",
      "case": "success",
      "end": 6.1,
      "endOffset": 76,
      "phones": [
        {
          "duration": 0.12,
          "phone": "p_B"
        },
        {
          "duration": 0.19,
          "phone": "ae_I"
        },
        {
          "duration": 0.24,
          "phone": "th_E"
        }
      ],
      "start": 5.55,
      "startOffset": 72,
      "word": "PATH"
    },
    {
      "alignedWord": "they",
      "case": "success",
      "end": 7.26,
      "endOffset": 81,
      "phones": [
        {
          "duration": 0.11,
          "phone": "dh_B"
        },
        {
          "duration": 0.09,
          "phone": "ey_E"
        }
      ],
      "start": 7.06,
      "startOffset": 77,
      "word": "THEY"
    },
    {
      "alignedWord": "had",
      "case": "success",
      "end": 7.4399999999999995,
      "endOffset": 85,
      "phones": [
        {
          "duration": 0.05,
          "phone": "hh_B"
        },
        {
          "duration": 0.06,
          "phone": "ae_I"
        },
        {
          "duration": 0.07,
          "phone": "d_E"
        }
      ],
      "start": 7.26,
      "startOffset": 82,
      "word": "HAD"
    },
    {
      "alignedWord": "dreams",
      "case": "success",
      "end": 7.84,
      "endOffset": 92,
      "phones": [
        {
          "duration": 0.06,
          "phone": "d_B"
        },
        {
          "duration": 0.07,
          "phone": "r_I"
        },
        {
          "duration": 0.09,
          "phone": "iy_I"
        },
        {
          "duration": 0.08,
          "phone": "m_I"
        },
        {
          "duration": 0.09,
          "phone": "z_E"
        }
      ],
      "start": 7.45,
      "startOffset": 86,
      "word": "DREAMS"
    },
    {
      "alignedWord": "for",
      "case": "success",
      "end": 7.97,
      "endOffset": 96,
      "phones": [
        {
          "duration": 0.07,
          "phone": "f_B"
        },
        {
          "duration": 0.06,
          "phone": "er_E"
        }
      ],
      "start": 7.84,
      "startOffset": 93,
      "word": "FOR"
    },
    {
      "alignedWord": "not",
      "case": "success",
      "end": 8.219999999999999,
      "endOffset": 100,
      "phones": [
        {
          "duration": 0.06,
          "phone": "n_B"
        },
        {
          "duration": 0.1,
          "phone": "aa_I"
        },
        {
          "duration": 0.09,
          "phone": "t_E"
        }
      ],
      "start": 7.97,
      "startOffset": 97,
      "word": "NOT"
    },
    {
      "alignedWord": "doing",
      "case": "success",
      "end": 8.57,
      "endOffset": 106,
      "phones": [
        {
          "duration": 0.07,
          "phone": "d_B"
        },
        {
          "duration": 0.08,
          "phone": "uw_I"
        },
        {
          "duration": 0.09,
          "phone": "ih_I"
        },
        {
          "duration": 0.11,
          "phone": "ng_E"
        }
      ],
      "start": 8.22,
      "startOffset": 101,
      "word": "DOING"
    },
    {
      "alignedWord": "so",
      "case": "success",
      "end": 8.99,
      "endOffset": 109,
      "phones": [
        {
          "duration": 0.12,
          "phone": "s_B"
        },
        {
          "duration": 0.3,
          "phone": "ow_E"
        }
      ],
      "start": 8.57,
      "startOffset": 107,
      "word": "SO"
    },
    {
      "alignedWord": "but",
      "case": "success",
      "end": 9.979999,
      "endOffset": 113,
      "phones": [
        {
          "duration": 0.06,
          "phone": "b_B"
        },
        {
          "duration": 0.03,
          "phone": "ah_I"
        },
        {
          "duration": 0.08,
          "phone": "t_E"
        }
      ],
      "start": 9.809999,
      "startOffset": 110,
      "word": "BUT"
    },
    {
      "alignedWord": "they",
      "case": "success",
      "end": 10.14,
      "endOffset": 118,
      "phones": [
        {
          "duration": 0.04,
          "phone": "dh_B"
        },
        {
          "duration": 0.12,
          "phone": "ey_E"
        }
      ],
      "start": 9.98,
      "startOffset": 114,
      "word": "THEY"
    },
    {
      "alignedWord": "love",
      "case": "success",
      "end": 10.599999,
      "endOffset": 123,
      "phones": [
        {
          "duration": 0.22,
          "phone": "l_B"
        },
        {
          "duration": 0.09,
          "phone": "ah_I"
        },
        {
          "duration": 0.15,
          "phone": "v_E"
        }
      ],
      "start": 10.139999,
      "startOffset": 119,
      "word": "LOVE"
    },
    {
      "alignedWord": "and",
      "case": "success",
      "end": 10.84,
      "endOffset": 127,
      "phones": [
        {
          "duration": 0.08,
          "phone": "ae_B"
        },
        {
          "duration": 0.05,
          "phone": "n_I"
        },
        {
          "duration": 0.04,
          "phone": "d_E"
        }
      ],
      "start": 10.67,
      "startOffset": 124,
      "word": "AND"
    },
    {
      "alignedWord": "<unk>",
      "case": "success",
      "end": 11.32,
      "endOffset": 136,
      "phones": [
        {
          "duration": 0.48,
          "phone": "oov_S"
        }
      ],
      "start": 10.84,
      "startOffset": 128,
      "word": "VENERATE"
    },
    {
      "alignedWord": "the",
      "case": "success",
      "end": 11.479999000000001,
      "endOffset": 140,
      "phones": [
        {
          "duration": 0.07,
          "phone": "dh_B"
        },
        {
          "duration": 0.06,
          "phone": "ah_E"
        }
      ],
      "start": 11.349999,
      "startOffset": 137,
      "word": "THE"
    },
    {
      "alignedWord": "great",
      "case": "success",
      "end": 11.76,
      "endOffset": 146,
      "phones": [
        {
          "duration": 0.07,
          "phone": "g_B"
        },
        {
          "duration": 0.07,
          "phone": "r_I"
        },
        {
          "duration": 0.05,
          "phone": "ey_I"
        },
        {
          "duration": 0.09,
          "phone": "t_E"
        }
      ],
      "start": 11.48,
      "startOffset": 141,
      "word": "GREAT"
    },
    {
      "alignedWord": "white",
      "case": "success",
      "end": 12.08,
      "endOffset": 152,
      "phones": [
        {
          "duration": 0.11,
          "phone": "w_B"
        },
        {
          "duration": 0.06,
          "phone": "ay_I"
        },
        {
          "duration": 0.13,
          "phone": "t_E"
        }
      ],
      "start": 11.78,
      "startOffset": 147,
      "word": "WHITE"
    },
    {
      "alignedWord": "chief",
      "case": "success",
      "end": 12.620000000000001,
      "endOffset": 158,
      "phones": [
        {
          "duration": 0.18,
          "phone": "ch_B"
        },
        {
          "duration": 0.17,
          "phone": "iy_I"
        },
        {
          "duration": 0.14,
          "phone": "f_E"
        }
      ],
      "start": 12.13,
      "startOffset": 153,
      "word": "CHIEF"
    }
  ]
}