{
  "transcript": "JUST LIKE ANY ONE ELSE HE WOULD GAILY SET FIRE TO A COT OF WOODWORK AND THATCH AND JUST SCORCH THOSE WITHIN BUT HE WOULD REBUILD THEIR HOUSES IN STONE HE INSULTED TWO LADIES ONE WAS UNMARRIED HE GAVE HER A PORTION THE OTHER WAS MARRIED HE HAD HER HUSBAND APPOINTED CHAPLAIN",
  "words": [
    {
      "alignedWord": "just",
      "case": "success",
      "end": 0.47000000000000003,
      "endOffset": 4,
      "phones": [
        {
          "duration": 0.09,
          "phone": "jh_B"
        },
        {
          "duration": 0.02,
          "phone": "ah_I"
        },
        {
          "duration": 0.03,
          "phone": "s_I"
        },
        {
          "duration": 0.06,
          "phone": "t_E"
        }
      ],
      "start": 0.27,
      "startOffset": 0,
      "word": "JUST"
    },
    {
      "alignedWord": "like",
      "case": "success",
      "end": 0.61,
      "endOffset": 9,
      "phones": [
        {
          "duration": 0.01,
          "phone": "l_B"
        },
        {
          "duration": 0.06,
          "phone": "ay_I"
        },
        {
          "duration": 0.07,
          "phone": "k_E"
        }
      ],
      "start": 0.47,
      "startOffset": 5,
      "word": "LIKE"
    },
    {
      "alignedWord": "any",
      "case": "success",
      "end": 0.75,
      "endOffset": 13,
      "phones": [
        {
          "duration": 0.03,
          "phone": "eh_B"
        },
        {
          "duration": 0.05,
          "phone": "n_I"
        },
        {
          "duration": 0.06,
          "phone": "iy_E"
        }
      ],
      "start": 0.61,
      "startOffset": 10,
      "word": "ANY"
    },
    {
      "alignedWord": "one",
      "case": "success",
      "end": 0.86,
      "endOffset": 17,
      "phones": [
        {
          "duration": 0.01,
          "phone": "w_B"
        },
        {
          "duration": 0.05,
          "phone": "ah_I"
        },
        {
          "duration": 0.05,
          "phone": "n_E"
        }
      ],
      "start": 0.75,
      "startOffset": 14,
      "word": "ONE"
    },
    {
      "alignedWord": "else",
      "case": "success",
      "end": 1.1400000000000001,
      "endOffset": 22,
      "phones": [
        {
          "duration": 0.09,
          "phone": "eh_B"
        },
        {
          "duration": 0.09,
          "phone": "l_I"
        },
        {
          "duration": 0.1,
          "phone": "s_E"
        }
      ],
      "start": 0.86,
      "startOffset": 18,
      "word": "ELSE"
    },
    {
      "alignedWord": "he",
      "case": "success",
      "end": 1.52,
      "endOffset": 25,
      "phones": [
        {
          "duration": 0.09,
          "phone": "hh_B"
        },
        {
          "duration": 0.05,
          "phone": "iy_E"
        }
      ],
      "start": 1.38,
      "startOffset": 23,
      "word": "HE"
    },
    {
      "alignedWord": "would",
      "case": "success",
      "end": 1.65,
      "endOffset": 31,
      "phones": [
        {
          "duration": 0.04,
          "phone": "w_B"
        },
        {
          "duration": 0.04,
          "phone": "uh_I"
        },
        {
          "duration": 0.05,
          "phone": "d_E"
        }
      ],
      "start": 1.52,
      "startOffset": 26,
      "word": "WOULD"
    },
    {
      "alignedWord": "<unk>",
      "case": "success",
      "end": 2.01,
      "endOffset": 37,
      "phones": [
        {
          "duration": 0.34,
          "phone": "oov_S"
        }
      ],
      "start": 1.67,
      "startOffset": 32,
      "word": "GAILY"
    },
    {
      "alignedWord": "set",
      "case": "success",
      "end": 2.21,
      "endOffset": 41,
      "phones": [
        {
          "duration": 0.07,
          "phone": "s_B"
        },
        {
          "duration": 0.04,
          "phone": "eh_I"
        },
        {
          "duration": 0.08,
          "phone": "t_E"
        }
      ],
      "start": 2.02,
      "startOffset": 38,
      "word": "SET"
    },
    {
      "alignedWord": "fire",
      "case": "success",
      "end": 2.48,
      "endOffset": 46,
      "phones": [
        {
          "duration": 0.09,
          "phone": "f_B"
        },
        {
          "duration": 0.12,
          "phone": "ay_I"
        },
        {
          "duration": 0.06,
          "phone": "er_E"
        }
      ],
      "start": 2.21,
      "startOffset": 42,
      "word": "FIRE"
    },
    {
      "alignedWord": "to",
      "case": "success",
      "end": 2.62,
      "endOffset": 49,
      "phones": [
        {
          "duration": 0.07,
          "phone": "t_B"
        },
        {
          "duration": 0.07,
          "phone": "uw_E"
        }
      ],
      "start": 2.48,
      "startOffset": 47,
      "word": "TO"
    },
    {
      "alignedWord": "a",
      "case": "success",
      "end": 2.7,
      "endOffset": 51,
      "phones": [
        {
          "duration": 0.08,
          "phone": "ah_S"
        }
      ],
      "start": 2.62,
      "startOffset": 50,
      "word": "A"
    },
    {
      "alignedWord": "<unk>",
      "case": "success",
      "end": 2.89,
      "endOffset": 55,
      "phones": [
        {
          "duration": 0.19,
          "phone": "oov_S"
        }
      ],
      "start": 2.7,
      "startOffset": 52,
      "word": "COT"
    },
    {
      "alignedWord": "of",
      "case": "success",
      "end": 3.02,
      "endOffset": 58,
      "phones": [
        {
          "duration": 0.05,
          "phone": "ah_B"
        },
        {
          "duration": 0.07,
          "phone": "v_E"
        }
      ],
      "start": 2.9,
      "startOffset": 56,
      "word": "OF"
    },
    {
      "alignedWord": "woodwork",
      "case": "success",
      "end": 3.39,
      "endOffset": 67,
      "phones": [
        {
          "duration": 0.04,
          "phone": "w_B"
        },
        {
          "duration": 0.05,
          "phone": "uh_I"
        },
        {
          "duration": 0.07,
          "phone": "d_I"
        },
        {
          "duration": 0.08,
          "phone": "w_I"
        },
        {
          "duration": 0.09,
          "phone": "er_I"
        },
        {
          "duration": 0.04,
          "phone": "k_E"
        }
      ],
      "start": 3.02,
      "startOffset": 59,
      "word": "WOODWORK"
    },
    {
      "alignedWord": "and",
      "case": "success",
      "end": 3.5300000000000002,
      "endOffset": 71,
      "phones": [
        {
          "duration": 0.05,
          "phone": "ah_B"
        },
        {
          "duration": 0.01,
          "phone": "n_I"
        },
        {
          "duration": 0.08,
          "phone": "d_E"
        }
      ],
      "start": 3.39,
      "startOffset": 68,
      "word": "AND"
    },
    {
      "alignedWord": "<unk>",
      "case": "success",
      "end": 4.0,
      "endOffset": 78,
      "phones": [
        {
          "duration": 0.47,
          "phone": "oov_S"
        }
      ],
      "start": 3.53,
      "startOffset": 72,
      "word": "THATCH"
    },
    {
      "alignedWord": "and",
      "case": "success",
      "end": 4.3999999999999995,
      "endOffset": 82,
      "phones": [
        {
          "duration": 0.06,
          "phone": "ae_B"
        },
        {
          "duration": 0.04,
          "phone": "n_I"
        },
        {
          "duration": 0.04,
          "phone": "d_E"
        }
      ],
      "start": 4.26,
      "startOffset": 79,
      "word": "AND"
    },
    {
      "alignedWord": "just",
      "case": "success",
      "end": 4.590000000000001,
      "endOffset": 87,
      "phones": [
        {
          "duration": 0.04,
          "phone": "jh_B"
        },
        {
          "duration": 0.09,
          "phone": "ah_I"
        },
        {
          "duration": 0.05,
          "phone": "s_I"
        },
        {
          "duration": 0.01,
          "phone": "t_E"
        }
      ],
      "start": 4.4,
      "startOffset": 83,
      "word": "JUST"
    },
    {
      "alignedWord": "<unk>",
      "case": "success",
      "end": 4.99,
      "endOffset": 94,
      "phones": [
        {
          "duration": 0.4,
          "phone": "oov_S"
        }
      ],
      "start": 4.59,
      "startOffset": 88,
      "word": "SCORCH"
    },
    {
      "alignedWord": "those",
      "case": "success",
      "end": 5.19,
      "endOffset": 100,
      "phones": [
        {
          "duration": 0.01,
          "phone": "dh_B"
        },
        {
          "duration": 0.1,
          "phone": "ow_I"
        },
        {
          "duration": 0.09,
          "phone": "z_E"
        }
      ],
      "start": 4.99,
      "startOffset": 95,
      "word": "THOSE"
    },
    {
      "alignedWord": "within",
      "case": "success",
      "end": 5.63,
      "endOffset": 107,
      "phones": [
        {
          "duration": 0.05,
          "phone": "w_B"
        },
        {
          "duration": 0.04,
          "phone": "ih_I"
        },
        {
          "duration": 0.08,
          "phone": "th_I"
        },
        {
          "duration": 0.08,
          "phone": "ih_I"
        },
        {
          "duration": 0.18,
          "phone": "n_E"
        }
      ],
      "start": 5.2,
      "startOffset": 101,
      "word": "WITHIN"
    },
    {
      "alignedWord": "but",
      "case": "success",
      "end": 6.2,
      "endOffset": 111,
      "phones": [
        {
          "duration": 0.06,
          "phone": "b_B"
        },
        {
          "duration": 0.05,
          "phone": "ah_I"
        },
        {
          "duration": 0.05,
          "phone": "t_E"
        }
      ],
      "start": 6.04,
      "startOffset": 108,
      "word": "BUT"
    },
    {
      "alignedWord": "he",
      "case": "success",
      "end": 6.29,
      "endOffset": 114,
      "phones": [
        {
          "duration": 0.03,
          "phone": "hh_B"
        },
        {
          "duration": 0.06,
          "phone": "iy_E"
        }
      ],
      "start": 6.2,
      "startOffset": 112,
      "word": "HE"
    },
    {
      "alignedWord": "would",
      "case": "success",
      "end": 6.47,
      "endOffset": 120,
      "phones": [
        {
          "duration": 0.06,
          "phone": "w_B"
        },
        {
          "duration": 0.04,
          "phone": "uh_I"
        },
        {
          "duration": 0.08,
          "phone": "d_E"
        }
      ],
      "start": 6.29,
      "startOffset": 115,
      "word": "WOULD"
    },
    {
      "alignedWord": "rebuild",
      "case": "success",
      "end": 6.8,
      "endOffset": 128,
      "phones": [
        {
          "duration": 0.03,
          "phone": "r_B"
        },
        {
          "duration": 0.06,
          "phone": "iy_I"
        },
        {
          "duration": 0.04,
          "phone": "b_I"
        },
        {
          "duration": 0.08,
          "phone": "ih_I"
        },
        {
          "duration": 0.05,
          "phone": "l_I"
        },
        {
          "duration": 0.07,
          "phone": "d_E"
        }
      ],
      "start": 6.47,
      "startOffset": 121,
      "word": "REBUILD"
    },
    {
      "alignedWord": "their",
      "case": "success",
      "end": 6.91,
      "endOffset": 134,
      "phones": [
        {
          "duration": 0.01,
          "phone": "dh_B"
        },
        {
          "duration": 0.06,
          "phone": "eh_I"
        },
        {
          "duration": 0.04,
          "phone": "r_E"
        }
      ],
      "start": 6.8,
      "startOffset": 129,
      "word": "THEIR"
    },
    {
      "alignedWord": "houses",
      "case": "success",
      "end": 7.32,
      "endOffset": 141,
      "phones": [
        {
          "duration": 0.08,
          "phone": "hh_B"
        },
        {
          "duration": 0.14,
          "phone": "aw_I"
        },
        {
          "duration": 0.06,
          "phone": "s_I"
        },
        {
          "duration": 0.06,
          "phone": "ih_I"
        },
        {
          "duration": 0.07,
          "phone": "z_E"
        }
      ],
      "start": 6.91,
      "startOffset": 135,
      "word": "HOUSES"
    },
    {
      "alignedWord": "in",
      "case": "success",
      "end": 7.45,
      "endOffset": 144,
      "phones": [
        {
          "duration": 0.05,
          "phone": "ih_B"
        },
        {
          "duration": 0.08,
          "phone": "n_E"
        }
      ],
      "start": 7.32,
      "startOffset": 142,
      "word": "IN"
    },
    {
      "alignedWord": "stone",
      "case": "success",
      "end": 7.92,
      "endOffset": 150,
      "phones": [
        {
          "duration": 0.07,
          "phone": "s_B"
        },
        {
          "duration": 0.1,
          "phone": "t_I"
        },
        {
          "duration": 0.16,
          "phone": "ow_I"
        },
        {
          "duration": 0.14,
          "phone": "n_E"
        }
      ],
      "start": 7.45,
      "startOffset": 145,
      "word": "STONE"
    },
    {
      "alignedWord": "he",
      "case": "success",
      "end": 8.6,
      "endOffset": 153,
      "phones": [
        {
          "duration": 0.1,
          "phone": "hh_B"
        },
        {
          "duration": 0.06,
          "phone": "iy_E"
        }
      ],
      "start": 8.44,
      "startOffset": 151,
      "word": "HE"
    },
    {
      "alignedWord": "insulted",
      "case": "success",
      "end": 9.059999000000001,
      "endOffset": 162,
      "phones": [
        {
          "duration": 0.05,
          "phone": "ih_B"
        },
        {
          "duration": 0.06,
          "phone": "n_I"
        },
        {
          "duration": 0.05,
          "phone": "s_I"
        },
        {
          "duration": 0.07,
          "phone": "ah_I"
        },
        {
          "duration": 0.08,
          "phone": "l_I"
        },
        {
          "duration": 0.06,
          "phone": "t_I"
        },
        {
          "duration": 0.05,
          "phone": "ih_I"
        },
        {
          "duration": 0.04,
          "phone": "d_E"
        }
      ],
      "start": 8.599999,
      "startOffset": 154,
      "word": "INSULTED"
    },
    {
      "alignedWord": "two",
      "case": "success",
      "end": 9.28,
      "endOffset": 166,
      "phones": [
        {
          "duration": 0.1,
          "phone": "t_B"
        },
        {
          "duration": 0.09,
          "phone": "uw_E"
        }
      ],
      "start": 9.09,
      "startOffset": 163,
      "word": "TWO"
    },
    {
      "alignedWord": "ladies",
      "case": "success",
      "end": 9.82,
      "endOffset": 173,
      "phones": [
        {
          "duration": 0.1,
          "phone": "l_B"
        },
        {
          "duration": 0.1,
          "phone": "ey_I"
        },
        {
          "duration": 0.05,
          "phone": "d_I"
        },
        {
          "duration": 0.1,
          "phone": "iy_I"
        },
        {
          "duration": 0.19,
          "phone": "z_E"
        }
      ],
      "start": 9.28,
      "startOffset": 167,
      "word": "LADIES"
    },
    {
      "alignedWord": "one",
      "case": "success",
      "end": 10.26,
      "endOffset": 177,
      "phones": [
        {
          "duration": 0.1,
          "phone": "w_B"
        },
        {
          "duration": 0.08,
          "phone": "ah_I"
        },
        {
          "duration": 0.06,
          "phone": "n_E"
        }
      ],
      "start": 10.02,
      "startOffset": 174,
      "word": "ONE"
    },
    {
      "alignedWord": "was",
      "case": "success",
      "end": 10.43,
      "endOffset": 181,
      "phones": [
        {
          "duration": 0.06,
          "phone": "w_B"
        },
        {
          "duration": 0.05,
          "phone": "ah_I"
        },
        {
          "duration": 0.06,
          "phone": "z_E"
        }
      ],
      "start": 10.26,
      "startOffset": 178,
      "word": "WAS"
    },
    {
      "alignedWord": "unmarried",
      "case": "success",
      "end": 10.989999000000001,
      "endOffset": 191,
      "phones": [
        {
          "duration": 0.06,
          "phone": "ah_B"
        },
        {
          "duration": 0.07,
          "phone": "n_I"
        },
        {
          "duration": 0.03,
          "phone": "m_I"
        },
        {
          "duration": 0.11,
          "phone": "eh_I"
        },
        {
          "duration": 0.09,
          "phone": "r_I"
        },
        {
          "duration": 0.08,
          "phone": "iy_I"
        },
        {
          "duration": 0.12,
          "phone": "d_E"
        }
      ],
      "start": 10.429999,
      "startOffset": 182,
      "word": "UNMARRIED"
    },
    {
      "alignedWord": "he",
      "case": "success",
      "end": 11.34,
      "endOffset": 194,
      "phones": [
        {
          "duration": 0.08,
          "phone": "hh_B"
        },
        {
          "duration": 0.07,
          "phone": "iy_E"
        }
      ],
      "start": 11.19,
      "startOffset": 192,
      "word": "HE"
    },
    {
      "alignedWord": "gave",
      "case": "success",
      "end": 11.54,
      "endOffset": 199,
      "phones": [
        {
          "duration": 0.07,
          "phone": "g_B"
        },
        {
          "duration": 0.08,
          "phone": "ey_I"
        },
        {
          "duration": 0.05,
          "phone": "v_E"
        }
      ],
      "start": 11.34,
      "startOffset": 195,
      "word": "GAVE"
    },
    {
      "alignedWord": "her",
      "case": "success",
      "end": 11.67,
      "endOffset": 203,
      "phones": [
        {
          "duration": 0.06,
          "phone": "hh_B"
        },
        {
          "duration": 0.07,
          "phone": "er_E"
        }
      ],
      "start": 11.54,
      "startOffset": 200,
      "word": "HER"
    },
    {
      "alignedWord": "a",
      "case": "success",
      "end": 11.72,
      "endOffset": 205,
      "phones": [
        {
          "duration": 0.05,
          "phone": "ah_S"
        }
      ],
      "start": 11.67,
      "startOffset": 204,
      "word": "A"
    },
    {
      "alignedWord": "portion",
      "case": "success",
      "end": 12.209999,
      "endOffset": 213,
      "phones": [
        {
          "duration": 0.08,
          "phone": "p_B"
        },
        {
          "duration": 0.08,
          "phone": "ao_I"
        },
        {
          "duration": 0.07,
          "phone": "r_I"
        },
        {
          "duration": 0.09,
          "phone": "sh_I"
        },
        {
          "duration": 0.05,
          "phone": "ah_I"
        },
        {
          "duration": 0.12,
          "phone": "n_E"
        }
      ],
      "start": 11.719999,
      "startOffset": 206,
      "word": "PORTION"
    },
    {
      "alignedWord": "the",
      "case": "success",
      "end": 12.780000000000001,
      "endOffset": 217,
      "phones": [
        {
          "duration": 0.07,
          "phone": "dh_B"
        },
        {
          "duration": 0.06,
          "phone": "iy_E"
        }
      ],
      "start": 12.65,
      "startOffset": 214,
      "word": "THE"
    },
    {
      "alignedWord": "other",
      "case": "success",
      "end": 12.93,
      "endOffset": 223,
      "phones": [
        {
          "duration": 0.05,
          "phone": "ah_B"
        },
        {
          "duration": 0.05,
          "phone": "dh_I"
        },
        {
          "duration": 0.05,
          "phone": "er_E"
        }
      ],
      "start": 12.78,
      "startOffset": 218,
      "word": "OTHER"
    },
    {
      "alignedWord": "was",
      "case": "success",
      "end": 13.089999,
      "endOffset": 227,
      "phones": [
        {
          "duration": 0.04,
          "phone": "w_B"
        },
        {
          "duration": 0.05,
          "phone": "ah_I"
        },
        {
          "duration": 0.07,
          "phone": "z_E"
        }
      ],
      "start": 12.929999,
      "startOffset": 224,
      "word": "WAS"
    },
    {
      "alignedWord": "married",
      "case": "success",
      "end": 13.59,
      "endOffset": 235,
      "phones": [
        {
          "duration": 0.06,
          "phone": "m_B"
        },
        {
          "duration": 0.13,
          "phone": "eh_I"
        },
        {
          "duration": 0.1,
          "phone": "r_I"
        },
        {
          "duration": 0.06,
          "phone": "iy_I"
        },
        {
          "duration": 0.15,
          "phone": "d_E"
        }
      ],
      "start": 13.09,
      "startOffset": 228,
      "word": "MARRIED"
    },
    {
      "alignedWord": "he",
      "case": "success",
      "end": 14.02,
      "endOffset": 238,
      "phones": [
        {
          "duration": 0.09,
          "phone": "hh_B"
        },
        {
          "duration": 0.07,
          "phone": "iy_E"
        }
      ],
      "start": 13.86,
      "startOffset": 236,
      "word": "HE"
    },
    {
      "alignedWord": "had",
      "case": "success",
      "end": 14.18,
      "endOffset": 242,
      "phones": [
        {
          "duration": 0.05,
          "phone": "hh_B"
        },
        {
          "duration": 0.1,
          "phone": "ae_I"
        },
        {
          "duration": 0.01,
          "phone": "d_E"
        }
      ],
      "start": 14.02,
      "startOffset": 239,
      "word": "HAD"
    },
    {
      "alignedWord": "her",
      "case": "success",
      "end": 14.279999,
      "endOffset": 246,
      "phones": [
        {
          "duration": 0.05,
          "phone": "hh_B"
        },
        {
          "duration": 0.05,
          "phone": "er_E"
        }
      ],
      "start": 14.179999,
      "startOffset": 243,
      "word": "HER"
    },
    {
      "alignedWord": "husband",
      "case": "success",
      "end": 14.68,
      "endOffset": 254,
      "phones": [
        {
          "duration": 0.05,
          "phone": "hh_B"
        },
        {
          "duration": 0.07,
          "phone": "ah_I"
        },
        {
          "duration": 0.09,
          "phone": "z_I"
        },
        {
          "duration": 0.01,
          "phone": "b_I"
        },
        {
          "duration": 0.07,
          "phone": "ah_I"
        },
        {
          "duration": 0.07,
          "phone": "n_I"
        },
        {
          "duration": 0.04,
          "phone": "d_E"
        }
      ],
      "start": 14.28,
      "startOffset": 247,
      "word": "HUSBAND"
    },
    {
      "alignedWord": "appointed",
      "case": "success",
      "end": 15.079999,
      "endOffset": 264,
      "phones": [
        {
          "duration": 0.07,
          "phone": "ah_B"
        },
        {
          "duration": 0.07,
          "phone": "p_I"
        },
        {
          "duration": 0.07,
          "phone": "oy_I"
        },
        {
          "duration": 0.03,
          "phone": "n_I"
        },
        {
          "duration": 0.06,
          "phone": "t_I"
        },
        {
          "duration": 0.04,
          "phone": "ih_I"
        },
        {
          "duration": 0.06,
          "phone": "d_E"
        }
      ],
      "start": 14.679999,
      "startOffset": 255,
      "word": "APPOINTED"
    },
    {
      "alignedWord": "chaplain",
      "case": "success",
      "end": 15.620000000000001,
      "endOffset": 273,
      "phones": [
        {
          "duration": 0.13,
          "phone": "ch_B"
        },
        {
          "duration": 0.08,
          "phone": "ae_I"
        },
        {
          "duration": 0.08,
          "phone": "p_I"
        },
        {
          "duration": 0.05,
          "phone": "l_I"
        },
        {
          "duration": 0.06,
          "phone": "ah_I"
        },
        {
          "duration": 0.14,
          "phone": "n_E"
        }
      ],
      "start": 15.08,
      "startOffset": 265,
      "word": "CHAPLAIN"
    }
  ]
}