{
  "transcript": "I WILL YIELD THE POINT WHEN YOU CAN SHOW ME THE SAME GROUND FOR BELIEVING THE CHURCH OF ENGLAND THE NATIONAL CHURCH APPOINTED SUCH BY GOD THAT I CAN SHOW YOU AND YOU KNOW ALREADY FOR RECEIVING THE JEWISH CHURCH AS THE APPOINTMENT OF GOD",
  "words": [
    {
      "alignedWord": "i",
      "case": "success",
      "end": 0.68,
      "endOffset": 1,
      "phones": [
        {
          "duration": 0.17,
          "phone": "ay_S"
        }
      ],
      "start": 0.51,
      "startOffset": 0,
      "word": "I"
    },
    {
      "alignedWord": "will",
      "case": "success",
      "end": 0.81,
      "endOffset": 6,
      "phones": [
        {
          "duration": 0.04,
          "phone": "w_B"
        },
        {
          "duration": 0.04,
          "phone": "ih_I"
        },
        {
          "duration": 0.05,
          "phone": "l_E"
        }
      ],
      "start": 0.68,
      "startOffset": 2,
      "word": "WILL"
    },
    {
      "alignedWord": "yield",
      "case": "success",
      "end": 1.09,
      "endOffset": 12,
      "phones": [
        {
          "duration": 0.09,
          "phone": "y_B"
        },
        {
          "duration": 0.07,
          "phone": "iy_I"
        },
        {
          "duration": 0.05,
          "phone": "l_I"
        },
        {
          "duration": 0.07,
          "phone": "d_E"
        }
      ],
      "start": 0.81,
      "startOffset": 7,
      "word": "YIELD"
    },
    {
      "alignedWord": "the",
      "case": "success",
      "end": 1.1400000000000001,
      "endOffset": 16,
      "phones": [
        {
          "duration": 0.01,
          "phone": "dh_B"
        },
        {
          "duration": 0.04,
          "phone": "ah_E"
        }
      ],
      "start": 1.09,
      "startOffset": 13,
      "word": "THE"
    },
    {
      "alignedWord": "point",
      "case": "success",
      "end": 1.52,
      "endOffset": 22,
      "phones": [
        {
          "duration": 0.12,
          "phone": "p_B"
        },
        {
          "duration": 0.14,
          "phone": "oy_I"
        },
        {
          "duration": 0.04,
          "phone": "n_I"
        },
        {
          "duration": 0.08,
          "phone": "t_E"
        }
      ],
      "start": 1.14,
      "startOffset": 17,
      "word": "POINT"
    },
    {
      "alignedWord": "when",
      "case": "success",
      "end": 1.67,
      "endOffset": 27,
      "phones": [
        {
          "duration": 0.05,
          "phone": "w_B"
        },
        {
          "duration": 0.04,
          "phone": "eh_I"
        },
        {
          "duration": 0.05,
          "phone": "n_E"
        }
      ],
      "start": 1.53,
      "startOffset": 23,
      "word": "WHEN"
    },
    {
      "alignedWord": "you",
      "case": "success",
      "end": 1.78,
      "endOffset": 31,
      "phones": [
        {
          "duration": 0.04,
          "phone": "y_B"
        },
        {
          "duration": 0.07,
          "phone": "uw_E"
        }
      ],
      "start": 1.67,
      "startOffset": 28,
      "word": "YOU"
    },
    {
      "alignedWord": "can",
      "case": "success",
      "end": 1.95,
      "endOffset": 35,
      "phones": [
        {
          "duration": 0.04,
          "phone": "k_B"
        },
        {
          "duration": 0.06,
          "phone": "ah_I"
        },
        {
          "duration": 0.07,
          "phone": "n_E"
        }
      ],
      "start": 1.78,
      "startOffset": 32,
      "word": "CAN"
    },
    {
      "alignedWord": "show",
      "case": "success",
      "end": 2.19,
      "endOffset": 40,
      "phones": [
        {
          "duration": 0.14,
          "phone": "sh_B"
        },
        {
          "duration": 0.1,
          "phone": "ow_E"
        }
      ],
      "start": 1.95,
      "startOffset": 36,
      "word": "SHOW"
    },
    {
      "alignedWord": "me",
      "case": "success",
      "end": 2.36,
      "endOffset": 43,
      "phones": [
        {
          "duration": 0.09,
          "phone": "m_B"
        },
        {
          "duration": 0.08,
          "phone": "iy_E"
        }
      ],
      "start": 2.19,
      "startOffset": 41,
      "word": "ME"
    },
    {
      "alignedWord": "the",
      "case": "success",
      "end": 2.48,
      "endOffset": 47,
      "phones": [
        {
          "duration": 0.05,
          "phone": "dh_B"
        },
        {
          "duration": 0.07,
          "phone": "ah_E"
        }
      ],
      "start": 2.36,
      "startOffset": 44,
      "word": "THE"
    },
    {
      "alignedWord": "same",
      "case": "success",
      "end": 2.8,
      "endOffset": 52,
      "phones": [
        {
          "duration": 0.12,
          "phone": "s_B"
        },
        {
          "duration": 0.11,
          "phone": "ey_I"
        },
        {
          "duration": 0.09,
          "phone": "m_E"
        }
      ],
      "start": 2.48,
      "startOffset": 48,
      "word": "SAME"
    },
    {
      "alignedWord": "ground",
      "case": "success",
      "end": 3.17,
      "endOffset": 59,
      "phones": [
        {
          "duration": 0.06,
          "phone": "g_B"
        },
        {
          "duration": 0.07,
          "phone": "r_I"
        },
        {
          "duration": 0.14,
          "phone": "aw_I"
        },
        {
          "duration": 0.06,
          "phone": "n_I"
        },
        {
          "duration": 0.04,
          "phone": "d_E"
        }
      ],
      "start": 2.8,
      "startOffset": 53,
      "word": "GROUND"
    },
    {
      "alignedWord": "for",
      "case": "success",
      "end": 3.3200000000000003,
      "endOffset": 63,
      "phones": [
        {
          "duration": 0.08,
          "phone": "f_B"
        },
        {
          "duration": 0.06,
          "phone": "er_E"
        }
      ],
      "start": 3.18,
      "startOffset": 60,
      "word": "FOR"
    },
    {
      "alignedWord": "believing",
      "case": "success",
      "end": 3.75,
      "endOffset": 73,
      "phones": [
        {
          "duration": 0.04,
          "phone": "b_B"
        },
        {
          "duration": 0.04,
          "phone": "ih_I"
        },
        {
          "duration": 0.1,
          "phone": "l_I"
        },
        {
          "duration": 0.09,
          "phone": "iy_I"
        },
        {
          "duration": 0.03,
          "phone": "v_I"
        },
        {
          "duration": 0.06,
          "phone": "ih_I"
        },
        {
          "duration": 0.07,
          "phone": "ng_E"
        }
      ],
      "start": 3.32,
      "startOffset": 64,
      "word": "BELIEVING"
    },
    {
      "alignedWord": "the",
      "case": "success",
      "end": 3.84,
      "endOffset": 77,
      "phones": [
        {
          "duration": 0.05,
          "phone": "dh_B"
        },
        {
          "duration": 0.04,
          "phone": "ah_E"
        }
      ],
      "start": 3.75,
      "startOffset": 74,
      "word": "THE"
    },
    {
      "alignedWord": "church",
      "case": "success",
      "end": 4.12,
      "endOffset": 84,
      "phones": [
        {
          "duration": 0.12,
          "phone": "ch_B"
        },
        {
          "duration": 0.09,
          "phone": "er_I"
        },
        {
          "duration": 0.07,
          "phone": "ch_E"
        }
      ],
      "start": 3.84,
      "startOffset": 78,
      "word": "CHURCH"
    },
    {
      "alignedWord": "of",
      "case": "success",
      "end": 4.24,
      "endOffset": 87,
      "phones": [
        {
          "duration": 0.07,
          "phone": "ah_B"
        },
        {
          "duration": 0.05,
          "phone": "v_E"
        }
      ],
      "start": 4.12,
      "startOffset": 85,
      "word": "OF"
    },
    {
      "alignedWord": "england",
      "case": "success",
      "end": 4.71,
      "endOffset": 95,
      "phones": [
        {
          "duration": 0.05,
          "phone": "ih_B"
        },
        {
          "duration": 0.09,
          "phone": "ng_I"
        },
        {
          "duration": 0.05,
          "phone": "g_I"
        },
        {
          "duration": 0.05,
          "phone": "l_I"
        },
        {
          "duration": 0.05,
          "phone": "ah_I"
        },
        {
          "duration": 0.1,
          "phone": "n_I"
        },
        {
          "duration": 0.08,
          "phone": "d_E"
        }
      ],
      "start": 4.24,
      "startOffset": 88,
      "word": "ENGLAND"
    },
    {
      "alignedWord": "the",
      "case": "success",
      "end": 4.89,
      "endOffset": 99,
      "phones": [
        {
          "duration": 0.1,
          "phone": "dh_B"
        },
        {
          "duration": 0.07,
          "phone": "ah_E"
        }
      ],
      "start": 4.72,
      "startOffset": 96,
      "word": "THE"
    },
    {
      "alignedWord": "national",
      "case": "success",
      "end": 5.5,
      "endOffset": 108,
      "phones": [
        {
          "duration": 0.15,
          "phone": "n_B"
        },
        {
          "duration": 0.12,
          "phone": "ae_I"
        },
        {
          "duration": 0.1,
          "phone": "sh_I"
        },
        {
          "duration": 0.05,
          "phone": "ah_I"
        },
        {
          "duration": 0.07,
          "phone": "n_I"
        },
        {
          "duration": 0.06,
          "phone": "ah_I"
        },
        {
          "duration": 0.06,
          "phone": "l_E"
        }
      ],
      "start": 4.89,
      "startOffset": 100,
      "word": "NATIONAL"
    },
    {
      "alignedWord": "church",
      "case": "success",
      "end": 5.98,
      "endOffset": 115,
      "phones": [
        {
          "duration": 0.13,
          "phone": "ch_B"
        },
        {
          "duration": 0.18,
          "phone": "er_I"
        },
        {
          "duration": 0.13,
          "phone": "ch_E"
        }
      ],
      "start": 5.54,
      "startOffset": 109,
      "word": "CHURCH"
    },
    {
      "alignedWord": "appointed",
      "case": "success",
      "end": 6.510000000000001,
      "endOffset": 125,
      "phones": [
        {
          "duration": 0.08,
          "phone": "ah_B"
        },
        {
          "duration": 0.11,
          "phone": "p_I"
        },
        {
          "duration": 0.11,
          "phone": "oy_I"
        },
        {
          "duration": 0.04,
          "phone": "n_I"
        },
        {
          "duration": 0.05,
          "phone": "t_I"
        },
        {
          "duration": 0.05,
          "phone": "ih_I"
        },
        {
          "duration": 0.09,
          "phone": "d_E"
        }
      ],
      "start": 5.98,
      "startOffset": 116,
      "word": "APPOINTED"
    },
    {
      "alignedWord": "such",
      "case": "success",
      "end": 6.89,
      "endOffset": 130,
      "phones": [
        {
          "duration": 0.13,
          "phone": "s_B"
        },
        {
          "duration": 0.11,
          "phone": "ah_I"
        },
        {
          "duration": 0.13,
          "phone": "ch_E"
        }
      ],
      "start": 6.52,
      "startOffset": 126,
      "word": "SUCH"
    },
    {
      "alignedWord": "by",
      "case": "success",
      "end": 7.07,
      "endOffset": 133,
      "phones": [
        {
          "duration": 0.08,
          "phone": "b_B"
        },
        {
          "duration": 0.08,
          "phone": "ay_E"
        }
      ],
      "start": 6.91,
      "startOffset": 131,
      "word": "BY"
    },
    {
      "alignedWord": "god",
      "case": "success",
      "end": 7.470000000000001,
      "endOffset": 137,
      "phones": [
        {
          "duration": 0.1,
          "phone": "g_B"
        },
        {
          "duration": 0.18,
          "phone": "aa_I"
        },
        {
          "duration": 0.12,
          "phone": "d_E"
        }
      ],
      "start": 7.07,
      "startOffset": 134,
      "word": "GOD"
    },
    {
      "alignedWord": "that",
      "case": "success",
      "end": 8.02,
      "endOffset": 142,
      "phones": [
        {
          "duration": 0.09,
          "phone": "dh_B"
        },
        {
          "duration": 0.05,
          "phone": "ah_I"
        },
        {
          "duration": 0.07,
          "phone": "t_E"
        }
      ],
      "start": 7.81,
      "startOffset": 138,
      "word": "THAT"
    },
    {
      "alignedWord": "i",
      "case": "success",
      "end": 8.1,
      "endOffset": 144,
      "phones": [
        {
          "duration": 0.08,
          "phone": "ay_S"
        }
      ],
      "start": 8.02,
      "startOffset": 143,
      "word": "I"
    },
    {
      "alignedWord": "can",
      "case": "success",
      "end": 8.279999,
      "endOffset": 148,
      "phones": [
        {
          "duration": 0.06,
          "phone": "k_B"
        },
        {
          "duration": 0.06,
          "phone": "ah_I"
        },
        {
          "duration": 0.06,
          "phone": "n_E"
        }
      ],
      "start": 8.099999,
      "startOffset": 145,
      "word": "CAN"
    },
    {
      "alignedWord": "show",
      "case": "success",
      "end": 8.549999999999999,
      "endOffset": 153,
      "phones": [
        {
          "duration": 0.15,
          "phone": "sh_B"
        },
        {
          "duration": 0.12,
          "phone": "ow_E"
        }
      ],
      "start": 8.28,
      "startOffset": 149,
      "word": "SHOW"
    },
    {
      "alignedWord": "you",
      "case": "success",
      "end": 8.870000000000001,
      "endOffset": 157,
      "phones": [
        {
          "duration": 0.12,
          "phone": "y_B"
        },
        {
          "duration": 0.2,
          "phone": "uw_E"
        }
      ],
      "start": 8.55,
      "startOffset": 154,
      "word": "YOU"
    },
    {
      "alignedWord": "and",
      "case": "success",
      "end": 9.53,
      "endOffset": 161,
      "phones": [
        {
          "duration": 0.07,
          "phone": "ae_B"
        },
        {
          "duration": 0.06,
          "phone": "n_I"
        },
        {
          "duration": 0.04,
          "phone": "d_E"
        }
      ],
      "start": 9.36,
      "startOffset": 158,
      "word": "AND"
    },
    {
      "alignedWord": "you",
      "case": "success",
      "end": 9.66,
      "endOffset": 165,
      "phones": [
        {
          "duration": 0.07,
          "phone": "y_B"
        },
        {
          "duration": 0.06,
          "phone": "uw_E"
        }
      ],
      "start": 9.53,
      "startOffset": 162,
      "word": "YOU"
    },
    {
      "alignedWord": "know",
      "case": "success",
      "end": 9.87,
      "endOffset": 170,
      "phones": [
        {
          "duration": 0.1,
          "phone": "n_B"
        },
        {
          "duration": 0.1,
          "phone": "ow_E"
        }
      ],
      "start": 9.67,
      "startOffset": 166,
      "word": "KNOW"
    },
    {
      "alignedWord": "already",
      "case": "success",
      "end": 10.319999999999999,
      "endOffset": 178,
      "phones": [
        {
          "duration": 0.09,
          "phone": "ao_B"
        },
        {
          "duration": 0.05,
          "phone": "l_I"
        },
        {
          "duration": 0.09,
          "phone": "r_I"
        },
        {
          "duration": 0.07,
          "phone": "eh_I"
        },
        {
          "duration": 0.04,
          "phone": "d_I"
        },
        {
          "duration": 0.11,
          "phone": "iy_E"
        }
      ],
      "start": 9.87,
      "startOffset": 171,
      "word": "ALREADY"
    },
    {
      "alignedWord": "for",
      "case": "success",
      "end": 10.52,
      "endOffset": 182,
      "phones": [
        {
          "duration": 0.09,
          "phone": "f_B"
        },
        {
          "duration": 0.05,
          "phone": "ao_I"
        },
        {
          "duration": 0.06,
          "phone": "r_E"
        }
      ],
      "start": 10.32,
      "startOffset": 179,
      "word": "FOR"
    },
    {
      "alignedWord": "receiving",
      "case": "success",
      "end": 10.99,
      "endOffset": 192,
      "phones": [
        {
          "duration": 0.01,
          "phone": "r_B"
        },
        {
          "duration": 0.08,
          "phone": "ah_I"
        },
        {
          "duration": 0.13,
          "phone": "s_I"
        },
        {
          "duration": 0.08,
          "phone": "iy_I"
        },
        {
          "duration": 0.02,
          "phone": "v_I"
        },
        {
          "duration": 0.07,
          "phone": "ih_I"
        },
        {
          "duration": 0.08,
          "phone": "ng_E"
        }
      ],
      "start": 10.52,
      "startOffset": 183,
      "word": "RECEIVING"
    },
    {
      "alignedWord": "the",
      "case": "success",
      "end": 11.08,
      "endOffset": 196,
      "phones": [
        {
          "duration": 0.05,
          "phone": "dh_B"
        },
        {
          "duration": 0.04,
          "phone": "ah_E"
        }
      ],
      "start": 10.99,
      "startOffset": 193,
      "word": "THE"
    },
    {
      "alignedWord": "jewish",
      "case": "success",
      "end": 11.48,
      "endOffset": 203,
      "phones": [
        {
          "duration": 0.13,
          "phone": "jh_B"
        },
        {
          "duration": 0.09,
          "phone": "uw_I"
        },
        {
          "duration": 0.08,
          "phone": "ih_I"
        },
        {
          "duration": 0.1,
          "phone": "sh_E"
        }
      ],
      "start": 11.08,
      "startOffset": 197,
      "word": "JEWISH"
    },
    {
      "alignedWord": "church",
      "case": "success",
      "end": 12.05,
      "endOffset": 210,
      "phones": [
        {
          "duration": 0.15,
          "phone": "ch_B"
        },
        {
          "duration": 0.17,
          "phone": "er_I"
        },
        {
          "duration": 0.25,
          "phone": "ch_E"
        }
      ],
      "start": 11.48,
      "startOffset": 204,
      "word": "CHURCH"
    },
    {
      "alignedWord": "as",
      "case": "success",
      "end": 12.43,
      "endOffset": 213,
      "phones": [
        {
          "duration": 0.16,
          "phone": "ae_B"
        },
        {
          "duration": 0.08,
          "phone": "z_E"
        }
      ],
      "start": 12.19,
      "startOffset": 211,
      "word": "AS"
    },
    {
      "alignedWord": "the",
      "case": "success",
      "end": 12.59,
      "endOffset": 217,
      "phones": [
        {
          "duration": 0.08,
          "phone": "dh_B"
        },
        {
          "duration": 0.07,
          "phone": "iy_E"
        }
      ],
      "start": 12.44,
      "startOffset": 214,
      "word": "THE"
    },
    {
      "alignedWord": "appointment",
      "case": "success",
      "end": 13.24,
      "endOffset": 229,
      "phones": [
        {
          "duration": 0.06,
          "phone": "ah_B"
        },
        {
          "duration": 0.1,
          "phone": "p_I"
        },
        {
          "duration": 0.1,
          "phone": "oy_I"
        },
        {
          "duration": 0.06,
          "phone": "n_I"
        },
        {
          "duration": 0.09,
          "phone": "t_I"
        },
        {
          "duration": 0.06,
          "phone": "m_I"
        },
        {
          "duration": 0.03,
          "phone": "ah_I"
        },
        {
          "duration": 0.07,
          "phone": "n_I"
        },
        {
          "duration": 0.08,
          "phone": "t_E"
        }
      ],
      "start": 12.59,
      "startOffset": 218,
      "word": "APPOINTMENT"
    },
    {
      "alignedWord": "of",
      "case": "success",
      "end": 13.39,
      "endOffset": 232,
      "phones": [
        {
          "duration": 0.06,
          "phone": "ah_B"
        },
        {
          "duration": 0.09,
          "phone": "v_E"
        }
      ],
      "start": 13.24,
      "startOffset": 230,
      "word": "OF"
    },
    {
      "alignedWord": "god",
      "case": "success",
      "end": 13.809999,
      "endOffset": 236,
      "phones": [
        {
          "duration": 0.08,
          "phone": "g_B"
        },
        {
          "duration": 0.18,
          "phone": "aa_I"
        },
        {
          "duration": 0.16,
          "phone": "d_E"
        }
      ],
      "start": 13.389999,
      "startOffset": 233,
      "word": "GOD"
    }
  ]
}