{
  "transcript": "HE AND ANOTHER FARMER HIS NEIGHBOUR HAD BEEN SO OFTEN RE ELECTED CHURCHWARDENS THAT AT LAST THEY SEEMED TO HAVE GAINED A PRESCRIPTIVE RIGHT TO THE OFFICE AND THE FORM OF ELECTION FELL INTO DISUSE",
  "words": [
    {
      "alignedWord": "he",
      "case": "success",
      "end": 0.75,
      "endOffset": 2,
      "phones": [
        {
          "duration": 0.13,
          "phone": "hh_B"
        },
        {
          "duration": 0.18,
          "phone": "iy_E"
        }
      ],
      "start": 0.44,
      "startOffset": 0,
      "word": "HE"
    },
    {
      "alignedWord": "and",
      "case": "success",
      "end": 0.87,
      "endOffset": 6,
      "phones": [
        {
          "duration": 0.04,
          "phone": "ae_B"
        },
        {
          "duration": 0.06,
          "phone": "n_I"
        },
        {
          "duration": 0.02,
          "phone": "d_E"
        }
      ],
      "start": 0.75,
      "startOffset": 3,
      "word": "AND"
    },
    {
      "alignedWord": "another",
      "case": "success",
      "end": 1.16,
      "endOffset": 14,
      "phones": [
        {
          "duration": 0.05,
          "phone": "ah_B"
        },
        {
          "duration": 0.06,
          "phone": "n_I"
        },
        {
          "duration": 0.04,
          "phone": "ah_I"
        },
        {
          "duration": 0.07,
          "phone": "dh_I"
        },
        {
          "duration": 0.07,
          "phone": "er_E"
        }
      ],
      "start": 0.87,
      "startOffset": 7,
      "word": "ANOTHER"
    },
    {
      "alignedWord": "farmer",
      "case": "success",
      "end": 1.5499999999999998,
      "endOffset": 21,
      "phones": [
        {
          "duration": 0.11,
          "phone": "f_B"
        },
        {
          "duration": 0.06,
          "phone": "aa_I"
        },
        {
          "duration": 0.07,
          "phone": "r_I"
        },
        {
          "duration": 0.08,
          "phone": "m_I"
        },
        {
          "duration": 0.07,
          "phone": "er_E"
        }
      ],
      "start": 1.16,
      "startOffset": 15,
      "word": "FARMER"
    },
    {
      "alignedWord": "his",
      "case": "success",
      "end": 1.74,
      "endOffset": 25,
      "phones": [
        {
          "duration": 0.05,
          "phone": "hh_B"
        },
        {
          "duration": 0.06,
          "phone": "ih_I"
        },
        {
          "duration": 0.08,
          "phone": "z_E"
        }
      ],
      "start": 1.55,
      "startOffset": 22,
      "word": "HIS"
    },
    {
      "alignedWord": "<unk>",
      "case": "success",
      "end": 2.18,
      "endOffset": 35,
      "phones": [
        {
          "duration": 0.44,
          "phone": "oov_S"
        }
      ],
      "start": 1.74,
      "startOffset": 26,
      "word": "NEIGHBOUR"
    },
    {
      "alignedWord": "had",
      "case": "success",
      "end": 2.69,
      "endOffset": 39,
      "phones": [
        {
          "duration": 0.07,
          "phone": "hh_B"
        },
        {
          "duration": 0.03,
          "phone": "ae_I"
        },
        {
          "duration": 0.05,
          "phone": "d_E"
        }
      ],
      "start": 2.54,
      "startOffset": 36,
      "word": "HAD"
    },
    {
      "alignedWord": "been",
      "case": "success",
      "end": 2.81,
      "endOffset": 44,
      "phones": [
        {
          "duration": 0.03,
          "phone": "b_B"
        },
        {
          "duration": 0.04,
          "phone": "ih_I"
        },
        {
          "duration": 0.05,
          "phone": "n_E"
        }
      ],
      "start": 2.69,
      "startOffset": 40,
      "word": "BEEN"
    },
    {
      "alignedWord": "so",
      "case": "success",
      "end": 3.05,
      "endOffset": 47,
      "phones": [
        {
          "duration": 0.11,
          "phone": "s_B"
        },
        {
          "duration": 0.13,
          "phone": "ow_E"
        }
      ],
      "start": 2.81,
      "startOffset": 45,
      "word": "SO"
    },
    {
      "alignedWord": "often",
      "case": "success",
      "end": 3.36,
      "endOffset": 53,
      "phones": [
        {
          "duration": 0.12,
          "phone": "ao_B"
        },
        {
          "duration": 0.06,
          "phone": "f_I"
        },
        {
          "duration": 0.06,
          "phone": "ah_I"
        },
        {
          "duration": 0.07,
          "phone": "n_E"
        }
      ],
      "start": 3.05,
      "startOffset": 48,
      "word": "OFTEN"
    },
    {
      "alignedWord": "re",
      "case": "success",
      "end": 3.48,
      "endOffset": 56,
      "phones": [
        {
          "duration": 0.07,
          "phone": "r_B"
        },
        {
          "duration": 0.05,
          "phone": "iy_E"
        }
      ],
      "start": 3.36,
      "startOffset": 54,
      "word": "RE"
    },
    {
      "alignedWord": "elected",
      "case": "success",
      "end": 3.85,
      "endOffset": 64,
      "phones": [
        {
          "duration": 0.05,
          "phone": "ih_B"
        },
        {
          "duration": 0.06,
          "phone": "l_I"
        },
        {
          "duration": 0.05,
          "phone": "eh_I"
        },
        {
          "duration": 0.06,
          "phone": "k_I"
        },
        {
          "duration": 0.04,
          "phone": "t_I"
        },
        {
          "duration": 0.07,
          "phone": "ah_I"
        },
        {
          "duration": 0.04,
          "phone": "d_E"
        }
      ],
      "start": 3.48,
      "startOffset": 57,
      "word": "ELECTED"
    },
    {
      "alignedWord": "<unk>",
      "case": "success",
      "end": 4.640000000000001,
      "endOffset": 78,
      "phones": [
        {
          "duration": 0.79,
          "phone": "oov_S"
        }
      ],
      "start": 3.85,
      "startOffset": 65,
      "word": "CHURCHWARDENS"
    },
    {
      "alignedWord": "that",
      "case": "success",
      "end": 4.949999999999999,
      "endOffset": 83,
      "phones": [
        {
          "duration": 0.06,
          "phone": "dh_B"
        },
        {
          "duration": 0.05,
          "phone": "ah_I"
        },
        {
          "duration": 0.03,
          "phone": "t_E"
        }
      ],
      "start": 4.81,
      "startOffset": 79,
      "word": "THAT"
    },
    {
      "alignedWord": "at",
      "case": "success",
      "end": 5.08,
      "endOffset": 86,
      "phones": [
        {
          "duration": 0.04,
          "phone": "ae_B"
        },
        {
          "duration": 0.09,
          "phone": "t_E"
        }
      ],
      "start": 4.95,
      "startOffset": 84,
      "word": "AT"
    },
    {
      "alignedWord": "last",
      "case": "success",
      "end": 5.44,
      "endOffset": 91,
      "phones": [
        {
          "duration": 0.1,
          "phone": "l_B"
        },
        {
          "duration": 0.13,
          "phone": "ae_I"
        },
        {
          "duration": 0.07,
          "phone": "s_I"
        },
        {
          "duration": 0.06,
          "phone": "t_E"
        }
      ],
      "start": 5.08,
      "startOffset": 87,
      "word": "LAST"
    },
    {
      "alignedWord": "they",
      "case": "success",
      "end": 5.58,
      "endOffset": 96,
      "phones": [
        {
          "duration": 0.05,
          "phone": "dh_B"
        },
        {
          "duration": 0.08,
          "phone": "ey_E"
        }
      ],
      "start": 5.45,
      "startOffset": 92,
      "word": "THEY"
    },
    {
      "alignedWord": "seemed",
      "case": "success",
      "end": 5.8100000000000005,
      "endOffset": 103,
      "phones": [
        {
          "duration": 0.08,
          "phone": "s_B"
        },
        {
          "duration": 0.06,
          "phone": "iy_I"
        },
        {
          "duration": 0.07,
          "phone": "m_I"
        },
        {
          "duration": 0.02,
          "phone": "d_E"
        }
      ],
      "start": 5.58,
      "startOffset": 97,
      "word": "SEEMED"
    },
    {
      "alignedWord": "to",
      "case": "success",
      "end": 5.829999999999999,
      "endOffset": 106,
      "phones": [
        {
          "duration": 0.01,
          "phone": "t_B"
        },
        {
          "duration": 0.01,
          "phone": "ah_E"
        }
      ],
      "start": 5.81,
      "startOffset": 104,
      "word": "TO"
    },
    {
      "alignedWord": "have",
      "case": "success",
      "end": 6.02,
      "endOffset": 111,
      "phones": [
        {
          "duration": 0.1,
          "phone": "hh_B"
        },
        {
          "duration": 0.01,
          "phone": "ae_I"
        },
        {
          "duration": 0.07,
          "phone": "v_E"
        }
      ],
      "start": 5.84,
      "startOffset": 107,
      "word": "HAVE"
    },
    {
      "alignedWord": "gained",
      "case": "success",
      "end": 6.26,
      "endOffset": 118,
      "phones": [
        {
          "duration": 0.07,
          "phone": "g_B"
        },
        {
          "duration": 0.08,
          "phone": "ey_I"
        },
        {
          "duration": 0.06,
          "phone": "n_I"
        },
        {
          "duration": 0.03,
          "phone": "d_E"
        }
      ],
      "start": 6.02,
      "startOffset": 112,
      "word": "GAINED"
    },
    {
      "alignedWord": "a",
      "case": "success",
      "end": 6.31,
      "endOffset": 120,
      "phones": [
        {
          "duration": 0.05,
          "phone": "ah_S"
        }
      ],
      "start": 6.26,
      "startOffset": 119,
      "word": "A"
    },
    {
      "alignedWord": "<unk>",
      "case": "success",
      "end": 6.8,
      "endOffset": 133,
      "phones": [
        {
          "duration": 0.49,
          "phone": "oov_S"
        }
      ],
      "start": 6.31,
      "startOffset": 121,
      "word": "PRESCRIPTIVE"
    },
    {
      "alignedWord": "right",
      "case": "success",
      "end": 7.17,
      "endOffset": 139,
      "phones": [
        {
          "duration": 0.13,
          "phone": "r_B"
        },
        {
          "duration": 0.1,
          "phone": "ay_I"
        },
        {
          "duration": 0.14,
          "phone": "t_E"
        }
      ],
      "start": 6.8,
      "startOffset": 134,
      "word": "RIGHT"
    },
    {
      "alignedWord": "to",
      "case": "success",
      "end": 7.29,
      "endOffset": 142,
      "phones": [
        {
          "duration": 0.05,
          "phone": "t_B"
        },
        {
          "duration": 0.05,
          "phone": "ih_E"
        }
      ],
      "start": 7.19,
      "startOffset": 140,
      "word": "TO"
    },
    {
      "alignedWord": "the",
      "case": "success",
      "end": 7.43,
      "endOffset": 146,
      "phones": [
        {
          "duration": 0.06,
          "phone": "dh_B"
        },
        {
          "duration": 0.08,
          "phone": "iy_E"
        }
      ],
      "start": 7.29,
      "startOffset": 143,
      "word": "THE"
    },
    {
      "alignedWord": "office",
      "case": "success",
      "end": 7.9399999999999995,
      "endOffset": 153,
      "phones": [
        {
          "duration": 0.12,
          "phone": "ao_B"
        },
        {
          "duration": 0.11,
          "phone": "f_I"
        },
        {
          "duration": 0.06,
          "phone": "ah_I"
        },
        {
          "duration": 0.22,
          "phone": "s_E"
        }
      ],
      "start": 7.43,
      "startOffset": 147,
      "word": "OFFICE"
    },
    {
      "alignedWord": "and",
      "case": "success",
      "end": 8.46,
      "endOffset": 157,
      "phones": [
        {
          "duration": 0.07,
          "phone": "ah_B"
        },
        {
          "duration": 0.05,
          "phone": "n_I"
        },
        {
          "duration": 0.04,
          "phone": "d_E"
        }
      ],
      "start": 8.3,
      "startOffset": 154,
      "word": "AND"
    },
    {
      "alignedWord": "the",
      "case": "success",
      "end": 8.530000000000001,
      "endOffset": 161,
      "phones": [
        {
          "duration": 0.01,
          "phone": "dh_B"
        },
        {
          "duration": 0.06,
          "phone": "ah_E"
        }
      ],
      "start": 8.46,
      "startOffset": 158,
      "word": "THE"
    },
    {
      "alignedWord": "form",
      "case": "success",
      "end": 8.79,
      "endOffset": 166,
      "phones": [
        {
          "duration": 0.08,
          "phone": "f_B"
        },
        {
          "duration": 0.07,
          "phone": "ao_I"
        },
        {
          "duration": 0.08,
          "phone": "r_I"
        },
        {
          "duration": 0.03,
          "phone": "m_E"
        }
      ],
      "start": 8.53,
      "startOffset": 162,
      "word": "FORM"
    },
    {
      "alignedWord": "of",
      "case": "success",
      "end": 8.899999999999999,
      "endOffset": 169,
      "phones": [
        {
          "duration": 0.06,
          "phone": "ah_B"
        },
        {
          "duration": 0.05,
          "phone": "v_E"
        }
      ],
      "start": 8.79,
      "startOffset": 167,
      "word": "OF"
    },
    {
      "alignedWord": "election",
      "case": "success",
      "end": 9.52,
      "endOffset": 178,
      "phones": [
        {
          "duration": 0.04,
          "phone": "ih_B"
        },
        {
          "duration": 0.09,
          "phone": "l_I"
        },
        {
          "duration": 0.08,
          "phone": "eh_I"
        },
        {
          "duration": 0.07,
          "phone": "k_I"
        },
        {
          "duration": 0.08,
          "phone": "sh_I"
        },
        {
          "duration": 0.07,
          "phone": "ah_I"
        },
        {
          "duration": 0.19,
          "phone": "n_E"
        }
      ],
      "start": 8.9,
      "startOffset": 170,
      "word": "ELECTION"
    },
    {
      "alignedWord": "fell",
      "case": "success",
      "end": 9.789999,
      "endOffset": 183,
      "phones": [
        {
          "duration": 0.08,
          "phone": "f_B"
        },
        {
          "duration": 0.08,
          "phone": "eh_I"
        },
        {
          "duration": 0.07,
          "phone": "l_E"
        }
      ],
      "start": 9.559999,
      "startOffset": 179,
      "word": "FELL"
    },
    {
      "alignedWord": "into",
      "case": "success",
      "end": 9.979999999999999,
      "endOffset": 188,
      "phones": [
        {
          "duration": 0.04,
          "phone": "ih_B"
        },
        {
          "duration": 0.05,
          "phone": "n_I"
        },
        {
          "duration": 0.05,
          "phone": "t_I"
        },
        {
          "duration": 0.05,
          "phone": "ah_E"
        }
      ],
      "start": 9.79,
      "startOffset": 184,
      "word": "INTO"
    },
    {
      "alignedWord": "disuse",
      "case": "success",
      "end": 10.6,
      "endOffset": 195,
      "phones": [
        {
          "duration": 0.05,
          "phone": "d_B"
        },
        {
          "duration": 0.05,
          "phone": "ih_I"
        },
        {
          "duration": 0.08,
          "phone": "s_I"
        },
        {
          "duration": 0.09,
          "phone": "y_I"
        },
        {
          "duration": 0.09,
          "phone": "uw_I"
        },
        {
          "duration": 0.26,
          "phone": "s_E"
        }
      ],
      "start": 9.98,
      "startOffset": 189,
      "word": "DISUSE"
    }
  ]
}