{
  "transcript": "THE RUSSIANS DID NOT SEEK OUT THE BEST POSITION BUT ON THE CONTRARY DURING THE RETREAT PASSED MANY POSITIONS BETTER THAN BORODINO THEY DID NOT STOP AT ANY ONE OF THESE POSITIONS BECAUSE KUTUZOV DID NOT WISH TO OCCUPY A POSITION",
  "words": [
    {
      "alignedWord": "the",
      "case": "success",
      "end": 0.51,
      "endOffset": 3,
      "phones": [
        {
          "duration": 0.07,
          "phone": "dh_B"
        },
        {
          "duration": 0.08,
          "phone": "ah_E"
        }
      ],
      "start": 0.36,
      "startOffset": 0,
      "word": "THE"
    },
    {
      "alignedWord": "russians",
      "case": "success",
      "end": 1.02,
      "endOffset": 12,
      "phones": [
        {
          "duration": 0.1,
          "phone": "r_B"
        },
        {
          "duration": 0.05,
          "phone": "ah_I"
        },
        {
          "duration": 0.11,
          "phone": "sh_I"
        },
        {
          "duration": 0.07,
          "phone": "ah_I"
        },
        {
          "duration": 0.07,
          "phone": "n_I"
        },
        {
          "duration": 0.11,
          "phone": "z_E"
        }
      ],
      "start": 0.51,
      "startOffset": 4,
      "word": "RUSSIANS"
    },
    {
      "alignedWord": "did",
      "case": "success",
      "end": 1.23,
      "endOffset": 16,
      "phones": [
        {
          "duration": 0.07,
          "phone": "d_B"
        },
        {
          "duration": 0.05,
          "phone": "ih_I"
        },
        {
          "duration": 0.05,
          "phone": "d_E"
        }
      ],
      "start": 1.06,
      "startOffset": 13,
      "word": "DID"
    },
    {
      "alignedWord": "not",
      "case": "success",
      "end": 1.51,
      "endOffset": 20,
      "phones": [
        {
          "duration": 0.04,
          "phone": "n_B"
        },
        {
          "duration": 0.15,
          "phone": "aa_I"
        },
        {
          "duration": 0.09,
          "phone": "t_E"
        }
      ],
      "start": 1.23,
      "startOffset": 17,
      "word": "NOT"
    },
    {
      "alignedWord": "seek",
      "case": "success",
      "end": 1.8,
      "endOffset": 25,
      "phones": [
        {
          "duration": 0.12,
          "phone": "s_B"
        },
        {
          "duration": 0.11,
          "phone": "iy_I"
        },
        {
          "duration": 0.06,
          "phone": "k_E"
        }
      ],
      "start": 1.51,
      "startOffset": 21,
      "word": "SEEK"
    },
    {
      "alignedWord": "out",
      "case": "success",
      "end": 2.05,
      "endOffset": 29,
      "phones": [
        {
          "duration": 0.16,
          "phone": "aw_B"
        },
        {
          "duration": 0.09,
          "phone": "t_E"
        }
      ],
      "start": 1.8,
      "startOffset": 26,
      "word": "OUT"
    },
    {
      "alignedWord": "the",
      "case": "success",
      "end": 2.19,
      "endOffset": 33,
      "phones": [
        {
          "duration": 0.07,
          "phone": "dh_B"
        },
        {
          "duration": 0.06,
          "phone": "ah_E"
        }
      ],
      "start": 2.06,
      "startOffset": 30,
      "word": "THE"
    },
    {
      "alignedWord": "best",
      "case": "success",
      "end": 2.46,
      "endOffset": 38,
      "phones": [
        {
          "duration": 0.07,
          "phone": "b_B"
        },
        {
          "duration": 0.08,
          "phone": "eh_I"
        },
        {
          "duration": 0.07,
          "phone": "s_I"
        },
        {
          "duration": 0.05,
          "phone": "t_E"
        }
      ],
      "start": 2.19,
      "startOffset": 34,
      "word": "BEST"
    },
    {
      "alignedWord": "position",
      "case": "success",
      "end": 2.96,
      "endOffset": 47,
      "phones": [
        {
          "duration": 0.05,
          "phone": "p_B"
        },
        {
          "duration": 0.05,
          "phone": "ah_I"
        },
        {
          "duration": 0.07,
          "phone": "z_I"
        },
        {
          "duration": 0.09,
          "phone": "ih_I"
        },
        {
          "duration": 0.09,
          "phone": "sh_I"
        },
        {
          "duration": 0.07,
          "phone": "ah_I"
        },
        {
          "duration": 0.08,
          "phone": "n_E"
        }
      ],
      "start": 2.46,
      "startOffset": 39,
      "word": "POSITION"
    },
    {
      "alignedWord": "but",
      "case": "success",
      "end": 3.29,
      "endOffset": 51,
      "phones": [
        {
          "duration": 0.08,
          "phone": "b_B"
        },
        {
          "duration": 0.14,
          "phone": "ah_I"
        },
        {
          "duration": 0.11,
          "phone": "t_E"
        }
      ],
      "start": 2.96,
      "startOffset": 48,
      "word": "BUT"
    },
    {
      "alignedWord": "on",
      "case": "success",
      "end": 3.7600000000000002,
      "endOffset": 54,
      "phones": [
        {
          "duration": 0.12,
          "phone": "ao_B"
        },
        {
          "duration": 0.06,
          "phone": "n_E"
        }
      ],
      "start": 3.58,
      "startOffset": 52,
      "word": "ON"
    },
    {
      "alignedWord": "the",
      "case": "success",
      "end": 3.8499999999999996,
      "endOffset": 58,
      "phones": [
        {
          "duration": 0.05,
          "phone": "dh_B"
        },
        {
          "duration": 0.04,
          "phone": "ah_E"
        }
      ],
      "start": 3.76,
      "startOffset": 55,
      "word": "THE"
    },
    {
      "alignedWord": "contrary",
      "case": "success",
      "end": 4.49,
      "endOffset": 67,
      "phones": [
        {
          "duration": 0.08,
          "phone": "k_B"
        },
        {
          "duration": 0.12,
          "phone": "ah_I"
        },
        {
          "duration": 0.05,
          "phone": "n_I"
        },
        {
          "duration": 0.08,
          "phone": "t_I"
        },
        {
          "duration": 0.06,
          "phone": "r_I"
        },
        {
          "duration": 0.04,
          "phone": "eh_I"
        },
        {
          "duration": 0.07,
          "phone": "r_I"
        },
        {
          "duration": 0.14,
          "phone": "iy_E"
        }
      ],
      "start": 3.85,
      "startOffset": 59,
      "word": "CONTRARY"
    },
    {
      "alignedWord": "during",
      "case": "success",
      "end": 5.13,
      "endOffset": 74,
      "phones": [
        {
          "duration": 0.1,
          "phone": "d_B"
        },
        {
          "duration": 0.1,
          "phone": "er_I"
        },
        {
          "duration": 0.07,
          "phone": "ih_I"
        },
        {
          "duration": 0.08,
          "phone": "ng_E"
        }
      ],
      "start": 4.78,
      "startOffset": 68,
      "word": "DURING"
    },
    {
      "alignedWord": "the",
      "case": "success",
      "end": 5.21,
      "endOffset": 78,
      "phones": [
        {
          "duration": 0.05,
          "phone": "dh_B"
        },
        {
          "duration": 0.03,
          "phone": "ah_E"
        }
      ],
      "start": 5.13,
      "startOffset": 75,
      "word": "THE"
    },
    {
      "alignedWord": "retreat",
      "case": "success",
      "end": 5.75,
      "endOffset": 86,
      "phones": [
        {
          "duration": 0.09,
          "phone": "r_B"
        },
        {
          "duration": 0.06,
          "phone": "iy_I"
        },
        {
          "duration": 0.09,
          "phone": "t_I"
        },
        {
          "duration": 0.1,
          "phone": "r_I"
        },
        {
          "duration": 0.12,
          "phone": "iy_I"
        },
        {
          "duration": 0.07,
          "phone": "t_E"
        }
      ],
      "start": 5.22,
      "startOffset": 79,
      "word": "RETREAT"
    },
    {
      "alignedWord": "passed",
      "case": "success",
      "end": 6.16,
      "endOffset": 93,
      "phones": [
        {
          "duration": 0.09,
          "phone": "p_B"
        },
        {
          "duration": 0.13,
          "phone": "ae_I"
        },
        {
          "duration": 0.07,
          "phone": "s_I"
        },
        {
          "duration": 0.09,
          "phone": "t_E"
        }
      ],
      "start": 5.78,
      "startOffset": 87,
      "word": "PASSED"
    },
    {
      "alignedWord": "many",
      "case": "success",
      "end": 6.3500000000000005,
      "endOffset": 98,
      "phones": [
        {
          "duration": 0.02,
          "phone": "m_B"
        },
        {
          "duration": 0.05,
          "phone": "eh_I"
        },
        {
          "duration": 0.04,
          "phone": "n_I"
        },
        {
          "duration": 0.08,
          "phone": "iy_E"
        }
      ],
      "start": 6.16,
      "startOffset": 94,
      "word": "MANY"
    },
    {
      "alignedWord": "positions",
      "case": "success",
      "end": 6.93,
      "endOffset": 108,
      "phones": [
        {
          "duration": 0.05,
          "phone": "p_B"
        },
        {
          "duration": 0.06,
          "phone": "ah_I"
        },
        {
          "duration": 0.06,
          "phone": "z_I"
        },
        {
          "duration": 0.08,
          "phone": "ih_I"
        },
        {
          "duration": 0.08,
          "phone": "sh_I"
        },
        {
          "duration": 0.07,
          "phone": "ah_I"
        },
        {
          "duration": 0.07,
          "phone": "n_I"
        },
        {
          "duration": 0.11,
          "phone": "z_E"
        }
      ],
      "start": 6.35,
      "startOffset": 99,
      "word": "POSITIONS"
    },
    {
      "alignedWord": "better",
      "case": "success",
      "end": 7.26,
      "endOffset": 115,
      "phones": [
        {
          "duration": 0.1,
          "phone": "b_B"
        },
        {
          "duration": 0.06,
          "phone": "eh_I"
        },
        {
          "duration": 0.05,
          "phone": "t_I"
        },
        {
          "duration": 0.09,
          "phone": "er_E"
        }
      ],
      "start": 6.96,
      "startOffset": 109,
      "word": "BETTER"
    },
    {
      "alignedWord": "than",
      "case": "success",
      "end": 7.39,
      "endOffset": 120,
      "phones": [
        {
          "duration": 0.02,
          "phone": "dh_B"
        },
        {
          "duration": 0.04,
          "phone": "ah_I"
        },
        {
          "duration": 0.07,
          "phone": "n_E"
        }
      ],
      "start": 7.26,
      "startOffset": 116,
      "word": "THAN"
    },
    {
      "alignedWord": "<unk>",
      "case": "success",
      "end": 8.07,
      "endOffset": 129,
      "phones": [
        {
          "duration": 0.68,
          "phone": "oov_S"
        }
      ],
      "start": 7.39,
      "startOffset": 121,
      "word": "BORODINO"
    },
    {
      "alignedWord": "they",
      "case": "success",
      "end": 8.85,
      "endOffset": 134,
      "phones": [
        {
          "duration": 0.11,
          "phone": "dh_B"
        },
        {
          "duration": 0.08,
          "phone": "ey_E"
        }
      ],
      "start": 8.66,
      "startOffset": 130,
      "word": "THEY"
    },
    {
      "alignedWord": "did",
      "case": "success",
      "end": 9.009999,
      "endOffset": 138,
      "phones": [
        {
          "duration": 0.04,
          "phone": "d_B"
        },
        {
          "duration": 0.06,
          "phone": "ih_I"
        },
        {
          "duration": 0.06,
          "phone": "d_E"
        }
      ],
      "start": 8.849999,
      "startOffset": 135,
      "word": "DID"
    },
    {
      "alignedWord": "not",
      "case": "success",
      "end": 9.29,
      "endOffset": 142,
      "phones": [
        {
          "duration": 0.04,
          "phone": "n_B"
        },
        {
          "duration": 0.15,
          "phone": "aa_I"
        },
        {
          "duration": 0.09,
          "phone": "t_E"
        }
      ],
      "start": 9.01,
      "startOffset": 139,
      "word": "NOT"
    },
    {
      "alignedWord": "stop",
      "case": "success",
      "end": 9.729999999999999,
      "endOffset": 147,
      "phones": [
        {
          "duration": 0.07,
          "phone": "s_B"
        },
        {
          "duration": 0.09,
          "phone": "t_I"
        },
        {
          "duration": 0.17,
          "phone": "aa_I"
        },
        {
          "duration": 0.11,
          "phone": "p_E"
        }
      ],
      "start": 9.29,
      "startOffset": 143,
      "word": "STOP"
    },
    {
      "alignedWord": "at",
      "case": "success",
      "end": 9.969999999999999,
      "endOffset": 150,
      "phones": [
        {
          "duration": 0.11,
          "phone": "ae_B"
        },
        {
          "duration": 0.07,
          "phone": "t_E"
        }
      ],
      "start": 9.79,
      "startOffset": 148,
      "word": "AT"
    },
    {
      "alignedWord": "any",
      "case": "success",
      "end": 10.24,
      "endOffset": 154,
      "phones": [
        {
          "duration": 0.09,
          "phone": "eh_B"
        },
        {
          "duration": 0.08,
          "phone": "n_I"
        },
        {
          "duration": 0.09,
          "phone": "iy_E"
        }
      ],
      "start": 9.98,
      "startOffset": 151,
      "word": "ANY"
    },
    {
      "alignedWord": "one",
      "case": "success",
      "end": 10.39,
      "endOffset": 158,
      "phones": [
        {
          "duration": 0.04,
          "phone": "w_B"
        },
        {
          "duration": 0.07,
          "phone": "ah_I"
        },
        {
          "duration": 0.04,
          "phone": "n_E"
        }
      ],
      "start": 10.24,
      "startOffset": 155,
      "word": "ONE"
    },
    {
      "alignedWord": "of",
      "case": "success",
      "end": 10.509998999999999,
      "endOffset": 161,
      "phones": [
        {
          "duration": 0.04,
          "phone": "ah_B"
        },
        {
          "duration": 0.08,
          "phone": "v_E"
        }
      ],
      "start": 10.389999,
      "startOffset": 159,
      "word": "OF"
    },
    {
      "alignedWord": "these",
      "case": "success",
      "end": 10.68,
      "endOffset": 167,
      "phones": [
        {
          "duration": 0.02,
          "phone": "dh_B"
        },
        {
          "duration": 0.08,
          "phone": "iy_I"
        },
        {
          "duration": 0.07,
          "phone": "z_E"
        }
      ],
      "start": 10.51,
      "startOffset": 162,
      "word": "THESE"
    },
    {
      "alignedWord": "positions",
      "case": "success",
      "end": 11.249999,
      "endOffset": 177,
      "phones": [
        {
          "duration": 0.07,
          "phone": "p_B"
        },
        {
          "duration": 0.04,
          "phone": "ah_I"
        },
        {
          "duration": 0.08,
          "phone": "z_I"
        },
        {
          "duration": 0.09,
          "phone": "ih_I"
        },
        {
          "duration": 0.09,
          "phone": "sh_I"
        },
        {
          "duration": 0.07,
          "phone": "ah_I"
        },
        {
          "duration": 0.06,
          "phone": "n_I"
        },
        {
          "duration": 0.07,
          "phone": "z_E"
        }
      ],
      "start": 10.679999,
      "startOffset": 168,
      "word": "POSITIONS"
    },
    {
      "alignedWord": "because",
      "case": "success",
      "end": 11.65,
      "endOffset": 185,
      "phones": [
        {
          "duration": 0.05,
          "phone": "b_B"
        },
        {
          "duration": 0.07,
          "phone": "ih_I"
        },
        {
          "duration": 0.1,
          "phone": "k_I"
        },
        {
          "duration": 0.09,
          "phone": "ah_I"
        },
        {
          "duration": 0.09,
          "phone": "z_E"
        }
      ],
      "start": 11.25,
      "startOffset": 178,
      "word": "BECAUSE"
    },
    {
      "alignedWord": "<unk>",
      "case": "success",
      "end": 12.34,
      "endOffset": 193,
      "phones": [
        {
          "duration": 0.65,
          "phone": "oov_S"
        }
      ],
      "start": 11.69,
      "startOffset": 186,
      "word": "KUTUZOV"
    },
    {
      "alignedWord": "did",
      "case": "success",
      "end": 12.549999,
      "endOffset": 197,
      "phones": [
        {
          "duration": 0.06,
          "phone": "d_B"
        },
        {
          "duration": 0.05,
          "phone": "ih_I"
        },
        {
          "duration": 0.05,
          "phone": "d_E"
        }
      ],
      "start": 12.389999,
      "startOffset": 194,
      "word": "DID"
    },
    {
      "alignedWord": "not",
      "case": "success",
      "end": 12.780000000000001,
      "endOffset": 201,
      "phones": [
        {
          "duration": 0.03,
          "phone": "n_B"
        },
        {
          "duration": 0.12,
          "phone": "aa_I"
        },
        {
          "duration": 0.08,
          "phone": "t_E"
        }
      ],
      "start": 12.55,
      "startOffset": 198,
      "word": "NOT"
    },
    {
      "alignedWord": "wish",
      "case": "success",
      "end": 13.0,
      "endOffset": 206,
      "phones": [
        {
          "duration": 0.06,
          "phone": "w_B"
        },
        {
          "duration": 0.08,
          "phone": "ih_I"
        },
        {
          "duration": 0.08,
          "phone": "sh_E"
        }
      ],
      "start": 12.78,
      "startOffset": 202,
      "word": "WISH"
    },
    {
      "alignedWord": "to",
      "case": "success",
      "end": 13.14,
      "endOffset": 209,
      "phones": [
        {
          "duration": 0.06,
          "phone": "t_B"
        },
        {
          "duration": 0.08,
          "phone": "uw_E"
        }
      ],
      "start": 13.0,
      "startOffset": 207,
      "word": "TO"
    },
    {
      "alignedWord": "occupy",
      "case": "success",
      "end": 13.709999,
      "endOffset": 216,
      "phones": [
        {
          "duration": 0.1,
          "phone": "aa_B"
        },
        {
          "duration": 0.09,
          "phone": "k_I"
        },
        {
          "duration": 0.04,
          "phone": "y_I"
        },
        {
          "duration": 0.06,
          "phone": "ah_I"
        },
        {
          "duration": 0.09,
          "phone": "p_I"
        },
        {
          "duration": 0.19,
          "phone": "ay_E"
        }
      ],
      "start": 13.139999,
      "startOffset": 210,
      "word": "OCCUPY"
    },
    {
      "alignedWord": "a",
      "case": "success",
      "end": 13.82,
      "endOffset": 218,
      "phones": [
        {
          "duration": 0.09,
          "phone": "ah_S"
        }
      ],
      "start": 13.73,
      "startOffset": 217,
      "word": "A"
    },
    {
      "alignedWord": "position",
      "case": "success",
      "end": 14.32,
      "endOffset": 227,
      "phones": [
        {
          "duration": 0.07,
          "phone": "p_B"
        },
        {
          "duration": 0.04,
          "phone": "ah_I"
        },
        {
          "duration": 0.08,
          "phone": "z_I"
        },
        {
          "duration": 0.08,
          "phone": "ih_I"
        },
        {
          "duration": 0.1,
          "phone": "sh_I"
        },
        {
          "duration": 0.07,
          "phone": "ah_I"
        },
        {
          "duration": 0.06,
          "phone": "n_E"
        }
      ],
      "start": 13.82,
      "startOffset": 219,
      "word": "POSITION"
    }
  ]
}