{
  "transcript": "AND ALL THE BASKETS SOON WILL LAND WE SHOUT WE SING THE PRAISES OF THE SENIORS HARDLY HAD THE LAST NOTES DIED AWAY WHEN THE REFEREE BLEW THE WHISTLE AND THE TEAMS HUSTLED TO THEIR POSITIONS GRACE AND JULIA CROSBY FACED EACH OTHER BEAMED AMIABLY AND SHOOK HANDS",
  "words": [
    {
      "alignedWord": "and",
      "case": "success",
      "end": 0.3,
      "endOffset": 3,
      "phones": [
        {
          "duration": 0.05,
          "phone": "ae_B"
        },
        {
          "duration": 0.06,
          "phone": "n_I"
        },
        {
          "duration": 0.04,
          "phone": "d_E"
        }
      ],
      "start": 0.15,
      "startOffset": 0,
      "word": "AND"
    },
    {
      "alignedWord": "all",
      "case": "success",
      "end": 0.44,
      "endOffset": 7,
      "phones": [
        {
          "duration": 0.07,
          "phone": "ao_B"
        },
        {
          "duration": 0.07,
          "phone": "l_E"
        }
      ],
      "start": 0.3,
      "startOffset": 4,
      "word": "ALL"
    },
    {
      "alignedWord": "the",
      "case": "success",
      "end": 0.54,
      "endOffset": 11,
      "phones": [
        {
          "duration": 0.04,
          "phone": "dh_B"
        },
        {
          "duration": 0.06,
          "phone": "ah_E"
        }
      ],
      "start": 0.44,
      "startOffset": 8,
      "word": "THE"
    },
    {
      "alignedWord": "baskets",
      "case": "success",
      "end": 0.99,
      "endOffset": 19,
      "phones": [
        {
          "duration": 0.06,
          "phone": "b_B"
        },
        {
          "duration": 0.13,
          "phone": "ae_I"
        },
        {
          "duration": 0.08,
          "phone": "s_I"
        },
        {
          "duration": 0.05,
          "phone": "k_I"
        },
        {
          "duration": 0.05,
          "phone": "ah_I"
        },
        {
          "duration": 0.07,
          "phone": "t_I"
        },
        {
          "duration": 0.01,
          "phone": "s_E"
        }
      ],
      "start": 0.54,
      "startOffset": 12,
      "word": "BASKETS"
    },
    {
      "alignedWord": "soon",
      "case": "success",
      "end": 1.24,
      "endOffset": 24,
      "phones": [
        {
          "duration": 0.1,
          "phone": "s_B"
        },
        {
          "duration": 0.09,
          "phone": "uw_I"
        },
        {
          "duration": 0.06,
          "phone": "n_E"
        }
      ],
      "start": 0.99,
      "startOffset": 20,
      "word": "SOON"
    },
    {
      "alignedWord": "will",
      "case": "success",
      "end": 1.3900000000000001,
      "endOffset": 29,
      "phones": [
        {
          "duration": 0.04,
          "phone": "w_B"
        },
        {
          "duration": 0.04,
          "phone": "ih_I"
        },
        {
          "duration": 0.06,
          "phone": "l_E"
        }
      ],
      "start": 1.25,
      "startOffset": 25,
      "word": "WILL"
    },
    {
      "alignedWord": "land",
      "case": "success",
      "end": 1.7599999999999998,
      "endOffset": 34,
      "phones": [
        {
          "duration": 0.07,
          "phone": "l_B"
        },
        {
          "duration": 0.13,
          "phone": "ae_I"
        },
        {
          "duration": 0.06,
          "phone": "n_I"
        },
        {
          "duration": 0.1,
          "phone": "d_E"
        }
      ],
      "start": 1.4,
      "startOffset": 30,
      "word": "LAND"
    },
    {
      "alignedWord": "we",
      "case": "success",
      "end": 2.0100000000000002,
      "endOffset": 37,
      "phones": [
        {
          "duration": 0.09,
          "phone": "w_B"
        },
        {
          "duration": 0.06,
          "phone": "iy_E"
        }
      ],
      "start": 1.86,
      "startOffset": 35,
      "word": "WE"
    },
    {
      "alignedWord": "shout",
      "case": "success",
      "end": 2.3299999999999996,
      "endOffset": 43,
      "phones": [
        {
          "duration": 0.13,
          "phone": "sh_B"
        },
        {
          "duration": 0.11,
          "phone": "aw_I"
        },
        {
          "duration": 0.08,
          "phone": "t_E"
        }
      ],
      "start": 2.01,
      "startOffset": 38,
      "word": "SHOUT"
    },
    {
      "alignedWord": "we",
      "case": "success",
      "end": 2.52,
      "endOffset": 46,
      "phones": [
        {
          "duration": 0.08,
          "phone": "w_B"
        },
        {
          "duration": 0.08,
          "phone": "iy_E"
        }
      ],
      "start": 2.36,
      "startOffset": 44,
      "word": "WE"
    },
    {
      "alignedWord": "sing",
      "case": "success",
      "end": 2.94,
      "endOffset": 51,
      "phones": [
        {
          "duration": 0.08,
          "phone": "s_B"
        },
        {
          "duration": 0.12,
          "phone": "ih_I"
        },
        {
          "duration": 0.22,
          "phone": "ng_E"
        }
      ],
      "start": 2.52,
      "startOffset": 47,
      "word": "SING"
    },
    {
      "alignedWord": "the",
      "case": "success",
      "end": 3.1,
      "endOffset": 55,
      "phones": [
        {
          "duration": 0.08,
          "phone": "dh_B"
        },
        {
          "duration": 0.04,
          "phone": "ah_E"
        }
      ],
      "start": 2.98,
      "startOffset": 52,
      "word": "THE"
    },
    {
      "alignedWord": "praises",
      "case": "success",
      "end": 3.52,
      "endOffset": 63,
      "phones": [
        {
          "duration": 0.08,
          "phone": "p_B"
        },
        {
          "duration": 0.09,
          "phone": "r_I"
        },
        {
          "duration": 0.07,
          "phone": "ey_I"
        },
        {
          "duration": 0.05,
          "phone": "z_I"
        },
        {
          "duration": 0.07,
          "phone": "ih_I"
        },
        {
          "duration": 0.06,
          "phone": "z_E"
        }
      ],
      "start": 3.1,
      "startOffset": 56,
      "word": "PRAISES"
    },
    {
      "alignedWord": "of",
      "case": "success",
      "end": 3.67,
      "endOffset": 66,
      "phones": [
        {
          "duration": 0.06,
          "phone": "ah_B"
        },
        {
          "duration": 0.09,
          "phone": "v_E"
        }
      ],
      "start": 3.52,
      "startOffset": 64,
      "word": "OF"
    },
    {
      "alignedWord": "the",
      "case": "success",
      "end": 3.7399999999999998,
      "endOffset": 70,
      "phones": [
        {
          "duration": 0.01,
          "phone": "dh_B"
        },
        {
          "duration": 0.06,
          "phone": "ah_E"
        }
      ],
      "start": 3.67,
      "startOffset": 67,
      "word": "THE"
    },
    {
      "alignedWord": "seniors",
      "case": "success",
      "end": 4.32,
      "endOffset": 78,
      "phones": [
        {
          "duration": 0.1,
          "phone": "s_B"
        },
        {
          "duration": 0.11,
          "phone": "iy_I"
        },
        {
          "duration": 0.01,
          "phone": "n_I"
        },
        {
          "duration": 0.1,
          "phone": "y_I"
        },
        {
          "duration": 0.07,
          "phone": "er_I"
        },
        {
          "duration": 0.19,
          "phone": "z_E"
        }
      ],
      "start": 3.74,
      "startOffset": 71,
      "word": "SENIORS"
    },
    {
      "alignedWord": "hardly",
      "case": "success",
      "end": 5.27,
      "endOffset": 85,
      "phones": [
        {
          "duration": 0.1,
          "phone": "hh_B"
        },
        {
          "duration": 0.08,
          "phone": "aa_I"
        },
        {
          "duration": 0.06,
          "phone": "r_I"
        },
        {
          "duration": 0.09,
          "phone": "d_I"
        },
        {
          "duration": 0.06,
          "phone": "l_I"
        },
        {
          "duration": 0.09,
          "phone": "iy_E"
        }
      ],
      "start": 4.79,
      "startOffset": 79,
      "word": "HARDLY"
    },
    {
      "alignedWord": "had",
      "case": "success",
      "end": 5.45,
      "endOffset": 89,
      "phones": [
        {
          "duration": 0.07,
          "phone": "hh_B"
        },
        {
          "duration": 0.04,
          "phone": "ae_I"
        },
        {
          "duration": 0.06,
          "phone": "d_E"
        }
      ],
      "start": 5.28,
      "startOffset": 86,
      "word": "HAD"
    },
    {
      "alignedWord": "the",
      "case": "success",
      "end": 5.5200000000000005,
      "endOffset": 93,
      "phones": [
        {
          "duration": 0.01,
          "phone": "dh_B"
        },
        {
          "duration": 0.06,
          "phone": "ah_E"
        }
      ],
      "start": 5.45,
      "startOffset": 90,
      "word": "THE"
    },
    {
      "alignedWord": "last",
      "case": "success",
      "end": 5.88,
      "endOffset": 98,
      "phones": [
        {
          "duration": 0.11,
          "phone": "l_B"
        },
        {
          "duration": 0.13,
          "phone": "ae_I"
        },
        {
          "duration": 0.12,
          "phone": "s_E"
        }
      ],
      "start": 5.52,
      "startOffset": 94,
      "word": "LAST"
    },
    {
      "alignedWord": "notes",
      "case": "success",
      "end": 6.16,
      "endOffset": 104,
      "phones": [
        {
          "duration": 0.07,
          "phone": "n_B"
        },
        {
          "duration": 0.09,
          "phone": "ow_I"
        },
        {
          "duration": 0.07,
          "phone": "t_I"
        },
        {
          "duration": 0.05,
          "phone": "s_E"
        }
      ],
      "start": 5.88,
      "startOffset": 99,
      "word": "NOTES"
    },
    {
      "alignedWord": "died",
      "case": "success",
      "end": 6.41,
      "endOffset": 109,
      "phones": [
        {
          "duration": 0.09,
          "phone": "d_B"
        },
        {
          "duration": 0.11,
          "phone": "ay_I"
        },
        {
          "duration": 0.05,
          "phone": "d_E"
        }
      ],
      "start": 6.16,
      "startOffset": 105,
      "word": "DIED"
    },
    {
      "alignedWord": "away",
      "case": "success",
      "end": 6.8100000000000005,
      "endOffset": 114,
      "phones": [
        {
          "duration": 0.06,
          "phone": "ah_B"
        },
        {
          "duration": 0.11,
          "phone": "w_I"
        },
        {
          "duration": 0.23,
          "phone": "ey_E"
        }
      ],
      "start": 6.41,
      "startOffset": 110,
      "word": "AWAY"
    },
    {
      "alignedWord": "when",
      "case": "success",
      "end": 7.0,
      "endOffset": 119,
      "phones": [
        {
          "duration": 0.07,
          "phone": "w_B"
        },
        {
          "duration": 0.04,
          "phone": "eh_I"
        },
        {
          "duration": 0.05,
          "phone": "n_E"
        }
      ],
      "start": 6.84,
      "startOffset": 115,
      "word": "WHEN"
    },
    {
      "alignedWord": "the",
      "case": "success",
      "end": 7.09,
      "endOffset": 123,
      "phones": [
        {
          "duration": 0.02,
          "phone": "dh_B"
        },
        {
          "duration": 0.07,
          "phone": "ah_E"
        }
      ],
      "start": 7.0,
      "startOffset": 120,
      "word": "THE"
    },
    {
      "alignedWord": "referee",
      "case": "success",
      "end": 7.56,
      "endOffset": 131,
      "phones": [
        {
          "duration": 0.08,
          "phone": "r_B"
        },
        {
          "duration": 0.08,
          "phone": "eh_I"
        },
        {
          "duration": 0.11,
          "phone": "f_I"
        },
        {
          "duration": 0.14,
          "phone": "er_I"
        },
        {
          "duration": 0.06,
          "phone": "iy_E"
        }
      ],
      "start": 7.09,
      "startOffset": 124,
      "word": "REFEREE"
    },
    {
      "alignedWord": "blew",
      "case": "success",
      "end": 7.739999999999999,
      "endOffset": 136,
      "phones": [
        {
          "duration": 0.07,
          "phone": "b_B"
        },
        {
          "duration": 0.06,
          "phone": "l_I"
        },
        {
          "duration": 0.05,
          "phone": "uw_E"
        }
      ],
      "start": 7.56,
      "startOffset": 132,
      "word": "BLEW"
    },
    {
      "alignedWord": "the",
      "case": "success",
      "end": 7.86,
      "endOffset": 140,
      "phones": [
        {
          "duration": 0.06,
          "phone": "dh_B"
        },
        {
          "duration": 0.06,
          "phone": "ah_E"
        }
      ],
      "start": 7.74,
      "startOffset": 137,
      "word": "THE"
    },
    {
      "alignedWord": "whistle",
      "case": "success",
      "end": 8.32,
      "endOffset": 148,
      "phones": [
        {
          "duration": 0.07,
          "phone": "w_B"
        },
        {
          "duration": 0.11,
          "phone": "ih_I"
        },
        {
          "duration": 0.07,
          "phone": "s_I"
        },
        {
          "duration": 0.1,
          "phone": "ah_I"
        },
        {
          "duration": 0.11,
          "phone": "l_E"
        }
      ],
      "start": 7.86,
      "startOffset": 141,
      "word": "WHISTLE"
    },
    {
      "alignedWord": "and",
      "case": "success",
      "end": 8.52,
      "endOffset": 152,
      "phones": [
        {
          "duration": 0.07,
          "phone": "ah_B"
        },
        {
          "duration": 0.06,
          "phone": "n_I"
        },
        {
          "duration": 0.03,
          "phone": "d_E"
        }
      ],
      "start": 8.36,
      "startOffset": 149,
      "word": "AND"
    },
    {
      "alignedWord": "the",
      "case": "success",
      "end": 8.6,
      "endOffset": 156,
      "phones": [
        {
          "duration": 0.01,
          "phone": "dh_B"
        },
        {
          "duration": 0.07,
          "phone": "ah_E"
        }
      ],
      "start": 8.52,
      "startOffset": 153,
      "word": "THE"
    },
    {
      "alignedWord": "teams",
      "case": "success",
      "end": 8.989999000000001,
      "endOffset": 162,
      "phones": [
        {
          "duration": 0.13,
          "phone": "t_B"
        },
        {
          "duration": 0.12,
          "phone": "iy_I"
        },
        {
          "duration": 0.06,
          "phone": "m_I"
        },
        {
          "duration": 0.08,
          "phone": "z_E"
        }
      ],
      "start": 8.599999,
      "startOffset": 157,
      "word": "TEAMS"
    },
    {
      "alignedWord": "hustled",
      "case": "success",
      "end": 9.36,
      "endOffset": 170,
      "phones": [
        {
          "duration": 0.07,
          "phone": "hh_B"
        },
        {
          "duration": 0.07,
          "phone": "ah_I"
        },
        {
          "duration": 0.07,
          "phone": "s_I"
        },
        {
          "duration": 0.06,
          "phone": "ah_I"
        },
        {
          "duration": 0.04,
          "phone": "l_I"
        },
        {
          "duration": 0.06,
          "phone": "d_E"
        }
      ],
      "start": 8.99,
      "startOffset": 163,
      "word": "HUSTLED"
    },
    {
      "alignedWord": "to",
      "case": "success",
      "end": 9.45,
      "endOffset": 173,
      "phones": [
        {
          "duration": 0.02,
          "phone": "t_B"
        },
        {
          "duration": 0.07,
          "phone": "ih_E"
        }
      ],
      "start": 9.36,
      "startOffset": 171,
      "word": "TO"
    },
    {
      "alignedWord": "their",
      "case": "success",
      "end": 9.61,
      "endOffset": 179,
      "phones": [
        {
          "duration": 0.05,
          "phone": "dh_B"
        },
        {
          "duration": 0.07,
          "phone": "eh_I"
        },
        {
          "duration": 0.04,
          "phone": "r_E"
        }
      ],
      "start": 9.45,
      "startOffset": 174,
      "word": "THEIR"
    },
    {
      "alignedWord": "positions",
      "case": "success",
      "end": 10.26,
      "endOffset": 189,
      "phones": [
        {
          "duration": 0.07,
          "phone": "p_B"
        },
        {
          "duration": 0.06,
          "phone": "ah_I"
        },
        {
          "duration": 0.05,
          "phone": "z_I"
        },
        {
          "duration": 0.09,
          "phone": "ih_I"
        },
        {
          "duration": 0.09,
          "phone": "sh_I"
        },
        {
          "duration": 0.06,
          "phone": "ah_I"
        },
        {
          "duration": 0.07,
          "phone": "n_I"
        },
        {
          "duration": 0.16,
          "phone": "z_E"
        }
      ],
      "start": 9.61,
      "startOffset": 180,
      "word": "POSITIONS"
    },
    {
      "alignedWord": "grace",
      "case": "success",
      "end": 11.11,
      "endOffset": 195,
      "phones": [
        {
          "duration": 0.08,
          "phone": "g_B"
        },
        {
          "duration": 0.09,
          "phone": "r_I"
        },
        {
          "duration": 0.07,
          "phone": "ey_I"
        },
        {
          "duration": 0.05,
          "phone": "s_E"
        }
      ],
      "start": 10.82,
      "startOffset": 190,
      "word": "GRACE"
    },
    {
      "alignedWord": "and",
      "case": "success",
      "end": 11.219999999999999,
      "endOffset": 199,
      "phones": [
        {
          "duration": 0.05,
          "phone": "ah_B"
        },
        {
          "duration": 0.03,
          "phone": "n_I"
        },
        {
          "duration": 0.03,
          "phone": "d_E"
        }
      ],
      "start": 11.11,
      "startOffset": 196,
      "word": "AND"
    },
    {
      "alignedWord": "julia",
      "case": "success",
      "end": 11.529999,
      "endOffset": 205,
      "phones": [
        {
          "duration": 0.07,
          "phone": "jh_B"
        },
        {
          "duration": 0.06,
          "phone": "uw_I"
        },
        {
          "duration": 0.06,
          "phone": "l_I"
        },
        {
          "duration": 0.07,
          "phone": "y_I"
        },
        {
          "duration": 0.05,
          "phone": "ah_E"
        }
      ],
      "start": 11.219999,
      "startOffset": 200,
      "word": "JULIA"
    },
    {
      "alignedWord": "crosby",
      "case": "success",
      "end": 12.02,
      "endOffset": 212,
      "phones": [
        {
          "duration": 0.09,
          "phone": "k_B"
        },
        {
          "duration": 0.07,
          "phone": "r_I"
        },
        {
          "duration": 0.1,
          "phone": "ao_I"
        },
        {
          "duration": 0.09,
          "phone": "z_I"
        },
        {
          "duration": 0.07,
          "phone": "b_I"
        },
        {
          "duration": 0.07,
          "phone": "iy_E"
        }
      ],
      "start": 11.53,
      "startOffset": 206,
      "word": "CROSBY"
    },
    {
      "alignedWord": "faced",
      "case": "success",
      "end": 12.389999999999999,
      "endOffset": 218,
      "phones": [
        {
          "duration": 0.14,
          "phone": "f_B"
        },
        {
          "duration": 0.09,
          "phone": "ey_I"
        },
        {
          "duration": 0.07,
          "phone": "s_I"
        },
        {
          "duration": 0.07,
          "phone": "t_E"
        }
      ],
      "start": 12.02,
      "startOffset": 213,
      "word": "FACED"
    },
    {
      "alignedWord": "each",
      "case": "success",
      "end": 12.549999,
      "endOffset": 223,
      "phones": [
        {
          "duration": 0.07,
          "phone": "iy_B"
        },
        {
          "duration": 0.09,
          "phone": "ch_E"
        }
      ],
      "start": 12.389999,
      "startOffset": 219,
      "word": "EACH"
    },
    {
      "alignedWord": "other",
      "case": "success",
      "end": 12.92,
      "endOffset": 229,
      "phones": [
        {
          "duration": 0.11,
          "phone": "ah_B"
        },
        {
          "duration": 0.07,
          "phone": "dh_I"
        },
        {
          "duration": 0.19,
          "phone": "er_E"
        }
      ],
      "start": 12.55,
      "startOffset": 224,
      "word": "OTHER"
    },
    {
      "alignedWord": "beamed",
      "case": "success",
      "end": 13.42,
      "endOffset": 236,
      "phones": [
        {
          "duration": 0.09,
          "phone": "b_B"
        },
        {
          "duration": 0.09,
          "phone": "iy_I"
        },
        {
          "duration": 0.07,
          "phone": "m_I"
        },
        {
          "duration": 0.08,
          "phone": "d_E"
        }
      ],
      "start": 13.09,
      "startOffset": 230,
      "word": "BEAMED"
    },
    {
      "alignedWord": "<unk>",
      "case": "success",
      "end": 14.139999999999999,
      "endOffset": 244,
      "phones": [
        {
          "duration": 0.69,
          "phone": "oov_S"
        }
      ],
      "start": 13.45,
      "startOffset": 237,
      "word": "AMIABLY"
    },
    {
      "alignedWord": "and",
      "case": "success",
      "end": 14.290000000000001,
      "endOffset": 248,
      "phones": [
        {
          "duration": 0.04,
          "phone": "ae_B"
        },
        {
          "duration": 0.03,
          "phone": "n_I"
        },
        {
          "duration": 0.06,
          "phone": "d_E"
        }
      ],
      "start": 14.16,
      "startOffset": 245,
      "word": "AND"
    },
    {
      "alignedWord": "shook",
      "case": "success",
      "end": 14.54,
      "endOffset": 254,
      "phones": [
        {
          "duration": 0.11,
          "phone": "sh_B"
        },
        {
          "duration": 0.06,
          "phone": "uh_I"
        },
        {
          "duration": 0.08,
          "phone": "k_E"
        }
      ],
      "start": 14.29,
      "startOffset": 249,
      "word": "SHOOK"
    },
    {
      "alignedWord": "hands",
      "case": "success",
      "end": 15.03,
      "endOffset": 260,
      "phones": [
        {
          "duration": 0.09,
          "phone": "hh_B"
        },
        {
          "duration": 0.17,
          "phone": "ae_I"
        },
        {
          "duration": 0.09,
          "phone": "n_I"
        },
        {
          "duration": 0.14,
          "phone": "z_E"
        }
      ],
      "start": 14.54,
      "startOffset": 255,
      "word": "HANDS"
    }
  ]
}