{
  "transcript": "A TALL JUNIOR WHO STOOD UP AND BEAT TIME WITH BOTH HANDS ANNE HAD COMPOSED THE SONG THE WEEK BEFORE THE JUNIORS HAD ALL RECEIVED COPIES OF THE WORDS AND HAD LEARNED THEM BY HEART THEY NOW SANG WITH THE UTMOST GLEE AND CAME OUT PARTICULARLY STRONG ON THE CHORUS WHICH RAN",
  "words": [
    {
      "alignedWord": "a",
      "case": "success",
      "end": 0.3,
      "endOffset": 1,
      "phones": [
        {
          "duration": 0.11,
          "phone": "ah_S"
        }
      ],
      "start": 0.19,
      "startOffset": 0,
      "word": "A"
    },
    {
      "alignedWord": "tall",
      "case": "success",
      "end": 0.63,
      "endOffset": 6,
      "phones": [
        {
          "duration": 0.13,
          "phone": "t_B"
        },
        {
          "duration": 0.12,
          "phone": "ao_I"
        },
        {
          "duration": 0.08,
          "phone": "l_E"
        }
      ],
      "start": 0.3,
      "startOffset": 2,
      "word": "TALL"
    },
    {
      "alignedWord": "junior",
      "case": "success",
      "end": 1.04,
      "endOffset": 13,
      "phones": [
        {
          "duration": 0.13,
          "phone": "jh_B"
        },
        {
          "duration": 0.09,
          "phone": "uw_I"
        },
        {
          "duration": 0.02,
          "phone": "n_I"
        },
        {
          "duration": 0.1,
          "phone": "y_I"
        },
        {
          "duration": 0.07,
          "phone": "er_E"
        }
      ],
      "start": 0.63,
      "startOffset": 7,
      "word": "JUNIOR"
    },
    {
      "alignedWord": "who",
      "case": "success",
      "end": 1.19,
      "endOffset": 17,
      "phones": [
        {
          "duration": 0.08,
          "phone": "hh_B"
        },
        {
          "duration": 0.07,
          "phone": "uw_E"
        }
      ],
      "start": 1.04,
      "startOffset": 14,
      "word": "WHO"
    },
    {
      "alignedWord": "stood",
      "case": "success",
      "end": 1.46,
      "endOffset": 23,
      "phones": [
        {
          "duration": 0.07,
          "phone": "s_B"
        },
        {
          "duration": 0.06,
          "phone": "t_I"
        },
        {
          "duration": 0.08,
          "phone": "uh_I"
        },
        {
          "duration": 0.06,
          "phone": "d_E"
        }
      ],
      "start": 1.19,
      "startOffset": 18,
      "word": "STOOD"
    },
    {
      "alignedWord": "up",
      "case": "success",
      "end": 1.6,
      "endOffset": 26,
      "phones": [
        {
          "duration": 0.06,
          "phone": "ah_B"
        },
        {
          "duration": 0.08,
          "phone": "p_E"
        }
      ],
      "start": 1.46,
      "startOffset": 24,
      "word": "UP"
    },
    {
      "alignedWord": "and",
      "case": "success",
      "end": 1.77,
      "endOffset": 30,
      "phones": [
        {
          "duration": 0.03,
          "phone": "ah_B"
        },
        {
          "duration": 0.03,
          "phone": "n_I"
        },
        {
          "duration": 0.07,
          "phone": "d_E"
        }
      ],
      "start": 1.64,
      "startOffset": 27,
      "word": "AND"
    },
    {
      "alignedWord": "beat",
      "case": "success",
      "end": 1.93,
      "endOffset": 35,
      "phones": [
        {
          "duration": 0.02,
          "phone": "b_B"
        },
        {
          "duration": 0.09,
          "phone": "iy_I"
        },
        {
          "duration": 0.05,
          "phone": "t_E"
        }
      ],
      "start": 1.77,
      "startOffset": 31,
      "word": "BEAT"
    },
    {
      "alignedWord": "time",
      "case": "success",
      "end": 2.1799999999999997,
      "endOffset": 40,
      "phones": [
        {
          "duration": 0.07,
          "phone": "t_B"
        },
        {
          "duration": 0.13,
          "phone": "ay_I"
        },
        {
          "duration": 0.05,
          "phone": "m_E"
        }
      ],
      "start": 1.93,
      "startOffset": 36,
      "word": "TIME"
    },
    {
      "alignedWord": "with",
      "case": "success",
      "end": 2.3200000000000003,
      "endOffset": 45,
      "phones": [
        {
          "duration": 0.05,
          "phone": "w_B"
        },
        {
          "duration": 0.02,
          "phone": "ih_I"
        },
        {
          "duration": 0.07,
          "phone": "th_E"
        }
      ],
      "start": 2.18,
      "startOffset": 41,
      "word": "WITH"
    },
    {
      "alignedWord": "both",
      "case": "success",
      "end": 2.54,
      "endOffset": 50,
      "phones": [
        {
          "duration": 0.06,
          "phone": "b_B"
        },
        {
          "duration": 0.1,
          "phone": "ow_I"
        },
        {
          "duration": 0.05,
          "phone": "th_E"
        }
      ],
      "start": 2.33,
      "startOffset": 46,
      "word": "BOTH"
    },
    {
      "alignedWord": "hands",
      "case": "success",
      "end": 3.06,
      "endOffset": 56,
      "phones": [
        {
          "duration": 0.08,
          "phone": "hh_B"
        },
        {
          "duration": 0.19,
          "phone": "ae_I"
        },
        {
          "duration": 0.1,
          "phone": "n_I"
        },
        {
          "duration": 0.15,
          "phone": "z_E"
        }
      ],
      "start": 2.54,
      "startOffset": 51,
      "word": "HANDS"
    },
    {
      "alignedWord": "anne",
      "case": "success",
      "end": 3.6799999999999997,
      "endOffset": 61,
      "phones": [
        {
          "duration": 0.18,
          "phone": "ae_B"
        },
        {
          "duration": 0.06,
          "phone": "n_E"
        }
      ],
      "start": 3.44,
      "startOffset": 57,
      "word": "ANNE"
    },
    {
      "alignedWord": "had",
      "case": "success",
      "end": 3.8000000000000003,
      "endOffset": 65,
      "phones": [
        {
          "duration": 0.04,
          "phone": "hh_B"
        },
        {
          "duration": 0.03,
          "phone": "ae_I"
        },
        {
          "duration": 0.05,
          "phone": "d_E"
        }
      ],
      "start": 3.68,
      "startOffset": 62,
      "word": "HAD"
    },
    {
      "alignedWord": "composed",
      "case": "success",
      "end": 4.2299999999999995,
      "endOffset": 74,
      "phones": [
        {
          "duration": 0.02,
          "phone": "k_B"
        },
        {
          "duration": 0.03,
          "phone": "ah_I"
        },
        {
          "duration": 0.01,
          "phone": "m_I"
        },
        {
          "duration": 0.1,
          "phone": "p_I"
        },
        {
          "duration": 0.14,
          "phone": "ow_I"
        },
        {
          "duration": 0.07,
          "phone": "z_I"
        },
        {
          "duration": 0.06,
          "phone": "d_E"
        }
      ],
      "start": 3.8,
      "startOffset": 66,
      "word": "COMPOSED"
    },
    {
      "alignedWord": "the",
      "case": "success",
      "end": 4.300000000000001,
      "endOffset": 78,
      "phones": [
        {
          "duration": 0.01,
          "phone": "dh_B"
        },
        {
          "duration": 0.06,
          "phone": "ah_E"
        }
      ],
      "start": 4.23,
      "startOffset": 75,
      "word": "THE"
    },
    {
      "alignedWord": "song",
      "case": "success",
      "end": 4.609999999999999,
      "endOffset": 83,
      "phones": [
        {
          "duration": 0.11,
          "phone": "s_B"
        },
        {
          "duration": 0.13,
          "phone": "ao_I"
        },
        {
          "duration": 0.07,
          "phone": "ng_E"
        }
      ],
      "start": 4.3,
      "startOffset": 79,
      "word": "SONG"
    },
    {
      "alignedWord": "the",
      "case": "success",
      "end": 4.73,
      "endOffset": 87,
      "phones": [
        {
          "duration": 0.06,
          "phone": "dh_B"
        },
        {
          "duration": 0.06,
          "phone": "ah_E"
        }
      ],
      "start": 4.61,
      "startOffset": 84,
      "word": "THE"
    },
    {
      "alignedWord": "week",
      "case": "success",
      "end": 4.94,
      "endOffset": 92,
      "phones": [
        {
          "duration": 0.04,
          "phone": "w_B"
        },
        {
          "duration": 0.1,
          "phone": "iy_I"
        },
        {
          "duration": 0.07,
          "phone": "k_E"
        }
      ],
      "start": 4.73,
      "startOffset": 88,
      "word": "WEEK"
    },
    {
      "alignedWord": "before",
      "case": "success",
      "end": 5.510000000000001,
      "endOffset": 99,
      "phones": [
        {
          "duration": 0.04,
          "phone": "b_B"
        },
        {
          "duration": 0.07,
          "phone": "ih_I"
        },
        {
          "duration": 0.11,
          "phone": "f_I"
        },
        {
          "duration": 0.16,
          "phone": "ao_I"
        },
        {
          "duration": 0.19,
          "phone": "r_E"
        }
      ],
      "start": 4.94,
      "startOffset": 93,
      "word": "BEFORE"
    },
    {
      "alignedWord": "the",
      "case": "success",
      "end": 5.8999999999999995,
      "endOffset": 103,
      "phones": [
        {
          "duration": 0.06,
          "phone": "dh_B"
        },
        {
          "duration": 0.04,
          "phone": "ah_E"
        }
      ],
      "start": 5.8,
      "startOffset": 100,
      "word": "THE"
    },
    {
      "alignedWord": "juniors",
      "case": "success",
      "end": 6.29,
      "endOffset": 111,
      "phones": [
        {
          "duration": 0.11,
          "phone": "jh_B"
        },
        {
          "duration": 0.08,
          "phone": "uw_I"
        },
        {
          "duration": 0.02,
          "phone": "n_I"
        },
        {
          "duration": 0.06,
          "phone": "y_I"
        },
        {
          "duration": 0.04,
          "phone": "er_I"
        },
        {
          "duration": 0.08,
          "phone": "z_E"
        }
      ],
      "start": 5.9,
      "startOffset": 104,
      "word": "JUNIORS"
    },
    {
      "alignedWord": "had",
      "case": "success",
      "end": 6.43,
      "endOffset": 115,
      "phones": [
        {
          "duration": 0.04,
          "phone": "hh_B"
        },
        {
          "duration": 0.03,
          "phone": "ae_I"
        },
        {
          "duration": 0.07,
          "phone": "d_E"
        }
      ],
      "start": 6.29,
      "startOffset": 112,
      "word": "HAD"
    },
    {
      "alignedWord": "all",
      "case": "success",
      "end": 6.640000000000001,
      "endOffset": 119,
      "phones": [
        {
          "duration": 0.13,
          "phone": "ao_B"
        },
        {
          "duration": 0.07,
          "phone": "l_E"
        }
      ],
      "start": 6.44,
      "startOffset": 116,
      "word": "ALL"
    },
    {
      "alignedWord": "received",
      "case": "success",
      "end": 7.0,
      "endOffset": 128,
      "phones": [
        {
          "duration": 0.04,
          "phone": "r_B"
        },
        {
          "duration": 0.08,
          "phone": "ih_I"
        },
        {
          "duration": 0.09,
          "phone": "s_I"
        },
        {
          "duration": 0.05,
          "phone": "iy_I"
        },
        {
          "duration": 0.05,
          "phone": "v_I"
        },
        {
          "duration": 0.05,
          "phone": "d_E"
        }
      ],
      "start": 6.64,
      "startOffset": 120,
      "word": "RECEIVED"
    },
    {
      "alignedWord": "copies",
      "case": "success",
      "end": 7.37,
      "endOffset": 135,
      "phones": [
        {
          "duration": 0.08,
          "phone": "k_B"
        },
        {
          "duration": 0.09,
          "phone": "aa_I"
        },
        {
          "duration": 0.11,
          "phone": "p_I"
        },
        {
          "duration": 0.06,
          "phone": "iy_I"
        },
        {
          "duration": 0.03,
          "phone": "z_E"
        }
      ],
      "start": 7.0,
      "startOffset": 129,
      "word": "COPIES"
    },
    {
      "alignedWord": "of",
      "case": "success",
      "end": 7.49,
      "endOffset": 138,
      "phones": [
        {
          "duration": 0.05,
          "phone": "ah_B"
        },
        {
          "duration": 0.07,
          "phone": "v_E"
        }
      ],
      "start": 7.37,
      "startOffset": 136,
      "word": "OF"
    },
    {
      "alignedWord": "the",
      "case": "success",
      "end": 7.57,
      "endOffset": 142,
      "phones": [
        {
          "duration": 0.01,
          "phone": "dh_B"
        },
        {
          "duration": 0.07,
          "phone": "ah_E"
        }
      ],
      "start": 7.49,
      "startOffset": 139,
      "word": "THE"
    },
    {
      "alignedWord": "words",
      "case": "success",
      "end": 7.95,
      "endOffset": 148,
      "phones": [
        {
          "duration": 0.14,
          "phone": "w_B"
        },
        {
          "duration": 0.12,
          "phone": "er_I"
        },
        {
          "duration": 0.07,
          "phone": "d_I"
        },
        {
          "duration": 0.05,
          "phone": "z_E"
        }
      ],
      "start": 7.57,
      "startOffset": 143,
      "word": "WORDS"
    },
    {
      "alignedWord": "and",
      "case": "success",
      "end": 8.13,
      "endOffset": 152,
      "phones": [
        {
          "duration": 0.06,
          "phone": "ae_B"
        },
        {
          "duration": 0.04,
          "phone": "n_I"
        },
        {
          "duration": 0.05,
          "phone": "d_E"
        }
      ],
      "start": 7.98,
      "startOffset": 149,
      "word": "AND"
    },
    {
      "alignedWord": "had",
      "case": "success",
      "end": 8.260000000000002,
      "endOffset": 156,
      "phones": [
        {
          "duration": 0.03,
          "phone": "hh_B"
        },
        {
          "duration": 0.04,
          "phone": "ae_I"
        },
        {
          "duration": 0.06,
          "phone": "d_E"
        }
      ],
      "start": 8.13,
      "startOffset": 153,
      "word": "HAD"
    },
    {
      "alignedWord": "learned",
      "case": "success",
      "end": 8.48,
      "endOffset": 164,
      "phones": [
        {
          "duration": 0.08,
          "phone": "l_B"
        },
        {
          "duration": 0.06,
          "phone": "er_I"
        },
        {
          "duration": 0.05,
          "phone": "n_I"
        },
        {
          "duration": 0.03,
          "phone": "d_E"
        }
      ],
      "start": 8.26,
      "startOffset": 157,
      "word": "LEARNED"
    },
    {
      "alignedWord": "them",
      "case": "success",
      "end": 8.57,
      "endOffset": 169,
      "phones": [
        {
          "duration": 0.01,
          "phone": "dh_B"
        },
        {
          "duration": 0.04,
          "phone": "ah_I"
        },
        {
          "duration": 0.04,
          "phone": "m_E"
        }
      ],
      "start": 8.48,
      "startOffset": 165,
      "word": "THEM"
    },
    {
      "alignedWord": "by",
      "case": "success",
      "end": 8.72,
      "endOffset": 172,
      "phones": [
        {
          "duration": 0.07,
          "phone": "b_B"
        },
        {
          "duration": 0.08,
          "phone": "ay_E"
        }
      ],
      "start": 8.57,
      "startOffset": 170,
      "word": "BY"
    },
    {
      "alignedWord": "heart",
      "case": "success",
      "end": 9.14,
      "endOffset": 178,
      "phones": [
        {
          "duration": 0.08,
          "phone": "hh_B"
        },
        {
          "duration": 0.1,
          "phone": "aa_I"
        },
        {
          "duration": 0.06,
          "phone": "r_I"
        },
        {
          "duration": 0.18,
          "phone": "t_E"
        }
      ],
      "start": 8.72,
      "startOffset": 173,
      "word": "HEART"
    },
    {
      "alignedWord": "they",
      "case": "success",
      "end": 9.76,
      "endOffset": 183,
      "phones": [
        {
          "duration": 0.07,
          "phone": "dh_B"
        },
        {
          "duration": 0.08,
          "phone": "ey_E"
        }
      ],
      "start": 9.61,
      "startOffset": 179,
      "word": "THEY"
    },
    {
      "alignedWord": "now",
      "case": "success",
      "end": 9.95,
      "endOffset": 187,
      "phones": [
        {
          "duration": 0.08,
          "phone": "n_B"
        },
        {
          "duration": 0.11,
          "phone": "aw_E"
        }
      ],
      "start": 9.76,
      "startOffset": 184,
      "word": "NOW"
    },
    {
      "alignedWord": "sang",
      "case": "success",
      "end": 10.33,
      "endOffset": 192,
      "phones": [
        {
          "duration": 0.13,
          "phone": "s_B"
        },
        {
          "duration": 0.19,
          "phone": "ae_I"
        },
        {
          "duration": 0.06,
          "phone": "ng_E"
        }
      ],
      "start": 9.95,
      "startOffset": 188,
      "word": "SANG"
    },
    {
      "alignedWord": "with",
      "case": "success",
      "end": 10.45,
      "endOffset": 197,
      "phones": [
        {
          "duration": 0.04,
          "phone": "w_B"
        },
        {
          "duration": 0.04,
          "phone": "ih_I"
        },
        {
          "duration": 0.04,
          "phone": "th_E"
        }
      ],
      "start": 10.33,
      "startOffset": 193,
      "word": "WITH"
    },
    {
      "alignedWord": "the",
      "case": "success",
      "end": 10.559999999999999,
      "endOffset": 201,
      "phones": [
        {
          "duration": 0.04,
          "phone": "dh_B"
        },
        {
          "duration": 0.07,
          "phone": "iy_E"
        }
      ],
      "start": 10.45,
      "startOffset": 198,
      "word": "THE"
    },
    {
      "alignedWord": "utmost",
      "case": "success",
      "end": 10.98,
      "endOffset": 208,
      "phones": [
        {
          "duration": 0.1,
          "phone": "ah_B"
        },
        {
          "duration": 0.07,
          "phone": "t_I"
        },
        {
          "duration": 0.07,
          "phone": "m_I"
        },
        {
          "duration": 0.07,
          "phone": "ow_I"
        },
        {
          "duration": 0.07,
          "phone": "s_I"
        },
        {
          "duration": 0.01,
          "phone": "t_E"
        }
      ],
      "start": 10.59,
      "startOffset": 202,
      "word": "UTMOST"
    },
    {
      "alignedWord": "glee",
      "case": "success",
      "end": 11.42,
      "endOffset": 213,
      "phones": [
        {
          "duration": 0.09,
          "phone": "g_B"
        },
        {
          "duration": 0.1,
          "phone": "l_I"
        },
        {
          "duration": 0.22,
          "phone": "iy_E"
        }
      ],
      "start": 11.01,
      "startOffset": 209,
      "word": "GLEE"
    },
    {
      "alignedWord": "and",
      "case": "success",
      "end": 11.6,
      "endOffset": 217,
      "phones": [
        {
          "duration": 0.07,
          "phone": "ae_B"
        },
        {
          "duration": 0.01,
          "phone": "n_I"
        },
        {
          "duration": 0.07,
          "phone": "d_E"
        }
      ],
      "start": 11.45,
      "startOffset": 214,
      "word": "AND"
    },
    {
      "alignedWord": "came",
      "case": "success",
      "end": 11.839999,
      "endOffset": 222,
      "phones": [
        {
          "duration": 0.08,
          "phone": "k_B"
        },
        {
          "duration": 0.1,
          "phone": "ey_I"
        },
        {
          "duration": 0.06,
          "phone": "m_E"
        }
      ],
      "start": 11.599999,
      "startOffset": 218,
      "word": "CAME"
    },
    {
      "alignedWord": "out",
      "case": "success",
      "end": 11.98,
      "endOffset": 226,
      "phones": [
        {
          "duration": 0.07,
          "phone": "aw_B"
        },
        {
          "duration": 0.07,
          "phone": "t_E"
        }
      ],
      "start": 11.84,
      "startOffset": 223,
      "word": "OUT"
    },
    {
      "alignedWord": "particularly",
      "case": "success",
      "end": 12.64,
      "endOffset": 239,
      "phones": [
        {
          "duration": 0.07,
          "phone": "p_B"
        },
        {
          "duration": 0.06,
          "phone": "er_I"
        },
        {
          "duration": 0.08,
          "phone": "t_I"
        },
        {
          "duration": 0.05,
          "phone": "ih_I"
        },
        {
          "duration": 0.07,
          "phone": "k_I"
        },
        {
          "duration": 0.01,
          "phone": "y_I"
        },
        {
          "duration": 0.04,
          "phone": "ah_I"
        },
        {
          "duration": 0.07,
          "phone": "l_I"
        },
        {
          "duration": 0.06,
          "phone": "er_I"
        },
        {
          "duration": 0.07,
          "phone": "l_I"
        },
        {
          "duration": 0.08,
          "phone": "iy_E"
        }
      ],
      "start": 11.98,
      "startOffset": 227,
      "word": "PARTICULARLY"
    },
    {
      "alignedWord": "strong",
      "case": "success",
      "end": 13.069999,
      "endOffset": 246,
      "phones": [
        {
          "duration": 0.06,
          "phone": "s_B"
        },
        {
          "duration": 0.07,
          "phone": "t_I"
        },
        {
          "duration": 0.08,
          "phone": "r_I"
        },
        {
          "duration": 0.15,
          "phone": "ao_I"
        },
        {
          "duration": 0.07,
          "phone": "ng_E"
        }
      ],
      "start": 12.639999,
      "startOffset": 240,
      "word": "STRONG"
    },
    {
      "alignedWord": "on",
      "case": "success",
      "end": 13.16,
      "endOffset": 249,
      "phones": [
        {
          "duration": 0.05,
          "phone": "aa_B"
        },
        {
          "duration": 0.04,
          "phone": "n_E"
        }
      ],
      "start": 13.07,
      "startOffset": 247,
      "word": "ON"
    },
    {
      "alignedWord": "the",
      "case": "success",
      "end": 13.25,
      "endOffset": 253,
      "phones": [
        {
          "duration": 0.05,
          "phone": "dh_B"
        },
        {
          "duration": 0.04,
          "phone": "ah_E"
        }
      ],
      "start": 13.16,
      "startOffset": 250,
      "word": "THE"
    },
    {
      "alignedWord": "chorus",
      "case": "success",
      "end": 13.65,
      "endOffset": 260,
      "phones": [
        {
          "duration": 0.08,
          "phone": "k_B"
        },
        {
          "duration": 0.12,
          "phone": "ao_I"
        },
        {
          "duration": 0.06,
          "phone": "r_I"
        },
        {
          "duration": 0.06,
          "phone": "ah_I"
        },
        {
          "duration": 0.08,
          "phone": "s_E"
        }
      ],
      "start": 13.25,
      "startOffset": 254,
      "word": "CHORUS"
    },
    {
      "alignedWord": "which",
      "case": "success",
      "end": 13.83,
      "endOffset": 266,
      "phones": [
        {
          "duration": 0.04,
          "phone": "w_B"
        },
        {
          "duration": 0.06,
          "phone": "ih_I"
        },
        {
          "duration": 0.08,
          "phone": "ch_E"
        }
      ],
      "start": 13.65,
      "startOffset": 261,
      "word": "WHICH"
    },
    {
      "alignedWord": "ran",
      "case": "success",
      "end": 14.28,
      "endOffset": 270,
      "phones": [
        {
          "duration": 0.12,
          "phone": "r_B"
        },
        {
          "duration": 0.17,
          "phone": "ae_I"
        },
        {
          "duration": 0.16,
          "phone": "n_E"
        }
      ],
      "start": 13.83,
      "startOffset": 267,
      "word": "RAN"
    }
  ]
}