{
  "transcript": "AND A PIPE IN HIS MOUTH CASTING A GLANCE AT THE EMPTY GUARDS OF OUR BOAT AND UTTERING A GRUNT AS HE ROSE FROM FASTENING OUR SPRING LINE ANSWERED WHY CAPTING WE MUST CHARGE YOU THREE AND A QUARTER THIS TIME THE D L REPLIED THE CAPTAIN",
  "words": [
    {
      "alignedWord": "and",
      "case": "success",
      "end": 0.41000000000000003,
      "endOffset": 3,
      "phones": [
        {
          "duration": 0.07,
          "phone": "ae_B"
        },
        {
          "duration": 0.05,
          "phone": "n_I"
        },
        {
          "duration": 0.04,
          "phone": "d_E"
        }
      ],
      "start": 0.25,
      "startOffset": 0,
      "word": "AND"
    },
    {
      "alignedWord": "a",
      "case": "success",
      "end": 0.45999999999999996,
      "endOffset": 5,
      "phones": [
        {
          "duration": 0.05,
          "phone": "ah_S"
        }
      ],
      "start": 0.41,
      "startOffset": 4,
      "word": "A"
    },
    {
      "alignedWord": "pipe",
      "case": "success",
      "end": 0.78,
      "endOffset": 10,
      "phones": [
        {
          "duration": 0.11,
          "phone": "p_B"
        },
        {
          "duration": 0.13,
          "phone": "ay_I"
        },
        {
          "duration": 0.08,
          "phone": "p_E"
        }
      ],
      "start": 0.46,
      "startOffset": 6,
      "word": "PIPE"
    },
    {
      "alignedWord": "in",
      "case": "success",
      "end": 0.8500000000000001,
      "endOffset": 13,
      "phones": [
        {
          "duration": 0.04,
          "phone": "ih_B"
        },
        {
          "duration": 0.03,
          "phone": "n_E"
        }
      ],
      "start": 0.78,
      "startOffset": 11,
      "word": "IN"
    },
    {
      "alignedWord": "his",
      "case": "success",
      "end": 1.02,
      "endOffset": 17,
      "phones": [
        {
          "duration": 0.04,
          "phone": "hh_B"
        },
        {
          "duration": 0.04,
          "phone": "ih_I"
        },
        {
          "duration": 0.09,
          "phone": "z_E"
        }
      ],
      "start": 0.85,
      "startOffset": 14,
      "word": "HIS"
    },
    {
      "alignedWord": "mouth",
      "case": "success",
      "end": 1.37,
      "endOffset": 23,
      "phones": [
        {
          "duration": 0.07,
          "phone": "m_B"
        },
        {
          "duration": 0.21,
          "phone": "aw_I"
        },
        {
          "duration": 0.07,
          "phone": "th_E"
        }
      ],
      "start": 1.02,
      "startOffset": 18,
      "word": "MOUTH"
    },
    {
      "alignedWord": "casting",
      "case": "success",
      "end": 2.16,
      "endOffset": 31,
      "phones": [
        {
          "duration": 0.11,
          "phone": "k_B"
        },
        {
          "duration": 0.09,
          "phone": "ae_I"
        },
        {
          "duration": 0.05,
          "phone": "s_I"
        },
        {
          "duration": 0.05,
          "phone": "t_I"
        },
        {
          "duration": 0.04,
          "phone": "ih_I"
        },
        {
          "duration": 0.07,
          "phone": "ng_E"
        }
      ],
      "start": 1.75,
      "startOffset": 24,
      "word": "CASTING"
    },
    {
      "alignedWord": "a",
      "case": "success",
      "end": 2.2,
      "endOffset": 33,
      "phones": [
        {
          "duration": 0.04,
          "phone": "ah_S"
        }
      ],
      "start": 2.16,
      "startOffset": 32,
      "word": "A"
    },
    {
      "alignedWord": "glance",
      "case": "success",
      "end": 2.5700000000000003,
      "endOffset": 40,
      "phones": [
        {
          "duration": 0.08,
          "phone": "g_B"
        },
        {
          "duration": 0.09,
          "phone": "l_I"
        },
        {
          "duration": 0.09,
          "phone": "ae_I"
        },
        {
          "duration": 0.08,
          "phone": "n_I"
        },
        {
          "duration": 0.03,
          "phone": "s_E"
        }
      ],
      "start": 2.2,
      "startOffset": 34,
      "word": "GLANCE"
    },
    {
      "alignedWord": "at",
      "case": "success",
      "end": 2.67,
      "endOffset": 43,
      "phones": [
        {
          "duration": 0.07,
          "phone": "ae_B"
        },
        {
          "duration": 0.03,
          "phone": "t_E"
        }
      ],
      "start": 2.57,
      "startOffset": 41,
      "word": "AT"
    },
    {
      "alignedWord": "the",
      "case": "success",
      "end": 2.79,
      "endOffset": 47,
      "phones": [
        {
          "duration": 0.05,
          "phone": "dh_B"
        },
        {
          "duration": 0.07,
          "phone": "iy_E"
        }
      ],
      "start": 2.67,
      "startOffset": 44,
      "word": "THE"
    },
    {
      "alignedWord": "empty",
      "case": "success",
      "end": 3.02,
      "endOffset": 53,
      "phones": [
        {
          "duration": 0.06,
          "phone": "eh_B"
        },
        {
          "duration": 0.05,
          "phone": "m_I"
        },
        {
          "duration": 0.03,
          "phone": "t_I"
        },
        {
          "duration": 0.09,
          "phone": "iy_E"
        }
      ],
      "start": 2.79,
      "startOffset": 48,
      "word": "EMPTY"
    },
    {
      "alignedWord": "guards",
      "case": "success",
      "end": 3.34,
      "endOffset": 60,
      "phones": [
        {
          "duration": 0.06,
          "phone": "g_B"
        },
        {
          "duration": 0.13,
          "phone": "aa_I"
        },
        {
          "duration": 0.06,
          "phone": "r_I"
        },
        {
          "duration": 0.06,
          "phone": "d_I"
        },
        {
          "duration": 0.01,
          "phone": "z_E"
        }
      ],
      "start": 3.02,
      "startOffset": 54,
      "word": "GUARDS"
    },
    {
      "alignedWord": "of",
      "case": "success",
      "end": 3.4899999999999998,
      "endOffset": 63,
      "phones": [
        {
          "duration": 0.06,
          "phone": "ah_B"
        },
        {
          "duration": 0.09,
          "phone": "v_E"
        }
      ],
      "start": 3.34,
      "startOffset": 61,
      "word": "OF"
    },
    {
      "alignedWord": "our",
      "case": "success",
      "end": 3.62,
      "endOffset": 67,
      "phones": [
        {
          "duration": 0.05,
          "phone": "aa_B"
        },
        {
          "duration": 0.08,
          "phone": "r_E"
        }
      ],
      "start": 3.49,
      "startOffset": 64,
      "word": "OUR"
    },
    {
      "alignedWord": "boat",
      "case": "success",
      "end": 3.96,
      "endOffset": 72,
      "phones": [
        {
          "duration": 0.09,
          "phone": "b_B"
        },
        {
          "duration": 0.16,
          "phone": "ow_I"
        },
        {
          "duration": 0.08,
          "phone": "t_E"
        }
      ],
      "start": 3.63,
      "startOffset": 68,
      "word": "BOAT"
    },
    {
      "alignedWord": "and",
      "case": "success",
      "end": 4.16,
      "endOffset": 76,
      "phones": [
        {
          "duration": 0.06,
          "phone": "ae_B"
        },
        {
          "duration": 0.06,
          "phone": "n_I"
        },
        {
          "duration": 0.04,
          "phone": "d_E"
        }
      ],
      "start": 4.0,
      "startOffset": 73,
      "word": "AND"
    },
    {
      "alignedWord": "uttering",
      "case": "success",
      "end": 4.58,
      "endOffset": 85,
      "phones": [
        {
          "duration": 0.1,
          "phone": "ah_B"
        },
        {
          "duration": 0.05,
          "phone": "t_I"
        },
        {
          "duration": 0.11,
          "phone": "er_I"
        },
        {
          "duration": 0.08,
          "phone": "ih_I"
        },
        {
          "duration": 0.04,
          "phone": "ng_E"
        }
      ],
      "start": 4.2,
      "startOffset": 77,
      "word": "UTTERING"
    },
    {
      "alignedWord": "a",
      "case": "success",
      "end": 4.64,
      "endOffset": 87,
      "phones": [
        {
          "duration": 0.06,
          "phone": "ah_S"
        }
      ],
      "start": 4.58,
      "startOffset": 86,
      "word": "A"
    },
    {
      "alignedWord": "grunt",
      "case": "success",
      "end": 4.97,
      "endOffset": 93,
      "phones": [
        {
          "duration": 0.07,
          "phone": "g_B"
        },
        {
          "duration": 0.12,
          "phone": "r_I"
        },
        {
          "duration": 0.09,
          "phone": "ah_I"
        },
        {
          "duration": 0.02,
          "phone": "n_I"
        },
        {
          "duration": 0.03,
          "phone": "t_E"
        }
      ],
      "start": 4.64,
      "startOffset": 88,
      "word": "GRUNT"
    },
    {
      "alignedWord": "as",
      "case": "success",
      "end": 5.14,
      "endOffset": 96,
      "phones": [
        {
          "duration": 0.08,
          "phone": "eh_B"
        },
        {
          "duration": 0.06,
          "phone": "z_E"
        }
      ],
      "start": 5.0,
      "startOffset": 94,
      "word": "AS"
    },
    {
      "alignedWord": "he",
      "case": "success",
      "end": 5.239999999999999,
      "endOffset": 99,
      "phones": [
        {
          "duration": 0.03,
          "phone": "hh_B"
        },
        {
          "duration": 0.07,
          "phone": "iy_E"
        }
      ],
      "start": 5.14,
      "startOffset": 97,
      "word": "HE"
    },
    {
      "alignedWord": "rose",
      "case": "success",
      "end": 5.5,
      "endOffset": 104,
      "phones": [
        {
          "duration": 0.1,
          "phone": "r_B"
        },
        {
          "duration": 0.08,
          "phone": "ow_I"
        },
        {
          "duration": 0.08,
          "phone": "z_E"
        }
      ],
      "start": 5.24,
      "startOffset": 100,
      "word": "ROSE"
    },
    {
      "alignedWord": "from",
      "case": "success",
      "end": 5.65,
      "endOffset": 109,
      "phones": [
        {
          "duration": 0.04,
          "phone": "f_B"
        },
        {
          "duration": 0.01,
          "phone": "er_I"
        },
        {
          "duration": 0.1,
          "phone": "m_E"
        }
      ],
      "start": 5.5,
      "startOffset": 105,
      "word": "FROM"
    },
    {
      "alignedWord": "<unk>",
      "case": "success",
      "end": 6.2,
      "endOffset": 119,
      "phones": [
        {
          "duration": 0.55,
          "phone": "oov_S"
        }
      ],
      "start": 5.65,
      "startOffset": 110,
      "word": "FASTENING"
    },
    {
      "alignedWord": "our",
      "case": "success",
      "end": 6.380000000000001,
      "endOffset": 123,
      "phones": [
        {
          "duration": 0.07,
          "phone": "aa_B"
        },
        {
          "duration": 0.08,
          "phone": "r_E"
        }
      ],
      "start": 6.23,
      "startOffset": 120,
      "word": "OUR"
    },
    {
      "alignedWord": "spring",
      "case": "success",
      "end": 6.78,
      "endOffset": 130,
      "phones": [
        {
          "duration": 0.08,
          "phone": "s_B"
        },
        {
          "duration": 0.08,
          "phone": "p_I"
        },
        {
          "duration": 0.03,
          "phone": "r_I"
        },
        {
          "duration": 0.11,
          "phone": "ih_I"
        },
        {
          "duration": 0.1,
          "phone": "ng_E"
        }
      ],
      "start": 6.38,
      "startOffset": 124,
      "word": "SPRING"
    },
    {
      "alignedWord": "line",
      "case": "success",
      "end": 7.03,
      "endOffset": 135,
      "phones": [
        {
          "duration": 0.06,
          "phone": "l_B"
        },
        {
          "duration": 0.14,
          "phone": "ay_I"
        },
        {
          "duration": 0.05,
          "phone": "n_E"
        }
      ],
      "start": 6.78,
      "startOffset": 131,
      "word": "LINE"
    },
    {
      "alignedWord": "answered",
      "case": "success",
      "end": 7.5200000000000005,
      "endOffset": 144,
      "phones": [
        {
          "duration": 0.13,
          "phone": "ae_B"
        },
        {
          "duration": 0.1,
          "phone": "n_I"
        },
        {
          "duration": 0.11,
          "phone": "s_I"
        },
        {
          "duration": 0.09,
          "phone": "er_I"
        },
        {
          "duration": 0.06,
          "phone": "d_E"
        }
      ],
      "start": 7.03,
      "startOffset": 136,
      "word": "ANSWERED"
    },
    {
      "alignedWord": "why",
      "case": "success",
      "end": 8.569999,
      "endOffset": 148,
      "phones": [
        {
          "duration": 0.15,
          "phone": "w_B"
        },
        {
          "duration": 0.11,
          "phone": "ay_E"
        }
      ],
      "start": 8.309999,
      "startOffset": 145,
      "word": "WHY"
    },
    {
      "alignedWord": "<unk>",
      "case": "success",
      "end": 9.269999,
      "endOffset": 156,
      "phones": [
        {
          "duration": 0.67,
          "phone": "oov_S"
        }
      ],
      "start": 8.599999,
      "startOffset": 149,
      "word": "CAPTING"
    },
    {
      "alignedWord": "we",
      "case": "success",
      "end": 9.79,
      "endOffset": 159,
      "phones": [
        {
          "duration": 0.09,
          "phone": "w_B"
        },
        {
          "duration": 0.08,
          "phone": "iy_E"
        }
      ],
      "start": 9.62,
      "startOffset": 157,
      "word": "WE"
    },
    {
      "alignedWord": "must",
      "case": "success",
      "end": 10.049999999999999,
      "endOffset": 164,
      "phones": [
        {
          "duration": 0.06,
          "phone": "m_B"
        },
        {
          "duration": 0.08,
          "phone": "ah_I"
        },
        {
          "duration": 0.08,
          "phone": "s_I"
        },
        {
          "duration": 0.04,
          "phone": "t_E"
        }
      ],
      "start": 9.79,
      "startOffset": 160,
      "word": "MUST"
    },
    {
      "alignedWord": "charge",
      "case": "success",
      "end": 10.4,
      "endOffset": 171,
      "phones": [
        {
          "duration": 0.11,
          "phone": "ch_B"
        },
        {
          "duration": 0.1,
          "phone": "aa_I"
        },
        {
          "duration": 0.07,
          "phone": "r_I"
        },
        {
          "duration": 0.07,
          "phone": "jh_E"
        }
      ],
      "start": 10.05,
      "startOffset": 165,
      "word": "CHARGE"
    },
    {
      "alignedWord": "you",
      "case": "success",
      "end": 10.5,
      "endOffset": 175,
      "phones": [
        {
          "duration": 0.04,
          "phone": "y_B"
        },
        {
          "duration": 0.06,
          "phone": "uw_E"
        }
      ],
      "start": 10.4,
      "startOffset": 172,
      "word": "YOU"
    },
    {
      "alignedWord": "three",
      "case": "success",
      "end": 10.75,
      "endOffset": 181,
      "phones": [
        {
          "duration": 0.09,
          "phone": "th_B"
        },
        {
          "duration": 0.1,
          "phone": "r_I"
        },
        {
          "duration": 0.06,
          "phone": "iy_E"
        }
      ],
      "start": 10.5,
      "startOffset": 176,
      "word": "THREE"
    },
    {
      "alignedWord": "and",
      "case": "success",
      "end": 10.84,
      "endOffset": 185,
      "phones": [
        {
          "duration": 0.02,
          "phone": "ae_B"
        },
        {
          "duration": 0.03,
          "phone": "n_I"
        },
        {
          "duration": 0.04,
          "phone": "d_E"
        }
      ],
      "start": 10.75,
      "startOffset": 182,
      "word": "AND"
    },
    {
      "alignedWord": "a",
      "case": "success",
      "end": 10.89,
      "endOffset": 187,
      "phones": [
        {
          "duration": 0.05,
          "phone": "ah_S"
        }
      ],
      "start": 10.84,
      "startOffset": 186,
      "word": "A"
    },
    {
      "alignedWord": "quarter",
      "case": "success",
      "end": 11.219999,
      "endOffset": 195,
      "phones": [
        {
          "duration": 0.08,
          "phone": "k_B"
        },
        {
          "duration": 0.12,
          "phone": "ao_I"
        },
        {
          "duration": 0.03,
          "phone": "r_I"
        },
        {
          "duration": 0.04,
          "phone": "t_I"
        },
        {
          "duration": 0.06,
          "phone": "er_E"
        }
      ],
      "start": 10.889999,
      "startOffset": 188,
      "word": "QUARTER"
    },
    {
      "alignedWord": "this",
      "case": "success",
      "end": 11.449999,
      "endOffset": 200,
      "phones": [
        {
          "duration": 0.05,
          "phone": "dh_B"
        },
        {
          "duration": 0.09,
          "phone": "ih_I"
        },
        {
          "duration": 0.09,
          "phone": "s_E"
        }
      ],
      "start": 11.219999,
      "startOffset": 196,
      "word": "THIS"
    },
    {
      "alignedWord": "time",
      "case": "success",
      "end": 11.909999,
      "endOffset": 205,
      "phones": [
        {
          "duration": 0.09,
          "phone": "t_B"
        },
        {
          "duration": 0.23,
          "phone": "ay_I"
        },
        {
          "duration": 0.12,
          "phone": "m_E"
        }
      ],
      "start": 11.469999,
      "startOffset": 201,
      "word": "TIME"
    },
    {
      "alignedWord": "the",
      "case": "success",
      "end": 12.530000000000001,
      "endOffset": 209,
      "phones": [
        {
          "duration": 0.08,
          "phone": "dh_B"
        },
        {
          "duration": 0.07,
          "phone": "ah_E"
        }
      ],
      "start": 12.38,
      "startOffset": 206,
      "word": "THE"
    },
    {
      "alignedWord": "d",
      "case": "success",
      "end": 12.62,
      "endOffset": 211,
      "phones": [
        {
          "duration": 0.08,
          "phone": "d_B"
        },
        {
          "duration": 0.01,
          "phone": "iy_E"
        }
      ],
      "start": 12.53,
      "startOffset": 210,
      "word": "D"
    },
    {
      "alignedWord": "l",
      "case": "success",
      "end": 12.87,
      "endOffset": 213,
      "phones": [
        {
          "duration": 0.07,
          "phone": "eh_B"
        },
        {
          "duration": 0.18,
          "phone": "l_E"
        }
      ],
      "start": 12.62,
      "startOffset": 212,
      "word": "L"
    },
    {
      "alignedWord": "replied",
      "case": "success",
      "end": 13.379999999999999,
      "endOffset": 221,
      "phones": [
        {
          "duration": 0.06,
          "phone": "r_B"
        },
        {
          "duration": 0.09,
          "phone": "iy_I"
        },
        {
          "duration": 0.1,
          "phone": "p_I"
        },
        {
          "duration": 0.08,
          "phone": "l_I"
        },
        {
          "duration": 0.11,
          "phone": "ay_I"
        },
        {
          "duration": 0.07,
          "phone": "d_E"
        }
      ],
      "start": 12.87,
      "startOffset": 214,
      "word": "REPLIED"
    },
    {
      "alignedWord": "the",
      "case": "success",
      "end": 13.450000000000001,
      "endOffset": 225,
      "phones": [
        {
          "duration": 0.01,
          "phone": "dh_B"
        },
        {
          "duration": 0.06,
          "phone": "ah_E"
        }
      ],
      "start": 13.38,
      "startOffset": 222,
      "word": "THE"
    },
    {
      "alignedWord": "captain",
      "case": "success",
      "end": 13.959999999999999,
      "endOffset": 233,
      "phones": [
        {
          "duration": 0.1,
          "phone": "k_B"
        },
        {
          "duration": 0.11,
          "phone": "ae_I"
        },
        {
          "duration": 0.07,
          "phone": "p_I"
        },
        {
          "duration": 0.04,
          "phone": "t_I"
        },
        {
          "duration": 0.07,
          "phone": "ah_I"
        },
        {
          "duration": 0.12,
          "phone": "n_E"
        }
      ],
      "start": 13.45,
      "startOffset": 226,
      "word": "CAPTAIN"
    }
  ]
}