{
  "transcript": "SHE WAS REGULARLY ADVERTISED AS THE FAST RUNNING ET CETERA HER REGULAR TRIPS FROM NEW ORLEANS TO NATCHEZ WERE USUALLY MADE IN FROM SIX TO EIGHT DAYS A TRIP MADE BY HER IN FIVE DAYS WAS CONSIDERED REMARKABLE",
  "words": [
    {
      "alignedWord": "she",
      "case": "success",
      "end": 0.47,
      "endOffset": 3,
      "phones": [
        {
          "duration": 0.11,
          "phone": "sh_B"
        },
        {
          "duration": 0.05,
          "phone": "iy_E"
        }
      ],
      "start": 0.31,
      "startOffset": 0,
      "word": "SHE"
    },
    {
      "alignedWord": "was",
      "case": "success",
      "end": 0.64,
      "endOffset": 7,
      "phones": [
        {
          "duration": 0.04,
          "phone": "w_B"
        },
        {
          "duration": 0.05,
          "phone": "ah_I"
        },
        {
          "duration": 0.08,
          "phone": "z_E"
        }
      ],
      "start": 0.47,
      "startOffset": 4,
      "word": "WAS"
    },
    {
      "alignedWord": "regularly",
      "case": "success",
      "end": 1.21,
      "endOffset": 17,
      "phones": [
        {
          "duration": 0.06,
          "phone": "r_B"
        },
        {
          "duration": 0.05,
          "phone": "eh_I"
        },
        {
          "duration": 0.04,
          "phone": "g_I"
        },
        {
          "duration": 0.01,
          "phone": "y_I"
        },
        {
          "duration": 0.05,
          "phone": "ah_I"
        },
        {
          "duration": 0.08,
          "phone": "l_I"
        },
        {
          "duration": 0.1,
          "phone": "er_I"
        },
        {
          "duration": 0.09,
          "phone": "l_I"
        },
        {
          "duration": 0.09,
          "phone": "iy_E"
        }
      ],
      "start": 0.64,
      "startOffset": 8,
      "word": "REGULARLY"
    },
    {
      "alignedWord": "advertised",
      "case": "success",
      "end": 2.0,
      "endOffset": 28,
      "phones": [
        {
          "duration": 0.14,
          "phone": "ae_B"
        },
        {
          "duration": 0.07,
          "phone": "d_I"
        },
        {
          "duration": 0.04,
          "phone": "v_I"
        },
        {
          "duration": 0.08,
          "phone": "er_I"
        },
        {
          "duration": 0.09,
          "phone": "t_I"
        },
        {
          "duration": 0.22,
          "phone": "ay_I"
        },
        {
          "duration": 0.08,
          "phone": "z_I"
        },
        {
          "duration": 0.05,
          "phone": "d_E"
        }
      ],
      "start": 1.23,
      "startOffset": 18,
      "word": "ADVERTISED"
    },
    {
      "alignedWord": "as",
      "case": "success",
      "end": 2.27,
      "endOffset": 31,
      "phones": [
        {
          "duration": 0.16,
          "phone": "ae_B"
        },
        {
          "duration": 0.09,
          "phone": "z_E"
        }
      ],
      "start": 2.02,
      "startOffset": 29,
      "word": "AS"
    },
    {
      "alignedWord": "the",
      "case": "success",
      "end": 2.56,
      "endOffset": 35,
      "phones": [
        {
          "duration": 0.07,
          "phone": "dh_B"
        },
        {
          "duration": 0.22,
          "phone": "ah_E"
        }
      ],
      "start": 2.27,
      "startOffset": 32,
      "word": "THE"
    },
    {
      "alignedWord": "fast",
      "case": "success",
      "end": 3.0500000000000003,
      "endOffset": 40,
      "phones": [
        {
          "duration": 0.14,
          "phone": "f_B"
        },
        {
          "duration": 0.12,
          "phone": "ae_I"
        },
        {
          "duration": 0.08,
          "phone": "s_I"
        },
        {
          "duration": 0.09,
          "phone": "t_E"
        }
      ],
      "start": 2.62,
      "startOffset": 36,
      "word": "FAST"
    },
    {
      "alignedWord": "running",
      "case": "success",
      "end": 3.46,
      "endOffset": 48,
      "phones": [
        {
          "duration": 0.07,
          "phone": "r_B"
        },
        {
          "duration": 0.08,
          "phone": "ah_I"
        },
        {
          "duration": 0.04,
          "phone": "n_I"
        },
        {
          "duration": 0.09,
          "phone": "ih_I"
        },
        {
          "duration": 0.13,
          "phone": "ng_E"
        }
      ],
      "start": 3.05,
      "startOffset": 41,
      "word": "RUNNING"
    },
    {
      "alignedWord": "et",
      "case": "success",
      "end": 3.75,
      "endOffset": 51,
      "phones": [
        {
          "duration": 0.05,
          "phone": "eh_B"
        },
        {
          "duration": 0.07,
          "phone": "t_E"
        }
      ],
      "start": 3.63,
      "startOffset": 49,
      "word": "ET"
    },
    {
      "alignedWord": "cetera",
      "case": "success",
      "end": 4.22,
      "endOffset": 58,
      "phones": [
        {
          "duration": 0.11,
          "phone": "s_B"
        },
        {
          "duration": 0.09,
          "phone": "eh_I"
        },
        {
          "duration": 0.05,
          "phone": "t_I"
        },
        {
          "duration": 0.07,
          "phone": "er_I"
        },
        {
          "duration": 0.15,
          "phone": "ah_E"
        }
      ],
      "start": 3.75,
      "startOffset": 52,
      "word": "CETERA"
    },
    {
      "alignedWord": "her",
      "case": "success",
      "end": 5.260000000000001,
      "endOffset": 62,
      "phones": [
        {
          "duration": 0.08,
          "phone": "hh_B"
        },
        {
          "duration": 0.07,
          "phone": "er_E"
        }
      ],
      "start": 5.11,
      "startOffset": 59,
      "word": "HER"
    },
    {
      "alignedWord": "regular",
      "case": "success",
      "end": 5.609999999999999,
      "endOffset": 70,
      "phones": [
        {
          "duration": 0.08,
          "phone": "r_B"
        },
        {
          "duration": 0.06,
          "phone": "eh_I"
        },
        {
          "duration": 0.04,
          "phone": "g_I"
        },
        {
          "duration": 0.01,
          "phone": "y_I"
        },
        {
          "duration": 0.03,
          "phone": "ah_I"
        },
        {
          "duration": 0.08,
          "phone": "l_I"
        },
        {
          "duration": 0.05,
          "phone": "er_E"
        }
      ],
      "start": 5.26,
      "startOffset": 63,
      "word": "REGULAR"
    },
    {
      "alignedWord": "trips",
      "case": "success",
      "end": 5.99,
      "endOffset": 76,
      "phones": [
        {
          "duration": 0.09,
          "phone": "t_B"
        },
        {
          "duration": 0.09,
          "phone": "r_I"
        },
        {
          "duration": 0.06,
          "phone": "ih_I"
        },
        {
          "duration": 0.07,
          "phone": "p_I"
        },
        {
          "duration": 0.07,
          "phone": "s_E"
        }
      ],
      "start": 5.61,
      "startOffset": 71,
      "word": "TRIPS"
    },
    {
      "alignedWord": "from",
      "case": "success",
      "end": 6.140000000000001,
      "endOffset": 81,
      "phones": [
        {
          "duration": 0.05,
          "phone": "f_B"
        },
        {
          "duration": 0.05,
          "phone": "er_I"
        },
        {
          "duration": 0.05,
          "phone": "m_E"
        }
      ],
      "start": 5.99,
      "startOffset": 77,
      "word": "FROM"
    },
    {
      "alignedWord": "new",
      "case": "success",
      "end": 6.32,
      "endOffset": 85,
      "phones": [
        {
          "duration": 0.07,
          "phone": "n_B"
        },
        {
          "duration": 0.1,
          "phone": "uw_E"
        }
      ],
      "start": 6.15,
      "startOffset": 82,
      "word": "NEW"
    },
    {
      "alignedWord": "orleans",
      "case": "success",
      "end": 6.74,
      "endOffset": 93,
      "phones": [
        {
          "duration": 0.05,
          "phone": "ao_B"
        },
        {
          "duration": 0.07,
          "phone": "r_I"
        },
        {
          "duration": 0.06,
          "phone": "l_I"
        },
        {
          "duration": 0.1,
          "phone": "iy_I"
        },
        {
          "duration": 0.06,
          "phone": "n_I"
        },
        {
          "duration": 0.08,
          "phone": "z_E"
        }
      ],
      "start": 6.32,
      "startOffset": 86,
      "word": "ORLEANS"
    },
    {
      "alignedWord": "to",
      "case": "success",
      "end": 6.8100000000000005,
      "endOffset": 96,
      "phones": [
        {
          "duration": 0.06,
          "phone": "t_B"
        },
        {
          "duration": 0.01,
          "phone": "ih_E"
        }
      ],
      "start": 6.74,
      "startOffset": 94,
      "word": "TO"
    },
    {
      "alignedWord": "<unk>",
      "case": "success",
      "end": 7.529999999999999,
      "endOffset": 104,
      "phones": [
        {
          "duration": 0.72,
          "phone": "oov_S"
        }
      ],
      "start": 6.81,
      "startOffset": 97,
      "word": "NATCHEZ"
    },
    {
      "alignedWord": "were",
      "case": "success",
      "end": 8.01,
      "endOffset": 109,
      "phones": [
        {
          "duration": 0.08,
          "phone": "w_B"
        },
        {
          "duration": 0.05,
          "phone": "er_E"
        }
      ],
      "start": 7.88,
      "startOffset": 105,
      "word": "WERE"
    },
    {
      "alignedWord": "usually",
      "case": "success",
      "end": 8.36,
      "endOffset": 117,
      "phones": [
        {
          "duration": 0.09,
          "phone": "y_B"
        },
        {
          "duration": 0.06,
          "phone": "uw_I"
        },
        {
          "duration": 0.03,
          "phone": "zh_I"
        },
        {
          "duration": 0.06,
          "phone": "ah_I"
        },
        {
          "duration": 0.05,
          "phone": "l_I"
        },
        {
          "duration": 0.06,
          "phone": "iy_E"
        }
      ],
      "start": 8.01,
      "startOffset": 110,
      "word": "USUALLY"
    },
    {
      "alignedWord": "made",
      "case": "success",
      "end": 8.66,
      "endOffset": 122,
      "phones": [
        {
          "duration": 0.08,
          "phone": "m_B"
        },
        {
          "duration": 0.15,
          "phone": "ey_I"
        },
        {
          "duration": 0.07,
          "phone": "d_E"
        }
      ],
      "start": 8.36,
      "startOffset": 118,
      "word": "MADE"
    },
    {
      "alignedWord": "in",
      "case": "success",
      "end": 8.72,
      "endOffset": 125,
      "phones": [
        {
          "duration": 0.01,
          "phone": "ih_B"
        },
        {
          "duration": 0.04,
          "phone": "n_E"
        }
      ],
      "start": 8.67,
      "startOffset": 123,
      "word": "IN"
    },
    {
      "alignedWord": "from",
      "case": "success",
      "end": 8.930000000000001,
      "endOffset": 130,
      "phones": [
        {
          "duration": 0.06,
          "phone": "f_B"
        },
        {
          "duration": 0.06,
          "phone": "er_I"
        },
        {
          "duration": 0.09,
          "phone": "m_E"
        }
      ],
      "start": 8.72,
      "startOffset": 126,
      "word": "FROM"
    },
    {
      "alignedWord": "six",
      "case": "success",
      "end": 9.239999000000001,
      "endOffset": 134,
      "phones": [
        {
          "duration": 0.09,
          "phone": "s_B"
        },
        {
          "duration": 0.1,
          "phone": "ih_I"
        },
        {
          "duration": 0.06,
          "phone": "k_I"
        },
        {
          "duration": 0.06,
          "phone": "s_E"
        }
      ],
      "start": 8.929999,
      "startOffset": 131,
      "word": "SIX"
    },
    {
      "alignedWord": "to",
      "case": "success",
      "end": 9.35,
      "endOffset": 137,
      "phones": [
        {
          "duration": 0.04,
          "phone": "t_B"
        },
        {
          "duration": 0.07,
          "phone": "ih_E"
        }
      ],
      "start": 9.24,
      "startOffset": 135,
      "word": "TO"
    },
    {
      "alignedWord": "eight",
      "case": "success",
      "end": 9.609999,
      "endOffset": 143,
      "phones": [
        {
          "duration": 0.18,
          "phone": "ey_B"
        },
        {
          "duration": 0.08,
          "phone": "t_E"
        }
      ],
      "start": 9.349999,
      "startOffset": 138,
      "word": "EIGHT"
    },
    {
      "alignedWord": "days",
      "case": "success",
      "end": 10.229999999999999,
      "endOffset": 148,
      "phones": [
        {
          "duration": 0.1,
          "phone": "d_B"
        },
        {
          "duration": 0.3,
          "phone": "ey_I"
        },
        {
          "duration": 0.22,
          "phone": "z_E"
        }
      ],
      "start": 9.61,
      "startOffset": 144,
      "word": "DAYS"
    },
    {
      "alignedWord": "a",
      "case": "success",
      "end": 10.66,
      "endOffset": 150,
      "phones": [
        {
          "duration": 0.09,
          "phone": "ah_S"
        }
      ],
      "start": 10.57,
      "startOffset": 149,
      "word": "A"
    },
    {
      "alignedWord": "trip",
      "case": "success",
      "end": 10.92,
      "endOffset": 155,
      "phones": [
        {
          "duration": 0.08,
          "phone": "t_B"
        },
        {
          "duration": 0.08,
          "phone": "r_I"
        },
        {
          "duration": 0.03,
          "phone": "ih_I"
        },
        {
          "duration": 0.07,
          "phone": "p_E"
        }
      ],
      "start": 10.66,
      "startOffset": 151,
      "word": "TRIP"
    },
    {
      "alignedWord": "made",
      "case": "success",
      "end": 11.15,
      "endOffset": 160,
      "phones": [
        {
          "duration": 0.08,
          "phone": "m_B"
        },
        {
          "duration": 0.09,
          "phone": "ey_I"
        },
        {
          "duration": 0.06,
          "phone": "d_E"
        }
      ],
      "start": 10.92,
      "startOffset": 156,
      "word": "MADE"
    },
    {
      "alignedWord": "by",
      "case": "success",
      "end": 11.280000000000001,
      "endOffset": 163,
      "phones": [
        {
          "duration": 0.06,
          "phone": "b_B"
        },
        {
          "duration": 0.07,
          "phone": "ay_E"
        }
      ],
      "start": 11.15,
      "startOffset": 161,
      "word": "BY"
    },
    {
      "alignedWord": "her",
      "case": "success",
      "end": 11.469999999999999,
      "endOffset": 167,
      "phones": [
        {
          "duration": 0.09,
          "phone": "hh_B"
        },
        {
          "duration": 0.1,
          "phone": "er_E"
        }
      ],
      "start": 11.28,
      "startOffset": 164,
      "word": "HER"
    },
    {
      "alignedWord": "in",
      "case": "success",
      "end": 11.609999,
      "endOffset": 170,
      "phones": [
        {
          "duration": 0.07,
          "phone": "ih_B"
        },
        {
          "duration": 0.07,
          "phone": "n_E"
        }
      ],
      "start": 11.469999,
      "startOffset": 168,
      "word": "IN"
    },
    {
      "alignedWord": "five",
      "case": "success",
      "end": 11.93,
      "endOffset": 175,
      "phones": [
        {
          "duration": 0.1,
          "phone": "f_B"
        },
        {
          "duration": 0.16,
          "phone": "ay_I"
        },
        {
          "duration": 0.06,
          "phone": "v_E"
        }
      ],
      "start": 11.61,
      "startOffset": 171,
      "word": "FIVE"
    },
    {
      "alignedWord": "days",
      "case": "success",
      "end": 12.339999,
      "endOffset": 180,
      "phones": [
        {
          "duration": 0.08,
          "phone": "d_B"
        },
        {
          "duration": 0.2,
          "phone": "ey_I"
        },
        {
          "duration": 0.13,
          "phone": "z_E"
        }
      ],
      "start": 11.929999,
      "startOffset": 176,
      "word": "DAYS"
    },
    {
      "alignedWord": "was",
      "case": "success",
      "end": 12.649999000000001,
      "endOffset": 184,
      "phones": [
        {
          "duration": 0.09,
          "phone": "w_B"
        },
        {
          "duration": 0.06,
          "phone": "ah_I"
        },
        {
          "duration": 0.07,
          "phone": "z_E"
        }
      ],
      "start": 12.429999,
      "startOffset": 181,
      "word": "WAS"
    },
    {
      "alignedWord": "considered",
      "case": "success",
      "end": 13.110000000000001,
      "endOffset": 195,
      "phones": [
        {
          "duration": 0.04,
          "phone": "k_B"
        },
        {
          "duration": 0.05,
          "phone": "ah_I"
        },
        {
          "duration": 0.06,
          "phone": "n_I"
        },
        {
          "duration": 0.09,
          "phone": "s_I"
        },
        {
          "duration": 0.06,
          "phone": "ih_I"
        },
        {
          "duration": 0.03,
          "phone": "d_I"
        },
        {
          "duration": 0.07,
          "phone": "er_I"
        },
        {
          "duration": 0.06,
          "phone": "d_E"
        }
      ],
      "start": 12.65,
      "startOffset": 185,
      "word": "CONSIDERED"
    },
    {
      "alignedWord": "remarkable",
      "case": "success",
      "end": 13.77,
      "endOffset": 206,
      "phones": [
        {
          "duration": 0.07,
          "phone": "r_B"
        },
        {
          "duration": 0.07,
          "phone": "iy_I"
        },
        {
          "duration": 0.05,
          "phone": "m_I"
        },
        {
          "duration": 0.09,
          "phone": "aa_I"
        },
        {
          "duration": 0.08,
          "phone": "r_I"
        },
        {
          "duration": 0.05,
          "phone": "k_I"
        },
        {
          "duration": 0.06,
          "phone": "ah_I"
        },
        {
          "duration": 0.03,
          "phone": "b_I"
        },
        {
          "duration": 0.05,
          "phone": "ah_I"
        },
        {
          "duration": 0.11,
          "phone": "l_E"
        }
      ],
      "start": 13.11,
      "startOffset": 196,
      "word": "REMARKABLE"
    }
  ]
}