{
  "transcript": "WHICH HE SAID WAS SITUATED RIGHT ROUND YONDER POINT BUT MUTTERED THE CAPTAIN I DON'T MUCH LIKE TO TAKE WOOD OF THE YELLOW FACED OLD SCOUNDREL WHO OWNS IT HE ALWAYS CHARGES A QUARTER OF A DOLLAR MORE THAN ANY ONE ELSE HOWEVER THERE'S NO OTHER CHANCE",
  "words": [
    {
      "alignedWord": "which",
      "case": "success",
      "end": 0.48,
      "endOffset": 5,
      "phones": [
        {
          "duration": 0.03,
          "phone": "hh_B"
        },
        {
          "duration": 0.06,
          "phone": "w_I"
        },
        {
          "duration": 0.05,
          "phone": "ih_I"
        },
        {
          "duration": 0.08,
          "phone": "ch_E"
        }
      ],
      "start": 0.26,
      "startOffset": 0,
      "word": "WHICH"
    },
    {
      "alignedWord": "he",
      "case": "success",
      "end": 0.63,
      "endOffset": 8,
      "phones": [
        {
          "duration": 0.05,
          "phone": "hh_B"
        },
        {
          "duration": 0.1,
          "phone": "iy_E"
        }
      ],
      "start": 0.48,
      "startOffset": 6,
      "word": "HE"
    },
    {
      "alignedWord": "said",
      "case": "success",
      "end": 0.85,
      "endOffset": 13,
      "phones": [
        {
          "duration": 0.08,
          "phone": "s_B"
        },
        {
          "duration": 0.08,
          "phone": "eh_I"
        },
        {
          "duration": 0.06,
          "phone": "d_E"
        }
      ],
      "start": 0.63,
      "startOffset": 9,
      "word": "SAID"
    },
    {
      "alignedWord": "was",
      "case": "success",
      "end": 0.99,
      "endOffset": 17,
      "phones": [
        {
          "duration": 0.04,
          "phone": "w_B"
        },
        {
          "duration": 0.04,
          "phone": "ah_I"
        },
        {
          "duration": 0.06,
          "phone": "z_E"
        }
      ],
      "start": 0.85,
      "startOffset": 14,
      "word": "WAS"
    },
    {
      "alignedWord": "situated",
      "case": "success",
      "end": 1.71,
      "endOffset": 26,
      "phones": [
        {
          "duration": 0.1,
          "phone": "s_B"
        },
        {
          "duration": 0.06,
          "phone": "ih_I"
        },
        {
          "duration": 0.11,
          "phone": "ch_I"
        },
        {
          "duration": 0.12,
          "phone": "uw_I"
        },
        {
          "duration": 0.09,
          "phone": "ey_I"
        },
        {
          "duration": 0.06,
          "phone": "t_I"
        },
        {
          "duration": 0.07,
          "phone": "ih_I"
        },
        {
          "duration": 0.11,
          "phone": "d_E"
        }
      ],
      "start": 0.99,
      "startOffset": 18,
      "word": "SITUATED"
    },
    {
      "alignedWord": "right",
      "case": "success",
      "end": 2.43,
      "endOffset": 32,
      "phones": [
        {
          "duration": 0.14,
          "phone": "r_B"
        },
        {
          "duration": 0.1,
          "phone": "ay_I"
        },
        {
          "duration": 0.09,
          "phone": "t_E"
        }
      ],
      "start": 2.1,
      "startOffset": 27,
      "word": "RIGHT"
    },
    {
      "alignedWord": "round",
      "case": "success",
      "end": 2.74,
      "endOffset": 38,
      "phones": [
        {
          "duration": 0.09,
          "phone": "r_B"
        },
        {
          "duration": 0.14,
          "phone": "aw_I"
        },
        {
          "duration": 0.05,
          "phone": "n_I"
        },
        {
          "duration": 0.03,
          "phone": "d_E"
        }
      ],
      "start": 2.43,
      "startOffset": 33,
      "word": "ROUND"
    },
    {
      "alignedWord": "yonder",
      "case": "success",
      "end": 3.1100000000000003,
      "endOffset": 45,
      "phones": [
        {
          "duration": 0.09,
          "phone": "y_B"
        },
        {
          "duration": 0.08,
          "phone": "aa_I"
        },
        {
          "duration": 0.06,
          "phone": "n_I"
        },
        {
          "duration": 0.07,
          "phone": "d_I"
        },
        {
          "duration": 0.07,
          "phone": "er_E"
        }
      ],
      "start": 2.74,
      "startOffset": 39,
      "word": "YONDER"
    },
    {
      "alignedWord": "point",
      "case": "success",
      "end": 3.67,
      "endOffset": 51,
      "phones": [
        {
          "duration": 0.12,
          "phone": "p_B"
        },
        {
          "duration": 0.19,
          "phone": "oy_I"
        },
        {
          "duration": 0.09,
          "phone": "n_I"
        },
        {
          "duration": 0.16,
          "phone": "t_E"
        }
      ],
      "start": 3.11,
      "startOffset": 46,
      "word": "POINT"
    },
    {
      "alignedWord": "but",
      "case": "success",
      "end": 4.57,
      "endOffset": 55,
      "phones": [
        {
          "duration": 0.12,
          "phone": "b_B"
        },
        {
          "duration": 0.08,
          "phone": "ah_I"
        },
        {
          "duration": 0.12,
          "phone": "t_E"
        }
      ],
      "start": 4.25,
      "startOffset": 52,
      "word": "BUT"
    },
    {
      "alignedWord": "<unk>",
      "case": "success",
      "end": 4.92,
      "endOffset": 64,
      "phones": [
        {
          "duration": 0.29,
          "phone": "oov_S"
        }
      ],
      "start": 4.63,
      "startOffset": 56,
      "word": "MUTTERED"
    },
    {
      "alignedWord": "the",
      "case": "success",
      "end": 5.05,
      "endOffset": 68,
      "phones": [
        {
          "duration": 0.06,
          "phone": "dh_B"
        },
        {
          "duration": 0.06,
          "phone": "ah_E"
        }
      ],
      "start": 4.93,
      "startOffset": 65,
      "word": "THE"
    },
    {
      "alignedWord": "captain",
      "case": "success",
      "end": 5.58,
      "endOffset": 76,
      "phones": [
        {
          "duration": 0.11,
          "phone": "k_B"
        },
        {
          "duration": 0.1,
          "phone": "ae_I"
        },
        {
          "duration": 0.07,
          "phone": "p_I"
        },
        {
          "duration": 0.05,
          "phone": "t_I"
        },
        {
          "duration": 0.05,
          "phone": "ah_I"
        },
        {
          "duration": 0.15,
          "phone": "n_E"
        }
      ],
      "start": 5.05,
      "startOffset": 69,
      "word": "CAPTAIN"
    },
    {
      "alignedWord": "i",
      "case": "success",
      "end": 6.08,
      "endOffset": 78,
      "phones": [
        {
          "duration": 0.11,
          "phone": "ay_S"
        }
      ],
      "start": 5.97,
      "startOffset": 77,
      "word": "I"
    },
    {
      "alignedWord": "don't",
      "case": "success",
      "end": 6.22,
      "endOffset": 84,
      "phones": [
        {
          "duration": 0.04,
          "phone": "d_B"
        },
        {
          "duration": 0.07,
          "phone": "ow_I"
        },
        {
          "duration": 0.02,
          "phone": "n_I"
        },
        {
          "duration": 0.01,
          "phone": "t_E"
        }
      ],
      "start": 6.08,
      "startOffset": 79,
      "word": "DON'T"
    },
    {
      "alignedWord": "much",
      "case": "success",
      "end": 6.49,
      "endOffset": 89,
      "phones": [
        {
          "duration": 0.08,
          "phone": "m_B"
        },
        {
          "duration": 0.07,
          "phone": "ah_I"
        },
        {
          "duration": 0.11,
          "phone": "ch_E"
        }
      ],
      "start": 6.23,
      "startOffset": 85,
      "word": "MUCH"
    },
    {
      "alignedWord": "like",
      "case": "success",
      "end": 6.66,
      "endOffset": 94,
      "phones": [
        {
          "duration": 0.06,
          "phone": "l_B"
        },
        {
          "duration": 0.06,
          "phone": "ay_I"
        },
        {
          "duration": 0.05,
          "phone": "k_E"
        }
      ],
      "start": 6.49,
      "startOffset": 90,
      "word": "LIKE"
    },
    {
      "alignedWord": "to",
      "case": "success",
      "end": 6.7700000000000005,
      "endOffset": 97,
      "phones": [
        {
          "duration": 0.04,
          "phone": "t_B"
        },
        {
          "duration": 0.07,
          "phone": "ih_E"
        }
      ],
      "start": 6.66,
      "startOffset": 95,
      "word": "TO"
    },
    {
      "alignedWord": "take",
      "case": "success",
      "end": 6.98,
      "endOffset": 102,
      "phones": [
        {
          "duration": 0.07,
          "phone": "t_B"
        },
        {
          "duration": 0.07,
          "phone": "ey_I"
        },
        {
          "duration": 0.06,
          "phone": "k_E"
        }
      ],
      "start": 6.78,
      "startOffset": 98,
      "word": "TAKE"
    },
    {
      "alignedWord": "wood",
      "case": "success",
      "end": 7.25,
      "endOffset": 107,
      "phones": [
        {
          "duration": 0.14,
          "phone": "w_B"
        },
        {
          "duration": 0.07,
          "phone": "uh_I"
        },
        {
          "duration": 0.05,
          "phone": "d_E"
        }
      ],
      "start": 6.99,
      "startOffset": 103,
      "word": "WOOD"
    },
    {
      "alignedWord": "of",
      "case": "success",
      "end": 7.35,
      "endOffset": 110,
      "phones": [
        {
          "duration": 0.04,
          "phone": "ah_B"
        },
        {
          "duration": 0.06,
          "phone": "v_E"
        }
      ],
      "start": 7.25,
      "startOffset": 108,
      "word": "OF"
    },
    {
      "alignedWord": "the",
      "case": "success",
      "end": 7.42,
      "endOffset": 114,
      "phones": [
        {
          "duration": 0.05,
          "phone": "dh_B"
        },
        {
          "duration": 0.02,
          "phone": "iy_E"
        }
      ],
      "start": 7.35,
      "startOffset": 111,
      "word": "THE"
    },
    {
      "alignedWord": "yellow",
      "case": "success",
      "end": 7.6899999999999995,
      "endOffset": 121,
      "phones": [
        {
          "duration": 0.06,
          "phone": "y_B"
        },
        {
          "duration": 0.07,
          "phone": "eh_I"
        },
        {
          "duration": 0.08,
          "phone": "l_I"
        },
        {
          "duration": 0.06,
          "phone": "ow_E"
        }
      ],
      "start": 7.42,
      "startOffset": 115,
      "word": "YELLOW"
    },
    {
      "alignedWord": "faced",
      "case": "success",
      "end": 8.06,
      "endOffset": 127,
      "phones": [
        {
          "duration": 0.13,
          "phone": "f_B"
        },
        {
          "duration": 0.1,
          "phone": "ey_I"
        },
        {
          "duration": 0.07,
          "phone": "s_I"
        },
        {
          "duration": 0.07,
          "phone": "t_E"
        }
      ],
      "start": 7.69,
      "startOffset": 122,
      "word": "FACED"
    },
    {
      "alignedWord": "old",
      "case": "success",
      "end": 8.249998999999999,
      "endOffset": 131,
      "phones": [
        {
          "duration": 0.06,
          "phone": "ow_B"
        },
        {
          "duration": 0.06,
          "phone": "l_I"
        },
        {
          "duration": 0.07,
          "phone": "d_E"
        }
      ],
      "start": 8.059999,
      "startOffset": 128,
      "word": "OLD"
    },
    {
      "alignedWord": "scoundrel",
      "case": "success",
      "end": 8.7,
      "endOffset": 141,
      "phones": [
        {
          "duration": 0.07,
          "phone": "s_B"
        },
        {
          "duration": 0.09,
          "phone": "k_I"
        },
        {
          "duration": 0.11,
          "phone": "aw_I"
        },
        {
          "duration": 0.05,
          "phone": "n_I"
        },
        {
          "duration": 0.06,
          "phone": "d_I"
        },
        {
          "duration": 0.03,
          "phone": "r_I"
        },
        {
          "duration": 0.03,
          "phone": "ah_I"
        },
        {
          "duration": 0.01,
          "phone": "l_E"
        }
      ],
      "start": 8.25,
      "startOffset": 132,
      "word": "SCOUNDREL"
    },
    {
      "alignedWord": "who",
      "case": "success",
      "end": 8.879999999999999,
      "endOffset": 145,
      "phones": [
        {
          "duration": 0.07,
          "phone": "hh_B"
        },
        {
          "duration": 0.11,
          "phone": "uw_E"
        }
      ],
      "start": 8.7,
      "startOffset": 142,
      "word": "WHO"
    },
    {
      "alignedWord": "owns",
      "case": "success",
      "end": 9.180000000000001,
      "endOffset": 150,
      "phones": [
        {
          "duration": 0.15,
          "phone": "ow_B"
        },
        {
          "duration": 0.08,
          "phone": "n_I"
        },
        {
          "duration": 0.07,
          "phone": "z_E"
        }
      ],
      "start": 8.88,
      "startOffset": 146,
      "word": "OWNS"
    },
    {
      "alignedWord": "it",
      "case": "success",
      "end": 9.349999,
      "endOffset": 153,
      "phones": [
        {
          "duration": 0.07,
          "phone": "ih_B"
        },
        {
          "duration": 0.1,
          "phone": "t_E"
        }
      ],
      "start": 9.179999,
      "startOffset": 151,
      "word": "IT"
    },
    {
      "alignedWord": "he",
      "case": "success",
      "end": 10.07,
      "endOffset": 156,
      "phones": [
        {
          "duration": 0.11,
          "phone": "hh_B"
        },
        {
          "duration": 0.1,
          "phone": "iy_E"
        }
      ],
      "start": 9.86,
      "startOffset": 154,
      "word": "HE"
    },
    {
      "alignedWord": "always",
      "case": "success",
      "end": 10.280000000000001,
      "endOffset": 163,
      "phones": [
        {
          "duration": 0.04,
          "phone": "ao_B"
        },
        {
          "duration": 0.01,
          "phone": "l_I"
        },
        {
          "duration": 0.05,
          "phone": "w_I"
        },
        {
          "duration": 0.04,
          "phone": "iy_I"
        },
        {
          "duration": 0.07,
          "phone": "z_E"
        }
      ],
      "start": 10.07,
      "startOffset": 157,
      "word": "ALWAYS"
    },
    {
      "alignedWord": "charges",
      "case": "success",
      "end": 10.700000000000001,
      "endOffset": 171,
      "phones": [
        {
          "duration": 0.09,
          "phone": "ch_B"
        },
        {
          "duration": 0.06,
          "phone": "aa_I"
        },
        {
          "duration": 0.07,
          "phone": "r_I"
        },
        {
          "duration": 0.06,
          "phone": "jh_I"
        },
        {
          "duration": 0.06,
          "phone": "ih_I"
        },
        {
          "duration": 0.06,
          "phone": "z_E"
        }
      ],
      "start": 10.3,
      "startOffset": 164,
      "word": "CHARGES"
    },
    {
      "alignedWord": "a",
      "case": "success",
      "end": 10.77,
      "endOffset": 173,
      "phones": [
        {
          "duration": 0.07,
          "phone": "ah_S"
        }
      ],
      "start": 10.7,
      "startOffset": 172,
      "word": "A"
    },
    {
      "alignedWord": "quarter",
      "case": "success",
      "end": 11.059999999999999,
      "endOffset": 181,
      "phones": [
        {
          "duration": 0.08,
          "phone": "k_B"
        },
        {
          "duration": 0.03,
          "phone": "w_I"
        },
        {
          "duration": 0.09,
          "phone": "ao_I"
        },
        {
          "duration": 0.02,
          "phone": "r_I"
        },
        {
          "duration": 0.06,
          "phone": "t_I"
        },
        {
          "duration": 0.01,
          "phone": "er_E"
        }
      ],
      "start": 10.77,
      "startOffset": 174,
      "word": "QUARTER"
    },
    {
      "alignedWord": "of",
      "case": "success",
      "end": 11.169998999999999,
      "endOffset": 184,
      "phones": [
        {
          "duration": 0.04,
          "phone": "ah_B"
        },
        {
          "duration": 0.07,
          "phone": "v_E"
        }
      ],
      "start": 11.059999,
      "startOffset": 182,
      "word": "OF"
    },
    {
      "alignedWord": "a",
      "case": "success",
      "end": 11.22,
      "endOffset": 186,
      "phones": [
        {
          "duration": 0.05,
          "phone": "ah_S"
        }
      ],
      "start": 11.17,
      "startOffset": 185,
      "word": "A"
    },
    {
      "alignedWord": "dollar",
      "case": "success",
      "end": 11.549999,
      "endOffset": 193,
      "phones": [
        {
          "duration": 0.07,
          "phone": "d_B"
        },
        {
          "duration": 0.09,
          "phone": "aa_I"
        },
        {
          "duration": 0.1,
          "phone": "l_I"
        },
        {
          "duration": 0.07,
          "phone": "er_E"
        }
      ],
      "start": 11.219999,
      "startOffset": 187,
      "word": "DOLLAR"
    },
    {
      "alignedWord": "more",
      "case": "success",
      "end": 11.780000000000001,
      "endOffset": 198,
      "phones": [
        {
          "duration": 0.09,
          "phone": "m_B"
        },
        {
          "duration": 0.08,
          "phone": "ao_I"
        },
        {
          "duration": 0.06,
          "phone": "r_E"
        }
      ],
      "start": 11.55,
      "startOffset": 194,
      "word": "MORE"
    },
    {
      "alignedWord": "than",
      "case": "success",
      "end": 11.959999999999999,
      "endOffset": 203,
      "phones": [
        {
          "duration": 0.04,
          "phone": "dh_B"
        },
        {
          "duration": 0.08,
          "phone": "ah_I"
        },
        {
          "duration": 0.06,
          "phone": "n_E"
        }
      ],
      "start": 11.78,
      "startOffset": 199,
      "word": "THAN"
    },
    {
      "alignedWord": "any",
      "case": "success",
      "end": 12.180000000000001,
      "endOffset": 207,
      "phones": [
        {
          "duration": 0.07,
          "phone": "eh_B"
        },
        {
          "duration": 0.07,
          "phone": "n_I"
        },
        {
          "duration": 0.08,
          "phone": "iy_E"
        }
      ],
      "start": 11.96,
      "startOffset": 204,
      "word": "ANY"
    },
    {
      "alignedWord": "one",
      "case": "success",
      "end": 12.319999000000001,
      "endOffset": 211,
      "phones": [
        {
          "duration": 0.01,
          "phone": "w_B"
        },
        {
          "duration": 0.07,
          "phone": "ah_I"
        },
        {
          "duration": 0.06,
          "phone": "n_E"
        }
      ],
      "start": 12.179999,
      "startOffset": 208,
      "word": "ONE"
    },
    {
      "alignedWord": "else",
      "case": "success",
      "end": 12.76,
      "endOffset": 216,
      "phones": [
        {
          "duration": 0.13,
          "phone": "eh_B"
        },
        {
          "duration": 0.14,
          "phone": "l_I"
        },
        {
          "duration": 0.17,
          "phone": "s_E"
        }
      ],
      "start": 12.32,
      "startOffset": 212,
      "word": "ELSE"
    },
    {
      "alignedWord": "however",
      "case": "success",
      "end": 13.8,
      "endOffset": 224,
      "phones": [
        {
          "duration": 0.08,
          "phone": "hh_B"
        },
        {
          "duration": 0.12,
          "phone": "aw_I"
        },
        {
          "duration": 0.11,
          "phone": "eh_I"
        },
        {
          "duration": 0.08,
          "phone": "v_I"
        },
        {
          "duration": 0.16,
          "phone": "er_E"
        }
      ],
      "start": 13.25,
      "startOffset": 217,
      "word": "HOWEVER"
    },
    {
      "alignedWord": "there's",
      "case": "success",
      "end": 14.26,
      "endOffset": 232,
      "phones": [
        {
          "duration": 0.08,
          "phone": "dh_B"
        },
        {
          "duration": 0.04,
          "phone": "eh_I"
        },
        {
          "duration": 0.05,
          "phone": "r_I"
        },
        {
          "duration": 0.06,
          "phone": "z_E"
        }
      ],
      "start": 14.03,
      "startOffset": 225,
      "word": "THERE'S"
    },
    {
      "alignedWord": "no",
      "case": "success",
      "end": 14.429999,
      "endOffset": 235,
      "phones": [
        {
          "duration": 0.07,
          "phone": "n_B"
        },
        {
          "duration": 0.1,
          "phone": "ow_E"
        }
      ],
      "start": 14.259999,
      "startOffset": 233,
      "word": "NO"
    },
    {
      "alignedWord": "other",
      "case": "success",
      "end": 14.629999,
      "endOffset": 241,
      "phones": [
        {
          "duration": 0.08,
          "phone": "ah_B"
        },
        {
          "duration": 0.05,
          "phone": "dh_I"
        },
        {
          "duration": 0.07,
          "phone": "er_E"
        }
      ],
      "start": 14.429999,
      "startOffset": 236,
      "word": "OTHER"
    },
    {
      "alignedWord": "chance",
      "case": "success",
      "end": 15.100000000000001,
      "endOffset": 248,
      "phones": [
        {
          "duration": 0.16,
          "phone": "ch_B"
        },
        {
          "duration": 0.21,
          "phone": "ae_I"
        },
        {
          "duration": 0.09,
          "phone": "n_I"
        },
        {
          "duration": 0.01,
          "phone": "s_E"
        }
      ],
      "start": 14.63,
      "startOffset": 242,
      "word": "CHANCE"
    }
  ]
}