{
  "transcript": "SHE SAID SHE WAS AFRAID TO GO THEY LOOKED UNGOVERNABLE BUT HE REASSURED HER AND ONE OF THE MEN AVERRING THAT MISTER MORGESON COULD DRIVE ANYTHING SHE REPRESSED HER FEARS AND WE DROVE OUT OF THE YARD BEHIND A PAIR OF HORSES",
  "words": [
    {
      "alignedWord": "she",
      "case": "success",
      "end": 0.7300000000000001,
      "endOffset": 3,
      "phones": [
        {
          "duration": 0.1,
          "phone": "sh_B"
        },
        {
          "duration": 0.07,
          "phone": "iy_E"
        }
      ],
      "start": 0.56,
      "startOffset": 0,
      "word": "SHE"
    },
    {
      "alignedWord": "said",
      "case": "success",
      "end": 0.9299999999999999,
      "endOffset": 8,
      "phones": [
        {
          "duration": 0.07,
          "phone": "s_B"
        },
        {
          "duration": 0.05,
          "phone": "eh_I"
        },
        {
          "duration": 0.07,
          "phone": "d_E"
        }
      ],
      "start": 0.74,
      "startOffset": 4,
      "word": "SAID"
    },
    {
      "alignedWord": "she",
      "case": "success",
      "end": 1.02,
      "endOffset": 12,
      "phones": [
        {
          "duration": 0.04,
          "phone": "sh_B"
        },
        {
          "duration": 0.05,
          "phone": "iy_E"
        }
      ],
      "start": 0.93,
      "startOffset": 9,
      "word": "SHE"
    },
    {
      "alignedWord": "was",
      "case": "success",
      "end": 1.17,
      "endOffset": 16,
      "phones": [
        {
          "duration": 0.04,
          "phone": "w_B"
        },
        {
          "duration": 0.06,
          "phone": "ah_I"
        },
        {
          "duration": 0.05,
          "phone": "z_E"
        }
      ],
      "start": 1.02,
      "startOffset": 13,
      "word": "WAS"
    },
    {
      "alignedWord": "afraid",
      "case": "success",
      "end": 1.5499999999999998,
      "endOffset": 23,
      "phones": [
        {
          "duration": 0.07,
          "phone": "ah_B"
        },
        {
          "duration": 0.11,
          "phone": "f_I"
        },
        {
          "duration": 0.08,
          "phone": "r_I"
        },
        {
          "duration": 0.03,
          "phone": "ey_I"
        },
        {
          "duration": 0.09,
          "phone": "d_E"
        }
      ],
      "start": 1.17,
      "startOffset": 17,
      "word": "AFRAID"
    },
    {
      "alignedWord": "to",
      "case": "success",
      "end": 1.6600000000000001,
      "endOffset": 26,
      "phones": [
        {
          "duration": 0.03,
          "phone": "t_B"
        },
        {
          "duration": 0.08,
          "phone": "ih_E"
        }
      ],
      "start": 1.55,
      "startOffset": 24,
      "word": "TO"
    },
    {
      "alignedWord": "go",
      "case": "success",
      "end": 2.03,
      "endOffset": 29,
      "phones": [
        {
          "duration": 0.07,
          "phone": "g_B"
        },
        {
          "duration": 0.3,
          "phone": "ow_E"
        }
      ],
      "start": 1.66,
      "startOffset": 27,
      "word": "GO"
    },
    {
      "alignedWord": "they",
      "case": "success",
      "end": 2.3200000000000003,
      "endOffset": 34,
      "phones": [
        {
          "duration": 0.06,
          "phone": "dh_B"
        },
        {
          "duration": 0.06,
          "phone": "ey_E"
        }
      ],
      "start": 2.2,
      "startOffset": 30,
      "word": "THEY"
    },
    {
      "alignedWord": "looked",
      "case": "success",
      "end": 2.5599999999999996,
      "endOffset": 41,
      "phones": [
        {
          "duration": 0.07,
          "phone": "l_B"
        },
        {
          "duration": 0.04,
          "phone": "uh_I"
        },
        {
          "duration": 0.06,
          "phone": "k_I"
        },
        {
          "duration": 0.07,
          "phone": "t_E"
        }
      ],
      "start": 2.32,
      "startOffset": 35,
      "word": "LOOKED"
    },
    {
      "alignedWord": "<unk>",
      "case": "success",
      "end": 3.4099999999999997,
      "endOffset": 54,
      "phones": [
        {
          "duration": 0.82,
          "phone": "oov_S"
        }
      ],
      "start": 2.59,
      "startOffset": 42,
      "word": "UNGOVERNABLE"
    },
    {
      "alignedWord": "but",
      "case": "success",
      "end": 4.22,
      "endOffset": 58,
      "phones": [
        {
          "duration": 0.05,
          "phone": "b_B"
        },
        {
          "duration": 0.06,
          "phone": "ah_I"
        },
        {
          "duration": 0.05,
          "phone": "t_E"
        }
      ],
      "start": 4.06,
      "startOffset": 55,
      "word": "BUT"
    },
    {
      "alignedWord": "he",
      "case": "success",
      "end": 4.39,
      "endOffset": 61,
      "phones": [
        {
          "duration": 0.07,
          "phone": "hh_B"
        },
        {
          "duration": 0.1,
          "phone": "iy_E"
        }
      ],
      "start": 4.22,
      "startOffset": 59,
      "word": "HE"
    },
    {
      "alignedWord": "reassured",
      "case": "success",
      "end": 4.96,
      "endOffset": 71,
      "phones": [
        {
          "duration": 0.08,
          "phone": "r_B"
        },
        {
          "duration": 0.1,
          "phone": "iy_I"
        },
        {
          "duration": 0.01,
          "phone": "ah_I"
        },
        {
          "duration": 0.15,
          "phone": "sh_I"
        },
        {
          "duration": 0.09,
          "phone": "uh_I"
        },
        {
          "duration": 0.07,
          "phone": "r_I"
        },
        {
          "duration": 0.07,
          "phone": "d_E"
        }
      ],
      "start": 4.39,
      "startOffset": 62,
      "word": "REASSURED"
    },
    {
      "alignedWord": "her",
      "case": "success",
      "end": 5.23,
      "endOffset": 75,
      "phones": [
        {
          "duration": 0.08,
          "phone": "hh_B"
        },
        {
          "duration": 0.19,
          "phone": "er_E"
        }
      ],
      "start": 4.96,
      "startOffset": 72,
      "word": "HER"
    },
    {
      "alignedWord": "and",
      "case": "success",
      "end": 6.08,
      "endOffset": 79,
      "phones": [
        {
          "duration": 0.11,
          "phone": "ae_B"
        },
        {
          "duration": 0.04,
          "phone": "n_I"
        },
        {
          "duration": 0.08,
          "phone": "d_E"
        }
      ],
      "start": 5.85,
      "startOffset": 76,
      "word": "AND"
    },
    {
      "alignedWord": "one",
      "case": "success",
      "end": 6.25,
      "endOffset": 83,
      "phones": [
        {
          "duration": 0.06,
          "phone": "w_B"
        },
        {
          "duration": 0.06,
          "phone": "ah_I"
        },
        {
          "duration": 0.05,
          "phone": "n_E"
        }
      ],
      "start": 6.08,
      "startOffset": 80,
      "word": "ONE"
    },
    {
      "alignedWord": "of",
      "case": "success",
      "end": 6.36,
      "endOffset": 86,
      "phones": [
        {
          "duration": 0.03,
          "phone": "ah_B"
        },
        {
          "duration": 0.08,
          "phone": "v_E"
        }
      ],
      "start": 6.25,
      "startOffset": 84,
      "word": "OF"
    },
    {
      "alignedWord": "the",
      "case": "success",
      "end": 6.430000000000001,
      "endOffset": 90,
      "phones": [
        {
          "duration": 0.01,
          "phone": "dh_B"
        },
        {
          "duration": 0.06,
          "phone": "ah_E"
        }
      ],
      "start": 6.36,
      "startOffset": 87,
      "word": "THE"
    },
    {
      "alignedWord": "men",
      "case": "success",
      "end": 6.62,
      "endOffset": 94,
      "phones": [
        {
          "duration": 0.05,
          "phone": "m_B"
        },
        {
          "duration": 0.08,
          "phone": "eh_I"
        },
        {
          "duration": 0.06,
          "phone": "n_E"
        }
      ],
      "start": 6.43,
      "startOffset": 91,
      "word": "MEN"
    },
    {
      "alignedWord": "<unk>",
      "case": "success",
      "end": 7.03,
      "endOffset": 103,
      "phones": [
        {
          "duration": 0.41,
          "phone": "oov_S"
        }
      ],
      "start": 6.62,
      "startOffset": 95,
      "word": "AVERRING"
    },
    {
      "alignedWord": "that",
      "case": "success",
      "end": 7.19,
      "endOffset": 108,
      "phones": [
        {
          "duration": 0.06,
          "phone": "dh_B"
        },
        {
          "duration": 0.04,
          "phone": "ah_I"
        },
        {
          "duration": 0.05,
          "phone": "t_E"
        }
      ],
      "start": 7.04,
      "startOffset": 104,
      "word": "THAT"
    },
    {
      "alignedWord": "mister",
      "case": "success",
      "end": 7.4,
      "endOffset": 115,
      "phones": [
        {
          "duration": 0.06,
          "phone": "m_B"
        },
        {
          "duration": 0.05,
          "phone": "ih_I"
        },
        {
          "duration": 0.03,
          "phone": "s_I"
        },
        {
          "duration": 0.06,
          "phone": "t_I"
        },
        {
          "duration": 0.01,
          "phone": "er_E"
        }
      ],
      "start": 7.19,
      "startOffset": 109,
      "word": "MISTER"
    },
    {
      "alignedWord": "<unk>",
      "case": "success",
      "end": 8.01,
      "endOffset": 124,
      "phones": [
        {
          "duration": 0.61,
          "phone": "oov_S"
        }
      ],
      "start": 7.4,
      "startOffset": 116,
      "word": "MORGESON"
    },
    {
      "alignedWord": "could",
      "case": "success",
      "end": 8.16,
      "endOffset": 130,
      "phones": [
        {
          "duration": 0.07,
          "phone": "k_B"
        },
        {
          "duration": 0.03,
          "phone": "uh_I"
        },
        {
          "duration": 0.05,
          "phone": "d_E"
        }
      ],
      "start": 8.01,
      "startOffset": 125,
      "word": "COULD"
    },
    {
      "alignedWord": "drive",
      "case": "success",
      "end": 8.44,
      "endOffset": 136,
      "phones": [
        {
          "duration": 0.04,
          "phone": "d_B"
        },
        {
          "duration": 0.1,
          "phone": "r_I"
        },
        {
          "duration": 0.08,
          "phone": "ay_I"
        },
        {
          "duration": 0.06,
          "phone": "v_E"
        }
      ],
      "start": 8.16,
      "startOffset": 131,
      "word": "DRIVE"
    },
    {
      "alignedWord": "anything",
      "case": "success",
      "end": 8.93,
      "endOffset": 145,
      "phones": [
        {
          "duration": 0.06,
          "phone": "eh_B"
        },
        {
          "duration": 0.07,
          "phone": "n_I"
        },
        {
          "duration": 0.08,
          "phone": "iy_I"
        },
        {
          "duration": 0.06,
          "phone": "th_I"
        },
        {
          "duration": 0.08,
          "phone": "ih_I"
        },
        {
          "duration": 0.14,
          "phone": "ng_E"
        }
      ],
      "start": 8.44,
      "startOffset": 137,
      "word": "ANYTHING"
    },
    {
      "alignedWord": "she",
      "case": "success",
      "end": 9.719999999999999,
      "endOffset": 149,
      "phones": [
        {
          "duration": 0.11,
          "phone": "sh_B"
        },
        {
          "duration": 0.08,
          "phone": "iy_E"
        }
      ],
      "start": 9.53,
      "startOffset": 146,
      "word": "SHE"
    },
    {
      "alignedWord": "repressed",
      "case": "success",
      "end": 10.129999,
      "endOffset": 159,
      "phones": [
        {
          "duration": 0.05,
          "phone": "r_B"
        },
        {
          "duration": 0.06,
          "phone": "iy_I"
        },
        {
          "duration": 0.06,
          "phone": "p_I"
        },
        {
          "duration": 0.06,
          "phone": "r_I"
        },
        {
          "duration": 0.06,
          "phone": "eh_I"
        },
        {
          "duration": 0.05,
          "phone": "s_I"
        },
        {
          "duration": 0.07,
          "phone": "t_E"
        }
      ],
      "start": 9.719999,
      "startOffset": 150,
      "word": "REPRESSED"
    },
    {
      "alignedWord": "her",
      "case": "success",
      "end": 10.23,
      "endOffset": 163,
      "phones": [
        {
          "duration": 0.04,
          "phone": "hh_B"
        },
        {
          "duration": 0.06,
          "phone": "er_E"
        }
      ],
      "start": 10.13,
      "startOffset": 160,
      "word": "HER"
    },
    {
      "alignedWord": "fears",
      "case": "success",
      "end": 10.71,
      "endOffset": 169,
      "phones": [
        {
          "duration": 0.09,
          "phone": "f_B"
        },
        {
          "duration": 0.15,
          "phone": "ih_I"
        },
        {
          "duration": 0.09,
          "phone": "r_I"
        },
        {
          "duration": 0.15,
          "phone": "z_E"
        }
      ],
      "start": 10.23,
      "startOffset": 164,
      "word": "FEARS"
    },
    {
      "alignedWord": "and",
      "case": "success",
      "end": 11.24,
      "endOffset": 173,
      "phones": [
        {
          "duration": 0.07,
          "phone": "ae_B"
        },
        {
          "duration": 0.05,
          "phone": "n_I"
        },
        {
          "duration": 0.05,
          "phone": "d_E"
        }
      ],
      "start": 11.07,
      "startOffset": 170,
      "word": "AND"
    },
    {
      "alignedWord": "we",
      "case": "success",
      "end": 11.35,
      "endOffset": 176,
      "phones": [
        {
          "duration": 0.04,
          "phone": "w_B"
        },
        {
          "duration": 0.07,
          "phone": "iy_E"
        }
      ],
      "start": 11.24,
      "startOffset": 174,
      "word": "WE"
    },
    {
      "alignedWord": "drove",
      "case": "success",
      "end": 11.699999,
      "endOffset": 182,
      "phones": [
        {
          "duration": 0.06,
          "phone": "d_B"
        },
        {
          "duration": 0.09,
          "phone": "r_I"
        },
        {
          "duration": 0.1,
          "phone": "ow_I"
        },
        {
          "duration": 0.1,
          "phone": "v_E"
        }
      ],
      "start": 11.349999,
      "startOffset": 177,
      "word": "DROVE"
    },
    {
      "alignedWord": "out",
      "case": "success",
      "end": 11.799999999999999,
      "endOffset": 186,
      "phones": [
        {
          "duration": 0.07,
          "phone": "aw_B"
        },
        {
          "duration": 0.03,
          "phone": "t_E"
        }
      ],
      "start": 11.7,
      "startOffset": 183,
      "word": "OUT"
    },
    {
      "alignedWord": "of",
      "case": "success",
      "end": 11.930000000000001,
      "endOffset": 189,
      "phones": [
        {
          "duration": 0.06,
          "phone": "ah_B"
        },
        {
          "duration": 0.07,
          "phone": "v_E"
        }
      ],
      "start": 11.8,
      "startOffset": 187,
      "word": "OF"
    },
    {
      "alignedWord": "the",
      "case": "success",
      "end": 12.019999,
      "endOffset": 193,
      "phones": [
        {
          "duration": 0.04,
          "phone": "dh_B"
        },
        {
          "duration": 0.05,
          "phone": "iy_E"
        }
      ],
      "start": 11.929999,
      "startOffset": 190,
      "word": "THE"
    },
    {
      "alignedWord": "yard",
      "case": "success",
      "end": 12.36,
      "endOffset": 198,
      "phones": [
        {
          "duration": 0.09,
          "phone": "y_B"
        },
        {
          "duration": 0.13,
          "phone": "aa_I"
        },
        {
          "duration": 0.05,
          "phone": "r_I"
        },
        {
          "duration": 0.07,
          "phone": "d_E"
        }
      ],
      "start": 12.02,
      "startOffset": 194,
      "word": "YARD"
    },
    {
      "alignedWord": "behind",
      "case": "success",
      "end": 12.67,
      "endOffset": 205,
      "phones": [
        {
          "duration": 0.01,
          "phone": "b_B"
        },
        {
          "duration": 0.06,
          "phone": "ih_I"
        },
        {
          "duration": 0.07,
          "phone": "hh_I"
        },
        {
          "duration": 0.08,
          "phone": "ay_I"
        },
        {
          "duration": 0.03,
          "phone": "n_I"
        },
        {
          "duration": 0.06,
          "phone": "d_E"
        }
      ],
      "start": 12.36,
      "startOffset": 199,
      "word": "BEHIND"
    },
    {
      "alignedWord": "a",
      "case": "success",
      "end": 12.72,
      "endOffset": 207,
      "phones": [
        {
          "duration": 0.05,
          "phone": "ah_S"
        }
      ],
      "start": 12.67,
      "startOffset": 206,
      "word": "A"
    },
    {
      "alignedWord": "pair",
      "case": "success",
      "end": 12.929999,
      "endOffset": 212,
      "phones": [
        {
          "duration": 0.08,
          "phone": "p_B"
        },
        {
          "duration": 0.08,
          "phone": "eh_I"
        },
        {
          "duration": 0.05,
          "phone": "r_E"
        }
      ],
      "start": 12.719999,
      "startOffset": 208,
      "word": "PAIR"
    },
    {
      "alignedWord": "of",
      "case": "success",
      "end": 13.069999000000001,
      "endOffset": 215,
      "phones": [
        {
          "duration": 0.05,
          "phone": "ah_B"
        },
        {
          "duration": 0.09,
          "phone": "v_E"
        }
      ],
      "start": 12.929999,
      "startOffset": 213,
      "word": "OF"
    },
    {
      "alignedWord": "horses",
      "case": "success",
      "end": 13.540000000000001,
      "endOffset": 222,
      "phones": [
        {
          "duration": 0.07,
          "phone": "hh_B"
        },
        {
          "duration": 0.1,
          "phone": "ao_I"
        },
        {
          "duration": 0.07,
          "phone": "r_I"
        },
        {
          "duration": 0.08,
          "phone": "s_I"
        },
        {
          "duration": 0.09,
          "phone": "ah_I"
        },
        {
          "duration": 0.06,
          "phone": "z_E"
        }
      ],
      "start": 13.07,
      "startOffset": 216,
      "word": "HORSES"
    }
  ]
}