{
  "transcript": "THE ONE MAN IN PARLIAMENT MODEST ENOUGH NOT TO CONSIDER HIMSELF TO BE FIT FOR ANY PLACE THAT CAN BE OFFERED TO HIM POOR BARRINGTON HE DOES NOT LIKE THE IDEA OF CROSSING THE CHANNEL SO OFTEN I QUITE SYMPATHISE WITH HIM AND SO PHINEAS IS TO BE SECRETARY FOR IRELAND",
  "words": [
    {
      "alignedWord": "the",
      "case": "success",
      "end": 0.33999999999999997,
      "endOffset": 3,
      "phones": [
        {
          "duration": 0.07,
          "phone": "dh_B"
        },
        {
          "duration": 0.05,
          "phone": "ah_E"
        }
      ],
      "start": 0.22,
      "startOffset": 0,
      "word": "THE"
    },
    {
      "alignedWord": "one",
      "case": "success",
      "end": 0.5800000000000001,
      "endOffset": 7,
      "phones": [
        {
          "duration": 0.07,
          "phone": "w_B"
        },
        {
          "duration": 0.09,
          "phone": "ah_I"
        },
        {
          "duration": 0.08,
          "phone": "n_E"
        }
      ],
      "start": 0.34,
      "startOffset": 4,
      "word": "ONE"
    },
    {
      "alignedWord": "man",
      "case": "success",
      "end": 0.7999999999999999,
      "endOffset": 11,
      "phones": [
        {
          "duration": 0.06,
          "phone": "m_B"
        },
        {
          "duration": 0.1,
          "phone": "ae_I"
        },
        {
          "duration": 0.06,
          "phone": "n_E"
        }
      ],
      "start": 0.58,
      "startOffset": 8,
      "word": "MAN"
    },
    {
      "alignedWord": "in",
      "case": "success",
      "end": 0.92,
      "endOffset": 14,
      "phones": [
        {
          "duration": 0.06,
          "phone": "ih_B"
        },
        {
          "duration": 0.06,
          "phone": "n_E"
        }
      ],
      "start": 0.8,
      "startOffset": 12,
      "word": "IN"
    },
    {
      "alignedWord": "parliament",
      "case": "success",
      "end": 1.44,
      "endOffset": 25,
      "phones": [
        {
          "duration": 0.08,
          "phone": "p_B"
        },
        {
          "duration": 0.1,
          "phone": "aa_I"
        },
        {
          "duration": 0.06,
          "phone": "r_I"
        },
        {
          "duration": 0.06,
          "phone": "l_I"
        },
        {
          "duration": 0.03,
          "phone": "ah_I"
        },
        {
          "duration": 0.04,
          "phone": "m_I"
        },
        {
          "duration": 0.05,
          "phone": "ah_I"
        },
        {
          "duration": 0.04,
          "phone": "n_I"
        },
        {
          "duration": 0.06,
          "phone": "t_E"
        }
      ],
      "start": 0.92,
      "startOffset": 15,
      "word": "PARLIAMENT"
    },
    {
      "alignedWord": "modest",
      "case": "success",
      "end": 2.02,
      "endOffset": 32,
      "phones": [
        {
          "duration": 0.14,
          "phone": "m_B"
        },
        {
          "duration": 0.06,
          "phone": "aa_I"
        },
        {
          "duration": 0.07,
          "phone": "d_I"
        },
        {
          "duration": 0.05,
          "phone": "ah_I"
        },
        {
          "duration": 0.09,
          "phone": "s_I"
        },
        {
          "duration": 0.07,
          "phone": "t_E"
        }
      ],
      "start": 1.54,
      "startOffset": 26,
      "word": "MODEST"
    },
    {
      "alignedWord": "enough",
      "case": "success",
      "end": 2.31,
      "endOffset": 39,
      "phones": [
        {
          "duration": 0.05,
          "phone": "ih_B"
        },
        {
          "duration": 0.06,
          "phone": "n_I"
        },
        {
          "duration": 0.08,
          "phone": "ah_I"
        },
        {
          "duration": 0.1,
          "phone": "f_E"
        }
      ],
      "start": 2.02,
      "startOffset": 33,
      "word": "ENOUGH"
    },
    {
      "alignedWord": "not",
      "case": "success",
      "end": 2.49,
      "endOffset": 43,
      "phones": [
        {
          "duration": 0.05,
          "phone": "n_B"
        },
        {
          "duration": 0.07,
          "phone": "aa_I"
        },
        {
          "duration": 0.06,
          "phone": "t_E"
        }
      ],
      "start": 2.31,
      "startOffset": 40,
      "word": "NOT"
    },
    {
      "alignedWord": "to",
      "case": "success",
      "end": 2.61,
      "endOffset": 46,
      "phones": [
        {
          "duration": 0.05,
          "phone": "t_B"
        },
        {
          "duration": 0.06,
          "phone": "ah_E"
        }
      ],
      "start": 2.5,
      "startOffset": 44,
      "word": "TO"
    },
    {
      "alignedWord": "consider",
      "case": "success",
      "end": 3.02,
      "endOffset": 55,
      "phones": [
        {
          "duration": 0.05,
          "phone": "k_B"
        },
        {
          "duration": 0.06,
          "phone": "ah_I"
        },
        {
          "duration": 0.05,
          "phone": "n_I"
        },
        {
          "duration": 0.07,
          "phone": "s_I"
        },
        {
          "duration": 0.07,
          "phone": "ih_I"
        },
        {
          "duration": 0.04,
          "phone": "d_I"
        },
        {
          "duration": 0.07,
          "phone": "er_E"
        }
      ],
      "start": 2.61,
      "startOffset": 47,
      "word": "CONSIDER"
    },
    {
      "alignedWord": "himself",
      "case": "success",
      "end": 3.39,
      "endOffset": 63,
      "phones": [
        {
          "duration": 0.02,
          "phone": "hh_B"
        },
        {
          "duration": 0.04,
          "phone": "ih_I"
        },
        {
          "duration": 0.08,
          "phone": "m_I"
        },
        {
          "duration": 0.06,
          "phone": "s_I"
        },
        {
          "duration": 0.06,
          "phone": "eh_I"
        },
        {
          "duration": 0.03,
          "phone": "l_I"
        },
        {
          "duration": 0.08,
          "phone": "f_E"
        }
      ],
      "start": 3.02,
      "startOffset": 56,
      "word": "HIMSELF"
    },
    {
      "alignedWord": "to",
      "case": "success",
      "end": 3.48,
      "endOffset": 66,
      "phones": [
        {
          "duration": 0.04,
          "phone": "t_B"
        },
        {
          "duration": 0.05,
          "phone": "ih_E"
        }
      ],
      "start": 3.39,
      "startOffset": 64,
      "word": "TO"
    },
    {
      "alignedWord": "be",
      "case": "success",
      "end": 3.6300000000000003,
      "endOffset": 69,
      "phones": [
        {
          "duration": 0.07,
          "phone": "b_B"
        },
        {
          "duration": 0.07,
          "phone": "iy_E"
        }
      ],
      "start": 3.49,
      "startOffset": 67,
      "word": "BE"
    },
    {
      "alignedWord": "fit",
      "case": "success",
      "end": 3.85,
      "endOffset": 73,
      "phones": [
        {
          "duration": 0.1,
          "phone": "f_B"
        },
        {
          "duration": 0.07,
          "phone": "ih_I"
        },
        {
          "duration": 0.05,
          "phone": "t_E"
        }
      ],
      "start": 3.63,
      "startOffset": 70,
      "word": "FIT"
    },
    {
      "alignedWord": "for",
      "case": "success",
      "end": 4.0600000000000005,
      "endOffset": 77,
      "phones": [
        {
          "duration": 0.1,
          "phone": "f_B"
        },
        {
          "duration": 0.07,
          "phone": "er_E"
        }
      ],
      "start": 3.89,
      "startOffset": 74,
      "word": "FOR"
    },
    {
      "alignedWord": "any",
      "case": "success",
      "end": 4.26,
      "endOffset": 81,
      "phones": [
        {
          "duration": 0.07,
          "phone": "eh_B"
        },
        {
          "duration": 0.07,
          "phone": "n_I"
        },
        {
          "duration": 0.06,
          "phone": "iy_E"
        }
      ],
      "start": 4.06,
      "startOffset": 78,
      "word": "ANY"
    },
    {
      "alignedWord": "place",
      "case": "success",
      "end": 4.66,
      "endOffset": 87,
      "phones": [
        {
          "duration": 0.07,
          "phone": "p_B"
        },
        {
          "duration": 0.09,
          "phone": "l_I"
        },
        {
          "duration": 0.11,
          "phone": "ey_I"
        },
        {
          "duration": 0.13,
          "phone": "s_E"
        }
      ],
      "start": 4.26,
      "startOffset": 82,
      "word": "PLACE"
    },
    {
      "alignedWord": "that",
      "case": "success",
      "end": 4.8,
      "endOffset": 92,
      "phones": [
        {
          "duration": 0.04,
          "phone": "dh_B"
        },
        {
          "duration": 0.03,
          "phone": "ah_I"
        },
        {
          "duration": 0.07,
          "phone": "t_E"
        }
      ],
      "start": 4.66,
      "startOffset": 88,
      "word": "THAT"
    },
    {
      "alignedWord": "can",
      "case": "success",
      "end": 4.91,
      "endOffset": 96,
      "phones": [
        {
          "duration": 0.04,
          "phone": "k_B"
        },
        {
          "duration": 0.03,
          "phone": "ah_I"
        },
        {
          "duration": 0.04,
          "phone": "n_E"
        }
      ],
      "start": 4.8,
      "startOffset": 93,
      "word": "CAN"
    },
    {
      "alignedWord": "be",
      "case": "success",
      "end": 5.03,
      "endOffset": 99,
      "phones": [
        {
          "duration": 0.06,
          "phone": "b_B"
        },
        {
          "duration": 0.06,
          "phone": "iy_E"
        }
      ],
      "start": 4.91,
      "startOffset": 97,
      "word": "BE"
    },
    {
      "alignedWord": "offered",
      "case": "success",
      "end": 5.3500000000000005,
      "endOffset": 107,
      "phones": [
        {
          "duration": 0.1,
          "phone": "ao_B"
        },
        {
          "duration": 0.08,
          "phone": "f_I"
        },
        {
          "duration": 0.07,
          "phone": "er_I"
        },
        {
          "duration": 0.07,
          "phone": "d_E"
        }
      ],
      "start": 5.03,
      "startOffset": 100,
      "word": "OFFERED"
    },
    {
      "alignedWord": "to",
      "case": "success",
      "end": 5.47,
      "endOffset": 110,
      "phones": [
        {
          "duration": 0.04,
          "phone": "t_B"
        },
        {
          "duration": 0.08,
          "phone": "ih_E"
        }
      ],
      "start": 5.35,
      "startOffset": 108,
      "word": "TO"
    },
    {
      "alignedWord": "him",
      "case": "success",
      "end": 5.7299999999999995,
      "endOffset": 114,
      "phones": [
        {
          "duration": 0.05,
          "phone": "hh_B"
        },
        {
          "duration": 0.09,
          "phone": "ih_I"
        },
        {
          "duration": 0.12,
          "phone": "m_E"
        }
      ],
      "start": 5.47,
      "startOffset": 111,
      "word": "HIM"
    },
    {
      "alignedWord": "poor",
      "case": "success",
      "end": 7.0,
      "endOffset": 119,
      "phones": [
        {
          "duration": 0.06,
          "phone": "p_B"
        },
        {
          "duration": 0.11,
          "phone": "uw_I"
        },
        {
          "duration": 0.04,
          "phone": "r_E"
        }
      ],
      "start": 6.79,
      "startOffset": 115,
      "word": "POOR"
    },
    {
      "alignedWord": "barrington",
      "case": "success",
      "end": 7.65,
      "endOffset": 130,
      "phones": [
        {
          "duration": 0.07,
          "phone": "b_B"
        },
        {
          "duration": 0.08,
          "phone": "eh_I"
        },
        {
          "duration": 0.05,
          "phone": "r_I"
        },
        {
          "duration": 0.07,
          "phone": "ih_I"
        },
        {
          "duration": 0.07,
          "phone": "ng_I"
        },
        {
          "duration": 0.06,
          "phone": "t_I"
        },
        {
          "duration": 0.08,
          "phone": "ah_I"
        },
        {
          "duration": 0.17,
          "phone": "n_E"
        }
      ],
      "start": 7.0,
      "startOffset": 120,
      "word": "BARRINGTON"
    },
    {
      "alignedWord": "he",
      "case": "success",
      "end": 8.09,
      "endOffset": 133,
      "phones": [
        {
          "duration": 0.1,
          "phone": "hh_B"
        },
        {
          "duration": 0.07,
          "phone": "iy_E"
        }
      ],
      "start": 7.92,
      "startOffset": 131,
      "word": "HE"
    },
    {
      "alignedWord": "does",
      "case": "success",
      "end": 8.26,
      "endOffset": 138,
      "phones": [
        {
          "duration": 0.04,
          "phone": "d_B"
        },
        {
          "duration": 0.06,
          "phone": "ah_I"
        },
        {
          "duration": 0.07,
          "phone": "z_E"
        }
      ],
      "start": 8.09,
      "startOffset": 134,
      "word": "DOES"
    },
    {
      "alignedWord": "not",
      "case": "success",
      "end": 8.44,
      "endOffset": 142,
      "phones": [
        {
          "duration": 0.03,
          "phone": "n_B"
        },
        {
          "duration": 0.08,
          "phone": "aa_I"
        },
        {
          "duration": 0.07,
          "phone": "t_E"
        }
      ],
      "start": 8.26,
      "startOffset": 139,
      "word": "NOT"
    },
    {
      "alignedWord": "like",
      "case": "success",
      "end": 8.639999999999999,
      "endOffset": 147,
      "phones": [
        {
          "duration": 0.04,
          "phone": "l_B"
        },
        {
          "duration": 0.09,
          "phone": "ay_I"
        },
        {
          "duration": 0.07,
          "phone": "k_E"
        }
      ],
      "start": 8.44,
      "startOffset": 143,
      "word": "LIKE"
    },
    {
      "alignedWord": "the",
      "case": "success",
      "end": 8.779999,
      "endOffset": 151,
      "phones": [
        {
          "duration": 0.06,
          "phone": "dh_B"
        },
        {
          "duration": 0.08,
          "phone": "iy_E"
        }
      ],
      "start": 8.639999,
      "startOffset": 148,
      "word": "THE"
    },
    {
      "alignedWord": "idea",
      "case": "success",
      "end": 9.069999999999999,
      "endOffset": 156,
      "phones": [
        {
          "duration": 0.07,
          "phone": "ay_B"
        },
        {
          "duration": 0.11,
          "phone": "d_I"
        },
        {
          "duration": 0.1,
          "phone": "iy_I"
        },
        {
          "duration": 0.01,
          "phone": "ah_E"
        }
      ],
      "start": 8.78,
      "startOffset": 152,
      "word": "IDEA"
    },
    {
      "alignedWord": "of",
      "case": "success",
      "end": 9.200000000000001,
      "endOffset": 159,
      "phones": [
        {
          "duration": 0.08,
          "phone": "ah_B"
        },
        {
          "duration": 0.05,
          "phone": "v_E"
        }
      ],
      "start": 9.07,
      "startOffset": 157,
      "word": "OF"
    },
    {
      "alignedWord": "crossing",
      "case": "success",
      "end": 9.569999999999999,
      "endOffset": 168,
      "phones": [
        {
          "duration": 0.07,
          "phone": "k_B"
        },
        {
          "duration": 0.04,
          "phone": "r_I"
        },
        {
          "duration": 0.07,
          "phone": "ao_I"
        },
        {
          "duration": 0.08,
          "phone": "s_I"
        },
        {
          "duration": 0.06,
          "phone": "ih_I"
        },
        {
          "duration": 0.05,
          "phone": "ng_E"
        }
      ],
      "start": 9.2,
      "startOffset": 160,
      "word": "CROSSING"
    },
    {
      "alignedWord": "the",
      "case": "success",
      "end": 9.67,
      "endOffset": 172,
      "phones": [
        {
          "duration": 0.05,
          "phone": "dh_B"
        },
        {
          "duration": 0.05,
          "phone": "ah_E"
        }
      ],
      "start": 9.57,
      "startOffset": 169,
      "word": "THE"
    },
    {
      "alignedWord": "channel",
      "case": "success",
      "end": 10.06,
      "endOffset": 180,
      "phones": [
        {
          "duration": 0.12,
          "phone": "ch_B"
        },
        {
          "duration": 0.07,
          "phone": "ae_I"
        },
        {
          "duration": 0.04,
          "phone": "n_I"
        },
        {
          "duration": 0.09,
          "phone": "ah_I"
        },
        {
          "duration": 0.07,
          "phone": "l_E"
        }
      ],
      "start": 9.67,
      "startOffset": 173,
      "word": "CHANNEL"
    },
    {
      "alignedWord": "so",
      "case": "success",
      "end": 10.259998999999999,
      "endOffset": 183,
      "phones": [
        {
          "duration": 0.11,
          "phone": "s_B"
        },
        {
          "duration": 0.09,
          "phone": "ow_E"
        }
      ],
      "start": 10.059999,
      "startOffset": 181,
      "word": "SO"
    },
    {
      "alignedWord": "often",
      "case": "success",
      "end": 10.65,
      "endOffset": 189,
      "phones": [
        {
          "duration": 0.11,
          "phone": "ao_B"
        },
        {
          "duration": 0.09,
          "phone": "f_I"
        },
        {
          "duration": 0.08,
          "phone": "ah_I"
        },
        {
          "duration": 0.11,
          "phone": "n_E"
        }
      ],
      "start": 10.26,
      "startOffset": 184,
      "word": "OFTEN"
    },
    {
      "alignedWord": "i",
      "case": "success",
      "end": 11.5,
      "endOffset": 191,
      "phones": [
        {
          "duration": 0.12,
          "phone": "ay_S"
        }
      ],
      "start": 11.38,
      "startOffset": 190,
      "word": "I"
    },
    {
      "alignedWord": "quite",
      "case": "success",
      "end": 11.79,
      "endOffset": 197,
      "phones": [
        {
          "duration": 0.09,
          "phone": "k_B"
        },
        {
          "duration": 0.05,
          "phone": "w_I"
        },
        {
          "duration": 0.07,
          "phone": "ay_I"
        },
        {
          "duration": 0.08,
          "phone": "t_E"
        }
      ],
      "start": 11.5,
      "startOffset": 192,
      "word": "QUITE"
    },
    {
      "alignedWord": "<unk>",
      "case": "success",
      "end": 12.35,
      "endOffset": 208,
      "phones": [
        {
          "duration": 0.56,
          "phone": "oov_S"
        }
      ],
      "start": 11.79,
      "startOffset": 198,
      "word": "SYMPATHISE"
    },
    {
      "alignedWord": "with",
      "case": "success",
      "end": 12.53,
      "endOffset": 213,
      "phones": [
        {
          "duration": 0.07,
          "phone": "w_B"
        },
        {
          "duration": 0.02,
          "phone": "ih_I"
        },
        {
          "duration": 0.08,
          "phone": "th_E"
        }
      ],
      "start": 12.36,
      "startOffset": 209,
      "word": "WITH"
    },
    {
      "alignedWord": "him",
      "case": "success",
      "end": 12.74,
      "endOffset": 217,
      "phones": [
        {
          "duration": 0.08,
          "phone": "ih_B"
        },
        {
          "duration": 0.13,
          "phone": "m_E"
        }
      ],
      "start": 12.53,
      "startOffset": 214,
      "word": "HIM"
    },
    {
      "alignedWord": "and",
      "case": "success",
      "end": 13.489999999999998,
      "endOffset": 221,
      "phones": [
        {
          "duration": 0.08,
          "phone": "ae_B"
        },
        {
          "duration": 0.04,
          "phone": "n_I"
        },
        {
          "duration": 0.08,
          "phone": "d_E"
        }
      ],
      "start": 13.29,
      "startOffset": 218,
      "word": "AND"
    },
    {
      "alignedWord": "so",
      "case": "success",
      "end": 13.68,
      "endOffset": 224,
      "phones": [
        {
          "duration": 0.09,
          "phone": "s_B"
        },
        {
          "duration": 0.1,
          "phone": "ow_E"
        }
      ],
      "start": 13.49,
      "startOffset": 222,
      "word": "SO"
    },
    {
      "alignedWord": "<unk>",
      "case": "success",
      "end": 14.079999,
      "endOffset": 232,
      "phones": [
        {
          "duration": 0.4,
          "phone": "oov_S"
        }
      ],
      "start": 13.679999,
      "startOffset": 225,
      "word": "PHINEAS"
    },
    {
      "alignedWord": "is",
      "case": "success",
      "end": 14.22,
      "endOffset": 235,
      "phones": [
        {
          "duration": 0.06,
          "phone": "ih_B"
        },
        {
          "duration": 0.07,
          "phone": "z_E"
        }
      ],
      "start": 14.09,
      "startOffset": 233,
      "word": "IS"
    },
    {
      "alignedWord": "to",
      "case": "success",
      "end": 14.339998999999999,
      "endOffset": 238,
      "phones": [
        {
          "duration": 0.06,
          "phone": "t_B"
        },
        {
          "duration": 0.06,
          "phone": "uw_E"
        }
      ],
      "start": 14.219999,
      "startOffset": 236,
      "word": "TO"
    },
    {
      "alignedWord": "be",
      "case": "success",
      "end": 14.459999999999999,
      "endOffset": 241,
      "phones": [
        {
          "duration": 0.05,
          "phone": "b_B"
        },
        {
          "duration": 0.07,
          "phone": "iy_E"
        }
      ],
      "start": 14.34,
      "startOffset": 239,
      "word": "BE"
    },
    {
      "alignedWord": "secretary",
      "case": "success",
      "end": 15.059999,
      "endOffset": 251,
      "phones": [
        {
          "duration": 0.08,
          "phone": "s_B"
        },
        {
          "duration": 0.06,
          "phone": "eh_I"
        },
        {
          "duration": 0.06,
          "phone": "k_I"
        },
        {
          "duration": 0.04,
          "phone": "r_I"
        },
        {
          "duration": 0.06,
          "phone": "ah_I"
        },
        {
          "duration": 0.07,
          "phone": "t_I"
        },
        {
          "duration": 0.07,
          "phone": "eh_I"
        },
        {
          "duration": 0.07,
          "phone": "r_I"
        },
        {
          "duration": 0.08,
          "phone": "iy_E"
        }
      ],
      "start": 14.469999,
      "startOffset": 242,
      "word": "SECRETARY"
    },
    {
      "alignedWord": "for",
      "case": "success",
      "end": 15.24,
      "endOffset": 255,
      "phones": [
        {
          "duration": 0.07,
          "phone": "f_B"
        },
        {
          "duration": 0.1,
          "phone": "er_E"
        }
      ],
      "start": 15.07,
      "startOffset": 252,
      "word": "FOR"
    },
    {
      "alignedWord": "ireland",
      "case": "success",
      "end": 15.83,
      "endOffset": 263,
      "phones": [
        {
          "duration": 0.14,
          "phone": "ay_B"
        },
        {
          "duration": 0.08,
          "phone": "er_I"
        },
        {
          "duration": 0.05,
          "phone": "l_I"
        },
        {
          "duration": 0.06,
          "phone": "ah_I"
        },
        {
          "duration": 0.09,
          "phone": "n_I"
        },
        {
          "duration": 0.17,
          "phone": "d_E"
        }
      ],
      "start": 15.24,
      "startOffset": 256,
      "word": "IRELAND"
    }
  ]
}