{
  "transcript": "HE CAME TO THE WINDOW AND LOOKED IN AT HER ARE YOU COMING TO SEE PRISCILLA HE SAID LADY THROCKMORTON SAID I MIGHT SHE ANSWERED THE WARMTH IN HER FACE CHILLED BY HIS UNENTHUSIASTIC THOUGH KINDLY TONE SHE DID NOT KNOW WHAT A STRUGGLE IT COST HIM TO FACE HER THUS CARELESSLY ALL AT ONCE",
  "words": [
    {
      "alignedWord": "he",
      "case": "success",
      "end": 0.49,
      "endOffset": 2,
      "phones": [
        {
          "duration": 0.09,
          "phone": "hh_B"
        },
        {
          "duration": 0.08,
          "phone": "iy_E"
        }
      ],
      "start": 0.32,
      "startOffset": 0,
      "word": "HE"
    },
    {
      "alignedWord": "came",
      "case": "success",
      "end": 0.72,
      "endOffset": 7,
      "phones": [
        {
          "duration": 0.08,
          "phone": "k_B"
        },
        {
          "duration": 0.07,
          "phone": "ey_I"
        },
        {
          "duration": 0.08,
          "phone": "m_E"
        }
      ],
      "start": 0.49,
      "startOffset": 3,
      "word": "CAME"
    },
    {
      "alignedWord": "to",
      "case": "success",
      "end": 0.8099999999999999,
      "endOffset": 10,
      "phones": [
        {
          "duration": 0.03,
          "phone": "t_B"
        },
        {
          "duration": 0.06,
          "phone": "uw_E"
        }
      ],
      "start": 0.72,
      "startOffset": 8,
      "word": "TO"
    },
    {
      "alignedWord": "the",
      "case": "success",
      "end": 0.92,
      "endOffset": 14,
      "phones": [
        {
          "duration": 0.05,
          "phone": "dh_B"
        },
        {
          "duration": 0.06,
          "phone": "ah_E"
        }
      ],
      "start": 0.81,
      "startOffset": 11,
      "word": "THE"
    },
    {
      "alignedWord": "window",
      "case": "success",
      "end": 1.24,
      "endOffset": 21,
      "phones": [
        {
          "duration": 0.06,
          "phone": "w_B"
        },
        {
          "duration": 0.08,
          "phone": "ih_I"
        },
        {
          "duration": 0.02,
          "phone": "n_I"
        },
        {
          "duration": 0.09,
          "phone": "d_I"
        },
        {
          "duration": 0.07,
          "phone": "ow_E"
        }
      ],
      "start": 0.92,
      "startOffset": 15,
      "word": "WINDOW"
    },
    {
      "alignedWord": "and",
      "case": "success",
      "end": 1.37,
      "endOffset": 25,
      "phones": [
        {
          "duration": 0.07,
          "phone": "ah_B"
        },
        {
          "duration": 0.02,
          "phone": "n_I"
        },
        {
          "duration": 0.04,
          "phone": "d_E"
        }
      ],
      "start": 1.24,
      "startOffset": 22,
      "word": "AND"
    },
    {
      "alignedWord": "looked",
      "case": "success",
      "end": 1.57,
      "endOffset": 32,
      "phones": [
        {
          "duration": 0.04,
          "phone": "l_B"
        },
        {
          "duration": 0.05,
          "phone": "uh_I"
        },
        {
          "duration": 0.06,
          "phone": "k_I"
        },
        {
          "duration": 0.05,
          "phone": "t_E"
        }
      ],
      "start": 1.37,
      "startOffset": 26,
      "word": "LOOKED"
    },
    {
      "alignedWord": "in",
      "case": "success",
      "end": 1.6700000000000002,
      "endOffset": 35,
      "phones": [
        {
          "duration": 0.05,
          "phone": "ih_B"
        },
        {
          "duration": 0.05,
          "phone": "n_E"
        }
      ],
      "start": 1.57,
      "startOffset": 33,
      "word": "IN"
    },
    {
      "alignedWord": "at",
      "case": "success",
      "end": 1.7999999999999998,
      "endOffset": 38,
      "phones": [
        {
          "duration": 0.07,
          "phone": "ae_B"
        },
        {
          "duration": 0.06,
          "phone": "t_E"
        }
      ],
      "start": 1.67,
      "startOffset": 36,
      "word": "AT"
    },
    {
      "alignedWord": "her",
      "case": "success",
      "end": 2.08,
      "endOffset": 42,
      "phones": [
        {
          "duration": 0.08,
          "phone": "hh_B"
        },
        {
          "duration": 0.2,
          "phone": "er_E"
        }
      ],
      "start": 1.8,
      "startOffset": 39,
      "word": "HER"
    },
    {
      "alignedWord": "are",
      "case": "success",
      "end": 2.5900000000000003,
      "endOffset": 46,
      "phones": [
        {
          "duration": 0.1,
          "phone": "er_S"
        }
      ],
      "start": 2.49,
      "startOffset": 43,
      "word": "ARE"
    },
    {
      "alignedWord": "you",
      "case": "success",
      "end": 2.75,
      "endOffset": 50,
      "phones": [
        {
          "duration": 0.06,
          "phone": "y_B"
        },
        {
          "duration": 0.1,
          "phone": "uw_E"
        }
      ],
      "start": 2.59,
      "startOffset": 47,
      "word": "YOU"
    },
    {
      "alignedWord": "coming",
      "case": "success",
      "end": 3.0300000000000002,
      "endOffset": 57,
      "phones": [
        {
          "duration": 0.05,
          "phone": "k_B"
        },
        {
          "duration": 0.07,
          "phone": "ah_I"
        },
        {
          "duration": 0.05,
          "phone": "m_I"
        },
        {
          "duration": 0.06,
          "phone": "ih_I"
        },
        {
          "duration": 0.05,
          "phone": "ng_E"
        }
      ],
      "start": 2.75,
      "startOffset": 51,
      "word": "COMING"
    },
    {
      "alignedWord": "to",
      "case": "success",
      "end": 3.13,
      "endOffset": 60,
      "phones": [
        {
          "duration": 0.04,
          "phone": "t_B"
        },
        {
          "duration": 0.06,
          "phone": "ih_E"
        }
      ],
      "start": 3.03,
      "startOffset": 58,
      "word": "TO"
    },
    {
      "alignedWord": "see",
      "case": "success",
      "end": 3.29,
      "endOffset": 64,
      "phones": [
        {
          "duration": 0.08,
          "phone": "s_B"
        },
        {
          "duration": 0.08,
          "phone": "iy_E"
        }
      ],
      "start": 3.13,
      "startOffset": 61,
      "word": "SEE"
    },
    {
      "alignedWord": "priscilla",
      "case": "success",
      "end": 3.77,
      "endOffset": 74,
      "phones": [
        {
          "duration": 0.08,
          "phone": "p_B"
        },
        {
          "duration": 0.01,
          "phone": "r_I"
        },
        {
          "duration": 0.09,
          "phone": "ih_I"
        },
        {
          "duration": 0.07,
          "phone": "s_I"
        },
        {
          "duration": 0.1,
          "phone": "ih_I"
        },
        {
          "duration": 0.06,
          "phone": "l_I"
        },
        {
          "duration": 0.07,
          "phone": "ah_E"
        }
      ],
      "start": 3.29,
      "startOffset": 65,
      "word": "PRISCILLA"
    },
    {
      "alignedWord": "he",
      "case": "success",
      "end": 3.9499999999999997,
      "endOffset": 77,
      "phones": [
        {
          "duration": 0.1,
          "phone": "hh_B"
        },
        {
          "duration": 0.07,
          "phone": "iy_E"
        }
      ],
      "start": 3.78,
      "startOffset": 75,
      "word": "HE"
    },
    {
      "alignedWord": "said",
      "case": "success",
      "end": 4.37,
      "endOffset": 82,
      "phones": [
        {
          "duration": 0.1,
          "phone": "s_B"
        },
        {
          "duration": 0.15,
          "phone": "eh_I"
        },
        {
          "duration": 0.17,
          "phone": "d_E"
        }
      ],
      "start": 3.95,
      "startOffset": 78,
      "word": "SAID"
    },
    {
      "alignedWord": "lady",
      "case": "success",
      "end": 5.21,
      "endOffset": 87,
      "phones": [
        {
          "duration": 0.15,
          "phone": "l_B"
        },
        {
          "duration": 0.06,
          "phone": "ey_I"
        },
        {
          "duration": 0.05,
          "phone": "d_I"
        },
        {
          "duration": 0.11,
          "phone": "iy_E"
        }
      ],
      "start": 4.84,
      "startOffset": 83,
      "word": "LADY"
    },
    {
      "alignedWord": "<unk>",
      "case": "success",
      "end": 5.78,
      "endOffset": 100,
      "phones": [
        {
          "duration": 0.57,
          "phone": "oov_S"
        }
      ],
      "start": 5.21,
      "startOffset": 88,
      "word": "THROCKMORTON"
    },
    {
      "alignedWord": "said",
      "case": "success",
      "end": 6.0,
      "endOffset": 105,
      "phones": [
        {
          "duration": 0.1,
          "phone": "s_B"
        },
        {
          "duration": 0.05,
          "phone": "eh_I"
        },
        {
          "duration": 0.06,
          "phone": "d_E"
        }
      ],
      "start": 5.79,
      "startOffset": 101,
      "word": "SAID"
    },
    {
      "alignedWord": "i",
      "case": "success",
      "end": 6.12,
      "endOffset": 107,
      "phones": [
        {
          "duration": 0.12,
          "phone": "ay_S"
        }
      ],
      "start": 6.0,
      "startOffset": 106,
      "word": "I"
    },
    {
      "alignedWord": "might",
      "case": "success",
      "end": 6.42,
      "endOffset": 113,
      "phones": [
        {
          "duration": 0.07,
          "phone": "m_B"
        },
        {
          "duration": 0.13,
          "phone": "ay_I"
        },
        {
          "duration": 0.08,
          "phone": "t_E"
        }
      ],
      "start": 6.14,
      "startOffset": 108,
      "word": "MIGHT"
    },
    {
      "alignedWord": "she",
      "case": "success",
      "end": 6.66,
      "endOffset": 117,
      "phones": [
        {
          "duration": 0.14,
          "phone": "sh_B"
        },
        {
          "duration": 0.09,
          "phone": "iy_E"
        }
      ],
      "start": 6.43,
      "startOffset": 114,
      "word": "SHE"
    },
    {
      "alignedWord": "answered",
      "case": "success",
      "end": 7.17,
      "endOffset": 126,
      "phones": [
        {
          "duration": 0.07,
          "phone": "ae_B"
        },
        {
          "duration": 0.09,
          "phone": "n_I"
        },
        {
          "duration": 0.12,
          "phone": "s_I"
        },
        {
          "duration": 0.11,
          "phone": "er_I"
        },
        {
          "duration": 0.12,
          "phone": "d_E"
        }
      ],
      "start": 6.66,
      "startOffset": 118,
      "word": "ANSWERED"
    },
    {
      "alignedWord": "the",
      "case": "success",
      "end": 7.39,
      "endOffset": 130,
      "phones": [
        {
          "duration": 0.1,
          "phone": "dh_B"
        },
        {
          "duration": 0.07,
          "phone": "ah_E"
        }
      ],
      "start": 7.22,
      "startOffset": 127,
      "word": "THE"
    },
    {
      "alignedWord": "warmth",
      "case": "success",
      "end": 7.67,
      "endOffset": 137,
      "phones": [
        {
          "duration": 0.05,
          "phone": "w_B"
        },
        {
          "duration": 0.07,
          "phone": "ao_I"
        },
        {
          "duration": 0.06,
          "phone": "r_I"
        },
        {
          "duration": 0.06,
          "phone": "m_I"
        },
        {
          "duration": 0.04,
          "phone": "th_E"
        }
      ],
      "start": 7.39,
      "startOffset": 131,
      "word": "WARMTH"
    },
    {
      "alignedWord": "in",
      "case": "success",
      "end": 7.8,
      "endOffset": 140,
      "phones": [
        {
          "duration": 0.07,
          "phone": "ih_B"
        },
        {
          "duration": 0.06,
          "phone": "n_E"
        }
      ],
      "start": 7.67,
      "startOffset": 138,
      "word": "IN"
    },
    {
      "alignedWord": "her",
      "case": "success",
      "end": 7.95,
      "endOffset": 144,
      "phones": [
        {
          "duration": 0.07,
          "phone": "hh_B"
        },
        {
          "duration": 0.08,
          "phone": "er_E"
        }
      ],
      "start": 7.8,
      "startOffset": 141,
      "word": "HER"
    },
    {
      "alignedWord": "face",
      "case": "success",
      "end": 8.26,
      "endOffset": 149,
      "phones": [
        {
          "duration": 0.11,
          "phone": "f_B"
        },
        {
          "duration": 0.12,
          "phone": "ey_I"
        },
        {
          "duration": 0.08,
          "phone": "s_E"
        }
      ],
      "start": 7.95,
      "startOffset": 145,
      "word": "FACE"
    },
    {
      "alignedWord": "chilled",
      "case": "success",
      "end": 8.67,
      "endOffset": 157,
      "phones": [
        {
          "duration": 0.13,
          "phone": "ch_B"
        },
        {
          "duration": 0.1,
          "phone": "ih_I"
        },
        {
          "duration": 0.1,
          "phone": "l_I"
        },
        {
          "duration": 0.06,
          "phone": "d_E"
        }
      ],
      "start": 8.28,
      "startOffset": 150,
      "word": "CHILLED"
    },
    {
      "alignedWord": "by",
      "case": "success",
      "end": 8.839999,
      "endOffset": 160,
      "phones": [
        {
          "duration": 0.09,
          "phone": "b_B"
        },
        {
          "duration": 0.07,
          "phone": "ay_E"
        }
      ],
      "start": 8.679999,
      "startOffset": 158,
      "word": "BY"
    },
    {
      "alignedWord": "his",
      "case": "success",
      "end": 9.01,
      "endOffset": 164,
      "phones": [
        {
          "duration": 0.06,
          "phone": "hh_B"
        },
        {
          "duration": 0.04,
          "phone": "ih_I"
        },
        {
          "duration": 0.07,
          "phone": "z_E"
        }
      ],
      "start": 8.84,
      "startOffset": 161,
      "word": "HIS"
    },
    {
      "alignedWord": "unenthusiastic",
      "case": "success",
      "end": 9.979999999999999,
      "endOffset": 179,
      "phones": [
        {
          "duration": 0.06,
          "phone": "ah_B"
        },
        {
          "duration": 0.07,
          "phone": "n_I"
        },
        {
          "duration": 0.01,
          "phone": "ih_I"
        },
        {
          "duration": 0.06,
          "phone": "n_I"
        },
        {
          "duration": 0.06,
          "phone": "th_I"
        },
        {
          "duration": 0.08,
          "phone": "uw_I"
        },
        {
          "duration": 0.08,
          "phone": "z_I"
        },
        {
          "duration": 0.1,
          "phone": "iy_I"
        },
        {
          "duration": 0.13,
          "phone": "ae_I"
        },
        {
          "duration": 0.07,
          "phone": "s_I"
        },
        {
          "duration": 0.07,
          "phone": "t_I"
        },
        {
          "duration": 0.07,
          "phone": "ih_I"
        },
        {
          "duration": 0.09,
          "phone": "k_E"
        }
      ],
      "start": 9.03,
      "startOffset": 165,
      "word": "UNENTHUSIASTIC"
    },
    {
      "alignedWord": "though",
      "case": "success",
      "end": 10.14,
      "endOffset": 186,
      "phones": [
        {
          "duration": 0.05,
          "phone": "dh_B"
        },
        {
          "duration": 0.11,
          "phone": "ow_E"
        }
      ],
      "start": 9.98,
      "startOffset": 180,
      "word": "THOUGH"
    },
    {
      "alignedWord": "kindly",
      "case": "success",
      "end": 10.6,
      "endOffset": 193,
      "phones": [
        {
          "duration": 0.1,
          "phone": "k_B"
        },
        {
          "duration": 0.1,
          "phone": "ay_I"
        },
        {
          "duration": 0.04,
          "phone": "n_I"
        },
        {
          "duration": 0.06,
          "phone": "d_I"
        },
        {
          "duration": 0.05,
          "phone": "l_I"
        },
        {
          "duration": 0.08,
          "phone": "iy_E"
        }
      ],
      "start": 10.17,
      "startOffset": 187,
      "word": "KINDLY"
    },
    {
      "alignedWord": "tone",
      "case": "success",
      "end": 11.059999000000001,
      "endOffset": 198,
      "phones": [
        {
          "duration": 0.1,
          "phone": "t_B"
        },
        {
          "duration": 0.2,
          "phone": "ow_I"
        },
        {
          "duration": 0.16,
          "phone": "n_E"
        }
      ],
      "start": 10.599999,
      "startOffset": 194,
      "word": "TONE"
    },
    {
      "alignedWord": "she",
      "case": "success",
      "end": 11.59,
      "endOffset": 202,
      "phones": [
        {
          "duration": 0.12,
          "phone": "sh_B"
        },
        {
          "duration": 0.06,
          "phone": "iy_E"
        }
      ],
      "start": 11.41,
      "startOffset": 199,
      "word": "SHE"
    },
    {
      "alignedWord": "did",
      "case": "success",
      "end": 11.72,
      "endOffset": 206,
      "phones": [
        {
          "duration": 0.03,
          "phone": "d_B"
        },
        {
          "duration": 0.06,
          "phone": "ih_I"
        },
        {
          "duration": 0.04,
          "phone": "d_E"
        }
      ],
      "start": 11.59,
      "startOffset": 203,
      "word": "DID"
    },
    {
      "alignedWord": "not",
      "case": "success",
      "end": 11.899999,
      "endOffset": 210,
      "phones": [
        {
          "duration": 0.02,
          "phone": "n_B"
        },
        {
          "duration": 0.09,
          "phone": "aa_I"
        },
        {
          "duration": 0.07,
          "phone": "t_E"
        }
      ],
      "start": 11.719999,
      "startOffset": 207,
      "word": "NOT"
    },
    {
      "alignedWord": "know",
      "case": "success",
      "end": 12.07,
      "endOffset": 215,
      "phones": [
        {
          "duration": 0.08,
          "phone": "n_B"
        },
        {
          "duration": 0.09,
          "phone": "ow_E"
        }
      ],
      "start": 11.9,
      "startOffset": 211,
      "word": "KNOW"
    },
    {
      "alignedWord": "what",
      "case": "success",
      "end": 12.24,
      "endOffset": 220,
      "phones": [
        {
          "duration": 0.08,
          "phone": "w_B"
        },
        {
          "duration": 0.04,
          "phone": "ah_I"
        },
        {
          "duration": 0.05,
          "phone": "t_E"
        }
      ],
      "start": 12.07,
      "startOffset": 216,
      "word": "WHAT"
    },
    {
      "alignedWord": "a",
      "case": "success",
      "end": 12.3,
      "endOffset": 222,
      "phones": [
        {
          "duration": 0.06,
          "phone": "ah_S"
        }
      ],
      "start": 12.24,
      "startOffset": 221,
      "word": "A"
    },
    {
      "alignedWord": "struggle",
      "case": "success",
      "end": 12.680000000000001,
      "endOffset": 231,
      "phones": [
        {
          "duration": 0.04,
          "phone": "s_B"
        },
        {
          "duration": 0.08,
          "phone": "t_I"
        },
        {
          "duration": 0.05,
          "phone": "r_I"
        },
        {
          "duration": 0.07,
          "phone": "ah_I"
        },
        {
          "duration": 0.05,
          "phone": "g_I"
        },
        {
          "duration": 0.04,
          "phone": "ah_I"
        },
        {
          "duration": 0.05,
          "phone": "l_E"
        }
      ],
      "start": 12.3,
      "startOffset": 223,
      "word": "STRUGGLE"
    },
    {
      "alignedWord": "it",
      "case": "success",
      "end": 12.809999000000001,
      "endOffset": 234,
      "phones": [
        {
          "duration": 0.05,
          "phone": "ih_B"
        },
        {
          "duration": 0.08,
          "phone": "t_E"
        }
      ],
      "start": 12.679999,
      "startOffset": 232,
      "word": "IT"
    },
    {
      "alignedWord": "cost",
      "case": "success",
      "end": 13.119999,
      "endOffset": 239,
      "phones": [
        {
          "duration": 0.08,
          "phone": "k_B"
        },
        {
          "duration": 0.1,
          "phone": "ao_I"
        },
        {
          "duration": 0.06,
          "phone": "s_I"
        },
        {
          "duration": 0.07,
          "phone": "t_E"
        }
      ],
      "start": 12.809999,
      "startOffset": 235,
      "word": "COST"
    },
    {
      "alignedWord": "him",
      "case": "success",
      "end": 13.27,
      "endOffset": 243,
      "phones": [
        {
          "duration": 0.03,
          "phone": "hh_B"
        },
        {
          "duration": 0.06,
          "phone": "ih_I"
        },
        {
          "duration": 0.06,
          "phone": "m_E"
        }
      ],
      "start": 13.12,
      "startOffset": 240,
      "word": "HIM"
    },
    {
      "alignedWord": "to",
      "case": "success",
      "end": 13.4,
      "endOffset": 246,
      "phones": [
        {
          "duration": 0.06,
          "phone": "t_B"
        },
        {
          "duration": 0.07,
          "phone": "ah_E"
        }
      ],
      "start": 13.27,
      "startOffset": 244,
      "word": "TO"
    },
    {
      "alignedWord": "face",
      "case": "success",
      "end": 13.71,
      "endOffset": 251,
      "phones": [
        {
          "duration": 0.11,
          "phone": "f_B"
        },
        {
          "duration": 0.11,
          "phone": "ey_I"
        },
        {
          "duration": 0.09,
          "phone": "s_E"
        }
      ],
      "start": 13.4,
      "startOffset": 247,
      "word": "FACE"
    },
    {
      "alignedWord": "her",
      "case": "success",
      "end": 13.9,
      "endOffset": 255,
      "phones": [
        {
          "duration": 0.09,
          "phone": "hh_B"
        },
        {
          "duration": 0.1,
          "phone": "er_E"
        }
      ],
      "start": 13.71,
      "startOffset": 252,
      "word": "HER"
    },
    {
      "alignedWord": "thus",
      "case": "success",
      "end": 14.16,
      "endOffset": 260,
      "phones": [
        {
          "duration": 0.08,
          "phone": "dh_B"
        },
        {
          "duration": 0.07,
          "phone": "ah_I"
        },
        {
          "duration": 0.11,
          "phone": "s_E"
        }
      ],
      "start": 13.9,
      "startOffset": 256,
      "word": "THUS"
    },
    {
      "alignedWord": "carelessly",
      "case": "success",
      "end": 14.8,
      "endOffset": 271,
      "phones": [
        {
          "duration": 0.1,
          "phone": "k_B"
        },
        {
          "duration": 0.07,
          "phone": "eh_I"
        },
        {
          "duration": 0.08,
          "phone": "r_I"
        },
        {
          "duration": 0.06,
          "phone": "l_I"
        },
        {
          "duration": 0.08,
          "phone": "ah_I"
        },
        {
          "duration": 0.09,
          "phone": "s_I"
        },
        {
          "duration": 0.07,
          "phone": "l_I"
        },
        {
          "duration": 0.09,
          "phone": "iy_E"
        }
      ],
      "start": 14.16,
      "startOffset": 261,
      "word": "CARELESSLY"
    },
    {
      "alignedWord": "all",
      "case": "success",
      "end": 14.959999,
      "endOffset": 275,
      "phones": [
        {
          "duration": 0.07,
          "phone": "ao_B"
        },
        {
          "duration": 0.09,
          "phone": "l_E"
        }
      ],
      "start": 14.799999,
      "startOffset": 272,
      "word": "ALL"
    },
    {
      "alignedWord": "at",
      "case": "success",
      "end": 15.100000000000001,
      "endOffset": 278,
      "phones": [
        {
          "duration": 0.06,
          "phone": "ae_B"
        },
        {
          "duration": 0.08,
          "phone": "t_E"
        }
      ],
      "start": 14.96,
      "startOffset": 276,
      "word": "AT"
    },
    {
      "alignedWord": "once",
      "case": "success",
      "end": 15.559999000000001,
      "endOffset": 283,
      "phones": [
        {
          "duration": 0.06,
          "phone": "w_B"
        },
        {
          "duration": 0.12,
          "phone": "ah_I"
        },
        {
          "duration": 0.09,
          "phone": "n_I"
        },
        {
          "duration": 0.19,
          "phone": "s_E"
        }
      ],
      "start": 15.099999,
      "startOffset": 279,
      "word": "ONCE"
    }
  ]
}