{
  "transcript": "PERHAPS THEY CAN'T HELP BEING FAT BUT THEY MIGHT AT LEAST ACT GENTEEL WHAT IS IT TO BE GENTEEL ASKED A GRASSHOPPER SUDDENLY HE HAD HEARD EVERY WORD THAT THE WALKING STICK SAID WHY SAID THE FIVE LEGGED WALKING STICK",
  "words": [
    {
      "alignedWord": "perhaps",
      "case": "success",
      "end": 0.74,
      "endOffset": 7,
      "phones": [
        {
          "duration": 0.08,
          "phone": "p_B"
        },
        {
          "duration": 0.08,
          "phone": "er_I"
        },
        {
          "duration": 0.04,
          "phone": "hh_I"
        },
        {
          "duration": 0.07,
          "phone": "ae_I"
        },
        {
          "duration": 0.09,
          "phone": "p_I"
        },
        {
          "duration": 0.05,
          "phone": "s_E"
        }
      ],
      "start": 0.33,
      "startOffset": 0,
      "word": "PERHAPS"
    },
    {
      "alignedWord": "they",
      "case": "success",
      "end": 0.87,
      "endOffset": 12,
      "phones": [
        {
          "duration": 0.05,
          "phone": "dh_B"
        },
        {
          "duration": 0.08,
          "phone": "ey_E"
        }
      ],
      "start": 0.74,
      "startOffset": 8,
      "word": "THEY"
    },
    {
      "alignedWord": "can't",
      "case": "success",
      "end": 1.1099999999999999,
      "endOffset": 18,
      "phones": [
        {
          "duration": 0.09,
          "phone": "k_B"
        },
        {
          "duration": 0.08,
          "phone": "ae_I"
        },
        {
          "duration": 0.06,
          "phone": "n_I"
        },
        {
          "duration": 0.01,
          "phone": "t_E"
        }
      ],
      "start": 0.87,
      "startOffset": 13,
      "word": "CAN'T"
    },
    {
      "alignedWord": "help",
      "case": "success",
      "end": 1.35,
      "endOffset": 23,
      "phones": [
        {
          "duration": 0.06,
          "phone": "hh_B"
        },
        {
          "duration": 0.06,
          "phone": "eh_I"
        },
        {
          "duration": 0.07,
          "phone": "l_I"
        },
        {
          "duration": 0.05,
          "phone": "p_E"
        }
      ],
      "start": 1.11,
      "startOffset": 19,
      "word": "HELP"
    },
    {
      "alignedWord": "being",
      "case": "success",
      "end": 1.6900000000000002,
      "endOffset": 29,
      "phones": [
        {
          "duration": 0.07,
          "phone": "b_B"
        },
        {
          "duration": 0.07,
          "phone": "iy_I"
        },
        {
          "duration": 0.09,
          "phone": "ih_I"
        },
        {
          "duration": 0.1,
          "phone": "ng_E"
        }
      ],
      "start": 1.36,
      "startOffset": 24,
      "word": "BEING"
    },
    {
      "alignedWord": "fat",
      "case": "success",
      "end": 2.2199999999999998,
      "endOffset": 33,
      "phones": [
        {
          "duration": 0.13,
          "phone": "f_B"
        },
        {
          "duration": 0.18,
          "phone": "ae_I"
        },
        {
          "duration": 0.22,
          "phone": "t_E"
        }
      ],
      "start": 1.69,
      "startOffset": 30,
      "word": "FAT"
    },
    {
      "alignedWord": "but",
      "case": "success",
      "end": 2.9,
      "endOffset": 37,
      "phones": [
        {
          "duration": 0.07,
          "phone": "b_B"
        },
        {
          "duration": 0.05,
          "phone": "ah_I"
        },
        {
          "duration": 0.07,
          "phone": "t_E"
        }
      ],
      "start": 2.71,
      "startOffset": 34,
      "word": "BUT"
    },
    {
      "alignedWord": "they",
      "case": "success",
      "end": 3.02,
      "endOffset": 42,
      "phones": [
        {
          "duration": 0.03,
          "phone": "dh_B"
        },
        {
          "duration": 0.09,
          "phone": "ey_E"
        }
      ],
      "start": 2.9,
      "startOffset": 38,
      "word": "THEY"
    },
    {
      "alignedWord": "might",
      "case": "success",
      "end": 3.26,
      "endOffset": 48,
      "phones": [
        {
          "duration": 0.06,
          "phone": "m_B"
        },
        {
          "duration": 0.12,
          "phone": "ay_I"
        },
        {
          "duration": 0.06,
          "phone": "t_E"
        }
      ],
      "start": 3.02,
      "startOffset": 43,
      "word": "MIGHT"
    },
    {
      "alignedWord": "at",
      "case": "success",
      "end": 3.3699999999999997,
      "endOffset": 51,
      "phones": [
        {
          "duration": 0.04,
          "phone": "ae_B"
        },
        {
          "duration": 0.07,
          "phone": "t_E"
        }
      ],
      "start": 3.26,
      "startOffset": 49,
      "word": "AT"
    },
    {
      "alignedWord": "least",
      "case": "success",
      "end": 3.79,
      "endOffset": 57,
      "phones": [
        {
          "duration": 0.14,
          "phone": "l_B"
        },
        {
          "duration": 0.13,
          "phone": "iy_I"
        },
        {
          "duration": 0.06,
          "phone": "s_I"
        },
        {
          "duration": 0.08,
          "phone": "t_E"
        }
      ],
      "start": 3.38,
      "startOffset": 52,
      "word": "LEAST"
    },
    {
      "alignedWord": "act",
      "case": "success",
      "end": 4.16,
      "endOffset": 61,
      "phones": [
        {
          "duration": 0.17,
          "phone": "ae_B"
        },
        {
          "duration": 0.09,
          "phone": "k_I"
        },
        {
          "duration": 0.1,
          "phone": "t_E"
        }
      ],
      "start": 3.8,
      "startOffset": 58,
      "word": "ACT"
    },
    {
      "alignedWord": "genteel",
      "case": "success",
      "end": 5.01,
      "endOffset": 69,
      "phones": [
        {
          "duration": 0.1,
          "phone": "jh_B"
        },
        {
          "duration": 0.08,
          "phone": "eh_I"
        },
        {
          "duration": 0.07,
          "phone": "n_I"
        },
        {
          "duration": 0.13,
          "phone": "t_I"
        },
        {
          "duration": 0.19,
          "phone": "iy_I"
        },
        {
          "duration": 0.27,
          "phone": "l_E"
        }
      ],
      "start": 4.17,
      "startOffset": 62,
      "word": "GENTEEL"
    },
    {
      "alignedWord": "what",
      "case": "success",
      "end": 5.94,
      "endOffset": 74,
      "phones": [
        {
          "duration": 0.04,
          "phone": "hh_B"
        },
        {
          "duration": 0.06,
          "phone": "w_I"
        },
        {
          "duration": 0.05,
          "phone": "ah_I"
        },
        {
          "duration": 0.05,
          "phone": "t_E"
        }
      ],
      "start": 5.74,
      "startOffset": 70,
      "word": "WHAT"
    },
    {
      "alignedWord": "is",
      "case": "success",
      "end": 6.04,
      "endOffset": 77,
      "phones": [
        {
          "duration": 0.03,
          "phone": "ih_B"
        },
        {
          "duration": 0.07,
          "phone": "z_E"
        }
      ],
      "start": 5.94,
      "startOffset": 75,
      "word": "IS"
    },
    {
      "alignedWord": "it",
      "case": "success",
      "end": 6.16,
      "endOffset": 80,
      "phones": [
        {
          "duration": 0.07,
          "phone": "ih_B"
        },
        {
          "duration": 0.05,
          "phone": "t_E"
        }
      ],
      "start": 6.04,
      "startOffset": 78,
      "word": "IT"
    },
    {
      "alignedWord": "to",
      "case": "success",
      "end": 6.28,
      "endOffset": 83,
      "phones": [
        {
          "duration": 0.07,
          "phone": "t_B"
        },
        {
          "duration": 0.04,
          "phone": "ih_E"
        }
      ],
      "start": 6.17,
      "startOffset": 81,
      "word": "TO"
    },
    {
      "alignedWord": "be",
      "case": "success",
      "end": 6.44,
      "endOffset": 86,
      "phones": [
        {
          "duration": 0.07,
          "phone": "b_B"
        },
        {
          "duration": 0.09,
          "phone": "iy_E"
        }
      ],
      "start": 6.28,
      "startOffset": 84,
      "word": "BE"
    },
    {
      "alignedWord": "genteel",
      "case": "success",
      "end": 7.15,
      "endOffset": 94,
      "phones": [
        {
          "duration": 0.07,
          "phone": "jh_B"
        },
        {
          "duration": 0.06,
          "phone": "eh_I"
        },
        {
          "duration": 0.06,
          "phone": "n_I"
        },
        {
          "duration": 0.13,
          "phone": "t_I"
        },
        {
          "duration": 0.15,
          "phone": "iy_I"
        },
        {
          "duration": 0.24,
          "phone": "l_E"
        }
      ],
      "start": 6.44,
      "startOffset": 87,
      "word": "GENTEEL"
    },
    {
      "alignedWord": "asked",
      "case": "success",
      "end": 7.8999999999999995,
      "endOffset": 100,
      "phones": [
        {
          "duration": 0.13,
          "phone": "ae_B"
        },
        {
          "duration": 0.06,
          "phone": "s_I"
        },
        {
          "duration": 0.07,
          "phone": "t_E"
        }
      ],
      "start": 7.64,
      "startOffset": 95,
      "word": "ASKED"
    },
    {
      "alignedWord": "a",
      "case": "success",
      "end": 7.96,
      "endOffset": 102,
      "phones": [
        {
          "duration": 0.06,
          "phone": "ah_S"
        }
      ],
      "start": 7.9,
      "startOffset": 101,
      "word": "A"
    },
    {
      "alignedWord": "grasshopper",
      "case": "success",
      "end": 8.51,
      "endOffset": 114,
      "phones": [
        {
          "duration": 0.06,
          "phone": "g_B"
        },
        {
          "duration": 0.06,
          "phone": "r_I"
        },
        {
          "duration": 0.07,
          "phone": "ae_I"
        },
        {
          "duration": 0.09,
          "phone": "s_I"
        },
        {
          "duration": 0.04,
          "phone": "hh_I"
        },
        {
          "duration": 0.07,
          "phone": "aa_I"
        },
        {
          "duration": 0.08,
          "phone": "p_I"
        },
        {
          "duration": 0.08,
          "phone": "er_E"
        }
      ],
      "start": 7.96,
      "startOffset": 103,
      "word": "GRASSHOPPER"
    },
    {
      "alignedWord": "suddenly",
      "case": "success",
      "end": 9.07,
      "endOffset": 123,
      "phones": [
        {
          "duration": 0.09,
          "phone": "s_B"
        },
        {
          "duration": 0.09,
          "phone": "ah_I"
        },
        {
          "duration": 0.01,
          "phone": "d_I"
        },
        {
          "duration": 0.01,
          "phone": "ah_I"
        },
        {
          "duration": 0.11,
          "phone": "n_I"
        },
        {
          "duration": 0.06,
          "phone": "l_I"
        },
        {
          "duration": 0.19,
          "phone": "iy_E"
        }
      ],
      "start": 8.51,
      "startOffset": 115,
      "word": "SUDDENLY"
    },
    {
      "alignedWord": "he",
      "case": "success",
      "end": 9.590000000000002,
      "endOffset": 126,
      "phones": [
        {
          "duration": 0.11,
          "phone": "hh_B"
        },
        {
          "duration": 0.1,
          "phone": "iy_E"
        }
      ],
      "start": 9.38,
      "startOffset": 124,
      "word": "HE"
    },
    {
      "alignedWord": "had",
      "case": "success",
      "end": 9.72,
      "endOffset": 130,
      "phones": [
        {
          "duration": 0.02,
          "phone": "hh_B"
        },
        {
          "duration": 0.08,
          "phone": "ae_I"
        },
        {
          "duration": 0.03,
          "phone": "d_E"
        }
      ],
      "start": 9.59,
      "startOffset": 127,
      "word": "HAD"
    },
    {
      "alignedWord": "heard",
      "case": "success",
      "end": 9.919998999999999,
      "endOffset": 136,
      "phones": [
        {
          "duration": 0.07,
          "phone": "hh_B"
        },
        {
          "duration": 0.06,
          "phone": "er_I"
        },
        {
          "duration": 0.07,
          "phone": "d_E"
        }
      ],
      "start": 9.719999,
      "startOffset": 131,
      "word": "HEARD"
    },
    {
      "alignedWord": "every",
      "case": "success",
      "end": 10.27,
      "endOffset": 142,
      "phones": [
        {
          "duration": 0.1,
          "phone": "eh_B"
        },
        {
          "duration": 0.09,
          "phone": "v_I"
        },
        {
          "duration": 0.05,
          "phone": "r_I"
        },
        {
          "duration": 0.08,
          "phone": "iy_E"
        }
      ],
      "start": 9.95,
      "startOffset": 137,
      "word": "EVERY"
    },
    {
      "alignedWord": "word",
      "case": "success",
      "end": 10.54,
      "endOffset": 147,
      "phones": [
        {
          "duration": 0.12,
          "phone": "w_B"
        },
        {
          "duration": 0.07,
          "phone": "er_I"
        },
        {
          "duration": 0.08,
          "phone": "d_E"
        }
      ],
      "start": 10.27,
      "startOffset": 143,
      "word": "WORD"
    },
    {
      "alignedWord": "that",
      "case": "success",
      "end": 10.639999999999999,
      "endOffset": 152,
      "phones": [
        {
          "duration": 0.01,
          "phone": "dh_B"
        },
        {
          "duration": 0.05,
          "phone": "ah_I"
        },
        {
          "duration": 0.04,
          "phone": "t_E"
        }
      ],
      "start": 10.54,
      "startOffset": 148,
      "word": "THAT"
    },
    {
      "alignedWord": "the",
      "case": "success",
      "end": 10.729999,
      "endOffset": 156,
      "phones": [
        {
          "duration": 0.03,
          "phone": "dh_B"
        },
        {
          "duration": 0.06,
          "phone": "ah_E"
        }
      ],
      "start": 10.639999,
      "startOffset": 153,
      "word": "THE"
    },
    {
      "alignedWord": "walking",
      "case": "success",
      "end": 11.1,
      "endOffset": 164,
      "phones": [
        {
          "duration": 0.07,
          "phone": "w_B"
        },
        {
          "duration": 0.09,
          "phone": "ao_I"
        },
        {
          "duration": 0.06,
          "phone": "k_I"
        },
        {
          "duration": 0.07,
          "phone": "ih_I"
        },
        {
          "duration": 0.08,
          "phone": "ng_E"
        }
      ],
      "start": 10.73,
      "startOffset": 157,
      "word": "WALKING"
    },
    {
      "alignedWord": "stick",
      "case": "success",
      "end": 11.339999,
      "endOffset": 170,
      "phones": [
        {
          "duration": 0.04,
          "phone": "s_B"
        },
        {
          "duration": 0.07,
          "phone": "t_I"
        },
        {
          "duration": 0.04,
          "phone": "ih_I"
        },
        {
          "duration": 0.09,
          "phone": "k_E"
        }
      ],
      "start": 11.099999,
      "startOffset": 165,
      "word": "STICK"
    },
    {
      "alignedWord": "said",
      "case": "success",
      "end": 11.74,
      "endOffset": 175,
      "phones": [
        {
          "duration": 0.12,
          "phone": "s_B"
        },
        {
          "duration": 0.14,
          "phone": "eh_I"
        },
        {
          "duration": 0.14,
          "phone": "d_E"
        }
      ],
      "start": 11.34,
      "startOffset": 171,
      "word": "SAID"
    },
    {
      "alignedWord": "why",
      "case": "success",
      "end": 13.619999,
      "endOffset": 179,
      "phones": [
        {
          "duration": 0.21,
          "phone": "w_B"
        },
        {
          "duration": 0.44,
          "phone": "ay_E"
        }
      ],
      "start": 12.969999,
      "startOffset": 176,
      "word": "WHY"
    },
    {
      "alignedWord": "said",
      "case": "success",
      "end": 14.179998999999999,
      "endOffset": 184,
      "phones": [
        {
          "duration": 0.15,
          "phone": "s_B"
        },
        {
          "duration": 0.06,
          "phone": "eh_I"
        },
        {
          "duration": 0.08,
          "phone": "d_E"
        }
      ],
      "start": 13.889999,
      "startOffset": 180,
      "word": "SAID"
    },
    {
      "alignedWord": "the",
      "case": "success",
      "end": 14.249999,
      "endOffset": 188,
      "phones": [
        {
          "duration": 0.01,
          "phone": "dh_B"
        },
        {
          "duration": 0.06,
          "phone": "ah_E"
        }
      ],
      "start": 14.179999,
      "startOffset": 185,
      "word": "THE"
    },
    {
      "alignedWord": "five",
      "case": "success",
      "end": 14.54,
      "endOffset": 193,
      "phones": [
        {
          "duration": 0.1,
          "phone": "f_B"
        },
        {
          "duration": 0.1,
          "phone": "ay_I"
        },
        {
          "duration": 0.09,
          "phone": "v_E"
        }
      ],
      "start": 14.25,
      "startOffset": 189,
      "word": "FIVE"
    },
    {
      "alignedWord": "legged",
      "case": "success",
      "end": 14.79,
      "endOffset": 200,
      "phones": [
        {
          "duration": 0.04,
          "phone": "l_B"
        },
        {
          "duration": 0.06,
          "phone": "eh_I"
        },
        {
          "duration": 0.04,
          "phone": "g_I"
        },
        {
          "duration": 0.04,
          "phone": "ah_I"
        },
        {
          "duration": 0.07,
          "phone": "d_E"
        }
      ],
      "start": 14.54,
      "startOffset": 194,
      "word": "LEGGED"
    },
    {
      "alignedWord": "walking",
      "case": "success",
      "end": 15.159999999999998,
      "endOffset": 208,
      "phones": [
        {
          "duration": 0.06,
          "phone": "w_B"
        },
        {
          "duration": 0.09,
          "phone": "ao_I"
        },
        {
          "duration": 0.06,
          "phone": "k_I"
        },
        {
          "duration": 0.08,
          "phone": "ih_I"
        },
        {
          "duration": 0.08,
          "phone": "ng_E"
        }
      ],
      "start": 14.79,
      "startOffset": 201,
      "word": "WALKING"
    },
    {
      "alignedWord": "stick",
      "case": "success",
      "end": 15.55,
      "endOffset": 214,
      "phones": [
        {
          "duration": 0.07,
          "phone": "s_B"
        },
        {
          "duration": 0.07,
          "phone": "t_I"
        },
        {
          "duration": 0.09,
          "phone": "ih_I"
        },
        {
          "duration": 0.16,
          "phone": "k_E"
        }
      ],
      "start": 15.16,
      "startOffset": 209,
      "word": "STICK"
    }
  ]
}