{
  "transcript": "OFF THE GOVERNMENT LAND OF COURSE ALL HELP THEMSELVES TO WHAT THEY WANT THEN THERE ARE THE FISH AND THE CLAMS AND OYSTERS AND BUT WHAT ABOUT THE LAND FOR THE CLAIM THAT QUESTION WAS A STUMPER THE LITTLE WIFE NEVER LOST SIGHT OF THAT BARGAIN MADE BEFORE WE WERE MARRIED",
  "words": [
    {
      "alignedWord": "off",
      "case": "success",
      "end": 0.45999999999999996,
      "endOffset": 3,
      "phones": [
        {
          "duration": 0.12,
          "phone": "ao_B"
        },
        {
          "duration": 0.09,
          "phone": "f_E"
        }
      ],
      "start": 0.25,
      "startOffset": 0,
      "word": "OFF"
    },
    {
      "alignedWord": "the",
      "case": "success",
      "end": 0.5800000000000001,
      "endOffset": 7,
      "phones": [
        {
          "duration": 0.06,
          "phone": "dh_B"
        },
        {
          "duration": 0.06,
          "phone": "ah_E"
        }
      ],
      "start": 0.46,
      "startOffset": 4,
      "word": "THE"
    },
    {
      "alignedWord": "government",
      "case": "success",
      "end": 0.98,
      "endOffset": 18,
      "phones": [
        {
          "duration": 0.04,
          "phone": "g_B"
        },
        {
          "duration": 0.08,
          "phone": "ah_I"
        },
        {
          "duration": 0.07,
          "phone": "v_I"
        },
        {
          "duration": 0.03,
          "phone": "er_I"
        },
        {
          "duration": 0.05,
          "phone": "m_I"
        },
        {
          "duration": 0.05,
          "phone": "ah_I"
        },
        {
          "duration": 0.04,
          "phone": "n_I"
        },
        {
          "duration": 0.04,
          "phone": "t_E"
        }
      ],
      "start": 0.58,
      "startOffset": 8,
      "word": "GOVERNMENT"
    },
    {
      "alignedWord": "land",
      "case": "success",
      "end": 1.22,
      "endOffset": 23,
      "phones": [
        {
          "duration": 0.08,
          "phone": "l_B"
        },
        {
          "duration": 0.07,
          "phone": "ae_I"
        },
        {
          "duration": 0.07,
          "phone": "n_I"
        },
        {
          "duration": 0.02,
          "phone": "d_E"
        }
      ],
      "start": 0.98,
      "startOffset": 19,
      "word": "LAND"
    },
    {
      "alignedWord": "of",
      "case": "success",
      "end": 1.35,
      "endOffset": 26,
      "phones": [
        {
          "duration": 0.05,
          "phone": "ah_B"
        },
        {
          "duration": 0.08,
          "phone": "v_E"
        }
      ],
      "start": 1.22,
      "startOffset": 24,
      "word": "OF"
    },
    {
      "alignedWord": "course",
      "case": "success",
      "end": 1.8900000000000001,
      "endOffset": 33,
      "phones": [
        {
          "duration": 0.08,
          "phone": "k_B"
        },
        {
          "duration": 0.12,
          "phone": "ao_I"
        },
        {
          "duration": 0.1,
          "phone": "r_I"
        },
        {
          "duration": 0.24,
          "phone": "s_E"
        }
      ],
      "start": 1.35,
      "startOffset": 27,
      "word": "COURSE"
    },
    {
      "alignedWord": "all",
      "case": "success",
      "end": 2.1999999999999997,
      "endOffset": 37,
      "phones": [
        {
          "duration": 0.1,
          "phone": "ao_B"
        },
        {
          "duration": 0.07,
          "phone": "l_E"
        }
      ],
      "start": 2.03,
      "startOffset": 34,
      "word": "ALL"
    },
    {
      "alignedWord": "help",
      "case": "success",
      "end": 2.46,
      "endOffset": 42,
      "phones": [
        {
          "duration": 0.06,
          "phone": "hh_B"
        },
        {
          "duration": 0.06,
          "phone": "eh_I"
        },
        {
          "duration": 0.05,
          "phone": "l_I"
        },
        {
          "duration": 0.07,
          "phone": "p_E"
        }
      ],
      "start": 2.22,
      "startOffset": 38,
      "word": "HELP"
    },
    {
      "alignedWord": "themselves",
      "case": "success",
      "end": 3.03,
      "endOffset": 53,
      "phones": [
        {
          "duration": 0.04,
          "phone": "dh_B"
        },
        {
          "duration": 0.07,
          "phone": "ah_I"
        },
        {
          "duration": 0.08,
          "phone": "m_I"
        },
        {
          "duration": 0.1,
          "phone": "s_I"
        },
        {
          "duration": 0.1,
          "phone": "eh_I"
        },
        {
          "duration": 0.08,
          "phone": "l_I"
        },
        {
          "duration": 0.04,
          "phone": "v_I"
        },
        {
          "duration": 0.06,
          "phone": "z_E"
        }
      ],
      "start": 2.46,
      "startOffset": 43,
      "word": "THEMSELVES"
    },
    {
      "alignedWord": "to",
      "case": "success",
      "end": 3.19,
      "endOffset": 56,
      "phones": [
        {
          "duration": 0.08,
          "phone": "t_B"
        },
        {
          "duration": 0.08,
          "phone": "uw_E"
        }
      ],
      "start": 3.03,
      "startOffset": 54,
      "word": "TO"
    },
    {
      "alignedWord": "what",
      "case": "success",
      "end": 3.41,
      "endOffset": 61,
      "phones": [
        {
          "duration": 0.07,
          "phone": "w_B"
        },
        {
          "duration": 0.07,
          "phone": "ah_I"
        },
        {
          "duration": 0.08,
          "phone": "t_E"
        }
      ],
      "start": 3.19,
      "startOffset": 57,
      "word": "WHAT"
    },
    {
      "alignedWord": "they",
      "case": "success",
      "end": 3.54,
      "endOffset": 66,
      "phones": [
        {
          "duration": 0.04,
          "phone": "dh_B"
        },
        {
          "duration": 0.09,
          "phone": "ey_E"
        }
      ],
      "start": 3.41,
      "startOffset": 62,
      "word": "THEY"
    },
    {
      "alignedWord": "want",
      "case": "success",
      "end": 3.97,
      "endOffset": 71,
      "phones": [
        {
          "duration": 0.06,
          "phone": "w_B"
        },
        {
          "duration": 0.15,
          "phone": "ao_I"
        },
        {
          "duration": 0.07,
          "phone": "n_I"
        },
        {
          "duration": 0.15,
          "phone": "t_E"
        }
      ],
      "start": 3.54,
      "startOffset": 67,
      "word": "WANT"
    },
    {
      "alignedWord": "then",
      "case": "success",
      "end": 4.6000000000000005,
      "endOffset": 76,
      "phones": [
        {
          "duration": 0.09,
          "phone": "dh_B"
        },
        {
          "duration": 0.06,
          "phone": "eh_I"
        },
        {
          "duration": 0.05,
          "phone": "n_E"
        }
      ],
      "start": 4.4,
      "startOffset": 72,
      "word": "THEN"
    },
    {
      "alignedWord": "there",
      "case": "success",
      "end": 4.859999999999999,
      "endOffset": 82,
      "phones": [
        {
          "duration": 0.03,
          "phone": "dh_B"
        },
        {
          "duration": 0.05,
          "phone": "eh_I"
        },
        {
          "duration": 0.18,
          "phone": "r_E"
        }
      ],
      "start": 4.6,
      "startOffset": 77,
      "word": "THERE"
    },
    {
      "alignedWord": "are",
      "case": "success",
      "end": 4.96,
      "endOffset": 86,
      "phones": [
        {
          "duration": 0.1,
          "phone": "er_S"
        }
      ],
      "start": 4.86,
      "startOffset": 83,
      "word": "ARE"
    },
    {
      "alignedWord": "the",
      "case": "success",
      "end": 5.1,
      "endOffset": 90,
      "phones": [
        {
          "duration": 0.05,
          "phone": "dh_B"
        },
        {
          "duration": 0.09,
          "phone": "ah_E"
        }
      ],
      "start": 4.96,
      "startOffset": 87,
      "word": "THE"
    },
    {
      "alignedWord": "fish",
      "case": "success",
      "end": 5.529999999999999,
      "endOffset": 95,
      "phones": [
        {
          "duration": 0.14,
          "phone": "f_B"
        },
        {
          "duration": 0.12,
          "phone": "ih_I"
        },
        {
          "duration": 0.17,
          "phone": "sh_E"
        }
      ],
      "start": 5.1,
      "startOffset": 91,
      "word": "FISH"
    },
    {
      "alignedWord": "and",
      "case": "success",
      "end": 5.680000000000001,
      "endOffset": 99,
      "phones": [
        {
          "duration": 0.08,
          "phone": "ah_B"
        },
        {
          "duration": 0.06,
          "phone": "n_I"
        },
        {
          "duration": 0.01,
          "phone": "d_E"
        }
      ],
      "start": 5.53,
      "startOffset": 96,
      "word": "AND"
    },
    {
      "alignedWord": "the",
      "case": "success",
      "end": 5.75,
      "endOffset": 103,
      "phones": [
        {
          "duration": 0.01,
          "phone": "dh_B"
        },
        {
          "duration": 0.06,
          "phone": "ah_E"
        }
      ],
      "start": 5.68,
      "startOffset": 100,
      "word": "THE"
    },
    {
      "alignedWord": "clams",
      "case": "success",
      "end": 6.2,
      "endOffset": 109,
      "phones": [
        {
          "duration": 0.08,
          "phone": "k_B"
        },
        {
          "duration": 0.08,
          "phone": "l_I"
        },
        {
          "duration": 0.14,
          "phone": "ae_I"
        },
        {
          "duration": 0.07,
          "phone": "m_I"
        },
        {
          "duration": 0.05,
          "phone": "z_E"
        }
      ],
      "start": 5.78,
      "startOffset": 104,
      "word": "CLAMS"
    },
    {
      "alignedWord": "and",
      "case": "success",
      "end": 6.33,
      "endOffset": 113,
      "phones": [
        {
          "duration": 0.04,
          "phone": "ah_B"
        },
        {
          "duration": 0.05,
          "phone": "n_I"
        },
        {
          "duration": 0.04,
          "phone": "d_E"
        }
      ],
      "start": 6.2,
      "startOffset": 110,
      "word": "AND"
    },
    {
      "alignedWord": "oysters",
      "case": "success",
      "end": 6.91,
      "endOffset": 121,
      "phones": [
        {
          "duration": 0.19,
          "phone": "oy_B"
        },
        {
          "duration": 0.05,
          "phone": "s_I"
        },
        {
          "duration": 0.11,
          "phone": "t_I"
        },
        {
          "duration": 0.1,
          "phone": "er_I"
        },
        {
          "duration": 0.1,
          "phone": "z_E"
        }
      ],
      "start": 6.36,
      "startOffset": 114,
      "word": "OYSTERS"
    },
    {
      "alignedWord": "and",
      "case": "success",
      "end": 7.33,
      "endOffset": 125,
      "phones": [
        {
          "duration": 0.17,
          "phone": "ae_B"
        },
        {
          "duration": 0.11,
          "phone": "n_I"
        },
        {
          "duration": 0.14,
          "phone": "d_E"
        }
      ],
      "start": 6.91,
      "startOffset": 122,
      "word": "AND"
    },
    {
      "alignedWord": "but",
      "case": "success",
      "end": 7.72,
      "endOffset": 129,
      "phones": [
        {
          "duration": 0.06,
          "phone": "b_B"
        },
        {
          "duration": 0.05,
          "phone": "ah_I"
        },
        {
          "duration": 0.01,
          "phone": "t_E"
        }
      ],
      "start": 7.6,
      "startOffset": 126,
      "word": "BUT"
    },
    {
      "alignedWord": "what",
      "case": "success",
      "end": 7.93,
      "endOffset": 134,
      "phones": [
        {
          "duration": 0.01,
          "phone": "hh_B"
        },
        {
          "duration": 0.11,
          "phone": "w_I"
        },
        {
          "duration": 0.07,
          "phone": "ah_I"
        },
        {
          "duration": 0.02,
          "phone": "t_E"
        }
      ],
      "start": 7.72,
      "startOffset": 130,
      "word": "WHAT"
    },
    {
      "alignedWord": "about",
      "case": "success",
      "end": 8.219999999999999,
      "endOffset": 140,
      "phones": [
        {
          "duration": 0.05,
          "phone": "ah_B"
        },
        {
          "duration": 0.08,
          "phone": "b_I"
        },
        {
          "duration": 0.08,
          "phone": "aw_I"
        },
        {
          "duration": 0.08,
          "phone": "t_E"
        }
      ],
      "start": 7.93,
      "startOffset": 135,
      "word": "ABOUT"
    },
    {
      "alignedWord": "the",
      "case": "success",
      "end": 8.370000000000001,
      "endOffset": 144,
      "phones": [
        {
          "duration": 0.08,
          "phone": "dh_B"
        },
        {
          "duration": 0.06,
          "phone": "ah_E"
        }
      ],
      "start": 8.23,
      "startOffset": 141,
      "word": "THE"
    },
    {
      "alignedWord": "land",
      "case": "success",
      "end": 8.7,
      "endOffset": 149,
      "phones": [
        {
          "duration": 0.1,
          "phone": "l_B"
        },
        {
          "duration": 0.1,
          "phone": "ae_I"
        },
        {
          "duration": 0.06,
          "phone": "n_I"
        },
        {
          "duration": 0.07,
          "phone": "d_E"
        }
      ],
      "start": 8.37,
      "startOffset": 145,
      "word": "LAND"
    },
    {
      "alignedWord": "for",
      "case": "success",
      "end": 8.809999999999999,
      "endOffset": 153,
      "phones": [
        {
          "duration": 0.04,
          "phone": "f_B"
        },
        {
          "duration": 0.07,
          "phone": "er_E"
        }
      ],
      "start": 8.7,
      "startOffset": 150,
      "word": "FOR"
    },
    {
      "alignedWord": "the",
      "case": "success",
      "end": 8.889999,
      "endOffset": 157,
      "phones": [
        {
          "duration": 0.03,
          "phone": "dh_B"
        },
        {
          "duration": 0.05,
          "phone": "ah_E"
        }
      ],
      "start": 8.809999,
      "startOffset": 154,
      "word": "THE"
    },
    {
      "alignedWord": "claim",
      "case": "success",
      "end": 9.429998999999999,
      "endOffset": 163,
      "phones": [
        {
          "duration": 0.1,
          "phone": "k_B"
        },
        {
          "duration": 0.08,
          "phone": "l_I"
        },
        {
          "duration": 0.18,
          "phone": "ey_I"
        },
        {
          "duration": 0.18,
          "phone": "m_E"
        }
      ],
      "start": 8.889999,
      "startOffset": 158,
      "word": "CLAIM"
    },
    {
      "alignedWord": "that",
      "case": "success",
      "end": 10.139999999999999,
      "endOffset": 168,
      "phones": [
        {
          "duration": 0.08,
          "phone": "dh_B"
        },
        {
          "duration": 0.1,
          "phone": "ae_I"
        },
        {
          "duration": 0.1,
          "phone": "t_E"
        }
      ],
      "start": 9.86,
      "startOffset": 164,
      "word": "THAT"
    },
    {
      "alignedWord": "question",
      "case": "success",
      "end": 10.609999,
      "endOffset": 177,
      "phones": [
        {
          "duration": 0.08,
          "phone": "k_B"
        },
        {
          "duration": 0.03,
          "phone": "w_I"
        },
        {
          "duration": 0.08,
          "phone": "eh_I"
        },
        {
          "duration": 0.07,
          "phone": "s_I"
        },
        {
          "duration": 0.06,
          "phone": "ch_I"
        },
        {
          "duration": 0.06,
          "phone": "ah_I"
        },
        {
          "duration": 0.09,
          "phone": "n_E"
        }
      ],
      "start": 10.139999,
      "startOffset": 169,
      "word": "QUESTION"
    },
    {
      "alignedWord": "was",
      "case": "success",
      "end": 10.78,
      "endOffset": 181,
      "phones": [
        {
          "duration": 0.05,
          "phone": "w_B"
        },
        {
          "duration": 0.06,
          "phone": "ah_I"
        },
        {
          "duration": 0.06,
          "phone": "z_E"
        }
      ],
      "start": 10.61,
      "startOffset": 178,
      "word": "WAS"
    },
    {
      "alignedWord": "a",
      "case": "success",
      "end": 10.87,
      "endOffset": 183,
      "phones": [
        {
          "duration": 0.09,
          "phone": "ah_S"
        }
      ],
      "start": 10.78,
      "startOffset": 182,
      "word": "A"
    },
    {
      "alignedWord": "<unk>",
      "case": "success",
      "end": 11.44,
      "endOffset": 191,
      "phones": [
        {
          "duration": 0.57,
          "phone": "oov_S"
        }
      ],
      "start": 10.87,
      "startOffset": 184,
      "word": "STUMPER"
    },
    {
      "alignedWord": "the",
      "case": "success",
      "end": 11.959999,
      "endOffset": 195,
      "phones": [
        {
          "duration": 0.08,
          "phone": "dh_B"
        },
        {
          "duration": 0.07,
          "phone": "ah_E"
        }
      ],
      "start": 11.809999,
      "startOffset": 192,
      "word": "THE"
    },
    {
      "alignedWord": "little",
      "case": "success",
      "end": 12.190000000000001,
      "endOffset": 202,
      "phones": [
        {
          "duration": 0.09,
          "phone": "l_B"
        },
        {
          "duration": 0.04,
          "phone": "ih_I"
        },
        {
          "duration": 0.04,
          "phone": "t_I"
        },
        {
          "duration": 0.03,
          "phone": "ah_I"
        },
        {
          "duration": 0.03,
          "phone": "l_E"
        }
      ],
      "start": 11.96,
      "startOffset": 196,
      "word": "LITTLE"
    },
    {
      "alignedWord": "wife",
      "case": "success",
      "end": 12.54,
      "endOffset": 207,
      "phones": [
        {
          "duration": 0.13,
          "phone": "w_B"
        },
        {
          "duration": 0.11,
          "phone": "ay_I"
        },
        {
          "duration": 0.11,
          "phone": "f_E"
        }
      ],
      "start": 12.19,
      "startOffset": 203,
      "word": "WIFE"
    },
    {
      "alignedWord": "never",
      "case": "success",
      "end": 12.87,
      "endOffset": 213,
      "phones": [
        {
          "duration": 0.06,
          "phone": "n_B"
        },
        {
          "duration": 0.09,
          "phone": "eh_I"
        },
        {
          "duration": 0.09,
          "phone": "v_I"
        },
        {
          "duration": 0.09,
          "phone": "er_E"
        }
      ],
      "start": 12.54,
      "startOffset": 208,
      "word": "NEVER"
    },
    {
      "alignedWord": "lost",
      "case": "success",
      "end": 13.129999999999999,
      "endOffset": 218,
      "phones": [
        {
          "duration": 0.07,
          "phone": "l_B"
        },
        {
          "duration": 0.08,
          "phone": "ao_I"
        },
        {
          "duration": 0.1,
          "phone": "s_I"
        },
        {
          "duration": 0.01,
          "phone": "t_E"
        }
      ],
      "start": 12.87,
      "startOffset": 214,
      "word": "LOST"
    },
    {
      "alignedWord": "sight",
      "case": "success",
      "end": 13.47,
      "endOffset": 224,
      "phones": [
        {
          "duration": 0.14,
          "phone": "s_B"
        },
        {
          "duration": 0.14,
          "phone": "ay_I"
        },
        {
          "duration": 0.06,
          "phone": "t_E"
        }
      ],
      "start": 13.13,
      "startOffset": 219,
      "word": "SIGHT"
    },
    {
      "alignedWord": "of",
      "case": "success",
      "end": 13.64,
      "endOffset": 227,
      "phones": [
        {
          "duration": 0.08,
          "phone": "ah_B"
        },
        {
          "duration": 0.07,
          "phone": "v_E"
        }
      ],
      "start": 13.49,
      "startOffset": 225,
      "word": "OF"
    },
    {
      "alignedWord": "that",
      "case": "success",
      "end": 13.849999,
      "endOffset": 232,
      "phones": [
        {
          "duration": 0.02,
          "phone": "dh_B"
        },
        {
          "duration": 0.1,
          "phone": "ae_I"
        },
        {
          "duration": 0.09,
          "phone": "t_E"
        }
      ],
      "start": 13.639999,
      "startOffset": 228,
      "word": "THAT"
    },
    {
      "alignedWord": "bargain",
      "case": "success",
      "end": 14.289999,
      "endOffset": 240,
      "phones": [
        {
          "duration": 0.06,
          "phone": "b_B"
        },
        {
          "duration": 0.07,
          "phone": "aa_I"
        },
        {
          "duration": 0.07,
          "phone": "r_I"
        },
        {
          "duration": 0.08,
          "phone": "g_I"
        },
        {
          "duration": 0.06,
          "phone": "ah_I"
        },
        {
          "duration": 0.1,
          "phone": "n_E"
        }
      ],
      "start": 13.849999,
      "startOffset": 233,
      "word": "BARGAIN"
    },
    {
      "alignedWord": "made",
      "case": "success",
      "end": 14.569999999999999,
      "endOffset": 245,
      "phones": [
        {
          "duration": 0.07,
          "phone": "m_B"
        },
        {
          "duration": 0.14,
          "phone": "ey_I"
        },
        {
          "duration": 0.07,
          "phone": "d_E"
        }
      ],
      "start": 14.29,
      "startOffset": 241,
      "word": "MADE"
    },
    {
      "alignedWord": "before",
      "case": "success",
      "end": 14.91,
      "endOffset": 252,
      "phones": [
        {
          "duration": 0.04,
          "phone": "b_B"
        },
        {
          "duration": 0.05,
          "phone": "ih_I"
        },
        {
          "duration": 0.1,
          "phone": "f_I"
        },
        {
          "duration": 0.06,
          "phone": "ao_I"
        },
        {
          "duration": 0.09,
          "phone": "r_E"
        }
      ],
      "start": 14.57,
      "startOffset": 246,
      "word": "BEFORE"
    },
    {
      "alignedWord": "we",
      "case": "success",
      "end": 15.07,
      "endOffset": 255,
      "phones": [
        {
          "duration": 0.08,
          "phone": "w_B"
        },
        {
          "duration": 0.07,
          "phone": "iy_E"
        }
      ],
      "start": 14.92,
      "startOffset": 253,
      "word": "WE"
    },
    {
      "alignedWord": "were",
      "case": "success",
      "end": 15.21,
      "endOffset": 260,
      "phones": [
        {
          "duration": 0.08,
          "phone": "w_B"
        },
        {
          "duration": 0.06,
          "phone": "er_E"
        }
      ],
      "start": 15.07,
      "startOffset": 256,
      "word": "WERE"
    },
    {
      "alignedWord": "married",
      "case": "success",
      "end": 15.57,
      "endOffset": 268,
      "phones": [
        {
          "duration": 0.07,
          "phone": "m_B"
        },
        {
          "duration": 0.09,
          "phone": "eh_I"
        },
        {
          "duration": 0.1,
          "phone": "r_I"
        },
        {
          "duration": 0.07,
          "phone": "iy_I"
        },
        {
          "duration": 0.03,
          "phone": "d_E"
        }
      ],
      "start": 15.21,
      "startOffset": 261,
      "word": "MARRIED"
    }
  ]
}