{
  "transcript": "COMPLIMENTED MISTER PARKER IS IT ALWAYS AS EASY AS THIS STARTING ALWAYS IS WAS THE ANSWER THOUGH AS THE IRISHMAN SAID COMING DOWN ISN'T SOMETIMES QUITE SO COMFORTABLE BLESS MY GIZZARD THAT'S SO",
  "words": [
    {
      "alignedWord": "complimented",
      "case": "success",
      "end": 0.81,
      "endOffset": 12,
      "phones": [
        {
          "duration": 0.09,
          "phone": "k_B"
        },
        {
          "duration": 0.07,
          "phone": "aa_I"
        },
        {
          "duration": 0.06,
          "phone": "m_I"
        },
        {
          "duration": 0.03,
          "phone": "p_I"
        },
        {
          "duration": 0.06,
          "phone": "l_I"
        },
        {
          "duration": 0.05,
          "phone": "ah_I"
        },
        {
          "duration": 0.03,
          "phone": "m_I"
        },
        {
          "duration": 0.05,
          "phone": "eh_I"
        },
        {
          "duration": 0.06,
          "phone": "n_I"
        },
        {
          "duration": 0.04,
          "phone": "t_I"
        },
        {
          "duration": 0.06,
          "phone": "ih_I"
        },
        {
          "duration": 0.06,
          "phone": "d_E"
        }
      ],
      "start": 0.15,
      "startOffset": 0,
      "word": "COMPLIMENTED"
    },
    {
      "alignedWord": "mister",
      "case": "success",
      "end": 1.1,
      "endOffset": 19,
      "phones": [
        {
          "duration": 0.04,
          "phone": "m_B"
        },
        {
          "duration": 0.06,
          "phone": "ih_I"
        },
        {
          "duration": 0.05,
          "phone": "s_I"
        },
        {
          "duration": 0.09,
          "phone": "t_I"
        },
        {
          "duration": 0.05,
          "phone": "er_E"
        }
      ],
      "start": 0.81,
      "startOffset": 13,
      "word": "MISTER"
    },
    {
      "alignedWord": "parker",
      "case": "success",
      "end": 1.6300000000000001,
      "endOffset": 26,
      "phones": [
        {
          "duration": 0.08,
          "phone": "p_B"
        },
        {
          "duration": 0.07,
          "phone": "aa_I"
        },
        {
          "duration": 0.08,
          "phone": "r_I"
        },
        {
          "duration": 0.1,
          "phone": "k_I"
        },
        {
          "duration": 0.2,
          "phone": "er_E"
        }
      ],
      "start": 1.1,
      "startOffset": 20,
      "word": "PARKER"
    },
    {
      "alignedWord": "is",
      "case": "success",
      "end": 2.2,
      "endOffset": 29,
      "phones": [
        {
          "duration": 0.09,
          "phone": "ih_B"
        },
        {
          "duration": 0.11,
          "phone": "z_E"
        }
      ],
      "start": 2.0,
      "startOffset": 27,
      "word": "IS"
    },
    {
      "alignedWord": "it",
      "case": "success",
      "end": 2.45,
      "endOffset": 32,
      "phones": [
        {
          "duration": 0.13,
          "phone": "ih_B"
        },
        {
          "duration": 0.12,
          "phone": "t_E"
        }
      ],
      "start": 2.2,
      "startOffset": 30,
      "word": "IT"
    },
    {
      "alignedWord": "always",
      "case": "success",
      "end": 2.9699999999999998,
      "endOffset": 39,
      "phones": [
        {
          "duration": 0.15,
          "phone": "ao_B"
        },
        {
          "duration": 0.07,
          "phone": "l_I"
        },
        {
          "duration": 0.08,
          "phone": "w_I"
        },
        {
          "duration": 0.1,
          "phone": "iy_I"
        },
        {
          "duration": 0.09,
          "phone": "z_E"
        }
      ],
      "start": 2.48,
      "startOffset": 33,
      "word": "ALWAYS"
    },
    {
      "alignedWord": "as",
      "case": "success",
      "end": 3.18,
      "endOffset": 42,
      "phones": [
        {
          "duration": 0.09,
          "phone": "eh_B"
        },
        {
          "duration": 0.12,
          "phone": "z_E"
        }
      ],
      "start": 2.97,
      "startOffset": 40,
      "word": "AS"
    },
    {
      "alignedWord": "easy",
      "case": "success",
      "end": 3.56,
      "endOffset": 47,
      "phones": [
        {
          "duration": 0.18,
          "phone": "iy_B"
        },
        {
          "duration": 0.11,
          "phone": "z_I"
        },
        {
          "duration": 0.07,
          "phone": "iy_E"
        }
      ],
      "start": 3.2,
      "startOffset": 43,
      "word": "EASY"
    },
    {
      "alignedWord": "as",
      "case": "success",
      "end": 3.69,
      "endOffset": 50,
      "phones": [
        {
          "duration": 0.06,
          "phone": "eh_B"
        },
        {
          "duration": 0.07,
          "phone": "z_E"
        }
      ],
      "start": 3.56,
      "startOffset": 48,
      "word": "AS"
    },
    {
      "alignedWord": "this",
      "case": "success",
      "end": 4.1,
      "endOffset": 55,
      "phones": [
        {
          "duration": 0.05,
          "phone": "dh_B"
        },
        {
          "duration": 0.12,
          "phone": "ih_I"
        },
        {
          "duration": 0.24,
          "phone": "s_E"
        }
      ],
      "start": 3.69,
      "startOffset": 51,
      "word": "THIS"
    },
    {
      "alignedWord": "starting",
      "case": "success",
      "end": 5.069999999999999,
      "endOffset": 64,
      "phones": [
        {
          "duration": 0.12,
          "phone": "s_B"
        },
        {
          "duration": 0.06,
          "phone": "t_I"
        },
        {
          "duration": 0.09,
          "phone": "aa_I"
        },
        {
          "duration": 0.04,
          "phone": "r_I"
        },
        {
          "duration": 0.05,
          "phone": "t_I"
        },
        {
          "duration": 0.06,
          "phone": "ih_I"
        },
        {
          "duration": 0.09,
          "phone": "ng_E"
        }
      ],
      "start": 4.56,
      "startOffset": 56,
      "word": "STARTING"
    },
    {
      "alignedWord": "always",
      "case": "success",
      "end": 5.44,
      "endOffset": 71,
      "phones": [
        {
          "duration": 0.08,
          "phone": "ao_B"
        },
        {
          "duration": 0.04,
          "phone": "l_I"
        },
        {
          "duration": 0.08,
          "phone": "w_I"
        },
        {
          "duration": 0.08,
          "phone": "iy_I"
        },
        {
          "duration": 0.09,
          "phone": "z_E"
        }
      ],
      "start": 5.07,
      "startOffset": 65,
      "word": "ALWAYS"
    },
    {
      "alignedWord": "is",
      "case": "success",
      "end": 5.91,
      "endOffset": 74,
      "phones": [
        {
          "duration": 0.22,
          "phone": "ih_B"
        },
        {
          "duration": 0.25,
          "phone": "z_E"
        }
      ],
      "start": 5.44,
      "startOffset": 72,
      "word": "IS"
    },
    {
      "alignedWord": "was",
      "case": "success",
      "end": 6.279999999999999,
      "endOffset": 78,
      "phones": [
        {
          "duration": 0.11,
          "phone": "w_B"
        },
        {
          "duration": 0.07,
          "phone": "ah_I"
        },
        {
          "duration": 0.09,
          "phone": "z_E"
        }
      ],
      "start": 6.01,
      "startOffset": 75,
      "word": "WAS"
    },
    {
      "alignedWord": "the",
      "case": "success",
      "end": 6.45,
      "endOffset": 82,
      "phones": [
        {
          "duration": 0.06,
          "phone": "dh_B"
        },
        {
          "duration": 0.11,
          "phone": "iy_E"
        }
      ],
      "start": 6.28,
      "startOffset": 79,
      "word": "THE"
    },
    {
      "alignedWord": "answer",
      "case": "success",
      "end": 6.92,
      "endOffset": 89,
      "phones": [
        {
          "duration": 0.07,
          "phone": "ae_B"
        },
        {
          "duration": 0.1,
          "phone": "n_I"
        },
        {
          "duration": 0.1,
          "phone": "s_I"
        },
        {
          "duration": 0.2,
          "phone": "er_E"
        }
      ],
      "start": 6.45,
      "startOffset": 83,
      "word": "ANSWER"
    },
    {
      "alignedWord": "though",
      "case": "success",
      "end": 7.49,
      "endOffset": 96,
      "phones": [
        {
          "duration": 0.11,
          "phone": "dh_B"
        },
        {
          "duration": 0.21,
          "phone": "ow_E"
        }
      ],
      "start": 7.17,
      "startOffset": 90,
      "word": "THOUGH"
    },
    {
      "alignedWord": "as",
      "case": "success",
      "end": 7.66,
      "endOffset": 99,
      "phones": [
        {
          "duration": 0.08,
          "phone": "eh_B"
        },
        {
          "duration": 0.09,
          "phone": "z_E"
        }
      ],
      "start": 7.49,
      "startOffset": 97,
      "word": "AS"
    },
    {
      "alignedWord": "the",
      "case": "success",
      "end": 7.82,
      "endOffset": 103,
      "phones": [
        {
          "duration": 0.06,
          "phone": "dh_B"
        },
        {
          "duration": 0.1,
          "phone": "iy_E"
        }
      ],
      "start": 7.66,
      "startOffset": 100,
      "word": "THE"
    },
    {
      "alignedWord": "irishman",
      "case": "success",
      "end": 8.39,
      "endOffset": 112,
      "phones": [
        {
          "duration": 0.14,
          "phone": "ay_B"
        },
        {
          "duration": 0.05,
          "phone": "r_I"
        },
        {
          "duration": 0.09,
          "phone": "ih_I"
        },
        {
          "duration": 0.08,
          "phone": "sh_I"
        },
        {
          "duration": 0.05,
          "phone": "m_I"
        },
        {
          "duration": 0.07,
          "phone": "ah_I"
        },
        {
          "duration": 0.09,
          "phone": "n_E"
        }
      ],
      "start": 7.82,
      "startOffset": 104,
      "word": "IRISHMAN"
    },
    {
      "alignedWord": "said",
      "case": "success",
      "end": 8.769999,
      "endOffset": 117,
      "phones": [
        {
          "duration": 0.13,
          "phone": "s_B"
        },
        {
          "duration": 0.14,
          "phone": "eh_I"
        },
        {
          "duration": 0.11,
          "phone": "d_E"
        }
      ],
      "start": 8.389999,
      "startOffset": 113,
      "word": "SAID"
    },
    {
      "alignedWord": "coming",
      "case": "success",
      "end": 9.11,
      "endOffset": 124,
      "phones": [
        {
          "duration": 0.06,
          "phone": "k_B"
        },
        {
          "duration": 0.07,
          "phone": "ah_I"
        },
        {
          "duration": 0.06,
          "phone": "m_I"
        },
        {
          "duration": 0.07,
          "phone": "ih_I"
        },
        {
          "duration": 0.08,
          "phone": "ng_E"
        }
      ],
      "start": 8.77,
      "startOffset": 118,
      "word": "COMING"
    },
    {
      "alignedWord": "down",
      "case": "success",
      "end": 9.6,
      "endOffset": 129,
      "phones": [
        {
          "duration": 0.07,
          "phone": "d_B"
        },
        {
          "duration": 0.25,
          "phone": "aw_I"
        },
        {
          "duration": 0.17,
          "phone": "n_E"
        }
      ],
      "start": 9.11,
      "startOffset": 125,
      "word": "DOWN"
    },
    {
      "alignedWord": "isn't",
      "case": "success",
      "end": 10.06,
      "endOffset": 135,
      "phones": [
        {
          "duration": 0.15,
          "phone": "ih_B"
        },
        {
          "duration": 0.06,
          "phone": "z_I"
        },
        {
          "duration": 0.05,
          "phone": "ah_I"
        },
        {
          "duration": 0.07,
          "phone": "n_I"
        },
        {
          "duration": 0.06,
          "phone": "t_E"
        }
      ],
      "start": 9.67,
      "startOffset": 130,
      "word": "ISN'T"
    },
    {
      "alignedWord": "sometimes",
      "case": "success",
      "end": 10.780000000000001,
      "endOffset": 145,
      "phones": [
        {
          "duration": 0.13,
          "phone": "s_B"
        },
        {
          "duration": 0.09,
          "phone": "ah_I"
        },
        {
          "duration": 0.09,
          "phone": "m_I"
        },
        {
          "duration": 0.09,
          "phone": "t_I"
        },
        {
          "duration": 0.12,
          "phone": "ay_I"
        },
        {
          "duration": 0.09,
          "phone": "m_I"
        },
        {
          "duration": 0.1,
          "phone": "z_E"
        }
      ],
      "start": 10.07,
      "startOffset": 136,
      "word": "SOMETIMES"
    },
    {
      "alignedWord": "quite",
      "case": "success",
      "end": 11.11,
      "endOffset": 151,
      "phones": [
        {
          "duration": 0.1,
          "phone": "k_B"
        },
        {
          "duration": 0.06,
          "phone": "w_I"
        },
        {
          "duration": 0.08,
          "phone": "ay_I"
        },
        {
          "duration": 0.09,
          "phone": "t_E"
        }
      ],
      "start": 10.78,
      "startOffset": 146,
      "word": "QUITE"
    },
    {
      "alignedWord": "so",
      "case": "success",
      "end": 11.309999999999999,
      "endOffset": 154,
      "phones": [
        {
          "duration": 0.1,
          "phone": "s_B"
        },
        {
          "duration": 0.1,
          "phone": "ow_E"
        }
      ],
      "start": 11.11,
      "startOffset": 152,
      "word": "SO"
    },
    {
      "alignedWord": "comfortable",
      "case": "success",
      "end": 11.999998999999999,
      "endOffset": 166,
      "phones": [
        {
          "duration": 0.08,
          "phone": "k_B"
        },
        {
          "duration": 0.08,
          "phone": "ah_I"
        },
        {
          "duration": 0.05,
          "phone": "m_I"
        },
        {
          "duration": 0.01,
          "phone": "f_I"
        },
        {
          "duration": 0.11,
          "phone": "er_I"
        },
        {
          "duration": 0.01,
          "phone": "t_I"
        },
        {
          "duration": 0.06,
          "phone": "ah_I"
        },
        {
          "duration": 0.04,
          "phone": "b_I"
        },
        {
          "duration": 0.05,
          "phone": "ah_I"
        },
        {
          "duration": 0.2,
          "phone": "l_E"
        }
      ],
      "start": 11.309999,
      "startOffset": 155,
      "word": "COMFORTABLE"
    },
    {
      "alignedWord": "bless",
      "case": "success",
      "end": 12.95,
      "endOffset": 172,
      "phones": [
        {
          "duration": 0.08,
          "phone": "b_B"
        },
        {
          "duration": 0.11,
          "phone": "l_I"
        },
        {
          "duration": 0.12,
          "phone": "eh_I"
        },
        {
          "duration": 0.14,
          "phone": "s_E"
        }
      ],
      "start": 12.5,
      "startOffset": 167,
      "word": "BLESS"
    },
    {
      "alignedWord": "my",
      "case": "success",
      "end": 13.419998999999999,
      "endOffset": 175,
      "phones": [
        {
          "duration": 0.14,
          "phone": "m_B"
        },
        {
          "duration": 0.31,
          "phone": "ay_E"
        }
      ],
      "start": 12.969999,
      "startOffset": 173,
      "word": "MY"
    },
    {
      "alignedWord": "<unk>",
      "case": "success",
      "end": 13.949999,
      "endOffset": 183,
      "phones": [
        {
          "duration": 0.48,
          "phone": "oov_S"
        }
      ],
      "start": 13.469999,
      "startOffset": 176,
      "word": "GIZZARD"
    },
    {
      "alignedWord": "that's",
      "case": "success",
      "end": 14.38,
      "endOffset": 190,
      "phones": [
        {
          "duration": 0.01,
          "phone": "dh_B"
        },
        {
          "duration": 0.01,
          "phone": "ae_I"
        },
        {
          "duration": 0.07,
          "phone": "t_I"
        },
        {
          "duration": 0.14,
          "phone": "s_E"
        }
      ],
      "start": 14.15,
      "startOffset": 184,
      "word": "THAT'S"
    },
    {
      "alignedWord": "so",
      "case": "success",
      "end": 14.669998999999999,
      "endOffset": 193,
      "phones": [
        {
          "duration": 0.04,
          "phone": "s_B"
        },
        {
          "duration": 0.24,
          "phone": "ow_E"
        }
      ],
      "start": 14.389999,
      "startOffset": 191,
      "word": "SO"
    }
  ]
}