{
  "transcript": "BUT NO SOONER HAD THE YOUNG INVENTOR SENT OFF THE FIRST FEW DOTS AND DASHES REPRESENTING S I HIS HOME STATION CALL THAN HE STARTED AND A LOOK OF SURPRISE CAME OVER HIS FACE THEY'RE CALLING US HE EXCLAIMED WHO IS",
  "words": [
    {
      "alignedWord": "but",
      "case": "success",
      "end": 0.45,
      "endOffset": 3,
      "phones": [
        {
          "duration": 0.06,
          "phone": "b_B"
        },
        {
          "duration": 0.05,
          "phone": "ah_I"
        },
        {
          "duration": 0.07,
          "phone": "t_E"
        }
      ],
      "start": 0.27,
      "startOffset": 0,
      "word": "BUT"
    },
    {
      "alignedWord": "no",
      "case": "success",
      "end": 0.64,
      "endOffset": 6,
      "phones": [
        {
          "duration": 0.06,
          "phone": "n_B"
        },
        {
          "duration": 0.13,
          "phone": "ow_E"
        }
      ],
      "start": 0.45,
      "startOffset": 4,
      "word": "NO"
    },
    {
      "alignedWord": "sooner",
      "case": "success",
      "end": 1.08,
      "endOffset": 13,
      "phones": [
        {
          "duration": 0.17,
          "phone": "s_B"
        },
        {
          "duration": 0.15,
          "phone": "uw_I"
        },
        {
          "duration": 0.01,
          "phone": "n_I"
        },
        {
          "duration": 0.11,
          "phone": "er_E"
        }
      ],
      "start": 0.64,
      "startOffset": 7,
      "word": "SOONER"
    },
    {
      "alignedWord": "had",
      "case": "success",
      "end": 1.25,
      "endOffset": 17,
      "phones": [
        {
          "duration": 0.08,
          "phone": "hh_B"
        },
        {
          "duration": 0.02,
          "phone": "ae_I"
        },
        {
          "duration": 0.06,
          "phone": "d_E"
        }
      ],
      "start": 1.09,
      "startOffset": 14,
      "word": "HAD"
    },
    {
      "alignedWord": "the",
      "case": "success",
      "end": 1.34,
      "endOffset": 21,
      "phones": [
        {
          "duration": 0.03,
          "phone": "dh_B"
        },
        {
          "duration": 0.06,
          "phone": "iy_E"
        }
      ],
      "start": 1.25,
      "startOffset": 18,
      "word": "THE"
    },
    {
      "alignedWord": "young",
      "case": "success",
      "end": 1.57,
      "endOffset": 27,
      "phones": [
        {
          "duration": 0.09,
          "phone": "y_B"
        },
        {
          "duration": 0.1,
          "phone": "ah_I"
        },
        {
          "duration": 0.04,
          "phone": "ng_E"
        }
      ],
      "start": 1.34,
      "startOffset": 22,
      "word": "YOUNG"
    },
    {
      "alignedWord": "inventor",
      "case": "success",
      "end": 2.0300000000000002,
      "endOffset": 36,
      "phones": [
        {
          "duration": 0.05,
          "phone": "ih_B"
        },
        {
          "duration": 0.07,
          "phone": "n_I"
        },
        {
          "duration": 0.07,
          "phone": "v_I"
        },
        {
          "duration": 0.06,
          "phone": "eh_I"
        },
        {
          "duration": 0.07,
          "phone": "n_I"
        },
        {
          "duration": 0.08,
          "phone": "t_I"
        },
        {
          "duration": 0.06,
          "phone": "er_E"
        }
      ],
      "start": 1.57,
      "startOffset": 28,
      "word": "INVENTOR"
    },
    {
      "alignedWord": "sent",
      "case": "success",
      "end": 2.3299999999999996,
      "endOffset": 41,
      "phones": [
        {
          "duration": 0.11,
          "phone": "s_B"
        },
        {
          "duration": 0.06,
          "phone": "eh_I"
        },
        {
          "duration": 0.07,
          "phone": "n_I"
        },
        {
          "duration": 0.06,
          "phone": "t_E"
        }
      ],
      "start": 2.03,
      "startOffset": 37,
      "word": "SENT"
    },
    {
      "alignedWord": "off",
      "case": "success",
      "end": 2.54,
      "endOffset": 45,
      "phones": [
        {
          "duration": 0.12,
          "phone": "ao_B"
        },
        {
          "duration": 0.09,
          "phone": "f_E"
        }
      ],
      "start": 2.33,
      "startOffset": 42,
      "word": "OFF"
    },
    {
      "alignedWord": "the",
      "case": "success",
      "end": 2.67,
      "endOffset": 49,
      "phones": [
        {
          "duration": 0.06,
          "phone": "dh_B"
        },
        {
          "duration": 0.06,
          "phone": "ah_E"
        }
      ],
      "start": 2.55,
      "startOffset": 46,
      "word": "THE"
    },
    {
      "alignedWord": "first",
      "case": "success",
      "end": 3.01,
      "endOffset": 55,
      "phones": [
        {
          "duration": 0.1,
          "phone": "f_B"
        },
        {
          "duration": 0.11,
          "phone": "er_I"
        },
        {
          "duration": 0.08,
          "phone": "s_I"
        },
        {
          "duration": 0.05,
          "phone": "t_E"
        }
      ],
      "start": 2.67,
      "startOffset": 50,
      "word": "FIRST"
    },
    {
      "alignedWord": "few",
      "case": "success",
      "end": 3.23,
      "endOffset": 59,
      "phones": [
        {
          "duration": 0.07,
          "phone": "f_B"
        },
        {
          "duration": 0.05,
          "phone": "y_I"
        },
        {
          "duration": 0.1,
          "phone": "uw_E"
        }
      ],
      "start": 3.01,
      "startOffset": 56,
      "word": "FEW"
    },
    {
      "alignedWord": "dots",
      "case": "success",
      "end": 3.59,
      "endOffset": 64,
      "phones": [
        {
          "duration": 0.1,
          "phone": "d_B"
        },
        {
          "duration": 0.12,
          "phone": "aa_I"
        },
        {
          "duration": 0.08,
          "phone": "t_I"
        },
        {
          "duration": 0.06,
          "phone": "s_E"
        }
      ],
      "start": 3.23,
      "startOffset": 60,
      "word": "DOTS"
    },
    {
      "alignedWord": "and",
      "case": "success",
      "end": 3.75,
      "endOffset": 68,
      "phones": [
        {
          "duration": 0.05,
          "phone": "ah_B"
        },
        {
          "duration": 0.07,
          "phone": "n_I"
        },
        {
          "duration": 0.04,
          "phone": "d_E"
        }
      ],
      "start": 3.59,
      "startOffset": 65,
      "word": "AND"
    },
    {
      "alignedWord": "dashes",
      "case": "success",
      "end": 4.33,
      "endOffset": 75,
      "phones": [
        {
          "duration": 0.09,
          "phone": "d_B"
        },
        {
          "duration": 0.15,
          "phone": "ae_I"
        },
        {
          "duration": 0.11,
          "phone": "sh_I"
        },
        {
          "duration": 0.1,
          "phone": "ih_I"
        },
        {
          "duration": 0.13,
          "phone": "z_E"
        }
      ],
      "start": 3.75,
      "startOffset": 69,
      "word": "DASHES"
    },
    {
      "alignedWord": "representing",
      "case": "success",
      "end": 5.0,
      "endOffset": 88,
      "phones": [
        {
          "duration": 0.06,
          "phone": "r_B"
        },
        {
          "duration": 0.04,
          "phone": "eh_I"
        },
        {
          "duration": 0.07,
          "phone": "p_I"
        },
        {
          "duration": 0.01,
          "phone": "r_I"
        },
        {
          "duration": 0.09,
          "phone": "ih_I"
        },
        {
          "duration": 0.06,
          "phone": "z_I"
        },
        {
          "duration": 0.05,
          "phone": "eh_I"
        },
        {
          "duration": 0.07,
          "phone": "n_I"
        },
        {
          "duration": 0.06,
          "phone": "t_I"
        },
        {
          "duration": 0.06,
          "phone": "ih_I"
        },
        {
          "duration": 0.1,
          "phone": "ng_E"
        }
      ],
      "start": 4.33,
      "startOffset": 76,
      "word": "REPRESENTING"
    },
    {
      "alignedWord": "s",
      "case": "success",
      "end": 5.42,
      "endOffset": 90,
      "phones": [
        {
          "duration": 0.19,
          "phone": "eh_B"
        },
        {
          "duration": 0.19,
          "phone": "s_E"
        }
      ],
      "start": 5.04,
      "startOffset": 89,
      "word": "S"
    },
    {
      "alignedWord": "i",
      "case": "success",
      "end": 6.03,
      "endOffset": 92,
      "phones": [
        {
          "duration": 0.54,
          "phone": "ay_S"
        }
      ],
      "start": 5.49,
      "startOffset": 91,
      "word": "I"
    },
    {
      "alignedWord": "his",
      "case": "success",
      "end": 6.32,
      "endOffset": 96,
      "phones": [
        {
          "duration": 0.07,
          "phone": "hh_B"
        },
        {
          "duration": 0.05,
          "phone": "ih_I"
        },
        {
          "duration": 0.07,
          "phone": "z_E"
        }
      ],
      "start": 6.13,
      "startOffset": 93,
      "word": "HIS"
    },
    {
      "alignedWord": "home",
      "case": "success",
      "end": 6.53,
      "endOffset": 101,
      "phones": [
        {
          "duration": 0.06,
          "phone": "hh_B"
        },
        {
          "duration": 0.08,
          "phone": "ow_I"
        },
        {
          "duration": 0.07,
          "phone": "m_E"
        }
      ],
      "start": 6.32,
      "startOffset": 97,
      "word": "HOME"
    },
    {
      "alignedWord": "station",
      "case": "success",
      "end": 7.0200000000000005,
      "endOffset": 109,
      "phones": [
        {
          "duration": 0.09,
          "phone": "s_B"
        },
        {
          "duration": 0.09,
          "phone": "t_I"
        },
        {
          "duration": 0.08,
          "phone": "ey_I"
        },
        {
          "duration": 0.09,
          "phone": "sh_I"
        },
        {
          "duration": 0.05,
          "phone": "ah_I"
        },
        {
          "duration": 0.09,
          "phone": "n_E"
        }
      ],
      "start": 6.53,
      "startOffset": 102,
      "word": "STATION"
    },
    {
      "alignedWord": "call",
      "case": "success",
      "end": 7.42,
      "endOffset": 114,
      "phones": [
        {
          "duration": 0.08,
          "phone": "k_B"
        },
        {
          "duration": 0.11,
          "phone": "ao_I"
        },
        {
          "duration": 0.21,
          "phone": "l_E"
        }
      ],
      "start": 7.02,
      "startOffset": 110,
      "word": "CALL"
    },
    {
      "alignedWord": "than",
      "case": "success",
      "end": 7.92,
      "endOffset": 119,
      "phones": [
        {
          "duration": 0.06,
          "phone": "dh_B"
        },
        {
          "duration": 0.06,
          "phone": "ah_I"
        },
        {
          "duration": 0.05,
          "phone": "n_E"
        }
      ],
      "start": 7.75,
      "startOffset": 115,
      "word": "THAN"
    },
    {
      "alignedWord": "he",
      "case": "success",
      "end": 8.08,
      "endOffset": 122,
      "phones": [
        {
          "duration": 0.06,
          "phone": "hh_B"
        },
        {
          "duration": 0.1,
          "phone": "iy_E"
        }
      ],
      "start": 7.92,
      "startOffset": 120,
      "word": "HE"
    },
    {
      "alignedWord": "started",
      "case": "success",
      "end": 8.809999000000001,
      "endOffset": 130,
      "phones": [
        {
          "duration": 0.16,
          "phone": "s_B"
        },
        {
          "duration": 0.07,
          "phone": "t_I"
        },
        {
          "duration": 0.11,
          "phone": "aa_I"
        },
        {
          "duration": 0.06,
          "phone": "r_I"
        },
        {
          "duration": 0.07,
          "phone": "t_I"
        },
        {
          "duration": 0.07,
          "phone": "ih_I"
        },
        {
          "duration": 0.17,
          "phone": "d_E"
        }
      ],
      "start": 8.099999,
      "startOffset": 123,
      "word": "STARTED"
    },
    {
      "alignedWord": "and",
      "case": "success",
      "end": 9.27,
      "endOffset": 134,
      "phones": [
        {
          "duration": 0.05,
          "phone": "ae_B"
        },
        {
          "duration": 0.04,
          "phone": "n_I"
        },
        {
          "duration": 0.03,
          "phone": "d_E"
        }
      ],
      "start": 9.15,
      "startOffset": 131,
      "word": "AND"
    },
    {
      "alignedWord": "a",
      "case": "success",
      "end": 9.299999999999999,
      "endOffset": 136,
      "phones": [
        {
          "duration": 0.03,
          "phone": "ah_S"
        }
      ],
      "start": 9.27,
      "startOffset": 135,
      "word": "A"
    },
    {
      "alignedWord": "look",
      "case": "success",
      "end": 9.49,
      "endOffset": 141,
      "phones": [
        {
          "duration": 0.1,
          "phone": "l_B"
        },
        {
          "duration": 0.04,
          "phone": "uh_I"
        },
        {
          "duration": 0.05,
          "phone": "k_E"
        }
      ],
      "start": 9.3,
      "startOffset": 137,
      "word": "LOOK"
    },
    {
      "alignedWord": "of",
      "case": "success",
      "end": 9.61,
      "endOffset": 144,
      "phones": [
        {
          "duration": 0.05,
          "phone": "ah_B"
        },
        {
          "duration": 0.07,
          "phone": "v_E"
        }
      ],
      "start": 9.49,
      "startOffset": 142,
      "word": "OF"
    },
    {
      "alignedWord": "surprise",
      "case": "success",
      "end": 10.26,
      "endOffset": 153,
      "phones": [
        {
          "duration": 0.05,
          "phone": "s_B"
        },
        {
          "duration": 0.07,
          "phone": "ah_I"
        },
        {
          "duration": 0.12,
          "phone": "p_I"
        },
        {
          "duration": 0.1,
          "phone": "r_I"
        },
        {
          "duration": 0.2,
          "phone": "ay_I"
        },
        {
          "duration": 0.11,
          "phone": "z_E"
        }
      ],
      "start": 9.61,
      "startOffset": 145,
      "word": "SURPRISE"
    },
    {
      "alignedWord": "came",
      "case": "success",
      "end": 10.49,
      "endOffset": 158,
      "phones": [
        {
          "duration": 0.08,
          "phone": "k_B"
        },
        {
          "duration": 0.06,
          "phone": "ey_I"
        },
        {
          "duration": 0.07,
          "phone": "m_E"
        }
      ],
      "start": 10.28,
      "startOffset": 154,
      "word": "CAME"
    },
    {
      "alignedWord": "over",
      "case": "success",
      "end": 10.71,
      "endOffset": 163,
      "phones": [
        {
          "duration": 0.06,
          "phone": "ow_B"
        },
        {
          "duration": 0.12,
          "phone": "v_I"
        },
        {
          "duration": 0.04,
          "phone": "er_E"
        }
      ],
      "start": 10.49,
      "startOffset": 159,
      "word": "OVER"
    },
    {
      "alignedWord": "his",
      "case": "success",
      "end": 10.91,
      "endOffset": 167,
      "phones": [
        {
          "duration": 0.05,
          "phone": "hh_B"
        },
        {
          "duration": 0.05,
          "phone": "ih_I"
        },
        {
          "duration": 0.1,
          "phone": "z_E"
        }
      ],
      "start": 10.71,
      "startOffset": 164,
      "word": "HIS"
    },
    {
      "alignedWord": "face",
      "case": "success",
      "end": 11.48,
      "endOffset": 172,
      "phones": [
        {
          "duration": 0.14,
          "phone": "f_B"
        },
        {
          "duration": 0.18,
          "phone": "ey_I"
        },
        {
          "duration": 0.25,
          "phone": "s_E"
        }
      ],
      "start": 10.91,
      "startOffset": 168,
      "word": "FACE"
    },
    {
      "alignedWord": "they're",
      "case": "success",
      "end": 12.459999999999999,
      "endOffset": 180,
      "phones": [
        {
          "duration": 0.11,
          "phone": "dh_B"
        },
        {
          "duration": 0.14,
          "phone": "eh_I"
        },
        {
          "duration": 0.18,
          "phone": "r_E"
        }
      ],
      "start": 12.03,
      "startOffset": 173,
      "word": "THEY'RE"
    },
    {
      "alignedWord": "calling",
      "case": "success",
      "end": 13.1,
      "endOffset": 188,
      "phones": [
        {
          "duration": 0.12,
          "phone": "k_B"
        },
        {
          "duration": 0.1,
          "phone": "ao_I"
        },
        {
          "duration": 0.08,
          "phone": "l_I"
        },
        {
          "duration": 0.09,
          "phone": "ih_I"
        },
        {
          "duration": 0.13,
          "phone": "ng_E"
        }
      ],
      "start": 12.58,
      "startOffset": 181,
      "word": "CALLING"
    },
    {
      "alignedWord": "us",
      "case": "success",
      "end": 13.73,
      "endOffset": 191,
      "phones": [
        {
          "duration": 0.25,
          "phone": "ah_B"
        },
        {
          "duration": 0.33,
          "phone": "s_E"
        }
      ],
      "start": 13.15,
      "startOffset": 189,
      "word": "US"
    },
    {
      "alignedWord": "he",
      "case": "success",
      "end": 14.16,
      "endOffset": 194,
      "phones": [
        {
          "duration": 0.11,
          "phone": "hh_B"
        },
        {
          "duration": 0.07,
          "phone": "iy_E"
        }
      ],
      "start": 13.98,
      "startOffset": 192,
      "word": "HE"
    },
    {
      "alignedWord": "<unk>",
      "case": "success",
      "end": 14.83,
      "endOffset": 204,
      "phones": [
        {
          "duration": 0.67,
          "phone": "oov_S"
        }
      ],
      "start": 14.16,
      "startOffset": 195,
      "word": "EXCLAIMED"
    },
    {
      "alignedWord": "who",
      "case": "success",
      "end": 15.57,
      "endOffset": 208,
      "phones": [
        {
          "duration": 0.08,
          "phone": "hh_B"
        },
        {
          "duration": 0.13,
          "phone": "uw_E"
        }
      ],
      "start": 15.36,
      "startOffset": 205,
      "word": "WHO"
    },
    {
      "alignedWord": "is",
      "case": "success",
      "end": 15.950000000000001,
      "endOffset": 211,
      "phones": [
        {
          "duration": 0.14,
          "phone": "ih_B"
        },
        {
          "duration": 0.24,
          "phone": "z_E"
        }
      ],
      "start": 15.57,
      "startOffset": 209,
      "word": "IS"
    }
  ]
}