{
  "transcript": "WHO WAS BEING BROUGHT UP BY HER GODMOTHER THE FAIRY SOUSSIO HER NAME WAS TROUTINA BECAUSE HER COMPLEXION WAS ALL SPOTTED LIKE A TROUT'S BACK INDEED SHE WAS ALTOGETHER UGLY AND DISAGREEABLE AND WHEN CONTRASTED WITH FLORINA",
  "words": [
    {
      "alignedWord": "who",
      "case": "success",
      "end": 0.45,
      "endOffset": 3,
      "phones": [
        {
          "duration": 0.07,
          "phone": "hh_B"
        },
        {
          "duration": 0.07,
          "phone": "uw_E"
        }
      ],
      "start": 0.31,
      "startOffset": 0,
      "word": "WHO"
    },
    {
      "alignedWord": "was",
      "case": "success",
      "end": 0.62,
      "endOffset": 7,
      "phones": [
        {
          "duration": 0.02,
          "phone": "w_B"
        },
        {
          "duration": 0.07,
          "phone": "ah_I"
        },
        {
          "duration": 0.08,
          "phone": "z_E"
        }
      ],
      "start": 0.45,
      "startOffset": 4,
      "word": "WAS"
    },
    {
      "alignedWord": "being",
      "case": "success",
      "end": 0.87,
      "endOffset": 13,
      "phones": [
        {
          "duration": 0.06,
          "phone": "b_B"
        },
        {
          "duration": 0.05,
          "phone": "iy_I"
        },
        {
          "duration": 0.07,
          "phone": "ih_I"
        },
        {
          "duration": 0.07,
          "phone": "ng_E"
        }
      ],
      "start": 0.62,
      "startOffset": 8,
      "word": "BEING"
    },
    {
      "alignedWord": "brought",
      "case": "success",
      "end": 1.13,
      "endOffset": 21,
      "phones": [
        {
          "duration": 0.07,
          "phone": "b_B"
        },
        {
          "duration": 0.03,
          "phone": "r_I"
        },
        {
          "duration": 0.08,
          "phone": "ao_I"
        },
        {
          "duration": 0.07,
          "phone": "t_E"
        }
      ],
      "start": 0.88,
      "startOffset": 14,
      "word": "BROUGHT"
    },
    {
      "alignedWord": "up",
      "case": "success",
      "end": 1.3399999999999999,
      "endOffset": 24,
      "phones": [
        {
          "duration": 0.06,
          "phone": "ah_B"
        },
        {
          "duration": 0.15,
          "phone": "p_E"
        }
      ],
      "start": 1.13,
      "startOffset": 22,
      "word": "UP"
    },
    {
      "alignedWord": "by",
      "case": "success",
      "end": 1.63,
      "endOffset": 27,
      "phones": [
        {
          "duration": 0.12,
          "phone": "b_B"
        },
        {
          "duration": 0.13,
          "phone": "ay_E"
        }
      ],
      "start": 1.38,
      "startOffset": 25,
      "word": "BY"
    },
    {
      "alignedWord": "her",
      "case": "success",
      "end": 1.8399999999999999,
      "endOffset": 31,
      "phones": [
        {
          "duration": 0.13,
          "phone": "hh_B"
        },
        {
          "duration": 0.08,
          "phone": "er_E"
        }
      ],
      "start": 1.63,
      "startOffset": 28,
      "word": "HER"
    },
    {
      "alignedWord": "godmother",
      "case": "success",
      "end": 2.58,
      "endOffset": 41,
      "phones": [
        {
          "duration": 0.09,
          "phone": "g_B"
        },
        {
          "duration": 0.11,
          "phone": "aa_I"
        },
        {
          "duration": 0.09,
          "phone": "d_I"
        },
        {
          "duration": 0.05,
          "phone": "m_I"
        },
        {
          "duration": 0.09,
          "phone": "ah_I"
        },
        {
          "duration": 0.08,
          "phone": "dh_I"
        },
        {
          "duration": 0.23,
          "phone": "er_E"
        }
      ],
      "start": 1.84,
      "startOffset": 32,
      "word": "GODMOTHER"
    },
    {
      "alignedWord": "the",
      "case": "success",
      "end": 2.98,
      "endOffset": 45,
      "phones": [
        {
          "duration": 0.08,
          "phone": "dh_B"
        },
        {
          "duration": 0.06,
          "phone": "ah_E"
        }
      ],
      "start": 2.84,
      "startOffset": 42,
      "word": "THE"
    },
    {
      "alignedWord": "fairy",
      "case": "success",
      "end": 3.34,
      "endOffset": 51,
      "phones": [
        {
          "duration": 0.08,
          "phone": "f_B"
        },
        {
          "duration": 0.09,
          "phone": "eh_I"
        },
        {
          "duration": 0.1,
          "phone": "r_I"
        },
        {
          "duration": 0.09,
          "phone": "iy_E"
        }
      ],
      "start": 2.98,
      "startOffset": 46,
      "word": "FAIRY"
    },
    {
      "alignedWord": "<unk>",
      "case": "success",
      "end": 3.99,
      "endOffset": 59,
      "phones": [
        {
          "duration": 0.64,
          "phone": "oov_S"
        }
      ],
      "start": 3.35,
      "startOffset": 52,
      "word": "SOUSSIO"
    },
    {
      "alignedWord": "her",
      "case": "success",
      "end": 4.92,
      "endOffset": 63,
      "phones": [
        {
          "duration": 0.14,
          "phone": "hh_B"
        },
        {
          "duration": 0.07,
          "phone": "er_E"
        }
      ],
      "start": 4.71,
      "startOffset": 60,
      "word": "HER"
    },
    {
      "alignedWord": "name",
      "case": "success",
      "end": 5.31,
      "endOffset": 68,
      "phones": [
        {
          "duration": 0.09,
          "phone": "n_B"
        },
        {
          "duration": 0.14,
          "phone": "ey_I"
        },
        {
          "duration": 0.16,
          "phone": "m_E"
        }
      ],
      "start": 4.92,
      "startOffset": 64,
      "word": "NAME"
    },
    {
      "alignedWord": "was",
      "case": "success",
      "end": 5.550000000000001,
      "endOffset": 72,
      "phones": [
        {
          "duration": 0.09,
          "phone": "w_B"
        },
        {
          "duration": 0.06,
          "phone": "ah_I"
        },
        {
          "duration": 0.08,
          "phone": "z_E"
        }
      ],
      "start": 5.32,
      "startOffset": 69,
      "word": "WAS"
    },
    {
      "alignedWord": "<unk>",
      "case": "success",
      "end": 6.24,
      "endOffset": 81,
      "phones": [
        {
          "duration": 0.69,
          "phone": "oov_S"
        }
      ],
      "start": 5.55,
      "startOffset": 73,
      "word": "TROUTINA"
    },
    {
      "alignedWord": "because",
      "case": "success",
      "end": 7.0,
      "endOffset": 89,
      "phones": [
        {
          "duration": 0.06,
          "phone": "b_B"
        },
        {
          "duration": 0.07,
          "phone": "ih_I"
        },
        {
          "duration": 0.07,
          "phone": "k_I"
        },
        {
          "duration": 0.08,
          "phone": "ah_I"
        },
        {
          "duration": 0.07,
          "phone": "z_E"
        }
      ],
      "start": 6.65,
      "startOffset": 82,
      "word": "BECAUSE"
    },
    {
      "alignedWord": "her",
      "case": "success",
      "end": 7.12,
      "endOffset": 93,
      "phones": [
        {
          "duration": 0.06,
          "phone": "hh_B"
        },
        {
          "duration": 0.06,
          "phone": "er_E"
        }
      ],
      "start": 7.0,
      "startOffset": 90,
      "word": "HER"
    },
    {
      "alignedWord": "complexion",
      "case": "success",
      "end": 7.78,
      "endOffset": 104,
      "phones": [
        {
          "duration": 0.05,
          "phone": "k_B"
        },
        {
          "duration": 0.08,
          "phone": "ah_I"
        },
        {
          "duration": 0.06,
          "phone": "m_I"
        },
        {
          "duration": 0.07,
          "phone": "p_I"
        },
        {
          "duration": 0.11,
          "phone": "eh_I"
        },
        {
          "duration": 0.06,
          "phone": "k_I"
        },
        {
          "duration": 0.08,
          "phone": "sh_I"
        },
        {
          "duration": 0.07,
          "phone": "ah_I"
        },
        {
          "duration": 0.08,
          "phone": "n_E"
        }
      ],
      "start": 7.12,
      "startOffset": 94,
      "word": "COMPLEXION"
    },
    {
      "alignedWord": "was",
      "case": "success",
      "end": 7.94,
      "endOffset": 108,
      "phones": [
        {
          "duration": 0.05,
          "phone": "w_B"
        },
        {
          "duration": 0.04,
          "phone": "ah_I"
        },
        {
          "duration": 0.07,
          "phone": "z_E"
        }
      ],
      "start": 7.78,
      "startOffset": 105,
      "word": "WAS"
    },
    {
      "alignedWord": "all",
      "case": "success",
      "end": 8.18,
      "endOffset": 112,
      "phones": [
        {
          "duration": 0.12,
          "phone": "ao_B"
        },
        {
          "duration": 0.12,
          "phone": "l_E"
        }
      ],
      "start": 7.94,
      "startOffset": 109,
      "word": "ALL"
    },
    {
      "alignedWord": "spotted",
      "case": "success",
      "end": 8.759999,
      "endOffset": 120,
      "phones": [
        {
          "duration": 0.11,
          "phone": "s_B"
        },
        {
          "duration": 0.08,
          "phone": "p_I"
        },
        {
          "duration": 0.13,
          "phone": "aa_I"
        },
        {
          "duration": 0.05,
          "phone": "t_I"
        },
        {
          "duration": 0.09,
          "phone": "ih_I"
        },
        {
          "duration": 0.12,
          "phone": "d_E"
        }
      ],
      "start": 8.179999,
      "startOffset": 113,
      "word": "SPOTTED"
    },
    {
      "alignedWord": "like",
      "case": "success",
      "end": 8.979999,
      "endOffset": 125,
      "phones": [
        {
          "duration": 0.06,
          "phone": "l_B"
        },
        {
          "duration": 0.06,
          "phone": "ay_I"
        },
        {
          "duration": 0.05,
          "phone": "k_E"
        }
      ],
      "start": 8.809999,
      "startOffset": 121,
      "word": "LIKE"
    },
    {
      "alignedWord": "a",
      "case": "success",
      "end": 9.06,
      "endOffset": 127,
      "phones": [
        {
          "duration": 0.08,
          "phone": "ah_S"
        }
      ],
      "start": 8.98,
      "startOffset": 126,
      "word": "A"
    },
    {
      "alignedWord": "<unk>",
      "case": "success",
      "end": 9.589998999999999,
      "endOffset": 135,
      "phones": [
        {
          "duration": 0.45,
          "phone": "oov_S"
        }
      ],
      "start": 9.139999,
      "startOffset": 128,
      "word": "TROUT'S"
    },
    {
      "alignedWord": "back",
      "case": "success",
      "end": 10.11,
      "endOffset": 140,
      "phones": [
        {
          "duration": 0.1,
          "phone": "b_B"
        },
        {
          "duration": 0.16,
          "phone": "ae_I"
        },
        {
          "duration": 0.24,
          "phone": "k_E"
        }
      ],
      "start": 9.61,
      "startOffset": 136,
      "word": "BACK"
    },
    {
      "alignedWord": "indeed",
      "case": "success",
      "end": 11.28,
      "endOffset": 147,
      "phones": [
        {
          "duration": 0.12,
          "phone": "ih_B"
        },
        {
          "duration": 0.07,
          "phone": "n_I"
        },
        {
          "duration": 0.08,
          "phone": "d_I"
        },
        {
          "duration": 0.16,
          "phone": "iy_I"
        },
        {
          "duration": 0.07,
          "phone": "d_E"
        }
      ],
      "start": 10.78,
      "startOffset": 141,
      "word": "INDEED"
    },
    {
      "alignedWord": "she",
      "case": "success",
      "end": 11.51,
      "endOffset": 151,
      "phones": [
        {
          "duration": 0.17,
          "phone": "sh_B"
        },
        {
          "duration": 0.05,
          "phone": "iy_E"
        }
      ],
      "start": 11.29,
      "startOffset": 148,
      "word": "SHE"
    },
    {
      "alignedWord": "was",
      "case": "success",
      "end": 11.689999,
      "endOffset": 155,
      "phones": [
        {
          "duration": 0.05,
          "phone": "w_B"
        },
        {
          "duration": 0.05,
          "phone": "ah_I"
        },
        {
          "duration": 0.08,
          "phone": "z_E"
        }
      ],
      "start": 11.509999,
      "startOffset": 152,
      "word": "WAS"
    },
    {
      "alignedWord": "altogether",
      "case": "success",
      "end": 12.36,
      "endOffset": 166,
      "phones": [
        {
          "duration": 0.13,
          "phone": "ao_B"
        },
        {
          "duration": 0.09,
          "phone": "l_I"
        },
        {
          "duration": 0.08,
          "phone": "t_I"
        },
        {
          "duration": 0.05,
          "phone": "ah_I"
        },
        {
          "duration": 0.05,
          "phone": "g_I"
        },
        {
          "duration": 0.08,
          "phone": "eh_I"
        },
        {
          "duration": 0.07,
          "phone": "dh_I"
        },
        {
          "duration": 0.11,
          "phone": "er_E"
        }
      ],
      "start": 11.7,
      "startOffset": 156,
      "word": "ALTOGETHER"
    },
    {
      "alignedWord": "ugly",
      "case": "success",
      "end": 12.789999,
      "endOffset": 171,
      "phones": [
        {
          "duration": 0.11,
          "phone": "ah_B"
        },
        {
          "duration": 0.1,
          "phone": "g_I"
        },
        {
          "duration": 0.07,
          "phone": "l_I"
        },
        {
          "duration": 0.12,
          "phone": "iy_E"
        }
      ],
      "start": 12.389999,
      "startOffset": 167,
      "word": "UGLY"
    },
    {
      "alignedWord": "and",
      "case": "success",
      "end": 12.94,
      "endOffset": 175,
      "phones": [
        {
          "duration": 0.05,
          "phone": "ae_B"
        },
        {
          "duration": 0.04,
          "phone": "n_I"
        },
        {
          "duration": 0.06,
          "phone": "d_E"
        }
      ],
      "start": 12.79,
      "startOffset": 172,
      "word": "AND"
    },
    {
      "alignedWord": "disagreeable",
      "case": "success",
      "end": 13.719999999999999,
      "endOffset": 188,
      "phones": [
        {
          "duration": 0.02,
          "phone": "d_B"
        },
        {
          "duration": 0.08,
          "phone": "ih_I"
        },
        {
          "duration": 0.05,
          "phone": "s_I"
        },
        {
          "duration": 0.07,
          "phone": "ah_I"
        },
        {
          "duration": 0.07,
          "phone": "g_I"
        },
        {
          "duration": 0.09,
          "phone": "r_I"
        },
        {
          "duration": 0.06,
          "phone": "iy_I"
        },
        {
          "duration": 0.06,
          "phone": "ah_I"
        },
        {
          "duration": 0.04,
          "phone": "b_I"
        },
        {
          "duration": 0.06,
          "phone": "ah_I"
        },
        {
          "duration": 0.18,
          "phone": "l_E"
        }
      ],
      "start": 12.94,
      "startOffset": 176,
      "word": "DISAGREEABLE"
    },
    {
      "alignedWord": "and",
      "case": "success",
      "end": 14.590000000000002,
      "endOffset": 192,
      "phones": [
        {
          "duration": 0.1,
          "phone": "ae_B"
        },
        {
          "duration": 0.05,
          "phone": "n_I"
        },
        {
          "duration": 0.06,
          "phone": "d_E"
        }
      ],
      "start": 14.38,
      "startOffset": 189,
      "word": "AND"
    },
    {
      "alignedWord": "when",
      "case": "success",
      "end": 14.759999,
      "endOffset": 197,
      "phones": [
        {
          "duration": 0.03,
          "phone": "w_B"
        },
        {
          "duration": 0.06,
          "phone": "ih_I"
        },
        {
          "duration": 0.08,
          "phone": "n_E"
        }
      ],
      "start": 14.589999,
      "startOffset": 193,
      "word": "WHEN"
    },
    {
      "alignedWord": "<unk>",
      "case": "success",
      "end": 15.369999,
      "endOffset": 208,
      "phones": [
        {
          "duration": 0.61,
          "phone": "oov_S"
        }
      ],
      "start": 14.759999,
      "startOffset": 198,
      "word": "CONTRASTED"
    },
    {
      "case": "not-found-in-audio",
      "endOffset": 213,
      "startOffset": 209,
      "word": "WITH"
    },
    {
      "alignedWord": "<unk>",
      "case": "success",
      "end": 16.07,
      "endOffset": 221,
      "phones": [
        {
          "duration": 0.49,
          "phone": "oov_S"
        }
      ],
      "start": 15.58,
      "startOffset": 214,
      "word": "FLORINA"
    }
  ]
}