{
  "transcript": "AND FOR THE MOMENT SILENCED HIM YOU THINK HE WOULD HAVE A BETTER CAREER IN LONDON SAID LILY SPEAKING UNDER THE INFLUENCE OF HER SUPERIOR PRESENCE OF MIND SHE HAD CERTAINLY SHOWN DEFECTIVE JUDGMENT IN DESIRING HER MOTHER NOT TO LEAVE THEM ALONE",
  "words": [
    {
      "alignedWord": "and",
      "case": "success",
      "end": 0.41000000000000003,
      "endOffset": 3,
      "phones": [
        {
          "duration": 0.06,
          "phone": "ae_B"
        },
        {
          "duration": 0.04,
          "phone": "n_I"
        },
        {
          "duration": 0.07,
          "phone": "d_E"
        }
      ],
      "start": 0.24,
      "startOffset": 0,
      "word": "AND"
    },
    {
      "alignedWord": "for",
      "case": "success",
      "end": 0.51,
      "endOffset": 7,
      "phones": [
        {
          "duration": 0.03,
          "phone": "f_B"
        },
        {
          "duration": 0.07,
          "phone": "er_E"
        }
      ],
      "start": 0.41,
      "startOffset": 4,
      "word": "FOR"
    },
    {
      "alignedWord": "the",
      "case": "success",
      "end": 0.59,
      "endOffset": 11,
      "phones": [
        {
          "duration": 0.02,
          "phone": "dh_B"
        },
        {
          "duration": 0.06,
          "phone": "ah_E"
        }
      ],
      "start": 0.51,
      "startOffset": 8,
      "word": "THE"
    },
    {
      "alignedWord": "moment",
      "case": "success",
      "end": 0.96,
      "endOffset": 18,
      "phones": [
        {
          "duration": 0.06,
          "phone": "m_B"
        },
        {
          "duration": 0.09,
          "phone": "ow_I"
        },
        {
          "duration": 0.06,
          "phone": "m_I"
        },
        {
          "duration": 0.06,
          "phone": "ah_I"
        },
        {
          "duration": 0.04,
          "phone": "n_I"
        },
        {
          "duration": 0.06,
          "phone": "t_E"
        }
      ],
      "start": 0.59,
      "startOffset": 12,
      "word": "MOMENT"
    },
    {
      "alignedWord": "silenced",
      "case": "success",
      "end": 1.52,
      "endOffset": 27,
      "phones": [
        {
          "duration": 0.13,
          "phone": "s_B"
        },
        {
          "duration": 0.11,
          "phone": "ay_I"
        },
        {
          "duration": 0.05,
          "phone": "l_I"
        },
        {
          "duration": 0.08,
          "phone": "ah_I"
        },
        {
          "duration": 0.05,
          "phone": "n_I"
        },
        {
          "duration": 0.08,
          "phone": "s_I"
        },
        {
          "duration": 0.06,
          "phone": "t_E"
        }
      ],
      "start": 0.96,
      "startOffset": 19,
      "word": "SILENCED"
    },
    {
      "alignedWord": "him",
      "case": "success",
      "end": 1.76,
      "endOffset": 31,
      "phones": [
        {
          "duration": 0.04,
          "phone": "hh_B"
        },
        {
          "duration": 0.07,
          "phone": "ih_I"
        },
        {
          "duration": 0.13,
          "phone": "m_E"
        }
      ],
      "start": 1.52,
      "startOffset": 28,
      "word": "HIM"
    },
    {
      "alignedWord": "you",
      "case": "success",
      "end": 3.5,
      "endOffset": 35,
      "phones": [
        {
          "duration": 0.13,
          "phone": "y_B"
        },
        {
          "duration": 0.1,
          "phone": "uw_E"
        }
      ],
      "start": 3.27,
      "startOffset": 32,
      "word": "YOU"
    },
    {
      "alignedWord": "think",
      "case": "success",
      "end": 3.7399999999999998,
      "endOffset": 41,
      "phones": [
        {
          "duration": 0.07,
          "phone": "th_B"
        },
        {
          "duration": 0.03,
          "phone": "ih_I"
        },
        {
          "duration": 0.08,
          "phone": "ng_I"
        },
        {
          "duration": 0.05,
          "phone": "k_E"
        }
      ],
      "start": 3.51,
      "startOffset": 36,
      "word": "THINK"
    },
    {
      "alignedWord": "he",
      "case": "success",
      "end": 3.83,
      "endOffset": 44,
      "phones": [
        {
          "duration": 0.06,
          "phone": "hh_B"
        },
        {
          "duration": 0.03,
          "phone": "iy_E"
        }
      ],
      "start": 3.74,
      "startOffset": 42,
      "word": "HE"
    },
    {
      "alignedWord": "would",
      "case": "success",
      "end": 3.97,
      "endOffset": 50,
      "phones": [
        {
          "duration": 0.06,
          "phone": "w_B"
        },
        {
          "duration": 0.05,
          "phone": "uh_I"
        },
        {
          "duration": 0.03,
          "phone": "d_E"
        }
      ],
      "start": 3.83,
      "startOffset": 45,
      "word": "WOULD"
    },
    {
      "alignedWord": "have",
      "case": "success",
      "end": 4.11,
      "endOffset": 55,
      "phones": [
        {
          "duration": 0.05,
          "phone": "hh_B"
        },
        {
          "duration": 0.03,
          "phone": "ae_I"
        },
        {
          "duration": 0.06,
          "phone": "v_E"
        }
      ],
      "start": 3.97,
      "startOffset": 51,
      "word": "HAVE"
    },
    {
      "alignedWord": "a",
      "case": "success",
      "end": 4.16,
      "endOffset": 57,
      "phones": [
        {
          "duration": 0.05,
          "phone": "ah_S"
        }
      ],
      "start": 4.11,
      "startOffset": 56,
      "word": "A"
    },
    {
      "alignedWord": "better",
      "case": "success",
      "end": 4.38,
      "endOffset": 64,
      "phones": [
        {
          "duration": 0.05,
          "phone": "b_B"
        },
        {
          "duration": 0.06,
          "phone": "eh_I"
        },
        {
          "duration": 0.04,
          "phone": "t_I"
        },
        {
          "duration": 0.07,
          "phone": "er_E"
        }
      ],
      "start": 4.16,
      "startOffset": 58,
      "word": "BETTER"
    },
    {
      "alignedWord": "career",
      "case": "success",
      "end": 4.77,
      "endOffset": 71,
      "phones": [
        {
          "duration": 0.09,
          "phone": "k_B"
        },
        {
          "duration": 0.11,
          "phone": "er_I"
        },
        {
          "duration": 0.12,
          "phone": "ih_I"
        },
        {
          "duration": 0.07,
          "phone": "r_E"
        }
      ],
      "start": 4.38,
      "startOffset": 65,
      "word": "CAREER"
    },
    {
      "alignedWord": "in",
      "case": "success",
      "end": 4.92,
      "endOffset": 74,
      "phones": [
        {
          "duration": 0.06,
          "phone": "ih_B"
        },
        {
          "duration": 0.09,
          "phone": "n_E"
        }
      ],
      "start": 4.77,
      "startOffset": 72,
      "word": "IN"
    },
    {
      "alignedWord": "london",
      "case": "success",
      "end": 5.35,
      "endOffset": 81,
      "phones": [
        {
          "duration": 0.07,
          "phone": "l_B"
        },
        {
          "duration": 0.03,
          "phone": "ah_I"
        },
        {
          "duration": 0.05,
          "phone": "n_I"
        },
        {
          "duration": 0.06,
          "phone": "d_I"
        },
        {
          "duration": 0.05,
          "phone": "ah_I"
        },
        {
          "duration": 0.17,
          "phone": "n_E"
        }
      ],
      "start": 4.92,
      "startOffset": 75,
      "word": "LONDON"
    },
    {
      "alignedWord": "said",
      "case": "success",
      "end": 6.0,
      "endOffset": 86,
      "phones": [
        {
          "duration": 0.13,
          "phone": "s_B"
        },
        {
          "duration": 0.05,
          "phone": "eh_I"
        },
        {
          "duration": 0.07,
          "phone": "d_E"
        }
      ],
      "start": 5.75,
      "startOffset": 82,
      "word": "SAID"
    },
    {
      "alignedWord": "lily",
      "case": "success",
      "end": 6.34,
      "endOffset": 91,
      "phones": [
        {
          "duration": 0.07,
          "phone": "l_B"
        },
        {
          "duration": 0.07,
          "phone": "ih_I"
        },
        {
          "duration": 0.1,
          "phone": "l_I"
        },
        {
          "duration": 0.1,
          "phone": "iy_E"
        }
      ],
      "start": 6.0,
      "startOffset": 87,
      "word": "LILY"
    },
    {
      "alignedWord": "speaking",
      "case": "success",
      "end": 6.8,
      "endOffset": 100,
      "phones": [
        {
          "duration": 0.1,
          "phone": "s_B"
        },
        {
          "duration": 0.09,
          "phone": "p_I"
        },
        {
          "duration": 0.07,
          "phone": "iy_I"
        },
        {
          "duration": 0.05,
          "phone": "k_I"
        },
        {
          "duration": 0.07,
          "phone": "ih_I"
        },
        {
          "duration": 0.08,
          "phone": "ng_E"
        }
      ],
      "start": 6.34,
      "startOffset": 92,
      "word": "SPEAKING"
    },
    {
      "alignedWord": "under",
      "case": "success",
      "end": 6.99,
      "endOffset": 106,
      "phones": [
        {
          "duration": 0.05,
          "phone": "ah_B"
        },
        {
          "duration": 0.06,
          "phone": "n_I"
        },
        {
          "duration": 0.02,
          "phone": "d_I"
        },
        {
          "duration": 0.06,
          "phone": "er_E"
        }
      ],
      "start": 6.8,
      "startOffset": 101,
      "word": "UNDER"
    },
    {
      "alignedWord": "the",
      "case": "success",
      "end": 7.13,
      "endOffset": 110,
      "phones": [
        {
          "duration": 0.06,
          "phone": "dh_B"
        },
        {
          "duration": 0.08,
          "phone": "iy_E"
        }
      ],
      "start": 6.99,
      "startOffset": 107,
      "word": "THE"
    },
    {
      "alignedWord": "influence",
      "case": "success",
      "end": 7.68,
      "endOffset": 120,
      "phones": [
        {
          "duration": 0.1,
          "phone": "ih_B"
        },
        {
          "duration": 0.09,
          "phone": "n_I"
        },
        {
          "duration": 0.07,
          "phone": "f_I"
        },
        {
          "duration": 0.06,
          "phone": "l_I"
        },
        {
          "duration": 0.07,
          "phone": "uw_I"
        },
        {
          "duration": 0.06,
          "phone": "ah_I"
        },
        {
          "duration": 0.06,
          "phone": "n_I"
        },
        {
          "duration": 0.03,
          "phone": "s_E"
        }
      ],
      "start": 7.14,
      "startOffset": 111,
      "word": "INFLUENCE"
    },
    {
      "alignedWord": "of",
      "case": "success",
      "end": 7.8,
      "endOffset": 123,
      "phones": [
        {
          "duration": 0.06,
          "phone": "ah_B"
        },
        {
          "duration": 0.06,
          "phone": "v_E"
        }
      ],
      "start": 7.68,
      "startOffset": 121,
      "word": "OF"
    },
    {
      "alignedWord": "her",
      "case": "success",
      "end": 7.9399999999999995,
      "endOffset": 127,
      "phones": [
        {
          "duration": 0.07,
          "phone": "hh_B"
        },
        {
          "duration": 0.07,
          "phone": "er_E"
        }
      ],
      "start": 7.8,
      "startOffset": 124,
      "word": "HER"
    },
    {
      "alignedWord": "superior",
      "case": "success",
      "end": 8.55,
      "endOffset": 136,
      "phones": [
        {
          "duration": 0.11,
          "phone": "s_B"
        },
        {
          "duration": 0.07,
          "phone": "uw_I"
        },
        {
          "duration": 0.09,
          "phone": "p_I"
        },
        {
          "duration": 0.09,
          "phone": "ih_I"
        },
        {
          "duration": 0.11,
          "phone": "r_I"
        },
        {
          "duration": 0.08,
          "phone": "iy_I"
        },
        {
          "duration": 0.06,
          "phone": "er_E"
        }
      ],
      "start": 7.94,
      "startOffset": 128,
      "word": "SUPERIOR"
    },
    {
      "alignedWord": "presence",
      "case": "success",
      "end": 8.930000000000001,
      "endOffset": 145,
      "phones": [
        {
          "duration": 0.07,
          "phone": "p_B"
        },
        {
          "duration": 0.06,
          "phone": "r_I"
        },
        {
          "duration": 0.06,
          "phone": "eh_I"
        },
        {
          "duration": 0.04,
          "phone": "z_I"
        },
        {
          "duration": 0.05,
          "phone": "ah_I"
        },
        {
          "duration": 0.07,
          "phone": "n_I"
        },
        {
          "duration": 0.03,
          "phone": "s_E"
        }
      ],
      "start": 8.55,
      "startOffset": 137,
      "word": "PRESENCE"
    },
    {
      "alignedWord": "of",
      "case": "success",
      "end": 9.099999,
      "endOffset": 148,
      "phones": [
        {
          "duration": 0.08,
          "phone": "ah_B"
        },
        {
          "duration": 0.09,
          "phone": "v_E"
        }
      ],
      "start": 8.929999,
      "startOffset": 146,
      "word": "OF"
    },
    {
      "alignedWord": "mind",
      "case": "success",
      "end": 9.559999000000001,
      "endOffset": 153,
      "phones": [
        {
          "duration": 0.07,
          "phone": "m_B"
        },
        {
          "duration": 0.21,
          "phone": "ay_I"
        },
        {
          "duration": 0.07,
          "phone": "n_I"
        },
        {
          "duration": 0.11,
          "phone": "d_E"
        }
      ],
      "start": 9.099999,
      "startOffset": 149,
      "word": "MIND"
    },
    {
      "alignedWord": "she",
      "case": "success",
      "end": 10.989999,
      "endOffset": 157,
      "phones": [
        {
          "duration": 0.14,
          "phone": "sh_B"
        },
        {
          "duration": 0.04,
          "phone": "iy_E"
        }
      ],
      "start": 10.809999,
      "startOffset": 154,
      "word": "SHE"
    },
    {
      "alignedWord": "had",
      "case": "success",
      "end": 11.11,
      "endOffset": 161,
      "phones": [
        {
          "duration": 0.01,
          "phone": "hh_B"
        },
        {
          "duration": 0.03,
          "phone": "ae_I"
        },
        {
          "duration": 0.08,
          "phone": "d_E"
        }
      ],
      "start": 10.99,
      "startOffset": 158,
      "word": "HAD"
    },
    {
      "alignedWord": "certainly",
      "case": "success",
      "end": 11.53,
      "endOffset": 171,
      "phones": [
        {
          "duration": 0.11,
          "phone": "s_B"
        },
        {
          "duration": 0.09,
          "phone": "er_I"
        },
        {
          "duration": 0.01,
          "phone": "t_I"
        },
        {
          "duration": 0.01,
          "phone": "ah_I"
        },
        {
          "duration": 0.07,
          "phone": "n_I"
        },
        {
          "duration": 0.06,
          "phone": "l_I"
        },
        {
          "duration": 0.07,
          "phone": "iy_E"
        }
      ],
      "start": 11.11,
      "startOffset": 162,
      "word": "CERTAINLY"
    },
    {
      "alignedWord": "shown",
      "case": "success",
      "end": 11.899999999999999,
      "endOffset": 177,
      "phones": [
        {
          "duration": 0.17,
          "phone": "sh_B"
        },
        {
          "duration": 0.12,
          "phone": "ow_I"
        },
        {
          "duration": 0.08,
          "phone": "n_E"
        }
      ],
      "start": 11.53,
      "startOffset": 172,
      "word": "SHOWN"
    },
    {
      "alignedWord": "defective",
      "case": "success",
      "end": 12.4,
      "endOffset": 187,
      "phones": [
        {
          "duration": 0.04,
          "phone": "d_B"
        },
        {
          "duration": 0.05,
          "phone": "ih_I"
        },
        {
          "duration": 0.11,
          "phone": "f_I"
        },
        {
          "duration": 0.06,
          "phone": "eh_I"
        },
        {
          "duration": 0.07,
          "phone": "k_I"
        },
        {
          "duration": 0.04,
          "phone": "t_I"
        },
        {
          "duration": 0.05,
          "phone": "ih_I"
        },
        {
          "duration": 0.08,
          "phone": "v_E"
        }
      ],
      "start": 11.9,
      "startOffset": 178,
      "word": "DEFECTIVE"
    },
    {
      "alignedWord": "judgment",
      "case": "success",
      "end": 12.88,
      "endOffset": 196,
      "phones": [
        {
          "duration": 0.08,
          "phone": "jh_B"
        },
        {
          "duration": 0.1,
          "phone": "ah_I"
        },
        {
          "duration": 0.08,
          "phone": "jh_I"
        },
        {
          "duration": 0.05,
          "phone": "m_I"
        },
        {
          "duration": 0.06,
          "phone": "ah_I"
        },
        {
          "duration": 0.05,
          "phone": "n_I"
        },
        {
          "duration": 0.06,
          "phone": "t_E"
        }
      ],
      "start": 12.4,
      "startOffset": 188,
      "word": "JUDGMENT"
    },
    {
      "alignedWord": "in",
      "case": "success",
      "end": 13.069999,
      "endOffset": 199,
      "phones": [
        {
          "duration": 0.1,
          "phone": "ih_B"
        },
        {
          "duration": 0.08,
          "phone": "n_E"
        }
      ],
      "start": 12.889999,
      "startOffset": 197,
      "word": "IN"
    },
    {
      "alignedWord": "desiring",
      "case": "success",
      "end": 13.6,
      "endOffset": 208,
      "phones": [
        {
          "duration": 0.04,
          "phone": "d_B"
        },
        {
          "duration": 0.06,
          "phone": "ih_I"
        },
        {
          "duration": 0.1,
          "phone": "z_I"
        },
        {
          "duration": 0.14,
          "phone": "ay_I"
        },
        {
          "duration": 0.05,
          "phone": "er_I"
        },
        {
          "duration": 0.07,
          "phone": "ih_I"
        },
        {
          "duration": 0.07,
          "phone": "ng_E"
        }
      ],
      "start": 13.07,
      "startOffset": 200,
      "word": "DESIRING"
    },
    {
      "alignedWord": "her",
      "case": "success",
      "end": 13.699999,
      "endOffset": 212,
      "phones": [
        {
          "duration": 0.06,
          "phone": "hh_B"
        },
        {
          "duration": 0.04,
          "phone": "er_E"
        }
      ],
      "start": 13.599999,
      "startOffset": 209,
      "word": "HER"
    },
    {
      "alignedWord": "mother",
      "case": "success",
      "end": 13.979999999999999,
      "endOffset": 219,
      "phones": [
        {
          "duration": 0.08,
          "phone": "m_B"
        },
        {
          "duration": 0.08,
          "phone": "ah_I"
        },
        {
          "duration": 0.06,
          "phone": "dh_I"
        },
        {
          "duration": 0.06,
          "phone": "er_E"
        }
      ],
      "start": 13.7,
      "startOffset": 213,
      "word": "MOTHER"
    },
    {
      "alignedWord": "not",
      "case": "success",
      "end": 14.23,
      "endOffset": 223,
      "phones": [
        {
          "duration": 0.06,
          "phone": "n_B"
        },
        {
          "duration": 0.11,
          "phone": "aa_I"
        },
        {
          "duration": 0.08,
          "phone": "t_E"
        }
      ],
      "start": 13.98,
      "startOffset": 220,
      "word": "NOT"
    },
    {
      "alignedWord": "to",
      "case": "success",
      "end": 14.31,
      "endOffset": 226,
      "phones": [
        {
          "duration": 0.02,
          "phone": "t_B"
        },
        {
          "duration": 0.06,
          "phone": "ih_E"
        }
      ],
      "start": 14.23,
      "startOffset": 224,
      "word": "TO"
    },
    {
      "alignedWord": "leave",
      "case": "success",
      "end": 14.539999,
      "endOffset": 232,
      "phones": [
        {
          "duration": 0.09,
          "phone": "l_B"
        },
        {
          "duration": 0.08,
          "phone": "iy_I"
        },
        {
          "duration": 0.06,
          "phone": "v_E"
        }
      ],
      "start": 14.309999,
      "startOffset": 227,
      "word": "LEAVE"
    },
    {
      "alignedWord": "them",
      "case": "success",
      "end": 14.67,
      "endOffset": 237,
      "phones": [
        {
          "duration": 0.02,
          "phone": "dh_B"
        },
        {
          "duration": 0.06,
          "phone": "ah_I"
        },
        {
          "duration": 0.05,
          "phone": "m_E"
        }
      ],
      "start": 14.54,
      "startOffset": 233,
      "word": "THEM"
    },
    {
      "alignedWord": "alone",
      "case": "success",
      "end": 15.14,
      "endOffset": 243,
      "phones": [
        {
          "duration": 0.05,
          "phone": "ah_B"
        },
        {
          "duration": 0.1,
          "phone": "l_I"
        },
        {
          "duration": 0.16,
          "phone": "ow_I"
        },
        {
          "duration": 0.16,
          "phone": "n_E"
        }
      ],
      "start": 14.67,
      "startOffset": 238,
      "word": "ALONE"
    }
  ]
}