{
  "transcript": "WHICH HE MANAGED VERY GRACEFULLY THE MOTHER AND DAUGHTER WERE MOUNTED ON MULES BELONGING TO THE PALACE AND WHILST FETNAH ON ANOTHER MULE LED THEM BY A BYE WAY TO THE PRINCE'S COURT JAAFFIER CONDUCTED GANEM AND BROUGHT HIM INTO THE HALL OF AUDIENCE",
  "words": [
    {
      "alignedWord": "which",
      "case": "success",
      "end": 0.34,
      "endOffset": 5,
      "phones": [
        {
          "duration": 0.06,
          "phone": "w_B"
        },
        {
          "duration": 0.06,
          "phone": "ih_I"
        },
        {
          "duration": 0.08,
          "phone": "ch_E"
        }
      ],
      "start": 0.14,
      "startOffset": 0,
      "word": "WHICH"
    },
    {
      "alignedWord": "he",
      "case": "success",
      "end": 0.46,
      "endOffset": 8,
      "phones": [
        {
          "duration": 0.05,
          "phone": "hh_B"
        },
        {
          "duration": 0.07,
          "phone": "iy_E"
        }
      ],
      "start": 0.34,
      "startOffset": 6,
      "word": "HE"
    },
    {
      "alignedWord": "managed",
      "case": "success",
      "end": 0.98,
      "endOffset": 16,
      "phones": [
        {
          "duration": 0.08,
          "phone": "m_B"
        },
        {
          "duration": 0.11,
          "phone": "ae_I"
        },
        {
          "duration": 0.04,
          "phone": "n_I"
        },
        {
          "duration": 0.08,
          "phone": "ih_I"
        },
        {
          "duration": 0.1,
          "phone": "jh_I"
        },
        {
          "duration": 0.11,
          "phone": "d_E"
        }
      ],
      "start": 0.46,
      "startOffset": 9,
      "word": "MANAGED"
    },
    {
      "alignedWord": "very",
      "case": "success",
      "end": 1.4,
      "endOffset": 21,
      "phones": [
        {
          "duration": 0.12,
          "phone": "v_B"
        },
        {
          "duration": 0.11,
          "phone": "eh_I"
        },
        {
          "duration": 0.12,
          "phone": "r_I"
        },
        {
          "duration": 0.07,
          "phone": "iy_E"
        }
      ],
      "start": 0.98,
      "startOffset": 17,
      "word": "VERY"
    },
    {
      "alignedWord": "gracefully",
      "case": "success",
      "end": 2.16,
      "endOffset": 32,
      "phones": [
        {
          "duration": 0.07,
          "phone": "g_B"
        },
        {
          "duration": 0.08,
          "phone": "r_I"
        },
        {
          "duration": 0.08,
          "phone": "ey_I"
        },
        {
          "duration": 0.1,
          "phone": "s_I"
        },
        {
          "duration": 0.07,
          "phone": "f_I"
        },
        {
          "duration": 0.07,
          "phone": "ah_I"
        },
        {
          "duration": 0.09,
          "phone": "l_I"
        },
        {
          "duration": 0.2,
          "phone": "iy_E"
        }
      ],
      "start": 1.4,
      "startOffset": 22,
      "word": "GRACEFULLY"
    },
    {
      "alignedWord": "the",
      "case": "success",
      "end": 2.8,
      "endOffset": 36,
      "phones": [
        {
          "duration": 0.07,
          "phone": "dh_B"
        },
        {
          "duration": 0.06,
          "phone": "ah_E"
        }
      ],
      "start": 2.67,
      "startOffset": 33,
      "word": "THE"
    },
    {
      "alignedWord": "mother",
      "case": "success",
      "end": 3.11,
      "endOffset": 43,
      "phones": [
        {
          "duration": 0.08,
          "phone": "m_B"
        },
        {
          "duration": 0.09,
          "phone": "ah_I"
        },
        {
          "duration": 0.06,
          "phone": "dh_I"
        },
        {
          "duration": 0.08,
          "phone": "er_E"
        }
      ],
      "start": 2.8,
      "startOffset": 37,
      "word": "MOTHER"
    },
    {
      "alignedWord": "and",
      "case": "success",
      "end": 3.2399999999999998,
      "endOffset": 47,
      "phones": [
        {
          "duration": 0.05,
          "phone": "ae_B"
        },
        {
          "duration": 0.01,
          "phone": "n_I"
        },
        {
          "duration": 0.07,
          "phone": "d_E"
        }
      ],
      "start": 3.11,
      "startOffset": 44,
      "word": "AND"
    },
    {
      "alignedWord": "daughter",
      "case": "success",
      "end": 3.5700000000000003,
      "endOffset": 56,
      "phones": [
        {
          "duration": 0.03,
          "phone": "d_B"
        },
        {
          "duration": 0.15,
          "phone": "ao_I"
        },
        {
          "duration": 0.08,
          "phone": "t_I"
        },
        {
          "duration": 0.07,
          "phone": "er_E"
        }
      ],
      "start": 3.24,
      "startOffset": 48,
      "word": "DAUGHTER"
    },
    {
      "alignedWord": "were",
      "case": "success",
      "end": 3.73,
      "endOffset": 61,
      "phones": [
        {
          "duration": 0.09,
          "phone": "w_B"
        },
        {
          "duration": 0.07,
          "phone": "er_E"
        }
      ],
      "start": 3.57,
      "startOffset": 57,
      "word": "WERE"
    },
    {
      "alignedWord": "mounted",
      "case": "success",
      "end": 4.12,
      "endOffset": 69,
      "phones": [
        {
          "duration": 0.07,
          "phone": "m_B"
        },
        {
          "duration": 0.1,
          "phone": "aw_I"
        },
        {
          "duration": 0.06,
          "phone": "n_I"
        },
        {
          "duration": 0.04,
          "phone": "t_I"
        },
        {
          "duration": 0.05,
          "phone": "ih_I"
        },
        {
          "duration": 0.07,
          "phone": "d_E"
        }
      ],
      "start": 3.73,
      "startOffset": 62,
      "word": "MOUNTED"
    },
    {
      "alignedWord": "on",
      "case": "success",
      "end": 4.3,
      "endOffset": 72,
      "phones": [
        {
          "duration": 0.07,
          "phone": "aa_B"
        },
        {
          "duration": 0.11,
          "phone": "n_E"
        }
      ],
      "start": 4.12,
      "startOffset": 70,
      "word": "ON"
    },
    {
      "alignedWord": "mules",
      "case": "success",
      "end": 4.7299999999999995,
      "endOffset": 78,
      "phones": [
        {
          "duration": 0.03,
          "phone": "m_B"
        },
        {
          "duration": 0.08,
          "phone": "y_I"
        },
        {
          "duration": 0.1,
          "phone": "uw_I"
        },
        {
          "duration": 0.14,
          "phone": "l_I"
        },
        {
          "duration": 0.08,
          "phone": "z_E"
        }
      ],
      "start": 4.3,
      "startOffset": 73,
      "word": "MULES"
    },
    {
      "alignedWord": "belonging",
      "case": "success",
      "end": 5.2,
      "endOffset": 88,
      "phones": [
        {
          "duration": 0.05,
          "phone": "b_B"
        },
        {
          "duration": 0.05,
          "phone": "ih_I"
        },
        {
          "duration": 0.07,
          "phone": "l_I"
        },
        {
          "duration": 0.1,
          "phone": "ao_I"
        },
        {
          "duration": 0.08,
          "phone": "ng_I"
        },
        {
          "duration": 0.05,
          "phone": "ih_I"
        },
        {
          "duration": 0.07,
          "phone": "ng_E"
        }
      ],
      "start": 4.73,
      "startOffset": 79,
      "word": "BELONGING"
    },
    {
      "alignedWord": "to",
      "case": "success",
      "end": 5.3,
      "endOffset": 91,
      "phones": [
        {
          "duration": 0.05,
          "phone": "t_B"
        },
        {
          "duration": 0.05,
          "phone": "uw_E"
        }
      ],
      "start": 5.2,
      "startOffset": 89,
      "word": "TO"
    },
    {
      "alignedWord": "the",
      "case": "success",
      "end": 5.3999999999999995,
      "endOffset": 95,
      "phones": [
        {
          "duration": 0.05,
          "phone": "dh_B"
        },
        {
          "duration": 0.05,
          "phone": "ah_E"
        }
      ],
      "start": 5.3,
      "startOffset": 92,
      "word": "THE"
    },
    {
      "alignedWord": "palace",
      "case": "success",
      "end": 5.970000000000001,
      "endOffset": 102,
      "phones": [
        {
          "duration": 0.1,
          "phone": "p_B"
        },
        {
          "duration": 0.13,
          "phone": "ae_I"
        },
        {
          "duration": 0.08,
          "phone": "l_I"
        },
        {
          "duration": 0.09,
          "phone": "ah_I"
        },
        {
          "duration": 0.17,
          "phone": "s_E"
        }
      ],
      "start": 5.4,
      "startOffset": 96,
      "word": "PALACE"
    },
    {
      "alignedWord": "and",
      "case": "success",
      "end": 6.45,
      "endOffset": 106,
      "phones": [
        {
          "duration": 0.09,
          "phone": "ae_B"
        },
        {
          "duration": 0.06,
          "phone": "n_I"
        },
        {
          "duration": 0.05,
          "phone": "d_E"
        }
      ],
      "start": 6.25,
      "startOffset": 103,
      "word": "AND"
    },
    {
      "alignedWord": "whilst",
      "case": "success",
      "end": 6.95,
      "endOffset": 113,
      "phones": [
        {
          "duration": 0.09,
          "phone": "w_B"
        },
        {
          "duration": 0.1,
          "phone": "ay_I"
        },
        {
          "duration": 0.1,
          "phone": "l_I"
        },
        {
          "duration": 0.13,
          "phone": "s_I"
        },
        {
          "duration": 0.07,
          "phone": "t_E"
        }
      ],
      "start": 6.46,
      "startOffset": 107,
      "word": "WHILST"
    },
    {
      "alignedWord": "<unk>",
      "case": "success",
      "end": 7.49,
      "endOffset": 120,
      "phones": [
        {
          "duration": 0.52,
          "phone": "oov_S"
        }
      ],
      "start": 6.97,
      "startOffset": 114,
      "word": "FETNAH"
    },
    {
      "alignedWord": "on",
      "case": "success",
      "end": 7.79,
      "endOffset": 123,
      "phones": [
        {
          "duration": 0.09,
          "phone": "aa_B"
        },
        {
          "duration": 0.05,
          "phone": "n_E"
        }
      ],
      "start": 7.65,
      "startOffset": 121,
      "word": "ON"
    },
    {
      "alignedWord": "another",
      "case": "success",
      "end": 8.16,
      "endOffset": 131,
      "phones": [
        {
          "duration": 0.07,
          "phone": "ah_B"
        },
        {
          "duration": 0.07,
          "phone": "n_I"
        },
        {
          "duration": 0.07,
          "phone": "ah_I"
        },
        {
          "duration": 0.08,
          "phone": "dh_I"
        },
        {
          "duration": 0.08,
          "phone": "er_E"
        }
      ],
      "start": 7.79,
      "startOffset": 124,
      "word": "ANOTHER"
    },
    {
      "alignedWord": "mule",
      "case": "success",
      "end": 8.55,
      "endOffset": 136,
      "phones": [
        {
          "duration": 0.04,
          "phone": "m_B"
        },
        {
          "duration": 0.08,
          "phone": "y_I"
        },
        {
          "duration": 0.15,
          "phone": "uw_I"
        },
        {
          "duration": 0.12,
          "phone": "l_E"
        }
      ],
      "start": 8.16,
      "startOffset": 132,
      "word": "MULE"
    },
    {
      "alignedWord": "led",
      "case": "success",
      "end": 8.869999,
      "endOffset": 140,
      "phones": [
        {
          "duration": 0.09,
          "phone": "l_B"
        },
        {
          "duration": 0.1,
          "phone": "eh_I"
        },
        {
          "duration": 0.12,
          "phone": "d_E"
        }
      ],
      "start": 8.559999,
      "startOffset": 137,
      "word": "LED"
    },
    {
      "alignedWord": "them",
      "case": "success",
      "end": 9.149999999999999,
      "endOffset": 145,
      "phones": [
        {
          "duration": 0.01,
          "phone": "dh_B"
        },
        {
          "duration": 0.17,
          "phone": "eh_I"
        },
        {
          "duration": 0.1,
          "phone": "m_E"
        }
      ],
      "start": 8.87,
      "startOffset": 141,
      "word": "THEM"
    },
    {
      "alignedWord": "by",
      "case": "success",
      "end": 9.41,
      "endOffset": 148,
      "phones": [
        {
          "duration": 0.09,
          "phone": "b_B"
        },
        {
          "duration": 0.16,
          "phone": "ay_E"
        }
      ],
      "start": 9.16,
      "startOffset": 146,
      "word": "BY"
    },
    {
      "alignedWord": "a",
      "case": "success",
      "end": 9.49,
      "endOffset": 150,
      "phones": [
        {
          "duration": 0.08,
          "phone": "ah_S"
        }
      ],
      "start": 9.41,
      "startOffset": 149,
      "word": "A"
    },
    {
      "alignedWord": "bye",
      "case": "success",
      "end": 9.790000000000001,
      "endOffset": 154,
      "phones": [
        {
          "duration": 0.12,
          "phone": "b_B"
        },
        {
          "duration": 0.18,
          "phone": "ay_E"
        }
      ],
      "start": 9.49,
      "startOffset": 151,
      "word": "BYE"
    },
    {
      "alignedWord": "way",
      "case": "success",
      "end": 10.11,
      "endOffset": 158,
      "phones": [
        {
          "duration": 0.15,
          "phone": "w_B"
        },
        {
          "duration": 0.17,
          "phone": "ey_E"
        }
      ],
      "start": 9.79,
      "startOffset": 155,
      "word": "WAY"
    },
    {
      "alignedWord": "to",
      "case": "success",
      "end": 10.26,
      "endOffset": 161,
      "phones": [
        {
          "duration": 0.08,
          "phone": "t_B"
        },
        {
          "duration": 0.07,
          "phone": "uw_E"
        }
      ],
      "start": 10.11,
      "startOffset": 159,
      "word": "TO"
    },
    {
      "alignedWord": "the",
      "case": "success",
      "end": 10.39,
      "endOffset": 165,
      "phones": [
        {
          "duration": 0.05,
          "phone": "dh_B"
        },
        {
          "duration": 0.08,
          "phone": "ah_E"
        }
      ],
      "start": 10.26,
      "startOffset": 162,
      "word": "THE"
    },
    {
      "alignedWord": "<unk>",
      "case": "success",
      "end": 10.809999,
      "endOffset": 174,
      "phones": [
        {
          "duration": 0.42,
          "phone": "oov_S"
        }
      ],
      "start": 10.389999,
      "startOffset": 166,
      "word": "PRINCE'S"
    },
    {
      "alignedWord": "court",
      "case": "success",
      "end": 11.249999,
      "endOffset": 180,
      "phones": [
        {
          "duration": 0.1,
          "phone": "k_B"
        },
        {
          "duration": 0.11,
          "phone": "ao_I"
        },
        {
          "duration": 0.07,
          "phone": "r_I"
        },
        {
          "duration": 0.12,
          "phone": "t_E"
        }
      ],
      "start": 10.849999,
      "startOffset": 175,
      "word": "COURT"
    },
    {
      "alignedWord": "<unk>",
      "case": "success",
      "end": 12.39,
      "endOffset": 189,
      "phones": [
        {
          "duration": 0.68,
          "phone": "oov_S"
        }
      ],
      "start": 11.71,
      "startOffset": 181,
      "word": "JAAFFIER"
    },
    {
      "alignedWord": "conducted",
      "case": "success",
      "end": 13.08,
      "endOffset": 199,
      "phones": [
        {
          "duration": 0.07,
          "phone": "k_B"
        },
        {
          "duration": 0.07,
          "phone": "ah_I"
        },
        {
          "duration": 0.07,
          "phone": "n_I"
        },
        {
          "duration": 0.05,
          "phone": "d_I"
        },
        {
          "duration": 0.11,
          "phone": "ah_I"
        },
        {
          "duration": 0.08,
          "phone": "k_I"
        },
        {
          "duration": 0.04,
          "phone": "t_I"
        },
        {
          "duration": 0.07,
          "phone": "ah_I"
        },
        {
          "duration": 0.07,
          "phone": "d_E"
        }
      ],
      "start": 12.45,
      "startOffset": 190,
      "word": "CONDUCTED"
    },
    {
      "alignedWord": "<unk>",
      "case": "success",
      "end": 13.6,
      "endOffset": 205,
      "phones": [
        {
          "duration": 0.51,
          "phone": "oov_S"
        }
      ],
      "start": 13.09,
      "startOffset": 200,
      "word": "GANEM"
    },
    {
      "alignedWord": "and",
      "case": "success",
      "end": 13.96,
      "endOffset": 209,
      "phones": [
        {
          "duration": 0.11,
          "phone": "ae_B"
        },
        {
          "duration": 0.05,
          "phone": "n_I"
        },
        {
          "duration": 0.05,
          "phone": "d_E"
        }
      ],
      "start": 13.75,
      "startOffset": 206,
      "word": "AND"
    },
    {
      "alignedWord": "brought",
      "case": "success",
      "end": 14.24,
      "endOffset": 217,
      "phones": [
        {
          "duration": 0.05,
          "phone": "b_B"
        },
        {
          "duration": 0.06,
          "phone": "r_I"
        },
        {
          "duration": 0.09,
          "phone": "ao_I"
        },
        {
          "duration": 0.08,
          "phone": "t_E"
        }
      ],
      "start": 13.96,
      "startOffset": 210,
      "word": "BROUGHT"
    },
    {
      "alignedWord": "him",
      "case": "success",
      "end": 14.41,
      "endOffset": 221,
      "phones": [
        {
          "duration": 0.05,
          "phone": "hh_B"
        },
        {
          "duration": 0.07,
          "phone": "ih_I"
        },
        {
          "duration": 0.05,
          "phone": "m_E"
        }
      ],
      "start": 14.24,
      "startOffset": 218,
      "word": "HIM"
    },
    {
      "alignedWord": "into",
      "case": "success",
      "end": 14.64,
      "endOffset": 226,
      "phones": [
        {
          "duration": 0.07,
          "phone": "ih_B"
        },
        {
          "duration": 0.06,
          "phone": "n_I"
        },
        {
          "duration": 0.05,
          "phone": "t_I"
        },
        {
          "duration": 0.05,
          "phone": "uw_E"
        }
      ],
      "start": 14.41,
      "startOffset": 222,
      "word": "INTO"
    },
    {
      "alignedWord": "the",
      "case": "success",
      "end": 14.759998999999999,
      "endOffset": 230,
      "phones": [
        {
          "duration": 0.06,
          "phone": "dh_B"
        },
        {
          "duration": 0.06,
          "phone": "ah_E"
        }
      ],
      "start": 14.639999,
      "startOffset": 227,
      "word": "THE"
    },
    {
      "alignedWord": "hall",
      "case": "success",
      "end": 15.019999,
      "endOffset": 235,
      "phones": [
        {
          "duration": 0.08,
          "phone": "hh_B"
        },
        {
          "duration": 0.11,
          "phone": "ao_I"
        },
        {
          "duration": 0.07,
          "phone": "l_E"
        }
      ],
      "start": 14.759999,
      "startOffset": 231,
      "word": "HALL"
    },
    {
      "alignedWord": "of",
      "case": "success",
      "end": 15.15,
      "endOffset": 238,
      "phones": [
        {
          "duration": 0.05,
          "phone": "ah_B"
        },
        {
          "duration": 0.08,
          "phone": "v_E"
        }
      ],
      "start": 15.02,
      "startOffset": 236,
      "word": "OF"
    },
    {
      "alignedWord": "audience",
      "case": "success",
      "end": 15.77,
      "endOffset": 247,
      "phones": [
        {
          "duration": 0.11,
          "phone": "aa_B"
        },
        {
          "duration": 0.09,
          "phone": "d_I"
        },
        {
          "duration": 0.08,
          "phone": "iy_I"
        },
        {
          "duration": 0.06,
          "phone": "ah_I"
        },
        {
          "duration": 0.09,
          "phone": "n_I"
        },
        {
          "duration": 0.19,
          "phone": "s_E"
        }
      ],
      "start": 15.15,
      "startOffset": 239,
      "word": "AUDIENCE"
    }
  ]
}