{
  "transcript": "I AM COME FROM THE COMMANDER OF THE TRUE BELIEVERS MY MASTER AND YOURS THE ORDERS I HAVE DIFFER MUCH FROM THOSE WHICH I DO NOT WISH TO REVIVE IN YOUR MEMORY I AM TO BEAR YOU COMPANY",
  "words": [
    {
      "alignedWord": "i",
      "case": "success",
      "end": 0.47000000000000003,
      "endOffset": 1,
      "phones": [
        {
          "duration": 0.2,
          "phone": "ay_S"
        }
      ],
      "start": 0.27,
      "startOffset": 0,
      "word": "I"
    },
    {
      "alignedWord": "am",
      "case": "success",
      "end": 0.63,
      "endOffset": 4,
      "phones": [
        {
          "duration": 0.08,
          "phone": "ae_B"
        },
        {
          "duration": 0.08,
          "phone": "m_E"
        }
      ],
      "start": 0.47,
      "startOffset": 2,
      "word": "AM"
    },
    {
      "alignedWord": "come",
      "case": "success",
      "end": 0.9299999999999999,
      "endOffset": 9,
      "phones": [
        {
          "duration": 0.08,
          "phone": "k_B"
        },
        {
          "duration": 0.13,
          "phone": "ah_I"
        },
        {
          "duration": 0.09,
          "phone": "m_E"
        }
      ],
      "start": 0.63,
      "startOffset": 5,
      "word": "COME"
    },
    {
      "alignedWord": "from",
      "case": "success",
      "end": 1.12,
      "endOffset": 14,
      "phones": [
        {
          "duration": 0.07,
          "phone": "f_B"
        },
        {
          "duration": 0.05,
          "phone": "er_I"
        },
        {
          "duration": 0.07,
          "phone": "m_E"
        }
      ],
      "start": 0.93,
      "startOffset": 10,
      "word": "FROM"
    },
    {
      "alignedWord": "the",
      "case": "success",
      "end": 1.2100000000000002,
      "endOffset": 18,
      "phones": [
        {
          "duration": 0.05,
          "phone": "dh_B"
        },
        {
          "duration": 0.04,
          "phone": "ah_E"
        }
      ],
      "start": 1.12,
      "startOffset": 15,
      "word": "THE"
    },
    {
      "alignedWord": "commander",
      "case": "success",
      "end": 1.74,
      "endOffset": 28,
      "phones": [
        {
          "duration": 0.04,
          "phone": "k_B"
        },
        {
          "duration": 0.07,
          "phone": "ah_I"
        },
        {
          "duration": 0.12,
          "phone": "m_I"
        },
        {
          "duration": 0.09,
          "phone": "ae_I"
        },
        {
          "duration": 0.07,
          "phone": "n_I"
        },
        {
          "duration": 0.08,
          "phone": "d_I"
        },
        {
          "duration": 0.06,
          "phone": "er_E"
        }
      ],
      "start": 1.21,
      "startOffset": 19,
      "word": "COMMANDER"
    },
    {
      "alignedWord": "of",
      "case": "success",
      "end": 1.8599999999999999,
      "endOffset": 31,
      "phones": [
        {
          "duration": 0.05,
          "phone": "ah_B"
        },
        {
          "duration": 0.07,
          "phone": "v_E"
        }
      ],
      "start": 1.74,
      "startOffset": 29,
      "word": "OF"
    },
    {
      "alignedWord": "the",
      "case": "success",
      "end": 1.9400000000000002,
      "endOffset": 35,
      "phones": [
        {
          "duration": 0.01,
          "phone": "dh_B"
        },
        {
          "duration": 0.07,
          "phone": "ah_E"
        }
      ],
      "start": 1.86,
      "startOffset": 32,
      "word": "THE"
    },
    {
      "alignedWord": "true",
      "case": "success",
      "end": 2.2399999999999998,
      "endOffset": 40,
      "phones": [
        {
          "duration": 0.13,
          "phone": "t_B"
        },
        {
          "duration": 0.07,
          "phone": "r_I"
        },
        {
          "duration": 0.1,
          "phone": "uw_E"
        }
      ],
      "start": 1.94,
      "startOffset": 36,
      "word": "TRUE"
    },
    {
      "alignedWord": "believers",
      "case": "success",
      "end": 2.9000000000000004,
      "endOffset": 50,
      "phones": [
        {
          "duration": 0.01,
          "phone": "b_B"
        },
        {
          "duration": 0.07,
          "phone": "ah_I"
        },
        {
          "duration": 0.1,
          "phone": "l_I"
        },
        {
          "duration": 0.09,
          "phone": "iy_I"
        },
        {
          "duration": 0.09,
          "phone": "v_I"
        },
        {
          "duration": 0.12,
          "phone": "er_I"
        },
        {
          "duration": 0.18,
          "phone": "z_E"
        }
      ],
      "start": 2.24,
      "startOffset": 41,
      "word": "BELIEVERS"
    },
    {
      "alignedWord": "my",
      "case": "success",
      "end": 3.38,
      "endOffset": 53,
      "phones": [
        {
          "duration": 0.2,
          "phone": "m_B"
        },
        {
          "duration": 0.16,
          "phone": "ay_E"
        }
      ],
      "start": 3.02,
      "startOffset": 51,
      "word": "MY"
    },
    {
      "alignedWord": "master",
      "case": "success",
      "end": 3.9499999999999997,
      "endOffset": 60,
      "phones": [
        {
          "duration": 0.09,
          "phone": "m_B"
        },
        {
          "duration": 0.16,
          "phone": "ae_I"
        },
        {
          "duration": 0.11,
          "phone": "s_I"
        },
        {
          "duration": 0.09,
          "phone": "t_I"
        },
        {
          "duration": 0.12,
          "phone": "er_E"
        }
      ],
      "start": 3.38,
      "startOffset": 54,
      "word": "MASTER"
    },
    {
      "alignedWord": "and",
      "case": "success",
      "end": 4.15,
      "endOffset": 64,
      "phones": [
        {
          "duration": 0.09,
          "phone": "ae_B"
        },
        {
          "duration": 0.07,
          "phone": "n_I"
        },
        {
          "duration": 0.04,
          "phone": "d_E"
        }
      ],
      "start": 3.95,
      "startOffset": 61,
      "word": "AND"
    },
    {
      "alignedWord": "yours",
      "case": "success",
      "end": 4.74,
      "endOffset": 70,
      "phones": [
        {
          "duration": 0.09,
          "phone": "y_B"
        },
        {
          "duration": 0.17,
          "phone": "ao_I"
        },
        {
          "duration": 0.13,
          "phone": "r_I"
        },
        {
          "duration": 0.2,
          "phone": "z_E"
        }
      ],
      "start": 4.15,
      "startOffset": 65,
      "word": "YOURS"
    },
    {
      "alignedWord": "the",
      "case": "success",
      "end": 5.33,
      "endOffset": 74,
      "phones": [
        {
          "duration": 0.1,
          "phone": "dh_B"
        },
        {
          "duration": 0.08,
          "phone": "iy_E"
        }
      ],
      "start": 5.15,
      "startOffset": 71,
      "word": "THE"
    },
    {
      "alignedWord": "orders",
      "case": "success",
      "end": 5.72,
      "endOffset": 81,
      "phones": [
        {
          "duration": 0.13,
          "phone": "ao_B"
        },
        {
          "duration": 0.03,
          "phone": "r_I"
        },
        {
          "duration": 0.08,
          "phone": "d_I"
        },
        {
          "duration": 0.06,
          "phone": "er_I"
        },
        {
          "duration": 0.09,
          "phone": "z_E"
        }
      ],
      "start": 5.33,
      "startOffset": 75,
      "word": "ORDERS"
    },
    {
      "alignedWord": "i",
      "case": "success",
      "end": 5.88,
      "endOffset": 83,
      "phones": [
        {
          "duration": 0.16,
          "phone": "ay_S"
        }
      ],
      "start": 5.72,
      "startOffset": 82,
      "word": "I"
    },
    {
      "alignedWord": "have",
      "case": "success",
      "end": 6.199999999999999,
      "endOffset": 88,
      "phones": [
        {
          "duration": 0.11,
          "phone": "hh_B"
        },
        {
          "duration": 0.12,
          "phone": "ae_I"
        },
        {
          "duration": 0.08,
          "phone": "v_E"
        }
      ],
      "start": 5.89,
      "startOffset": 84,
      "word": "HAVE"
    },
    {
      "alignedWord": "differ",
      "case": "success",
      "end": 6.59,
      "endOffset": 95,
      "phones": [
        {
          "duration": 0.07,
          "phone": "d_B"
        },
        {
          "duration": 0.11,
          "phone": "ih_I"
        },
        {
          "duration": 0.09,
          "phone": "f_I"
        },
        {
          "duration": 0.1,
          "phone": "er_E"
        }
      ],
      "start": 6.22,
      "startOffset": 89,
      "word": "DIFFER"
    },
    {
      "alignedWord": "much",
      "case": "success",
      "end": 7.01,
      "endOffset": 100,
      "phones": [
        {
          "duration": 0.18,
          "phone": "m_B"
        },
        {
          "duration": 0.11,
          "phone": "ah_I"
        },
        {
          "duration": 0.13,
          "phone": "ch_E"
        }
      ],
      "start": 6.59,
      "startOffset": 96,
      "word": "MUCH"
    },
    {
      "alignedWord": "from",
      "case": "success",
      "end": 7.27,
      "endOffset": 105,
      "phones": [
        {
          "duration": 0.07,
          "phone": "f_B"
        },
        {
          "duration": 0.05,
          "phone": "r_I"
        },
        {
          "duration": 0.04,
          "phone": "ah_I"
        },
        {
          "duration": 0.1,
          "phone": "m_E"
        }
      ],
      "start": 7.01,
      "startOffset": 101,
      "word": "FROM"
    },
    {
      "alignedWord": "those",
      "case": "success",
      "end": 7.67,
      "endOffset": 111,
      "phones": [
        {
          "duration": 0.04,
          "phone": "dh_B"
        },
        {
          "duration": 0.24,
          "phone": "ow_I"
        },
        {
          "duration": 0.12,
          "phone": "z_E"
        }
      ],
      "start": 7.27,
      "startOffset": 106,
      "word": "THOSE"
    },
    {
      "alignedWord": "which",
      "case": "success",
      "end": 7.9,
      "endOffset": 117,
      "phones": [
        {
          "duration": 0.07,
          "phone": "w_B"
        },
        {
          "duration": 0.05,
          "phone": "ih_I"
        },
        {
          "duration": 0.09,
          "phone": "ch_E"
        }
      ],
      "start": 7.69,
      "startOffset": 112,
      "word": "WHICH"
    },
    {
      "alignedWord": "i",
      "case": "success",
      "end": 8.01,
      "endOffset": 119,
      "phones": [
        {
          "duration": 0.11,
          "phone": "ay_S"
        }
      ],
      "start": 7.9,
      "startOffset": 118,
      "word": "I"
    },
    {
      "alignedWord": "do",
      "case": "success",
      "end": 8.23,
      "endOffset": 122,
      "phones": [
        {
          "duration": 0.12,
          "phone": "d_B"
        },
        {
          "duration": 0.1,
          "phone": "uw_E"
        }
      ],
      "start": 8.01,
      "startOffset": 120,
      "word": "DO"
    },
    {
      "alignedWord": "not",
      "case": "success",
      "end": 8.450000000000001,
      "endOffset": 126,
      "phones": [
        {
          "duration": 0.04,
          "phone": "n_B"
        },
        {
          "duration": 0.1,
          "phone": "aa_I"
        },
        {
          "duration": 0.08,
          "phone": "t_E"
        }
      ],
      "start": 8.23,
      "startOffset": 123,
      "word": "NOT"
    },
    {
      "alignedWord": "wish",
      "case": "success",
      "end": 8.709999999999999,
      "endOffset": 131,
      "phones": [
        {
          "duration": 0.07,
          "phone": "w_B"
        },
        {
          "duration": 0.08,
          "phone": "ih_I"
        },
        {
          "duration": 0.11,
          "phone": "sh_E"
        }
      ],
      "start": 8.45,
      "startOffset": 127,
      "word": "WISH"
    },
    {
      "alignedWord": "to",
      "case": "success",
      "end": 8.860000000000001,
      "endOffset": 134,
      "phones": [
        {
          "duration": 0.08,
          "phone": "t_B"
        },
        {
          "duration": 0.07,
          "phone": "uw_E"
        }
      ],
      "start": 8.71,
      "startOffset": 132,
      "word": "TO"
    },
    {
      "alignedWord": "revive",
      "case": "success",
      "end": 9.399999999999999,
      "endOffset": 141,
      "phones": [
        {
          "duration": 0.07,
          "phone": "r_B"
        },
        {
          "duration": 0.07,
          "phone": "iy_I"
        },
        {
          "duration": 0.11,
          "phone": "v_I"
        },
        {
          "duration": 0.23,
          "phone": "ay_I"
        },
        {
          "duration": 0.06,
          "phone": "v_E"
        }
      ],
      "start": 8.86,
      "startOffset": 135,
      "word": "REVIVE"
    },
    {
      "alignedWord": "in",
      "case": "success",
      "end": 9.51,
      "endOffset": 144,
      "phones": [
        {
          "duration": 0.06,
          "phone": "ih_B"
        },
        {
          "duration": 0.05,
          "phone": "n_E"
        }
      ],
      "start": 9.4,
      "startOffset": 142,
      "word": "IN"
    },
    {
      "alignedWord": "your",
      "case": "success",
      "end": 9.74,
      "endOffset": 149,
      "phones": [
        {
          "duration": 0.07,
          "phone": "y_B"
        },
        {
          "duration": 0.09,
          "phone": "ao_I"
        },
        {
          "duration": 0.07,
          "phone": "r_E"
        }
      ],
      "start": 9.51,
      "startOffset": 145,
      "word": "YOUR"
    },
    {
      "alignedWord": "memory",
      "case": "success",
      "end": 10.290000000000001,
      "endOffset": 156,
      "phones": [
        {
          "duration": 0.06,
          "phone": "m_B"
        },
        {
          "duration": 0.09,
          "phone": "eh_I"
        },
        {
          "duration": 0.07,
          "phone": "m_I"
        },
        {
          "duration": 0.12,
          "phone": "er_I"
        },
        {
          "duration": 0.21,
          "phone": "iy_E"
        }
      ],
      "start": 9.74,
      "startOffset": 150,
      "word": "MEMORY"
    },
    {
      "alignedWord": "i",
      "case": "success",
      "end": 11.189999,
      "endOffset": 158,
      "phones": [
        {
          "duration": 0.22,
          "phone": "ay_S"
        }
      ],
      "start": 10.969999,
      "startOffset": 157,
      "word": "I"
    },
    {
      "alignedWord": "am",
      "case": "success",
      "end": 11.35,
      "endOffset": 161,
      "phones": [
        {
          "duration": 0.09,
          "phone": "ae_B"
        },
        {
          "duration": 0.07,
          "phone": "m_E"
        }
      ],
      "start": 11.19,
      "startOffset": 159,
      "word": "AM"
    },
    {
      "alignedWord": "to",
      "case": "success",
      "end": 11.509999,
      "endOffset": 164,
      "phones": [
        {
          "duration": 0.07,
          "phone": "t_B"
        },
        {
          "duration": 0.09,
          "phone": "uw_E"
        }
      ],
      "start": 11.349999,
      "startOffset": 162,
      "word": "TO"
    },
    {
      "alignedWord": "bear",
      "case": "success",
      "end": 11.829999999999998,
      "endOffset": 169,
      "phones": [
        {
          "duration": 0.11,
          "phone": "b_B"
        },
        {
          "duration": 0.1,
          "phone": "eh_I"
        },
        {
          "duration": 0.08,
          "phone": "r_E"
        }
      ],
      "start": 11.54,
      "startOffset": 165,
      "word": "BEAR"
    },
    {
      "alignedWord": "you",
      "case": "success",
      "end": 12.02,
      "endOffset": 173,
      "phones": [
        {
          "duration": 0.09,
          "phone": "y_B"
        },
        {
          "duration": 0.1,
          "phone": "uw_E"
        }
      ],
      "start": 11.83,
      "startOffset": 170,
      "word": "YOU"
    },
    {
      "alignedWord": "company",
      "case": "success",
      "end": 12.57,
      "endOffset": 181,
      "phones": [
        {
          "duration": 0.07,
          "phone": "k_B"
        },
        {
          "duration": 0.1,
          "phone": "ah_I"
        },
        {
          "duration": 0.01,
          "phone": "m_I"
        },
        {
          "duration": 0.09,
          "phone": "p_I"
        },
        {
          "duration": 0.06,
          "phone": "ah_I"
        },
        {
          "duration": 0.07,
          "phone": "n_I"
        },
        {
          "duration": 0.15,
          "phone": "iy_E"
        }
      ],
      "start": 12.02,
      "startOffset": 174,
      "word": "COMPANY"
    }
  ]
}