{
  "transcript": "AND SENT A VAST ARMY OF HIS GOBLINS TO WATCH AND TEND IT AND TO BRING UP THE FIERY RIVERS FROM THE HEART OF THE EARTH NEAR ENOUGH TO WARM AND ENCOURAGE THE SPROUTING SEEDS THUS FOSTERED THEY GREW AND FLOURISHED MARVELLOUSLY",
  "words": [
    {
      "alignedWord": "and",
      "case": "success",
      "end": 0.45,
      "endOffset": 3,
      "phones": [
        {
          "duration": 0.07,
          "phone": "ae_B"
        },
        {
          "duration": 0.06,
          "phone": "n_I"
        },
        {
          "duration": 0.07,
          "phone": "d_E"
        }
      ],
      "start": 0.25,
      "startOffset": 0,
      "word": "AND"
    },
    {
      "alignedWord": "sent",
      "case": "success",
      "end": 0.74,
      "endOffset": 8,
      "phones": [
        {
          "duration": 0.1,
          "phone": "s_B"
        },
        {
          "duration": 0.06,
          "phone": "eh_I"
        },
        {
          "duration": 0.05,
          "phone": "n_I"
        },
        {
          "duration": 0.08,
          "phone": "t_E"
        }
      ],
      "start": 0.45,
      "startOffset": 4,
      "word": "SENT"
    },
    {
      "alignedWord": "a",
      "case": "success",
      "end": 0.82,
      "endOffset": 10,
      "phones": [
        {
          "duration": 0.08,
          "phone": "ah_S"
        }
      ],
      "start": 0.74,
      "startOffset": 9,
      "word": "A"
    },
    {
      "alignedWord": "vast",
      "case": "success",
      "end": 1.2999999999999998,
      "endOffset": 15,
      "phones": [
        {
          "duration": 0.13,
          "phone": "v_B"
        },
        {
          "duration": 0.18,
          "phone": "ae_I"
        },
        {
          "duration": 0.07,
          "phone": "s_I"
        },
        {
          "duration": 0.1,
          "phone": "t_E"
        }
      ],
      "start": 0.82,
      "startOffset": 11,
      "word": "VAST"
    },
    {
      "alignedWord": "army",
      "case": "success",
      "end": 1.67,
      "endOffset": 20,
      "phones": [
        {
          "duration": 0.08,
          "phone": "aa_B"
        },
        {
          "duration": 0.11,
          "phone": "r_I"
        },
        {
          "duration": 0.08,
          "phone": "m_I"
        },
        {
          "duration": 0.1,
          "phone": "iy_E"
        }
      ],
      "start": 1.3,
      "startOffset": 16,
      "word": "ARMY"
    },
    {
      "alignedWord": "of",
      "case": "success",
      "end": 1.78,
      "endOffset": 23,
      "phones": [
        {
          "duration": 0.06,
          "phone": "ah_B"
        },
        {
          "duration": 0.05,
          "phone": "v_E"
        }
      ],
      "start": 1.67,
      "startOffset": 21,
      "word": "OF"
    },
    {
      "alignedWord": "his",
      "case": "success",
      "end": 1.96,
      "endOffset": 27,
      "phones": [
        {
          "duration": 0.04,
          "phone": "hh_B"
        },
        {
          "duration": 0.06,
          "phone": "ih_I"
        },
        {
          "duration": 0.08,
          "phone": "z_E"
        }
      ],
      "start": 1.78,
      "startOffset": 24,
      "word": "HIS"
    },
    {
      "alignedWord": "goblins",
      "case": "success",
      "end": 2.6,
      "endOffset": 35,
      "phones": [
        {
          "duration": 0.09,
          "phone": "g_B"
        },
        {
          "duration": 0.14,
          "phone": "aa_I"
        },
        {
          "duration": 0.07,
          "phone": "b_I"
        },
        {
          "duration": 0.08,
          "phone": "l_I"
        },
        {
          "duration": 0.07,
          "phone": "ih_I"
        },
        {
          "duration": 0.09,
          "phone": "n_I"
        },
        {
          "duration": 0.1,
          "phone": "z_E"
        }
      ],
      "start": 1.96,
      "startOffset": 28,
      "word": "GOBLINS"
    },
    {
      "alignedWord": "to",
      "case": "success",
      "end": 2.75,
      "endOffset": 38,
      "phones": [
        {
          "duration": 0.07,
          "phone": "t_B"
        },
        {
          "duration": 0.08,
          "phone": "ah_E"
        }
      ],
      "start": 2.6,
      "startOffset": 36,
      "word": "TO"
    },
    {
      "alignedWord": "watch",
      "case": "success",
      "end": 3.16,
      "endOffset": 44,
      "phones": [
        {
          "duration": 0.14,
          "phone": "w_B"
        },
        {
          "duration": 0.15,
          "phone": "aa_I"
        },
        {
          "duration": 0.12,
          "phone": "ch_E"
        }
      ],
      "start": 2.75,
      "startOffset": 39,
      "word": "WATCH"
    },
    {
      "alignedWord": "and",
      "case": "success",
      "end": 3.3400000000000003,
      "endOffset": 48,
      "phones": [
        {
          "duration": 0.07,
          "phone": "ah_B"
        },
        {
          "duration": 0.04,
          "phone": "n_I"
        },
        {
          "duration": 0.07,
          "phone": "d_E"
        }
      ],
      "start": 3.16,
      "startOffset": 45,
      "word": "AND"
    },
    {
      "alignedWord": "tend",
      "case": "success",
      "end": 3.7,
      "endOffset": 53,
      "phones": [
        {
          "duration": 0.13,
          "phone": "t_B"
        },
        {
          "duration": 0.09,
          "phone": "eh_I"
        },
        {
          "duration": 0.09,
          "phone": "n_I"
        },
        {
          "duration": 0.04,
          "phone": "d_E"
        }
      ],
      "start": 3.35,
      "startOffset": 49,
      "word": "TEND"
    },
    {
      "alignedWord": "it",
      "case": "success",
      "end": 3.95,
      "endOffset": 56,
      "phones": [
        {
          "duration": 0.06,
          "phone": "ih_B"
        },
        {
          "duration": 0.19,
          "phone": "t_E"
        }
      ],
      "start": 3.7,
      "startOffset": 54,
      "word": "IT"
    },
    {
      "alignedWord": "and",
      "case": "success",
      "end": 4.69,
      "endOffset": 60,
      "phones": [
        {
          "duration": 0.06,
          "phone": "ae_B"
        },
        {
          "duration": 0.04,
          "phone": "n_I"
        },
        {
          "duration": 0.06,
          "phone": "d_E"
        }
      ],
      "start": 4.53,
      "startOffset": 57,
      "word": "AND"
    },
    {
      "alignedWord": "to",
      "case": "success",
      "end": 4.79,
      "endOffset": 63,
      "phones": [
        {
          "duration": 0.04,
          "phone": "t_B"
        },
        {
          "duration": 0.06,
          "phone": "ah_E"
        }
      ],
      "start": 4.69,
      "startOffset": 61,
      "word": "TO"
    },
    {
      "alignedWord": "bring",
      "case": "success",
      "end": 5.12,
      "endOffset": 69,
      "phones": [
        {
          "duration": 0.13,
          "phone": "b_B"
        },
        {
          "duration": 0.04,
          "phone": "r_I"
        },
        {
          "duration": 0.08,
          "phone": "ih_I"
        },
        {
          "duration": 0.08,
          "phone": "ng_E"
        }
      ],
      "start": 4.79,
      "startOffset": 64,
      "word": "BRING"
    },
    {
      "alignedWord": "up",
      "case": "success",
      "end": 5.2700000000000005,
      "endOffset": 72,
      "phones": [
        {
          "duration": 0.08,
          "phone": "ah_B"
        },
        {
          "duration": 0.07,
          "phone": "p_E"
        }
      ],
      "start": 5.12,
      "startOffset": 70,
      "word": "UP"
    },
    {
      "alignedWord": "the",
      "case": "success",
      "end": 5.42,
      "endOffset": 76,
      "phones": [
        {
          "duration": 0.05,
          "phone": "dh_B"
        },
        {
          "duration": 0.07,
          "phone": "ah_E"
        }
      ],
      "start": 5.3,
      "startOffset": 73,
      "word": "THE"
    },
    {
      "alignedWord": "fiery",
      "case": "success",
      "end": 5.91,
      "endOffset": 82,
      "phones": [
        {
          "duration": 0.17,
          "phone": "f_B"
        },
        {
          "duration": 0.12,
          "phone": "ay_I"
        },
        {
          "duration": 0.11,
          "phone": "er_I"
        },
        {
          "duration": 0.09,
          "phone": "iy_E"
        }
      ],
      "start": 5.42,
      "startOffset": 77,
      "word": "FIERY"
    },
    {
      "alignedWord": "rivers",
      "case": "success",
      "end": 6.46,
      "endOffset": 89,
      "phones": [
        {
          "duration": 0.09,
          "phone": "r_B"
        },
        {
          "duration": 0.08,
          "phone": "ih_I"
        },
        {
          "duration": 0.08,
          "phone": "v_I"
        },
        {
          "duration": 0.15,
          "phone": "er_I"
        },
        {
          "duration": 0.15,
          "phone": "z_E"
        }
      ],
      "start": 5.91,
      "startOffset": 83,
      "word": "RIVERS"
    },
    {
      "alignedWord": "from",
      "case": "success",
      "end": 6.67,
      "endOffset": 94,
      "phones": [
        {
          "duration": 0.08,
          "phone": "f_B"
        },
        {
          "duration": 0.05,
          "phone": "er_I"
        },
        {
          "duration": 0.07,
          "phone": "m_E"
        }
      ],
      "start": 6.47,
      "startOffset": 90,
      "word": "FROM"
    },
    {
      "alignedWord": "the",
      "case": "success",
      "end": 6.7299999999999995,
      "endOffset": 98,
      "phones": [
        {
          "duration": 0.03,
          "phone": "dh_B"
        },
        {
          "duration": 0.03,
          "phone": "ah_E"
        }
      ],
      "start": 6.67,
      "startOffset": 95,
      "word": "THE"
    },
    {
      "alignedWord": "heart",
      "case": "success",
      "end": 7.19,
      "endOffset": 104,
      "phones": [
        {
          "duration": 0.19,
          "phone": "hh_B"
        },
        {
          "duration": 0.08,
          "phone": "aa_I"
        },
        {
          "duration": 0.06,
          "phone": "r_I"
        },
        {
          "duration": 0.12,
          "phone": "t_E"
        }
      ],
      "start": 6.74,
      "startOffset": 99,
      "word": "HEART"
    },
    {
      "alignedWord": "of",
      "case": "success",
      "end": 7.22,
      "endOffset": 107,
      "phones": [
        {
          "duration": 0.01,
          "phone": "ah_B"
        },
        {
          "duration": 0.01,
          "phone": "v_E"
        }
      ],
      "start": 7.2,
      "startOffset": 105,
      "word": "OF"
    },
    {
      "alignedWord": "the",
      "case": "success",
      "end": 7.41,
      "endOffset": 111,
      "phones": [
        {
          "duration": 0.07,
          "phone": "dh_B"
        },
        {
          "duration": 0.08,
          "phone": "iy_E"
        }
      ],
      "start": 7.26,
      "startOffset": 108,
      "word": "THE"
    },
    {
      "alignedWord": "earth",
      "case": "success",
      "end": 7.83,
      "endOffset": 117,
      "phones": [
        {
          "duration": 0.18,
          "phone": "er_B"
        },
        {
          "duration": 0.17,
          "phone": "th_E"
        }
      ],
      "start": 7.48,
      "startOffset": 112,
      "word": "EARTH"
    },
    {
      "alignedWord": "near",
      "case": "success",
      "end": 8.24,
      "endOffset": 122,
      "phones": [
        {
          "duration": 0.14,
          "phone": "n_B"
        },
        {
          "duration": 0.13,
          "phone": "ih_I"
        },
        {
          "duration": 0.09,
          "phone": "r_E"
        }
      ],
      "start": 7.88,
      "startOffset": 118,
      "word": "NEAR"
    },
    {
      "alignedWord": "enough",
      "case": "success",
      "end": 8.700000000000001,
      "endOffset": 129,
      "phones": [
        {
          "duration": 0.09,
          "phone": "ih_B"
        },
        {
          "duration": 0.11,
          "phone": "n_I"
        },
        {
          "duration": 0.14,
          "phone": "ah_I"
        },
        {
          "duration": 0.12,
          "phone": "f_E"
        }
      ],
      "start": 8.24,
      "startOffset": 123,
      "word": "ENOUGH"
    },
    {
      "alignedWord": "to",
      "case": "success",
      "end": 8.91,
      "endOffset": 132,
      "phones": [
        {
          "duration": 0.09,
          "phone": "t_B"
        },
        {
          "duration": 0.09,
          "phone": "uw_E"
        }
      ],
      "start": 8.73,
      "startOffset": 130,
      "word": "TO"
    },
    {
      "alignedWord": "warm",
      "case": "success",
      "end": 9.4,
      "endOffset": 137,
      "phones": [
        {
          "duration": 0.14,
          "phone": "w_B"
        },
        {
          "duration": 0.15,
          "phone": "ao_I"
        },
        {
          "duration": 0.1,
          "phone": "r_I"
        },
        {
          "duration": 0.1,
          "phone": "m_E"
        }
      ],
      "start": 8.91,
      "startOffset": 133,
      "word": "WARM"
    },
    {
      "alignedWord": "and",
      "case": "success",
      "end": 9.53,
      "endOffset": 141,
      "phones": [
        {
          "duration": 0.05,
          "phone": "ah_B"
        },
        {
          "duration": 0.03,
          "phone": "n_I"
        },
        {
          "duration": 0.03,
          "phone": "d_E"
        }
      ],
      "start": 9.42,
      "startOffset": 138,
      "word": "AND"
    },
    {
      "alignedWord": "encourage",
      "case": "success",
      "end": 10.229999999999999,
      "endOffset": 151,
      "phones": [
        {
          "duration": 0.05,
          "phone": "ih_B"
        },
        {
          "duration": 0.1,
          "phone": "n_I"
        },
        {
          "duration": 0.17,
          "phone": "k_I"
        },
        {
          "duration": 0.14,
          "phone": "er_I"
        },
        {
          "duration": 0.08,
          "phone": "ah_I"
        },
        {
          "duration": 0.16,
          "phone": "jh_E"
        }
      ],
      "start": 9.53,
      "startOffset": 142,
      "word": "ENCOURAGE"
    },
    {
      "alignedWord": "the",
      "case": "success",
      "end": 10.6,
      "endOffset": 155,
      "phones": [
        {
          "duration": 0.06,
          "phone": "dh_B"
        },
        {
          "duration": 0.05,
          "phone": "ah_E"
        }
      ],
      "start": 10.49,
      "startOffset": 152,
      "word": "THE"
    },
    {
      "alignedWord": "sprouting",
      "case": "success",
      "end": 11.099999,
      "endOffset": 165,
      "phones": [
        {
          "duration": 0.08,
          "phone": "s_B"
        },
        {
          "duration": 0.07,
          "phone": "p_I"
        },
        {
          "duration": 0.07,
          "phone": "r_I"
        },
        {
          "duration": 0.07,
          "phone": "aw_I"
        },
        {
          "duration": 0.05,
          "phone": "t_I"
        },
        {
          "duration": 0.05,
          "phone": "ih_I"
        },
        {
          "duration": 0.11,
          "phone": "ng_E"
        }
      ],
      "start": 10.599999,
      "startOffset": 156,
      "word": "SPROUTING"
    },
    {
      "alignedWord": "seeds",
      "case": "success",
      "end": 11.649999000000001,
      "endOffset": 171,
      "phones": [
        {
          "duration": 0.13,
          "phone": "s_B"
        },
        {
          "duration": 0.19,
          "phone": "iy_I"
        },
        {
          "duration": 0.08,
          "phone": "d_I"
        },
        {
          "duration": 0.15,
          "phone": "z_E"
        }
      ],
      "start": 11.099999,
      "startOffset": 166,
      "word": "SEEDS"
    },
    {
      "alignedWord": "thus",
      "case": "success",
      "end": 12.469999999999999,
      "endOffset": 176,
      "phones": [
        {
          "duration": 0.01,
          "phone": "dh_B"
        },
        {
          "duration": 0.01,
          "phone": "ah_I"
        },
        {
          "duration": 0.08,
          "phone": "s_E"
        }
      ],
      "start": 12.37,
      "startOffset": 172,
      "word": "THUS"
    },
    {
      "alignedWord": "fostered",
      "case": "success",
      "end": 13.179998999999999,
      "endOffset": 185,
      "phones": [
        {
          "duration": 0.14,
          "phone": "f_B"
        },
        {
          "duration": 0.12,
          "phone": "aa_I"
        },
        {
          "duration": 0.1,
          "phone": "s_I"
        },
        {
          "duration": 0.11,
          "phone": "t_I"
        },
        {
          "duration": 0.07,
          "phone": "er_I"
        },
        {
          "duration": 0.17,
          "phone": "d_E"
        }
      ],
      "start": 12.469999,
      "startOffset": 177,
      "word": "FOSTERED"
    },
    {
      "alignedWord": "they",
      "case": "success",
      "end": 13.82,
      "endOffset": 190,
      "phones": [
        {
          "duration": 0.1,
          "phone": "dh_B"
        },
        {
          "duration": 0.15,
          "phone": "ey_E"
        }
      ],
      "start": 13.57,
      "startOffset": 186,
      "word": "THEY"
    },
    {
      "alignedWord": "grew",
      "case": "success",
      "end": 14.4,
      "endOffset": 195,
      "phones": [
        {
          "duration": 0.1,
          "phone": "g_B"
        },
        {
          "duration": 0.17,
          "phone": "r_I"
        },
        {
          "duration": 0.31,
          "phone": "uw_E"
        }
      ],
      "start": 13.82,
      "startOffset": 191,
      "word": "GREW"
    },
    {
      "alignedWord": "and",
      "case": "success",
      "end": 14.729999000000001,
      "endOffset": 199,
      "phones": [
        {
          "duration": 0.09,
          "phone": "ae_B"
        },
        {
          "duration": 0.05,
          "phone": "n_I"
        },
        {
          "duration": 0.08,
          "phone": "d_E"
        }
      ],
      "start": 14.509999,
      "startOffset": 196,
      "word": "AND"
    },
    {
      "alignedWord": "flourished",
      "case": "success",
      "end": 15.39,
      "endOffset": 210,
      "phones": [
        {
          "duration": 0.13,
          "phone": "f_B"
        },
        {
          "duration": 0.11,
          "phone": "l_I"
        },
        {
          "duration": 0.11,
          "phone": "er_I"
        },
        {
          "duration": 0.08,
          "phone": "ih_I"
        },
        {
          "duration": 0.1,
          "phone": "sh_I"
        },
        {
          "duration": 0.13,
          "phone": "t_E"
        }
      ],
      "start": 14.73,
      "startOffset": 200,
      "word": "FLOURISHED"
    },
    {
      "alignedWord": "<unk>",
      "case": "success",
      "end": 16.4,
      "endOffset": 223,
      "phones": [
        {
          "duration": 0.9,
          "phone": "oov_S"
        }
      ],
      "start": 15.5,
      "startOffset": 211,
      "word": "MARVELLOUSLY"
    }
  ]
}