{
  "transcript": "WERE SPREAD OUT STRANGE FRUITS AND SWEETMEATS THE VERY SIGHT OF WHICH MADE THE PRINCESS LONG TO TASTE THEM SHE HESITATED A WHILE HOWEVER SCARCELY ABLE TO BELIEVE HER EYES",
  "words": [
    {
      "alignedWord": "were",
      "case": "success",
      "end": 0.31,
      "endOffset": 4,
      "phones": [
        {
          "duration": 0.07,
          "phone": "w_B"
        },
        {
          "duration": 0.09,
          "phone": "er_E"
        }
      ],
      "start": 0.15,
      "startOffset": 0,
      "word": "WERE"
    },
    {
      "alignedWord": "spread",
      "case": "success",
      "end": 0.7,
      "endOffset": 11,
      "phones": [
        {
          "duration": 0.12,
          "phone": "s_B"
        },
        {
          "duration": 0.08,
          "phone": "p_I"
        },
        {
          "duration": 0.05,
          "phone": "r_I"
        },
        {
          "duration": 0.08,
          "phone": "eh_I"
        },
        {
          "duration": 0.06,
          "phone": "d_E"
        }
      ],
      "start": 0.31,
      "startOffset": 5,
      "word": "SPREAD"
    },
    {
      "alignedWord": "out",
      "case": "success",
      "end": 0.94,
      "endOffset": 15,
      "phones": [
        {
          "duration": 0.13,
          "phone": "aw_B"
        },
        {
          "duration": 0.11,
          "phone": "t_E"
        }
      ],
      "start": 0.7,
      "startOffset": 12,
      "word": "OUT"
    },
    {
      "alignedWord": "strange",
      "case": "success",
      "end": 1.63,
      "endOffset": 23,
      "phones": [
        {
          "duration": 0.11,
          "phone": "s_B"
        },
        {
          "duration": 0.12,
          "phone": "t_I"
        },
        {
          "duration": 0.09,
          "phone": "r_I"
        },
        {
          "duration": 0.16,
          "phone": "ey_I"
        },
        {
          "duration": 0.09,
          "phone": "n_I"
        },
        {
          "duration": 0.12,
          "phone": "jh_E"
        }
      ],
      "start": 0.94,
      "startOffset": 16,
      "word": "STRANGE"
    },
    {
      "alignedWord": "fruits",
      "case": "success",
      "end": 2.13,
      "endOffset": 30,
      "phones": [
        {
          "duration": 0.09,
          "phone": "f_B"
        },
        {
          "duration": 0.09,
          "phone": "r_I"
        },
        {
          "duration": 0.1,
          "phone": "uw_I"
        },
        {
          "duration": 0.1,
          "phone": "t_I"
        },
        {
          "duration": 0.11,
          "phone": "s_E"
        }
      ],
      "start": 1.64,
      "startOffset": 24,
      "word": "FRUITS"
    },
    {
      "alignedWord": "and",
      "case": "success",
      "end": 2.31,
      "endOffset": 34,
      "phones": [
        {
          "duration": 0.04,
          "phone": "ah_B"
        },
        {
          "duration": 0.06,
          "phone": "n_I"
        },
        {
          "duration": 0.08,
          "phone": "d_E"
        }
      ],
      "start": 2.13,
      "startOffset": 31,
      "word": "AND"
    },
    {
      "alignedWord": "<unk>",
      "case": "success",
      "end": 3.24,
      "endOffset": 45,
      "phones": [
        {
          "duration": 0.49,
          "phone": "oov_S"
        }
      ],
      "start": 2.75,
      "startOffset": 35,
      "word": "SWEETMEATS"
    },
    {
      "alignedWord": "the",
      "case": "success",
      "end": 3.68,
      "endOffset": 49,
      "phones": [
        {
          "duration": 0.06,
          "phone": "dh_B"
        },
        {
          "duration": 0.04,
          "phone": "ah_E"
        }
      ],
      "start": 3.58,
      "startOffset": 46,
      "word": "THE"
    },
    {
      "alignedWord": "very",
      "case": "success",
      "end": 4.01,
      "endOffset": 54,
      "phones": [
        {
          "duration": 0.06,
          "phone": "v_B"
        },
        {
          "duration": 0.08,
          "phone": "eh_I"
        },
        {
          "duration": 0.1,
          "phone": "r_I"
        },
        {
          "duration": 0.09,
          "phone": "iy_E"
        }
      ],
      "start": 3.68,
      "startOffset": 50,
      "word": "VERY"
    },
    {
      "alignedWord": "sight",
      "case": "success",
      "end": 4.34,
      "endOffset": 60,
      "phones": [
        {
          "duration": 0.18,
          "phone": "s_B"
        },
        {
          "duration": 0.09,
          "phone": "ay_I"
        },
        {
          "duration": 0.06,
          "phone": "t_E"
        }
      ],
      "start": 4.01,
      "startOffset": 55,
      "word": "SIGHT"
    },
    {
      "alignedWord": "of",
      "case": "success",
      "end": 4.51,
      "endOffset": 63,
      "phones": [
        {
          "duration": 0.03,
          "phone": "ah_B"
        },
        {
          "duration": 0.14,
          "phone": "v_E"
        }
      ],
      "start": 4.34,
      "startOffset": 61,
      "word": "OF"
    },
    {
      "alignedWord": "which",
      "case": "success",
      "end": 4.74,
      "endOffset": 69,
      "phones": [
        {
          "duration": 0.04,
          "phone": "w_B"
        },
        {
          "duration": 0.07,
          "phone": "ih_I"
        },
        {
          "duration": 0.12,
          "phone": "ch_E"
        }
      ],
      "start": 4.51,
      "startOffset": 64,
      "word": "WHICH"
    },
    {
      "alignedWord": "made",
      "case": "success",
      "end": 4.930000000000001,
      "endOffset": 74,
      "phones": [
        {
          "duration": 0.07,
          "phone": "m_B"
        },
        {
          "duration": 0.06,
          "phone": "ey_I"
        },
        {
          "duration": 0.06,
          "phone": "d_E"
        }
      ],
      "start": 4.74,
      "startOffset": 70,
      "word": "MADE"
    },
    {
      "alignedWord": "the",
      "case": "success",
      "end": 5.0,
      "endOffset": 78,
      "phones": [
        {
          "duration": 0.01,
          "phone": "dh_B"
        },
        {
          "duration": 0.06,
          "phone": "ah_E"
        }
      ],
      "start": 4.93,
      "startOffset": 75,
      "word": "THE"
    },
    {
      "alignedWord": "princess",
      "case": "success",
      "end": 5.55,
      "endOffset": 87,
      "phones": [
        {
          "duration": 0.09,
          "phone": "p_B"
        },
        {
          "duration": 0.05,
          "phone": "r_I"
        },
        {
          "duration": 0.06,
          "phone": "ih_I"
        },
        {
          "duration": 0.07,
          "phone": "n_I"
        },
        {
          "duration": 0.08,
          "phone": "s_I"
        },
        {
          "duration": 0.11,
          "phone": "eh_I"
        },
        {
          "duration": 0.09,
          "phone": "s_E"
        }
      ],
      "start": 5.0,
      "startOffset": 79,
      "word": "PRINCESS"
    },
    {
      "alignedWord": "long",
      "case": "success",
      "end": 5.91,
      "endOffset": 92,
      "phones": [
        {
          "duration": 0.11,
          "phone": "l_B"
        },
        {
          "duration": 0.13,
          "phone": "ao_I"
        },
        {
          "duration": 0.1,
          "phone": "ng_E"
        }
      ],
      "start": 5.57,
      "startOffset": 88,
      "word": "LONG"
    },
    {
      "alignedWord": "to",
      "case": "success",
      "end": 6.0,
      "endOffset": 95,
      "phones": [
        {
          "duration": 0.05,
          "phone": "t_B"
        },
        {
          "duration": 0.04,
          "phone": "ih_E"
        }
      ],
      "start": 5.91,
      "startOffset": 93,
      "word": "TO"
    },
    {
      "alignedWord": "taste",
      "case": "success",
      "end": 6.359999999999999,
      "endOffset": 101,
      "phones": [
        {
          "duration": 0.13,
          "phone": "t_B"
        },
        {
          "duration": 0.09,
          "phone": "ey_I"
        },
        {
          "duration": 0.09,
          "phone": "s_I"
        },
        {
          "duration": 0.03,
          "phone": "t_E"
        }
      ],
      "start": 6.02,
      "startOffset": 96,
      "word": "TASTE"
    },
    {
      "alignedWord": "them",
      "case": "success",
      "end": 6.65,
      "endOffset": 106,
      "phones": [
        {
          "duration": 0.04,
          "phone": "dh_B"
        },
        {
          "duration": 0.08,
          "phone": "ah_I"
        },
        {
          "duration": 0.17,
          "phone": "m_E"
        }
      ],
      "start": 6.36,
      "startOffset": 102,
      "word": "THEM"
    },
    {
      "alignedWord": "she",
      "case": "success",
      "end": 7.43,
      "endOffset": 110,
      "phones": [
        {
          "duration": 0.14,
          "phone": "sh_B"
        },
        {
          "duration": 0.07,
          "phone": "iy_E"
        }
      ],
      "start": 7.22,
      "startOffset": 107,
      "word": "SHE"
    },
    {
      "alignedWord": "hesitated",
      "case": "success",
      "end": 8.04,
      "endOffset": 120,
      "phones": [
        {
          "duration": 0.07,
          "phone": "hh_B"
        },
        {
          "duration": 0.08,
          "phone": "eh_I"
        },
        {
          "duration": 0.05,
          "phone": "z_I"
        },
        {
          "duration": 0.07,
          "phone": "ih_I"
        },
        {
          "duration": 0.1,
          "phone": "t_I"
        },
        {
          "duration": 0.09,
          "phone": "ey_I"
        },
        {
          "duration": 0.03,
          "phone": "t_I"
        },
        {
          "duration": 0.07,
          "phone": "ih_I"
        },
        {
          "duration": 0.05,
          "phone": "d_E"
        }
      ],
      "start": 7.43,
      "startOffset": 111,
      "word": "HESITATED"
    },
    {
      "alignedWord": "a",
      "case": "success",
      "end": 8.1,
      "endOffset": 122,
      "phones": [
        {
          "duration": 0.06,
          "phone": "ah_S"
        }
      ],
      "start": 8.04,
      "startOffset": 121,
      "word": "A"
    },
    {
      "alignedWord": "while",
      "case": "success",
      "end": 8.599999,
      "endOffset": 128,
      "phones": [
        {
          "duration": 0.12,
          "phone": "w_B"
        },
        {
          "duration": 0.18,
          "phone": "ay_I"
        },
        {
          "duration": 0.2,
          "phone": "l_E"
        }
      ],
      "start": 8.099999,
      "startOffset": 123,
      "word": "WHILE"
    },
    {
      "alignedWord": "however",
      "case": "success",
      "end": 9.38,
      "endOffset": 136,
      "phones": [
        {
          "duration": 0.13,
          "phone": "hh_B"
        },
        {
          "duration": 0.14,
          "phone": "aw_I"
        },
        {
          "duration": 0.09,
          "phone": "eh_I"
        },
        {
          "duration": 0.09,
          "phone": "v_I"
        },
        {
          "duration": 0.18,
          "phone": "er_E"
        }
      ],
      "start": 8.75,
      "startOffset": 129,
      "word": "HOWEVER"
    },
    {
      "alignedWord": "scarcely",
      "case": "success",
      "end": 10.149999,
      "endOffset": 145,
      "phones": [
        {
          "duration": 0.17,
          "phone": "s_B"
        },
        {
          "duration": 0.08,
          "phone": "k_I"
        },
        {
          "duration": 0.1,
          "phone": "eh_I"
        },
        {
          "duration": 0.12,
          "phone": "r_I"
        },
        {
          "duration": 0.13,
          "phone": "s_I"
        },
        {
          "duration": 0.09,
          "phone": "l_I"
        },
        {
          "duration": 0.07,
          "phone": "iy_E"
        }
      ],
      "start": 9.389999,
      "startOffset": 137,
      "word": "SCARCELY"
    },
    {
      "alignedWord": "able",
      "case": "success",
      "end": 10.47,
      "endOffset": 150,
      "phones": [
        {
          "duration": 0.14,
          "phone": "ey_B"
        },
        {
          "duration": 0.03,
          "phone": "b_I"
        },
        {
          "duration": 0.05,
          "phone": "ah_I"
        },
        {
          "duration": 0.09,
          "phone": "l_E"
        }
      ],
      "start": 10.16,
      "startOffset": 146,
      "word": "ABLE"
    },
    {
      "alignedWord": "to",
      "case": "success",
      "end": 10.609999,
      "endOffset": 153,
      "phones": [
        {
          "duration": 0.08,
          "phone": "t_B"
        },
        {
          "duration": 0.06,
          "phone": "ah_E"
        }
      ],
      "start": 10.469999,
      "startOffset": 151,
      "word": "TO"
    },
    {
      "alignedWord": "believe",
      "case": "success",
      "end": 10.91,
      "endOffset": 161,
      "phones": [
        {
          "duration": 0.01,
          "phone": "b_B"
        },
        {
          "duration": 0.05,
          "phone": "ih_I"
        },
        {
          "duration": 0.1,
          "phone": "l_I"
        },
        {
          "duration": 0.07,
          "phone": "iy_I"
        },
        {
          "duration": 0.07,
          "phone": "v_E"
        }
      ],
      "start": 10.61,
      "startOffset": 154,
      "word": "BELIEVE"
    },
    {
      "alignedWord": "her",
      "case": "success",
      "end": 11.07,
      "endOffset": 165,
      "phones": [
        {
          "duration": 0.07,
          "phone": "hh_B"
        },
        {
          "duration": 0.09,
          "phone": "er_E"
        }
      ],
      "start": 10.91,
      "startOffset": 162,
      "word": "HER"
    },
    {
      "alignedWord": "eyes",
      "case": "success",
      "end": 11.530000000000001,
      "endOffset": 170,
      "phones": [
        {
          "duration": 0.34,
          "phone": "ay_B"
        },
        {
          "duration": 0.12,
          "phone": "z_E"
        }
      ],
      "start": 11.07,
      "startOffset": 166,
      "word": "EYES"
    }
  ]
}