{
  "transcript": "WHILE THE PRINCE HURRIED BACK TO HIS CASTLE TO GATHER TOGETHER A TROOP OF HORSEMEN FULL OF COURAGE FOR WHATEVER MIGHT BEFALL THE PRINCESS MEANWHILE WAS CRAFTILY PURSUING HER PLAN OF ESCAPE",
  "words": [
    {
      "alignedWord": "while",
      "case": "success",
      "end": 0.48,
      "endOffset": 5,
      "phones": [
        {
          "duration": 0.09,
          "phone": "w_B"
        },
        {
          "duration": 0.03,
          "phone": "ay_I"
        },
        {
          "duration": 0.06,
          "phone": "l_E"
        }
      ],
      "start": 0.3,
      "startOffset": 0,
      "word": "WHILE"
    },
    {
      "alignedWord": "the",
      "case": "success",
      "end": 0.57,
      "endOffset": 9,
      "phones": [
        {
          "duration": 0.05,
          "phone": "dh_B"
        },
        {
          "duration": 0.04,
          "phone": "ah_E"
        }
      ],
      "start": 0.48,
      "startOffset": 6,
      "word": "THE"
    },
    {
      "alignedWord": "prince",
      "case": "success",
      "end": 1.08,
      "endOffset": 16,
      "phones": [
        {
          "duration": 0.15,
          "phone": "p_B"
        },
        {
          "duration": 0.07,
          "phone": "r_I"
        },
        {
          "duration": 0.09,
          "phone": "ih_I"
        },
        {
          "duration": 0.09,
          "phone": "n_I"
        },
        {
          "duration": 0.11,
          "phone": "s_E"
        }
      ],
      "start": 0.57,
      "startOffset": 10,
      "word": "PRINCE"
    },
    {
      "alignedWord": "hurried",
      "case": "success",
      "end": 1.59,
      "endOffset": 24,
      "phones": [
        {
          "duration": 0.17,
          "phone": "hh_B"
        },
        {
          "duration": 0.15,
          "phone": "er_I"
        },
        {
          "duration": 0.1,
          "phone": "iy_I"
        },
        {
          "duration": 0.08,
          "phone": "d_E"
        }
      ],
      "start": 1.09,
      "startOffset": 17,
      "word": "HURRIED"
    },
    {
      "alignedWord": "back",
      "case": "success",
      "end": 1.98,
      "endOffset": 29,
      "phones": [
        {
          "duration": 0.1,
          "phone": "b_B"
        },
        {
          "duration": 0.17,
          "phone": "ae_I"
        },
        {
          "duration": 0.08,
          "phone": "k_E"
        }
      ],
      "start": 1.63,
      "startOffset": 25,
      "word": "BACK"
    },
    {
      "alignedWord": "to",
      "case": "success",
      "end": 2.15,
      "endOffset": 32,
      "phones": [
        {
          "duration": 0.09,
          "phone": "t_B"
        },
        {
          "duration": 0.07,
          "phone": "uw_E"
        }
      ],
      "start": 1.99,
      "startOffset": 30,
      "word": "TO"
    },
    {
      "alignedWord": "his",
      "case": "success",
      "end": 2.31,
      "endOffset": 36,
      "phones": [
        {
          "duration": 0.03,
          "phone": "hh_B"
        },
        {
          "duration": 0.01,
          "phone": "ih_I"
        },
        {
          "duration": 0.12,
          "phone": "z_E"
        }
      ],
      "start": 2.15,
      "startOffset": 33,
      "word": "HIS"
    },
    {
      "alignedWord": "castle",
      "case": "success",
      "end": 2.83,
      "endOffset": 43,
      "phones": [
        {
          "duration": 0.12,
          "phone": "k_B"
        },
        {
          "duration": 0.15,
          "phone": "ae_I"
        },
        {
          "duration": 0.1,
          "phone": "s_I"
        },
        {
          "duration": 0.09,
          "phone": "ah_I"
        },
        {
          "duration": 0.06,
          "phone": "l_E"
        }
      ],
      "start": 2.31,
      "startOffset": 37,
      "word": "CASTLE"
    },
    {
      "alignedWord": "to",
      "case": "success",
      "end": 3.0,
      "endOffset": 46,
      "phones": [
        {
          "duration": 0.1,
          "phone": "t_B"
        },
        {
          "duration": 0.07,
          "phone": "ih_E"
        }
      ],
      "start": 2.83,
      "startOffset": 44,
      "word": "TO"
    },
    {
      "alignedWord": "gather",
      "case": "success",
      "end": 3.41,
      "endOffset": 53,
      "phones": [
        {
          "duration": 0.12,
          "phone": "g_B"
        },
        {
          "duration": 0.08,
          "phone": "ae_I"
        },
        {
          "duration": 0.1,
          "phone": "dh_I"
        },
        {
          "duration": 0.11,
          "phone": "er_E"
        }
      ],
      "start": 3.0,
      "startOffset": 47,
      "word": "GATHER"
    },
    {
      "alignedWord": "together",
      "case": "success",
      "end": 3.89,
      "endOffset": 62,
      "phones": [
        {
          "duration": 0.08,
          "phone": "t_B"
        },
        {
          "duration": 0.05,
          "phone": "ah_I"
        },
        {
          "duration": 0.09,
          "phone": "g_I"
        },
        {
          "duration": 0.08,
          "phone": "eh_I"
        },
        {
          "duration": 0.06,
          "phone": "dh_I"
        },
        {
          "duration": 0.12,
          "phone": "er_E"
        }
      ],
      "start": 3.41,
      "startOffset": 54,
      "word": "TOGETHER"
    },
    {
      "alignedWord": "a",
      "case": "success",
      "end": 4.0,
      "endOffset": 64,
      "phones": [
        {
          "duration": 0.11,
          "phone": "ah_S"
        }
      ],
      "start": 3.89,
      "startOffset": 63,
      "word": "A"
    },
    {
      "alignedWord": "troop",
      "case": "success",
      "end": 4.39,
      "endOffset": 70,
      "phones": [
        {
          "duration": 0.1,
          "phone": "t_B"
        },
        {
          "duration": 0.07,
          "phone": "r_I"
        },
        {
          "duration": 0.06,
          "phone": "uw_I"
        },
        {
          "duration": 0.08,
          "phone": "p_E"
        }
      ],
      "start": 4.08,
      "startOffset": 65,
      "word": "TROOP"
    },
    {
      "alignedWord": "of",
      "case": "success",
      "end": 4.51,
      "endOffset": 73,
      "phones": [
        {
          "duration": 0.06,
          "phone": "ah_B"
        },
        {
          "duration": 0.06,
          "phone": "v_E"
        }
      ],
      "start": 4.39,
      "startOffset": 71,
      "word": "OF"
    },
    {
      "alignedWord": "horsemen",
      "case": "success",
      "end": 5.18,
      "endOffset": 82,
      "phones": [
        {
          "duration": 0.07,
          "phone": "hh_B"
        },
        {
          "duration": 0.11,
          "phone": "ao_I"
        },
        {
          "duration": 0.07,
          "phone": "r_I"
        },
        {
          "duration": 0.1,
          "phone": "s_I"
        },
        {
          "duration": 0.05,
          "phone": "m_I"
        },
        {
          "duration": 0.07,
          "phone": "ah_I"
        },
        {
          "duration": 0.2,
          "phone": "n_E"
        }
      ],
      "start": 4.51,
      "startOffset": 74,
      "word": "HORSEMEN"
    },
    {
      "alignedWord": "full",
      "case": "success",
      "end": 5.49,
      "endOffset": 87,
      "phones": [
        {
          "duration": 0.16,
          "phone": "f_B"
        },
        {
          "duration": 0.08,
          "phone": "uh_I"
        },
        {
          "duration": 0.03,
          "phone": "l_E"
        }
      ],
      "start": 5.22,
      "startOffset": 83,
      "word": "FULL"
    },
    {
      "alignedWord": "of",
      "case": "success",
      "end": 5.61,
      "endOffset": 90,
      "phones": [
        {
          "duration": 0.05,
          "phone": "ah_B"
        },
        {
          "duration": 0.07,
          "phone": "v_E"
        }
      ],
      "start": 5.49,
      "startOffset": 88,
      "word": "OF"
    },
    {
      "alignedWord": "courage",
      "case": "success",
      "end": 6.21,
      "endOffset": 98,
      "phones": [
        {
          "duration": 0.17,
          "phone": "k_B"
        },
        {
          "duration": 0.15,
          "phone": "er_I"
        },
        {
          "duration": 0.12,
          "phone": "ah_I"
        },
        {
          "duration": 0.16,
          "phone": "jh_E"
        }
      ],
      "start": 5.61,
      "startOffset": 91,
      "word": "COURAGE"
    },
    {
      "alignedWord": "for",
      "case": "success",
      "end": 6.39,
      "endOffset": 102,
      "phones": [
        {
          "duration": 0.09,
          "phone": "f_B"
        },
        {
          "duration": 0.08,
          "phone": "er_E"
        }
      ],
      "start": 6.22,
      "startOffset": 99,
      "word": "FOR"
    },
    {
      "alignedWord": "whatever",
      "case": "success",
      "end": 6.819999999999999,
      "endOffset": 111,
      "phones": [
        {
          "duration": 0.09,
          "phone": "w_B"
        },
        {
          "duration": 0.08,
          "phone": "ah_I"
        },
        {
          "duration": 0.03,
          "phone": "t_I"
        },
        {
          "duration": 0.07,
          "phone": "eh_I"
        },
        {
          "duration": 0.08,
          "phone": "v_I"
        },
        {
          "duration": 0.08,
          "phone": "er_E"
        }
      ],
      "start": 6.39,
      "startOffset": 103,
      "word": "WHATEVER"
    },
    {
      "alignedWord": "might",
      "case": "success",
      "end": 7.050000000000001,
      "endOffset": 117,
      "phones": [
        {
          "duration": 0.06,
          "phone": "m_B"
        },
        {
          "duration": 0.1,
          "phone": "ay_I"
        },
        {
          "duration": 0.07,
          "phone": "t_E"
        }
      ],
      "start": 6.82,
      "startOffset": 112,
      "word": "MIGHT"
    },
    {
      "alignedWord": "befall",
      "case": "success",
      "end": 7.6499999999999995,
      "endOffset": 124,
      "phones": [
        {
          "duration": 0.04,
          "phone": "b_B"
        },
        {
          "duration": 0.06,
          "phone": "ih_I"
        },
        {
          "duration": 0.1,
          "phone": "f_I"
        },
        {
          "duration": 0.13,
          "phone": "ao_I"
        },
        {
          "duration": 0.27,
          "phone": "l_E"
        }
      ],
      "start": 7.05,
      "startOffset": 118,
      "word": "BEFALL"
    },
    {
      "alignedWord": "the",
      "case": "success",
      "end": 9.749999,
      "endOffset": 128,
      "phones": [
        {
          "duration": 0.09,
          "phone": "dh_B"
        },
        {
          "duration": 0.06,
          "phone": "ah_E"
        }
      ],
      "start": 9.599999,
      "startOffset": 125,
      "word": "THE"
    },
    {
      "alignedWord": "princess",
      "case": "success",
      "end": 10.78,
      "endOffset": 137,
      "phones": [
        {
          "duration": 0.12,
          "phone": "p_B"
        },
        {
          "duration": 0.06,
          "phone": "r_I"
        },
        {
          "duration": 0.05,
          "phone": "ih_I"
        },
        {
          "duration": 0.15,
          "phone": "n_I"
        },
        {
          "duration": 0.14,
          "phone": "s_I"
        },
        {
          "duration": 0.19,
          "phone": "eh_I"
        },
        {
          "duration": 0.32,
          "phone": "s_E"
        }
      ],
      "start": 9.75,
      "startOffset": 129,
      "word": "PRINCESS"
    },
    {
      "alignedWord": "meanwhile",
      "case": "success",
      "end": 11.69,
      "endOffset": 147,
      "phones": [
        {
          "duration": 0.15,
          "phone": "m_B"
        },
        {
          "duration": 0.11,
          "phone": "iy_I"
        },
        {
          "duration": 0.08,
          "phone": "n_I"
        },
        {
          "duration": 0.12,
          "phone": "w_I"
        },
        {
          "duration": 0.15,
          "phone": "ay_I"
        },
        {
          "duration": 0.24,
          "phone": "l_E"
        }
      ],
      "start": 10.84,
      "startOffset": 138,
      "word": "MEANWHILE"
    },
    {
      "alignedWord": "was",
      "case": "success",
      "end": 11.92,
      "endOffset": 151,
      "phones": [
        {
          "duration": 0.07,
          "phone": "w_B"
        },
        {
          "duration": 0.05,
          "phone": "ah_I"
        },
        {
          "duration": 0.07,
          "phone": "z_E"
        }
      ],
      "start": 11.73,
      "startOffset": 148,
      "word": "WAS"
    },
    {
      "alignedWord": "<unk>",
      "case": "success",
      "end": 12.73,
      "endOffset": 160,
      "phones": [
        {
          "duration": 0.77,
          "phone": "oov_S"
        }
      ],
      "start": 11.96,
      "startOffset": 152,
      "word": "CRAFTILY"
    },
    {
      "alignedWord": "pursuing",
      "case": "success",
      "end": 13.469999,
      "endOffset": 169,
      "phones": [
        {
          "duration": 0.13,
          "phone": "p_B"
        },
        {
          "duration": 0.08,
          "phone": "er_I"
        },
        {
          "duration": 0.19,
          "phone": "s_I"
        },
        {
          "duration": 0.1,
          "phone": "uw_I"
        },
        {
          "duration": 0.09,
          "phone": "ih_I"
        },
        {
          "duration": 0.07,
          "phone": "ng_E"
        }
      ],
      "start": 12.809999,
      "startOffset": 161,
      "word": "PURSUING"
    },
    {
      "alignedWord": "her",
      "case": "success",
      "end": 13.599999,
      "endOffset": 173,
      "phones": [
        {
          "duration": 0.08,
          "phone": "hh_B"
        },
        {
          "duration": 0.05,
          "phone": "er_E"
        }
      ],
      "start": 13.469999,
      "startOffset": 170,
      "word": "HER"
    },
    {
      "alignedWord": "plan",
      "case": "success",
      "end": 13.929999,
      "endOffset": 178,
      "phones": [
        {
          "duration": 0.12,
          "phone": "p_B"
        },
        {
          "duration": 0.08,
          "phone": "l_I"
        },
        {
          "duration": 0.09,
          "phone": "ae_I"
        },
        {
          "duration": 0.04,
          "phone": "n_E"
        }
      ],
      "start": 13.599999,
      "startOffset": 174,
      "word": "PLAN"
    },
    {
      "alignedWord": "of",
      "case": "success",
      "end": 14.039999,
      "endOffset": 181,
      "phones": [
        {
          "duration": 0.04,
          "phone": "ah_B"
        },
        {
          "duration": 0.07,
          "phone": "v_E"
        }
      ],
      "start": 13.929999,
      "startOffset": 179,
      "word": "OF"
    },
    {
      "alignedWord": "escape",
      "case": "success",
      "end": 14.679999,
      "endOffset": 188,
      "phones": [
        {
          "duration": 0.01,
          "phone": "ih_B"
        },
        {
          "duration": 0.14,
          "phone": "s_I"
        },
        {
          "duration": 0.1,
          "phone": "k_I"
        },
        {
          "duration": 0.16,
          "phone": "ey_I"
        },
        {
          "duration": 0.22,
          "phone": "p_E"
        }
      ],
      "start": 14.049999,
      "startOffset": 182,
      "word": "ESCAPE"
    }
  ]
}