{
  "transcript": "WHICH BELONGS TO AN UNLUCKY MORTAL WHO WISHES THE EARTH WOULD OPEN AND SWALLOW UP HIM AND HIS MEMORY FOR EVER THEREUPON HE CAUGHT UP A GREAT STONE",
  "words": [
    {
      "alignedWord": "which",
      "case": "success",
      "end": 0.33,
      "endOffset": 5,
      "phones": [
        {
          "duration": 0.02,
          "phone": "hh_B"
        },
        {
          "duration": 0.06,
          "phone": "w_I"
        },
        {
          "duration": 0.04,
          "phone": "ih_I"
        },
        {
          "duration": 0.08,
          "phone": "ch_E"
        }
      ],
      "start": 0.13,
      "startOffset": 0,
      "word": "WHICH"
    },
    {
      "alignedWord": "belongs",
      "case": "success",
      "end": 0.8600000000000001,
      "endOffset": 13,
      "phones": [
        {
          "duration": 0.04,
          "phone": "b_B"
        },
        {
          "duration": 0.06,
          "phone": "ih_I"
        },
        {
          "duration": 0.06,
          "phone": "l_I"
        },
        {
          "duration": 0.16,
          "phone": "ao_I"
        },
        {
          "duration": 0.1,
          "phone": "ng_I"
        },
        {
          "duration": 0.11,
          "phone": "z_E"
        }
      ],
      "start": 0.33,
      "startOffset": 6,
      "word": "BELONGS"
    },
    {
      "alignedWord": "to",
      "case": "success",
      "end": 1.03,
      "endOffset": 16,
      "phones": [
        {
          "duration": 0.11,
          "phone": "t_B"
        },
        {
          "duration": 0.06,
          "phone": "uw_E"
        }
      ],
      "start": 0.86,
      "startOffset": 14,
      "word": "TO"
    },
    {
      "alignedWord": "an",
      "case": "success",
      "end": 1.2,
      "endOffset": 19,
      "phones": [
        {
          "duration": 0.07,
          "phone": "ah_B"
        },
        {
          "duration": 0.1,
          "phone": "n_E"
        }
      ],
      "start": 1.03,
      "startOffset": 17,
      "word": "AN"
    },
    {
      "alignedWord": "unlucky",
      "case": "success",
      "end": 1.87,
      "endOffset": 27,
      "phones": [
        {
          "duration": 0.11,
          "phone": "ah_B"
        },
        {
          "duration": 0.19,
          "phone": "n_I"
        },
        {
          "duration": 0.08,
          "phone": "l_I"
        },
        {
          "duration": 0.07,
          "phone": "ah_I"
        },
        {
          "duration": 0.12,
          "phone": "k_I"
        },
        {
          "duration": 0.09,
          "phone": "iy_E"
        }
      ],
      "start": 1.21,
      "startOffset": 20,
      "word": "UNLUCKY"
    },
    {
      "alignedWord": "mortal",
      "case": "success",
      "end": 2.3600000000000003,
      "endOffset": 34,
      "phones": [
        {
          "duration": 0.09,
          "phone": "m_B"
        },
        {
          "duration": 0.11,
          "phone": "ao_I"
        },
        {
          "duration": 0.01,
          "phone": "r_I"
        },
        {
          "duration": 0.06,
          "phone": "t_I"
        },
        {
          "duration": 0.06,
          "phone": "ah_I"
        },
        {
          "duration": 0.16,
          "phone": "l_E"
        }
      ],
      "start": 1.87,
      "startOffset": 28,
      "word": "MORTAL"
    },
    {
      "alignedWord": "who",
      "case": "success",
      "end": 2.7,
      "endOffset": 38,
      "phones": [
        {
          "duration": 0.09,
          "phone": "hh_B"
        },
        {
          "duration": 0.09,
          "phone": "uw_E"
        }
      ],
      "start": 2.52,
      "startOffset": 35,
      "word": "WHO"
    },
    {
      "alignedWord": "wishes",
      "case": "success",
      "end": 3.0500000000000003,
      "endOffset": 45,
      "phones": [
        {
          "duration": 0.05,
          "phone": "w_B"
        },
        {
          "duration": 0.09,
          "phone": "ih_I"
        },
        {
          "duration": 0.08,
          "phone": "sh_I"
        },
        {
          "duration": 0.07,
          "phone": "ih_I"
        },
        {
          "duration": 0.06,
          "phone": "z_E"
        }
      ],
      "start": 2.7,
      "startOffset": 39,
      "word": "WISHES"
    },
    {
      "alignedWord": "the",
      "case": "success",
      "end": 3.2399999999999998,
      "endOffset": 49,
      "phones": [
        {
          "duration": 0.06,
          "phone": "dh_B"
        },
        {
          "duration": 0.13,
          "phone": "iy_E"
        }
      ],
      "start": 3.05,
      "startOffset": 46,
      "word": "THE"
    },
    {
      "alignedWord": "earth",
      "case": "success",
      "end": 3.56,
      "endOffset": 55,
      "phones": [
        {
          "duration": 0.18,
          "phone": "er_B"
        },
        {
          "duration": 0.09,
          "phone": "th_E"
        }
      ],
      "start": 3.29,
      "startOffset": 50,
      "word": "EARTH"
    },
    {
      "alignedWord": "would",
      "case": "success",
      "end": 3.8000000000000003,
      "endOffset": 61,
      "phones": [
        {
          "duration": 0.09,
          "phone": "w_B"
        },
        {
          "duration": 0.04,
          "phone": "uh_I"
        },
        {
          "duration": 0.09,
          "phone": "d_E"
        }
      ],
      "start": 3.58,
      "startOffset": 56,
      "word": "WOULD"
    },
    {
      "alignedWord": "open",
      "case": "success",
      "end": 4.17,
      "endOffset": 66,
      "phones": [
        {
          "duration": 0.16,
          "phone": "ow_B"
        },
        {
          "duration": 0.09,
          "phone": "p_I"
        },
        {
          "duration": 0.08,
          "phone": "ah_I"
        },
        {
          "duration": 0.04,
          "phone": "n_E"
        }
      ],
      "start": 3.8,
      "startOffset": 62,
      "word": "OPEN"
    },
    {
      "alignedWord": "and",
      "case": "success",
      "end": 4.34,
      "endOffset": 70,
      "phones": [
        {
          "duration": 0.04,
          "phone": "ae_B"
        },
        {
          "duration": 0.05,
          "phone": "n_I"
        },
        {
          "duration": 0.08,
          "phone": "d_E"
        }
      ],
      "start": 4.17,
      "startOffset": 67,
      "word": "AND"
    },
    {
      "alignedWord": "swallow",
      "case": "success",
      "end": 5.02,
      "endOffset": 78,
      "phones": [
        {
          "duration": 0.21,
          "phone": "s_B"
        },
        {
          "duration": 0.1,
          "phone": "w_I"
        },
        {
          "duration": 0.14,
          "phone": "aa_I"
        },
        {
          "duration": 0.1,
          "phone": "l_I"
        },
        {
          "duration": 0.13,
          "phone": "ow_E"
        }
      ],
      "start": 4.34,
      "startOffset": 71,
      "word": "SWALLOW"
    },
    {
      "alignedWord": "up",
      "case": "success",
      "end": 5.2299999999999995,
      "endOffset": 81,
      "phones": [
        {
          "duration": 0.08,
          "phone": "ah_B"
        },
        {
          "duration": 0.13,
          "phone": "p_E"
        }
      ],
      "start": 5.02,
      "startOffset": 79,
      "word": "UP"
    },
    {
      "alignedWord": "him",
      "case": "success",
      "end": 5.7,
      "endOffset": 85,
      "phones": [
        {
          "duration": 0.1,
          "phone": "hh_B"
        },
        {
          "duration": 0.12,
          "phone": "ih_I"
        },
        {
          "duration": 0.23,
          "phone": "m_E"
        }
      ],
      "start": 5.25,
      "startOffset": 82,
      "word": "HIM"
    },
    {
      "alignedWord": "and",
      "case": "success",
      "end": 6.28,
      "endOffset": 89,
      "phones": [
        {
          "duration": 0.08,
          "phone": "ae_B"
        },
        {
          "duration": 0.04,
          "phone": "n_I"
        },
        {
          "duration": 0.04,
          "phone": "d_E"
        }
      ],
      "start": 6.12,
      "startOffset": 86,
      "word": "AND"
    },
    {
      "alignedWord": "his",
      "case": "success",
      "end": 6.5,
      "endOffset": 93,
      "phones": [
        {
          "duration": 0.04,
          "phone": "hh_B"
        },
        {
          "duration": 0.08,
          "phone": "ih_I"
        },
        {
          "duration": 0.1,
          "phone": "z_E"
        }
      ],
      "start": 6.28,
      "startOffset": 90,
      "word": "HIS"
    },
    {
      "alignedWord": "memory",
      "case": "success",
      "end": 7.07,
      "endOffset": 100,
      "phones": [
        {
          "duration": 0.12,
          "phone": "m_B"
        },
        {
          "duration": 0.11,
          "phone": "eh_I"
        },
        {
          "duration": 0.08,
          "phone": "m_I"
        },
        {
          "duration": 0.11,
          "phone": "er_I"
        },
        {
          "duration": 0.15,
          "phone": "iy_E"
        }
      ],
      "start": 6.5,
      "startOffset": 94,
      "word": "MEMORY"
    },
    {
      "alignedWord": "for",
      "case": "success",
      "end": 7.36,
      "endOffset": 104,
      "phones": [
        {
          "duration": 0.12,
          "phone": "f_B"
        },
        {
          "duration": 0.06,
          "phone": "ao_I"
        },
        {
          "duration": 0.1,
          "phone": "r_E"
        }
      ],
      "start": 7.08,
      "startOffset": 101,
      "word": "FOR"
    },
    {
      "alignedWord": "ever",
      "case": "success",
      "end": 7.79,
      "endOffset": 109,
      "phones": [
        {
          "duration": 0.07,
          "phone": "eh_B"
        },
        {
          "duration": 0.11,
          "phone": "v_I"
        },
        {
          "duration": 0.24,
          "phone": "er_E"
        }
      ],
      "start": 7.37,
      "startOffset": 105,
      "word": "EVER"
    },
    {
      "alignedWord": "<unk>",
      "case": "success",
      "end": 8.789999,
      "endOffset": 119,
      "phones": [
        {
          "duration": 0.69,
          "phone": "oov_S"
        }
      ],
      "start": 8.099999,
      "startOffset": 110,
      "word": "THEREUPON"
    },
    {
      "alignedWord": "he",
      "case": "success",
      "end": 9.020000000000001,
      "endOffset": 122,
      "phones": [
        {
          "duration": 0.11,
          "phone": "hh_B"
        },
        {
          "duration": 0.11,
          "phone": "iy_E"
        }
      ],
      "start": 8.8,
      "startOffset": 120,
      "word": "HE"
    },
    {
      "alignedWord": "caught",
      "case": "success",
      "end": 9.4,
      "endOffset": 129,
      "phones": [
        {
          "duration": 0.13,
          "phone": "k_B"
        },
        {
          "duration": 0.18,
          "phone": "ao_I"
        },
        {
          "duration": 0.07,
          "phone": "t_E"
        }
      ],
      "start": 9.02,
      "startOffset": 123,
      "word": "CAUGHT"
    },
    {
      "alignedWord": "up",
      "case": "success",
      "end": 9.55,
      "endOffset": 132,
      "phones": [
        {
          "duration": 0.05,
          "phone": "ah_B"
        },
        {
          "duration": 0.1,
          "phone": "p_E"
        }
      ],
      "start": 9.4,
      "startOffset": 130,
      "word": "UP"
    },
    {
      "alignedWord": "a",
      "case": "success",
      "end": 9.65,
      "endOffset": 134,
      "phones": [
        {
          "duration": 0.1,
          "phone": "ah_S"
        }
      ],
      "start": 9.55,
      "startOffset": 133,
      "word": "A"
    },
    {
      "alignedWord": "great",
      "case": "success",
      "end": 10.229999999999999,
      "endOffset": 140,
      "phones": [
        {
          "duration": 0.09,
          "phone": "g_B"
        },
        {
          "duration": 0.1,
          "phone": "r_I"
        },
        {
          "duration": 0.06,
          "phone": "ey_I"
        },
        {
          "duration": 0.11,
          "phone": "t_E"
        }
      ],
      "start": 9.87,
      "startOffset": 135,
      "word": "GREAT"
    },
    {
      "alignedWord": "stone",
      "case": "success",
      "end": 10.88,
      "endOffset": 146,
      "phones": [
        {
          "duration": 0.19,
          "phone": "s_B"
        },
        {
          "duration": 0.1,
          "phone": "t_I"
        },
        {
          "duration": 0.19,
          "phone": "ow_I"
        },
        {
          "duration": 0.17,
          "phone": "n_E"
        }
      ],
      "start": 10.23,
      "startOffset": 141,
      "word": "STONE"
    }
  ]
}