{
  "transcript": "AND THIS ISTHMUS OF THE GUARDED NECK WAS HIDDEN BY THE OUTLYING CLIFF IN THE SOUTH WESTERN ANGLE OF THIS CLIFF ABOUT MIDWAY BETWEEN THE SUMMIT AND THE SEA WAS AN ARCH WHICH VOMITED A RED AND FLICKERING LIGHT THAT FAINTLY SHONE UPON THE SEA IN THE TRACK OF THE BOAT",
  "words": [
    {
      "alignedWord": "and",
      "case": "success",
      "end": 0.37,
      "endOffset": 3,
      "phones": [
        {
          "duration": 0.05,
          "phone": "ah_B"
        },
        {
          "duration": 0.06,
          "phone": "n_I"
        },
        {
          "duration": 0.04,
          "phone": "d_E"
        }
      ],
      "start": 0.22,
      "startOffset": 0,
      "word": "AND"
    },
    {
      "alignedWord": "this",
      "case": "success",
      "end": 0.55,
      "endOffset": 8,
      "phones": [
        {
          "duration": 0.01,
          "phone": "dh_B"
        },
        {
          "duration": 0.09,
          "phone": "ih_I"
        },
        {
          "duration": 0.08,
          "phone": "s_E"
        }
      ],
      "start": 0.37,
      "startOffset": 4,
      "word": "THIS"
    },
    {
      "alignedWord": "<unk>",
      "case": "success",
      "end": 1.0899999999999999,
      "endOffset": 16,
      "phones": [
        {
          "duration": 0.51,
          "phone": "oov_S"
        }
      ],
      "start": 0.58,
      "startOffset": 9,
      "word": "ISTHMUS"
    },
    {
      "alignedWord": "of",
      "case": "success",
      "end": 1.28,
      "endOffset": 19,
      "phones": [
        {
          "duration": 0.1,
          "phone": "ah_B"
        },
        {
          "duration": 0.07,
          "phone": "v_E"
        }
      ],
      "start": 1.11,
      "startOffset": 17,
      "word": "OF"
    },
    {
      "alignedWord": "the",
      "case": "success",
      "end": 1.4000000000000001,
      "endOffset": 23,
      "phones": [
        {
          "duration": 0.07,
          "phone": "dh_B"
        },
        {
          "duration": 0.04,
          "phone": "ah_E"
        }
      ],
      "start": 1.29,
      "startOffset": 20,
      "word": "THE"
    },
    {
      "alignedWord": "guarded",
      "case": "success",
      "end": 1.7799999999999998,
      "endOffset": 31,
      "phones": [
        {
          "duration": 0.06,
          "phone": "g_B"
        },
        {
          "duration": 0.06,
          "phone": "aa_I"
        },
        {
          "duration": 0.07,
          "phone": "r_I"
        },
        {
          "duration": 0.05,
          "phone": "d_I"
        },
        {
          "duration": 0.08,
          "phone": "ih_I"
        },
        {
          "duration": 0.06,
          "phone": "d_E"
        }
      ],
      "start": 1.4,
      "startOffset": 24,
      "word": "GUARDED"
    },
    {
      "alignedWord": "neck",
      "case": "success",
      "end": 2.12,
      "endOffset": 36,
      "phones": [
        {
          "duration": 0.07,
          "phone": "n_B"
        },
        {
          "duration": 0.12,
          "phone": "eh_I"
        },
        {
          "duration": 0.15,
          "phone": "k_E"
        }
      ],
      "start": 1.78,
      "startOffset": 32,
      "word": "NECK"
    },
    {
      "alignedWord": "was",
      "case": "success",
      "end": 2.39,
      "endOffset": 40,
      "phones": [
        {
          "duration": 0.07,
          "phone": "w_B"
        },
        {
          "duration": 0.06,
          "phone": "ah_I"
        },
        {
          "duration": 0.1,
          "phone": "z_E"
        }
      ],
      "start": 2.16,
      "startOffset": 37,
      "word": "WAS"
    },
    {
      "alignedWord": "hidden",
      "case": "success",
      "end": 2.71,
      "endOffset": 47,
      "phones": [
        {
          "duration": 0.06,
          "phone": "hh_B"
        },
        {
          "duration": 0.05,
          "phone": "ih_I"
        },
        {
          "duration": 0.01,
          "phone": "d_I"
        },
        {
          "duration": 0.1,
          "phone": "ah_I"
        },
        {
          "duration": 0.09,
          "phone": "n_E"
        }
      ],
      "start": 2.4,
      "startOffset": 41,
      "word": "HIDDEN"
    },
    {
      "alignedWord": "by",
      "case": "success",
      "end": 2.89,
      "endOffset": 50,
      "phones": [
        {
          "duration": 0.07,
          "phone": "b_B"
        },
        {
          "duration": 0.11,
          "phone": "ay_E"
        }
      ],
      "start": 2.71,
      "startOffset": 48,
      "word": "BY"
    },
    {
      "alignedWord": "the",
      "case": "success",
      "end": 3.05,
      "endOffset": 54,
      "phones": [
        {
          "duration": 0.08,
          "phone": "dh_B"
        },
        {
          "duration": 0.07,
          "phone": "iy_E"
        }
      ],
      "start": 2.9,
      "startOffset": 51,
      "word": "THE"
    },
    {
      "alignedWord": "outlying",
      "case": "success",
      "end": 3.55,
      "endOffset": 63,
      "phones": [
        {
          "duration": 0.09,
          "phone": "aw_B"
        },
        {
          "duration": 0.09,
          "phone": "t_I"
        },
        {
          "duration": 0.05,
          "phone": "l_I"
        },
        {
          "duration": 0.13,
          "phone": "ay_I"
        },
        {
          "duration": 0.07,
          "phone": "ih_I"
        },
        {
          "duration": 0.07,
          "phone": "ng_E"
        }
      ],
      "start": 3.05,
      "startOffset": 55,
      "word": "OUTLYING"
    },
    {
      "alignedWord": "cliff",
      "case": "success",
      "end": 3.92,
      "endOffset": 69,
      "phones": [
        {
          "duration": 0.07,
          "phone": "k_B"
        },
        {
          "duration": 0.05,
          "phone": "l_I"
        },
        {
          "duration": 0.11,
          "phone": "ih_I"
        },
        {
          "duration": 0.14,
          "phone": "f_E"
        }
      ],
      "start": 3.55,
      "startOffset": 64,
      "word": "CLIFF"
    },
    {
      "alignedWord": "in",
      "case": "success",
      "end": 4.67,
      "endOffset": 72,
      "phones": [
        {
          "duration": 0.08,
          "phone": "ih_B"
        },
        {
          "duration": 0.07,
          "phone": "n_E"
        }
      ],
      "start": 4.52,
      "startOffset": 70,
      "word": "IN"
    },
    {
      "alignedWord": "the",
      "case": "success",
      "end": 4.77,
      "endOffset": 76,
      "phones": [
        {
          "duration": 0.04,
          "phone": "dh_B"
        },
        {
          "duration": 0.06,
          "phone": "ah_E"
        }
      ],
      "start": 4.67,
      "startOffset": 73,
      "word": "THE"
    },
    {
      "alignedWord": "south",
      "case": "success",
      "end": 5.119999999999999,
      "endOffset": 82,
      "phones": [
        {
          "duration": 0.09,
          "phone": "s_B"
        },
        {
          "duration": 0.15,
          "phone": "aw_I"
        },
        {
          "duration": 0.11,
          "phone": "th_E"
        }
      ],
      "start": 4.77,
      "startOffset": 77,
      "word": "SOUTH"
    },
    {
      "alignedWord": "western",
      "case": "success",
      "end": 5.53,
      "endOffset": 90,
      "phones": [
        {
          "duration": 0.03,
          "phone": "w_B"
        },
        {
          "duration": 0.1,
          "phone": "eh_I"
        },
        {
          "duration": 0.07,
          "phone": "s_I"
        },
        {
          "duration": 0.08,
          "phone": "t_I"
        },
        {
          "duration": 0.08,
          "phone": "er_I"
        },
        {
          "duration": 0.05,
          "phone": "n_E"
        }
      ],
      "start": 5.12,
      "startOffset": 83,
      "word": "WESTERN"
    },
    {
      "alignedWord": "angle",
      "case": "success",
      "end": 5.9,
      "endOffset": 96,
      "phones": [
        {
          "duration": 0.08,
          "phone": "ae_B"
        },
        {
          "duration": 0.09,
          "phone": "ng_I"
        },
        {
          "duration": 0.05,
          "phone": "g_I"
        },
        {
          "duration": 0.05,
          "phone": "ah_I"
        },
        {
          "duration": 0.1,
          "phone": "l_E"
        }
      ],
      "start": 5.53,
      "startOffset": 91,
      "word": "ANGLE"
    },
    {
      "alignedWord": "of",
      "case": "success",
      "end": 6.050000000000001,
      "endOffset": 99,
      "phones": [
        {
          "duration": 0.05,
          "phone": "ah_B"
        },
        {
          "duration": 0.1,
          "phone": "v_E"
        }
      ],
      "start": 5.9,
      "startOffset": 97,
      "word": "OF"
    },
    {
      "alignedWord": "this",
      "case": "success",
      "end": 6.2299999999999995,
      "endOffset": 104,
      "phones": [
        {
          "duration": 0.01,
          "phone": "dh_B"
        },
        {
          "duration": 0.09,
          "phone": "ih_I"
        },
        {
          "duration": 0.08,
          "phone": "s_E"
        }
      ],
      "start": 6.05,
      "startOffset": 100,
      "word": "THIS"
    },
    {
      "alignedWord": "cliff",
      "case": "success",
      "end": 6.6000000000000005,
      "endOffset": 110,
      "phones": [
        {
          "duration": 0.08,
          "phone": "k_B"
        },
        {
          "duration": 0.07,
          "phone": "l_I"
        },
        {
          "duration": 0.1,
          "phone": "ih_I"
        },
        {
          "duration": 0.12,
          "phone": "f_E"
        }
      ],
      "start": 6.23,
      "startOffset": 105,
      "word": "CLIFF"
    },
    {
      "alignedWord": "about",
      "case": "success",
      "end": 7.29,
      "endOffset": 116,
      "phones": [
        {
          "duration": 0.08,
          "phone": "ah_B"
        },
        {
          "duration": 0.08,
          "phone": "b_I"
        },
        {
          "duration": 0.07,
          "phone": "aw_I"
        },
        {
          "duration": 0.06,
          "phone": "t_E"
        }
      ],
      "start": 7.0,
      "startOffset": 111,
      "word": "ABOUT"
    },
    {
      "alignedWord": "midway",
      "case": "success",
      "end": 7.73,
      "endOffset": 123,
      "phones": [
        {
          "duration": 0.06,
          "phone": "m_B"
        },
        {
          "duration": 0.09,
          "phone": "ih_I"
        },
        {
          "duration": 0.08,
          "phone": "d_I"
        },
        {
          "duration": 0.08,
          "phone": "w_I"
        },
        {
          "duration": 0.13,
          "phone": "ey_E"
        }
      ],
      "start": 7.29,
      "startOffset": 117,
      "word": "MIDWAY"
    },
    {
      "alignedWord": "between",
      "case": "success",
      "end": 8.08,
      "endOffset": 131,
      "phones": [
        {
          "duration": 0.05,
          "phone": "b_B"
        },
        {
          "duration": 0.05,
          "phone": "ih_I"
        },
        {
          "duration": 0.07,
          "phone": "t_I"
        },
        {
          "duration": 0.05,
          "phone": "w_I"
        },
        {
          "duration": 0.07,
          "phone": "iy_I"
        },
        {
          "duration": 0.06,
          "phone": "n_E"
        }
      ],
      "start": 7.73,
      "startOffset": 124,
      "word": "BETWEEN"
    },
    {
      "alignedWord": "the",
      "case": "success",
      "end": 8.18,
      "endOffset": 135,
      "phones": [
        {
          "duration": 0.04,
          "phone": "dh_B"
        },
        {
          "duration": 0.06,
          "phone": "ah_E"
        }
      ],
      "start": 8.08,
      "startOffset": 132,
      "word": "THE"
    },
    {
      "alignedWord": "summit",
      "case": "success",
      "end": 8.499999,
      "endOffset": 142,
      "phones": [
        {
          "duration": 0.08,
          "phone": "s_B"
        },
        {
          "duration": 0.07,
          "phone": "ah_I"
        },
        {
          "duration": 0.08,
          "phone": "m_I"
        },
        {
          "duration": 0.07,
          "phone": "ah_I"
        },
        {
          "duration": 0.02,
          "phone": "t_E"
        }
      ],
      "start": 8.179999,
      "startOffset": 136,
      "word": "SUMMIT"
    },
    {
      "alignedWord": "and",
      "case": "success",
      "end": 8.719999999999999,
      "endOffset": 146,
      "phones": [
        {
          "duration": 0.06,
          "phone": "ae_B"
        },
        {
          "duration": 0.09,
          "phone": "n_I"
        },
        {
          "duration": 0.03,
          "phone": "d_E"
        }
      ],
      "start": 8.54,
      "startOffset": 143,
      "word": "AND"
    },
    {
      "alignedWord": "the",
      "case": "success",
      "end": 8.82,
      "endOffset": 150,
      "phones": [
        {
          "duration": 0.01,
          "phone": "dh_B"
        },
        {
          "duration": 0.09,
          "phone": "ah_E"
        }
      ],
      "start": 8.72,
      "startOffset": 147,
      "word": "THE"
    },
    {
      "alignedWord": "sea",
      "case": "success",
      "end": 9.24,
      "endOffset": 154,
      "phones": [
        {
          "duration": 0.12,
          "phone": "s_B"
        },
        {
          "duration": 0.3,
          "phone": "iy_E"
        }
      ],
      "start": 8.82,
      "startOffset": 151,
      "word": "SEA"
    },
    {
      "alignedWord": "was",
      "case": "success",
      "end": 9.729999999999999,
      "endOffset": 158,
      "phones": [
        {
          "duration": 0.07,
          "phone": "w_B"
        },
        {
          "duration": 0.06,
          "phone": "ah_I"
        },
        {
          "duration": 0.06,
          "phone": "z_E"
        }
      ],
      "start": 9.54,
      "startOffset": 155,
      "word": "WAS"
    },
    {
      "alignedWord": "an",
      "case": "success",
      "end": 9.85,
      "endOffset": 161,
      "phones": [
        {
          "duration": 0.03,
          "phone": "ah_B"
        },
        {
          "duration": 0.09,
          "phone": "n_E"
        }
      ],
      "start": 9.73,
      "startOffset": 159,
      "word": "AN"
    },
    {
      "alignedWord": "arch",
      "case": "success",
      "end": 10.299999999999999,
      "endOffset": 166,
      "phones": [
        {
          "duration": 0.1,
          "phone": "aa_B"
        },
        {
          "duration": 0.13,
          "phone": "r_I"
        },
        {
          "duration": 0.21,
          "phone": "ch_E"
        }
      ],
      "start": 9.86,
      "startOffset": 162,
      "word": "ARCH"
    },
    {
      "alignedWord": "which",
      "case": "success",
      "end": 10.770000000000001,
      "endOffset": 172,
      "phones": [
        {
          "duration": 0.03,
          "phone": "hh_B"
        },
        {
          "duration": 0.06,
          "phone": "w_I"
        },
        {
          "duration": 0.05,
          "phone": "ih_I"
        },
        {
          "duration": 0.08,
          "phone": "ch_E"
        }
      ],
      "start": 10.55,
      "startOffset": 167,
      "word": "WHICH"
    },
    {
      "alignedWord": "<unk>",
      "case": "success",
      "end": 11.29,
      "endOffset": 180,
      "phones": [
        {
          "duration": 0.5,
          "phone": "oov_S"
        }
      ],
      "start": 10.79,
      "startOffset": 173,
      "word": "VOMITED"
    },
    {
      "alignedWord": "a",
      "case": "success",
      "end": 11.42,
      "endOffset": 182,
      "phones": [
        {
          "duration": 0.1,
          "phone": "ah_S"
        }
      ],
      "start": 11.32,
      "startOffset": 181,
      "word": "A"
    },
    {
      "alignedWord": "red",
      "case": "success",
      "end": 11.68,
      "endOffset": 186,
      "phones": [
        {
          "duration": 0.07,
          "phone": "r_B"
        },
        {
          "duration": 0.13,
          "phone": "eh_I"
        },
        {
          "duration": 0.06,
          "phone": "d_E"
        }
      ],
      "start": 11.42,
      "startOffset": 183,
      "word": "RED"
    },
    {
      "alignedWord": "and",
      "case": "success",
      "end": 11.869999,
      "endOffset": 190,
      "phones": [
        {
          "duration": 0.06,
          "phone": "ae_B"
        },
        {
          "duration": 0.06,
          "phone": "n_I"
        },
        {
          "duration": 0.07,
          "phone": "d_E"
        }
      ],
      "start": 11.679999,
      "startOffset": 187,
      "word": "AND"
    },
    {
      "alignedWord": "flickering",
      "case": "success",
      "end": 12.37,
      "endOffset": 201,
      "phones": [
        {
          "duration": 0.07,
          "phone": "f_B"
        },
        {
          "duration": 0.02,
          "phone": "l_I"
        },
        {
          "duration": 0.07,
          "phone": "ih_I"
        },
        {
          "duration": 0.09,
          "phone": "k_I"
        },
        {
          "duration": 0.07,
          "phone": "er_I"
        },
        {
          "duration": 0.07,
          "phone": "ih_I"
        },
        {
          "duration": 0.11,
          "phone": "ng_E"
        }
      ],
      "start": 11.87,
      "startOffset": 191,
      "word": "FLICKERING"
    },
    {
      "alignedWord": "light",
      "case": "success",
      "end": 12.67,
      "endOffset": 207,
      "phones": [
        {
          "duration": 0.04,
          "phone": "l_B"
        },
        {
          "duration": 0.14,
          "phone": "ay_I"
        },
        {
          "duration": 0.12,
          "phone": "t_E"
        }
      ],
      "start": 12.37,
      "startOffset": 202,
      "word": "LIGHT"
    },
    {
      "alignedWord": "that",
      "case": "success",
      "end": 13.219999000000001,
      "endOffset": 212,
      "phones": [
        {
          "duration": 0.07,
          "phone": "dh_B"
        },
        {
          "duration": 0.07,
          "phone": "ah_I"
        },
        {
          "duration": 0.07,
          "phone": "t_E"
        }
      ],
      "start": 13.009999,
      "startOffset": 208,
      "word": "THAT"
    },
    {
      "alignedWord": "<unk>",
      "case": "success",
      "end": 13.870000000000001,
      "endOffset": 220,
      "phones": [
        {
          "duration": 0.64,
          "phone": "oov_S"
        }
      ],
      "start": 13.23,
      "startOffset": 213,
      "word": "FAINTLY"
    },
    {
      "case": "not-found-in-audio",
      "endOffset": 226,
      "startOffset": 221,
      "word": "SHONE"
    },
    {
      "alignedWord": "upon",
      "case": "success",
      "end": 14.23,
      "endOffset": 231,
      "phones": [
        {
          "duration": 0.07,
          "phone": "ah_B"
        },
        {
          "duration": 0.09,
          "phone": "p_I"
        },
        {
          "duration": 0.11,
          "phone": "aa_I"
        },
        {
          "duration": 0.08,
          "phone": "n_E"
        }
      ],
      "start": 13.88,
      "startOffset": 227,
      "word": "UPON"
    },
    {
      "alignedWord": "the",
      "case": "success",
      "end": 14.32,
      "endOffset": 235,
      "phones": [
        {
          "duration": 0.05,
          "phone": "dh_B"
        },
        {
          "duration": 0.04,
          "phone": "ah_E"
        }
      ],
      "start": 14.23,
      "startOffset": 232,
      "word": "THE"
    },
    {
      "alignedWord": "sea",
      "case": "success",
      "end": 14.68,
      "endOffset": 239,
      "phones": [
        {
          "duration": 0.13,
          "phone": "s_B"
        },
        {
          "duration": 0.23,
          "phone": "iy_E"
        }
      ],
      "start": 14.32,
      "startOffset": 236,
      "word": "SEA"
    },
    {
      "alignedWord": "in",
      "case": "success",
      "end": 14.79,
      "endOffset": 242,
      "phones": [
        {
          "duration": 0.05,
          "phone": "ih_B"
        },
        {
          "duration": 0.05,
          "phone": "n_E"
        }
      ],
      "start": 14.69,
      "startOffset": 240,
      "word": "IN"
    },
    {
      "alignedWord": "the",
      "case": "success",
      "end": 14.899999999999999,
      "endOffset": 246,
      "phones": [
        {
          "duration": 0.06,
          "phone": "dh_B"
        },
        {
          "duration": 0.05,
          "phone": "ah_E"
        }
      ],
      "start": 14.79,
      "startOffset": 243,
      "word": "THE"
    },
    {
      "alignedWord": "track",
      "case": "success",
      "end": 15.18,
      "endOffset": 252,
      "phones": [
        {
          "duration": 0.07,
          "phone": "t_B"
        },
        {
          "duration": 0.06,
          "phone": "r_I"
        },
        {
          "duration": 0.08,
          "phone": "ae_I"
        },
        {
          "duration": 0.07,
          "phone": "k_E"
        }
      ],
      "start": 14.9,
      "startOffset": 247,
      "word": "TRACK"
    },
    {
      "alignedWord": "of",
      "case": "success",
      "end": 15.34,
      "endOffset": 255,
      "phones": [
        {
          "duration": 0.07,
          "phone": "ah_B"
        },
        {
          "duration": 0.08,
          "phone": "v_E"
        }
      ],
      "start": 15.19,
      "startOffset": 253,
      "word": "OF"
    },
    {
      "alignedWord": "the",
      "case": "success",
      "end": 15.409999000000001,
      "endOffset": 259,
      "phones": [
        {
          "duration": 0.01,
          "phone": "dh_B"
        },
        {
          "duration": 0.06,
          "phone": "ah_E"
        }
      ],
      "start": 15.339999,
      "startOffset": 256,
      "word": "THE"
    },
    {
      "alignedWord": "boat",
      "case": "success",
      "end": 15.7,
      "endOffset": 264,
      "phones": [
        {
          "duration": 0.08,
          "phone": "b_B"
        },
        {
          "duration": 0.12,
          "phone": "ow_I"
        },
        {
          "duration": 0.09,
          "phone": "t_E"
        }
      ],
      "start": 15.41,
      "startOffset": 260,
      "word": "BOAT"
    }
  ]
}