{
  "transcript": "FATE HAD IN RESERVE FOR THE CREW OF VILLAINS A LESS MERCIFUL DEATH THAN THAT OF DROWNING AIDED BY THE LIGHTNING AND THAT WONDERFUL GOOD LUCK WHICH URGES VILLAINY TO ITS DESTRUCTION VETCH BEACHED THE BOAT AND THE PARTY BRUISED AND BLEEDING",
  "words": [
    {
      "alignedWord": "fate",
      "case": "success",
      "end": 0.64,
      "endOffset": 4,
      "phones": [
        {
          "duration": 0.13,
          "phone": "f_B"
        },
        {
          "duration": 0.07,
          "phone": "ey_I"
        },
        {
          "duration": 0.07,
          "phone": "t_E"
        }
      ],
      "start": 0.37,
      "startOffset": 0,
      "word": "FATE"
    },
    {
      "alignedWord": "had",
      "case": "success",
      "end": 0.86,
      "endOffset": 8,
      "phones": [
        {
          "duration": 0.07,
          "phone": "hh_B"
        },
        {
          "duration": 0.1,
          "phone": "ae_I"
        },
        {
          "duration": 0.05,
          "phone": "d_E"
        }
      ],
      "start": 0.64,
      "startOffset": 5,
      "word": "HAD"
    },
    {
      "alignedWord": "in",
      "case": "success",
      "end": 1.01,
      "endOffset": 11,
      "phones": [
        {
          "duration": 0.07,
          "phone": "ih_B"
        },
        {
          "duration": 0.08,
          "phone": "n_E"
        }
      ],
      "start": 0.86,
      "startOffset": 9,
      "word": "IN"
    },
    {
      "alignedWord": "reserve",
      "case": "success",
      "end": 1.43,
      "endOffset": 19,
      "phones": [
        {
          "duration": 0.02,
          "phone": "r_B"
        },
        {
          "duration": 0.07,
          "phone": "iy_I"
        },
        {
          "duration": 0.11,
          "phone": "z_I"
        },
        {
          "duration": 0.14,
          "phone": "er_I"
        },
        {
          "duration": 0.08,
          "phone": "v_E"
        }
      ],
      "start": 1.01,
      "startOffset": 12,
      "word": "RESERVE"
    },
    {
      "alignedWord": "for",
      "case": "success",
      "end": 1.6099999999999999,
      "endOffset": 23,
      "phones": [
        {
          "duration": 0.07,
          "phone": "f_B"
        },
        {
          "duration": 0.1,
          "phone": "er_E"
        }
      ],
      "start": 1.44,
      "startOffset": 20,
      "word": "FOR"
    },
    {
      "alignedWord": "the",
      "case": "success",
      "end": 1.7400000000000002,
      "endOffset": 27,
      "phones": [
        {
          "duration": 0.08,
          "phone": "dh_B"
        },
        {
          "duration": 0.04,
          "phone": "ah_E"
        }
      ],
      "start": 1.62,
      "startOffset": 24,
      "word": "THE"
    },
    {
      "alignedWord": "crew",
      "case": "success",
      "end": 2.02,
      "endOffset": 32,
      "phones": [
        {
          "duration": 0.09,
          "phone": "k_B"
        },
        {
          "duration": 0.12,
          "phone": "r_I"
        },
        {
          "duration": 0.07,
          "phone": "uw_E"
        }
      ],
      "start": 1.74,
      "startOffset": 28,
      "word": "CREW"
    },
    {
      "alignedWord": "of",
      "case": "success",
      "end": 2.12,
      "endOffset": 35,
      "phones": [
        {
          "duration": 0.08,
          "phone": "ah_B"
        },
        {
          "duration": 0.02,
          "phone": "v_E"
        }
      ],
      "start": 2.02,
      "startOffset": 33,
      "word": "OF"
    },
    {
      "alignedWord": "villains",
      "case": "success",
      "end": 2.65,
      "endOffset": 44,
      "phones": [
        {
          "duration": 0.1,
          "phone": "v_B"
        },
        {
          "duration": 0.07,
          "phone": "ih_I"
        },
        {
          "duration": 0.1,
          "phone": "l_I"
        },
        {
          "duration": 0.09,
          "phone": "ah_I"
        },
        {
          "duration": 0.07,
          "phone": "n_I"
        },
        {
          "duration": 0.09,
          "phone": "z_E"
        }
      ],
      "start": 2.13,
      "startOffset": 36,
      "word": "VILLAINS"
    },
    {
      "alignedWord": "a",
      "case": "success",
      "end": 2.77,
      "endOffset": 46,
      "phones": [
        {
          "duration": 0.09,
          "phone": "ah_S"
        }
      ],
      "start": 2.68,
      "startOffset": 45,
      "word": "A"
    },
    {
      "alignedWord": "less",
      "case": "success",
      "end": 3.07,
      "endOffset": 51,
      "phones": [
        {
          "duration": 0.09,
          "phone": "l_B"
        },
        {
          "duration": 0.1,
          "phone": "eh_I"
        },
        {
          "duration": 0.11,
          "phone": "s_E"
        }
      ],
      "start": 2.77,
      "startOffset": 47,
      "word": "LESS"
    },
    {
      "alignedWord": "merciful",
      "case": "success",
      "end": 3.5599999999999996,
      "endOffset": 60,
      "phones": [
        {
          "duration": 0.09,
          "phone": "m_B"
        },
        {
          "duration": 0.07,
          "phone": "er_I"
        },
        {
          "duration": 0.09,
          "phone": "s_I"
        },
        {
          "duration": 0.06,
          "phone": "ih_I"
        },
        {
          "duration": 0.07,
          "phone": "f_I"
        },
        {
          "duration": 0.05,
          "phone": "ah_I"
        },
        {
          "duration": 0.06,
          "phone": "l_E"
        }
      ],
      "start": 3.07,
      "startOffset": 52,
      "word": "MERCIFUL"
    },
    {
      "alignedWord": "death",
      "case": "success",
      "end": 3.86,
      "endOffset": 66,
      "phones": [
        {
          "duration": 0.09,
          "phone": "d_B"
        },
        {
          "duration": 0.11,
          "phone": "eh_I"
        },
        {
          "duration": 0.1,
          "phone": "th_E"
        }
      ],
      "start": 3.56,
      "startOffset": 61,
      "word": "DEATH"
    },
    {
      "alignedWord": "than",
      "case": "success",
      "end": 4.04,
      "endOffset": 71,
      "phones": [
        {
          "duration": 0.06,
          "phone": "dh_B"
        },
        {
          "duration": 0.06,
          "phone": "ah_I"
        },
        {
          "duration": 0.05,
          "phone": "n_E"
        }
      ],
      "start": 3.87,
      "startOffset": 67,
      "word": "THAN"
    },
    {
      "alignedWord": "that",
      "case": "success",
      "end": 4.22,
      "endOffset": 76,
      "phones": [
        {
          "duration": 0.06,
          "phone": "dh_B"
        },
        {
          "duration": 0.09,
          "phone": "ae_I"
        },
        {
          "duration": 0.03,
          "phone": "t_E"
        }
      ],
      "start": 4.04,
      "startOffset": 72,
      "word": "THAT"
    },
    {
      "alignedWord": "of",
      "case": "success",
      "end": 4.37,
      "endOffset": 79,
      "phones": [
        {
          "duration": 0.07,
          "phone": "ah_B"
        },
        {
          "duration": 0.08,
          "phone": "v_E"
        }
      ],
      "start": 4.22,
      "startOffset": 77,
      "word": "OF"
    },
    {
      "alignedWord": "drowning",
      "case": "success",
      "end": 4.86,
      "endOffset": 88,
      "phones": [
        {
          "duration": 0.05,
          "phone": "d_B"
        },
        {
          "duration": 0.08,
          "phone": "r_I"
        },
        {
          "duration": 0.1,
          "phone": "aw_I"
        },
        {
          "duration": 0.07,
          "phone": "n_I"
        },
        {
          "duration": 0.08,
          "phone": "ih_I"
        },
        {
          "duration": 0.11,
          "phone": "ng_E"
        }
      ],
      "start": 4.37,
      "startOffset": 80,
      "word": "DROWNING"
    },
    {
      "alignedWord": "aided",
      "case": "success",
      "end": 5.8100000000000005,
      "endOffset": 94,
      "phones": [
        {
          "duration": 0.16,
          "phone": "ey_B"
        },
        {
          "duration": 0.03,
          "phone": "d_I"
        },
        {
          "duration": 0.06,
          "phone": "ih_I"
        },
        {
          "duration": 0.08,
          "phone": "d_E"
        }
      ],
      "start": 5.48,
      "startOffset": 89,
      "word": "AIDED"
    },
    {
      "alignedWord": "by",
      "case": "success",
      "end": 5.9799999999999995,
      "endOffset": 97,
      "phones": [
        {
          "duration": 0.07,
          "phone": "b_B"
        },
        {
          "duration": 0.1,
          "phone": "ay_E"
        }
      ],
      "start": 5.81,
      "startOffset": 95,
      "word": "BY"
    },
    {
      "alignedWord": "the",
      "case": "success",
      "end": 6.12,
      "endOffset": 101,
      "phones": [
        {
          "duration": 0.07,
          "phone": "dh_B"
        },
        {
          "duration": 0.07,
          "phone": "ah_E"
        }
      ],
      "start": 5.98,
      "startOffset": 98,
      "word": "THE"
    },
    {
      "alignedWord": "lightning",
      "case": "success",
      "end": 6.63,
      "endOffset": 111,
      "phones": [
        {
          "duration": 0.08,
          "phone": "l_B"
        },
        {
          "duration": 0.11,
          "phone": "ay_I"
        },
        {
          "duration": 0.05,
          "phone": "t_I"
        },
        {
          "duration": 0.04,
          "phone": "n_I"
        },
        {
          "duration": 0.1,
          "phone": "ih_I"
        },
        {
          "duration": 0.13,
          "phone": "ng_E"
        }
      ],
      "start": 6.12,
      "startOffset": 102,
      "word": "LIGHTNING"
    },
    {
      "alignedWord": "and",
      "case": "success",
      "end": 6.84,
      "endOffset": 115,
      "phones": [
        {
          "duration": 0.09,
          "phone": "ah_B"
        },
        {
          "duration": 0.05,
          "phone": "n_I"
        },
        {
          "duration": 0.06,
          "phone": "d_E"
        }
      ],
      "start": 6.64,
      "startOffset": 112,
      "word": "AND"
    },
    {
      "alignedWord": "that",
      "case": "success",
      "end": 7.0,
      "endOffset": 120,
      "phones": [
        {
          "duration": 0.01,
          "phone": "dh_B"
        },
        {
          "duration": 0.07,
          "phone": "ae_I"
        },
        {
          "duration": 0.08,
          "phone": "t_E"
        }
      ],
      "start": 6.84,
      "startOffset": 116,
      "word": "THAT"
    },
    {
      "alignedWord": "wonderful",
      "case": "success",
      "end": 7.53,
      "endOffset": 130,
      "phones": [
        {
          "duration": 0.04,
          "phone": "w_B"
        },
        {
          "duration": 0.1,
          "phone": "ah_I"
        },
        {
          "duration": 0.02,
          "phone": "n_I"
        },
        {
          "duration": 0.06,
          "phone": "d_I"
        },
        {
          "duration": 0.08,
          "phone": "er_I"
        },
        {
          "duration": 0.07,
          "phone": "f_I"
        },
        {
          "duration": 0.05,
          "phone": "ah_I"
        },
        {
          "duration": 0.11,
          "phone": "l_E"
        }
      ],
      "start": 7.0,
      "startOffset": 121,
      "word": "WONDERFUL"
    },
    {
      "alignedWord": "good",
      "case": "success",
      "end": 7.8,
      "endOffset": 135,
      "phones": [
        {
          "duration": 0.09,
          "phone": "g_B"
        },
        {
          "duration": 0.07,
          "phone": "uh_I"
        },
        {
          "duration": 0.1,
          "phone": "d_E"
        }
      ],
      "start": 7.54,
      "startOffset": 131,
      "word": "GOOD"
    },
    {
      "alignedWord": "luck",
      "case": "success",
      "end": 8.09,
      "endOffset": 140,
      "phones": [
        {
          "duration": 0.08,
          "phone": "l_B"
        },
        {
          "duration": 0.11,
          "phone": "ah_I"
        },
        {
          "duration": 0.1,
          "phone": "k_E"
        }
      ],
      "start": 7.8,
      "startOffset": 136,
      "word": "LUCK"
    },
    {
      "alignedWord": "which",
      "case": "success",
      "end": 8.36,
      "endOffset": 146,
      "phones": [
        {
          "duration": 0.09,
          "phone": "w_B"
        },
        {
          "duration": 0.06,
          "phone": "ih_I"
        },
        {
          "duration": 0.1,
          "phone": "ch_E"
        }
      ],
      "start": 8.11,
      "startOffset": 141,
      "word": "WHICH"
    },
    {
      "alignedWord": "urges",
      "case": "success",
      "end": 8.8,
      "endOffset": 152,
      "phones": [
        {
          "duration": 0.14,
          "phone": "er_B"
        },
        {
          "duration": 0.07,
          "phone": "jh_I"
        },
        {
          "duration": 0.09,
          "phone": "ih_I"
        },
        {
          "duration": 0.1,
          "phone": "z_E"
        }
      ],
      "start": 8.4,
      "startOffset": 147,
      "word": "URGES"
    },
    {
      "alignedWord": "<unk>",
      "case": "success",
      "end": 9.180000000000001,
      "endOffset": 161,
      "phones": [
        {
          "duration": 0.38,
          "phone": "oov_S"
        }
      ],
      "start": 8.8,
      "startOffset": 153,
      "word": "VILLAINY"
    },
    {
      "alignedWord": "to",
      "case": "success",
      "end": 9.349999,
      "endOffset": 164,
      "phones": [
        {
          "duration": 0.1,
          "phone": "t_B"
        },
        {
          "duration": 0.07,
          "phone": "uw_E"
        }
      ],
      "start": 9.179999,
      "startOffset": 162,
      "word": "TO"
    },
    {
      "alignedWord": "its",
      "case": "success",
      "end": 9.549999,
      "endOffset": 168,
      "phones": [
        {
          "duration": 0.07,
          "phone": "ih_B"
        },
        {
          "duration": 0.06,
          "phone": "t_I"
        },
        {
          "duration": 0.07,
          "phone": "s_E"
        }
      ],
      "start": 9.349999,
      "startOffset": 165,
      "word": "ITS"
    },
    {
      "alignedWord": "destruction",
      "case": "success",
      "end": 10.280000000000001,
      "endOffset": 180,
      "phones": [
        {
          "duration": 0.07,
          "phone": "d_B"
        },
        {
          "duration": 0.07,
          "phone": "ih_I"
        },
        {
          "duration": 0.03,
          "phone": "s_I"
        },
        {
          "duration": 0.07,
          "phone": "t_I"
        },
        {
          "duration": 0.06,
          "phone": "r_I"
        },
        {
          "duration": 0.06,
          "phone": "ah_I"
        },
        {
          "duration": 0.07,
          "phone": "k_I"
        },
        {
          "duration": 0.08,
          "phone": "sh_I"
        },
        {
          "duration": 0.06,
          "phone": "ah_I"
        },
        {
          "duration": 0.16,
          "phone": "n_E"
        }
      ],
      "start": 9.55,
      "startOffset": 169,
      "word": "DESTRUCTION"
    },
    {
      "alignedWord": "<unk>",
      "case": "success",
      "end": 11.01,
      "endOffset": 186,
      "phones": [
        {
          "duration": 0.31,
          "phone": "oov_S"
        }
      ],
      "start": 10.7,
      "startOffset": 181,
      "word": "VETCH"
    },
    {
      "alignedWord": "<unk>",
      "case": "success",
      "end": 11.350000000000001,
      "endOffset": 194,
      "phones": [
        {
          "duration": 0.3,
          "phone": "oov_S"
        }
      ],
      "start": 11.05,
      "startOffset": 187,
      "word": "BEACHED"
    },
    {
      "alignedWord": "the",
      "case": "success",
      "end": 11.48,
      "endOffset": 198,
      "phones": [
        {
          "duration": 0.06,
          "phone": "dh_B"
        },
        {
          "duration": 0.04,
          "phone": "ah_E"
        }
      ],
      "start": 11.38,
      "startOffset": 195,
      "word": "THE"
    },
    {
      "alignedWord": "boat",
      "case": "success",
      "end": 11.83,
      "endOffset": 203,
      "phones": [
        {
          "duration": 0.09,
          "phone": "b_B"
        },
        {
          "duration": 0.15,
          "phone": "ow_I"
        },
        {
          "duration": 0.11,
          "phone": "t_E"
        }
      ],
      "start": 11.48,
      "startOffset": 199,
      "word": "BOAT"
    },
    {
      "alignedWord": "and",
      "case": "success",
      "end": 12.209999,
      "endOffset": 207,
      "phones": [
        {
          "duration": 0.07,
          "phone": "ae_B"
        },
        {
          "duration": 0.05,
          "phone": "n_I"
        },
        {
          "duration": 0.03,
          "phone": "d_E"
        }
      ],
      "start": 12.059999,
      "startOffset": 204,
      "word": "AND"
    },
    {
      "alignedWord": "the",
      "case": "success",
      "end": 12.280000000000001,
      "endOffset": 211,
      "phones": [
        {
          "duration": 0.01,
          "phone": "dh_B"
        },
        {
          "duration": 0.06,
          "phone": "ah_E"
        }
      ],
      "start": 12.21,
      "startOffset": 208,
      "word": "THE"
    },
    {
      "alignedWord": "party",
      "case": "success",
      "end": 12.799999999999999,
      "endOffset": 217,
      "phones": [
        {
          "duration": 0.07,
          "phone": "p_B"
        },
        {
          "duration": 0.08,
          "phone": "aa_I"
        },
        {
          "duration": 0.08,
          "phone": "r_I"
        },
        {
          "duration": 0.07,
          "phone": "t_I"
        },
        {
          "duration": 0.22,
          "phone": "iy_E"
        }
      ],
      "start": 12.28,
      "startOffset": 212,
      "word": "PARTY"
    },
    {
      "alignedWord": "bruised",
      "case": "success",
      "end": 13.33,
      "endOffset": 225,
      "phones": [
        {
          "duration": 0.09,
          "phone": "b_B"
        },
        {
          "duration": 0.06,
          "phone": "r_I"
        },
        {
          "duration": 0.09,
          "phone": "uw_I"
        },
        {
          "duration": 0.07,
          "phone": "z_I"
        },
        {
          "duration": 0.06,
          "phone": "d_E"
        }
      ],
      "start": 12.96,
      "startOffset": 218,
      "word": "BRUISED"
    },
    {
      "alignedWord": "and",
      "case": "success",
      "end": 13.46,
      "endOffset": 229,
      "phones": [
        {
          "duration": 0.04,
          "phone": "ae_B"
        },
        {
          "duration": 0.05,
          "phone": "n_I"
        },
        {
          "duration": 0.04,
          "phone": "d_E"
        }
      ],
      "start": 13.33,
      "startOffset": 226,
      "word": "AND"
    },
    {
      "alignedWord": "bleeding",
      "case": "success",
      "end": 13.870000000000001,
      "endOffset": 238,
      "phones": [
        {
          "duration": 0.04,
          "phone": "b_B"
        },
        {
          "duration": 0.08,
          "phone": "l_I"
        },
        {
          "duration": 0.07,
          "phone": "iy_I"
        },
        {
          "duration": 0.04,
          "phone": "d_I"
        },
        {
          "duration": 0.1,
          "phone": "ih_I"
        },
        {
          "duration": 0.08,
          "phone": "ng_E"
        }
      ],
      "start": 13.46,
      "startOffset": 230,
      "word": "BLEEDING"
    }
  ]
}