{
  "transcript": "AND PASSED OVER HIS SPRAWLING BODY TO THE SHORE COX GRASPING AT ANYTHING TO SAVE HIMSELF CLUTCHED AN OAR AND THE NEXT MOMENT FOUND HIMSELF BORNE OUT WITH THE OVERTURNED WHALE BOAT BY THE UNDER TOW HE WAS DRIFTED PAST HIS ONLY HOPE OF RESCUE THE GUARD BOAT",
  "words": [
    {
      "alignedWord": "and",
      "case": "success",
      "end": 0.32,
      "endOffset": 3,
      "phones": [
        {
          "duration": 0.06,
          "phone": "ae_B"
        },
        {
          "duration": 0.05,
          "phone": "n_I"
        },
        {
          "duration": 0.05,
          "phone": "d_E"
        }
      ],
      "start": 0.16,
      "startOffset": 0,
      "word": "AND"
    },
    {
      "alignedWord": "passed",
      "case": "success",
      "end": 0.65,
      "endOffset": 10,
      "phones": [
        {
          "duration": 0.08,
          "phone": "p_B"
        },
        {
          "duration": 0.11,
          "phone": "ae_I"
        },
        {
          "duration": 0.06,
          "phone": "s_I"
        },
        {
          "duration": 0.08,
          "phone": "t_E"
        }
      ],
      "start": 0.32,
      "startOffset": 4,
      "word": "PASSED"
    },
    {
      "alignedWord": "over",
      "case": "success",
      "end": 0.91,
      "endOffset": 15,
      "phones": [
        {
          "duration": 0.08,
          "phone": "ow_B"
        },
        {
          "duration": 0.1,
          "phone": "v_I"
        },
        {
          "duration": 0.08,
          "phone": "er_E"
        }
      ],
      "start": 0.65,
      "startOffset": 11,
      "word": "OVER"
    },
    {
      "alignedWord": "his",
      "case": "success",
      "end": 1.1,
      "endOffset": 19,
      "phones": [
        {
          "duration": 0.07,
          "phone": "hh_B"
        },
        {
          "duration": 0.06,
          "phone": "ih_I"
        },
        {
          "duration": 0.06,
          "phone": "z_E"
        }
      ],
      "start": 0.91,
      "startOffset": 16,
      "word": "HIS"
    },
    {
      "alignedWord": "sprawling",
      "case": "success",
      "end": 1.58,
      "endOffset": 29,
      "phones": [
        {
          "duration": 0.07,
          "phone": "s_B"
        },
        {
          "duration": 0.06,
          "phone": "p_I"
        },
        {
          "duration": 0.05,
          "phone": "r_I"
        },
        {
          "duration": 0.11,
          "phone": "ao_I"
        },
        {
          "duration": 0.03,
          "phone": "l_I"
        },
        {
          "duration": 0.08,
          "phone": "ih_I"
        },
        {
          "duration": 0.08,
          "phone": "ng_E"
        }
      ],
      "start": 1.1,
      "startOffset": 20,
      "word": "SPRAWLING"
    },
    {
      "alignedWord": "body",
      "case": "success",
      "end": 1.9200000000000002,
      "endOffset": 34,
      "phones": [
        {
          "duration": 0.06,
          "phone": "b_B"
        },
        {
          "duration": 0.11,
          "phone": "aa_I"
        },
        {
          "duration": 0.08,
          "phone": "d_I"
        },
        {
          "duration": 0.09,
          "phone": "iy_E"
        }
      ],
      "start": 1.58,
      "startOffset": 30,
      "word": "BODY"
    },
    {
      "alignedWord": "to",
      "case": "success",
      "end": 2.07,
      "endOffset": 37,
      "phones": [
        {
          "duration": 0.08,
          "phone": "t_B"
        },
        {
          "duration": 0.07,
          "phone": "uw_E"
        }
      ],
      "start": 1.92,
      "startOffset": 35,
      "word": "TO"
    },
    {
      "alignedWord": "the",
      "case": "success",
      "end": 2.1999999999999997,
      "endOffset": 41,
      "phones": [
        {
          "duration": 0.07,
          "phone": "dh_B"
        },
        {
          "duration": 0.06,
          "phone": "ah_E"
        }
      ],
      "start": 2.07,
      "startOffset": 38,
      "word": "THE"
    },
    {
      "alignedWord": "shore",
      "case": "success",
      "end": 2.66,
      "endOffset": 47,
      "phones": [
        {
          "duration": 0.11,
          "phone": "sh_B"
        },
        {
          "duration": 0.15,
          "phone": "ao_I"
        },
        {
          "duration": 0.2,
          "phone": "r_E"
        }
      ],
      "start": 2.2,
      "startOffset": 42,
      "word": "SHORE"
    },
    {
      "alignedWord": "cox",
      "case": "success",
      "end": 3.8099999999999996,
      "endOffset": 51,
      "phones": [
        {
          "duration": 0.09,
          "phone": "k_B"
        },
        {
          "duration": 0.16,
          "phone": "aa_I"
        },
        {
          "duration": 0.11,
          "phone": "k_I"
        },
        {
          "duration": 0.15,
          "phone": "s_E"
        }
      ],
      "start": 3.3,
      "startOffset": 48,
      "word": "COX"
    },
    {
      "alignedWord": "grasping",
      "case": "success",
      "end": 4.39,
      "endOffset": 60,
      "phones": [
        {
          "duration": 0.08,
          "phone": "g_B"
        },
        {
          "duration": 0.06,
          "phone": "r_I"
        },
        {
          "duration": 0.07,
          "phone": "ae_I"
        },
        {
          "duration": 0.1,
          "phone": "s_I"
        },
        {
          "duration": 0.02,
          "phone": "p_I"
        },
        {
          "duration": 0.08,
          "phone": "ih_I"
        },
        {
          "duration": 0.08,
          "phone": "ng_E"
        }
      ],
      "start": 3.9,
      "startOffset": 52,
      "word": "GRASPING"
    },
    {
      "alignedWord": "at",
      "case": "success",
      "end": 4.5,
      "endOffset": 63,
      "phones": [
        {
          "duration": 0.07,
          "phone": "ae_B"
        },
        {
          "duration": 0.04,
          "phone": "t_E"
        }
      ],
      "start": 4.39,
      "startOffset": 61,
      "word": "AT"
    },
    {
      "alignedWord": "anything",
      "case": "success",
      "end": 4.96,
      "endOffset": 72,
      "phones": [
        {
          "duration": 0.07,
          "phone": "eh_B"
        },
        {
          "duration": 0.09,
          "phone": "n_I"
        },
        {
          "duration": 0.07,
          "phone": "iy_I"
        },
        {
          "duration": 0.06,
          "phone": "th_I"
        },
        {
          "duration": 0.08,
          "phone": "ih_I"
        },
        {
          "duration": 0.09,
          "phone": "ng_E"
        }
      ],
      "start": 4.5,
      "startOffset": 64,
      "word": "ANYTHING"
    },
    {
      "alignedWord": "to",
      "case": "success",
      "end": 5.07,
      "endOffset": 75,
      "phones": [
        {
          "duration": 0.05,
          "phone": "t_B"
        },
        {
          "duration": 0.06,
          "phone": "uw_E"
        }
      ],
      "start": 4.96,
      "startOffset": 73,
      "word": "TO"
    },
    {
      "alignedWord": "save",
      "case": "success",
      "end": 5.37,
      "endOffset": 80,
      "phones": [
        {
          "duration": 0.11,
          "phone": "s_B"
        },
        {
          "duration": 0.1,
          "phone": "ey_I"
        },
        {
          "duration": 0.09,
          "phone": "v_E"
        }
      ],
      "start": 5.07,
      "startOffset": 76,
      "word": "SAVE"
    },
    {
      "alignedWord": "himself",
      "case": "success",
      "end": 5.85,
      "endOffset": 88,
      "phones": [
        {
          "duration": 0.01,
          "phone": "hh_B"
        },
        {
          "duration": 0.04,
          "phone": "ih_I"
        },
        {
          "duration": 0.08,
          "phone": "m_I"
        },
        {
          "duration": 0.06,
          "phone": "s_I"
        },
        {
          "duration": 0.09,
          "phone": "eh_I"
        },
        {
          "duration": 0.1,
          "phone": "l_I"
        },
        {
          "duration": 0.09,
          "phone": "f_E"
        }
      ],
      "start": 5.38,
      "startOffset": 81,
      "word": "HIMSELF"
    },
    {
      "alignedWord": "<unk>",
      "case": "success",
      "end": 6.55,
      "endOffset": 97,
      "phones": [
        {
          "duration": 0.33,
          "phone": "oov_S"
        }
      ],
      "start": 6.22,
      "startOffset": 89,
      "word": "CLUTCHED"
    },
    {
      "alignedWord": "an",
      "case": "success",
      "end": 6.68,
      "endOffset": 100,
      "phones": [
        {
          "duration": 0.06,
          "phone": "ah_B"
        },
        {
          "duration": 0.06,
          "phone": "n_E"
        }
      ],
      "start": 6.56,
      "startOffset": 98,
      "word": "AN"
    },
    {
      "alignedWord": "oar",
      "case": "success",
      "end": 7.05,
      "endOffset": 104,
      "phones": [
        {
          "duration": 0.15,
          "phone": "ao_B"
        },
        {
          "duration": 0.22,
          "phone": "r_E"
        }
      ],
      "start": 6.68,
      "startOffset": 101,
      "word": "OAR"
    },
    {
      "alignedWord": "and",
      "case": "success",
      "end": 7.41,
      "endOffset": 108,
      "phones": [
        {
          "duration": 0.06,
          "phone": "ae_B"
        },
        {
          "duration": 0.07,
          "phone": "n_I"
        },
        {
          "duration": 0.02,
          "phone": "d_E"
        }
      ],
      "start": 7.26,
      "startOffset": 105,
      "word": "AND"
    },
    {
      "alignedWord": "the",
      "case": "success",
      "end": 7.48,
      "endOffset": 112,
      "phones": [
        {
          "duration": 0.01,
          "phone": "dh_B"
        },
        {
          "duration": 0.06,
          "phone": "ah_E"
        }
      ],
      "start": 7.41,
      "startOffset": 109,
      "word": "THE"
    },
    {
      "alignedWord": "next",
      "case": "success",
      "end": 7.760000000000001,
      "endOffset": 117,
      "phones": [
        {
          "duration": 0.05,
          "phone": "n_B"
        },
        {
          "duration": 0.06,
          "phone": "eh_I"
        },
        {
          "duration": 0.08,
          "phone": "k_I"
        },
        {
          "duration": 0.09,
          "phone": "s_E"
        }
      ],
      "start": 7.48,
      "startOffset": 113,
      "word": "NEXT"
    },
    {
      "alignedWord": "moment",
      "case": "success",
      "end": 8.11,
      "endOffset": 124,
      "phones": [
        {
          "duration": 0.06,
          "phone": "m_B"
        },
        {
          "duration": 0.09,
          "phone": "ow_I"
        },
        {
          "duration": 0.05,
          "phone": "m_I"
        },
        {
          "duration": 0.04,
          "phone": "ah_I"
        },
        {
          "duration": 0.05,
          "phone": "n_I"
        },
        {
          "duration": 0.06,
          "phone": "t_E"
        }
      ],
      "start": 7.76,
      "startOffset": 118,
      "word": "MOMENT"
    },
    {
      "alignedWord": "found",
      "case": "success",
      "end": 8.389999999999999,
      "endOffset": 130,
      "phones": [
        {
          "duration": 0.08,
          "phone": "f_B"
        },
        {
          "duration": 0.09,
          "phone": "aw_I"
        },
        {
          "duration": 0.06,
          "phone": "n_I"
        },
        {
          "duration": 0.05,
          "phone": "d_E"
        }
      ],
      "start": 8.11,
      "startOffset": 125,
      "word": "FOUND"
    },
    {
      "alignedWord": "himself",
      "case": "success",
      "end": 8.869999,
      "endOffset": 138,
      "phones": [
        {
          "duration": 0.01,
          "phone": "hh_B"
        },
        {
          "duration": 0.06,
          "phone": "ih_I"
        },
        {
          "duration": 0.08,
          "phone": "m_I"
        },
        {
          "duration": 0.07,
          "phone": "s_I"
        },
        {
          "duration": 0.09,
          "phone": "eh_I"
        },
        {
          "duration": 0.08,
          "phone": "l_I"
        },
        {
          "duration": 0.09,
          "phone": "f_E"
        }
      ],
      "start": 8.389999,
      "startOffset": 131,
      "word": "HIMSELF"
    },
    {
      "alignedWord": "borne",
      "case": "success",
      "end": 9.19,
      "endOffset": 144,
      "phones": [
        {
          "duration": 0.1,
          "phone": "b_B"
        },
        {
          "duration": 0.06,
          "phone": "ao_I"
        },
        {
          "duration": 0.08,
          "phone": "r_I"
        },
        {
          "duration": 0.08,
          "phone": "n_E"
        }
      ],
      "start": 8.87,
      "startOffset": 139,
      "word": "BORNE"
    },
    {
      "alignedWord": "out",
      "case": "success",
      "end": 9.43,
      "endOffset": 148,
      "phones": [
        {
          "duration": 0.15,
          "phone": "aw_B"
        },
        {
          "duration": 0.09,
          "phone": "t_E"
        }
      ],
      "start": 9.19,
      "startOffset": 145,
      "word": "OUT"
    },
    {
      "alignedWord": "with",
      "case": "success",
      "end": 9.609999,
      "endOffset": 153,
      "phones": [
        {
          "duration": 0.05,
          "phone": "w_B"
        },
        {
          "duration": 0.06,
          "phone": "ih_I"
        },
        {
          "duration": 0.07,
          "phone": "th_E"
        }
      ],
      "start": 9.429999,
      "startOffset": 149,
      "word": "WITH"
    },
    {
      "alignedWord": "the",
      "case": "success",
      "end": 9.709999999999999,
      "endOffset": 157,
      "phones": [
        {
          "duration": 0.03,
          "phone": "dh_B"
        },
        {
          "duration": 0.07,
          "phone": "ah_E"
        }
      ],
      "start": 9.61,
      "startOffset": 154,
      "word": "THE"
    },
    {
      "alignedWord": "overturned",
      "case": "success",
      "end": 10.31,
      "endOffset": 168,
      "phones": [
        {
          "duration": 0.11,
          "phone": "ow_B"
        },
        {
          "duration": 0.1,
          "phone": "v_I"
        },
        {
          "duration": 0.1,
          "phone": "er_I"
        },
        {
          "duration": 0.07,
          "phone": "t_I"
        },
        {
          "duration": 0.11,
          "phone": "er_I"
        },
        {
          "duration": 0.05,
          "phone": "n_I"
        },
        {
          "duration": 0.06,
          "phone": "d_E"
        }
      ],
      "start": 9.71,
      "startOffset": 158,
      "word": "OVERTURNED"
    },
    {
      "alignedWord": "whale",
      "case": "success",
      "end": 10.539999,
      "endOffset": 174,
      "phones": [
        {
          "duration": 0.07,
          "phone": "w_B"
        },
        {
          "duration": 0.1,
          "phone": "ey_I"
        },
        {
          "duration": 0.06,
          "phone": "l_E"
        }
      ],
      "start": 10.309999,
      "startOffset": 169,
      "word": "WHALE"
    },
    {
      "alignedWord": "boat",
      "case": "success",
      "end": 10.84,
      "endOffset": 179,
      "phones": [
        {
          "duration": 0.09,
          "phone": "b_B"
        },
        {
          "duration": 0.1,
          "phone": "ow_I"
        },
        {
          "duration": 0.11,
          "phone": "t_E"
        }
      ],
      "start": 10.54,
      "startOffset": 175,
      "word": "BOAT"
    },
    {
      "alignedWord": "by",
      "case": "success",
      "end": 11.219999999999999,
      "endOffset": 182,
      "phones": [
        {
          "duration": 0.11,
          "phone": "b_B"
        },
        {
          "duration": 0.09,
          "phone": "ay_E"
        }
      ],
      "start": 11.02,
      "startOffset": 180,
      "word": "BY"
    },
    {
      "alignedWord": "the",
      "case": "success",
      "end": 11.369999,
      "endOffset": 186,
      "phones": [
        {
          "duration": 0.08,
          "phone": "dh_B"
        },
        {
          "duration": 0.07,
          "phone": "iy_E"
        }
      ],
      "start": 11.219999,
      "startOffset": 183,
      "word": "THE"
    },
    {
      "alignedWord": "under",
      "case": "success",
      "end": 11.61,
      "endOffset": 192,
      "phones": [
        {
          "duration": 0.05,
          "phone": "ah_B"
        },
        {
          "duration": 0.05,
          "phone": "n_I"
        },
        {
          "duration": 0.07,
          "phone": "d_I"
        },
        {
          "duration": 0.07,
          "phone": "er_E"
        }
      ],
      "start": 11.37,
      "startOffset": 187,
      "word": "UNDER"
    },
    {
      "alignedWord": "tow",
      "case": "success",
      "end": 11.94,
      "endOffset": 196,
      "phones": [
        {
          "duration": 0.12,
          "phone": "t_B"
        },
        {
          "duration": 0.21,
          "phone": "ow_E"
        }
      ],
      "start": 11.61,
      "startOffset": 193,
      "word": "TOW"
    },
    {
      "alignedWord": "he",
      "case": "success",
      "end": 12.7,
      "endOffset": 199,
      "phones": [
        {
          "duration": 0.09,
          "phone": "hh_B"
        },
        {
          "duration": 0.07,
          "phone": "iy_E"
        }
      ],
      "start": 12.54,
      "startOffset": 197,
      "word": "HE"
    },
    {
      "alignedWord": "was",
      "case": "success",
      "end": 12.889999999999999,
      "endOffset": 203,
      "phones": [
        {
          "duration": 0.04,
          "phone": "w_B"
        },
        {
          "duration": 0.07,
          "phone": "ah_I"
        },
        {
          "duration": 0.08,
          "phone": "z_E"
        }
      ],
      "start": 12.7,
      "startOffset": 200,
      "word": "WAS"
    },
    {
      "alignedWord": "drifted",
      "case": "success",
      "end": 13.309999,
      "endOffset": 211,
      "phones": [
        {
          "duration": 0.05,
          "phone": "d_B"
        },
        {
          "duration": 0.04,
          "phone": "r_I"
        },
        {
          "duration": 0.06,
          "phone": "ih_I"
        },
        {
          "duration": 0.07,
          "phone": "f_I"
        },
        {
          "duration": 0.06,
          "phone": "t_I"
        },
        {
          "duration": 0.05,
          "phone": "ih_I"
        },
        {
          "duration": 0.09,
          "phone": "d_E"
        }
      ],
      "start": 12.889999,
      "startOffset": 204,
      "word": "DRIFTED"
    },
    {
      "alignedWord": "past",
      "case": "success",
      "end": 13.709999,
      "endOffset": 216,
      "phones": [
        {
          "duration": 0.07,
          "phone": "p_B"
        },
        {
          "duration": 0.18,
          "phone": "ae_I"
        },
        {
          "duration": 0.07,
          "phone": "s_I"
        },
        {
          "duration": 0.08,
          "phone": "t_E"
        }
      ],
      "start": 13.309999,
      "startOffset": 212,
      "word": "PAST"
    },
    {
      "alignedWord": "his",
      "case": "success",
      "end": 13.88,
      "endOffset": 220,
      "phones": [
        {
          "duration": 0.04,
          "phone": "hh_B"
        },
        {
          "duration": 0.04,
          "phone": "ih_I"
        },
        {
          "duration": 0.09,
          "phone": "z_E"
        }
      ],
      "start": 13.71,
      "startOffset": 217,
      "word": "HIS"
    },
    {
      "alignedWord": "only",
      "case": "success",
      "end": 14.17,
      "endOffset": 225,
      "phones": [
        {
          "duration": 0.09,
          "phone": "ow_B"
        },
        {
          "duration": 0.07,
          "phone": "n_I"
        },
        {
          "duration": 0.05,
          "phone": "l_I"
        },
        {
          "duration": 0.08,
          "phone": "iy_E"
        }
      ],
      "start": 13.88,
      "startOffset": 221,
      "word": "ONLY"
    },
    {
      "alignedWord": "hope",
      "case": "success",
      "end": 14.4,
      "endOffset": 230,
      "phones": [
        {
          "duration": 0.08,
          "phone": "hh_B"
        },
        {
          "duration": 0.07,
          "phone": "ow_I"
        },
        {
          "duration": 0.08,
          "phone": "p_E"
        }
      ],
      "start": 14.17,
      "startOffset": 226,
      "word": "HOPE"
    },
    {
      "alignedWord": "of",
      "case": "success",
      "end": 14.540000000000001,
      "endOffset": 233,
      "phones": [
        {
          "duration": 0.08,
          "phone": "ah_B"
        },
        {
          "duration": 0.06,
          "phone": "v_E"
        }
      ],
      "start": 14.4,
      "startOffset": 231,
      "word": "OF"
    },
    {
      "alignedWord": "rescue",
      "case": "success",
      "end": 15.1,
      "endOffset": 240,
      "phones": [
        {
          "duration": 0.06,
          "phone": "r_B"
        },
        {
          "duration": 0.07,
          "phone": "eh_I"
        },
        {
          "duration": 0.1,
          "phone": "s_I"
        },
        {
          "duration": 0.07,
          "phone": "k_I"
        },
        {
          "duration": 0.09,
          "phone": "y_I"
        },
        {
          "duration": 0.17,
          "phone": "uw_E"
        }
      ],
      "start": 14.54,
      "startOffset": 234,
      "word": "RESCUE"
    },
    {
      "alignedWord": "the",
      "case": "success",
      "end": 15.29,
      "endOffset": 244,
      "phones": [
        {
          "duration": 0.06,
          "phone": "dh_B"
        },
        {
          "duration": 0.06,
          "phone": "ah_E"
        }
      ],
      "start": 15.17,
      "startOffset": 241,
      "word": "THE"
    },
    {
      "alignedWord": "guard",
      "case": "success",
      "end": 15.59,
      "endOffset": 250,
      "phones": [
        {
          "duration": 0.07,
          "phone": "g_B"
        },
        {
          "duration": 0.07,
          "phone": "aa_I"
        },
        {
          "duration": 0.07,
          "phone": "r_I"
        },
        {
          "duration": 0.09,
          "phone": "d_E"
        }
      ],
      "start": 15.29,
      "startOffset": 245,
      "word": "GUARD"
    },
    {
      "alignedWord": "boat",
      "case": "success",
      "end": 15.829999,
      "endOffset": 255,
      "phones": [
        {
          "duration": 0.06,
          "phone": "b_B"
        },
        {
          "duration": 0.13,
          "phone": "ow_I"
        },
        {
          "duration": 0.05,
          "phone": "t_E"
        }
      ],
      "start": 15.589999,
      "startOffset": 251,
      "word": "BOAT"
    }
  ]
}