{
  "transcript": "AND ASKED ME WHETHER I WOULD SMOKE IT A USUAL COMPLIMENT NOWADAYS AMONGST SAINTS AND SINNERS BUT THIS NO WAY SUITED ME FOR THOUGH I HAD FORMERLY USED TOBACCO YET I HAD LEFT IT EVER SINCE I WAS FIRST TAKEN",
  "words": [
    {
      "alignedWord": "and",
      "case": "success",
      "end": 0.34,
      "endOffset": 3,
      "phones": [
        {
          "duration": 0.01,
          "phone": "ae_B"
        },
        {
          "duration": 0.05,
          "phone": "n_I"
        },
        {
          "duration": 0.01,
          "phone": "d_E"
        }
      ],
      "start": 0.27,
      "startOffset": 0,
      "word": "AND"
    },
    {
      "alignedWord": "asked",
      "case": "success",
      "end": 0.65,
      "endOffset": 9,
      "phones": [
        {
          "duration": 0.16,
          "phone": "ae_B"
        },
        {
          "duration": 0.04,
          "phone": "s_I"
        },
        {
          "duration": 0.06,
          "phone": "t_E"
        }
      ],
      "start": 0.39,
      "startOffset": 4,
      "word": "ASKED"
    },
    {
      "alignedWord": "me",
      "case": "success",
      "end": 0.78,
      "endOffset": 12,
      "phones": [
        {
          "duration": 0.06,
          "phone": "m_B"
        },
        {
          "duration": 0.07,
          "phone": "iy_E"
        }
      ],
      "start": 0.65,
      "startOffset": 10,
      "word": "ME"
    },
    {
      "alignedWord": "whether",
      "case": "success",
      "end": 1.09,
      "endOffset": 20,
      "phones": [
        {
          "duration": 0.09,
          "phone": "w_B"
        },
        {
          "duration": 0.08,
          "phone": "eh_I"
        },
        {
          "duration": 0.07,
          "phone": "dh_I"
        },
        {
          "duration": 0.07,
          "phone": "er_E"
        }
      ],
      "start": 0.78,
      "startOffset": 13,
      "word": "WHETHER"
    },
    {
      "alignedWord": "i",
      "case": "success",
      "end": 1.24,
      "endOffset": 22,
      "phones": [
        {
          "duration": 0.11,
          "phone": "ay_S"
        }
      ],
      "start": 1.13,
      "startOffset": 21,
      "word": "I"
    },
    {
      "alignedWord": "would",
      "case": "success",
      "end": 1.41,
      "endOffset": 28,
      "phones": [
        {
          "duration": 0.05,
          "phone": "w_B"
        },
        {
          "duration": 0.04,
          "phone": "uh_I"
        },
        {
          "duration": 0.08,
          "phone": "d_E"
        }
      ],
      "start": 1.24,
      "startOffset": 23,
      "word": "WOULD"
    },
    {
      "alignedWord": "smoke",
      "case": "success",
      "end": 1.7599999999999998,
      "endOffset": 34,
      "phones": [
        {
          "duration": 0.12,
          "phone": "s_B"
        },
        {
          "duration": 0.07,
          "phone": "m_I"
        },
        {
          "duration": 0.08,
          "phone": "ow_I"
        },
        {
          "duration": 0.08,
          "phone": "k_E"
        }
      ],
      "start": 1.41,
      "startOffset": 29,
      "word": "SMOKE"
    },
    {
      "alignedWord": "it",
      "case": "success",
      "end": 1.99,
      "endOffset": 37,
      "phones": [
        {
          "duration": 0.08,
          "phone": "ih_B"
        },
        {
          "duration": 0.15,
          "phone": "t_E"
        }
      ],
      "start": 1.76,
      "startOffset": 35,
      "word": "IT"
    },
    {
      "alignedWord": "a",
      "case": "success",
      "end": 2.25,
      "endOffset": 39,
      "phones": [
        {
          "duration": 0.15,
          "phone": "ey_S"
        }
      ],
      "start": 2.1,
      "startOffset": 38,
      "word": "A"
    },
    {
      "alignedWord": "usual",
      "case": "success",
      "end": 2.69,
      "endOffset": 45,
      "phones": [
        {
          "duration": 0.1,
          "phone": "y_B"
        },
        {
          "duration": 0.13,
          "phone": "uw_I"
        },
        {
          "duration": 0.05,
          "phone": "zh_I"
        },
        {
          "duration": 0.06,
          "phone": "uw_I"
        },
        {
          "duration": 0.04,
          "phone": "ah_I"
        },
        {
          "duration": 0.06,
          "phone": "l_E"
        }
      ],
      "start": 2.25,
      "startOffset": 40,
      "word": "USUAL"
    },
    {
      "alignedWord": "compliment",
      "case": "success",
      "end": 3.1799999999999997,
      "endOffset": 56,
      "phones": [
        {
          "duration": 0.1,
          "phone": "k_B"
        },
        {
          "duration": 0.09,
          "phone": "aa_I"
        },
        {
          "duration": 0.07,
          "phone": "m_I"
        },
        {
          "duration": 0.01,
          "phone": "p_I"
        },
        {
          "duration": 0.07,
          "phone": "l_I"
        },
        {
          "duration": 0.02,
          "phone": "ah_I"
        },
        {
          "duration": 0.04,
          "phone": "m_I"
        },
        {
          "duration": 0.04,
          "phone": "eh_I"
        },
        {
          "duration": 0.04,
          "phone": "n_I"
        },
        {
          "duration": 0.01,
          "phone": "t_E"
        }
      ],
      "start": 2.69,
      "startOffset": 46,
      "word": "COMPLIMENT"
    },
    {
      "alignedWord": "nowadays",
      "case": "success",
      "end": 3.8000000000000003,
      "endOffset": 65,
      "phones": [
        {
          "duration": 0.11,
          "phone": "n_B"
        },
        {
          "duration": 0.13,
          "phone": "aw_I"
        },
        {
          "duration": 0.05,
          "phone": "ah_I"
        },
        {
          "duration": 0.08,
          "phone": "d_I"
        },
        {
          "duration": 0.13,
          "phone": "ey_I"
        },
        {
          "duration": 0.08,
          "phone": "z_E"
        }
      ],
      "start": 3.22,
      "startOffset": 57,
      "word": "NOWADAYS"
    },
    {
      "alignedWord": "amongst",
      "case": "success",
      "end": 4.1499999999999995,
      "endOffset": 73,
      "phones": [
        {
          "duration": 0.06,
          "phone": "ah_B"
        },
        {
          "duration": 0.08,
          "phone": "m_I"
        },
        {
          "duration": 0.08,
          "phone": "ah_I"
        },
        {
          "duration": 0.11,
          "phone": "ng_I"
        },
        {
          "duration": 0.01,
          "phone": "s_I"
        },
        {
          "duration": 0.01,
          "phone": "t_E"
        }
      ],
      "start": 3.8,
      "startOffset": 66,
      "word": "AMONGST"
    },
    {
      "alignedWord": "saints",
      "case": "success",
      "end": 4.46,
      "endOffset": 80,
      "phones": [
        {
          "duration": 0.11,
          "phone": "s_B"
        },
        {
          "duration": 0.08,
          "phone": "ey_I"
        },
        {
          "duration": 0.05,
          "phone": "n_I"
        },
        {
          "duration": 0.05,
          "phone": "t_I"
        },
        {
          "duration": 0.02,
          "phone": "s_E"
        }
      ],
      "start": 4.15,
      "startOffset": 74,
      "word": "SAINTS"
    },
    {
      "alignedWord": "and",
      "case": "success",
      "end": 4.63,
      "endOffset": 84,
      "phones": [
        {
          "duration": 0.06,
          "phone": "ah_B"
        },
        {
          "duration": 0.03,
          "phone": "n_I"
        },
        {
          "duration": 0.08,
          "phone": "d_E"
        }
      ],
      "start": 4.46,
      "startOffset": 81,
      "word": "AND"
    },
    {
      "alignedWord": "sinners",
      "case": "success",
      "end": 5.16,
      "endOffset": 92,
      "phones": [
        {
          "duration": 0.08,
          "phone": "s_B"
        },
        {
          "duration": 0.11,
          "phone": "ih_I"
        },
        {
          "duration": 0.07,
          "phone": "n_I"
        },
        {
          "duration": 0.12,
          "phone": "er_I"
        },
        {
          "duration": 0.15,
          "phone": "z_E"
        }
      ],
      "start": 4.63,
      "startOffset": 85,
      "word": "SINNERS"
    },
    {
      "alignedWord": "but",
      "case": "success",
      "end": 5.85,
      "endOffset": 96,
      "phones": [
        {
          "duration": 0.05,
          "phone": "b_B"
        },
        {
          "duration": 0.05,
          "phone": "ah_I"
        },
        {
          "duration": 0.08,
          "phone": "t_E"
        }
      ],
      "start": 5.67,
      "startOffset": 93,
      "word": "BUT"
    },
    {
      "alignedWord": "this",
      "case": "success",
      "end": 6.13,
      "endOffset": 101,
      "phones": [
        {
          "duration": 0.04,
          "phone": "dh_B"
        },
        {
          "duration": 0.13,
          "phone": "ih_I"
        },
        {
          "duration": 0.11,
          "phone": "s_E"
        }
      ],
      "start": 5.85,
      "startOffset": 97,
      "word": "THIS"
    },
    {
      "alignedWord": "no",
      "case": "success",
      "end": 6.33,
      "endOffset": 104,
      "phones": [
        {
          "duration": 0.11,
          "phone": "n_B"
        },
        {
          "duration": 0.09,
          "phone": "ow_E"
        }
      ],
      "start": 6.13,
      "startOffset": 102,
      "word": "NO"
    },
    {
      "alignedWord": "way",
      "case": "success",
      "end": 6.55,
      "endOffset": 108,
      "phones": [
        {
          "duration": 0.11,
          "phone": "w_B"
        },
        {
          "duration": 0.11,
          "phone": "ey_E"
        }
      ],
      "start": 6.33,
      "startOffset": 105,
      "word": "WAY"
    },
    {
      "alignedWord": "suited",
      "case": "success",
      "end": 6.99,
      "endOffset": 115,
      "phones": [
        {
          "duration": 0.18,
          "phone": "s_B"
        },
        {
          "duration": 0.07,
          "phone": "uw_I"
        },
        {
          "duration": 0.05,
          "phone": "t_I"
        },
        {
          "duration": 0.07,
          "phone": "ah_I"
        },
        {
          "duration": 0.07,
          "phone": "d_E"
        }
      ],
      "start": 6.55,
      "startOffset": 109,
      "word": "SUITED"
    },
    {
      "alignedWord": "me",
      "case": "success",
      "end": 7.25,
      "endOffset": 118,
      "phones": [
        {
          "duration": 0.07,
          "phone": "m_B"
        },
        {
          "duration": 0.19,
          "phone": "iy_E"
        }
      ],
      "start": 6.99,
      "startOffset": 116,
      "word": "ME"
    },
    {
      "alignedWord": "for",
      "case": "success",
      "end": 7.79,
      "endOffset": 122,
      "phones": [
        {
          "duration": 0.11,
          "phone": "f_B"
        },
        {
          "duration": 0.1,
          "phone": "er_E"
        }
      ],
      "start": 7.58,
      "startOffset": 119,
      "word": "FOR"
    },
    {
      "alignedWord": "though",
      "case": "success",
      "end": 7.99,
      "endOffset": 129,
      "phones": [
        {
          "duration": 0.06,
          "phone": "dh_B"
        },
        {
          "duration": 0.14,
          "phone": "ow_E"
        }
      ],
      "start": 7.79,
      "startOffset": 123,
      "word": "THOUGH"
    },
    {
      "alignedWord": "i",
      "case": "success",
      "end": 8.09,
      "endOffset": 131,
      "phones": [
        {
          "duration": 0.1,
          "phone": "ay_S"
        }
      ],
      "start": 7.99,
      "startOffset": 130,
      "word": "I"
    },
    {
      "alignedWord": "had",
      "case": "success",
      "end": 8.309999000000001,
      "endOffset": 135,
      "phones": [
        {
          "duration": 0.08,
          "phone": "hh_B"
        },
        {
          "duration": 0.06,
          "phone": "ae_I"
        },
        {
          "duration": 0.07,
          "phone": "d_E"
        }
      ],
      "start": 8.099999,
      "startOffset": 132,
      "word": "HAD"
    },
    {
      "alignedWord": "formerly",
      "case": "success",
      "end": 8.779999,
      "endOffset": 144,
      "phones": [
        {
          "duration": 0.09,
          "phone": "f_B"
        },
        {
          "duration": 0.08,
          "phone": "ao_I"
        },
        {
          "duration": 0.08,
          "phone": "r_I"
        },
        {
          "duration": 0.03,
          "phone": "m_I"
        },
        {
          "duration": 0.01,
          "phone": "er_I"
        },
        {
          "duration": 0.1,
          "phone": "l_I"
        },
        {
          "duration": 0.08,
          "phone": "iy_E"
        }
      ],
      "start": 8.309999,
      "startOffset": 136,
      "word": "FORMERLY"
    },
    {
      "alignedWord": "used",
      "case": "success",
      "end": 9.1,
      "endOffset": 149,
      "phones": [
        {
          "duration": 0.11,
          "phone": "y_B"
        },
        {
          "duration": 0.13,
          "phone": "uw_I"
        },
        {
          "duration": 0.07,
          "phone": "z_I"
        },
        {
          "duration": 0.01,
          "phone": "d_E"
        }
      ],
      "start": 8.78,
      "startOffset": 145,
      "word": "USED"
    },
    {
      "alignedWord": "tobacco",
      "case": "success",
      "end": 9.849999,
      "endOffset": 157,
      "phones": [
        {
          "duration": 0.06,
          "phone": "t_B"
        },
        {
          "duration": 0.06,
          "phone": "ah_I"
        },
        {
          "duration": 0.07,
          "phone": "b_I"
        },
        {
          "duration": 0.16,
          "phone": "ae_I"
        },
        {
          "duration": 0.11,
          "phone": "k_I"
        },
        {
          "duration": 0.29,
          "phone": "ow_E"
        }
      ],
      "start": 9.099999,
      "startOffset": 150,
      "word": "TOBACCO"
    },
    {
      "alignedWord": "yet",
      "case": "success",
      "end": 10.55,
      "endOffset": 161,
      "phones": [
        {
          "duration": 0.12,
          "phone": "y_B"
        },
        {
          "duration": 0.12,
          "phone": "eh_I"
        },
        {
          "duration": 0.08,
          "phone": "t_E"
        }
      ],
      "start": 10.23,
      "startOffset": 158,
      "word": "YET"
    },
    {
      "alignedWord": "i",
      "case": "success",
      "end": 10.680000000000001,
      "endOffset": 163,
      "phones": [
        {
          "duration": 0.13,
          "phone": "ay_S"
        }
      ],
      "start": 10.55,
      "startOffset": 162,
      "word": "I"
    },
    {
      "alignedWord": "had",
      "case": "success",
      "end": 10.94,
      "endOffset": 167,
      "phones": [
        {
          "duration": 0.1,
          "phone": "hh_B"
        },
        {
          "duration": 0.06,
          "phone": "ae_I"
        },
        {
          "duration": 0.09,
          "phone": "d_E"
        }
      ],
      "start": 10.69,
      "startOffset": 164,
      "word": "HAD"
    },
    {
      "alignedWord": "left",
      "case": "success",
      "end": 11.32,
      "endOffset": 172,
      "phones": [
        {
          "duration": 0.11,
          "phone": "l_B"
        },
        {
          "duration": 0.11,
          "phone": "eh_I"
        },
        {
          "duration": 0.09,
          "phone": "f_I"
        },
        {
          "duration": 0.07,
          "phone": "t_E"
        }
      ],
      "start": 10.94,
      "startOffset": 168,
      "word": "LEFT"
    },
    {
      "alignedWord": "it",
      "case": "success",
      "end": 11.46,
      "endOffset": 175,
      "phones": [
        {
          "duration": 0.08,
          "phone": "ih_B"
        },
        {
          "duration": 0.06,
          "phone": "t_E"
        }
      ],
      "start": 11.32,
      "startOffset": 173,
      "word": "IT"
    },
    {
      "alignedWord": "ever",
      "case": "success",
      "end": 11.999998999999999,
      "endOffset": 180,
      "phones": [
        {
          "duration": 0.1,
          "phone": "eh_B"
        },
        {
          "duration": 0.08,
          "phone": "v_I"
        },
        {
          "duration": 0.1,
          "phone": "er_E"
        }
      ],
      "start": 11.719999,
      "startOffset": 176,
      "word": "EVER"
    },
    {
      "alignedWord": "since",
      "case": "success",
      "end": 12.34,
      "endOffset": 186,
      "phones": [
        {
          "duration": 0.1,
          "phone": "s_B"
        },
        {
          "duration": 0.08,
          "phone": "ih_I"
        },
        {
          "duration": 0.08,
          "phone": "n_I"
        },
        {
          "duration": 0.08,
          "phone": "s_E"
        }
      ],
      "start": 12.0,
      "startOffset": 181,
      "word": "SINCE"
    },
    {
      "alignedWord": "i",
      "case": "success",
      "end": 12.41,
      "endOffset": 188,
      "phones": [
        {
          "duration": 0.07,
          "phone": "ay_S"
        }
      ],
      "start": 12.34,
      "startOffset": 187,
      "word": "I"
    },
    {
      "alignedWord": "was",
      "case": "success",
      "end": 12.63,
      "endOffset": 192,
      "phones": [
        {
          "duration": 0.07,
          "phone": "w_B"
        },
        {
          "duration": 0.07,
          "phone": "ah_I"
        },
        {
          "duration": 0.08,
          "phone": "z_E"
        }
      ],
      "start": 12.41,
      "startOffset": 189,
      "word": "WAS"
    },
    {
      "alignedWord": "first",
      "case": "success",
      "end": 12.96,
      "endOffset": 198,
      "phones": [
        {
          "duration": 0.09,
          "phone": "f_B"
        },
        {
          "duration": 0.12,
          "phone": "er_I"
        },
        {
          "duration": 0.06,
          "phone": "s_I"
        },
        {
          "duration": 0.06,
          "phone": "t_E"
        }
      ],
      "start": 12.63,
      "startOffset": 193,
      "word": "FIRST"
    },
    {
      "alignedWord": "taken",
      "case": "success",
      "end": 13.38,
      "endOffset": 204,
      "phones": [
        {
          "duration": 0.07,
          "phone": "t_B"
        },
        {
          "duration": 0.13,
          "phone": "ey_I"
        },
        {
          "duration": 0.07,
          "phone": "k_I"
        },
        {
          "duration": 0.07,
          "phone": "ah_I"
        },
        {
          "duration": 0.08,
          "phone": "n_E"
        }
      ],
      "start": 12.96,
      "startOffset": 199,
      "word": "TAKEN"
    }
  ]
}