{
  "transcript": "AND HE SHOWED HER A LARGE LOAF AND A PIECE OF CHEESE SHE SEEMED PLEASED AND WENT INTO THE GARDEN FOR SOME ROOTS AND PLANTS WHICH SHE PLACED IN WATER AND THEN UPON THE FIRE",
  "words": [
    {
      "alignedWord": "and",
      "case": "success",
      "end": 0.46,
      "endOffset": 3,
      "phones": [
        {
          "duration": 0.05,
          "phone": "ae_B"
        },
        {
          "duration": 0.04,
          "phone": "n_I"
        },
        {
          "duration": 0.05,
          "phone": "d_E"
        }
      ],
      "start": 0.32,
      "startOffset": 0,
      "word": "AND"
    },
    {
      "alignedWord": "he",
      "case": "success",
      "end": 0.62,
      "endOffset": 6,
      "phones": [
        {
          "duration": 0.07,
          "phone": "hh_B"
        },
        {
          "duration": 0.09,
          "phone": "iy_E"
        }
      ],
      "start": 0.46,
      "startOffset": 4,
      "word": "HE"
    },
    {
      "alignedWord": "showed",
      "case": "success",
      "end": 0.9,
      "endOffset": 13,
      "phones": [
        {
          "duration": 0.13,
          "phone": "sh_B"
        },
        {
          "duration": 0.09,
          "phone": "ow_I"
        },
        {
          "duration": 0.06,
          "phone": "d_E"
        }
      ],
      "start": 0.62,
      "startOffset": 7,
      "word": "SHOWED"
    },
    {
      "alignedWord": "her",
      "case": "success",
      "end": 1.04,
      "endOffset": 17,
      "phones": [
        {
          "duration": 0.08,
          "phone": "hh_B"
        },
        {
          "duration": 0.06,
          "phone": "er_E"
        }
      ],
      "start": 0.9,
      "startOffset": 14,
      "word": "HER"
    },
    {
      "alignedWord": "a",
      "case": "success",
      "end": 1.11,
      "endOffset": 19,
      "phones": [
        {
          "duration": 0.07,
          "phone": "ah_S"
        }
      ],
      "start": 1.04,
      "startOffset": 18,
      "word": "A"
    },
    {
      "alignedWord": "large",
      "case": "success",
      "end": 1.5,
      "endOffset": 25,
      "phones": [
        {
          "duration": 0.08,
          "phone": "l_B"
        },
        {
          "duration": 0.11,
          "phone": "aa_I"
        },
        {
          "duration": 0.08,
          "phone": "r_I"
        },
        {
          "duration": 0.12,
          "phone": "jh_E"
        }
      ],
      "start": 1.11,
      "startOffset": 20,
      "word": "LARGE"
    },
    {
      "alignedWord": "loaf",
      "case": "success",
      "end": 1.87,
      "endOffset": 30,
      "phones": [
        {
          "duration": 0.12,
          "phone": "l_B"
        },
        {
          "duration": 0.13,
          "phone": "ow_I"
        },
        {
          "duration": 0.12,
          "phone": "f_E"
        }
      ],
      "start": 1.5,
      "startOffset": 26,
      "word": "LOAF"
    },
    {
      "alignedWord": "and",
      "case": "success",
      "end": 2.05,
      "endOffset": 34,
      "phones": [
        {
          "duration": 0.08,
          "phone": "ah_B"
        },
        {
          "duration": 0.03,
          "phone": "n_I"
        },
        {
          "duration": 0.03,
          "phone": "d_E"
        }
      ],
      "start": 1.91,
      "startOffset": 31,
      "word": "AND"
    },
    {
      "alignedWord": "a",
      "case": "success",
      "end": 2.0999999999999996,
      "endOffset": 36,
      "phones": [
        {
          "duration": 0.05,
          "phone": "ah_S"
        }
      ],
      "start": 2.05,
      "startOffset": 35,
      "word": "A"
    },
    {
      "alignedWord": "piece",
      "case": "success",
      "end": 2.35,
      "endOffset": 42,
      "phones": [
        {
          "duration": 0.09,
          "phone": "p_B"
        },
        {
          "duration": 0.1,
          "phone": "iy_I"
        },
        {
          "duration": 0.06,
          "phone": "s_E"
        }
      ],
      "start": 2.1,
      "startOffset": 37,
      "word": "PIECE"
    },
    {
      "alignedWord": "of",
      "case": "success",
      "end": 2.48,
      "endOffset": 45,
      "phones": [
        {
          "duration": 0.06,
          "phone": "ah_B"
        },
        {
          "duration": 0.07,
          "phone": "v_E"
        }
      ],
      "start": 2.35,
      "startOffset": 43,
      "word": "OF"
    },
    {
      "alignedWord": "cheese",
      "case": "success",
      "end": 3.0,
      "endOffset": 52,
      "phones": [
        {
          "duration": 0.13,
          "phone": "ch_B"
        },
        {
          "duration": 0.21,
          "phone": "iy_I"
        },
        {
          "duration": 0.18,
          "phone": "z_E"
        }
      ],
      "start": 2.48,
      "startOffset": 46,
      "word": "CHEESE"
    },
    {
      "alignedWord": "she",
      "case": "success",
      "end": 3.89,
      "endOffset": 56,
      "phones": [
        {
          "duration": 0.15,
          "phone": "sh_B"
        },
        {
          "duration": 0.08,
          "phone": "iy_E"
        }
      ],
      "start": 3.66,
      "startOffset": 53,
      "word": "SHE"
    },
    {
      "alignedWord": "seemed",
      "case": "success",
      "end": 4.140000000000001,
      "endOffset": 63,
      "phones": [
        {
          "duration": 0.08,
          "phone": "s_B"
        },
        {
          "duration": 0.09,
          "phone": "iy_I"
        },
        {
          "duration": 0.05,
          "phone": "m_I"
        },
        {
          "duration": 0.03,
          "phone": "d_E"
        }
      ],
      "start": 3.89,
      "startOffset": 57,
      "word": "SEEMED"
    },
    {
      "alignedWord": "pleased",
      "case": "success",
      "end": 4.6499999999999995,
      "endOffset": 71,
      "phones": [
        {
          "duration": 0.08,
          "phone": "p_B"
        },
        {
          "duration": 0.1,
          "phone": "l_I"
        },
        {
          "duration": 0.17,
          "phone": "iy_I"
        },
        {
          "duration": 0.09,
          "phone": "z_I"
        },
        {
          "duration": 0.07,
          "phone": "d_E"
        }
      ],
      "start": 4.14,
      "startOffset": 64,
      "word": "PLEASED"
    },
    {
      "alignedWord": "and",
      "case": "success",
      "end": 4.760000000000001,
      "endOffset": 75,
      "phones": [
        {
          "duration": 0.01,
          "phone": "ah_B"
        },
        {
          "duration": 0.04,
          "phone": "n_I"
        },
        {
          "duration": 0.06,
          "phone": "d_E"
        }
      ],
      "start": 4.65,
      "startOffset": 72,
      "word": "AND"
    },
    {
      "alignedWord": "went",
      "case": "success",
      "end": 4.93,
      "endOffset": 80,
      "phones": [
        {
          "duration": 0.03,
          "phone": "w_B"
        },
        {
          "duration": 0.08,
          "phone": "eh_I"
        },
        {
          "duration": 0.03,
          "phone": "n_I"
        },
        {
          "duration": 0.03,
          "phone": "t_E"
        }
      ],
      "start": 4.76,
      "startOffset": 76,
      "word": "WENT"
    },
    {
      "alignedWord": "into",
      "case": "success",
      "end": 5.109999999999999,
      "endOffset": 85,
      "phones": [
        {
          "duration": 0.03,
          "phone": "ih_B"
        },
        {
          "duration": 0.04,
          "phone": "n_I"
        },
        {
          "duration": 0.05,
          "phone": "t_I"
        },
        {
          "duration": 0.06,
          "phone": "ah_E"
        }
      ],
      "start": 4.93,
      "startOffset": 81,
      "word": "INTO"
    },
    {
      "alignedWord": "the",
      "case": "success",
      "end": 5.180000000000001,
      "endOffset": 89,
      "phones": [
        {
          "duration": 0.03,
          "phone": "dh_B"
        },
        {
          "duration": 0.04,
          "phone": "ah_E"
        }
      ],
      "start": 5.11,
      "startOffset": 86,
      "word": "THE"
    },
    {
      "alignedWord": "garden",
      "case": "success",
      "end": 5.54,
      "endOffset": 96,
      "phones": [
        {
          "duration": 0.08,
          "phone": "g_B"
        },
        {
          "duration": 0.08,
          "phone": "aa_I"
        },
        {
          "duration": 0.05,
          "phone": "r_I"
        },
        {
          "duration": 0.04,
          "phone": "d_I"
        },
        {
          "duration": 0.02,
          "phone": "ah_I"
        },
        {
          "duration": 0.09,
          "phone": "n_E"
        }
      ],
      "start": 5.18,
      "startOffset": 90,
      "word": "GARDEN"
    },
    {
      "alignedWord": "for",
      "case": "success",
      "end": 5.67,
      "endOffset": 100,
      "phones": [
        {
          "duration": 0.05,
          "phone": "f_B"
        },
        {
          "duration": 0.08,
          "phone": "er_E"
        }
      ],
      "start": 5.54,
      "startOffset": 97,
      "word": "FOR"
    },
    {
      "alignedWord": "some",
      "case": "success",
      "end": 5.91,
      "endOffset": 105,
      "phones": [
        {
          "duration": 0.07,
          "phone": "s_B"
        },
        {
          "duration": 0.05,
          "phone": "ah_I"
        },
        {
          "duration": 0.12,
          "phone": "m_E"
        }
      ],
      "start": 5.67,
      "startOffset": 101,
      "word": "SOME"
    },
    {
      "alignedWord": "roots",
      "case": "success",
      "end": 6.28,
      "endOffset": 111,
      "phones": [
        {
          "duration": 0.1,
          "phone": "r_B"
        },
        {
          "duration": 0.09,
          "phone": "uw_I"
        },
        {
          "duration": 0.07,
          "phone": "t_I"
        },
        {
          "duration": 0.11,
          "phone": "s_E"
        }
      ],
      "start": 5.91,
      "startOffset": 106,
      "word": "ROOTS"
    },
    {
      "alignedWord": "and",
      "case": "success",
      "end": 6.47,
      "endOffset": 115,
      "phones": [
        {
          "duration": 0.07,
          "phone": "ah_B"
        },
        {
          "duration": 0.03,
          "phone": "n_I"
        },
        {
          "duration": 0.07,
          "phone": "d_E"
        }
      ],
      "start": 6.3,
      "startOffset": 112,
      "word": "AND"
    },
    {
      "alignedWord": "plants",
      "case": "success",
      "end": 6.97,
      "endOffset": 122,
      "phones": [
        {
          "duration": 0.05,
          "phone": "p_B"
        },
        {
          "duration": 0.08,
          "phone": "l_I"
        },
        {
          "duration": 0.13,
          "phone": "ae_I"
        },
        {
          "duration": 0.04,
          "phone": "n_I"
        },
        {
          "duration": 0.06,
          "phone": "t_I"
        },
        {
          "duration": 0.14,
          "phone": "s_E"
        }
      ],
      "start": 6.47,
      "startOffset": 116,
      "word": "PLANTS"
    },
    {
      "alignedWord": "which",
      "case": "success",
      "end": 7.3,
      "endOffset": 128,
      "phones": [
        {
          "duration": 0.08,
          "phone": "w_B"
        },
        {
          "duration": 0.06,
          "phone": "ih_I"
        },
        {
          "duration": 0.04,
          "phone": "ch_E"
        }
      ],
      "start": 7.12,
      "startOffset": 123,
      "word": "WHICH"
    },
    {
      "alignedWord": "she",
      "case": "success",
      "end": 7.41,
      "endOffset": 132,
      "phones": [
        {
          "duration": 0.04,
          "phone": "sh_B"
        },
        {
          "duration": 0.07,
          "phone": "iy_E"
        }
      ],
      "start": 7.3,
      "startOffset": 129,
      "word": "SHE"
    },
    {
      "alignedWord": "placed",
      "case": "success",
      "end": 7.75,
      "endOffset": 139,
      "phones": [
        {
          "duration": 0.08,
          "phone": "p_B"
        },
        {
          "duration": 0.08,
          "phone": "l_I"
        },
        {
          "duration": 0.06,
          "phone": "ey_I"
        },
        {
          "duration": 0.06,
          "phone": "s_I"
        },
        {
          "duration": 0.06,
          "phone": "t_E"
        }
      ],
      "start": 7.41,
      "startOffset": 133,
      "word": "PLACED"
    },
    {
      "alignedWord": "in",
      "case": "success",
      "end": 7.86,
      "endOffset": 142,
      "phones": [
        {
          "duration": 0.02,
          "phone": "ih_B"
        },
        {
          "duration": 0.09,
          "phone": "n_E"
        }
      ],
      "start": 7.75,
      "startOffset": 140,
      "word": "IN"
    },
    {
      "alignedWord": "water",
      "case": "success",
      "end": 8.23,
      "endOffset": 148,
      "phones": [
        {
          "duration": 0.05,
          "phone": "w_B"
        },
        {
          "duration": 0.09,
          "phone": "ao_I"
        },
        {
          "duration": 0.06,
          "phone": "t_I"
        },
        {
          "duration": 0.17,
          "phone": "er_E"
        }
      ],
      "start": 7.86,
      "startOffset": 143,
      "word": "WATER"
    },
    {
      "alignedWord": "and",
      "case": "success",
      "end": 8.76,
      "endOffset": 152,
      "phones": [
        {
          "duration": 0.07,
          "phone": "ae_B"
        },
        {
          "duration": 0.03,
          "phone": "n_I"
        },
        {
          "duration": 0.04,
          "phone": "d_E"
        }
      ],
      "start": 8.62,
      "startOffset": 149,
      "word": "AND"
    },
    {
      "alignedWord": "then",
      "case": "success",
      "end": 8.879999999999999,
      "endOffset": 157,
      "phones": [
        {
          "duration": 0.01,
          "phone": "dh_B"
        },
        {
          "duration": 0.05,
          "phone": "eh_I"
        },
        {
          "duration": 0.06,
          "phone": "n_E"
        }
      ],
      "start": 8.76,
      "startOffset": 153,
      "word": "THEN"
    },
    {
      "alignedWord": "upon",
      "case": "success",
      "end": 9.13,
      "endOffset": 162,
      "phones": [
        {
          "duration": 0.05,
          "phone": "ah_B"
        },
        {
          "duration": 0.08,
          "phone": "p_I"
        },
        {
          "duration": 0.07,
          "phone": "aa_I"
        },
        {
          "duration": 0.05,
          "phone": "n_E"
        }
      ],
      "start": 8.88,
      "startOffset": 158,
      "word": "UPON"
    },
    {
      "alignedWord": "the",
      "case": "success",
      "end": 9.22,
      "endOffset": 166,
      "phones": [
        {
          "duration": 0.04,
          "phone": "dh_B"
        },
        {
          "duration": 0.05,
          "phone": "ah_E"
        }
      ],
      "start": 9.13,
      "startOffset": 163,
      "word": "THE"
    },
    {
      "alignedWord": "fire",
      "case": "success",
      "end": 9.690000000000001,
      "endOffset": 171,
      "phones": [
        {
          "duration": 0.12,
          "phone": "f_B"
        },
        {
          "duration": 0.18,
          "phone": "ay_I"
        },
        {
          "duration": 0.17,
          "phone": "er_E"
        }
      ],
      "start": 9.22,
      "startOffset": 167,
      "word": "FIRE"
    }
  ]
}