{
  "transcript": "SHE SAT DOWN AT HER DESK FEELING ASHAMED REPENTANT AND BITTERLY MORTIFIED HER QUICK ANGER WAS GONE AND SHE WOULD HAVE GIVEN MUCH TO HAVE BEEN ABLE TO SEEK RELIEF IN TEARS SO ALL HER BOASTS HAD COME TO THIS SHE HAD ACTUALLY WHIPPED ONE OF HER PUPILS",
  "words": [
    {
      "alignedWord": "she",
      "case": "success",
      "end": 0.52,
      "endOffset": 3,
      "phones": [
        {
          "duration": 0.17,
          "phone": "sh_B"
        },
        {
          "duration": 0.09,
          "phone": "iy_E"
        }
      ],
      "start": 0.26,
      "startOffset": 0,
      "word": "SHE"
    },
    {
      "alignedWord": "sat",
      "case": "success",
      "end": 0.8300000000000001,
      "endOffset": 7,
      "phones": [
        {
          "duration": 0.12,
          "phone": "s_B"
        },
        {
          "duration": 0.1,
          "phone": "ae_I"
        },
        {
          "duration": 0.08,
          "phone": "t_E"
        }
      ],
      "start": 0.53,
      "startOffset": 4,
      "word": "SAT"
    },
    {
      "alignedWord": "down",
      "case": "success",
      "end": 0.99,
      "endOffset": 12,
      "phones": [
        {
          "duration": 0.04,
          "phone": "d_B"
        },
        {
          "duration": 0.06,
          "phone": "aw_I"
        },
        {
          "duration": 0.06,
          "phone": "n_E"
        }
      ],
      "start": 0.83,
      "startOffset": 8,
      "word": "DOWN"
    },
    {
      "alignedWord": "at",
      "case": "success",
      "end": 1.08,
      "endOffset": 15,
      "phones": [
        {
          "duration": 0.05,
          "phone": "ae_B"
        },
        {
          "duration": 0.04,
          "phone": "t_E"
        }
      ],
      "start": 0.99,
      "startOffset": 13,
      "word": "AT"
    },
    {
      "alignedWord": "her",
      "case": "success",
      "end": 1.2200000000000002,
      "endOffset": 19,
      "phones": [
        {
          "duration": 0.08,
          "phone": "hh_B"
        },
        {
          "duration": 0.06,
          "phone": "er_E"
        }
      ],
      "start": 1.08,
      "startOffset": 16,
      "word": "HER"
    },
    {
      "alignedWord": "desk",
      "case": "success",
      "end": 1.6,
      "endOffset": 24,
      "phones": [
        {
          "duration": 0.08,
          "phone": "d_B"
        },
        {
          "duration": 0.13,
          "phone": "eh_I"
        },
        {
          "duration": 0.11,
          "phone": "s_I"
        },
        {
          "duration": 0.06,
          "phone": "k_E"
        }
      ],
      "start": 1.22,
      "startOffset": 20,
      "word": "DESK"
    },
    {
      "alignedWord": "feeling",
      "case": "success",
      "end": 1.8800000000000001,
      "endOffset": 32,
      "phones": [
        {
          "duration": 0.07,
          "phone": "f_B"
        },
        {
          "duration": 0.06,
          "phone": "iy_I"
        },
        {
          "duration": 0.02,
          "phone": "l_I"
        },
        {
          "duration": 0.07,
          "phone": "ih_I"
        },
        {
          "duration": 0.06,
          "phone": "ng_E"
        }
      ],
      "start": 1.6,
      "startOffset": 25,
      "word": "FEELING"
    },
    {
      "alignedWord": "ashamed",
      "case": "success",
      "end": 2.4499999999999997,
      "endOffset": 40,
      "phones": [
        {
          "duration": 0.05,
          "phone": "ah_B"
        },
        {
          "duration": 0.17,
          "phone": "sh_I"
        },
        {
          "duration": 0.17,
          "phone": "ey_I"
        },
        {
          "duration": 0.09,
          "phone": "m_I"
        },
        {
          "duration": 0.09,
          "phone": "d_E"
        }
      ],
      "start": 1.88,
      "startOffset": 33,
      "word": "ASHAMED"
    },
    {
      "alignedWord": "repentant",
      "case": "success",
      "end": 3.0999999999999996,
      "endOffset": 50,
      "phones": [
        {
          "duration": 0.08,
          "phone": "r_B"
        },
        {
          "duration": 0.06,
          "phone": "ih_I"
        },
        {
          "duration": 0.11,
          "phone": "p_I"
        },
        {
          "duration": 0.08,
          "phone": "eh_I"
        },
        {
          "duration": 0.06,
          "phone": "n_I"
        },
        {
          "duration": 0.05,
          "phone": "t_I"
        },
        {
          "duration": 0.04,
          "phone": "ah_I"
        },
        {
          "duration": 0.05,
          "phone": "n_I"
        },
        {
          "duration": 0.06,
          "phone": "t_E"
        }
      ],
      "start": 2.51,
      "startOffset": 41,
      "word": "REPENTANT"
    },
    {
      "alignedWord": "and",
      "case": "success",
      "end": 3.3000000000000003,
      "endOffset": 54,
      "phones": [
        {
          "duration": 0.05,
          "phone": "ae_B"
        },
        {
          "duration": 0.07,
          "phone": "n_I"
        },
        {
          "duration": 0.06,
          "phone": "d_E"
        }
      ],
      "start": 3.12,
      "startOffset": 51,
      "word": "AND"
    },
    {
      "alignedWord": "bitterly",
      "case": "success",
      "end": 3.69,
      "endOffset": 63,
      "phones": [
        {
          "duration": 0.07,
          "phone": "b_B"
        },
        {
          "duration": 0.07,
          "phone": "ih_I"
        },
        {
          "duration": 0.04,
          "phone": "t_I"
        },
        {
          "duration": 0.06,
          "phone": "er_I"
        },
        {
          "duration": 0.06,
          "phone": "l_I"
        },
        {
          "duration": 0.08,
          "phone": "iy_E"
        }
      ],
      "start": 3.31,
      "startOffset": 55,
      "word": "BITTERLY"
    },
    {
      "alignedWord": "mortified",
      "case": "success",
      "end": 4.41,
      "endOffset": 73,
      "phones": [
        {
          "duration": 0.06,
          "phone": "m_B"
        },
        {
          "duration": 0.08,
          "phone": "ao_I"
        },
        {
          "duration": 0.02,
          "phone": "r_I"
        },
        {
          "duration": 0.08,
          "phone": "t_I"
        },
        {
          "duration": 0.05,
          "phone": "ah_I"
        },
        {
          "duration": 0.11,
          "phone": "f_I"
        },
        {
          "duration": 0.18,
          "phone": "ay_I"
        },
        {
          "duration": 0.13,
          "phone": "d_E"
        }
      ],
      "start": 3.7,
      "startOffset": 64,
      "word": "MORTIFIED"
    },
    {
      "alignedWord": "her",
      "case": "success",
      "end": 5.0,
      "endOffset": 77,
      "phones": [
        {
          "duration": 0.1,
          "phone": "hh_B"
        },
        {
          "duration": 0.05,
          "phone": "er_E"
        }
      ],
      "start": 4.85,
      "startOffset": 74,
      "word": "HER"
    },
    {
      "alignedWord": "quick",
      "case": "success",
      "end": 5.28,
      "endOffset": 83,
      "phones": [
        {
          "duration": 0.09,
          "phone": "k_B"
        },
        {
          "duration": 0.05,
          "phone": "w_I"
        },
        {
          "duration": 0.07,
          "phone": "ih_I"
        },
        {
          "duration": 0.07,
          "phone": "k_E"
        }
      ],
      "start": 5.0,
      "startOffset": 78,
      "word": "QUICK"
    },
    {
      "alignedWord": "anger",
      "case": "success",
      "end": 5.59,
      "endOffset": 89,
      "phones": [
        {
          "duration": 0.09,
          "phone": "ae_B"
        },
        {
          "duration": 0.09,
          "phone": "ng_I"
        },
        {
          "duration": 0.07,
          "phone": "g_I"
        },
        {
          "duration": 0.04,
          "phone": "er_E"
        }
      ],
      "start": 5.3,
      "startOffset": 84,
      "word": "ANGER"
    },
    {
      "alignedWord": "was",
      "case": "success",
      "end": 5.77,
      "endOffset": 93,
      "phones": [
        {
          "duration": 0.05,
          "phone": "w_B"
        },
        {
          "duration": 0.07,
          "phone": "ah_I"
        },
        {
          "duration": 0.06,
          "phone": "z_E"
        }
      ],
      "start": 5.59,
      "startOffset": 90,
      "word": "WAS"
    },
    {
      "alignedWord": "gone",
      "case": "success",
      "end": 6.06,
      "endOffset": 98,
      "phones": [
        {
          "duration": 0.06,
          "phone": "g_B"
        },
        {
          "duration": 0.16,
          "phone": "ao_I"
        },
        {
          "duration": 0.07,
          "phone": "n_E"
        }
      ],
      "start": 5.77,
      "startOffset": 94,
      "word": "GONE"
    },
    {
      "alignedWord": "and",
      "case": "success",
      "end": 6.14,
      "endOffset": 102,
      "phones": [
        {
          "duration": 0.03,
          "phone": "ae_B"
        },
        {
          "duration": 0.03,
          "phone": "n_I"
        },
        {
          "duration": 0.02,
          "phone": "d_E"
        }
      ],
      "start": 6.06,
      "startOffset": 99,
      "word": "AND"
    },
    {
      "alignedWord": "she",
      "case": "success",
      "end": 6.260000000000001,
      "endOffset": 106,
      "phones": [
        {
          "duration": 0.08,
          "phone": "sh_B"
        },
        {
          "duration": 0.03,
          "phone": "iy_E"
        }
      ],
      "start": 6.15,
      "startOffset": 103,
      "word": "SHE"
    },
    {
      "alignedWord": "would",
      "case": "success",
      "end": 6.37,
      "endOffset": 112,
      "phones": [
        {
          "duration": 0.05,
          "phone": "w_B"
        },
        {
          "duration": 0.05,
          "phone": "uh_I"
        },
        {
          "duration": 0.01,
          "phone": "d_E"
        }
      ],
      "start": 6.26,
      "startOffset": 107,
      "word": "WOULD"
    },
    {
      "alignedWord": "have",
      "case": "success",
      "end": 6.49,
      "endOffset": 117,
      "phones": [
        {
          "duration": 0.04,
          "phone": "hh_B"
        },
        {
          "duration": 0.01,
          "phone": "ae_I"
        },
        {
          "duration": 0.07,
          "phone": "v_E"
        }
      ],
      "start": 6.37,
      "startOffset": 113,
      "word": "HAVE"
    },
    {
      "alignedWord": "given",
      "case": "success",
      "end": 6.720000000000001,
      "endOffset": 123,
      "phones": [
        {
          "duration": 0.02,
          "phone": "g_B"
        },
        {
          "duration": 0.05,
          "phone": "ih_I"
        },
        {
          "duration": 0.03,
          "phone": "v_I"
        },
        {
          "duration": 0.06,
          "phone": "ih_I"
        },
        {
          "duration": 0.07,
          "phone": "n_E"
        }
      ],
      "start": 6.49,
      "startOffset": 118,
      "word": "GIVEN"
    },
    {
      "alignedWord": "much",
      "case": "success",
      "end": 7.04,
      "endOffset": 128,
      "phones": [
        {
          "duration": 0.09,
          "phone": "m_B"
        },
        {
          "duration": 0.12,
          "phone": "ah_I"
        },
        {
          "duration": 0.11,
          "phone": "ch_E"
        }
      ],
      "start": 6.72,
      "startOffset": 124,
      "word": "MUCH"
    },
    {
      "alignedWord": "to",
      "case": "success",
      "end": 7.14,
      "endOffset": 131,
      "phones": [
        {
          "duration": 0.07,
          "phone": "t_B"
        },
        {
          "duration": 0.03,
          "phone": "ah_E"
        }
      ],
      "start": 7.04,
      "startOffset": 129,
      "word": "TO"
    },
    {
      "alignedWord": "have",
      "case": "success",
      "end": 7.300000000000001,
      "endOffset": 136,
      "phones": [
        {
          "duration": 0.07,
          "phone": "hh_B"
        },
        {
          "duration": 0.02,
          "phone": "ae_I"
        },
        {
          "duration": 0.06,
          "phone": "v_E"
        }
      ],
      "start": 7.15,
      "startOffset": 132,
      "word": "HAVE"
    },
    {
      "alignedWord": "been",
      "case": "success",
      "end": 7.45,
      "endOffset": 141,
      "phones": [
        {
          "duration": 0.01,
          "phone": "b_B"
        },
        {
          "duration": 0.07,
          "phone": "ah_I"
        },
        {
          "duration": 0.07,
          "phone": "n_E"
        }
      ],
      "start": 7.3,
      "startOffset": 137,
      "word": "BEEN"
    },
    {
      "alignedWord": "able",
      "case": "success",
      "end": 7.65,
      "endOffset": 146,
      "phones": [
        {
          "duration": 0.08,
          "phone": "ey_B"
        },
        {
          "duration": 0.03,
          "phone": "b_I"
        },
        {
          "duration": 0.04,
          "phone": "ah_I"
        },
        {
          "duration": 0.05,
          "phone": "l_E"
        }
      ],
      "start": 7.45,
      "startOffset": 142,
      "word": "ABLE"
    },
    {
      "alignedWord": "to",
      "case": "success",
      "end": 7.79,
      "endOffset": 149,
      "phones": [
        {
          "duration": 0.08,
          "phone": "t_B"
        },
        {
          "duration": 0.06,
          "phone": "ih_E"
        }
      ],
      "start": 7.65,
      "startOffset": 147,
      "word": "TO"
    },
    {
      "alignedWord": "seek",
      "case": "success",
      "end": 8.04,
      "endOffset": 154,
      "phones": [
        {
          "duration": 0.1,
          "phone": "s_B"
        },
        {
          "duration": 0.08,
          "phone": "iy_I"
        },
        {
          "duration": 0.07,
          "phone": "k_E"
        }
      ],
      "start": 7.79,
      "startOffset": 150,
      "word": "SEEK"
    },
    {
      "alignedWord": "relief",
      "case": "success",
      "end": 8.37,
      "endOffset": 161,
      "phones": [
        {
          "duration": 0.03,
          "phone": "r_B"
        },
        {
          "duration": 0.05,
          "phone": "iy_I"
        },
        {
          "duration": 0.1,
          "phone": "l_I"
        },
        {
          "duration": 0.09,
          "phone": "iy_I"
        },
        {
          "duration": 0.06,
          "phone": "f_E"
        }
      ],
      "start": 8.04,
      "startOffset": 155,
      "word": "RELIEF"
    },
    {
      "alignedWord": "in",
      "case": "success",
      "end": 8.489999999999998,
      "endOffset": 164,
      "phones": [
        {
          "duration": 0.06,
          "phone": "ih_B"
        },
        {
          "duration": 0.06,
          "phone": "n_E"
        }
      ],
      "start": 8.37,
      "startOffset": 162,
      "word": "IN"
    },
    {
      "alignedWord": "tears",
      "case": "success",
      "end": 9.09,
      "endOffset": 170,
      "phones": [
        {
          "duration": 0.1,
          "phone": "t_B"
        },
        {
          "duration": 0.19,
          "phone": "ih_I"
        },
        {
          "duration": 0.11,
          "phone": "r_I"
        },
        {
          "duration": 0.2,
          "phone": "z_E"
        }
      ],
      "start": 8.49,
      "startOffset": 165,
      "word": "TEARS"
    },
    {
      "alignedWord": "so",
      "case": "success",
      "end": 10.0,
      "endOffset": 173,
      "phones": [
        {
          "duration": 0.14,
          "phone": "s_B"
        },
        {
          "duration": 0.1,
          "phone": "ow_E"
        }
      ],
      "start": 9.76,
      "startOffset": 171,
      "word": "SO"
    },
    {
      "alignedWord": "all",
      "case": "success",
      "end": 10.37,
      "endOffset": 177,
      "phones": [
        {
          "duration": 0.25,
          "phone": "ao_B"
        },
        {
          "duration": 0.09,
          "phone": "l_E"
        }
      ],
      "start": 10.03,
      "startOffset": 174,
      "word": "ALL"
    },
    {
      "alignedWord": "her",
      "case": "success",
      "end": 10.53,
      "endOffset": 181,
      "phones": [
        {
          "duration": 0.07,
          "phone": "hh_B"
        },
        {
          "duration": 0.09,
          "phone": "er_E"
        }
      ],
      "start": 10.37,
      "startOffset": 178,
      "word": "HER"
    },
    {
      "alignedWord": "<unk>",
      "case": "success",
      "end": 11.02,
      "endOffset": 188,
      "phones": [
        {
          "duration": 0.48,
          "phone": "oov_S"
        }
      ],
      "start": 10.54,
      "startOffset": 182,
      "word": "BOASTS"
    },
    {
      "alignedWord": "had",
      "case": "success",
      "end": 11.11,
      "endOffset": 192,
      "phones": [
        {
          "duration": 0.01,
          "phone": "hh_B"
        },
        {
          "duration": 0.01,
          "phone": "ae_I"
        },
        {
          "duration": 0.07,
          "phone": "d_E"
        }
      ],
      "start": 11.02,
      "startOffset": 189,
      "word": "HAD"
    },
    {
      "alignedWord": "come",
      "case": "success",
      "end": 11.299999999999999,
      "endOffset": 197,
      "phones": [
        {
          "duration": 0.04,
          "phone": "k_B"
        },
        {
          "duration": 0.08,
          "phone": "ah_I"
        },
        {
          "duration": 0.07,
          "phone": "m_E"
        }
      ],
      "start": 11.11,
      "startOffset": 193,
      "word": "COME"
    },
    {
      "alignedWord": "to",
      "case": "success",
      "end": 11.41,
      "endOffset": 200,
      "phones": [
        {
          "duration": 0.05,
          "phone": "t_B"
        },
        {
          "duration": 0.06,
          "phone": "ah_E"
        }
      ],
      "start": 11.3,
      "startOffset": 198,
      "word": "TO"
    },
    {
      "alignedWord": "this",
      "case": "success",
      "end": 11.88,
      "endOffset": 205,
      "phones": [
        {
          "duration": 0.06,
          "phone": "dh_B"
        },
        {
          "duration": 0.14,
          "phone": "ih_I"
        },
        {
          "duration": 0.27,
          "phone": "s_E"
        }
      ],
      "start": 11.41,
      "startOffset": 201,
      "word": "THIS"
    },
    {
      "alignedWord": "she",
      "case": "success",
      "end": 12.249998999999999,
      "endOffset": 209,
      "phones": [
        {
          "duration": 0.16,
          "phone": "sh_B"
        },
        {
          "duration": 0.03,
          "phone": "iy_E"
        }
      ],
      "start": 12.059999,
      "startOffset": 206,
      "word": "SHE"
    },
    {
      "alignedWord": "had",
      "case": "success",
      "end": 12.37,
      "endOffset": 213,
      "phones": [
        {
          "duration": 0.01,
          "phone": "hh_B"
        },
        {
          "duration": 0.04,
          "phone": "ae_I"
        },
        {
          "duration": 0.07,
          "phone": "d_E"
        }
      ],
      "start": 12.25,
      "startOffset": 210,
      "word": "HAD"
    },
    {
      "alignedWord": "actually",
      "case": "success",
      "end": 12.83,
      "endOffset": 222,
      "phones": [
        {
          "duration": 0.13,
          "phone": "ae_B"
        },
        {
          "duration": 0.09,
          "phone": "k_I"
        },
        {
          "duration": 0.06,
          "phone": "sh_I"
        },
        {
          "duration": 0.05,
          "phone": "ah_I"
        },
        {
          "duration": 0.06,
          "phone": "l_I"
        },
        {
          "duration": 0.06,
          "phone": "iy_E"
        }
      ],
      "start": 12.38,
      "startOffset": 214,
      "word": "ACTUALLY"
    },
    {
      "alignedWord": "whipped",
      "case": "success",
      "end": 13.13,
      "endOffset": 230,
      "phones": [
        {
          "duration": 0.08,
          "phone": "w_B"
        },
        {
          "duration": 0.08,
          "phone": "ih_I"
        },
        {
          "duration": 0.06,
          "phone": "p_I"
        },
        {
          "duration": 0.08,
          "phone": "t_E"
        }
      ],
      "start": 12.83,
      "startOffset": 223,
      "word": "WHIPPED"
    },
    {
      "alignedWord": "one",
      "case": "success",
      "end": 13.24,
      "endOffset": 234,
      "phones": [
        {
          "duration": 0.01,
          "phone": "w_B"
        },
        {
          "duration": 0.07,
          "phone": "ah_I"
        },
        {
          "duration": 0.03,
          "phone": "n_E"
        }
      ],
      "start": 13.13,
      "startOffset": 231,
      "word": "ONE"
    },
    {
      "alignedWord": "of",
      "case": "success",
      "end": 13.33,
      "endOffset": 237,
      "phones": [
        {
          "duration": 0.03,
          "phone": "ah_B"
        },
        {
          "duration": 0.06,
          "phone": "v_E"
        }
      ],
      "start": 13.24,
      "startOffset": 235,
      "word": "OF"
    },
    {
      "alignedWord": "her",
      "case": "success",
      "end": 13.45,
      "endOffset": 241,
      "phones": [
        {
          "duration": 0.07,
          "phone": "hh_B"
        },
        {
          "duration": 0.05,
          "phone": "er_E"
        }
      ],
      "start": 13.33,
      "startOffset": 238,
      "word": "HER"
    },
    {
      "alignedWord": "pupils",
      "case": "success",
      "end": 14.059999999999999,
      "endOffset": 248,
      "phones": [
        {
          "duration": 0.1,
          "phone": "p_B"
        },
        {
          "duration": 0.03,
          "phone": "y_I"
        },
        {
          "duration": 0.09,
          "phone": "uw_I"
        },
        {
          "duration": 0.07,
          "phone": "p_I"
        },
        {
          "duration": 0.05,
          "phone": "ah_I"
        },
        {
          "duration": 0.09,
          "phone": "l_I"
        },
        {
          "duration": 0.18,
          "phone": "z_E"
        }
      ],
      "start": 13.45,
      "startOffset": 242,
      "word": "PUPILS"
    }
  ]
}