{
  "transcript": "SWEETENED IT WITH THE GRACES OF SENTIMENT LIKE TACITUS AND INFUSED INTO THE WHOLE THE DIGNITY THE GRANDEUR AND MAGNIFICENCE OF LIVY I AM AWARE THAT I SHALL INCUR THE CENSURE OF NUMEROUS VERY LEARNED AND JUDICIOUS CRITICS FOR",
  "words": [
    {
      "alignedWord": "sweetened",
      "case": "success",
      "end": 0.75,
      "endOffset": 9,
      "phones": [
        {
          "duration": 0.16,
          "phone": "s_B"
        },
        {
          "duration": 0.08,
          "phone": "w_I"
        },
        {
          "duration": 0.1,
          "phone": "iy_I"
        },
        {
          "duration": 0.06,
          "phone": "t_I"
        },
        {
          "duration": 0.05,
          "phone": "ah_I"
        },
        {
          "duration": 0.08,
          "phone": "n_I"
        },
        {
          "duration": 0.04,
          "phone": "d_E"
        }
      ],
      "start": 0.18,
      "startOffset": 0,
      "word": "SWEETENED"
    },
    {
      "alignedWord": "it",
      "case": "success",
      "end": 0.89,
      "endOffset": 12,
      "phones": [
        {
          "duration": 0.07,
          "phone": "ih_B"
        },
        {
          "duration": 0.07,
          "phone": "t_E"
        }
      ],
      "start": 0.75,
      "startOffset": 10,
      "word": "IT"
    },
    {
      "alignedWord": "with",
      "case": "success",
      "end": 1.1300000000000001,
      "endOffset": 17,
      "phones": [
        {
          "duration": 0.09,
          "phone": "w_B"
        },
        {
          "duration": 0.05,
          "phone": "ih_I"
        },
        {
          "duration": 0.07,
          "phone": "th_E"
        }
      ],
      "start": 0.92,
      "startOffset": 13,
      "word": "WITH"
    },
    {
      "alignedWord": "the",
      "case": "success",
      "end": 1.22,
      "endOffset": 21,
      "phones": [
        {
          "duration": 0.03,
          "phone": "dh_B"
        },
        {
          "duration": 0.06,
          "phone": "ah_E"
        }
      ],
      "start": 1.13,
      "startOffset": 18,
      "word": "THE"
    },
    {
      "alignedWord": "graces",
      "case": "success",
      "end": 1.71,
      "endOffset": 28,
      "phones": [
        {
          "duration": 0.07,
          "phone": "g_B"
        },
        {
          "duration": 0.07,
          "phone": "r_I"
        },
        {
          "duration": 0.06,
          "phone": "ey_I"
        },
        {
          "duration": 0.1,
          "phone": "s_I"
        },
        {
          "duration": 0.09,
          "phone": "ih_I"
        },
        {
          "duration": 0.1,
          "phone": "z_E"
        }
      ],
      "start": 1.22,
      "startOffset": 22,
      "word": "GRACES"
    },
    {
      "alignedWord": "of",
      "case": "success",
      "end": 1.8599999999999999,
      "endOffset": 31,
      "phones": [
        {
          "duration": 0.07,
          "phone": "ah_B"
        },
        {
          "duration": 0.08,
          "phone": "v_E"
        }
      ],
      "start": 1.71,
      "startOffset": 29,
      "word": "OF"
    },
    {
      "alignedWord": "sentiment",
      "case": "success",
      "end": 2.35,
      "endOffset": 41,
      "phones": [
        {
          "duration": 0.07,
          "phone": "s_B"
        },
        {
          "duration": 0.06,
          "phone": "eh_I"
        },
        {
          "duration": 0.05,
          "phone": "n_I"
        },
        {
          "duration": 0.06,
          "phone": "t_I"
        },
        {
          "duration": 0.02,
          "phone": "ah_I"
        },
        {
          "duration": 0.09,
          "phone": "m_I"
        },
        {
          "duration": 0.07,
          "phone": "ah_I"
        },
        {
          "duration": 0.04,
          "phone": "n_I"
        },
        {
          "duration": 0.03,
          "phone": "t_E"
        }
      ],
      "start": 1.86,
      "startOffset": 32,
      "word": "SENTIMENT"
    },
    {
      "alignedWord": "like",
      "case": "success",
      "end": 2.58,
      "endOffset": 46,
      "phones": [
        {
          "duration": 0.09,
          "phone": "l_B"
        },
        {
          "duration": 0.08,
          "phone": "ay_I"
        },
        {
          "duration": 0.05,
          "phone": "k_E"
        }
      ],
      "start": 2.36,
      "startOffset": 42,
      "word": "LIKE"
    },
    {
      "alignedWord": "<unk>",
      "case": "success",
      "end": 3.38,
      "endOffset": 54,
      "phones": [
        {
          "duration": 0.78,
          "phone": "oov_S"
        }
      ],
      "start": 2.6,
      "startOffset": 47,
      "word": "TACITUS"
    },
    {
      "alignedWord": "and",
      "case": "success",
      "end": 3.7199999999999998,
      "endOffset": 58,
      "phones": [
        {
          "duration": 0.07,
          "phone": "ae_B"
        },
        {
          "duration": 0.05,
          "phone": "n_I"
        },
        {
          "duration": 0.05,
          "phone": "d_E"
        }
      ],
      "start": 3.55,
      "startOffset": 55,
      "word": "AND"
    },
    {
      "alignedWord": "infused",
      "case": "success",
      "end": 4.13,
      "endOffset": 66,
      "phones": [
        {
          "duration": 0.02,
          "phone": "ih_B"
        },
        {
          "duration": 0.03,
          "phone": "n_I"
        },
        {
          "duration": 0.09,
          "phone": "f_I"
        },
        {
          "duration": 0.07,
          "phone": "y_I"
        },
        {
          "duration": 0.13,
          "phone": "uw_I"
        },
        {
          "duration": 0.04,
          "phone": "z_I"
        },
        {
          "duration": 0.03,
          "phone": "d_E"
        }
      ],
      "start": 3.72,
      "startOffset": 59,
      "word": "INFUSED"
    },
    {
      "alignedWord": "into",
      "case": "success",
      "end": 4.42,
      "endOffset": 71,
      "phones": [
        {
          "duration": 0.07,
          "phone": "ih_B"
        },
        {
          "duration": 0.06,
          "phone": "n_I"
        },
        {
          "duration": 0.06,
          "phone": "t_I"
        },
        {
          "duration": 0.06,
          "phone": "uw_E"
        }
      ],
      "start": 4.17,
      "startOffset": 67,
      "word": "INTO"
    },
    {
      "alignedWord": "the",
      "case": "success",
      "end": 4.56,
      "endOffset": 75,
      "phones": [
        {
          "duration": 0.06,
          "phone": "dh_B"
        },
        {
          "duration": 0.08,
          "phone": "ah_E"
        }
      ],
      "start": 4.42,
      "startOffset": 72,
      "word": "THE"
    },
    {
      "alignedWord": "whole",
      "case": "success",
      "end": 5.069999999999999,
      "endOffset": 81,
      "phones": [
        {
          "duration": 0.12,
          "phone": "hh_B"
        },
        {
          "duration": 0.07,
          "phone": "ow_I"
        },
        {
          "duration": 0.32,
          "phone": "l_E"
        }
      ],
      "start": 4.56,
      "startOffset": 76,
      "word": "WHOLE"
    },
    {
      "alignedWord": "the",
      "case": "success",
      "end": 5.34,
      "endOffset": 85,
      "phones": [
        {
          "duration": 0.17,
          "phone": "dh_B"
        },
        {
          "duration": 0.07,
          "phone": "ah_E"
        }
      ],
      "start": 5.1,
      "startOffset": 82,
      "word": "THE"
    },
    {
      "alignedWord": "dignity",
      "case": "success",
      "end": 6.05,
      "endOffset": 93,
      "phones": [
        {
          "duration": 0.07,
          "phone": "d_B"
        },
        {
          "duration": 0.09,
          "phone": "ih_I"
        },
        {
          "duration": 0.07,
          "phone": "g_I"
        },
        {
          "duration": 0.06,
          "phone": "n_I"
        },
        {
          "duration": 0.07,
          "phone": "ah_I"
        },
        {
          "duration": 0.12,
          "phone": "t_I"
        },
        {
          "duration": 0.23,
          "phone": "iy_E"
        }
      ],
      "start": 5.34,
      "startOffset": 86,
      "word": "DIGNITY"
    },
    {
      "alignedWord": "the",
      "case": "success",
      "end": 6.3999999999999995,
      "endOffset": 97,
      "phones": [
        {
          "duration": 0.08,
          "phone": "dh_B"
        },
        {
          "duration": 0.06,
          "phone": "ah_E"
        }
      ],
      "start": 6.26,
      "startOffset": 94,
      "word": "THE"
    },
    {
      "alignedWord": "grandeur",
      "case": "success",
      "end": 7.03,
      "endOffset": 106,
      "phones": [
        {
          "duration": 0.09,
          "phone": "g_B"
        },
        {
          "duration": 0.07,
          "phone": "r_I"
        },
        {
          "duration": 0.1,
          "phone": "ae_I"
        },
        {
          "duration": 0.09,
          "phone": "n_I"
        },
        {
          "duration": 0.12,
          "phone": "d_I"
        },
        {
          "duration": 0.04,
          "phone": "uw_I"
        },
        {
          "duration": 0.12,
          "phone": "r_E"
        }
      ],
      "start": 6.4,
      "startOffset": 98,
      "word": "GRANDEUR"
    },
    {
      "alignedWord": "and",
      "case": "success",
      "end": 7.25,
      "endOffset": 110,
      "phones": [
        {
          "duration": 0.13,
          "phone": "ae_B"
        },
        {
          "duration": 0.08,
          "phone": "n_I"
        },
        {
          "duration": 0.01,
          "phone": "d_E"
        }
      ],
      "start": 7.03,
      "startOffset": 107,
      "word": "AND"
    },
    {
      "alignedWord": "<unk>",
      "case": "success",
      "end": 8.13,
      "endOffset": 123,
      "phones": [
        {
          "duration": 0.88,
          "phone": "oov_S"
        }
      ],
      "start": 7.25,
      "startOffset": 111,
      "word": "MAGNIFICENCE"
    },
    {
      "alignedWord": "of",
      "case": "success",
      "end": 8.36,
      "endOffset": 126,
      "phones": [
        {
          "duration": 0.12,
          "phone": "ah_B"
        },
        {
          "duration": 0.07,
          "phone": "v_E"
        }
      ],
      "start": 8.17,
      "startOffset": 124,
      "word": "OF"
    },
    {
      "alignedWord": "<unk>",
      "case": "success",
      "end": 8.91,
      "endOffset": 131,
      "phones": [
        {
          "duration": 0.55,
          "phone": "oov_S"
        }
      ],
      "start": 8.36,
      "startOffset": 127,
      "word": "LIVY"
    },
    {
      "alignedWord": "i",
      "case": "success",
      "end": 9.51,
      "endOffset": 133,
      "phones": [
        {
          "duration": 0.28,
          "phone": "ay_S"
        }
      ],
      "start": 9.23,
      "startOffset": 132,
      "word": "I"
    },
    {
      "alignedWord": "am",
      "case": "success",
      "end": 9.67,
      "endOffset": 136,
      "phones": [
        {
          "duration": 0.09,
          "phone": "ae_B"
        },
        {
          "duration": 0.07,
          "phone": "m_E"
        }
      ],
      "start": 9.51,
      "startOffset": 134,
      "word": "AM"
    },
    {
      "alignedWord": "aware",
      "case": "success",
      "end": 10.04,
      "endOffset": 142,
      "phones": [
        {
          "duration": 0.07,
          "phone": "ah_B"
        },
        {
          "duration": 0.1,
          "phone": "w_I"
        },
        {
          "duration": 0.11,
          "phone": "eh_I"
        },
        {
          "duration": 0.09,
          "phone": "r_E"
        }
      ],
      "start": 9.67,
      "startOffset": 137,
      "word": "AWARE"
    },
    {
      "alignedWord": "that",
      "case": "success",
      "end": 10.26,
      "endOffset": 147,
      "phones": [
        {
          "duration": 0.06,
          "phone": "dh_B"
        },
        {
          "duration": 0.08,
          "phone": "ah_I"
        },
        {
          "duration": 0.08,
          "phone": "t_E"
        }
      ],
      "start": 10.04,
      "startOffset": 143,
      "word": "THAT"
    },
    {
      "alignedWord": "i",
      "case": "success",
      "end": 10.39,
      "endOffset": 149,
      "phones": [
        {
          "duration": 0.13,
          "phone": "ay_S"
        }
      ],
      "start": 10.26,
      "startOffset": 148,
      "word": "I"
    },
    {
      "alignedWord": "shall",
      "case": "success",
      "end": 10.68,
      "endOffset": 155,
      "phones": [
        {
          "duration": 0.12,
          "phone": "sh_B"
        },
        {
          "duration": 0.09,
          "phone": "ae_I"
        },
        {
          "duration": 0.07,
          "phone": "l_E"
        }
      ],
      "start": 10.4,
      "startOffset": 150,
      "word": "SHALL"
    },
    {
      "alignedWord": "incur",
      "case": "success",
      "end": 11.169999,
      "endOffset": 161,
      "phones": [
        {
          "duration": 0.07,
          "phone": "ih_B"
        },
        {
          "duration": 0.08,
          "phone": "n_I"
        },
        {
          "duration": 0.15,
          "phone": "k_I"
        },
        {
          "duration": 0.19,
          "phone": "er_E"
        }
      ],
      "start": 10.679999,
      "startOffset": 156,
      "word": "INCUR"
    },
    {
      "alignedWord": "the",
      "case": "success",
      "end": 11.34,
      "endOffset": 165,
      "phones": [
        {
          "duration": 0.06,
          "phone": "dh_B"
        },
        {
          "duration": 0.11,
          "phone": "ah_E"
        }
      ],
      "start": 11.17,
      "startOffset": 162,
      "word": "THE"
    },
    {
      "alignedWord": "censure",
      "case": "success",
      "end": 11.9,
      "endOffset": 173,
      "phones": [
        {
          "duration": 0.1,
          "phone": "s_B"
        },
        {
          "duration": 0.1,
          "phone": "eh_I"
        },
        {
          "duration": 0.08,
          "phone": "n_I"
        },
        {
          "duration": 0.15,
          "phone": "sh_I"
        },
        {
          "duration": 0.13,
          "phone": "er_E"
        }
      ],
      "start": 11.34,
      "startOffset": 166,
      "word": "CENSURE"
    },
    {
      "alignedWord": "of",
      "case": "success",
      "end": 12.08,
      "endOffset": 176,
      "phones": [
        {
          "duration": 0.1,
          "phone": "ah_B"
        },
        {
          "duration": 0.08,
          "phone": "v_E"
        }
      ],
      "start": 11.9,
      "startOffset": 174,
      "word": "OF"
    },
    {
      "alignedWord": "numerous",
      "case": "success",
      "end": 12.59,
      "endOffset": 185,
      "phones": [
        {
          "duration": 0.07,
          "phone": "n_B"
        },
        {
          "duration": 0.1,
          "phone": "uw_I"
        },
        {
          "duration": 0.12,
          "phone": "m_I"
        },
        {
          "duration": 0.06,
          "phone": "er_I"
        },
        {
          "duration": 0.07,
          "phone": "ah_I"
        },
        {
          "duration": 0.09,
          "phone": "s_E"
        }
      ],
      "start": 12.08,
      "startOffset": 177,
      "word": "NUMEROUS"
    },
    {
      "alignedWord": "very",
      "case": "success",
      "end": 13.22,
      "endOffset": 190,
      "phones": [
        {
          "duration": 0.11,
          "phone": "v_B"
        },
        {
          "duration": 0.06,
          "phone": "eh_I"
        },
        {
          "duration": 0.1,
          "phone": "r_I"
        },
        {
          "duration": 0.12,
          "phone": "iy_E"
        }
      ],
      "start": 12.83,
      "startOffset": 186,
      "word": "VERY"
    },
    {
      "alignedWord": "learned",
      "case": "success",
      "end": 13.739999,
      "endOffset": 198,
      "phones": [
        {
          "duration": 0.17,
          "phone": "l_B"
        },
        {
          "duration": 0.1,
          "phone": "er_I"
        },
        {
          "duration": 0.05,
          "phone": "n_I"
        },
        {
          "duration": 0.08,
          "phone": "ih_I"
        },
        {
          "duration": 0.12,
          "phone": "d_E"
        }
      ],
      "start": 13.219999,
      "startOffset": 191,
      "word": "LEARNED"
    },
    {
      "alignedWord": "and",
      "case": "success",
      "end": 14.06,
      "endOffset": 202,
      "phones": [
        {
          "duration": 0.19,
          "phone": "ae_B"
        },
        {
          "duration": 0.06,
          "phone": "n_I"
        },
        {
          "duration": 0.06,
          "phone": "d_E"
        }
      ],
      "start": 13.75,
      "startOffset": 199,
      "word": "AND"
    },
    {
      "alignedWord": "<unk>",
      "case": "success",
      "end": 14.649999,
      "endOffset": 212,
      "phones": [
        {
          "duration": 0.59,
          "phone": "oov_S"
        }
      ],
      "start": 14.059999,
      "startOffset": 203,
      "word": "JUDICIOUS"
    },
    {
      "alignedWord": "critics",
      "case": "success",
      "end": 15.37,
      "endOffset": 220,
      "phones": [
        {
          "duration": 0.09,
          "phone": "k_B"
        },
        {
          "duration": 0.07,
          "phone": "r_I"
        },
        {
          "duration": 0.05,
          "phone": "ih_I"
        },
        {
          "duration": 0.05,
          "phone": "t_I"
        },
        {
          "duration": 0.11,
          "phone": "ih_I"
        },
        {
          "duration": 0.1,
          "phone": "k_I"
        },
        {
          "duration": 0.2,
          "phone": "s_E"
        }
      ],
      "start": 14.7,
      "startOffset": 213,
      "word": "CRITICS"
    },
    {
      "alignedWord": "for",
      "case": "success",
      "end": 15.72,
      "endOffset": 224,
      "phones": [
        {
          "duration": 0.11,
          "phone": "f_B"
        },
        {
          "duration": 0.17,
          "phone": "ao_I"
        },
        {
          "duration": 0.06,
          "phone": "r_E"
        }
      ],
      "start": 15.38,
      "startOffset": 221,
      "word": "FOR"
    }
  ]
}