{
  "transcript": "MEMORY BETWEEN ROUNDED HILLS WHITE WITH PATCHES OF BUCKWHEAT WHOSE FRAGRANCE FILLS THE LITTLE BREEZE THAT MAKES THE BIRCH LEAVES QUIVER BESIDE A ROLLICKING SWIFT RIVER",
  "words": [
    {
      "alignedWord": "memory",
      "case": "success",
      "end": 1.36,
      "endOffset": 6,
      "phones": [
        {
          "duration": 0.1,
          "phone": "m_B"
        },
        {
          "duration": 0.08,
          "phone": "eh_I"
        },
        {
          "duration": 0.09,
          "phone": "m_I"
        },
        {
          "duration": 0.14,
          "phone": "er_I"
        },
        {
          "duration": 0.39,
          "phone": "iy_E"
        }
      ],
      "start": 0.56,
      "startOffset": 0,
      "word": "MEMORY"
    },
    {
      "alignedWord": "between",
      "case": "success",
      "end": 3.12,
      "endOffset": 14,
      "phones": [
        {
          "duration": 0.08,
          "phone": "b_B"
        },
        {
          "duration": 0.07,
          "phone": "ih_I"
        },
        {
          "duration": 0.1,
          "phone": "t_I"
        },
        {
          "duration": 0.05,
          "phone": "w_I"
        },
        {
          "duration": 0.07,
          "phone": "iy_I"
        },
        {
          "duration": 0.07,
          "phone": "n_E"
        }
      ],
      "start": 2.68,
      "startOffset": 7,
      "word": "BETWEEN"
    },
    {
      "alignedWord": "rounded",
      "case": "success",
      "end": 3.5,
      "endOffset": 22,
      "phones": [
        {
          "duration": 0.06,
          "phone": "r_B"
        },
        {
          "duration": 0.09,
          "phone": "aw_I"
        },
        {
          "duration": 0.06,
          "phone": "n_I"
        },
        {
          "duration": 0.03,
          "phone": "d_I"
        },
        {
          "duration": 0.07,
          "phone": "ih_I"
        },
        {
          "duration": 0.07,
          "phone": "d_E"
        }
      ],
      "start": 3.12,
      "startOffset": 15,
      "word": "ROUNDED"
    },
    {
      "alignedWord": "hills",
      "case": "success",
      "end": 4.04,
      "endOffset": 28,
      "phones": [
        {
          "duration": 0.13,
          "phone": "hh_B"
        },
        {
          "duration": 0.12,
          "phone": "ih_I"
        },
        {
          "duration": 0.18,
          "phone": "l_I"
        },
        {
          "duration": 0.1,
          "phone": "z_E"
        }
      ],
      "start": 3.51,
      "startOffset": 23,
      "word": "HILLS"
    },
    {
      "alignedWord": "white",
      "case": "success",
      "end": 4.369999999999999,
      "endOffset": 34,
      "phones": [
        {
          "duration": 0.12,
          "phone": "w_B"
        },
        {
          "duration": 0.09,
          "phone": "ay_I"
        },
        {
          "duration": 0.1,
          "phone": "t_E"
        }
      ],
      "start": 4.06,
      "startOffset": 29,
      "word": "WHITE"
    },
    {
      "alignedWord": "with",
      "case": "success",
      "end": 4.55,
      "endOffset": 39,
      "phones": [
        {
          "duration": 0.04,
          "phone": "w_B"
        },
        {
          "duration": 0.06,
          "phone": "ih_I"
        },
        {
          "duration": 0.08,
          "phone": "th_E"
        }
      ],
      "start": 4.37,
      "startOffset": 35,
      "word": "WITH"
    },
    {
      "alignedWord": "patches",
      "case": "success",
      "end": 4.97,
      "endOffset": 47,
      "phones": [
        {
          "duration": 0.08,
          "phone": "p_B"
        },
        {
          "duration": 0.09,
          "phone": "ae_I"
        },
        {
          "duration": 0.1,
          "phone": "ch_I"
        },
        {
          "duration": 0.06,
          "phone": "ih_I"
        },
        {
          "duration": 0.09,
          "phone": "z_E"
        }
      ],
      "start": 4.55,
      "startOffset": 40,
      "word": "PATCHES"
    },
    {
      "alignedWord": "of",
      "case": "success",
      "end": 5.08,
      "endOffset": 50,
      "phones": [
        {
          "duration": 0.05,
          "phone": "ah_B"
        },
        {
          "duration": 0.06,
          "phone": "v_E"
        }
      ],
      "start": 4.97,
      "startOffset": 48,
      "word": "OF"
    },
    {
      "alignedWord": "buckwheat",
      "case": "success",
      "end": 5.62,
      "endOffset": 60,
      "phones": [
        {
          "duration": 0.05,
          "phone": "b_B"
        },
        {
          "duration": 0.12,
          "phone": "ah_I"
        },
        {
          "duration": 0.09,
          "phone": "k_I"
        },
        {
          "duration": 0.11,
          "phone": "w_I"
        },
        {
          "duration": 0.08,
          "phone": "iy_I"
        },
        {
          "duration": 0.09,
          "phone": "t_E"
        }
      ],
      "start": 5.08,
      "startOffset": 51,
      "word": "BUCKWHEAT"
    },
    {
      "alignedWord": "whose",
      "case": "success",
      "end": 6.08,
      "endOffset": 66,
      "phones": [
        {
          "duration": 0.09,
          "phone": "hh_B"
        },
        {
          "duration": 0.08,
          "phone": "uw_I"
        },
        {
          "duration": 0.1,
          "phone": "z_E"
        }
      ],
      "start": 5.81,
      "startOffset": 61,
      "word": "WHOSE"
    },
    {
      "alignedWord": "fragrance",
      "case": "success",
      "end": 6.82,
      "endOffset": 76,
      "phones": [
        {
          "duration": 0.1,
          "phone": "f_B"
        },
        {
          "duration": 0.1,
          "phone": "r_I"
        },
        {
          "duration": 0.08,
          "phone": "ey_I"
        },
        {
          "duration": 0.06,
          "phone": "g_I"
        },
        {
          "duration": 0.05,
          "phone": "r_I"
        },
        {
          "duration": 0.04,
          "phone": "ah_I"
        },
        {
          "duration": 0.08,
          "phone": "n_I"
        },
        {
          "duration": 0.23,
          "phone": "s_E"
        }
      ],
      "start": 6.08,
      "startOffset": 67,
      "word": "FRAGRANCE"
    },
    {
      "alignedWord": "fills",
      "case": "success",
      "end": 7.32,
      "endOffset": 82,
      "phones": [
        {
          "duration": 0.1,
          "phone": "f_B"
        },
        {
          "duration": 0.14,
          "phone": "ih_I"
        },
        {
          "duration": 0.17,
          "phone": "l_I"
        },
        {
          "duration": 0.08,
          "phone": "z_E"
        }
      ],
      "start": 6.83,
      "startOffset": 77,
      "word": "FILLS"
    },
    {
      "alignedWord": "the",
      "case": "success",
      "end": 7.46,
      "endOffset": 86,
      "phones": [
        {
          "duration": 0.07,
          "phone": "dh_B"
        },
        {
          "duration": 0.06,
          "phone": "ah_E"
        }
      ],
      "start": 7.33,
      "startOffset": 83,
      "word": "THE"
    },
    {
      "alignedWord": "little",
      "case": "success",
      "end": 7.71,
      "endOffset": 93,
      "phones": [
        {
          "duration": 0.07,
          "phone": "l_B"
        },
        {
          "duration": 0.06,
          "phone": "ih_I"
        },
        {
          "duration": 0.05,
          "phone": "t_I"
        },
        {
          "duration": 0.04,
          "phone": "ah_I"
        },
        {
          "duration": 0.03,
          "phone": "l_E"
        }
      ],
      "start": 7.46,
      "startOffset": 87,
      "word": "LITTLE"
    },
    {
      "alignedWord": "breeze",
      "case": "success",
      "end": 8.09,
      "endOffset": 100,
      "phones": [
        {
          "duration": 0.1,
          "phone": "b_B"
        },
        {
          "duration": 0.08,
          "phone": "r_I"
        },
        {
          "duration": 0.1,
          "phone": "iy_I"
        },
        {
          "duration": 0.1,
          "phone": "z_E"
        }
      ],
      "start": 7.71,
      "startOffset": 94,
      "word": "BREEZE"
    },
    {
      "alignedWord": "that",
      "case": "success",
      "end": 8.24,
      "endOffset": 105,
      "phones": [
        {
          "duration": 0.03,
          "phone": "dh_B"
        },
        {
          "duration": 0.06,
          "phone": "ah_I"
        },
        {
          "duration": 0.06,
          "phone": "t_E"
        }
      ],
      "start": 8.09,
      "startOffset": 101,
      "word": "THAT"
    },
    {
      "alignedWord": "makes",
      "case": "success",
      "end": 8.53,
      "endOffset": 111,
      "phones": [
        {
          "duration": 0.07,
          "phone": "m_B"
        },
        {
          "duration": 0.08,
          "phone": "ey_I"
        },
        {
          "duration": 0.07,
          "phone": "k_I"
        },
        {
          "duration": 0.07,
          "phone": "s_E"
        }
      ],
      "start": 8.24,
      "startOffset": 106,
      "word": "MAKES"
    },
    {
      "alignedWord": "the",
      "case": "success",
      "end": 8.639999999999999,
      "endOffset": 115,
      "phones": [
        {
          "duration": 0.05,
          "phone": "dh_B"
        },
        {
          "duration": 0.06,
          "phone": "ah_E"
        }
      ],
      "start": 8.53,
      "startOffset": 112,
      "word": "THE"
    },
    {
      "alignedWord": "birch",
      "case": "success",
      "end": 8.969999,
      "endOffset": 121,
      "phones": [
        {
          "duration": 0.1,
          "phone": "b_B"
        },
        {
          "duration": 0.09,
          "phone": "er_I"
        },
        {
          "duration": 0.14,
          "phone": "ch_E"
        }
      ],
      "start": 8.639999,
      "startOffset": 116,
      "word": "BIRCH"
    },
    {
      "alignedWord": "leaves",
      "case": "success",
      "end": 9.25,
      "endOffset": 128,
      "phones": [
        {
          "duration": 0.07,
          "phone": "l_B"
        },
        {
          "duration": 0.06,
          "phone": "iy_I"
        },
        {
          "duration": 0.07,
          "phone": "v_I"
        },
        {
          "duration": 0.08,
          "phone": "z_E"
        }
      ],
      "start": 8.97,
      "startOffset": 122,
      "word": "LEAVES"
    },
    {
      "alignedWord": "quiver",
      "case": "success",
      "end": 9.68,
      "endOffset": 135,
      "phones": [
        {
          "duration": 0.08,
          "phone": "k_B"
        },
        {
          "duration": 0.06,
          "phone": "w_I"
        },
        {
          "duration": 0.07,
          "phone": "ih_I"
        },
        {
          "duration": 0.08,
          "phone": "v_I"
        },
        {
          "duration": 0.14,
          "phone": "er_E"
        }
      ],
      "start": 9.25,
      "startOffset": 129,
      "word": "QUIVER"
    },
    {
      "alignedWord": "beside",
      "case": "success",
      "end": 10.629999,
      "endOffset": 142,
      "phones": [
        {
          "duration": 0.08,
          "phone": "b_B"
        },
        {
          "duration": 0.06,
          "phone": "ih_I"
        },
        {
          "duration": 0.13,
          "phone": "s_I"
        },
        {
          "duration": 0.19,
          "phone": "ay_I"
        },
        {
          "duration": 0.07,
          "phone": "d_E"
        }
      ],
      "start": 10.099999,
      "startOffset": 136,
      "word": "BESIDE"
    },
    {
      "alignedWord": "a",
      "case": "success",
      "end": 10.73,
      "endOffset": 144,
      "phones": [
        {
          "duration": 0.1,
          "phone": "ah_S"
        }
      ],
      "start": 10.63,
      "startOffset": 143,
      "word": "A"
    },
    {
      "alignedWord": "<unk>",
      "case": "success",
      "end": 11.32,
      "endOffset": 155,
      "phones": [
        {
          "duration": 0.59,
          "phone": "oov_S"
        }
      ],
      "start": 10.73,
      "startOffset": 145,
      "word": "ROLLICKING"
    },
    {
      "alignedWord": "swift",
      "case": "success",
      "end": 11.629999999999999,
      "endOffset": 161,
      "phones": [
        {
          "duration": 0.01,
          "phone": "s_B"
        },
        {
          "duration": 0.09,
          "phone": "w_I"
        },
        {
          "duration": 0.06,
          "phone": "ih_I"
        },
        {
          "duration": 0.07,
          "phone": "f_I"
        },
        {
          "duration": 0.06,
          "phone": "t_E"
        }
      ],
      "start": 11.34,
      "startOffset": 156,
      "word": "SWIFT"
    },
    {
      "alignedWord": "river",
      "case": "success",
      "end": 12.040000000000001,
      "endOffset": 167,
      "phones": [
        {
          "duration": 0.08,
          "phone": "r_B"
        },
        {
          "duration": 0.08,
          "phone": "ih_I"
        },
        {
          "duration": 0.07,
          "phone": "v_I"
        },
        {
          "duration": 0.18,
          "phone": "er_E"
        }
      ],
      "start": 11.63,
      "startOffset": 162,
      "word": "RIVER"
    }
  ]
}