{
  "transcript": "IT ADVANCES THIS IDEA WITH PERSISTENCY AND DELIVERS ITSELF OF LONG ARGUMENTS SHOWING HOW AND WHY THIS MENACE WILL NOT BE PERMITTED TO ARISE",
  "words": [
    {
      "alignedWord": "it",
      "case": "success",
      "end": 0.7100000000000001,
      "endOffset": 2,
      "phones": [
        {
          "duration": 0.11,
          "phone": "ih_B"
        },
        {
          "duration": 0.05,
          "phone": "t_E"
        }
      ],
      "start": 0.55,
      "startOffset": 0,
      "word": "IT"
    },
    {
      "alignedWord": "advances",
      "case": "success",
      "end": 1.23,
      "endOffset": 11,
      "phones": [
        {
          "duration": 0.04,
          "phone": "ah_B"
        },
        {
          "duration": 0.05,
          "phone": "d_I"
        },
        {
          "duration": 0.07,
          "phone": "v_I"
        },
        {
          "duration": 0.09,
          "phone": "ae_I"
        },
        {
          "duration": 0.07,
          "phone": "n_I"
        },
        {
          "duration": 0.06,
          "phone": "s_I"
        },
        {
          "duration": 0.06,
          "phone": "ih_I"
        },
        {
          "duration": 0.08,
          "phone": "z_E"
        }
      ],
      "start": 0.71,
      "startOffset": 3,
      "word": "ADVANCES"
    },
    {
      "alignedWord": "this",
      "case": "success",
      "end": 1.44,
      "endOffset": 16,
      "phones": [
        {
          "duration": 0.05,
          "phone": "dh_B"
        },
        {
          "duration": 0.06,
          "phone": "ih_I"
        },
        {
          "duration": 0.1,
          "phone": "s_E"
        }
      ],
      "start": 1.23,
      "startOffset": 12,
      "word": "THIS"
    },
    {
      "alignedWord": "idea",
      "case": "success",
      "end": 1.79,
      "endOffset": 21,
      "phones": [
        {
          "duration": 0.13,
          "phone": "ay_B"
        },
        {
          "duration": 0.1,
          "phone": "d_I"
        },
        {
          "duration": 0.07,
          "phone": "iy_I"
        },
        {
          "duration": 0.05,
          "phone": "ah_E"
        }
      ],
      "start": 1.44,
      "startOffset": 17,
      "word": "IDEA"
    },
    {
      "alignedWord": "with",
      "case": "success",
      "end": 1.94,
      "endOffset": 26,
      "phones": [
        {
          "duration": 0.05,
          "phone": "w_B"
        },
        {
          "duration": 0.01,
          "phone": "ih_I"
        },
        {
          "duration": 0.09,
          "phone": "th_E"
        }
      ],
      "start": 1.79,
      "startOffset": 22,
      "word": "WITH"
    },
    {
      "alignedWord": "<unk>",
      "case": "success",
      "end": 2.74,
      "endOffset": 38,
      "phones": [
        {
          "duration": 0.8,
          "phone": "oov_S"
        }
      ],
      "start": 1.94,
      "startOffset": 27,
      "word": "PERSISTENCY"
    },
    {
      "alignedWord": "and",
      "case": "success",
      "end": 3.06,
      "endOffset": 42,
      "phones": [
        {
          "duration": 0.05,
          "phone": "ae_B"
        },
        {
          "duration": 0.03,
          "phone": "n_I"
        },
        {
          "duration": 0.05,
          "phone": "d_E"
        }
      ],
      "start": 2.93,
      "startOffset": 39,
      "word": "AND"
    },
    {
      "alignedWord": "delivers",
      "case": "success",
      "end": 3.36,
      "endOffset": 51,
      "phones": [
        {
          "duration": 0.01,
          "phone": "d_B"
        },
        {
          "duration": 0.04,
          "phone": "ih_I"
        },
        {
          "duration": 0.06,
          "phone": "l_I"
        },
        {
          "duration": 0.04,
          "phone": "ih_I"
        },
        {
          "duration": 0.05,
          "phone": "v_I"
        },
        {
          "duration": 0.06,
          "phone": "er_I"
        },
        {
          "duration": 0.04,
          "phone": "z_E"
        }
      ],
      "start": 3.06,
      "startOffset": 43,
      "word": "DELIVERS"
    },
    {
      "alignedWord": "itself",
      "case": "success",
      "end": 3.83,
      "endOffset": 58,
      "phones": [
        {
          "duration": 0.07,
          "phone": "ih_B"
        },
        {
          "duration": 0.06,
          "phone": "t_I"
        },
        {
          "duration": 0.09,
          "phone": "s_I"
        },
        {
          "duration": 0.09,
          "phone": "eh_I"
        },
        {
          "duration": 0.1,
          "phone": "l_I"
        },
        {
          "duration": 0.06,
          "phone": "f_E"
        }
      ],
      "start": 3.36,
      "startOffset": 52,
      "word": "ITSELF"
    },
    {
      "alignedWord": "of",
      "case": "success",
      "end": 3.98,
      "endOffset": 61,
      "phones": [
        {
          "duration": 0.06,
          "phone": "ah_B"
        },
        {
          "duration": 0.09,
          "phone": "v_E"
        }
      ],
      "start": 3.83,
      "startOffset": 59,
      "word": "OF"
    },
    {
      "alignedWord": "long",
      "case": "success",
      "end": 4.28,
      "endOffset": 66,
      "phones": [
        {
          "duration": 0.07,
          "phone": "l_B"
        },
        {
          "duration": 0.12,
          "phone": "ao_I"
        },
        {
          "duration": 0.11,
          "phone": "ng_E"
        }
      ],
      "start": 3.98,
      "startOffset": 62,
      "word": "LONG"
    },
    {
      "alignedWord": "arguments",
      "case": "success",
      "end": 4.789999999999999,
      "endOffset": 76,
      "phones": [
        {
          "duration": 0.08,
          "phone": "aa_B"
        },
        {
          "duration": 0.04,
          "phone": "r_I"
        },
        {
          "duration": 0.05,
          "phone": "g_I"
        },
        {
          "duration": 0.01,
          "phone": "y_I"
        },
        {
          "duration": 0.06,
          "phone": "ah_I"
        },
        {
          "duration": 0.04,
          "phone": "m_I"
        },
        {
          "duration": 0.04,
          "phone": "ah_I"
        },
        {
          "duration": 0.05,
          "phone": "n_I"
        },
        {
          "duration": 0.04,
          "phone": "t_I"
        },
        {
          "duration": 0.07,
          "phone": "s_E"
        }
      ],
      "start": 4.31,
      "startOffset": 67,
      "word": "ARGUMENTS"
    },
    {
      "alignedWord": "showing",
      "case": "success",
      "end": 5.18,
      "endOffset": 84,
      "phones": [
        {
          "duration": 0.16,
          "phone": "sh_B"
        },
        {
          "duration": 0.07,
          "phone": "ow_I"
        },
        {
          "duration": 0.06,
          "phone": "ih_I"
        },
        {
          "duration": 0.09,
          "phone": "ng_E"
        }
      ],
      "start": 4.8,
      "startOffset": 77,
      "word": "SHOWING"
    },
    {
      "alignedWord": "how",
      "case": "success",
      "end": 5.43,
      "endOffset": 88,
      "phones": [
        {
          "duration": 0.08,
          "phone": "hh_B"
        },
        {
          "duration": 0.17,
          "phone": "aw_E"
        }
      ],
      "start": 5.18,
      "startOffset": 85,
      "word": "HOW"
    },
    {
      "alignedWord": "and",
      "case": "success",
      "end": 5.6,
      "endOffset": 92,
      "phones": [
        {
          "duration": 0.08,
          "phone": "ah_B"
        },
        {
          "duration": 0.03,
          "phone": "n_I"
        },
        {
          "duration": 0.06,
          "phone": "d_E"
        }
      ],
      "start": 5.43,
      "startOffset": 89,
      "word": "AND"
    },
    {
      "alignedWord": "why",
      "case": "success",
      "end": 5.970000000000001,
      "endOffset": 96,
      "phones": [
        {
          "duration": 0.13,
          "phone": "w_B"
        },
        {
          "duration": 0.23,
          "phone": "ay_E"
        }
      ],
      "start": 5.61,
      "startOffset": 93,
      "word": "WHY"
    },
    {
      "alignedWord": "this",
      "case": "success",
      "end": 6.170000000000001,
      "endOffset": 101,
      "phones": [
        {
          "duration": 0.06,
          "phone": "dh_B"
        },
        {
          "duration": 0.06,
          "phone": "ih_I"
        },
        {
          "duration": 0.07,
          "phone": "s_E"
        }
      ],
      "start": 5.98,
      "startOffset": 97,
      "word": "THIS"
    },
    {
      "alignedWord": "menace",
      "case": "success",
      "end": 6.49,
      "endOffset": 108,
      "phones": [
        {
          "duration": 0.07,
          "phone": "m_B"
        },
        {
          "duration": 0.05,
          "phone": "eh_I"
        },
        {
          "duration": 0.05,
          "phone": "n_I"
        },
        {
          "duration": 0.06,
          "phone": "ih_I"
        },
        {
          "duration": 0.09,
          "phone": "s_E"
        }
      ],
      "start": 6.17,
      "startOffset": 102,
      "word": "MENACE"
    },
    {
      "alignedWord": "will",
      "case": "success",
      "end": 6.6000000000000005,
      "endOffset": 113,
      "phones": [
        {
          "duration": 0.04,
          "phone": "w_B"
        },
        {
          "duration": 0.02,
          "phone": "ih_I"
        },
        {
          "duration": 0.05,
          "phone": "l_E"
        }
      ],
      "start": 6.49,
      "startOffset": 109,
      "word": "WILL"
    },
    {
      "alignedWord": "not",
      "case": "success",
      "end": 6.819999999999999,
      "endOffset": 117,
      "phones": [
        {
          "duration": 0.06,
          "phone": "n_B"
        },
        {
          "duration": 0.09,
          "phone": "aa_I"
        },
        {
          "duration": 0.07,
          "phone": "t_E"
        }
      ],
      "start": 6.6,
      "startOffset": 114,
      "word": "NOT"
    },
    {
      "alignedWord": "be",
      "case": "success",
      "end": 6.92,
      "endOffset": 120,
      "phones": [
        {
          "duration": 0.05,
          "phone": "b_B"
        },
        {
          "duration": 0.05,
          "phone": "iy_E"
        }
      ],
      "start": 6.82,
      "startOffset": 118,
      "word": "BE"
    },
    {
      "alignedWord": "permitted",
      "case": "success",
      "end": 7.32,
      "endOffset": 130,
      "phones": [
        {
          "duration": 0.09,
          "phone": "p_B"
        },
        {
          "duration": 0.05,
          "phone": "er_I"
        },
        {
          "duration": 0.06,
          "phone": "m_I"
        },
        {
          "duration": 0.05,
          "phone": "ih_I"
        },
        {
          "duration": 0.03,
          "phone": "t_I"
        },
        {
          "duration": 0.06,
          "phone": "ah_I"
        },
        {
          "duration": 0.06,
          "phone": "d_E"
        }
      ],
      "start": 6.92,
      "startOffset": 121,
      "word": "PERMITTED"
    },
    {
      "alignedWord": "to",
      "case": "success",
      "end": 7.470000000000001,
      "endOffset": 133,
      "phones": [
        {
          "duration": 0.05,
          "phone": "t_B"
        },
        {
          "duration": 0.1,
          "phone": "uw_E"
        }
      ],
      "start": 7.32,
      "startOffset": 131,
      "word": "TO"
    },
    {
      "alignedWord": "arise",
      "case": "success",
      "end": 8.14,
      "endOffset": 139,
      "phones": [
        {
          "duration": 0.18,
          "phone": "er_B"
        },
        {
          "duration": 0.26,
          "phone": "ay_I"
        },
        {
          "duration": 0.23,
          "phone": "z_E"
        }
      ],
      "start": 7.47,
      "startOffset": 134,
      "word": "ARISE"
    }
  ]
}