{
  "transcript": "AFTER HER CURT NOD FROM A DISTANCE HAD ENGAGED HIM HE HAD RESPONDED TO THE BLANDISHMENTS OF A FUSSY LITTLE WOMAN WITH MANY MORE BAGS AND RUGS AND A PARROT CAGE WHO WAS NOW DOLING FRENCH COPPERS OUT OF THE WINDOW OF THE NEXT COMPARTMENT",
  "words": [
    {
      "alignedWord": "after",
      "case": "success",
      "end": 0.49,
      "endOffset": 5,
      "phones": [
        {
          "duration": 0.12,
          "phone": "ae_B"
        },
        {
          "duration": 0.07,
          "phone": "f_I"
        },
        {
          "duration": 0.07,
          "phone": "t_I"
        },
        {
          "duration": 0.07,
          "phone": "er_E"
        }
      ],
      "start": 0.16,
      "startOffset": 0,
      "word": "AFTER"
    },
    {
      "alignedWord": "her",
      "case": "success",
      "end": 0.67,
      "endOffset": 9,
      "phones": [
        {
          "duration": 0.1,
          "phone": "hh_B"
        },
        {
          "duration": 0.07,
          "phone": "er_E"
        }
      ],
      "start": 0.5,
      "startOffset": 6,
      "word": "HER"
    },
    {
      "alignedWord": "curt",
      "case": "success",
      "end": 0.96,
      "endOffset": 14,
      "phones": [
        {
          "duration": 0.16,
          "phone": "k_B"
        },
        {
          "duration": 0.09,
          "phone": "er_I"
        },
        {
          "duration": 0.04,
          "phone": "t_E"
        }
      ],
      "start": 0.67,
      "startOffset": 10,
      "word": "CURT"
    },
    {
      "alignedWord": "nod",
      "case": "success",
      "end": 1.3599999999999999,
      "endOffset": 18,
      "phones": [
        {
          "duration": 0.13,
          "phone": "n_B"
        },
        {
          "duration": 0.14,
          "phone": "aa_I"
        },
        {
          "duration": 0.09,
          "phone": "d_E"
        }
      ],
      "start": 1.0,
      "startOffset": 15,
      "word": "NOD"
    },
    {
      "alignedWord": "from",
      "case": "success",
      "end": 1.55,
      "endOffset": 23,
      "phones": [
        {
          "duration": 0.06,
          "phone": "f_B"
        },
        {
          "duration": 0.06,
          "phone": "er_I"
        },
        {
          "duration": 0.07,
          "phone": "m_E"
        }
      ],
      "start": 1.36,
      "startOffset": 19,
      "word": "FROM"
    },
    {
      "alignedWord": "a",
      "case": "success",
      "end": 1.61,
      "endOffset": 25,
      "phones": [
        {
          "duration": 0.06,
          "phone": "ah_S"
        }
      ],
      "start": 1.55,
      "startOffset": 24,
      "word": "A"
    },
    {
      "alignedWord": "distance",
      "case": "success",
      "end": 2.1100000000000003,
      "endOffset": 34,
      "phones": [
        {
          "duration": 0.09,
          "phone": "d_B"
        },
        {
          "duration": 0.08,
          "phone": "ih_I"
        },
        {
          "duration": 0.08,
          "phone": "s_I"
        },
        {
          "duration": 0.06,
          "phone": "t_I"
        },
        {
          "duration": 0.06,
          "phone": "ah_I"
        },
        {
          "duration": 0.07,
          "phone": "n_I"
        },
        {
          "duration": 0.06,
          "phone": "s_E"
        }
      ],
      "start": 1.61,
      "startOffset": 26,
      "word": "DISTANCE"
    },
    {
      "alignedWord": "had",
      "case": "success",
      "end": 2.27,
      "endOffset": 38,
      "phones": [
        {
          "duration": 0.06,
          "phone": "hh_B"
        },
        {
          "duration": 0.06,
          "phone": "ae_I"
        },
        {
          "duration": 0.04,
          "phone": "d_E"
        }
      ],
      "start": 2.11,
      "startOffset": 35,
      "word": "HAD"
    },
    {
      "alignedWord": "engaged",
      "case": "success",
      "end": 2.81,
      "endOffset": 46,
      "phones": [
        {
          "duration": 0.06,
          "phone": "eh_B"
        },
        {
          "duration": 0.08,
          "phone": "n_I"
        },
        {
          "duration": 0.08,
          "phone": "g_I"
        },
        {
          "duration": 0.11,
          "phone": "ey_I"
        },
        {
          "duration": 0.13,
          "phone": "jh_I"
        },
        {
          "duration": 0.08,
          "phone": "d_E"
        }
      ],
      "start": 2.27,
      "startOffset": 39,
      "word": "ENGAGED"
    },
    {
      "alignedWord": "him",
      "case": "success",
      "end": 3.15,
      "endOffset": 50,
      "phones": [
        {
          "duration": 0.05,
          "phone": "hh_B"
        },
        {
          "duration": 0.09,
          "phone": "ih_I"
        },
        {
          "duration": 0.2,
          "phone": "m_E"
        }
      ],
      "start": 2.81,
      "startOffset": 47,
      "word": "HIM"
    },
    {
      "alignedWord": "he",
      "case": "success",
      "end": 3.6999999999999997,
      "endOffset": 53,
      "phones": [
        {
          "duration": 0.23,
          "phone": "hh_B"
        },
        {
          "duration": 0.11,
          "phone": "iy_E"
        }
      ],
      "start": 3.36,
      "startOffset": 51,
      "word": "HE"
    },
    {
      "alignedWord": "had",
      "case": "success",
      "end": 3.91,
      "endOffset": 57,
      "phones": [
        {
          "duration": 0.06,
          "phone": "hh_B"
        },
        {
          "duration": 0.07,
          "phone": "ae_I"
        },
        {
          "duration": 0.08,
          "phone": "d_E"
        }
      ],
      "start": 3.7,
      "startOffset": 54,
      "word": "HAD"
    },
    {
      "alignedWord": "responded",
      "case": "success",
      "end": 4.55,
      "endOffset": 67,
      "phones": [
        {
          "duration": 0.03,
          "phone": "r_B"
        },
        {
          "duration": 0.07,
          "phone": "iy_I"
        },
        {
          "duration": 0.07,
          "phone": "s_I"
        },
        {
          "duration": 0.11,
          "phone": "p_I"
        },
        {
          "duration": 0.11,
          "phone": "aa_I"
        },
        {
          "duration": 0.07,
          "phone": "n_I"
        },
        {
          "duration": 0.03,
          "phone": "d_I"
        },
        {
          "duration": 0.07,
          "phone": "ih_I"
        },
        {
          "duration": 0.08,
          "phone": "d_E"
        }
      ],
      "start": 3.91,
      "startOffset": 58,
      "word": "RESPONDED"
    },
    {
      "alignedWord": "to",
      "case": "success",
      "end": 4.66,
      "endOffset": 70,
      "phones": [
        {
          "duration": 0.05,
          "phone": "t_B"
        },
        {
          "duration": 0.06,
          "phone": "uw_E"
        }
      ],
      "start": 4.55,
      "startOffset": 68,
      "word": "TO"
    },
    {
      "alignedWord": "the",
      "case": "success",
      "end": 4.8,
      "endOffset": 74,
      "phones": [
        {
          "duration": 0.07,
          "phone": "dh_B"
        },
        {
          "duration": 0.07,
          "phone": "ah_E"
        }
      ],
      "start": 4.66,
      "startOffset": 71,
      "word": "THE"
    },
    {
      "alignedWord": "<unk>",
      "case": "success",
      "end": 5.55,
      "endOffset": 88,
      "phones": [
        {
          "duration": 0.75,
          "phone": "oov_S"
        }
      ],
      "start": 4.8,
      "startOffset": 75,
      "word": "BLANDISHMENTS"
    },
    {
      "alignedWord": "of",
      "case": "success",
      "end": 5.75,
      "endOffset": 91,
      "phones": [
        {
          "duration": 0.1,
          "phone": "ah_B"
        },
        {
          "duration": 0.08,
          "phone": "v_E"
        }
      ],
      "start": 5.57,
      "startOffset": 89,
      "word": "OF"
    },
    {
      "alignedWord": "a",
      "case": "success",
      "end": 5.83,
      "endOffset": 93,
      "phones": [
        {
          "duration": 0.08,
          "phone": "ah_S"
        }
      ],
      "start": 5.75,
      "startOffset": 92,
      "word": "A"
    },
    {
      "alignedWord": "fussy",
      "case": "success",
      "end": 6.3100000000000005,
      "endOffset": 99,
      "phones": [
        {
          "duration": 0.17,
          "phone": "f_B"
        },
        {
          "duration": 0.09,
          "phone": "ah_I"
        },
        {
          "duration": 0.1,
          "phone": "s_I"
        },
        {
          "duration": 0.12,
          "phone": "iy_E"
        }
      ],
      "start": 5.83,
      "startOffset": 94,
      "word": "FUSSY"
    },
    {
      "alignedWord": "little",
      "case": "success",
      "end": 6.609999999999999,
      "endOffset": 106,
      "phones": [
        {
          "duration": 0.05,
          "phone": "l_B"
        },
        {
          "duration": 0.04,
          "phone": "ih_I"
        },
        {
          "duration": 0.04,
          "phone": "t_I"
        },
        {
          "duration": 0.05,
          "phone": "ah_I"
        },
        {
          "duration": 0.09,
          "phone": "l_E"
        }
      ],
      "start": 6.34,
      "startOffset": 100,
      "word": "LITTLE"
    },
    {
      "alignedWord": "woman",
      "case": "success",
      "end": 7.12,
      "endOffset": 112,
      "phones": [
        {
          "duration": 0.06,
          "phone": "w_B"
        },
        {
          "duration": 0.06,
          "phone": "uh_I"
        },
        {
          "duration": 0.06,
          "phone": "m_I"
        },
        {
          "duration": 0.12,
          "phone": "ah_I"
        },
        {
          "duration": 0.16,
          "phone": "n_E"
        }
      ],
      "start": 6.66,
      "startOffset": 107,
      "word": "WOMAN"
    },
    {
      "alignedWord": "with",
      "case": "success",
      "end": 7.63,
      "endOffset": 117,
      "phones": [
        {
          "duration": 0.09,
          "phone": "w_B"
        },
        {
          "duration": 0.06,
          "phone": "ih_I"
        },
        {
          "duration": 0.09,
          "phone": "th_E"
        }
      ],
      "start": 7.39,
      "startOffset": 113,
      "word": "WITH"
    },
    {
      "alignedWord": "many",
      "case": "success",
      "end": 7.96,
      "endOffset": 122,
      "phones": [
        {
          "duration": 0.08,
          "phone": "m_B"
        },
        {
          "duration": 0.09,
          "phone": "eh_I"
        },
        {
          "duration": 0.06,
          "phone": "n_I"
        },
        {
          "duration": 0.1,
          "phone": "iy_E"
        }
      ],
      "start": 7.63,
      "startOffset": 118,
      "word": "MANY"
    },
    {
      "alignedWord": "more",
      "case": "success",
      "end": 8.19,
      "endOffset": 127,
      "phones": [
        {
          "duration": 0.06,
          "phone": "m_B"
        },
        {
          "duration": 0.08,
          "phone": "ao_I"
        },
        {
          "duration": 0.09,
          "phone": "r_E"
        }
      ],
      "start": 7.96,
      "startOffset": 123,
      "word": "MORE"
    },
    {
      "alignedWord": "bags",
      "case": "success",
      "end": 8.58,
      "endOffset": 132,
      "phones": [
        {
          "duration": 0.08,
          "phone": "b_B"
        },
        {
          "duration": 0.16,
          "phone": "ae_I"
        },
        {
          "duration": 0.09,
          "phone": "g_I"
        },
        {
          "duration": 0.05,
          "phone": "z_E"
        }
      ],
      "start": 8.2,
      "startOffset": 128,
      "word": "BAGS"
    },
    {
      "alignedWord": "and",
      "case": "success",
      "end": 8.78,
      "endOffset": 136,
      "phones": [
        {
          "duration": 0.07,
          "phone": "ah_B"
        },
        {
          "duration": 0.01,
          "phone": "n_I"
        },
        {
          "duration": 0.12,
          "phone": "d_E"
        }
      ],
      "start": 8.58,
      "startOffset": 133,
      "word": "AND"
    },
    {
      "alignedWord": "rugs",
      "case": "success",
      "end": 9.219999999999999,
      "endOffset": 141,
      "phones": [
        {
          "duration": 0.11,
          "phone": "r_B"
        },
        {
          "duration": 0.09,
          "phone": "ah_I"
        },
        {
          "duration": 0.12,
          "phone": "g_I"
        },
        {
          "duration": 0.12,
          "phone": "z_E"
        }
      ],
      "start": 8.78,
      "startOffset": 137,
      "word": "RUGS"
    },
    {
      "alignedWord": "and",
      "case": "success",
      "end": 9.41,
      "endOffset": 145,
      "phones": [
        {
          "duration": 0.08,
          "phone": "ae_B"
        },
        {
          "duration": 0.04,
          "phone": "n_I"
        },
        {
          "duration": 0.05,
          "phone": "d_E"
        }
      ],
      "start": 9.24,
      "startOffset": 142,
      "word": "AND"
    },
    {
      "alignedWord": "a",
      "case": "success",
      "end": 9.48,
      "endOffset": 147,
      "phones": [
        {
          "duration": 0.07,
          "phone": "ah_S"
        }
      ],
      "start": 9.41,
      "startOffset": 146,
      "word": "A"
    },
    {
      "alignedWord": "parrot",
      "case": "success",
      "end": 9.940000000000001,
      "endOffset": 154,
      "phones": [
        {
          "duration": 0.13,
          "phone": "p_B"
        },
        {
          "duration": 0.1,
          "phone": "eh_I"
        },
        {
          "duration": 0.07,
          "phone": "r_I"
        },
        {
          "duration": 0.08,
          "phone": "ah_I"
        },
        {
          "duration": 0.08,
          "phone": "t_E"
        }
      ],
      "start": 9.48,
      "startOffset": 148,
      "word": "PARROT"
    },
    {
      "alignedWord": "cage",
      "case": "success",
      "end": 10.43,
      "endOffset": 159,
      "phones": [
        {
          "duration": 0.12,
          "phone": "k_B"
        },
        {
          "duration": 0.18,
          "phone": "ey_I"
        },
        {
          "duration": 0.19,
          "phone": "jh_E"
        }
      ],
      "start": 9.94,
      "startOffset": 155,
      "word": "CAGE"
    },
    {
      "alignedWord": "who",
      "case": "success",
      "end": 10.81,
      "endOffset": 163,
      "phones": [
        {
          "duration": 0.09,
          "phone": "hh_B"
        },
        {
          "duration": 0.06,
          "phone": "uw_E"
        }
      ],
      "start": 10.66,
      "startOffset": 160,
      "word": "WHO"
    },
    {
      "alignedWord": "was",
      "case": "success",
      "end": 10.979999,
      "endOffset": 167,
      "phones": [
        {
          "duration": 0.04,
          "phone": "w_B"
        },
        {
          "duration": 0.05,
          "phone": "ah_I"
        },
        {
          "duration": 0.08,
          "phone": "z_E"
        }
      ],
      "start": 10.809999,
      "startOffset": 164,
      "word": "WAS"
    },
    {
      "alignedWord": "now",
      "case": "success",
      "end": 11.23,
      "endOffset": 171,
      "phones": [
        {
          "duration": 0.08,
          "phone": "n_B"
        },
        {
          "duration": 0.17,
          "phone": "aw_E"
        }
      ],
      "start": 10.98,
      "startOffset": 168,
      "word": "NOW"
    },
    {
      "alignedWord": "doling",
      "case": "success",
      "end": 11.68,
      "endOffset": 178,
      "phones": [
        {
          "duration": 0.12,
          "phone": "d_B"
        },
        {
          "duration": 0.07,
          "phone": "ow_I"
        },
        {
          "duration": 0.09,
          "phone": "l_I"
        },
        {
          "duration": 0.08,
          "phone": "ih_I"
        },
        {
          "duration": 0.09,
          "phone": "ng_E"
        }
      ],
      "start": 11.23,
      "startOffset": 172,
      "word": "DOLING"
    },
    {
      "alignedWord": "french",
      "case": "success",
      "end": 12.049999,
      "endOffset": 185,
      "phones": [
        {
          "duration": 0.09,
          "phone": "f_B"
        },
        {
          "duration": 0.06,
          "phone": "r_I"
        },
        {
          "duration": 0.05,
          "phone": "eh_I"
        },
        {
          "duration": 0.05,
          "phone": "n_I"
        },
        {
          "duration": 0.12,
          "phone": "ch_E"
        }
      ],
      "start": 11.679999,
      "startOffset": 179,
      "word": "FRENCH"
    },
    {
      "alignedWord": "coppers",
      "case": "success",
      "end": 12.61,
      "endOffset": 193,
      "phones": [
        {
          "duration": 0.1,
          "phone": "k_B"
        },
        {
          "duration": 0.1,
          "phone": "aa_I"
        },
        {
          "duration": 0.12,
          "phone": "p_I"
        },
        {
          "duration": 0.12,
          "phone": "er_I"
        },
        {
          "duration": 0.1,
          "phone": "z_E"
        }
      ],
      "start": 12.07,
      "startOffset": 186,
      "word": "COPPERS"
    },
    {
      "alignedWord": "out",
      "case": "success",
      "end": 12.859999,
      "endOffset": 197,
      "phones": [
        {
          "duration": 0.14,
          "phone": "aw_B"
        },
        {
          "duration": 0.04,
          "phone": "t_E"
        }
      ],
      "start": 12.679999,
      "startOffset": 194,
      "word": "OUT"
    },
    {
      "alignedWord": "of",
      "case": "success",
      "end": 13.0,
      "endOffset": 200,
      "phones": [
        {
          "duration": 0.05,
          "phone": "ah_B"
        },
        {
          "duration": 0.09,
          "phone": "v_E"
        }
      ],
      "start": 12.86,
      "startOffset": 198,
      "word": "OF"
    },
    {
      "alignedWord": "the",
      "case": "success",
      "end": 13.1,
      "endOffset": 204,
      "phones": [
        {
          "duration": 0.02,
          "phone": "dh_B"
        },
        {
          "duration": 0.08,
          "phone": "ah_E"
        }
      ],
      "start": 13.0,
      "startOffset": 201,
      "word": "THE"
    },
    {
      "alignedWord": "window",
      "case": "success",
      "end": 13.529999,
      "endOffset": 211,
      "phones": [
        {
          "duration": 0.06,
          "phone": "w_B"
        },
        {
          "duration": 0.08,
          "phone": "ih_I"
        },
        {
          "duration": 0.03,
          "phone": "n_I"
        },
        {
          "duration": 0.09,
          "phone": "d_I"
        },
        {
          "duration": 0.17,
          "phone": "ow_E"
        }
      ],
      "start": 13.099999,
      "startOffset": 205,
      "word": "WINDOW"
    },
    {
      "alignedWord": "of",
      "case": "success",
      "end": 13.699999,
      "endOffset": 214,
      "phones": [
        {
          "duration": 0.08,
          "phone": "ah_B"
        },
        {
          "duration": 0.07,
          "phone": "v_E"
        }
      ],
      "start": 13.549999,
      "startOffset": 212,
      "word": "OF"
    },
    {
      "alignedWord": "the",
      "case": "success",
      "end": 13.78,
      "endOffset": 218,
      "phones": [
        {
          "duration": 0.01,
          "phone": "dh_B"
        },
        {
          "duration": 0.07,
          "phone": "ah_E"
        }
      ],
      "start": 13.7,
      "startOffset": 215,
      "word": "THE"
    },
    {
      "alignedWord": "next",
      "case": "success",
      "end": 14.059999999999999,
      "endOffset": 223,
      "phones": [
        {
          "duration": 0.07,
          "phone": "n_B"
        },
        {
          "duration": 0.06,
          "phone": "eh_I"
        },
        {
          "duration": 0.08,
          "phone": "k_I"
        },
        {
          "duration": 0.07,
          "phone": "s_E"
        }
      ],
      "start": 13.78,
      "startOffset": 219,
      "word": "NEXT"
    },
    {
      "alignedWord": "compartment",
      "case": "success",
      "end": 14.85,
      "endOffset": 235,
      "phones": [
        {
          "duration": 0.08,
          "phone": "k_B"
        },
        {
          "duration": 0.05,
          "phone": "ah_I"
        },
        {
          "duration": 0.04,
          "phone": "m_I"
        },
        {
          "duration": 0.07,
          "phone": "p_I"
        },
        {
          "duration": 0.06,
          "phone": "aa_I"
        },
        {
          "duration": 0.08,
          "phone": "r_I"
        },
        {
          "duration": 0.06,
          "phone": "t_I"
        },
        {
          "duration": 0.07,
          "phone": "m_I"
        },
        {
          "duration": 0.06,
          "phone": "ah_I"
        },
        {
          "duration": 0.07,
          "phone": "n_I"
        },
        {
          "duration": 0.14,
          "phone": "t_E"
        }
      ],
      "start": 14.07,
      "startOffset": 224,
      "word": "COMPARTMENT"
    }
  ]
}