{
  "transcript": "AND HASTILY SCANNED ITS PAGES AS SHE WALKED ALONG THE PLATFORM IN THE WAKE OF THE CAPABLE PORTER WHO HAD TAKEN POSSESSION OF HER RUGS AND HAND BAGGAGE IN THE PERSONAL COLUMN SHE FOUND THE VERY PARAGRAPH SHE SOUGHT",
  "words": [
    {
      "alignedWord": "and",
      "case": "success",
      "end": 0.32,
      "endOffset": 3,
      "phones": [
        {
          "duration": 0.06,
          "phone": "ae_B"
        },
        {
          "duration": 0.05,
          "phone": "n_I"
        },
        {
          "duration": 0.05,
          "phone": "d_E"
        }
      ],
      "start": 0.16,
      "startOffset": 0,
      "word": "AND"
    },
    {
      "alignedWord": "hastily",
      "case": "success",
      "end": 0.9299999999999999,
      "endOffset": 11,
      "phones": [
        {
          "duration": 0.07,
          "phone": "hh_B"
        },
        {
          "duration": 0.1,
          "phone": "ey_I"
        },
        {
          "duration": 0.11,
          "phone": "s_I"
        },
        {
          "duration": 0.08,
          "phone": "t_I"
        },
        {
          "duration": 0.07,
          "phone": "ah_I"
        },
        {
          "duration": 0.07,
          "phone": "l_I"
        },
        {
          "duration": 0.11,
          "phone": "iy_E"
        }
      ],
      "start": 0.32,
      "startOffset": 4,
      "word": "HASTILY"
    },
    {
      "alignedWord": "scanned",
      "case": "success",
      "end": 1.35,
      "endOffset": 19,
      "phones": [
        {
          "duration": 0.11,
          "phone": "s_B"
        },
        {
          "duration": 0.1,
          "phone": "k_I"
        },
        {
          "duration": 0.1,
          "phone": "ae_I"
        },
        {
          "duration": 0.06,
          "phone": "n_I"
        },
        {
          "duration": 0.05,
          "phone": "d_E"
        }
      ],
      "start": 0.93,
      "startOffset": 12,
      "word": "SCANNED"
    },
    {
      "alignedWord": "its",
      "case": "success",
      "end": 1.54,
      "endOffset": 23,
      "phones": [
        {
          "duration": 0.05,
          "phone": "ih_B"
        },
        {
          "duration": 0.07,
          "phone": "t_I"
        },
        {
          "duration": 0.07,
          "phone": "s_E"
        }
      ],
      "start": 1.35,
      "startOffset": 20,
      "word": "ITS"
    },
    {
      "alignedWord": "pages",
      "case": "success",
      "end": 2.04,
      "endOffset": 29,
      "phones": [
        {
          "duration": 0.12,
          "phone": "p_B"
        },
        {
          "duration": 0.14,
          "phone": "ey_I"
        },
        {
          "duration": 0.07,
          "phone": "jh_I"
        },
        {
          "duration": 0.08,
          "phone": "ih_I"
        },
        {
          "duration": 0.09,
          "phone": "z_E"
        }
      ],
      "start": 1.54,
      "startOffset": 24,
      "word": "PAGES"
    },
    {
      "alignedWord": "as",
      "case": "success",
      "end": 2.22,
      "endOffset": 32,
      "phones": [
        {
          "duration": 0.13,
          "phone": "ae_B"
        },
        {
          "duration": 0.03,
          "phone": "z_E"
        }
      ],
      "start": 2.06,
      "startOffset": 30,
      "word": "AS"
    },
    {
      "alignedWord": "she",
      "case": "success",
      "end": 2.3800000000000003,
      "endOffset": 36,
      "phones": [
        {
          "duration": 0.08,
          "phone": "sh_B"
        },
        {
          "duration": 0.08,
          "phone": "iy_E"
        }
      ],
      "start": 2.22,
      "startOffset": 33,
      "word": "SHE"
    },
    {
      "alignedWord": "walked",
      "case": "success",
      "end": 2.73,
      "endOffset": 43,
      "phones": [
        {
          "duration": 0.1,
          "phone": "w_B"
        },
        {
          "duration": 0.12,
          "phone": "ao_I"
        },
        {
          "duration": 0.08,
          "phone": "k_I"
        },
        {
          "duration": 0.05,
          "phone": "t_E"
        }
      ],
      "start": 2.38,
      "startOffset": 37,
      "word": "WALKED"
    },
    {
      "alignedWord": "along",
      "case": "success",
      "end": 3.06,
      "endOffset": 49,
      "phones": [
        {
          "duration": 0.06,
          "phone": "ah_B"
        },
        {
          "duration": 0.08,
          "phone": "l_I"
        },
        {
          "duration": 0.11,
          "phone": "ao_I"
        },
        {
          "duration": 0.08,
          "phone": "ng_E"
        }
      ],
      "start": 2.73,
      "startOffset": 44,
      "word": "ALONG"
    },
    {
      "alignedWord": "the",
      "case": "success",
      "end": 3.17,
      "endOffset": 53,
      "phones": [
        {
          "duration": 0.06,
          "phone": "dh_B"
        },
        {
          "duration": 0.05,
          "phone": "ah_E"
        }
      ],
      "start": 3.06,
      "startOffset": 50,
      "word": "THE"
    },
    {
      "alignedWord": "platform",
      "case": "success",
      "end": 3.84,
      "endOffset": 62,
      "phones": [
        {
          "duration": 0.09,
          "phone": "p_B"
        },
        {
          "duration": 0.07,
          "phone": "l_I"
        },
        {
          "duration": 0.08,
          "phone": "ae_I"
        },
        {
          "duration": 0.09,
          "phone": "t_I"
        },
        {
          "duration": 0.08,
          "phone": "f_I"
        },
        {
          "duration": 0.09,
          "phone": "ao_I"
        },
        {
          "duration": 0.07,
          "phone": "r_I"
        },
        {
          "duration": 0.1,
          "phone": "m_E"
        }
      ],
      "start": 3.17,
      "startOffset": 54,
      "word": "PLATFORM"
    },
    {
      "alignedWord": "in",
      "case": "success",
      "end": 4.0,
      "endOffset": 65,
      "phones": [
        {
          "duration": 0.08,
          "phone": "ih_B"
        },
        {
          "duration": 0.07,
          "phone": "n_E"
        }
      ],
      "start": 3.85,
      "startOffset": 63,
      "word": "IN"
    },
    {
      "alignedWord": "the",
      "case": "success",
      "end": 4.11,
      "endOffset": 69,
      "phones": [
        {
          "duration": 0.04,
          "phone": "dh_B"
        },
        {
          "duration": 0.07,
          "phone": "ah_E"
        }
      ],
      "start": 4.0,
      "startOffset": 66,
      "word": "THE"
    },
    {
      "alignedWord": "wake",
      "case": "success",
      "end": 4.44,
      "endOffset": 74,
      "phones": [
        {
          "duration": 0.13,
          "phone": "w_B"
        },
        {
          "duration": 0.11,
          "phone": "ey_I"
        },
        {
          "duration": 0.09,
          "phone": "k_E"
        }
      ],
      "start": 4.11,
      "startOffset": 70,
      "word": "WAKE"
    },
    {
      "alignedWord": "of",
      "case": "success",
      "end": 4.63,
      "endOffset": 77,
      "phones": [
        {
          "duration": 0.08,
          "phone": "ah_B"
        },
        {
          "duration": 0.09,
          "phone": "v_E"
        }
      ],
      "start": 4.46,
      "startOffset": 75,
      "word": "OF"
    },
    {
      "alignedWord": "the",
      "case": "success",
      "end": 4.72,
      "endOffset": 81,
      "phones": [
        {
          "duration": 0.01,
          "phone": "dh_B"
        },
        {
          "duration": 0.08,
          "phone": "iy_E"
        }
      ],
      "start": 4.63,
      "startOffset": 78,
      "word": "THE"
    },
    {
      "alignedWord": "capable",
      "case": "success",
      "end": 5.25,
      "endOffset": 89,
      "phones": [
        {
          "duration": 0.12,
          "phone": "k_B"
        },
        {
          "duration": 0.07,
          "phone": "ey_I"
        },
        {
          "duration": 0.09,
          "phone": "p_I"
        },
        {
          "duration": 0.08,
          "phone": "ah_I"
        },
        {
          "duration": 0.05,
          "phone": "b_I"
        },
        {
          "duration": 0.05,
          "phone": "ah_I"
        },
        {
          "duration": 0.07,
          "phone": "l_E"
        }
      ],
      "start": 4.72,
      "startOffset": 82,
      "word": "CAPABLE"
    },
    {
      "alignedWord": "porter",
      "case": "success",
      "end": 5.75,
      "endOffset": 96,
      "phones": [
        {
          "duration": 0.13,
          "phone": "p_B"
        },
        {
          "duration": 0.1,
          "phone": "ao_I"
        },
        {
          "duration": 0.06,
          "phone": "r_I"
        },
        {
          "duration": 0.07,
          "phone": "t_I"
        },
        {
          "duration": 0.14,
          "phone": "er_E"
        }
      ],
      "start": 5.25,
      "startOffset": 90,
      "word": "PORTER"
    },
    {
      "alignedWord": "who",
      "case": "success",
      "end": 5.93,
      "endOffset": 100,
      "phones": [
        {
          "duration": 0.08,
          "phone": "hh_B"
        },
        {
          "duration": 0.09,
          "phone": "uw_E"
        }
      ],
      "start": 5.76,
      "startOffset": 97,
      "word": "WHO"
    },
    {
      "alignedWord": "had",
      "case": "success",
      "end": 6.06,
      "endOffset": 104,
      "phones": [
        {
          "duration": 0.01,
          "phone": "hh_B"
        },
        {
          "duration": 0.03,
          "phone": "ae_I"
        },
        {
          "duration": 0.09,
          "phone": "d_E"
        }
      ],
      "start": 5.93,
      "startOffset": 101,
      "word": "HAD"
    },
    {
      "alignedWord": "taken",
      "case": "success",
      "end": 6.4399999999999995,
      "endOffset": 110,
      "phones": [
        {
          "duration": 0.07,
          "phone": "t_B"
        },
        {
          "duration": 0.1,
          "phone": "ey_I"
        },
        {
          "duration": 0.04,
          "phone": "k_I"
        },
        {
          "duration": 0.07,
          "phone": "ah_I"
        },
        {
          "duration": 0.1,
          "phone": "n_E"
        }
      ],
      "start": 6.06,
      "startOffset": 105,
      "word": "TAKEN"
    },
    {
      "alignedWord": "possession",
      "case": "success",
      "end": 7.0,
      "endOffset": 121,
      "phones": [
        {
          "duration": 0.06,
          "phone": "p_B"
        },
        {
          "duration": 0.07,
          "phone": "ah_I"
        },
        {
          "duration": 0.1,
          "phone": "z_I"
        },
        {
          "duration": 0.07,
          "phone": "eh_I"
        },
        {
          "duration": 0.13,
          "phone": "sh_I"
        },
        {
          "duration": 0.07,
          "phone": "ah_I"
        },
        {
          "duration": 0.06,
          "phone": "n_E"
        }
      ],
      "start": 6.44,
      "startOffset": 111,
      "word": "POSSESSION"
    },
    {
      "alignedWord": "of",
      "case": "success",
      "end": 7.13,
      "endOffset": 124,
      "phones": [
        {
          "duration": 0.06,
          "phone": "ah_B"
        },
        {
          "duration": 0.07,
          "phone": "v_E"
        }
      ],
      "start": 7.0,
      "startOffset": 122,
      "word": "OF"
    },
    {
      "alignedWord": "her",
      "case": "success",
      "end": 7.32,
      "endOffset": 128,
      "phones": [
        {
          "duration": 0.08,
          "phone": "hh_B"
        },
        {
          "duration": 0.11,
          "phone": "er_E"
        }
      ],
      "start": 7.13,
      "startOffset": 125,
      "word": "HER"
    },
    {
      "alignedWord": "rugs",
      "case": "success",
      "end": 7.73,
      "endOffset": 133,
      "phones": [
        {
          "duration": 0.12,
          "phone": "r_B"
        },
        {
          "duration": 0.09,
          "phone": "ah_I"
        },
        {
          "duration": 0.11,
          "phone": "g_I"
        },
        {
          "duration": 0.09,
          "phone": "z_E"
        }
      ],
      "start": 7.32,
      "startOffset": 129,
      "word": "RUGS"
    },
    {
      "alignedWord": "and",
      "case": "success",
      "end": 7.91,
      "endOffset": 137,
      "phones": [
        {
          "duration": 0.05,
          "phone": "ae_B"
        },
        {
          "duration": 0.06,
          "phone": "n_I"
        },
        {
          "duration": 0.05,
          "phone": "d_E"
        }
      ],
      "start": 7.75,
      "startOffset": 134,
      "word": "AND"
    },
    {
      "alignedWord": "hand",
      "case": "success",
      "end": 8.18,
      "endOffset": 142,
      "phones": [
        {
          "duration": 0.05,
          "phone": "hh_B"
        },
        {
          "duration": 0.1,
          "phone": "ae_I"
        },
        {
          "duration": 0.06,
          "phone": "n_I"
        },
        {
          "duration": 0.06,
          "phone": "d_E"
        }
      ],
      "start": 7.91,
      "startOffset": 138,
      "word": "HAND"
    },
    {
      "alignedWord": "baggage",
      "case": "success",
      "end": 8.889999999999999,
      "endOffset": 150,
      "phones": [
        {
          "duration": 0.09,
          "phone": "b_B"
        },
        {
          "duration": 0.11,
          "phone": "ae_I"
        },
        {
          "duration": 0.08,
          "phone": "g_I"
        },
        {
          "duration": 0.15,
          "phone": "ih_I"
        },
        {
          "duration": 0.27,
          "phone": "jh_E"
        }
      ],
      "start": 8.19,
      "startOffset": 143,
      "word": "BAGGAGE"
    },
    {
      "alignedWord": "in",
      "case": "success",
      "end": 9.73,
      "endOffset": 153,
      "phones": [
        {
          "duration": 0.09,
          "phone": "ih_B"
        },
        {
          "duration": 0.06,
          "phone": "n_E"
        }
      ],
      "start": 9.58,
      "startOffset": 151,
      "word": "IN"
    },
    {
      "alignedWord": "the",
      "case": "success",
      "end": 9.84,
      "endOffset": 157,
      "phones": [
        {
          "duration": 0.05,
          "phone": "dh_B"
        },
        {
          "duration": 0.06,
          "phone": "ah_E"
        }
      ],
      "start": 9.73,
      "startOffset": 154,
      "word": "THE"
    },
    {
      "alignedWord": "personal",
      "case": "success",
      "end": 10.37,
      "endOffset": 166,
      "phones": [
        {
          "duration": 0.12,
          "phone": "p_B"
        },
        {
          "duration": 0.1,
          "phone": "er_I"
        },
        {
          "duration": 0.09,
          "phone": "s_I"
        },
        {
          "duration": 0.06,
          "phone": "ih_I"
        },
        {
          "duration": 0.01,
          "phone": "n_I"
        },
        {
          "duration": 0.07,
          "phone": "ih_I"
        },
        {
          "duration": 0.08,
          "phone": "l_E"
        }
      ],
      "start": 9.84,
      "startOffset": 158,
      "word": "PERSONAL"
    },
    {
      "alignedWord": "column",
      "case": "success",
      "end": 10.8,
      "endOffset": 173,
      "phones": [
        {
          "duration": 0.09,
          "phone": "k_B"
        },
        {
          "duration": 0.1,
          "phone": "aa_I"
        },
        {
          "duration": 0.1,
          "phone": "l_I"
        },
        {
          "duration": 0.04,
          "phone": "ah_I"
        },
        {
          "duration": 0.09,
          "phone": "m_E"
        }
      ],
      "start": 10.38,
      "startOffset": 167,
      "word": "COLUMN"
    },
    {
      "alignedWord": "she",
      "case": "success",
      "end": 10.989999,
      "endOffset": 177,
      "phones": [
        {
          "duration": 0.1,
          "phone": "sh_B"
        },
        {
          "duration": 0.08,
          "phone": "iy_E"
        }
      ],
      "start": 10.809999,
      "startOffset": 174,
      "word": "SHE"
    },
    {
      "alignedWord": "found",
      "case": "success",
      "end": 11.32,
      "endOffset": 183,
      "phones": [
        {
          "duration": 0.09,
          "phone": "f_B"
        },
        {
          "duration": 0.1,
          "phone": "aw_I"
        },
        {
          "duration": 0.07,
          "phone": "n_I"
        },
        {
          "duration": 0.07,
          "phone": "d_E"
        }
      ],
      "start": 10.99,
      "startOffset": 178,
      "word": "FOUND"
    },
    {
      "alignedWord": "the",
      "case": "success",
      "end": 11.38,
      "endOffset": 187,
      "phones": [
        {
          "duration": 0.01,
          "phone": "dh_B"
        },
        {
          "duration": 0.04,
          "phone": "ah_E"
        }
      ],
      "start": 11.33,
      "startOffset": 184,
      "word": "THE"
    },
    {
      "alignedWord": "very",
      "case": "success",
      "end": 11.760000000000002,
      "endOffset": 192,
      "phones": [
        {
          "duration": 0.09,
          "phone": "v_B"
        },
        {
          "duration": 0.09,
          "phone": "eh_I"
        },
        {
          "duration": 0.11,
          "phone": "r_I"
        },
        {
          "duration": 0.09,
          "phone": "iy_E"
        }
      ],
      "start": 11.38,
      "startOffset": 188,
      "word": "VERY"
    },
    {
      "alignedWord": "paragraph",
      "case": "success",
      "end": 12.459999,
      "endOffset": 202,
      "phones": [
        {
          "duration": 0.12,
          "phone": "p_B"
        },
        {
          "duration": 0.1,
          "phone": "eh_I"
        },
        {
          "duration": 0.09,
          "phone": "r_I"
        },
        {
          "duration": 0.06,
          "phone": "ah_I"
        },
        {
          "duration": 0.08,
          "phone": "g_I"
        },
        {
          "duration": 0.07,
          "phone": "r_I"
        },
        {
          "duration": 0.11,
          "phone": "ae_I"
        },
        {
          "duration": 0.07,
          "phone": "f_E"
        }
      ],
      "start": 11.759999,
      "startOffset": 193,
      "word": "PARAGRAPH"
    },
    {
      "alignedWord": "she",
      "case": "success",
      "end": 12.739999,
      "endOffset": 206,
      "phones": [
        {
          "duration": 0.17,
          "phone": "sh_B"
        },
        {
          "duration": 0.1,
          "phone": "iy_E"
        }
      ],
      "start": 12.469999,
      "startOffset": 203,
      "word": "SHE"
    },
    {
      "alignedWord": "sought",
      "case": "success",
      "end": 13.33,
      "endOffset": 213,
      "phones": [
        {
          "duration": 0.14,
          "phone": "s_B"
        },
        {
          "duration": 0.15,
          "phone": "ao_I"
        },
        {
          "duration": 0.3,
          "phone": "t_E"
        }
      ],
      "start": 12.74,
      "startOffset": 207,
      "word": "SOUGHT"
    }
  ]
}