{
  "transcript": "CAN BE FOUND ON THE OUTSIDE OF A SHORT RED STEER OR THE INSIDE OF A LONG BLACK BOTTLE BRASS BAND A CLEVER THOUGH SOMEWHAT COMPLICATED ARRANGEMENT FOR HOLDING A CROWD TOGETHER BRICK AN ADMIRABLE PERSON MADE OF THE RIGHT SORT OF CLAY AND POSSESSING PLENTY OF SAND",
  "words": [
    {
      "alignedWord": "can",
      "case": "success",
      "end": 0.72,
      "endOffset": 3,
      "phones": [
        {
          "duration": 0.1,
          "phone": "k_B"
        },
        {
          "duration": 0.07,
          "phone": "ah_I"
        },
        {
          "duration": 0.05,
          "phone": "n_E"
        }
      ],
      "start": 0.5,
      "startOffset": 0,
      "word": "CAN"
    },
    {
      "alignedWord": "be",
      "case": "success",
      "end": 0.87,
      "endOffset": 6,
      "phones": [
        {
          "duration": 0.08,
          "phone": "b_B"
        },
        {
          "duration": 0.07,
          "phone": "iy_E"
        }
      ],
      "start": 0.72,
      "startOffset": 4,
      "word": "BE"
    },
    {
      "alignedWord": "found",
      "case": "success",
      "end": 1.1099999999999999,
      "endOffset": 12,
      "phones": [
        {
          "duration": 0.09,
          "phone": "f_B"
        },
        {
          "duration": 0.1,
          "phone": "aw_I"
        },
        {
          "duration": 0.01,
          "phone": "n_I"
        },
        {
          "duration": 0.04,
          "phone": "d_E"
        }
      ],
      "start": 0.87,
      "startOffset": 7,
      "word": "FOUND"
    },
    {
      "alignedWord": "on",
      "case": "success",
      "end": 1.1900000000000002,
      "endOffset": 15,
      "phones": [
        {
          "duration": 0.07,
          "phone": "aa_B"
        },
        {
          "duration": 0.01,
          "phone": "n_E"
        }
      ],
      "start": 1.11,
      "startOffset": 13,
      "word": "ON"
    },
    {
      "alignedWord": "the",
      "case": "success",
      "end": 1.3199999999999998,
      "endOffset": 19,
      "phones": [
        {
          "duration": 0.06,
          "phone": "dh_B"
        },
        {
          "duration": 0.07,
          "phone": "iy_E"
        }
      ],
      "start": 1.19,
      "startOffset": 16,
      "word": "THE"
    },
    {
      "alignedWord": "outside",
      "case": "success",
      "end": 1.6600000000000001,
      "endOffset": 27,
      "phones": [
        {
          "duration": 0.1,
          "phone": "aw_B"
        },
        {
          "duration": 0.08,
          "phone": "t_I"
        },
        {
          "duration": 0.06,
          "phone": "s_I"
        },
        {
          "duration": 0.06,
          "phone": "ay_I"
        },
        {
          "duration": 0.04,
          "phone": "d_E"
        }
      ],
      "start": 1.32,
      "startOffset": 20,
      "word": "OUTSIDE"
    },
    {
      "alignedWord": "of",
      "case": "success",
      "end": 1.7799999999999998,
      "endOffset": 30,
      "phones": [
        {
          "duration": 0.05,
          "phone": "ah_B"
        },
        {
          "duration": 0.07,
          "phone": "v_E"
        }
      ],
      "start": 1.66,
      "startOffset": 28,
      "word": "OF"
    },
    {
      "alignedWord": "a",
      "case": "success",
      "end": 1.83,
      "endOffset": 32,
      "phones": [
        {
          "duration": 0.05,
          "phone": "ah_S"
        }
      ],
      "start": 1.78,
      "startOffset": 31,
      "word": "A"
    },
    {
      "alignedWord": "short",
      "case": "success",
      "end": 2.15,
      "endOffset": 38,
      "phones": [
        {
          "duration": 0.14,
          "phone": "sh_B"
        },
        {
          "duration": 0.11,
          "phone": "ao_I"
        },
        {
          "duration": 0.06,
          "phone": "r_I"
        },
        {
          "duration": 0.01,
          "phone": "t_E"
        }
      ],
      "start": 1.83,
      "startOffset": 33,
      "word": "SHORT"
    },
    {
      "alignedWord": "red",
      "case": "success",
      "end": 2.45,
      "endOffset": 42,
      "phones": [
        {
          "duration": 0.12,
          "phone": "r_B"
        },
        {
          "duration": 0.07,
          "phone": "eh_I"
        },
        {
          "duration": 0.09,
          "phone": "d_E"
        }
      ],
      "start": 2.17,
      "startOffset": 39,
      "word": "RED"
    },
    {
      "alignedWord": "steer",
      "case": "success",
      "end": 2.8800000000000003,
      "endOffset": 48,
      "phones": [
        {
          "duration": 0.1,
          "phone": "s_B"
        },
        {
          "duration": 0.06,
          "phone": "t_I"
        },
        {
          "duration": 0.17,
          "phone": "ih_I"
        },
        {
          "duration": 0.1,
          "phone": "r_E"
        }
      ],
      "start": 2.45,
      "startOffset": 43,
      "word": "STEER"
    },
    {
      "alignedWord": "or",
      "case": "success",
      "end": 3.09,
      "endOffset": 51,
      "phones": [
        {
          "duration": 0.15,
          "phone": "ao_B"
        },
        {
          "duration": 0.06,
          "phone": "r_E"
        }
      ],
      "start": 2.88,
      "startOffset": 49,
      "word": "OR"
    },
    {
      "alignedWord": "the",
      "case": "success",
      "end": 3.37,
      "endOffset": 55,
      "phones": [
        {
          "duration": 0.08,
          "phone": "dh_B"
        },
        {
          "duration": 0.14,
          "phone": "iy_E"
        }
      ],
      "start": 3.15,
      "startOffset": 52,
      "word": "THE"
    },
    {
      "alignedWord": "inside",
      "case": "success",
      "end": 3.89,
      "endOffset": 62,
      "phones": [
        {
          "duration": 0.11,
          "phone": "ih_B"
        },
        {
          "duration": 0.1,
          "phone": "n_I"
        },
        {
          "duration": 0.11,
          "phone": "s_I"
        },
        {
          "duration": 0.09,
          "phone": "ay_I"
        },
        {
          "duration": 0.04,
          "phone": "d_E"
        }
      ],
      "start": 3.44,
      "startOffset": 56,
      "word": "INSIDE"
    },
    {
      "alignedWord": "of",
      "case": "success",
      "end": 4.0200000000000005,
      "endOffset": 65,
      "phones": [
        {
          "duration": 0.06,
          "phone": "ah_B"
        },
        {
          "duration": 0.07,
          "phone": "v_E"
        }
      ],
      "start": 3.89,
      "startOffset": 63,
      "word": "OF"
    },
    {
      "alignedWord": "a",
      "case": "success",
      "end": 4.079999999999999,
      "endOffset": 67,
      "phones": [
        {
          "duration": 0.06,
          "phone": "ah_S"
        }
      ],
      "start": 4.02,
      "startOffset": 66,
      "word": "A"
    },
    {
      "alignedWord": "long",
      "case": "success",
      "end": 4.46,
      "endOffset": 72,
      "phones": [
        {
          "duration": 0.12,
          "phone": "l_B"
        },
        {
          "duration": 0.16,
          "phone": "ao_I"
        },
        {
          "duration": 0.1,
          "phone": "ng_E"
        }
      ],
      "start": 4.08,
      "startOffset": 68,
      "word": "LONG"
    },
    {
      "alignedWord": "black",
      "case": "success",
      "end": 4.72,
      "endOffset": 78,
      "phones": [
        {
          "duration": 0.05,
          "phone": "b_B"
        },
        {
          "duration": 0.06,
          "phone": "l_I"
        },
        {
          "duration": 0.08,
          "phone": "ae_I"
        },
        {
          "duration": 0.07,
          "phone": "k_E"
        }
      ],
      "start": 4.46,
      "startOffset": 73,
      "word": "BLACK"
    },
    {
      "alignedWord": "bottle",
      "case": "success",
      "end": 5.180000000000001,
      "endOffset": 85,
      "phones": [
        {
          "duration": 0.1,
          "phone": "b_B"
        },
        {
          "duration": 0.09,
          "phone": "aa_I"
        },
        {
          "duration": 0.07,
          "phone": "t_I"
        },
        {
          "duration": 0.06,
          "phone": "ah_I"
        },
        {
          "duration": 0.13,
          "phone": "l_E"
        }
      ],
      "start": 4.73,
      "startOffset": 79,
      "word": "BOTTLE"
    },
    {
      "alignedWord": "brass",
      "case": "success",
      "end": 6.54,
      "endOffset": 91,
      "phones": [
        {
          "duration": 0.07,
          "phone": "b_B"
        },
        {
          "duration": 0.07,
          "phone": "r_I"
        },
        {
          "duration": 0.13,
          "phone": "ae_I"
        },
        {
          "duration": 0.09,
          "phone": "s_E"
        }
      ],
      "start": 6.18,
      "startOffset": 86,
      "word": "BRASS"
    },
    {
      "alignedWord": "band",
      "case": "success",
      "end": 7.03,
      "endOffset": 96,
      "phones": [
        {
          "duration": 0.09,
          "phone": "b_B"
        },
        {
          "duration": 0.16,
          "phone": "ae_I"
        },
        {
          "duration": 0.1,
          "phone": "n_I"
        },
        {
          "duration": 0.14,
          "phone": "d_E"
        }
      ],
      "start": 6.54,
      "startOffset": 92,
      "word": "BAND"
    },
    {
      "alignedWord": "a",
      "case": "success",
      "end": 7.619999999999999,
      "endOffset": 98,
      "phones": [
        {
          "duration": 0.1,
          "phone": "ah_S"
        }
      ],
      "start": 7.52,
      "startOffset": 97,
      "word": "A"
    },
    {
      "alignedWord": "clever",
      "case": "success",
      "end": 7.97,
      "endOffset": 105,
      "phones": [
        {
          "duration": 0.1,
          "phone": "k_B"
        },
        {
          "duration": 0.04,
          "phone": "l_I"
        },
        {
          "duration": 0.08,
          "phone": "eh_I"
        },
        {
          "duration": 0.03,
          "phone": "v_I"
        },
        {
          "duration": 0.1,
          "phone": "er_E"
        }
      ],
      "start": 7.62,
      "startOffset": 99,
      "word": "CLEVER"
    },
    {
      "alignedWord": "though",
      "case": "success",
      "end": 8.1,
      "endOffset": 112,
      "phones": [
        {
          "duration": 0.04,
          "phone": "dh_B"
        },
        {
          "duration": 0.09,
          "phone": "ow_E"
        }
      ],
      "start": 7.97,
      "startOffset": 106,
      "word": "THOUGH"
    },
    {
      "alignedWord": "somewhat",
      "case": "success",
      "end": 8.479999000000001,
      "endOffset": 121,
      "phones": [
        {
          "duration": 0.1,
          "phone": "s_B"
        },
        {
          "duration": 0.06,
          "phone": "ah_I"
        },
        {
          "duration": 0.08,
          "phone": "m_I"
        },
        {
          "duration": 0.04,
          "phone": "w_I"
        },
        {
          "duration": 0.03,
          "phone": "ah_I"
        },
        {
          "duration": 0.07,
          "phone": "t_E"
        }
      ],
      "start": 8.099999,
      "startOffset": 113,
      "word": "SOMEWHAT"
    },
    {
      "alignedWord": "complicated",
      "case": "success",
      "end": 9.05,
      "endOffset": 133,
      "phones": [
        {
          "duration": 0.06,
          "phone": "k_B"
        },
        {
          "duration": 0.08,
          "phone": "aa_I"
        },
        {
          "duration": 0.06,
          "phone": "m_I"
        },
        {
          "duration": 0.01,
          "phone": "p_I"
        },
        {
          "duration": 0.03,
          "phone": "l_I"
        },
        {
          "duration": 0.04,
          "phone": "ah_I"
        },
        {
          "duration": 0.09,
          "phone": "k_I"
        },
        {
          "duration": 0.05,
          "phone": "ey_I"
        },
        {
          "duration": 0.03,
          "phone": "t_I"
        },
        {
          "duration": 0.06,
          "phone": "ah_I"
        },
        {
          "duration": 0.06,
          "phone": "d_E"
        }
      ],
      "start": 8.48,
      "startOffset": 122,
      "word": "COMPLICATED"
    },
    {
      "alignedWord": "arrangement",
      "case": "success",
      "end": 9.510000000000002,
      "endOffset": 145,
      "phones": [
        {
          "duration": 0.1,
          "phone": "er_B"
        },
        {
          "duration": 0.08,
          "phone": "ey_I"
        },
        {
          "duration": 0.04,
          "phone": "n_I"
        },
        {
          "duration": 0.07,
          "phone": "jh_I"
        },
        {
          "duration": 0.04,
          "phone": "m_I"
        },
        {
          "duration": 0.04,
          "phone": "ah_I"
        },
        {
          "duration": 0.01,
          "phone": "n_I"
        },
        {
          "duration": 0.08,
          "phone": "t_E"
        }
      ],
      "start": 9.05,
      "startOffset": 134,
      "word": "ARRANGEMENT"
    },
    {
      "alignedWord": "for",
      "case": "success",
      "end": 9.65,
      "endOffset": 149,
      "phones": [
        {
          "duration": 0.06,
          "phone": "f_B"
        },
        {
          "duration": 0.08,
          "phone": "er_E"
        }
      ],
      "start": 9.51,
      "startOffset": 146,
      "word": "FOR"
    },
    {
      "alignedWord": "holding",
      "case": "success",
      "end": 9.92,
      "endOffset": 157,
      "phones": [
        {
          "duration": 0.04,
          "phone": "hh_B"
        },
        {
          "duration": 0.05,
          "phone": "ow_I"
        },
        {
          "duration": 0.02,
          "phone": "l_I"
        },
        {
          "duration": 0.05,
          "phone": "d_I"
        },
        {
          "duration": 0.05,
          "phone": "ih_I"
        },
        {
          "duration": 0.06,
          "phone": "ng_E"
        }
      ],
      "start": 9.65,
      "startOffset": 150,
      "word": "HOLDING"
    },
    {
      "alignedWord": "a",
      "case": "success",
      "end": 10.0,
      "endOffset": 159,
      "phones": [
        {
          "duration": 0.08,
          "phone": "ah_S"
        }
      ],
      "start": 9.92,
      "startOffset": 158,
      "word": "A"
    },
    {
      "alignedWord": "crowd",
      "case": "success",
      "end": 10.33,
      "endOffset": 165,
      "phones": [
        {
          "duration": 0.1,
          "phone": "k_B"
        },
        {
          "duration": 0.06,
          "phone": "r_I"
        },
        {
          "duration": 0.1,
          "phone": "aw_I"
        },
        {
          "duration": 0.07,
          "phone": "d_E"
        }
      ],
      "start": 10.0,
      "startOffset": 160,
      "word": "CROWD"
    },
    {
      "alignedWord": "together",
      "case": "success",
      "end": 10.76,
      "endOffset": 174,
      "phones": [
        {
          "duration": 0.02,
          "phone": "t_B"
        },
        {
          "duration": 0.04,
          "phone": "ah_I"
        },
        {
          "duration": 0.09,
          "phone": "g_I"
        },
        {
          "duration": 0.08,
          "phone": "eh_I"
        },
        {
          "duration": 0.07,
          "phone": "dh_I"
        },
        {
          "duration": 0.13,
          "phone": "er_E"
        }
      ],
      "start": 10.33,
      "startOffset": 166,
      "word": "TOGETHER"
    },
    {
      "alignedWord": "brick",
      "case": "success",
      "end": 12.049999999999999,
      "endOffset": 180,
      "phones": [
        {
          "duration": 0.08,
          "phone": "b_B"
        },
        {
          "duration": 0.06,
          "phone": "r_I"
        },
        {
          "duration": 0.09,
          "phone": "ih_I"
        },
        {
          "duration": 0.21,
          "phone": "k_E"
        }
      ],
      "start": 11.61,
      "startOffset": 175,
      "word": "BRICK"
    },
    {
      "alignedWord": "an",
      "case": "success",
      "end": 12.39,
      "endOffset": 183,
      "phones": [
        {
          "duration": 0.13,
          "phone": "ah_B"
        },
        {
          "duration": 0.01,
          "phone": "n_E"
        }
      ],
      "start": 12.25,
      "startOffset": 181,
      "word": "AN"
    },
    {
      "alignedWord": "admirable",
      "case": "success",
      "end": 12.859999,
      "endOffset": 193,
      "phones": [
        {
          "duration": 0.01,
          "phone": "ae_B"
        },
        {
          "duration": 0.07,
          "phone": "d_I"
        },
        {
          "duration": 0.09,
          "phone": "m_I"
        },
        {
          "duration": 0.12,
          "phone": "r_I"
        },
        {
          "duration": 0.05,
          "phone": "ah_I"
        },
        {
          "duration": 0.01,
          "phone": "b_I"
        },
        {
          "duration": 0.07,
          "phone": "ah_I"
        },
        {
          "duration": 0.05,
          "phone": "l_E"
        }
      ],
      "start": 12.389999,
      "startOffset": 184,
      "word": "ADMIRABLE"
    },
    {
      "alignedWord": "person",
      "case": "success",
      "end": 13.25,
      "endOffset": 200,
      "phones": [
        {
          "duration": 0.09,
          "phone": "p_B"
        },
        {
          "duration": 0.11,
          "phone": "er_I"
        },
        {
          "duration": 0.08,
          "phone": "s_I"
        },
        {
          "duration": 0.05,
          "phone": "ah_I"
        },
        {
          "duration": 0.06,
          "phone": "n_E"
        }
      ],
      "start": 12.86,
      "startOffset": 194,
      "word": "PERSON"
    },
    {
      "alignedWord": "made",
      "case": "success",
      "end": 13.43,
      "endOffset": 205,
      "phones": [
        {
          "duration": 0.07,
          "phone": "m_B"
        },
        {
          "duration": 0.07,
          "phone": "ey_I"
        },
        {
          "duration": 0.04,
          "phone": "d_E"
        }
      ],
      "start": 13.25,
      "startOffset": 201,
      "word": "MADE"
    },
    {
      "alignedWord": "of",
      "case": "success",
      "end": 13.589999,
      "endOffset": 208,
      "phones": [
        {
          "duration": 0.05,
          "phone": "ah_B"
        },
        {
          "duration": 0.11,
          "phone": "v_E"
        }
      ],
      "start": 13.429999,
      "startOffset": 206,
      "word": "OF"
    },
    {
      "alignedWord": "the",
      "case": "success",
      "end": 13.68,
      "endOffset": 212,
      "phones": [
        {
          "duration": 0.01,
          "phone": "dh_B"
        },
        {
          "duration": 0.08,
          "phone": "ah_E"
        }
      ],
      "start": 13.59,
      "startOffset": 209,
      "word": "THE"
    },
    {
      "alignedWord": "right",
      "case": "success",
      "end": 13.939999,
      "endOffset": 218,
      "phones": [
        {
          "duration": 0.1,
          "phone": "r_B"
        },
        {
          "duration": 0.08,
          "phone": "ay_I"
        },
        {
          "duration": 0.08,
          "phone": "t_E"
        }
      ],
      "start": 13.679999,
      "startOffset": 213,
      "word": "RIGHT"
    },
    {
      "alignedWord": "sort",
      "case": "success",
      "end": 14.17,
      "endOffset": 223,
      "phones": [
        {
          "duration": 0.09,
          "phone": "s_B"
        },
        {
          "duration": 0.08,
          "phone": "ao_I"
        },
        {
          "duration": 0.01,
          "phone": "r_I"
        },
        {
          "duration": 0.05,
          "phone": "t_E"
        }
      ],
      "start": 13.94,
      "startOffset": 219,
      "word": "SORT"
    },
    {
      "alignedWord": "of",
      "case": "success",
      "end": 14.3,
      "endOffset": 226,
      "phones": [
        {
          "duration": 0.05,
          "phone": "ah_B"
        },
        {
          "duration": 0.08,
          "phone": "v_E"
        }
      ],
      "start": 14.17,
      "startOffset": 224,
      "word": "OF"
    },
    {
      "alignedWord": "clay",
      "case": "success",
      "end": 14.659999,
      "endOffset": 231,
      "phones": [
        {
          "duration": 0.1,
          "phone": "k_B"
        },
        {
          "duration": 0.12,
          "phone": "l_I"
        },
        {
          "duration": 0.14,
          "phone": "ey_E"
        }
      ],
      "start": 14.299999,
      "startOffset": 227,
      "word": "CLAY"
    },
    {
      "alignedWord": "and",
      "case": "success",
      "end": 14.870000000000001,
      "endOffset": 235,
      "phones": [
        {
          "duration": 0.01,
          "phone": "ae_B"
        },
        {
          "duration": 0.09,
          "phone": "n_I"
        },
        {
          "duration": 0.11,
          "phone": "d_E"
        }
      ],
      "start": 14.66,
      "startOffset": 232,
      "word": "AND"
    },
    {
      "alignedWord": "possessing",
      "case": "success",
      "end": 15.5,
      "endOffset": 246,
      "phones": [
        {
          "duration": 0.11,
          "phone": "p_B"
        },
        {
          "duration": 0.01,
          "phone": "ah_I"
        },
        {
          "duration": 0.01,
          "phone": "z_I"
        },
        {
          "duration": 0.09,
          "phone": "eh_I"
        },
        {
          "duration": 0.24,
          "phone": "s_I"
        },
        {
          "duration": 0.06,
          "phone": "ih_I"
        },
        {
          "duration": 0.06,
          "phone": "ng_E"
        }
      ],
      "start": 14.92,
      "startOffset": 236,
      "word": "POSSESSING"
    },
    {
      "alignedWord": "plenty",
      "case": "success",
      "end": 15.79,
      "endOffset": 253,
      "phones": [
        {
          "duration": 0.05,
          "phone": "p_B"
        },
        {
          "duration": 0.07,
          "phone": "l_I"
        },
        {
          "duration": 0.04,
          "phone": "eh_I"
        },
        {
          "duration": 0.04,
          "phone": "n_I"
        },
        {
          "duration": 0.09,
          "phone": "iy_E"
        }
      ],
      "start": 15.5,
      "startOffset": 247,
      "word": "PLENTY"
    },
    {
      "alignedWord": "of",
      "case": "success",
      "end": 15.909999999999998,
      "endOffset": 256,
      "phones": [
        {
          "duration": 0.04,
          "phone": "ah_B"
        },
        {
          "duration": 0.08,
          "phone": "v_E"
        }
      ],
      "start": 15.79,
      "startOffset": 254,
      "word": "OF"
    },
    {
      "alignedWord": "sand",
      "case": "success",
      "end": 16.37,
      "endOffset": 261,
      "phones": [
        {
          "duration": 0.11,
          "phone": "s_B"
        },
        {
          "duration": 0.14,
          "phone": "ae_I"
        },
        {
          "duration": 0.09,
          "phone": "n_I"
        },
        {
          "duration": 0.12,
          "phone": "d_E"
        }
      ],
      "start": 15.91,
      "startOffset": 257,
      "word": "SAND"
    }
  ]
}