{
  "transcript": "AND DEVELOPED IN DEPARTMENT STORES ON MONDAYS SYMPTOMS LOUD TALK PUSHING AND SHOVING A COMBINATION PRIZE FIGHT AND FOOT BALL SCRIMMAGE OLD SPELLING BARK GAIN BASEBALL",
  "words": [
    {
      "alignedWord": "and",
      "case": "success",
      "end": 0.37,
      "endOffset": 3,
      "phones": [
        {
          "duration": 0.09,
          "phone": "ae_B"
        },
        {
          "duration": 0.04,
          "phone": "n_I"
        },
        {
          "duration": 0.05,
          "phone": "d_E"
        }
      ],
      "start": 0.19,
      "startOffset": 0,
      "word": "AND"
    },
    {
      "alignedWord": "developed",
      "case": "success",
      "end": 0.8,
      "endOffset": 13,
      "phones": [
        {
          "duration": 0.01,
          "phone": "d_B"
        },
        {
          "duration": 0.07,
          "phone": "ih_I"
        },
        {
          "duration": 0.04,
          "phone": "v_I"
        },
        {
          "duration": 0.05,
          "phone": "eh_I"
        },
        {
          "duration": 0.1,
          "phone": "l_I"
        },
        {
          "duration": 0.04,
          "phone": "ah_I"
        },
        {
          "duration": 0.07,
          "phone": "p_I"
        },
        {
          "duration": 0.05,
          "phone": "t_E"
        }
      ],
      "start": 0.37,
      "startOffset": 4,
      "word": "DEVELOPED"
    },
    {
      "alignedWord": "in",
      "case": "success",
      "end": 0.9,
      "endOffset": 16,
      "phones": [
        {
          "duration": 0.02,
          "phone": "ih_B"
        },
        {
          "duration": 0.08,
          "phone": "n_E"
        }
      ],
      "start": 0.8,
      "startOffset": 14,
      "word": "IN"
    },
    {
      "alignedWord": "department",
      "case": "success",
      "end": 1.26,
      "endOffset": 27,
      "phones": [
        {
          "duration": 0.02,
          "phone": "d_B"
        },
        {
          "duration": 0.05,
          "phone": "ih_I"
        },
        {
          "duration": 0.07,
          "phone": "p_I"
        },
        {
          "duration": 0.05,
          "phone": "aa_I"
        },
        {
          "duration": 0.04,
          "phone": "r_I"
        },
        {
          "duration": 0.04,
          "phone": "t_I"
        },
        {
          "duration": 0.06,
          "phone": "m_I"
        },
        {
          "duration": 0.01,
          "phone": "ah_I"
        },
        {
          "duration": 0.01,
          "phone": "n_I"
        },
        {
          "duration": 0.01,
          "phone": "t_E"
        }
      ],
      "start": 0.9,
      "startOffset": 17,
      "word": "DEPARTMENT"
    },
    {
      "alignedWord": "stores",
      "case": "success",
      "end": 1.55,
      "endOffset": 34,
      "phones": [
        {
          "duration": 0.06,
          "phone": "s_B"
        },
        {
          "duration": 0.05,
          "phone": "t_I"
        },
        {
          "duration": 0.05,
          "phone": "ao_I"
        },
        {
          "duration": 0.07,
          "phone": "r_I"
        },
        {
          "duration": 0.05,
          "phone": "z_E"
        }
      ],
      "start": 1.27,
      "startOffset": 28,
      "word": "STORES"
    },
    {
      "alignedWord": "on",
      "case": "success",
      "end": 1.67,
      "endOffset": 37,
      "phones": [
        {
          "duration": 0.04,
          "phone": "aa_B"
        },
        {
          "duration": 0.08,
          "phone": "n_E"
        }
      ],
      "start": 1.55,
      "startOffset": 35,
      "word": "ON"
    },
    {
      "alignedWord": "mondays",
      "case": "success",
      "end": 2.35,
      "endOffset": 45,
      "phones": [
        {
          "duration": 0.05,
          "phone": "m_B"
        },
        {
          "duration": 0.08,
          "phone": "ah_I"
        },
        {
          "duration": 0.05,
          "phone": "n_I"
        },
        {
          "duration": 0.11,
          "phone": "d_I"
        },
        {
          "duration": 0.15,
          "phone": "ey_I"
        },
        {
          "duration": 0.24,
          "phone": "z_E"
        }
      ],
      "start": 1.67,
      "startOffset": 38,
      "word": "MONDAYS"
    },
    {
      "alignedWord": "symptoms",
      "case": "success",
      "end": 3.39,
      "endOffset": 54,
      "phones": [
        {
          "duration": 0.13,
          "phone": "s_B"
        },
        {
          "duration": 0.1,
          "phone": "ih_I"
        },
        {
          "duration": 0.01,
          "phone": "m_I"
        },
        {
          "duration": 0.08,
          "phone": "p_I"
        },
        {
          "duration": 0.03,
          "phone": "t_I"
        },
        {
          "duration": 0.09,
          "phone": "ah_I"
        },
        {
          "duration": 0.1,
          "phone": "m_I"
        },
        {
          "duration": 0.13,
          "phone": "z_E"
        }
      ],
      "start": 2.72,
      "startOffset": 46,
      "word": "SYMPTOMS"
    },
    {
      "alignedWord": "loud",
      "case": "success",
      "end": 3.91,
      "endOffset": 59,
      "phones": [
        {
          "duration": 0.16,
          "phone": "l_B"
        },
        {
          "duration": 0.11,
          "phone": "aw_I"
        },
        {
          "duration": 0.08,
          "phone": "d_E"
        }
      ],
      "start": 3.56,
      "startOffset": 55,
      "word": "LOUD"
    },
    {
      "alignedWord": "talk",
      "case": "success",
      "end": 4.37,
      "endOffset": 64,
      "phones": [
        {
          "duration": 0.07,
          "phone": "t_B"
        },
        {
          "duration": 0.19,
          "phone": "ao_I"
        },
        {
          "duration": 0.2,
          "phone": "k_E"
        }
      ],
      "start": 3.91,
      "startOffset": 60,
      "word": "TALK"
    },
    {
      "alignedWord": "pushing",
      "case": "success",
      "end": 4.859999999999999,
      "endOffset": 72,
      "phones": [
        {
          "duration": 0.08,
          "phone": "p_B"
        },
        {
          "duration": 0.08,
          "phone": "uh_I"
        },
        {
          "duration": 0.06,
          "phone": "sh_I"
        },
        {
          "duration": 0.08,
          "phone": "ih_I"
        },
        {
          "duration": 0.05,
          "phone": "ng_E"
        }
      ],
      "start": 4.51,
      "startOffset": 65,
      "word": "PUSHING"
    },
    {
      "alignedWord": "and",
      "case": "success",
      "end": 5.0,
      "endOffset": 76,
      "phones": [
        {
          "duration": 0.04,
          "phone": "ae_B"
        },
        {
          "duration": 0.03,
          "phone": "n_I"
        },
        {
          "duration": 0.07,
          "phone": "d_E"
        }
      ],
      "start": 4.86,
      "startOffset": 73,
      "word": "AND"
    },
    {
      "alignedWord": "shoving",
      "case": "success",
      "end": 5.47,
      "endOffset": 84,
      "phones": [
        {
          "duration": 0.08,
          "phone": "sh_B"
        },
        {
          "duration": 0.12,
          "phone": "ah_I"
        },
        {
          "duration": 0.07,
          "phone": "v_I"
        },
        {
          "duration": 0.08,
          "phone": "ih_I"
        },
        {
          "duration": 0.12,
          "phone": "ng_E"
        }
      ],
      "start": 5.0,
      "startOffset": 77,
      "word": "SHOVING"
    },
    {
      "alignedWord": "a",
      "case": "success",
      "end": 5.92,
      "endOffset": 86,
      "phones": [
        {
          "duration": 0.11,
          "phone": "ah_S"
        }
      ],
      "start": 5.81,
      "startOffset": 85,
      "word": "A"
    },
    {
      "alignedWord": "combination",
      "case": "success",
      "end": 6.58,
      "endOffset": 98,
      "phones": [
        {
          "duration": 0.08,
          "phone": "k_B"
        },
        {
          "duration": 0.09,
          "phone": "aa_I"
        },
        {
          "duration": 0.05,
          "phone": "m_I"
        },
        {
          "duration": 0.01,
          "phone": "b_I"
        },
        {
          "duration": 0.07,
          "phone": "ah_I"
        },
        {
          "duration": 0.06,
          "phone": "n_I"
        },
        {
          "duration": 0.1,
          "phone": "ey_I"
        },
        {
          "duration": 0.09,
          "phone": "sh_I"
        },
        {
          "duration": 0.03,
          "phone": "ah_I"
        },
        {
          "duration": 0.08,
          "phone": "n_E"
        }
      ],
      "start": 5.92,
      "startOffset": 87,
      "word": "COMBINATION"
    },
    {
      "alignedWord": "prize",
      "case": "success",
      "end": 6.93,
      "endOffset": 104,
      "phones": [
        {
          "duration": 0.06,
          "phone": "p_B"
        },
        {
          "duration": 0.08,
          "phone": "r_I"
        },
        {
          "duration": 0.1,
          "phone": "ay_I"
        },
        {
          "duration": 0.11,
          "phone": "z_E"
        }
      ],
      "start": 6.58,
      "startOffset": 99,
      "word": "PRIZE"
    },
    {
      "alignedWord": "fight",
      "case": "success",
      "end": 7.14,
      "endOffset": 110,
      "phones": [
        {
          "duration": 0.09,
          "phone": "f_B"
        },
        {
          "duration": 0.09,
          "phone": "ay_I"
        },
        {
          "duration": 0.03,
          "phone": "t_E"
        }
      ],
      "start": 6.93,
      "startOffset": 105,
      "word": "FIGHT"
    },
    {
      "alignedWord": "and",
      "case": "success",
      "end": 7.26,
      "endOffset": 114,
      "phones": [
        {
          "duration": 0.04,
          "phone": "ah_B"
        },
        {
          "duration": 0.01,
          "phone": "n_I"
        },
        {
          "duration": 0.07,
          "phone": "d_E"
        }
      ],
      "start": 7.14,
      "startOffset": 111,
      "word": "AND"
    },
    {
      "alignedWord": "foot",
      "case": "success",
      "end": 7.39,
      "endOffset": 119,
      "phones": [
        {
          "duration": 0.07,
          "phone": "f_B"
        },
        {
          "duration": 0.05,
          "phone": "uh_I"
        },
        {
          "duration": 0.01,
          "phone": "t_E"
        }
      ],
      "start": 7.26,
      "startOffset": 115,
      "word": "FOOT"
    },
    {
      "alignedWord": "ball",
      "case": "success",
      "end": 7.6000000000000005,
      "endOffset": 124,
      "phones": [
        {
          "duration": 0.04,
          "phone": "b_B"
        },
        {
          "duration": 0.07,
          "phone": "ao_I"
        },
        {
          "duration": 0.05,
          "phone": "l_E"
        }
      ],
      "start": 7.44,
      "startOffset": 120,
      "word": "BALL"
    },
    {
      "alignedWord": "scrimmage",
      "case": "success",
      "end": 8.14,
      "endOffset": 134,
      "phones": [
        {
          "duration": 0.08,
          "phone": "s_B"
        },
        {
          "duration": 0.06,
          "phone": "k_I"
        },
        {
          "duration": 0.02,
          "phone": "r_I"
        },
        {
          "duration": 0.06,
          "phone": "ih_I"
        },
        {
          "duration": 0.07,
          "phone": "m_I"
        },
        {
          "duration": 0.09,
          "phone": "ih_I"
        },
        {
          "duration": 0.16,
          "phone": "jh_E"
        }
      ],
      "start": 7.6,
      "startOffset": 125,
      "word": "SCRIMMAGE"
    },
    {
      "alignedWord": "old",
      "case": "success",
      "end": 8.76,
      "endOffset": 138,
      "phones": [
        {
          "duration": 0.11,
          "phone": "ow_B"
        },
        {
          "duration": 0.08,
          "phone": "l_I"
        },
        {
          "duration": 0.07,
          "phone": "d_E"
        }
      ],
      "start": 8.5,
      "startOffset": 135,
      "word": "OLD"
    },
    {
      "alignedWord": "spelling",
      "case": "success",
      "end": 9.32,
      "endOffset": 147,
      "phones": [
        {
          "duration": 0.07,
          "phone": "s_B"
        },
        {
          "duration": 0.08,
          "phone": "p_I"
        },
        {
          "duration": 0.09,
          "phone": "eh_I"
        },
        {
          "duration": 0.07,
          "phone": "l_I"
        },
        {
          "duration": 0.09,
          "phone": "ih_I"
        },
        {
          "duration": 0.16,
          "phone": "ng_E"
        }
      ],
      "start": 8.76,
      "startOffset": 139,
      "word": "SPELLING"
    },
    {
      "alignedWord": "bark",
      "case": "success",
      "end": 9.899999999999999,
      "endOffset": 152,
      "phones": [
        {
          "duration": 0.19,
          "phone": "b_B"
        },
        {
          "duration": 0.09,
          "phone": "aa_I"
        },
        {
          "duration": 0.09,
          "phone": "r_I"
        },
        {
          "duration": 0.16,
          "phone": "k_E"
        }
      ],
      "start": 9.37,
      "startOffset": 148,
      "word": "BARK"
    },
    {
      "alignedWord": "gain",
      "case": "success",
      "end": 10.510000000000002,
      "endOffset": 157,
      "phones": [
        {
          "duration": 0.17,
          "phone": "g_B"
        },
        {
          "duration": 0.2,
          "phone": "ey_I"
        },
        {
          "duration": 0.18,
          "phone": "n_E"
        }
      ],
      "start": 9.96,
      "startOffset": 153,
      "word": "GAIN"
    },
    {
      "alignedWord": "baseball",
      "case": "success",
      "end": 12.450000000000001,
      "endOffset": 166,
      "phones": [
        {
          "duration": 0.1,
          "phone": "b_B"
        },
        {
          "duration": 0.11,
          "phone": "ey_I"
        },
        {
          "duration": 0.1,
          "phone": "s_I"
        },
        {
          "duration": 0.07,
          "phone": "b_I"
        },
        {
          "duration": 0.1,
          "phone": "ao_I"
        },
        {
          "duration": 0.24,
          "phone": "l_E"
        }
      ],
      "start": 11.73,
      "startOffset": 158,
      "word": "BASEBALL"
    }
  ]
}