{
  "transcript": "A PERFECTLY FICTITIOUS CO BY THE BYE OF PUTNEY ON THE FOURTEENTH OF AUGUST EIGHTEEN NINETY FIVE HAD TURNED TO THE RIGHT HAND SIDE WHERE THE BLOCKS OF WHITE LINEN AND PILES OF BLANKETS RISE UP TO THE RAIL FROM WHICH THE PINK AND BLUE PRINTS DEPEND",
  "words": [
    {
      "alignedWord": "a",
      "case": "success",
      "end": 0.31,
      "endOffset": 1,
      "phones": [
        {
          "duration": 0.08,
          "phone": "ah_S"
        }
      ],
      "start": 0.23,
      "startOffset": 0,
      "word": "A"
    },
    {
      "alignedWord": "perfectly",
      "case": "success",
      "end": 0.8600000000000001,
      "endOffset": 11,
      "phones": [
        {
          "duration": 0.08,
          "phone": "p_B"
        },
        {
          "duration": 0.09,
          "phone": "er_I"
        },
        {
          "duration": 0.03,
          "phone": "f_I"
        },
        {
          "duration": 0.08,
          "phone": "ah_I"
        },
        {
          "duration": 0.07,
          "phone": "k_I"
        },
        {
          "duration": 0.06,
          "phone": "l_I"
        },
        {
          "duration": 0.14,
          "phone": "iy_E"
        }
      ],
      "start": 0.31,
      "startOffset": 2,
      "word": "PERFECTLY"
    },
    {
      "alignedWord": "fictitious",
      "case": "success",
      "end": 1.53,
      "endOffset": 22,
      "phones": [
        {
          "duration": 0.12,
          "phone": "f_B"
        },
        {
          "duration": 0.07,
          "phone": "ih_I"
        },
        {
          "duration": 0.06,
          "phone": "k_I"
        },
        {
          "duration": 0.05,
          "phone": "t_I"
        },
        {
          "duration": 0.08,
          "phone": "ih_I"
        },
        {
          "duration": 0.11,
          "phone": "sh_I"
        },
        {
          "duration": 0.07,
          "phone": "ah_I"
        },
        {
          "duration": 0.1,
          "phone": "s_E"
        }
      ],
      "start": 0.87,
      "startOffset": 12,
      "word": "FICTITIOUS"
    },
    {
      "alignedWord": "co",
      "case": "success",
      "end": 1.9300000000000002,
      "endOffset": 25,
      "phones": [
        {
          "duration": 0.13,
          "phone": "k_B"
        },
        {
          "duration": 0.23,
          "phone": "ow_E"
        }
      ],
      "start": 1.57,
      "startOffset": 23,
      "word": "CO"
    },
    {
      "alignedWord": "by",
      "case": "success",
      "end": 2.21,
      "endOffset": 28,
      "phones": [
        {
          "duration": 0.1,
          "phone": "b_B"
        },
        {
          "duration": 0.12,
          "phone": "ay_E"
        }
      ],
      "start": 1.99,
      "startOffset": 26,
      "word": "BY"
    },
    {
      "alignedWord": "the",
      "case": "success",
      "end": 2.31,
      "endOffset": 32,
      "phones": [
        {
          "duration": 0.06,
          "phone": "dh_B"
        },
        {
          "duration": 0.03,
          "phone": "ah_E"
        }
      ],
      "start": 2.22,
      "startOffset": 29,
      "word": "THE"
    },
    {
      "alignedWord": "bye",
      "case": "success",
      "end": 2.71,
      "endOffset": 36,
      "phones": [
        {
          "duration": 0.09,
          "phone": "b_B"
        },
        {
          "duration": 0.31,
          "phone": "ay_E"
        }
      ],
      "start": 2.31,
      "startOffset": 33,
      "word": "BYE"
    },
    {
      "alignedWord": "of",
      "case": "success",
      "end": 3.32,
      "endOffset": 39,
      "phones": [
        {
          "duration": 0.08,
          "phone": "ah_B"
        },
        {
          "duration": 0.07,
          "phone": "v_E"
        }
      ],
      "start": 3.17,
      "startOffset": 37,
      "word": "OF"
    },
    {
      "alignedWord": "<unk>",
      "case": "success",
      "end": 3.79,
      "endOffset": 46,
      "phones": [
        {
          "duration": 0.43,
          "phone": "oov_S"
        }
      ],
      "start": 3.36,
      "startOffset": 40,
      "word": "PUTNEY"
    },
    {
      "alignedWord": "on",
      "case": "success",
      "end": 4.04,
      "endOffset": 49,
      "phones": [
        {
          "duration": 0.09,
          "phone": "aa_B"
        },
        {
          "duration": 0.09,
          "phone": "n_E"
        }
      ],
      "start": 3.86,
      "startOffset": 47,
      "word": "ON"
    },
    {
      "alignedWord": "the",
      "case": "success",
      "end": 4.069999999999999,
      "endOffset": 53,
      "phones": [
        {
          "duration": 0.01,
          "phone": "dh_B"
        },
        {
          "duration": 0.01,
          "phone": "ah_E"
        }
      ],
      "start": 4.05,
      "startOffset": 50,
      "word": "THE"
    },
    {
      "alignedWord": "fourteenth",
      "case": "success",
      "end": 4.510000000000001,
      "endOffset": 64,
      "phones": [
        {
          "duration": 0.07,
          "phone": "f_B"
        },
        {
          "duration": 0.1,
          "phone": "ao_I"
        },
        {
          "duration": 0.02,
          "phone": "r_I"
        },
        {
          "duration": 0.08,
          "phone": "t_I"
        },
        {
          "duration": 0.06,
          "phone": "iy_I"
        },
        {
          "duration": 0.05,
          "phone": "n_I"
        },
        {
          "duration": 0.06,
          "phone": "th_E"
        }
      ],
      "start": 4.07,
      "startOffset": 54,
      "word": "FOURTEENTH"
    },
    {
      "alignedWord": "of",
      "case": "success",
      "end": 4.63,
      "endOffset": 67,
      "phones": [
        {
          "duration": 0.03,
          "phone": "ah_B"
        },
        {
          "duration": 0.09,
          "phone": "v_E"
        }
      ],
      "start": 4.51,
      "startOffset": 65,
      "word": "OF"
    },
    {
      "alignedWord": "august",
      "case": "success",
      "end": 5.109999999999999,
      "endOffset": 74,
      "phones": [
        {
          "duration": 0.16,
          "phone": "aa_B"
        },
        {
          "duration": 0.09,
          "phone": "g_I"
        },
        {
          "duration": 0.07,
          "phone": "ah_I"
        },
        {
          "duration": 0.09,
          "phone": "s_I"
        },
        {
          "duration": 0.07,
          "phone": "t_E"
        }
      ],
      "start": 4.63,
      "startOffset": 68,
      "word": "AUGUST"
    },
    {
      "alignedWord": "eighteen",
      "case": "success",
      "end": 5.59,
      "endOffset": 83,
      "phones": [
        {
          "duration": 0.16,
          "phone": "ey_B"
        },
        {
          "duration": 0.12,
          "phone": "t_I"
        },
        {
          "duration": 0.09,
          "phone": "iy_I"
        },
        {
          "duration": 0.08,
          "phone": "n_E"
        }
      ],
      "start": 5.14,
      "startOffset": 75,
      "word": "EIGHTEEN"
    },
    {
      "alignedWord": "ninety",
      "case": "success",
      "end": 5.83,
      "endOffset": 90,
      "phones": [
        {
          "duration": 0.01,
          "phone": "n_B"
        },
        {
          "duration": 0.11,
          "phone": "ay_I"
        },
        {
          "duration": 0.01,
          "phone": "n_I"
        },
        {
          "duration": 0.05,
          "phone": "t_I"
        },
        {
          "duration": 0.06,
          "phone": "iy_E"
        }
      ],
      "start": 5.59,
      "startOffset": 84,
      "word": "NINETY"
    },
    {
      "alignedWord": "five",
      "case": "success",
      "end": 6.22,
      "endOffset": 95,
      "phones": [
        {
          "duration": 0.1,
          "phone": "f_B"
        },
        {
          "duration": 0.19,
          "phone": "ay_I"
        },
        {
          "duration": 0.1,
          "phone": "v_E"
        }
      ],
      "start": 5.83,
      "startOffset": 91,
      "word": "FIVE"
    },
    {
      "alignedWord": "had",
      "case": "success",
      "end": 6.84,
      "endOffset": 99,
      "phones": [
        {
          "duration": 0.07,
          "phone": "hh_B"
        },
        {
          "duration": 0.06,
          "phone": "ae_I"
        },
        {
          "duration": 0.08,
          "phone": "d_E"
        }
      ],
      "start": 6.63,
      "startOffset": 96,
      "word": "HAD"
    },
    {
      "alignedWord": "turned",
      "case": "success",
      "end": 7.12,
      "endOffset": 106,
      "phones": [
        {
          "duration": 0.1,
          "phone": "t_B"
        },
        {
          "duration": 0.09,
          "phone": "er_I"
        },
        {
          "duration": 0.05,
          "phone": "n_I"
        },
        {
          "duration": 0.04,
          "phone": "d_E"
        }
      ],
      "start": 6.84,
      "startOffset": 100,
      "word": "TURNED"
    },
    {
      "alignedWord": "to",
      "case": "success",
      "end": 7.2,
      "endOffset": 109,
      "phones": [
        {
          "duration": 0.01,
          "phone": "t_B"
        },
        {
          "duration": 0.07,
          "phone": "uw_E"
        }
      ],
      "start": 7.12,
      "startOffset": 107,
      "word": "TO"
    },
    {
      "alignedWord": "the",
      "case": "success",
      "end": 7.32,
      "endOffset": 113,
      "phones": [
        {
          "duration": 0.05,
          "phone": "dh_B"
        },
        {
          "duration": 0.07,
          "phone": "ah_E"
        }
      ],
      "start": 7.2,
      "startOffset": 110,
      "word": "THE"
    },
    {
      "alignedWord": "right",
      "case": "success",
      "end": 7.54,
      "endOffset": 119,
      "phones": [
        {
          "duration": 0.06,
          "phone": "r_B"
        },
        {
          "duration": 0.07,
          "phone": "ay_I"
        },
        {
          "duration": 0.09,
          "phone": "t_E"
        }
      ],
      "start": 7.32,
      "startOffset": 114,
      "word": "RIGHT"
    },
    {
      "alignedWord": "hand",
      "case": "success",
      "end": 7.82,
      "endOffset": 124,
      "phones": [
        {
          "duration": 0.06,
          "phone": "hh_B"
        },
        {
          "duration": 0.1,
          "phone": "ae_I"
        },
        {
          "duration": 0.06,
          "phone": "n_I"
        },
        {
          "duration": 0.06,
          "phone": "d_E"
        }
      ],
      "start": 7.54,
      "startOffset": 120,
      "word": "HAND"
    },
    {
      "alignedWord": "side",
      "case": "success",
      "end": 8.32,
      "endOffset": 129,
      "phones": [
        {
          "duration": 0.1,
          "phone": "s_B"
        },
        {
          "duration": 0.24,
          "phone": "ay_I"
        },
        {
          "duration": 0.16,
          "phone": "d_E"
        }
      ],
      "start": 7.82,
      "startOffset": 125,
      "word": "SIDE"
    },
    {
      "alignedWord": "where",
      "case": "success",
      "end": 8.64,
      "endOffset": 135,
      "phones": [
        {
          "duration": 0.07,
          "phone": "w_B"
        },
        {
          "duration": 0.04,
          "phone": "eh_I"
        },
        {
          "duration": 0.05,
          "phone": "r_E"
        }
      ],
      "start": 8.48,
      "startOffset": 130,
      "word": "WHERE"
    },
    {
      "alignedWord": "the",
      "case": "success",
      "end": 8.729999,
      "endOffset": 139,
      "phones": [
        {
          "duration": 0.04,
          "phone": "dh_B"
        },
        {
          "duration": 0.05,
          "phone": "ah_E"
        }
      ],
      "start": 8.639999,
      "startOffset": 136,
      "word": "THE"
    },
    {
      "alignedWord": "blocks",
      "case": "success",
      "end": 9.06,
      "endOffset": 146,
      "phones": [
        {
          "duration": 0.08,
          "phone": "b_B"
        },
        {
          "duration": 0.06,
          "phone": "l_I"
        },
        {
          "duration": 0.06,
          "phone": "aa_I"
        },
        {
          "duration": 0.08,
          "phone": "k_I"
        },
        {
          "duration": 0.05,
          "phone": "s_E"
        }
      ],
      "start": 8.73,
      "startOffset": 140,
      "word": "BLOCKS"
    },
    {
      "alignedWord": "of",
      "case": "success",
      "end": 9.219999,
      "endOffset": 149,
      "phones": [
        {
          "duration": 0.07,
          "phone": "ah_B"
        },
        {
          "duration": 0.09,
          "phone": "v_E"
        }
      ],
      "start": 9.059999,
      "startOffset": 147,
      "word": "OF"
    },
    {
      "alignedWord": "white",
      "case": "success",
      "end": 9.46,
      "endOffset": 155,
      "phones": [
        {
          "duration": 0.06,
          "phone": "w_B"
        },
        {
          "duration": 0.11,
          "phone": "ay_I"
        },
        {
          "duration": 0.07,
          "phone": "t_E"
        }
      ],
      "start": 9.22,
      "startOffset": 150,
      "word": "WHITE"
    },
    {
      "alignedWord": "linen",
      "case": "success",
      "end": 9.8,
      "endOffset": 161,
      "phones": [
        {
          "duration": 0.07,
          "phone": "l_B"
        },
        {
          "duration": 0.07,
          "phone": "ih_I"
        },
        {
          "duration": 0.05,
          "phone": "n_I"
        },
        {
          "duration": 0.06,
          "phone": "ah_I"
        },
        {
          "duration": 0.09,
          "phone": "n_E"
        }
      ],
      "start": 9.46,
      "startOffset": 156,
      "word": "LINEN"
    },
    {
      "alignedWord": "and",
      "case": "success",
      "end": 9.98,
      "endOffset": 165,
      "phones": [
        {
          "duration": 0.03,
          "phone": "ae_B"
        },
        {
          "duration": 0.09,
          "phone": "n_I"
        },
        {
          "duration": 0.06,
          "phone": "d_E"
        }
      ],
      "start": 9.8,
      "startOffset": 162,
      "word": "AND"
    },
    {
      "alignedWord": "piles",
      "case": "success",
      "end": 10.31,
      "endOffset": 171,
      "phones": [
        {
          "duration": 0.08,
          "phone": "p_B"
        },
        {
          "duration": 0.12,
          "phone": "ay_I"
        },
        {
          "duration": 0.08,
          "phone": "l_I"
        },
        {
          "duration": 0.05,
          "phone": "z_E"
        }
      ],
      "start": 9.98,
      "startOffset": 166,
      "word": "PILES"
    },
    {
      "alignedWord": "of",
      "case": "success",
      "end": 10.449999,
      "endOffset": 174,
      "phones": [
        {
          "duration": 0.08,
          "phone": "ah_B"
        },
        {
          "duration": 0.06,
          "phone": "v_E"
        }
      ],
      "start": 10.309999,
      "startOffset": 172,
      "word": "OF"
    },
    {
      "alignedWord": "blankets",
      "case": "success",
      "end": 10.899999999999999,
      "endOffset": 183,
      "phones": [
        {
          "duration": 0.07,
          "phone": "b_B"
        },
        {
          "duration": 0.04,
          "phone": "l_I"
        },
        {
          "duration": 0.07,
          "phone": "ae_I"
        },
        {
          "duration": 0.05,
          "phone": "ng_I"
        },
        {
          "duration": 0.03,
          "phone": "k_I"
        },
        {
          "duration": 0.05,
          "phone": "ah_I"
        },
        {
          "duration": 0.05,
          "phone": "t_I"
        },
        {
          "duration": 0.09,
          "phone": "s_E"
        }
      ],
      "start": 10.45,
      "startOffset": 175,
      "word": "BLANKETS"
    },
    {
      "alignedWord": "rise",
      "case": "success",
      "end": 11.21,
      "endOffset": 188,
      "phones": [
        {
          "duration": 0.1,
          "phone": "r_B"
        },
        {
          "duration": 0.12,
          "phone": "ay_I"
        },
        {
          "duration": 0.09,
          "phone": "z_E"
        }
      ],
      "start": 10.9,
      "startOffset": 184,
      "word": "RISE"
    },
    {
      "alignedWord": "up",
      "case": "success",
      "end": 11.33,
      "endOffset": 191,
      "phones": [
        {
          "duration": 0.07,
          "phone": "ah_B"
        },
        {
          "duration": 0.05,
          "phone": "p_E"
        }
      ],
      "start": 11.21,
      "startOffset": 189,
      "word": "UP"
    },
    {
      "alignedWord": "to",
      "case": "success",
      "end": 11.42,
      "endOffset": 194,
      "phones": [
        {
          "duration": 0.03,
          "phone": "t_B"
        },
        {
          "duration": 0.06,
          "phone": "ih_E"
        }
      ],
      "start": 11.33,
      "startOffset": 192,
      "word": "TO"
    },
    {
      "alignedWord": "the",
      "case": "success",
      "end": 11.53,
      "endOffset": 198,
      "phones": [
        {
          "duration": 0.04,
          "phone": "dh_B"
        },
        {
          "duration": 0.07,
          "phone": "ah_E"
        }
      ],
      "start": 11.42,
      "startOffset": 195,
      "word": "THE"
    },
    {
      "alignedWord": "rail",
      "case": "success",
      "end": 11.799999999999999,
      "endOffset": 203,
      "phones": [
        {
          "duration": 0.08,
          "phone": "r_B"
        },
        {
          "duration": 0.09,
          "phone": "ey_I"
        },
        {
          "duration": 0.1,
          "phone": "l_E"
        }
      ],
      "start": 11.53,
      "startOffset": 199,
      "word": "RAIL"
    },
    {
      "alignedWord": "from",
      "case": "success",
      "end": 12.039999,
      "endOffset": 208,
      "phones": [
        {
          "duration": 0.09,
          "phone": "f_B"
        },
        {
          "duration": 0.06,
          "phone": "er_I"
        },
        {
          "duration": 0.08,
          "phone": "m_E"
        }
      ],
      "start": 11.809999,
      "startOffset": 204,
      "word": "FROM"
    },
    {
      "alignedWord": "which",
      "case": "success",
      "end": 12.26,
      "endOffset": 214,
      "phones": [
        {
          "duration": 0.06,
          "phone": "w_B"
        },
        {
          "duration": 0.05,
          "phone": "ih_I"
        },
        {
          "duration": 0.11,
          "phone": "ch_E"
        }
      ],
      "start": 12.04,
      "startOffset": 209,
      "word": "WHICH"
    },
    {
      "alignedWord": "the",
      "case": "success",
      "end": 12.389999000000001,
      "endOffset": 218,
      "phones": [
        {
          "duration": 0.06,
          "phone": "dh_B"
        },
        {
          "duration": 0.07,
          "phone": "ah_E"
        }
      ],
      "start": 12.259999,
      "startOffset": 215,
      "word": "THE"
    },
    {
      "alignedWord": "pink",
      "case": "success",
      "end": 12.729999,
      "endOffset": 223,
      "phones": [
        {
          "duration": 0.09,
          "phone": "p_B"
        },
        {
          "duration": 0.09,
          "phone": "ih_I"
        },
        {
          "duration": 0.08,
          "phone": "ng_I"
        },
        {
          "duration": 0.08,
          "phone": "k_E"
        }
      ],
      "start": 12.389999,
      "startOffset": 219,
      "word": "PINK"
    },
    {
      "alignedWord": "and",
      "case": "success",
      "end": 12.860000000000001,
      "endOffset": 227,
      "phones": [
        {
          "duration": 0.04,
          "phone": "ae_B"
        },
        {
          "duration": 0.05,
          "phone": "n_I"
        },
        {
          "duration": 0.04,
          "phone": "d_E"
        }
      ],
      "start": 12.73,
      "startOffset": 224,
      "word": "AND"
    },
    {
      "alignedWord": "blue",
      "case": "success",
      "end": 13.07,
      "endOffset": 232,
      "phones": [
        {
          "duration": 0.06,
          "phone": "b_B"
        },
        {
          "duration": 0.08,
          "phone": "l_I"
        },
        {
          "duration": 0.07,
          "phone": "uw_E"
        }
      ],
      "start": 12.86,
      "startOffset": 228,
      "word": "BLUE"
    },
    {
      "alignedWord": "prints",
      "case": "success",
      "end": 13.41,
      "endOffset": 239,
      "phones": [
        {
          "duration": 0.09,
          "phone": "p_B"
        },
        {
          "duration": 0.04,
          "phone": "r_I"
        },
        {
          "duration": 0.08,
          "phone": "ih_I"
        },
        {
          "duration": 0.01,
          "phone": "n_I"
        },
        {
          "duration": 0.05,
          "phone": "t_I"
        },
        {
          "duration": 0.07,
          "phone": "s_E"
        }
      ],
      "start": 13.07,
      "startOffset": 233,
      "word": "PRINTS"
    },
    {
      "alignedWord": "depend",
      "case": "success",
      "end": 14.02,
      "endOffset": 246,
      "phones": [
        {
          "duration": 0.06,
          "phone": "d_B"
        },
        {
          "duration": 0.05,
          "phone": "ih_I"
        },
        {
          "duration": 0.12,
          "phone": "p_I"
        },
        {
          "duration": 0.13,
          "phone": "eh_I"
        },
        {
          "duration": 0.09,
          "phone": "n_I"
        },
        {
          "duration": 0.16,
          "phone": "d_E"
        }
      ],
      "start": 13.41,
      "startOffset": 240,
      "word": "DEPEND"
    }
  ]
}