{
  "transcript": "AS THESE WORDS FELL ON POLYTE'S EARS IT WAS EVIDENT HIS IMPUDENCE AND INDIFFERENCE HAD RECEIVED A SEVERE SHOCK HE SEEMED CONFOUNDED AND HUNG HIS HEAD AS IF THOROUGHLY ABASHED STILL HE PRESERVED AN OBSTINATE SILENCE",
  "words": [
    {
      "alignedWord": "as",
      "case": "success",
      "end": 0.72,
      "endOffset": 2,
      "phones": [
        {
          "duration": 0.12,
          "phone": "eh_B"
        },
        {
          "duration": 0.07,
          "phone": "z_E"
        }
      ],
      "start": 0.53,
      "startOffset": 0,
      "word": "AS"
    },
    {
      "alignedWord": "these",
      "case": "success",
      "end": 0.96,
      "endOffset": 8,
      "phones": [
        {
          "duration": 0.06,
          "phone": "dh_B"
        },
        {
          "duration": 0.09,
          "phone": "iy_I"
        },
        {
          "duration": 0.09,
          "phone": "z_E"
        }
      ],
      "start": 0.72,
      "startOffset": 3,
      "word": "THESE"
    },
    {
      "alignedWord": "words",
      "case": "success",
      "end": 1.27,
      "endOffset": 14,
      "phones": [
        {
          "duration": 0.11,
          "phone": "w_B"
        },
        {
          "duration": 0.06,
          "phone": "er_I"
        },
        {
          "duration": 0.09,
          "phone": "d_I"
        },
        {
          "duration": 0.05,
          "phone": "z_E"
        }
      ],
      "start": 0.96,
      "startOffset": 9,
      "word": "WORDS"
    },
    {
      "alignedWord": "fell",
      "case": "success",
      "end": 1.6,
      "endOffset": 19,
      "phones": [
        {
          "duration": 0.1,
          "phone": "f_B"
        },
        {
          "duration": 0.1,
          "phone": "eh_I"
        },
        {
          "duration": 0.13,
          "phone": "l_E"
        }
      ],
      "start": 1.27,
      "startOffset": 15,
      "word": "FELL"
    },
    {
      "alignedWord": "on",
      "case": "success",
      "end": 1.7100000000000002,
      "endOffset": 22,
      "phones": [
        {
          "duration": 0.01,
          "phone": "aa_B"
        },
        {
          "duration": 0.09,
          "phone": "n_E"
        }
      ],
      "start": 1.61,
      "startOffset": 20,
      "word": "ON"
    },
    {
      "alignedWord": "<unk>",
      "case": "success",
      "end": 2.13,
      "endOffset": 31,
      "phones": [
        {
          "duration": 0.42,
          "phone": "oov_S"
        }
      ],
      "start": 1.71,
      "startOffset": 23,
      "word": "POLYTE'S"
    },
    {
      "alignedWord": "ears",
      "case": "success",
      "end": 2.7,
      "endOffset": 36,
      "phones": [
        {
          "duration": 0.23,
          "phone": "ih_B"
        },
        {
          "duration": 0.18,
          "phone": "r_I"
        },
        {
          "duration": 0.13,
          "phone": "z_E"
        }
      ],
      "start": 2.16,
      "startOffset": 32,
      "word": "EARS"
    },
    {
      "alignedWord": "it",
      "case": "success",
      "end": 3.0100000000000002,
      "endOffset": 39,
      "phones": [
        {
          "duration": 0.11,
          "phone": "ih_B"
        },
        {
          "duration": 0.07,
          "phone": "t_E"
        }
      ],
      "start": 2.83,
      "startOffset": 37,
      "word": "IT"
    },
    {
      "alignedWord": "was",
      "case": "success",
      "end": 3.2199999999999998,
      "endOffset": 43,
      "phones": [
        {
          "duration": 0.04,
          "phone": "w_B"
        },
        {
          "duration": 0.07,
          "phone": "ah_I"
        },
        {
          "duration": 0.1,
          "phone": "z_E"
        }
      ],
      "start": 3.01,
      "startOffset": 40,
      "word": "WAS"
    },
    {
      "alignedWord": "evident",
      "case": "success",
      "end": 3.7399999999999998,
      "endOffset": 51,
      "phones": [
        {
          "duration": 0.12,
          "phone": "eh_B"
        },
        {
          "duration": 0.05,
          "phone": "v_I"
        },
        {
          "duration": 0.09,
          "phone": "ah_I"
        },
        {
          "duration": 0.02,
          "phone": "d_I"
        },
        {
          "duration": 0.07,
          "phone": "ah_I"
        },
        {
          "duration": 0.04,
          "phone": "n_I"
        },
        {
          "duration": 0.09,
          "phone": "t_E"
        }
      ],
      "start": 3.26,
      "startOffset": 44,
      "word": "EVIDENT"
    },
    {
      "alignedWord": "his",
      "case": "success",
      "end": 3.97,
      "endOffset": 55,
      "phones": [
        {
          "duration": 0.06,
          "phone": "hh_B"
        },
        {
          "duration": 0.06,
          "phone": "ih_I"
        },
        {
          "duration": 0.1,
          "phone": "z_E"
        }
      ],
      "start": 3.75,
      "startOffset": 52,
      "word": "HIS"
    },
    {
      "alignedWord": "<unk>",
      "case": "success",
      "end": 4.640000000000001,
      "endOffset": 65,
      "phones": [
        {
          "duration": 0.61,
          "phone": "oov_S"
        }
      ],
      "start": 4.03,
      "startOffset": 56,
      "word": "IMPUDENCE"
    },
    {
      "alignedWord": "and",
      "case": "success",
      "end": 4.76,
      "endOffset": 69,
      "phones": [
        {
          "duration": 0.03,
          "phone": "ah_B"
        },
        {
          "duration": 0.06,
          "phone": "n_I"
        },
        {
          "duration": 0.03,
          "phone": "d_E"
        }
      ],
      "start": 4.64,
      "startOffset": 66,
      "word": "AND"
    },
    {
      "alignedWord": "indifference",
      "case": "success",
      "end": 5.51,
      "endOffset": 82,
      "phones": [
        {
          "duration": 0.08,
          "phone": "ih_B"
        },
        {
          "duration": 0.13,
          "phone": "n_I"
        },
        {
          "duration": 0.01,
          "phone": "d_I"
        },
        {
          "duration": 0.12,
          "phone": "ih_I"
        },
        {
          "duration": 0.09,
          "phone": "f_I"
        },
        {
          "duration": 0.02,
          "phone": "r_I"
        },
        {
          "duration": 0.07,
          "phone": "ah_I"
        },
        {
          "duration": 0.08,
          "phone": "n_I"
        },
        {
          "duration": 0.15,
          "phone": "s_E"
        }
      ],
      "start": 4.76,
      "startOffset": 70,
      "word": "INDIFFERENCE"
    },
    {
      "alignedWord": "had",
      "case": "success",
      "end": 5.97,
      "endOffset": 86,
      "phones": [
        {
          "duration": 0.07,
          "phone": "hh_B"
        },
        {
          "duration": 0.06,
          "phone": "ae_I"
        },
        {
          "duration": 0.07,
          "phone": "d_E"
        }
      ],
      "start": 5.77,
      "startOffset": 83,
      "word": "HAD"
    },
    {
      "alignedWord": "received",
      "case": "success",
      "end": 6.529999999999999,
      "endOffset": 95,
      "phones": [
        {
          "duration": 0.06,
          "phone": "r_B"
        },
        {
          "duration": 0.09,
          "phone": "iy_I"
        },
        {
          "duration": 0.15,
          "phone": "s_I"
        },
        {
          "duration": 0.16,
          "phone": "iy_I"
        },
        {
          "duration": 0.04,
          "phone": "v_I"
        },
        {
          "duration": 0.06,
          "phone": "d_E"
        }
      ],
      "start": 5.97,
      "startOffset": 87,
      "word": "RECEIVED"
    },
    {
      "alignedWord": "a",
      "case": "success",
      "end": 6.62,
      "endOffset": 97,
      "phones": [
        {
          "duration": 0.09,
          "phone": "ah_S"
        }
      ],
      "start": 6.53,
      "startOffset": 96,
      "word": "A"
    },
    {
      "alignedWord": "severe",
      "case": "success",
      "end": 7.1,
      "endOffset": 104,
      "phones": [
        {
          "duration": 0.1,
          "phone": "s_B"
        },
        {
          "duration": 0.06,
          "phone": "ah_I"
        },
        {
          "duration": 0.1,
          "phone": "v_I"
        },
        {
          "duration": 0.1,
          "phone": "ih_I"
        },
        {
          "duration": 0.12,
          "phone": "r_E"
        }
      ],
      "start": 6.62,
      "startOffset": 98,
      "word": "SEVERE"
    },
    {
      "alignedWord": "shock",
      "case": "success",
      "end": 7.609999999999999,
      "endOffset": 110,
      "phones": [
        {
          "duration": 0.16,
          "phone": "sh_B"
        },
        {
          "duration": 0.14,
          "phone": "aa_I"
        },
        {
          "duration": 0.21,
          "phone": "k_E"
        }
      ],
      "start": 7.1,
      "startOffset": 105,
      "word": "SHOCK"
    },
    {
      "alignedWord": "he",
      "case": "success",
      "end": 8.14,
      "endOffset": 113,
      "phones": [
        {
          "duration": 0.09,
          "phone": "hh_B"
        },
        {
          "duration": 0.08,
          "phone": "iy_E"
        }
      ],
      "start": 7.97,
      "startOffset": 111,
      "word": "HE"
    },
    {
      "alignedWord": "seemed",
      "case": "success",
      "end": 8.439999,
      "endOffset": 120,
      "phones": [
        {
          "duration": 0.11,
          "phone": "s_B"
        },
        {
          "duration": 0.08,
          "phone": "iy_I"
        },
        {
          "duration": 0.07,
          "phone": "m_I"
        },
        {
          "duration": 0.04,
          "phone": "d_E"
        }
      ],
      "start": 8.139999,
      "startOffset": 114,
      "word": "SEEMED"
    },
    {
      "alignedWord": "<unk>",
      "case": "success",
      "end": 9.25,
      "endOffset": 131,
      "phones": [
        {
          "duration": 0.78,
          "phone": "oov_S"
        }
      ],
      "start": 8.47,
      "startOffset": 121,
      "word": "CONFOUNDED"
    },
    {
      "alignedWord": "and",
      "case": "success",
      "end": 9.62,
      "endOffset": 135,
      "phones": [
        {
          "duration": 0.09,
          "phone": "ae_B"
        },
        {
          "duration": 0.06,
          "phone": "n_I"
        },
        {
          "duration": 0.05,
          "phone": "d_E"
        }
      ],
      "start": 9.42,
      "startOffset": 132,
      "word": "AND"
    },
    {
      "alignedWord": "hung",
      "case": "success",
      "end": 9.84,
      "endOffset": 140,
      "phones": [
        {
          "duration": 0.06,
          "phone": "hh_B"
        },
        {
          "duration": 0.1,
          "phone": "ah_I"
        },
        {
          "duration": 0.06,
          "phone": "ng_E"
        }
      ],
      "start": 9.62,
      "startOffset": 136,
      "word": "HUNG"
    },
    {
      "alignedWord": "his",
      "case": "success",
      "end": 10.06,
      "endOffset": 144,
      "phones": [
        {
          "duration": 0.05,
          "phone": "hh_B"
        },
        {
          "duration": 0.07,
          "phone": "ih_I"
        },
        {
          "duration": 0.1,
          "phone": "z_E"
        }
      ],
      "start": 9.84,
      "startOffset": 141,
      "word": "HIS"
    },
    {
      "alignedWord": "head",
      "case": "success",
      "end": 10.329998999999999,
      "endOffset": 149,
      "phones": [
        {
          "duration": 0.07,
          "phone": "hh_B"
        },
        {
          "duration": 0.11,
          "phone": "eh_I"
        },
        {
          "duration": 0.09,
          "phone": "d_E"
        }
      ],
      "start": 10.059999,
      "startOffset": 145,
      "word": "HEAD"
    },
    {
      "alignedWord": "as",
      "case": "success",
      "end": 10.51,
      "endOffset": 152,
      "phones": [
        {
          "duration": 0.09,
          "phone": "eh_B"
        },
        {
          "duration": 0.09,
          "phone": "z_E"
        }
      ],
      "start": 10.33,
      "startOffset": 150,
      "word": "AS"
    },
    {
      "alignedWord": "if",
      "case": "success",
      "end": 10.68,
      "endOffset": 155,
      "phones": [
        {
          "duration": 0.11,
          "phone": "ih_B"
        },
        {
          "duration": 0.06,
          "phone": "f_E"
        }
      ],
      "start": 10.51,
      "startOffset": 153,
      "word": "IF"
    },
    {
      "alignedWord": "thoroughly",
      "case": "success",
      "end": 11.209999,
      "endOffset": 166,
      "phones": [
        {
          "duration": 0.13,
          "phone": "th_B"
        },
        {
          "duration": 0.12,
          "phone": "er_I"
        },
        {
          "duration": 0.06,
          "phone": "ow_I"
        },
        {
          "duration": 0.09,
          "phone": "l_I"
        },
        {
          "duration": 0.13,
          "phone": "iy_E"
        }
      ],
      "start": 10.679999,
      "startOffset": 156,
      "word": "THOROUGHLY"
    },
    {
      "alignedWord": "<unk>",
      "case": "success",
      "end": 11.879999,
      "endOffset": 174,
      "phones": [
        {
          "duration": 0.66,
          "phone": "oov_S"
        }
      ],
      "start": 11.219999,
      "startOffset": 167,
      "word": "ABASHED"
    },
    {
      "alignedWord": "still",
      "case": "success",
      "end": 12.93,
      "endOffset": 180,
      "phones": [
        {
          "duration": 0.15,
          "phone": "s_B"
        },
        {
          "duration": 0.07,
          "phone": "t_I"
        },
        {
          "duration": 0.14,
          "phone": "ih_I"
        },
        {
          "duration": 0.15,
          "phone": "l_E"
        }
      ],
      "start": 12.42,
      "startOffset": 175,
      "word": "STILL"
    },
    {
      "alignedWord": "he",
      "case": "success",
      "end": 13.109999,
      "endOffset": 183,
      "phones": [
        {
          "duration": 0.09,
          "phone": "hh_B"
        },
        {
          "duration": 0.09,
          "phone": "iy_E"
        }
      ],
      "start": 12.929999,
      "startOffset": 181,
      "word": "HE"
    },
    {
      "alignedWord": "preserved",
      "case": "success",
      "end": 13.74,
      "endOffset": 193,
      "phones": [
        {
          "duration": 0.08,
          "phone": "p_B"
        },
        {
          "duration": 0.05,
          "phone": "r_I"
        },
        {
          "duration": 0.07,
          "phone": "iy_I"
        },
        {
          "duration": 0.11,
          "phone": "z_I"
        },
        {
          "duration": 0.22,
          "phone": "er_I"
        },
        {
          "duration": 0.05,
          "phone": "v_I"
        },
        {
          "duration": 0.05,
          "phone": "d_E"
        }
      ],
      "start": 13.11,
      "startOffset": 184,
      "word": "PRESERVED"
    },
    {
      "alignedWord": "an",
      "case": "success",
      "end": 13.91,
      "endOffset": 196,
      "phones": [
        {
          "duration": 0.03,
          "phone": "ah_B"
        },
        {
          "duration": 0.14,
          "phone": "n_E"
        }
      ],
      "start": 13.74,
      "startOffset": 194,
      "word": "AN"
    },
    {
      "alignedWord": "obstinate",
      "case": "success",
      "end": 14.599999,
      "endOffset": 206,
      "phones": [
        {
          "duration": 0.13,
          "phone": "aa_B"
        },
        {
          "duration": 0.11,
          "phone": "b_I"
        },
        {
          "duration": 0.06,
          "phone": "s_I"
        },
        {
          "duration": 0.06,
          "phone": "t_I"
        },
        {
          "duration": 0.07,
          "phone": "ah_I"
        },
        {
          "duration": 0.03,
          "phone": "n_I"
        },
        {
          "duration": 0.08,
          "phone": "ah_I"
        },
        {
          "duration": 0.09,
          "phone": "t_E"
        }
      ],
      "start": 13.969999,
      "startOffset": 197,
      "word": "OBSTINATE"
    },
    {
      "alignedWord": "silence",
      "case": "success",
      "end": 15.139999,
      "endOffset": 214,
      "phones": [
        {
          "duration": 0.14,
          "phone": "s_B"
        },
        {
          "duration": 0.11,
          "phone": "ay_I"
        },
        {
          "duration": 0.05,
          "phone": "l_I"
        },
        {
          "duration": 0.07,
          "phone": "ah_I"
        },
        {
          "duration": 0.08,
          "phone": "n_I"
        },
        {
          "duration": 0.09,
          "phone": "s_E"
        }
      ],
      "start": 14.599999,
      "startOffset": 207,
      "word": "SILENCE"
    }
  ]
}