{
  "transcript": "TI TI AND PITI PITI PITI BOOM FLOPPED THE FLY AND HIS ATTENTION WAS SUDDENLY CARRIED INTO ANOTHER WORLD",
  "words": [
    {
      "alignedWord": "ti",
      "case": "success",
      "end": 0.68,
      "endOffset": 2,
      "phones": [
        {
          "duration": 0.14,
          "phone": "t_B"
        },
        {
          "duration": 0.32,
          "phone": "iy_E"
        }
      ],
      "start": 0.22,
      "startOffset": 0,
      "word": "TI"
    },
    {
      "alignedWord": "ti",
      "case": "success",
      "end": 1.53,
      "endOffset": 5,
      "phones": [
        {
          "duration": 0.11,
          "phone": "t_B"
        },
        {
          "duration": 0.37,
          "phone": "iy_E"
        }
      ],
      "start": 1.05,
      "startOffset": 3,
      "word": "TI"
    },
    {
      "alignedWord": "and",
      "case": "success",
      "end": 2.63,
      "endOffset": 9,
      "phones": [
        {
          "duration": 0.13,
          "phone": "ae_B"
        },
        {
          "duration": 0.07,
          "phone": "n_I"
        },
        {
          "duration": 0.1,
          "phone": "d_E"
        }
      ],
      "start": 2.33,
      "startOffset": 6,
      "word": "AND"
    },
    {
      "alignedWord": "<unk>",
      "case": "success",
      "end": 4.05,
      "endOffset": 14,
      "phones": [
        {
          "duration": 0.31,
          "phone": "oov_S"
        }
      ],
      "start": 3.74,
      "startOffset": 10,
      "word": "PITI"
    },
    {
      "alignedWord": "<unk>",
      "case": "success",
      "end": 4.390000000000001,
      "endOffset": 19,
      "phones": [
        {
          "duration": 0.2,
          "phone": "oov_S"
        }
      ],
      "start": 4.19,
      "startOffset": 15,
      "word": "PITI"
    },
    {
      "alignedWord": "<unk>",
      "case": "success",
      "end": 4.69,
      "endOffset": 24,
      "phones": [
        {
          "duration": 0.23,
          "phone": "oov_S"
        }
      ],
      "start": 4.46,
      "startOffset": 20,
      "word": "PITI"
    },
    {
      "alignedWord": "boom",
      "case": "success",
      "end": 5.27,
      "endOffset": 29,
      "phones": [
        {
          "duration": 0.12,
          "phone": "b_B"
        },
        {
          "duration": 0.2,
          "phone": "uw_I"
        },
        {
          "duration": 0.18,
          "phone": "m_E"
        }
      ],
      "start": 4.77,
      "startOffset": 25,
      "word": "BOOM"
    },
    {
      "alignedWord": "flopped",
      "case": "success",
      "end": 6.25,
      "endOffset": 37,
      "phones": [
        {
          "duration": 0.14,
          "phone": "f_B"
        },
        {
          "duration": 0.06,
          "phone": "l_I"
        },
        {
          "duration": 0.08,
          "phone": "aa_I"
        },
        {
          "duration": 0.09,
          "phone": "p_I"
        },
        {
          "duration": 0.06,
          "phone": "t_E"
        }
      ],
      "start": 5.82,
      "startOffset": 30,
      "word": "FLOPPED"
    },
    {
      "alignedWord": "the",
      "case": "success",
      "end": 6.41,
      "endOffset": 41,
      "phones": [
        {
          "duration": 0.08,
          "phone": "dh_B"
        },
        {
          "duration": 0.05,
          "phone": "ah_E"
        }
      ],
      "start": 6.28,
      "startOffset": 38,
      "word": "THE"
    },
    {
      "alignedWord": "fly",
      "case": "success",
      "end": 7.01,
      "endOffset": 45,
      "phones": [
        {
          "duration": 0.13,
          "phone": "f_B"
        },
        {
          "duration": 0.08,
          "phone": "l_I"
        },
        {
          "duration": 0.39,
          "phone": "ay_E"
        }
      ],
      "start": 6.41,
      "startOffset": 42,
      "word": "FLY"
    },
    {
      "alignedWord": "and",
      "case": "success",
      "end": 7.22,
      "endOffset": 49,
      "phones": [
        {
          "duration": 0.07,
          "phone": "ae_B"
        },
        {
          "duration": 0.05,
          "phone": "n_I"
        },
        {
          "duration": 0.02,
          "phone": "d_E"
        }
      ],
      "start": 7.08,
      "startOffset": 46,
      "word": "AND"
    },
    {
      "alignedWord": "his",
      "case": "success",
      "end": 7.34,
      "endOffset": 53,
      "phones": [
        {
          "duration": 0.01,
          "phone": "hh_B"
        },
        {
          "duration": 0.05,
          "phone": "ih_I"
        },
        {
          "duration": 0.06,
          "phone": "z_E"
        }
      ],
      "start": 7.22,
      "startOffset": 50,
      "word": "HIS"
    },
    {
      "alignedWord": "attention",
      "case": "success",
      "end": 7.7,
      "endOffset": 63,
      "phones": [
        {
          "duration": 0.06,
          "phone": "ah_B"
        },
        {
          "duration": 0.05,
          "phone": "t_I"
        },
        {
          "duration": 0.06,
          "phone": "eh_I"
        },
        {
          "duration": 0.05,
          "phone": "n_I"
        },
        {
          "duration": 0.06,
          "phone": "sh_I"
        },
        {
          "duration": 0.04,
          "phone": "ah_I"
        },
        {
          "duration": 0.04,
          "phone": "n_E"
        }
      ],
      "start": 7.34,
      "startOffset": 54,
      "word": "ATTENTION"
    },
    {
      "alignedWord": "was",
      "case": "success",
      "end": 7.8500000000000005,
      "endOffset": 67,
      "phones": [
        {
          "duration": 0.04,
          "phone": "w_B"
        },
        {
          "duration": 0.04,
          "phone": "ah_I"
        },
        {
          "duration": 0.07,
          "phone": "z_E"
        }
      ],
      "start": 7.7,
      "startOffset": 64,
      "word": "WAS"
    },
    {
      "alignedWord": "suddenly",
      "case": "success",
      "end": 8.19,
      "endOffset": 76,
      "phones": [
        {
          "duration": 0.06,
          "phone": "s_B"
        },
        {
          "duration": 0.07,
          "phone": "ah_I"
        },
        {
          "duration": 0.01,
          "phone": "d_I"
        },
        {
          "duration": 0.01,
          "phone": "ah_I"
        },
        {
          "duration": 0.06,
          "phone": "n_I"
        },
        {
          "duration": 0.05,
          "phone": "l_I"
        },
        {
          "duration": 0.08,
          "phone": "iy_E"
        }
      ],
      "start": 7.85,
      "startOffset": 68,
      "word": "SUDDENLY"
    },
    {
      "alignedWord": "carried",
      "case": "success",
      "end": 8.54,
      "endOffset": 84,
      "phones": [
        {
          "duration": 0.1,
          "phone": "k_B"
        },
        {
          "duration": 0.06,
          "phone": "eh_I"
        },
        {
          "duration": 0.1,
          "phone": "r_I"
        },
        {
          "duration": 0.05,
          "phone": "iy_I"
        },
        {
          "duration": 0.04,
          "phone": "d_E"
        }
      ],
      "start": 8.19,
      "startOffset": 77,
      "word": "CARRIED"
    },
    {
      "alignedWord": "into",
      "case": "success",
      "end": 8.809999999999999,
      "endOffset": 89,
      "phones": [
        {
          "duration": 0.06,
          "phone": "ih_B"
        },
        {
          "duration": 0.06,
          "phone": "n_I"
        },
        {
          "duration": 0.08,
          "phone": "t_I"
        },
        {
          "duration": 0.07,
          "phone": "uw_E"
        }
      ],
      "start": 8.54,
      "startOffset": 85,
      "word": "INTO"
    },
    {
      "alignedWord": "another",
      "case": "success",
      "end": 9.169998999999999,
      "endOffset": 97,
      "phones": [
        {
          "duration": 0.07,
          "phone": "ah_B"
        },
        {
          "duration": 0.08,
          "phone": "n_I"
        },
        {
          "duration": 0.06,
          "phone": "ah_I"
        },
        {
          "duration": 0.07,
          "phone": "dh_I"
        },
        {
          "duration": 0.08,
          "phone": "er_E"
        }
      ],
      "start": 8.809999,
      "startOffset": 90,
      "word": "ANOTHER"
    },
    {
      "alignedWord": "world",
      "case": "success",
      "end": 9.65,
      "endOffset": 103,
      "phones": [
        {
          "duration": 0.14,
          "phone": "w_B"
        },
        {
          "duration": 0.12,
          "phone": "er_I"
        },
        {
          "duration": 0.08,
          "phone": "l_I"
        },
        {
          "duration": 0.14,
          "phone": "d_E"
        }
      ],
      "start": 9.17,
      "startOffset": 98,
      "word": "WORLD"
    }
  ]
}