{
  "transcript": "AND THE DOCTOR HAD TO ADMIT THAT HE HAD NOT EXPECTED FROM A YOUNG GIRL EITHER SUCH FIRMNESS OR SUCH SKILL IN NURSING A WOUNDED MAN DREADFUL AS THE COUNTESS IMAGINED IT WOULD BE SHOULD PRINCE ANDREW DIE IN HER DAUGHTER'S ARMS DURING THE JOURNEY",
  "words": [
    {
      "alignedWord": "and",
      "case": "success",
      "end": 0.32,
      "endOffset": 3,
      "phones": [
        {
          "duration": 0.06,
          "phone": "ae_B"
        },
        {
          "duration": 0.05,
          "phone": "n_I"
        },
        {
          "duration": 0.05,
          "phone": "d_E"
        }
      ],
      "start": 0.16,
      "startOffset": 0,
      "word": "AND"
    },
    {
      "alignedWord": "the",
      "case": "success",
      "end": 0.38,
      "endOffset": 7,
      "phones": [
        {
          "duration": 0.01,
          "phone": "dh_B"
        },
        {
          "duration": 0.05,
          "phone": "ah_E"
        }
      ],
      "start": 0.32,
      "startOffset": 4,
      "word": "THE"
    },
    {
      "alignedWord": "doctor",
      "case": "success",
      "end": 0.77,
      "endOffset": 14,
      "phones": [
        {
          "duration": 0.07,
          "phone": "d_B"
        },
        {
          "duration": 0.11,
          "phone": "aa_I"
        },
        {
          "duration": 0.07,
          "phone": "k_I"
        },
        {
          "duration": 0.06,
          "phone": "t_I"
        },
        {
          "duration": 0.08,
          "phone": "er_E"
        }
      ],
      "start": 0.38,
      "startOffset": 8,
      "word": "DOCTOR"
    },
    {
      "alignedWord": "had",
      "case": "success",
      "end": 1.01,
      "endOffset": 18,
      "phones": [
        {
          "duration": 0.08,
          "phone": "hh_B"
        },
        {
          "duration": 0.08,
          "phone": "ae_I"
        },
        {
          "duration": 0.07,
          "phone": "d_E"
        }
      ],
      "start": 0.78,
      "startOffset": 15,
      "word": "HAD"
    },
    {
      "alignedWord": "to",
      "case": "success",
      "end": 1.1400000000000001,
      "endOffset": 21,
      "phones": [
        {
          "duration": 0.05,
          "phone": "t_B"
        },
        {
          "duration": 0.08,
          "phone": "uw_E"
        }
      ],
      "start": 1.01,
      "startOffset": 19,
      "word": "TO"
    },
    {
      "alignedWord": "admit",
      "case": "success",
      "end": 1.5299999999999998,
      "endOffset": 27,
      "phones": [
        {
          "duration": 0.04,
          "phone": "ah_B"
        },
        {
          "duration": 0.08,
          "phone": "d_I"
        },
        {
          "duration": 0.08,
          "phone": "m_I"
        },
        {
          "duration": 0.11,
          "phone": "ih_I"
        },
        {
          "duration": 0.08,
          "phone": "t_E"
        }
      ],
      "start": 1.14,
      "startOffset": 22,
      "word": "ADMIT"
    },
    {
      "alignedWord": "that",
      "case": "success",
      "end": 1.71,
      "endOffset": 32,
      "phones": [
        {
          "duration": 0.06,
          "phone": "dh_B"
        },
        {
          "duration": 0.05,
          "phone": "ah_I"
        },
        {
          "duration": 0.05,
          "phone": "t_E"
        }
      ],
      "start": 1.55,
      "startOffset": 28,
      "word": "THAT"
    },
    {
      "alignedWord": "he",
      "case": "success",
      "end": 1.81,
      "endOffset": 35,
      "phones": [
        {
          "duration": 0.04,
          "phone": "hh_B"
        },
        {
          "duration": 0.06,
          "phone": "iy_E"
        }
      ],
      "start": 1.71,
      "startOffset": 33,
      "word": "HE"
    },
    {
      "alignedWord": "had",
      "case": "success",
      "end": 1.9200000000000002,
      "endOffset": 39,
      "phones": [
        {
          "duration": 0.01,
          "phone": "hh_B"
        },
        {
          "duration": 0.03,
          "phone": "ae_I"
        },
        {
          "duration": 0.07,
          "phone": "d_E"
        }
      ],
      "start": 1.81,
      "startOffset": 36,
      "word": "HAD"
    },
    {
      "alignedWord": "not",
      "case": "success",
      "end": 2.16,
      "endOffset": 43,
      "phones": [
        {
          "duration": 0.04,
          "phone": "n_B"
        },
        {
          "duration": 0.13,
          "phone": "aa_I"
        },
        {
          "duration": 0.07,
          "phone": "t_E"
        }
      ],
      "start": 1.92,
      "startOffset": 40,
      "word": "NOT"
    },
    {
      "alignedWord": "expected",
      "case": "success",
      "end": 2.8200000000000003,
      "endOffset": 52,
      "phones": [
        {
          "duration": 0.08,
          "phone": "ih_B"
        },
        {
          "duration": 0.08,
          "phone": "k_I"
        },
        {
          "duration": 0.06,
          "phone": "s_I"
        },
        {
          "duration": 0.09,
          "phone": "p_I"
        },
        {
          "duration": 0.08,
          "phone": "eh_I"
        },
        {
          "duration": 0.06,
          "phone": "k_I"
        },
        {
          "duration": 0.05,
          "phone": "t_I"
        },
        {
          "duration": 0.06,
          "phone": "ih_I"
        },
        {
          "duration": 0.08,
          "phone": "d_E"
        }
      ],
      "start": 2.18,
      "startOffset": 44,
      "word": "EXPECTED"
    },
    {
      "alignedWord": "from",
      "case": "success",
      "end": 3.01,
      "endOffset": 57,
      "phones": [
        {
          "duration": 0.05,
          "phone": "f_B"
        },
        {
          "duration": 0.07,
          "phone": "er_I"
        },
        {
          "duration": 0.07,
          "phone": "m_E"
        }
      ],
      "start": 2.82,
      "startOffset": 53,
      "word": "FROM"
    },
    {
      "alignedWord": "a",
      "case": "success",
      "end": 3.0799999999999996,
      "endOffset": 59,
      "phones": [
        {
          "duration": 0.07,
          "phone": "ey_S"
        }
      ],
      "start": 3.01,
      "startOffset": 58,
      "word": "A"
    },
    {
      "alignedWord": "young",
      "case": "success",
      "end": 3.55,
      "endOffset": 65,
      "phones": [
        {
          "duration": 0.09,
          "phone": "y_B"
        },
        {
          "duration": 0.12,
          "phone": "ah_I"
        },
        {
          "duration": 0.26,
          "phone": "ng_E"
        }
      ],
      "start": 3.08,
      "startOffset": 60,
      "word": "YOUNG"
    },
    {
      "alignedWord": "girl",
      "case": "success",
      "end": 4.140000000000001,
      "endOffset": 70,
      "phones": [
        {
          "duration": 0.12,
          "phone": "g_B"
        },
        {
          "duration": 0.18,
          "phone": "er_I"
        },
        {
          "duration": 0.22,
          "phone": "l_E"
        }
      ],
      "start": 3.62,
      "startOffset": 66,
      "word": "GIRL"
    },
    {
      "alignedWord": "either",
      "case": "success",
      "end": 5.0,
      "endOffset": 77,
      "phones": [
        {
          "duration": 0.15,
          "phone": "iy_B"
        },
        {
          "duration": 0.08,
          "phone": "dh_I"
        },
        {
          "duration": 0.08,
          "phone": "er_E"
        }
      ],
      "start": 4.69,
      "startOffset": 71,
      "word": "EITHER"
    },
    {
      "alignedWord": "such",
      "case": "success",
      "end": 5.31,
      "endOffset": 82,
      "phones": [
        {
          "duration": 0.07,
          "phone": "s_B"
        },
        {
          "duration": 0.1,
          "phone": "ah_I"
        },
        {
          "duration": 0.14,
          "phone": "ch_E"
        }
      ],
      "start": 5.0,
      "startOffset": 78,
      "word": "SUCH"
    },
    {
      "alignedWord": "<unk>",
      "case": "success",
      "end": 5.909999999999999,
      "endOffset": 91,
      "phones": [
        {
          "duration": 0.6,
          "phone": "oov_S"
        }
      ],
      "start": 5.31,
      "startOffset": 83,
      "word": "FIRMNESS"
    },
    {
      "alignedWord": "or",
      "case": "success",
      "end": 6.109999999999999,
      "endOffset": 94,
      "phones": [
        {
          "duration": 0.09,
          "phone": "ao_B"
        },
        {
          "duration": 0.09,
          "phone": "r_E"
        }
      ],
      "start": 5.93,
      "startOffset": 92,
      "word": "OR"
    },
    {
      "alignedWord": "such",
      "case": "success",
      "end": 6.430000000000001,
      "endOffset": 99,
      "phones": [
        {
          "duration": 0.09,
          "phone": "s_B"
        },
        {
          "duration": 0.11,
          "phone": "ah_I"
        },
        {
          "duration": 0.12,
          "phone": "ch_E"
        }
      ],
      "start": 6.11,
      "startOffset": 95,
      "word": "SUCH"
    },
    {
      "alignedWord": "skill",
      "case": "success",
      "end": 6.89,
      "endOffset": 105,
      "phones": [
        {
          "duration": 0.09,
          "phone": "s_B"
        },
        {
          "duration": 0.08,
          "phone": "k_I"
        },
        {
          "duration": 0.15,
          "phone": "ih_I"
        },
        {
          "duration": 0.14,
          "phone": "l_E"
        }
      ],
      "start": 6.43,
      "startOffset": 100,
      "word": "SKILL"
    },
    {
      "alignedWord": "in",
      "case": "success",
      "end": 7.090000000000001,
      "endOffset": 108,
      "phones": [
        {
          "duration": 0.08,
          "phone": "ih_B"
        },
        {
          "duration": 0.11,
          "phone": "n_E"
        }
      ],
      "start": 6.9,
      "startOffset": 106,
      "word": "IN"
    },
    {
      "alignedWord": "nursing",
      "case": "success",
      "end": 7.49,
      "endOffset": 116,
      "phones": [
        {
          "duration": 0.04,
          "phone": "n_B"
        },
        {
          "duration": 0.12,
          "phone": "er_I"
        },
        {
          "duration": 0.1,
          "phone": "s_I"
        },
        {
          "duration": 0.08,
          "phone": "ih_I"
        },
        {
          "duration": 0.06,
          "phone": "ng_E"
        }
      ],
      "start": 7.09,
      "startOffset": 109,
      "word": "NURSING"
    },
    {
      "alignedWord": "a",
      "case": "success",
      "end": 7.55,
      "endOffset": 118,
      "phones": [
        {
          "duration": 0.06,
          "phone": "ah_S"
        }
      ],
      "start": 7.49,
      "startOffset": 117,
      "word": "A"
    },
    {
      "alignedWord": "wounded",
      "case": "success",
      "end": 7.95,
      "endOffset": 126,
      "phones": [
        {
          "duration": 0.1,
          "phone": "w_B"
        },
        {
          "duration": 0.1,
          "phone": "uw_I"
        },
        {
          "duration": 0.04,
          "phone": "n_I"
        },
        {
          "duration": 0.04,
          "phone": "d_I"
        },
        {
          "duration": 0.05,
          "phone": "ih_I"
        },
        {
          "duration": 0.07,
          "phone": "d_E"
        }
      ],
      "start": 7.55,
      "startOffset": 119,
      "word": "WOUNDED"
    },
    {
      "alignedWord": "man",
      "case": "success",
      "end": 8.41,
      "endOffset": 130,
      "phones": [
        {
          "duration": 0.07,
          "phone": "m_B"
        },
        {
          "duration": 0.16,
          "phone": "ae_I"
        },
        {
          "duration": 0.23,
          "phone": "n_E"
        }
      ],
      "start": 7.95,
      "startOffset": 127,
      "word": "MAN"
    },
    {
      "alignedWord": "dreadful",
      "case": "success",
      "end": 9.72,
      "endOffset": 139,
      "phones": [
        {
          "duration": 0.08,
          "phone": "d_B"
        },
        {
          "duration": 0.06,
          "phone": "r_I"
        },
        {
          "duration": 0.07,
          "phone": "eh_I"
        },
        {
          "duration": 0.06,
          "phone": "d_I"
        },
        {
          "duration": 0.06,
          "phone": "f_I"
        },
        {
          "duration": 0.06,
          "phone": "ah_I"
        },
        {
          "duration": 0.08,
          "phone": "l_E"
        }
      ],
      "start": 9.25,
      "startOffset": 131,
      "word": "DREADFUL"
    },
    {
      "alignedWord": "as",
      "case": "success",
      "end": 9.869999,
      "endOffset": 142,
      "phones": [
        {
          "duration": 0.07,
          "phone": "eh_B"
        },
        {
          "duration": 0.08,
          "phone": "z_E"
        }
      ],
      "start": 9.719999,
      "startOffset": 140,
      "word": "AS"
    },
    {
      "alignedWord": "the",
      "case": "success",
      "end": 10.0,
      "endOffset": 146,
      "phones": [
        {
          "duration": 0.05,
          "phone": "dh_B"
        },
        {
          "duration": 0.08,
          "phone": "ah_E"
        }
      ],
      "start": 9.87,
      "startOffset": 143,
      "word": "THE"
    },
    {
      "alignedWord": "<unk>",
      "case": "success",
      "end": 10.44,
      "endOffset": 155,
      "phones": [
        {
          "duration": 0.44,
          "phone": "oov_S"
        }
      ],
      "start": 10.0,
      "startOffset": 147,
      "word": "COUNTESS"
    },
    {
      "alignedWord": "imagined",
      "case": "success",
      "end": 10.94,
      "endOffset": 164,
      "phones": [
        {
          "duration": 0.01,
          "phone": "ih_B"
        },
        {
          "duration": 0.1,
          "phone": "m_I"
        },
        {
          "duration": 0.13,
          "phone": "ae_I"
        },
        {
          "duration": 0.1,
          "phone": "jh_I"
        },
        {
          "duration": 0.05,
          "phone": "ah_I"
        },
        {
          "duration": 0.06,
          "phone": "n_I"
        },
        {
          "duration": 0.05,
          "phone": "d_E"
        }
      ],
      "start": 10.44,
      "startOffset": 156,
      "word": "IMAGINED"
    },
    {
      "alignedWord": "it",
      "case": "success",
      "end": 11.069999999999999,
      "endOffset": 167,
      "phones": [
        {
          "duration": 0.05,
          "phone": "ih_B"
        },
        {
          "duration": 0.07,
          "phone": "t_E"
        }
      ],
      "start": 10.95,
      "startOffset": 165,
      "word": "IT"
    },
    {
      "alignedWord": "would",
      "case": "success",
      "end": 11.3,
      "endOffset": 173,
      "phones": [
        {
          "duration": 0.01,
          "phone": "w_B"
        },
        {
          "duration": 0.09,
          "phone": "uh_I"
        },
        {
          "duration": 0.13,
          "phone": "d_E"
        }
      ],
      "start": 11.07,
      "startOffset": 168,
      "word": "WOULD"
    },
    {
      "alignedWord": "be",
      "case": "success",
      "end": 11.95,
      "endOffset": 176,
      "phones": [
        {
          "duration": 0.1,
          "phone": "b_B"
        },
        {
          "duration": 0.31,
          "phone": "iy_E"
        }
      ],
      "start": 11.54,
      "startOffset": 174,
      "word": "BE"
    },
    {
      "alignedWord": "should",
      "case": "success",
      "end": 12.3,
      "endOffset": 183,
      "phones": [
        {
          "duration": 0.16,
          "phone": "sh_B"
        },
        {
          "duration": 0.09,
          "phone": "uh_I"
        },
        {
          "duration": 0.09,
          "phone": "d_E"
        }
      ],
      "start": 11.96,
      "startOffset": 177,
      "word": "SHOULD"
    },
    {
      "alignedWord": "prince",
      "case": "success",
      "end": 12.58,
      "endOffset": 190,
      "phones": [
        {
          "duration": 0.06,
          "phone": "p_B"
        },
        {
          "duration": 0.02,
          "phone": "r_I"
        },
        {
          "duration": 0.07,
          "phone": "ih_I"
        },
        {
          "duration": 0.06,
          "phone": "n_I"
        },
        {
          "duration": 0.07,
          "phone": "s_E"
        }
      ],
      "start": 12.3,
      "startOffset": 184,
      "word": "PRINCE"
    },
    {
      "alignedWord": "andrew",
      "case": "success",
      "end": 12.91,
      "endOffset": 197,
      "phones": [
        {
          "duration": 0.09,
          "phone": "ae_B"
        },
        {
          "duration": 0.07,
          "phone": "n_I"
        },
        {
          "duration": 0.06,
          "phone": "d_I"
        },
        {
          "duration": 0.04,
          "phone": "r_I"
        },
        {
          "duration": 0.07,
          "phone": "uw_E"
        }
      ],
      "start": 12.58,
      "startOffset": 191,
      "word": "ANDREW"
    },
    {
      "alignedWord": "die",
      "case": "success",
      "end": 13.2,
      "endOffset": 201,
      "phones": [
        {
          "duration": 0.13,
          "phone": "d_B"
        },
        {
          "duration": 0.16,
          "phone": "ay_E"
        }
      ],
      "start": 12.91,
      "startOffset": 198,
      "word": "DIE"
    },
    {
      "alignedWord": "in",
      "case": "success",
      "end": 13.33,
      "endOffset": 204,
      "phones": [
        {
          "duration": 0.05,
          "phone": "ih_B"
        },
        {
          "duration": 0.08,
          "phone": "n_E"
        }
      ],
      "start": 13.2,
      "startOffset": 202,
      "word": "IN"
    },
    {
      "alignedWord": "her",
      "case": "success",
      "end": 13.45,
      "endOffset": 208,
      "phones": [
        {
          "duration": 0.06,
          "phone": "hh_B"
        },
        {
          "duration": 0.06,
          "phone": "er_E"
        }
      ],
      "start": 13.33,
      "startOffset": 205,
      "word": "HER"
    },
    {
      "alignedWord": "daughter's",
      "case": "success",
      "end": 13.87,
      "endOffset": 219,
      "phones": [
        {
          "duration": 0.08,
          "phone": "d_B"
        },
        {
          "duration": 0.12,
          "phone": "ao_I"
        },
        {
          "duration": 0.07,
          "phone": "t_I"
        },
        {
          "duration": 0.07,
          "phone": "er_I"
        },
        {
          "duration": 0.08,
          "phone": "z_E"
        }
      ],
      "start": 13.45,
      "startOffset": 209,
      "word": "DAUGHTER'S"
    },
    {
      "alignedWord": "arms",
      "case": "success",
      "end": 14.290000000000001,
      "endOffset": 224,
      "phones": [
        {
          "duration": 0.16,
          "phone": "aa_B"
        },
        {
          "duration": 0.09,
          "phone": "r_I"
        },
        {
          "duration": 0.08,
          "phone": "m_I"
        },
        {
          "duration": 0.08,
          "phone": "z_E"
        }
      ],
      "start": 13.88,
      "startOffset": 220,
      "word": "ARMS"
    },
    {
      "alignedWord": "during",
      "case": "success",
      "end": 14.54,
      "endOffset": 231,
      "phones": [
        {
          "duration": 0.07,
          "phone": "d_B"
        },
        {
          "duration": 0.07,
          "phone": "er_I"
        },
        {
          "duration": 0.04,
          "phone": "ih_I"
        },
        {
          "duration": 0.07,
          "phone": "ng_E"
        }
      ],
      "start": 14.29,
      "startOffset": 225,
      "word": "DURING"
    },
    {
      "alignedWord": "the",
      "case": "success",
      "end": 14.639999999999999,
      "endOffset": 235,
      "phones": [
        {
          "duration": 0.04,
          "phone": "dh_B"
        },
        {
          "duration": 0.06,
          "phone": "ah_E"
        }
      ],
      "start": 14.54,
      "startOffset": 232,
      "word": "THE"
    },
    {
      "alignedWord": "journey",
      "case": "success",
      "end": 15.169998999999999,
      "endOffset": 243,
      "phones": [
        {
          "duration": 0.14,
          "phone": "jh_B"
        },
        {
          "duration": 0.1,
          "phone": "er_I"
        },
        {
          "duration": 0.08,
          "phone": "n_I"
        },
        {
          "duration": 0.21,
          "phone": "iy_E"
        }
      ],
      "start": 14.639999,
      "startOffset": 236,
      "word": "JOURNEY"
    }
  ]
}