{
  "transcript": "AND THE MANNER OF CONSTRUCTING STATIONARY AND MOVABLE ENGINES TO SAY NOTHING OF THE HIDDEN WONDERS OF ELECTRICITY QUADRUPEDS THAT TAKE THE PLACE OF OUR HORSES ARE USED FOR DRAYAGE ALTHOUGH NOTHING EXCEPT THE TWO WHEELED CLASS OF VEHICLES WAS EVER USED UNTIL SOME EIGHTY SEVEN YEARS AGO",
  "words": [
    {
      "alignedWord": "and",
      "case": "success",
      "end": 0.28,
      "endOffset": 3,
      "phones": [
        {
          "duration": 0.06,
          "phone": "ae_B"
        },
        {
          "duration": 0.04,
          "phone": "n_I"
        },
        {
          "duration": 0.04,
          "phone": "d_E"
        }
      ],
      "start": 0.14,
      "startOffset": 0,
      "word": "AND"
    },
    {
      "alignedWord": "the",
      "case": "success",
      "end": 0.36000000000000004,
      "endOffset": 7,
      "phones": [
        {
          "duration": 0.01,
          "phone": "dh_B"
        },
        {
          "duration": 0.07,
          "phone": "ah_E"
        }
      ],
      "start": 0.28,
      "startOffset": 4,
      "word": "THE"
    },
    {
      "alignedWord": "manner",
      "case": "success",
      "end": 0.73,
      "endOffset": 14,
      "phones": [
        {
          "duration": 0.1,
          "phone": "m_B"
        },
        {
          "duration": 0.12,
          "phone": "ae_I"
        },
        {
          "duration": 0.07,
          "phone": "n_I"
        },
        {
          "duration": 0.08,
          "phone": "er_E"
        }
      ],
      "start": 0.36,
      "startOffset": 8,
      "word": "MANNER"
    },
    {
      "alignedWord": "of",
      "case": "success",
      "end": 0.87,
      "endOffset": 17,
      "phones": [
        {
          "duration": 0.07,
          "phone": "ah_B"
        },
        {
          "duration": 0.07,
          "phone": "v_E"
        }
      ],
      "start": 0.73,
      "startOffset": 15,
      "word": "OF"
    },
    {
      "alignedWord": "constructing",
      "case": "success",
      "end": 1.51,
      "endOffset": 30,
      "phones": [
        {
          "duration": 0.01,
          "phone": "k_B"
        },
        {
          "duration": 0.06,
          "phone": "ah_I"
        },
        {
          "duration": 0.04,
          "phone": "n_I"
        },
        {
          "duration": 0.06,
          "phone": "s_I"
        },
        {
          "duration": 0.08,
          "phone": "t_I"
        },
        {
          "duration": 0.07,
          "phone": "r_I"
        },
        {
          "duration": 0.04,
          "phone": "ah_I"
        },
        {
          "duration": 0.07,
          "phone": "k_I"
        },
        {
          "duration": 0.05,
          "phone": "t_I"
        },
        {
          "duration": 0.05,
          "phone": "ih_I"
        },
        {
          "duration": 0.1,
          "phone": "ng_E"
        }
      ],
      "start": 0.88,
      "startOffset": 18,
      "word": "CONSTRUCTING"
    },
    {
      "alignedWord": "stationary",
      "case": "success",
      "end": 2.17,
      "endOffset": 41,
      "phones": [
        {
          "duration": 0.07,
          "phone": "s_B"
        },
        {
          "duration": 0.1,
          "phone": "t_I"
        },
        {
          "duration": 0.08,
          "phone": "ey_I"
        },
        {
          "duration": 0.1,
          "phone": "sh_I"
        },
        {
          "duration": 0.04,
          "phone": "ah_I"
        },
        {
          "duration": 0.06,
          "phone": "n_I"
        },
        {
          "duration": 0.07,
          "phone": "eh_I"
        },
        {
          "duration": 0.07,
          "phone": "r_I"
        },
        {
          "duration": 0.07,
          "phone": "iy_E"
        }
      ],
      "start": 1.51,
      "startOffset": 31,
      "word": "STATIONARY"
    },
    {
      "alignedWord": "and",
      "case": "success",
      "end": 2.4400000000000004,
      "endOffset": 45,
      "phones": [
        {
          "duration": 0.13,
          "phone": "ae_B"
        },
        {
          "duration": 0.04,
          "phone": "n_I"
        },
        {
          "duration": 0.07,
          "phone": "d_E"
        }
      ],
      "start": 2.2,
      "startOffset": 42,
      "word": "AND"
    },
    {
      "alignedWord": "movable",
      "case": "success",
      "end": 2.87,
      "endOffset": 53,
      "phones": [
        {
          "duration": 0.06,
          "phone": "m_B"
        },
        {
          "duration": 0.15,
          "phone": "uw_I"
        },
        {
          "duration": 0.06,
          "phone": "v_I"
        },
        {
          "duration": 0.01,
          "phone": "ah_I"
        },
        {
          "duration": 0.01,
          "phone": "b_I"
        },
        {
          "duration": 0.05,
          "phone": "ah_I"
        },
        {
          "duration": 0.08,
          "phone": "l_E"
        }
      ],
      "start": 2.45,
      "startOffset": 46,
      "word": "MOVABLE"
    },
    {
      "alignedWord": "engines",
      "case": "success",
      "end": 3.49,
      "endOffset": 61,
      "phones": [
        {
          "duration": 0.12,
          "phone": "eh_B"
        },
        {
          "duration": 0.07,
          "phone": "n_I"
        },
        {
          "duration": 0.05,
          "phone": "jh_I"
        },
        {
          "duration": 0.08,
          "phone": "ah_I"
        },
        {
          "duration": 0.1,
          "phone": "n_I"
        },
        {
          "duration": 0.18,
          "phone": "z_E"
        }
      ],
      "start": 2.89,
      "startOffset": 54,
      "word": "ENGINES"
    },
    {
      "alignedWord": "to",
      "case": "success",
      "end": 4.08,
      "endOffset": 64,
      "phones": [
        {
          "duration": 0.09,
          "phone": "t_B"
        },
        {
          "duration": 0.06,
          "phone": "ih_E"
        }
      ],
      "start": 3.93,
      "startOffset": 62,
      "word": "TO"
    },
    {
      "alignedWord": "say",
      "case": "success",
      "end": 4.26,
      "endOffset": 68,
      "phones": [
        {
          "duration": 0.08,
          "phone": "s_B"
        },
        {
          "duration": 0.1,
          "phone": "ey_E"
        }
      ],
      "start": 4.08,
      "startOffset": 65,
      "word": "SAY"
    },
    {
      "alignedWord": "nothing",
      "case": "success",
      "end": 4.6499999999999995,
      "endOffset": 76,
      "phones": [
        {
          "duration": 0.06,
          "phone": "n_B"
        },
        {
          "duration": 0.1,
          "phone": "ah_I"
        },
        {
          "duration": 0.09,
          "phone": "th_I"
        },
        {
          "duration": 0.06,
          "phone": "ih_I"
        },
        {
          "duration": 0.08,
          "phone": "ng_E"
        }
      ],
      "start": 4.26,
      "startOffset": 69,
      "word": "NOTHING"
    },
    {
      "alignedWord": "of",
      "case": "success",
      "end": 4.720000000000001,
      "endOffset": 79,
      "phones": [
        {
          "duration": 0.03,
          "phone": "ah_B"
        },
        {
          "duration": 0.04,
          "phone": "v_E"
        }
      ],
      "start": 4.65,
      "startOffset": 77,
      "word": "OF"
    },
    {
      "alignedWord": "the",
      "case": "success",
      "end": 4.79,
      "endOffset": 83,
      "phones": [
        {
          "duration": 0.01,
          "phone": "dh_B"
        },
        {
          "duration": 0.06,
          "phone": "ah_E"
        }
      ],
      "start": 4.72,
      "startOffset": 80,
      "word": "THE"
    },
    {
      "alignedWord": "hidden",
      "case": "success",
      "end": 5.0600000000000005,
      "endOffset": 90,
      "phones": [
        {
          "duration": 0.06,
          "phone": "hh_B"
        },
        {
          "duration": 0.06,
          "phone": "ih_I"
        },
        {
          "duration": 0.01,
          "phone": "d_I"
        },
        {
          "duration": 0.04,
          "phone": "ah_I"
        },
        {
          "duration": 0.1,
          "phone": "n_E"
        }
      ],
      "start": 4.79,
      "startOffset": 84,
      "word": "HIDDEN"
    },
    {
      "alignedWord": "wonders",
      "case": "success",
      "end": 5.47,
      "endOffset": 98,
      "phones": [
        {
          "duration": 0.07,
          "phone": "w_B"
        },
        {
          "duration": 0.09,
          "phone": "ah_I"
        },
        {
          "duration": 0.03,
          "phone": "n_I"
        },
        {
          "duration": 0.07,
          "phone": "d_I"
        },
        {
          "duration": 0.06,
          "phone": "er_I"
        },
        {
          "duration": 0.09,
          "phone": "z_E"
        }
      ],
      "start": 5.06,
      "startOffset": 91,
      "word": "WONDERS"
    },
    {
      "alignedWord": "of",
      "case": "success",
      "end": 5.6000000000000005,
      "endOffset": 101,
      "phones": [
        {
          "duration": 0.07,
          "phone": "ah_B"
        },
        {
          "duration": 0.05,
          "phone": "v_E"
        }
      ],
      "start": 5.48,
      "startOffset": 99,
      "word": "OF"
    },
    {
      "alignedWord": "electricity",
      "case": "success",
      "end": 6.319999999999999,
      "endOffset": 113,
      "phones": [
        {
          "duration": 0.04,
          "phone": "ih_B"
        },
        {
          "duration": 0.05,
          "phone": "l_I"
        },
        {
          "duration": 0.05,
          "phone": "eh_I"
        },
        {
          "duration": 0.03,
          "phone": "k_I"
        },
        {
          "duration": 0.04,
          "phone": "t_I"
        },
        {
          "duration": 0.07,
          "phone": "r_I"
        },
        {
          "duration": 0.06,
          "phone": "ih_I"
        },
        {
          "duration": 0.06,
          "phone": "s_I"
        },
        {
          "duration": 0.08,
          "phone": "ah_I"
        },
        {
          "duration": 0.04,
          "phone": "t_I"
        },
        {
          "duration": 0.2,
          "phone": "iy_E"
        }
      ],
      "start": 5.6,
      "startOffset": 102,
      "word": "ELECTRICITY"
    },
    {
      "alignedWord": "<unk>",
      "case": "success",
      "end": 8.01,
      "endOffset": 124,
      "phones": [
        {
          "duration": 0.7,
          "phone": "oov_S"
        }
      ],
      "start": 7.31,
      "startOffset": 114,
      "word": "QUADRUPEDS"
    },
    {
      "alignedWord": "that",
      "case": "success",
      "end": 8.219999999999999,
      "endOffset": 129,
      "phones": [
        {
          "duration": 0.07,
          "phone": "dh_B"
        },
        {
          "duration": 0.05,
          "phone": "ah_I"
        },
        {
          "duration": 0.06,
          "phone": "t_E"
        }
      ],
      "start": 8.04,
      "startOffset": 125,
      "word": "THAT"
    },
    {
      "alignedWord": "take",
      "case": "success",
      "end": 8.4,
      "endOffset": 134,
      "phones": [
        {
          "duration": 0.05,
          "phone": "t_B"
        },
        {
          "duration": 0.06,
          "phone": "ey_I"
        },
        {
          "duration": 0.07,
          "phone": "k_E"
        }
      ],
      "start": 8.22,
      "startOffset": 130,
      "word": "TAKE"
    },
    {
      "alignedWord": "the",
      "case": "success",
      "end": 8.47,
      "endOffset": 138,
      "phones": [
        {
          "duration": 0.02,
          "phone": "dh_B"
        },
        {
          "duration": 0.05,
          "phone": "ah_E"
        }
      ],
      "start": 8.4,
      "startOffset": 135,
      "word": "THE"
    },
    {
      "alignedWord": "place",
      "case": "success",
      "end": 8.72,
      "endOffset": 144,
      "phones": [
        {
          "duration": 0.07,
          "phone": "p_B"
        },
        {
          "duration": 0.07,
          "phone": "l_I"
        },
        {
          "duration": 0.07,
          "phone": "ey_I"
        },
        {
          "duration": 0.04,
          "phone": "s_E"
        }
      ],
      "start": 8.47,
      "startOffset": 139,
      "word": "PLACE"
    },
    {
      "alignedWord": "of",
      "case": "success",
      "end": 8.860000000000001,
      "endOffset": 147,
      "phones": [
        {
          "duration": 0.06,
          "phone": "ah_B"
        },
        {
          "duration": 0.08,
          "phone": "v_E"
        }
      ],
      "start": 8.72,
      "startOffset": 145,
      "word": "OF"
    },
    {
      "alignedWord": "our",
      "case": "success",
      "end": 9.13,
      "endOffset": 151,
      "phones": [
        {
          "duration": 0.19,
          "phone": "aw_B"
        },
        {
          "duration": 0.06,
          "phone": "r_E"
        }
      ],
      "start": 8.88,
      "startOffset": 148,
      "word": "OUR"
    },
    {
      "alignedWord": "horses",
      "case": "success",
      "end": 9.590000000000002,
      "endOffset": 158,
      "phones": [
        {
          "duration": 0.06,
          "phone": "hh_B"
        },
        {
          "duration": 0.1,
          "phone": "ao_I"
        },
        {
          "duration": 0.07,
          "phone": "r_I"
        },
        {
          "duration": 0.06,
          "phone": "s_I"
        },
        {
          "duration": 0.07,
          "phone": "ih_I"
        },
        {
          "duration": 0.1,
          "phone": "z_E"
        }
      ],
      "start": 9.13,
      "startOffset": 152,
      "word": "HORSES"
    },
    {
      "alignedWord": "are",
      "case": "success",
      "end": 9.75,
      "endOffset": 162,
      "phones": [
        {
          "duration": 0.07,
          "phone": "aa_B"
        },
        {
          "duration": 0.07,
          "phone": "r_E"
        }
      ],
      "start": 9.61,
      "startOffset": 159,
      "word": "ARE"
    },
    {
      "alignedWord": "used",
      "case": "success",
      "end": 10.05,
      "endOffset": 167,
      "phones": [
        {
          "duration": 0.1,
          "phone": "y_B"
        },
        {
          "duration": 0.08,
          "phone": "uw_I"
        },
        {
          "duration": 0.07,
          "phone": "z_I"
        },
        {
          "duration": 0.05,
          "phone": "d_E"
        }
      ],
      "start": 9.75,
      "startOffset": 163,
      "word": "USED"
    },
    {
      "alignedWord": "for",
      "case": "success",
      "end": 10.219999,
      "endOffset": 171,
      "phones": [
        {
          "duration": 0.09,
          "phone": "f_B"
        },
        {
          "duration": 0.07,
          "phone": "er_E"
        }
      ],
      "start": 10.059999,
      "startOffset": 168,
      "word": "FOR"
    },
    {
      "alignedWord": "<unk>",
      "case": "success",
      "end": 10.779999,
      "endOffset": 179,
      "phones": [
        {
          "duration": 0.56,
          "phone": "oov_S"
        }
      ],
      "start": 10.219999,
      "startOffset": 172,
      "word": "DRAYAGE"
    },
    {
      "alignedWord": "although",
      "case": "success",
      "end": 11.339999,
      "endOffset": 188,
      "phones": [
        {
          "duration": 0.08,
          "phone": "ao_B"
        },
        {
          "duration": 0.03,
          "phone": "l_I"
        },
        {
          "duration": 0.06,
          "phone": "dh_I"
        },
        {
          "duration": 0.07,
          "phone": "ow_E"
        }
      ],
      "start": 11.099999,
      "startOffset": 180,
      "word": "ALTHOUGH"
    },
    {
      "alignedWord": "nothing",
      "case": "success",
      "end": 11.77,
      "endOffset": 196,
      "phones": [
        {
          "duration": 0.08,
          "phone": "n_B"
        },
        {
          "duration": 0.11,
          "phone": "ah_I"
        },
        {
          "duration": 0.09,
          "phone": "th_I"
        },
        {
          "duration": 0.05,
          "phone": "ih_I"
        },
        {
          "duration": 0.1,
          "phone": "ng_E"
        }
      ],
      "start": 11.34,
      "startOffset": 189,
      "word": "NOTHING"
    },
    {
      "alignedWord": "except",
      "case": "success",
      "end": 12.11,
      "endOffset": 203,
      "phones": [
        {
          "duration": 0.08,
          "phone": "ih_B"
        },
        {
          "duration": 0.06,
          "phone": "k_I"
        },
        {
          "duration": 0.07,
          "phone": "s_I"
        },
        {
          "duration": 0.05,
          "phone": "eh_I"
        },
        {
          "duration": 0.06,
          "phone": "p_I"
        },
        {
          "duration": 0.01,
          "phone": "t_E"
        }
      ],
      "start": 11.78,
      "startOffset": 197,
      "word": "EXCEPT"
    },
    {
      "alignedWord": "the",
      "case": "success",
      "end": 12.18,
      "endOffset": 207,
      "phones": [
        {
          "duration": 0.02,
          "phone": "dh_B"
        },
        {
          "duration": 0.05,
          "phone": "ah_E"
        }
      ],
      "start": 12.11,
      "startOffset": 204,
      "word": "THE"
    },
    {
      "alignedWord": "two",
      "case": "success",
      "end": 12.389999000000001,
      "endOffset": 211,
      "phones": [
        {
          "duration": 0.12,
          "phone": "t_B"
        },
        {
          "duration": 0.09,
          "phone": "uw_E"
        }
      ],
      "start": 12.179999,
      "startOffset": 208,
      "word": "TWO"
    },
    {
      "alignedWord": "wheeled",
      "case": "success",
      "end": 12.639999,
      "endOffset": 219,
      "phones": [
        {
          "duration": 0.07,
          "phone": "w_B"
        },
        {
          "duration": 0.09,
          "phone": "iy_I"
        },
        {
          "duration": 0.03,
          "phone": "l_I"
        },
        {
          "duration": 0.06,
          "phone": "d_E"
        }
      ],
      "start": 12.389999,
      "startOffset": 212,
      "word": "WHEELED"
    },
    {
      "alignedWord": "class",
      "case": "success",
      "end": 12.939999,
      "endOffset": 225,
      "phones": [
        {
          "duration": 0.07,
          "phone": "k_B"
        },
        {
          "duration": 0.07,
          "phone": "l_I"
        },
        {
          "duration": 0.1,
          "phone": "ae_I"
        },
        {
          "duration": 0.06,
          "phone": "s_E"
        }
      ],
      "start": 12.639999,
      "startOffset": 220,
      "word": "CLASS"
    },
    {
      "alignedWord": "of",
      "case": "success",
      "end": 13.03,
      "endOffset": 228,
      "phones": [
        {
          "duration": 0.07,
          "phone": "ah_B"
        },
        {
          "duration": 0.01,
          "phone": "v_E"
        }
      ],
      "start": 12.95,
      "startOffset": 226,
      "word": "OF"
    },
    {
      "alignedWord": "vehicles",
      "case": "success",
      "end": 13.49,
      "endOffset": 237,
      "phones": [
        {
          "duration": 0.1,
          "phone": "v_B"
        },
        {
          "duration": 0.05,
          "phone": "iy_I"
        },
        {
          "duration": 0.1,
          "phone": "ih_I"
        },
        {
          "duration": 0.01,
          "phone": "k_I"
        },
        {
          "duration": 0.07,
          "phone": "ah_I"
        },
        {
          "duration": 0.06,
          "phone": "l_I"
        },
        {
          "duration": 0.07,
          "phone": "z_E"
        }
      ],
      "start": 13.03,
      "startOffset": 229,
      "word": "VEHICLES"
    },
    {
      "alignedWord": "was",
      "case": "success",
      "end": 13.65,
      "endOffset": 241,
      "phones": [
        {
          "duration": 0.05,
          "phone": "w_B"
        },
        {
          "duration": 0.03,
          "phone": "ah_I"
        },
        {
          "duration": 0.08,
          "phone": "z_E"
        }
      ],
      "start": 13.49,
      "startOffset": 238,
      "word": "WAS"
    },
    {
      "alignedWord": "ever",
      "case": "success",
      "end": 13.91,
      "endOffset": 246,
      "phones": [
        {
          "duration": 0.12,
          "phone": "eh_B"
        },
        {
          "duration": 0.06,
          "phone": "v_I"
        },
        {
          "duration": 0.07,
          "phone": "er_E"
        }
      ],
      "start": 13.66,
      "startOffset": 242,
      "word": "EVER"
    },
    {
      "alignedWord": "used",
      "case": "success",
      "end": 14.24,
      "endOffset": 251,
      "phones": [
        {
          "duration": 0.11,
          "phone": "y_B"
        },
        {
          "duration": 0.12,
          "phone": "uw_I"
        },
        {
          "duration": 0.04,
          "phone": "z_I"
        },
        {
          "duration": 0.06,
          "phone": "d_E"
        }
      ],
      "start": 13.91,
      "startOffset": 247,
      "word": "USED"
    },
    {
      "alignedWord": "until",
      "case": "success",
      "end": 14.59,
      "endOffset": 257,
      "phones": [
        {
          "duration": 0.06,
          "phone": "ah_B"
        },
        {
          "duration": 0.08,
          "phone": "n_I"
        },
        {
          "duration": 0.06,
          "phone": "t_I"
        },
        {
          "duration": 0.05,
          "phone": "ih_I"
        },
        {
          "duration": 0.07,
          "phone": "l_E"
        }
      ],
      "start": 14.27,
      "startOffset": 252,
      "word": "UNTIL"
    },
    {
      "alignedWord": "some",
      "case": "success",
      "end": 14.789999,
      "endOffset": 262,
      "phones": [
        {
          "duration": 0.07,
          "phone": "s_B"
        },
        {
          "duration": 0.05,
          "phone": "ah_I"
        },
        {
          "duration": 0.08,
          "phone": "m_E"
        }
      ],
      "start": 14.589999,
      "startOffset": 258,
      "word": "SOME"
    },
    {
      "alignedWord": "eighty",
      "case": "success",
      "end": 15.069999,
      "endOffset": 269,
      "phones": [
        {
          "duration": 0.12,
          "phone": "ey_B"
        },
        {
          "duration": 0.06,
          "phone": "t_I"
        },
        {
          "duration": 0.09,
          "phone": "iy_E"
        }
      ],
      "start": 14.799999,
      "startOffset": 263,
      "word": "EIGHTY"
    },
    {
      "alignedWord": "seven",
      "case": "success",
      "end": 15.370000000000001,
      "endOffset": 275,
      "phones": [
        {
          "duration": 0.09,
          "phone": "s_B"
        },
        {
          "duration": 0.09,
          "phone": "eh_I"
        },
        {
          "duration": 0.04,
          "phone": "v_I"
        },
        {
          "duration": 0.03,
          "phone": "ah_I"
        },
        {
          "duration": 0.05,
          "phone": "n_E"
        }
      ],
      "start": 15.07,
      "startOffset": 270,
      "word": "SEVEN"
    },
    {
      "alignedWord": "years",
      "case": "success",
      "end": 15.649999999999999,
      "endOffset": 281,
      "phones": [
        {
          "duration": 0.06,
          "phone": "y_B"
        },
        {
          "duration": 0.09,
          "phone": "ih_I"
        },
        {
          "duration": 0.06,
          "phone": "r_I"
        },
        {
          "duration": 0.07,
          "phone": "z_E"
        }
      ],
      "start": 15.37,
      "startOffset": 276,
      "word": "YEARS"
    },
    {
      "alignedWord": "ago",
      "case": "success",
      "end": 16.06,
      "endOffset": 285,
      "phones": [
        {
          "duration": 0.05,
          "phone": "ah_B"
        },
        {
          "duration": 0.09,
          "phone": "g_I"
        },
        {
          "duration": 0.27,
          "phone": "ow_E"
        }
      ],
      "start": 15.65,
      "startOffset": 282,
      "word": "AGO"
    }
  ]
}