{
  "transcript": "MORAL SYSTEMS MUST BE COMPELLED FIRST OF ALL TO BOW BEFORE THE GRADATIONS OF RANK THEIR PRESUMPTION MUST BE DRIVEN HOME TO THEIR CONSCIENCE UNTIL THEY THOROUGHLY UNDERSTAND AT LAST",
  "words": [
    {
      "alignedWord": "moral",
      "case": "success",
      "end": 0.89,
      "endOffset": 5,
      "phones": [
        {
          "duration": 0.11,
          "phone": "m_B"
        },
        {
          "duration": 0.07,
          "phone": "ao_I"
        },
        {
          "duration": 0.06,
          "phone": "r_I"
        },
        {
          "duration": 0.07,
          "phone": "ah_I"
        },
        {
          "duration": 0.07,
          "phone": "l_E"
        }
      ],
      "start": 0.51,
      "startOffset": 0,
      "word": "MORAL"
    },
    {
      "alignedWord": "systems",
      "case": "success",
      "end": 1.4500000000000002,
      "endOffset": 13,
      "phones": [
        {
          "duration": 0.11,
          "phone": "s_B"
        },
        {
          "duration": 0.07,
          "phone": "ih_I"
        },
        {
          "duration": 0.09,
          "phone": "s_I"
        },
        {
          "duration": 0.06,
          "phone": "t_I"
        },
        {
          "duration": 0.06,
          "phone": "ah_I"
        },
        {
          "duration": 0.08,
          "phone": "m_I"
        },
        {
          "duration": 0.09,
          "phone": "z_E"
        }
      ],
      "start": 0.89,
      "startOffset": 6,
      "word": "SYSTEMS"
    },
    {
      "alignedWord": "must",
      "case": "success",
      "end": 1.65,
      "endOffset": 18,
      "phones": [
        {
          "duration": 0.05,
          "phone": "m_B"
        },
        {
          "duration": 0.07,
          "phone": "ah_I"
        },
        {
          "duration": 0.04,
          "phone": "s_I"
        },
        {
          "duration": 0.04,
          "phone": "t_E"
        }
      ],
      "start": 1.45,
      "startOffset": 14,
      "word": "MUST"
    },
    {
      "alignedWord": "be",
      "case": "success",
      "end": 1.7999999999999998,
      "endOffset": 21,
      "phones": [
        {
          "duration": 0.07,
          "phone": "b_B"
        },
        {
          "duration": 0.08,
          "phone": "iy_E"
        }
      ],
      "start": 1.65,
      "startOffset": 19,
      "word": "BE"
    },
    {
      "alignedWord": "compelled",
      "case": "success",
      "end": 2.41,
      "endOffset": 31,
      "phones": [
        {
          "duration": 0.04,
          "phone": "k_B"
        },
        {
          "duration": 0.08,
          "phone": "ah_I"
        },
        {
          "duration": 0.05,
          "phone": "m_I"
        },
        {
          "duration": 0.08,
          "phone": "p_I"
        },
        {
          "duration": 0.13,
          "phone": "eh_I"
        },
        {
          "duration": 0.14,
          "phone": "l_I"
        },
        {
          "duration": 0.09,
          "phone": "d_E"
        }
      ],
      "start": 1.8,
      "startOffset": 22,
      "word": "COMPELLED"
    },
    {
      "alignedWord": "first",
      "case": "success",
      "end": 2.7399999999999998,
      "endOffset": 37,
      "phones": [
        {
          "duration": 0.09,
          "phone": "f_B"
        },
        {
          "duration": 0.11,
          "phone": "er_I"
        },
        {
          "duration": 0.06,
          "phone": "s_I"
        },
        {
          "duration": 0.06,
          "phone": "t_E"
        }
      ],
      "start": 2.42,
      "startOffset": 32,
      "word": "FIRST"
    },
    {
      "alignedWord": "of",
      "case": "success",
      "end": 2.8600000000000003,
      "endOffset": 40,
      "phones": [
        {
          "duration": 0.05,
          "phone": "ah_B"
        },
        {
          "duration": 0.07,
          "phone": "v_E"
        }
      ],
      "start": 2.74,
      "startOffset": 38,
      "word": "OF"
    },
    {
      "alignedWord": "all",
      "case": "success",
      "end": 3.02,
      "endOffset": 44,
      "phones": [
        {
          "duration": 0.07,
          "phone": "ao_B"
        },
        {
          "duration": 0.09,
          "phone": "l_E"
        }
      ],
      "start": 2.86,
      "startOffset": 41,
      "word": "ALL"
    },
    {
      "alignedWord": "to",
      "case": "success",
      "end": 3.17,
      "endOffset": 47,
      "phones": [
        {
          "duration": 0.09,
          "phone": "t_B"
        },
        {
          "duration": 0.06,
          "phone": "ah_E"
        }
      ],
      "start": 3.02,
      "startOffset": 45,
      "word": "TO"
    },
    {
      "alignedWord": "bow",
      "case": "success",
      "end": 3.48,
      "endOffset": 51,
      "phones": [
        {
          "duration": 0.12,
          "phone": "b_B"
        },
        {
          "duration": 0.19,
          "phone": "aw_E"
        }
      ],
      "start": 3.17,
      "startOffset": 48,
      "word": "BOW"
    },
    {
      "alignedWord": "before",
      "case": "success",
      "end": 3.84,
      "endOffset": 58,
      "phones": [
        {
          "duration": 0.06,
          "phone": "b_B"
        },
        {
          "duration": 0.07,
          "phone": "ih_I"
        },
        {
          "duration": 0.1,
          "phone": "f_I"
        },
        {
          "duration": 0.05,
          "phone": "ao_I"
        },
        {
          "duration": 0.08,
          "phone": "r_E"
        }
      ],
      "start": 3.48,
      "startOffset": 52,
      "word": "BEFORE"
    },
    {
      "alignedWord": "the",
      "case": "success",
      "end": 3.96,
      "endOffset": 62,
      "phones": [
        {
          "duration": 0.04,
          "phone": "dh_B"
        },
        {
          "duration": 0.08,
          "phone": "ah_E"
        }
      ],
      "start": 3.84,
      "startOffset": 59,
      "word": "THE"
    },
    {
      "alignedWord": "gradations",
      "case": "success",
      "end": 4.86,
      "endOffset": 73,
      "phones": [
        {
          "duration": 0.11,
          "phone": "g_B"
        },
        {
          "duration": 0.09,
          "phone": "r_I"
        },
        {
          "duration": 0.07,
          "phone": "ey_I"
        },
        {
          "duration": 0.13,
          "phone": "d_I"
        },
        {
          "duration": 0.13,
          "phone": "ey_I"
        },
        {
          "duration": 0.14,
          "phone": "sh_I"
        },
        {
          "duration": 0.06,
          "phone": "ah_I"
        },
        {
          "duration": 0.11,
          "phone": "n_I"
        },
        {
          "duration": 0.06,
          "phone": "z_E"
        }
      ],
      "start": 3.96,
      "startOffset": 63,
      "word": "GRADATIONS"
    },
    {
      "alignedWord": "of",
      "case": "success",
      "end": 5.0600000000000005,
      "endOffset": 76,
      "phones": [
        {
          "duration": 0.09,
          "phone": "ah_B"
        },
        {
          "duration": 0.11,
          "phone": "v_E"
        }
      ],
      "start": 4.86,
      "startOffset": 74,
      "word": "OF"
    },
    {
      "alignedWord": "rank",
      "case": "success",
      "end": 5.64,
      "endOffset": 81,
      "phones": [
        {
          "duration": 0.09,
          "phone": "r_B"
        },
        {
          "duration": 0.15,
          "phone": "ae_I"
        },
        {
          "duration": 0.05,
          "phone": "ng_I"
        },
        {
          "duration": 0.29,
          "phone": "k_E"
        }
      ],
      "start": 5.06,
      "startOffset": 77,
      "word": "RANK"
    },
    {
      "alignedWord": "their",
      "case": "success",
      "end": 6.78,
      "endOffset": 87,
      "phones": [
        {
          "duration": 0.09,
          "phone": "dh_B"
        },
        {
          "duration": 0.07,
          "phone": "eh_I"
        },
        {
          "duration": 0.05,
          "phone": "r_E"
        }
      ],
      "start": 6.57,
      "startOffset": 82,
      "word": "THEIR"
    },
    {
      "alignedWord": "presumption",
      "case": "success",
      "end": 7.430000000000001,
      "endOffset": 99,
      "phones": [
        {
          "duration": 0.08,
          "phone": "p_B"
        },
        {
          "duration": 0.04,
          "phone": "r_I"
        },
        {
          "duration": 0.09,
          "phone": "iy_I"
        },
        {
          "duration": 0.06,
          "phone": "z_I"
        },
        {
          "duration": 0.09,
          "phone": "ah_I"
        },
        {
          "duration": 0.01,
          "phone": "m_I"
        },
        {
          "duration": 0.08,
          "phone": "p_I"
        },
        {
          "duration": 0.07,
          "phone": "sh_I"
        },
        {
          "duration": 0.07,
          "phone": "ah_I"
        },
        {
          "duration": 0.06,
          "phone": "n_E"
        }
      ],
      "start": 6.78,
      "startOffset": 88,
      "word": "PRESUMPTION"
    },
    {
      "alignedWord": "must",
      "case": "success",
      "end": 7.609999999999999,
      "endOffset": 104,
      "phones": [
        {
          "duration": 0.02,
          "phone": "m_B"
        },
        {
          "duration": 0.08,
          "phone": "ah_I"
        },
        {
          "duration": 0.03,
          "phone": "s_I"
        },
        {
          "duration": 0.05,
          "phone": "t_E"
        }
      ],
      "start": 7.43,
      "startOffset": 100,
      "word": "MUST"
    },
    {
      "alignedWord": "be",
      "case": "success",
      "end": 7.73,
      "endOffset": 107,
      "phones": [
        {
          "duration": 0.06,
          "phone": "b_B"
        },
        {
          "duration": 0.06,
          "phone": "iy_E"
        }
      ],
      "start": 7.61,
      "startOffset": 105,
      "word": "BE"
    },
    {
      "alignedWord": "driven",
      "case": "success",
      "end": 8.07,
      "endOffset": 114,
      "phones": [
        {
          "duration": 0.08,
          "phone": "d_B"
        },
        {
          "duration": 0.02,
          "phone": "r_I"
        },
        {
          "duration": 0.05,
          "phone": "ih_I"
        },
        {
          "duration": 0.08,
          "phone": "v_I"
        },
        {
          "duration": 0.02,
          "phone": "ah_I"
        },
        {
          "duration": 0.09,
          "phone": "n_E"
        }
      ],
      "start": 7.73,
      "startOffset": 108,
      "word": "DRIVEN"
    },
    {
      "alignedWord": "home",
      "case": "success",
      "end": 8.52,
      "endOffset": 119,
      "phones": [
        {
          "duration": 0.08,
          "phone": "hh_B"
        },
        {
          "duration": 0.24,
          "phone": "ow_I"
        },
        {
          "duration": 0.13,
          "phone": "m_E"
        }
      ],
      "start": 8.07,
      "startOffset": 115,
      "word": "HOME"
    },
    {
      "alignedWord": "to",
      "case": "success",
      "end": 8.860000000000001,
      "endOffset": 122,
      "phones": [
        {
          "duration": 0.07,
          "phone": "t_B"
        },
        {
          "duration": 0.06,
          "phone": "ih_E"
        }
      ],
      "start": 8.73,
      "startOffset": 120,
      "word": "TO"
    },
    {
      "alignedWord": "their",
      "case": "success",
      "end": 9.03,
      "endOffset": 128,
      "phones": [
        {
          "duration": 0.04,
          "phone": "dh_B"
        },
        {
          "duration": 0.06,
          "phone": "eh_I"
        },
        {
          "duration": 0.07,
          "phone": "r_E"
        }
      ],
      "start": 8.86,
      "startOffset": 123,
      "word": "THEIR"
    },
    {
      "alignedWord": "conscience",
      "case": "success",
      "end": 9.92,
      "endOffset": 139,
      "phones": [
        {
          "duration": 0.15,
          "phone": "k_B"
        },
        {
          "duration": 0.12,
          "phone": "aa_I"
        },
        {
          "duration": 0.06,
          "phone": "n_I"
        },
        {
          "duration": 0.11,
          "phone": "sh_I"
        },
        {
          "duration": 0.07,
          "phone": "ah_I"
        },
        {
          "duration": 0.09,
          "phone": "n_I"
        },
        {
          "duration": 0.29,
          "phone": "s_E"
        }
      ],
      "start": 9.03,
      "startOffset": 129,
      "word": "CONSCIENCE"
    },
    {
      "alignedWord": "until",
      "case": "success",
      "end": 11.299999999999999,
      "endOffset": 145,
      "phones": [
        {
          "duration": 0.09,
          "phone": "ah_B"
        },
        {
          "duration": 0.08,
          "phone": "n_I"
        },
        {
          "duration": 0.07,
          "phone": "t_I"
        },
        {
          "duration": 0.04,
          "phone": "ih_I"
        },
        {
          "duration": 0.07,
          "phone": "l_E"
        }
      ],
      "start": 10.95,
      "startOffset": 140,
      "word": "UNTIL"
    },
    {
      "alignedWord": "they",
      "case": "success",
      "end": 11.440000000000001,
      "endOffset": 150,
      "phones": [
        {
          "duration": 0.04,
          "phone": "dh_B"
        },
        {
          "duration": 0.1,
          "phone": "ey_E"
        }
      ],
      "start": 11.3,
      "startOffset": 146,
      "word": "THEY"
    },
    {
      "alignedWord": "thoroughly",
      "case": "success",
      "end": 12.08,
      "endOffset": 161,
      "phones": [
        {
          "duration": 0.2,
          "phone": "th_B"
        },
        {
          "duration": 0.13,
          "phone": "er_I"
        },
        {
          "duration": 0.05,
          "phone": "ow_I"
        },
        {
          "duration": 0.08,
          "phone": "l_I"
        },
        {
          "duration": 0.1,
          "phone": "iy_E"
        }
      ],
      "start": 11.52,
      "startOffset": 151,
      "word": "THOROUGHLY"
    },
    {
      "alignedWord": "understand",
      "case": "success",
      "end": 12.84,
      "endOffset": 172,
      "phones": [
        {
          "duration": 0.04,
          "phone": "ah_B"
        },
        {
          "duration": 0.07,
          "phone": "n_I"
        },
        {
          "duration": 0.05,
          "phone": "d_I"
        },
        {
          "duration": 0.07,
          "phone": "er_I"
        },
        {
          "duration": 0.11,
          "phone": "s_I"
        },
        {
          "duration": 0.09,
          "phone": "t_I"
        },
        {
          "duration": 0.18,
          "phone": "ae_I"
        },
        {
          "duration": 0.1,
          "phone": "n_I"
        },
        {
          "duration": 0.05,
          "phone": "d_E"
        }
      ],
      "start": 12.08,
      "startOffset": 162,
      "word": "UNDERSTAND"
    },
    {
      "alignedWord": "at",
      "case": "success",
      "end": 12.97,
      "endOffset": 175,
      "phones": [
        {
          "duration": 0.05,
          "phone": "ae_B"
        },
        {
          "duration": 0.08,
          "phone": "t_E"
        }
      ],
      "start": 12.84,
      "startOffset": 173,
      "word": "AT"
    },
    {
      "alignedWord": "last",
      "case": "success",
      "end": 13.569999,
      "endOffset": 180,
      "phones": [
        {
          "duration": 0.11,
          "phone": "l_B"
        },
        {
          "duration": 0.19,
          "phone": "ae_I"
        },
        {
          "duration": 0.17,
          "phone": "s_I"
        },
        {
          "duration": 0.13,
          "phone": "t_E"
        }
      ],
      "start": 12.969999,
      "startOffset": 176,
      "word": "LAST"
    }
  ]
}