{
  "transcript": "HE ONLY CAUGHT SIGHT OF THE TIP OF THE SECRET'S EARS FROM THOSE THEY WERE NEARLY ALWAYS THE WOMEN WHO SWIFTLY ASKED IF HE HADN'T DESTROYED THE LETTERS HE CAUGHT SHAME FACED GLEAMS OF THE TRUTH",
  "words": [
    {
      "alignedWord": "he",
      "case": "success",
      "end": 0.39,
      "endOffset": 2,
      "phones": [
        {
          "duration": 0.14,
          "phone": "hh_B"
        },
        {
          "duration": 0.1,
          "phone": "iy_E"
        }
      ],
      "start": 0.15,
      "startOffset": 0,
      "word": "HE"
    },
    {
      "alignedWord": "only",
      "case": "success",
      "end": 0.8300000000000001,
      "endOffset": 7,
      "phones": [
        {
          "duration": 0.15,
          "phone": "ow_B"
        },
        {
          "duration": 0.09,
          "phone": "n_I"
        },
        {
          "duration": 0.07,
          "phone": "l_I"
        },
        {
          "duration": 0.09,
          "phone": "iy_E"
        }
      ],
      "start": 0.43,
      "startOffset": 3,
      "word": "ONLY"
    },
    {
      "alignedWord": "caught",
      "case": "success",
      "end": 1.17,
      "endOffset": 14,
      "phones": [
        {
          "duration": 0.11,
          "phone": "k_B"
        },
        {
          "duration": 0.13,
          "phone": "ao_I"
        },
        {
          "duration": 0.1,
          "phone": "t_E"
        }
      ],
      "start": 0.83,
      "startOffset": 8,
      "word": "CAUGHT"
    },
    {
      "alignedWord": "sight",
      "case": "success",
      "end": 1.5999999999999999,
      "endOffset": 20,
      "phones": [
        {
          "duration": 0.17,
          "phone": "s_B"
        },
        {
          "duration": 0.15,
          "phone": "ay_I"
        },
        {
          "duration": 0.11,
          "phone": "t_E"
        }
      ],
      "start": 1.17,
      "startOffset": 15,
      "word": "SIGHT"
    },
    {
      "alignedWord": "of",
      "case": "success",
      "end": 1.7799999999999998,
      "endOffset": 23,
      "phones": [
        {
          "duration": 0.08,
          "phone": "ah_B"
        },
        {
          "duration": 0.07,
          "phone": "v_E"
        }
      ],
      "start": 1.63,
      "startOffset": 21,
      "word": "OF"
    },
    {
      "alignedWord": "the",
      "case": "success",
      "end": 1.8800000000000001,
      "endOffset": 27,
      "phones": [
        {
          "duration": 0.03,
          "phone": "dh_B"
        },
        {
          "duration": 0.07,
          "phone": "ah_E"
        }
      ],
      "start": 1.78,
      "startOffset": 24,
      "word": "THE"
    },
    {
      "alignedWord": "tip",
      "case": "success",
      "end": 2.25,
      "endOffset": 31,
      "phones": [
        {
          "duration": 0.13,
          "phone": "t_B"
        },
        {
          "duration": 0.1,
          "phone": "ih_I"
        },
        {
          "duration": 0.14,
          "phone": "p_E"
        }
      ],
      "start": 1.88,
      "startOffset": 28,
      "word": "TIP"
    },
    {
      "alignedWord": "of",
      "case": "success",
      "end": 2.5199999999999996,
      "endOffset": 34,
      "phones": [
        {
          "duration": 0.15,
          "phone": "ah_B"
        },
        {
          "duration": 0.11,
          "phone": "v_E"
        }
      ],
      "start": 2.26,
      "startOffset": 32,
      "word": "OF"
    },
    {
      "alignedWord": "the",
      "case": "success",
      "end": 2.61,
      "endOffset": 38,
      "phones": [
        {
          "duration": 0.01,
          "phone": "dh_B"
        },
        {
          "duration": 0.08,
          "phone": "ah_E"
        }
      ],
      "start": 2.52,
      "startOffset": 35,
      "word": "THE"
    },
    {
      "alignedWord": "<unk>",
      "case": "success",
      "end": 3.17,
      "endOffset": 47,
      "phones": [
        {
          "duration": 0.56,
          "phone": "oov_S"
        }
      ],
      "start": 2.61,
      "startOffset": 39,
      "word": "SECRET'S"
    },
    {
      "alignedWord": "ears",
      "case": "success",
      "end": 3.84,
      "endOffset": 52,
      "phones": [
        {
          "duration": 0.26,
          "phone": "iy_B"
        },
        {
          "duration": 0.16,
          "phone": "r_I"
        },
        {
          "duration": 0.25,
          "phone": "z_E"
        }
      ],
      "start": 3.17,
      "startOffset": 48,
      "word": "EARS"
    },
    {
      "alignedWord": "from",
      "case": "success",
      "end": 4.71,
      "endOffset": 57,
      "phones": [
        {
          "duration": 0.1,
          "phone": "f_B"
        },
        {
          "duration": 0.05,
          "phone": "r_I"
        },
        {
          "duration": 0.06,
          "phone": "ah_I"
        },
        {
          "duration": 0.1,
          "phone": "m_E"
        }
      ],
      "start": 4.4,
      "startOffset": 53,
      "word": "FROM"
    },
    {
      "alignedWord": "those",
      "case": "success",
      "end": 5.37,
      "endOffset": 63,
      "phones": [
        {
          "duration": 0.05,
          "phone": "dh_B"
        },
        {
          "duration": 0.37,
          "phone": "ow_I"
        },
        {
          "duration": 0.24,
          "phone": "z_E"
        }
      ],
      "start": 4.71,
      "startOffset": 58,
      "word": "THOSE"
    },
    {
      "alignedWord": "they",
      "case": "success",
      "end": 5.99,
      "endOffset": 68,
      "phones": [
        {
          "duration": 0.13,
          "phone": "dh_B"
        },
        {
          "duration": 0.11,
          "phone": "ey_E"
        }
      ],
      "start": 5.75,
      "startOffset": 64,
      "word": "THEY"
    },
    {
      "alignedWord": "were",
      "case": "success",
      "end": 6.180000000000001,
      "endOffset": 73,
      "phones": [
        {
          "duration": 0.1,
          "phone": "w_B"
        },
        {
          "duration": 0.09,
          "phone": "er_E"
        }
      ],
      "start": 5.99,
      "startOffset": 69,
      "word": "WERE"
    },
    {
      "alignedWord": "nearly",
      "case": "success",
      "end": 6.6,
      "endOffset": 80,
      "phones": [
        {
          "duration": 0.07,
          "phone": "n_B"
        },
        {
          "duration": 0.09,
          "phone": "ih_I"
        },
        {
          "duration": 0.08,
          "phone": "r_I"
        },
        {
          "duration": 0.08,
          "phone": "l_I"
        },
        {
          "duration": 0.1,
          "phone": "iy_E"
        }
      ],
      "start": 6.18,
      "startOffset": 74,
      "word": "NEARLY"
    },
    {
      "alignedWord": "always",
      "case": "success",
      "end": 7.17,
      "endOffset": 87,
      "phones": [
        {
          "duration": 0.15,
          "phone": "ao_B"
        },
        {
          "duration": 0.1,
          "phone": "l_I"
        },
        {
          "duration": 0.12,
          "phone": "w_I"
        },
        {
          "duration": 0.09,
          "phone": "ey_I"
        },
        {
          "duration": 0.09,
          "phone": "z_E"
        }
      ],
      "start": 6.62,
      "startOffset": 81,
      "word": "ALWAYS"
    },
    {
      "alignedWord": "the",
      "case": "success",
      "end": 7.3,
      "endOffset": 91,
      "phones": [
        {
          "duration": 0.06,
          "phone": "dh_B"
        },
        {
          "duration": 0.07,
          "phone": "ah_E"
        }
      ],
      "start": 7.17,
      "startOffset": 88,
      "word": "THE"
    },
    {
      "alignedWord": "women",
      "case": "success",
      "end": 7.84,
      "endOffset": 97,
      "phones": [
        {
          "duration": 0.08,
          "phone": "w_B"
        },
        {
          "duration": 0.09,
          "phone": "ih_I"
        },
        {
          "duration": 0.05,
          "phone": "m_I"
        },
        {
          "duration": 0.1,
          "phone": "ah_I"
        },
        {
          "duration": 0.22,
          "phone": "n_E"
        }
      ],
      "start": 7.3,
      "startOffset": 92,
      "word": "WOMEN"
    },
    {
      "alignedWord": "who",
      "case": "success",
      "end": 8.67,
      "endOffset": 101,
      "phones": [
        {
          "duration": 0.08,
          "phone": "hh_B"
        },
        {
          "duration": 0.08,
          "phone": "uw_E"
        }
      ],
      "start": 8.51,
      "startOffset": 98,
      "word": "WHO"
    },
    {
      "alignedWord": "swiftly",
      "case": "success",
      "end": 9.19,
      "endOffset": 109,
      "phones": [
        {
          "duration": 0.11,
          "phone": "s_B"
        },
        {
          "duration": 0.07,
          "phone": "w_I"
        },
        {
          "duration": 0.06,
          "phone": "ih_I"
        },
        {
          "duration": 0.08,
          "phone": "f_I"
        },
        {
          "duration": 0.05,
          "phone": "t_I"
        },
        {
          "duration": 0.06,
          "phone": "l_I"
        },
        {
          "duration": 0.09,
          "phone": "iy_E"
        }
      ],
      "start": 8.67,
      "startOffset": 102,
      "word": "SWIFTLY"
    },
    {
      "alignedWord": "asked",
      "case": "success",
      "end": 9.590000000000002,
      "endOffset": 115,
      "phones": [
        {
          "duration": 0.2,
          "phone": "ae_B"
        },
        {
          "duration": 0.11,
          "phone": "s_I"
        },
        {
          "duration": 0.07,
          "phone": "t_E"
        }
      ],
      "start": 9.21,
      "startOffset": 110,
      "word": "ASKED"
    },
    {
      "alignedWord": "if",
      "case": "success",
      "end": 9.7,
      "endOffset": 118,
      "phones": [
        {
          "duration": 0.06,
          "phone": "ih_B"
        },
        {
          "duration": 0.05,
          "phone": "f_E"
        }
      ],
      "start": 9.59,
      "startOffset": 116,
      "word": "IF"
    },
    {
      "alignedWord": "he",
      "case": "success",
      "end": 9.809999999999999,
      "endOffset": 121,
      "phones": [
        {
          "duration": 0.04,
          "phone": "hh_B"
        },
        {
          "duration": 0.07,
          "phone": "iy_E"
        }
      ],
      "start": 9.7,
      "startOffset": 119,
      "word": "HE"
    },
    {
      "alignedWord": "hadn't",
      "case": "success",
      "end": 10.14,
      "endOffset": 128,
      "phones": [
        {
          "duration": 0.09,
          "phone": "hh_B"
        },
        {
          "duration": 0.07,
          "phone": "ae_I"
        },
        {
          "duration": 0.02,
          "phone": "d_I"
        },
        {
          "duration": 0.07,
          "phone": "ah_I"
        },
        {
          "duration": 0.07,
          "phone": "n_E"
        }
      ],
      "start": 9.82,
      "startOffset": 122,
      "word": "HADN'T"
    },
    {
      "alignedWord": "destroyed",
      "case": "success",
      "end": 10.649999,
      "endOffset": 138,
      "phones": [
        {
          "duration": 0.04,
          "phone": "d_B"
        },
        {
          "duration": 0.07,
          "phone": "ih_I"
        },
        {
          "duration": 0.04,
          "phone": "s_I"
        },
        {
          "duration": 0.09,
          "phone": "t_I"
        },
        {
          "duration": 0.07,
          "phone": "r_I"
        },
        {
          "duration": 0.12,
          "phone": "oy_I"
        },
        {
          "duration": 0.08,
          "phone": "d_E"
        }
      ],
      "start": 10.139999,
      "startOffset": 129,
      "word": "DESTROYED"
    },
    {
      "alignedWord": "the",
      "case": "success",
      "end": 10.75,
      "endOffset": 142,
      "phones": [
        {
          "duration": 0.01,
          "phone": "dh_B"
        },
        {
          "duration": 0.09,
          "phone": "ah_E"
        }
      ],
      "start": 10.65,
      "startOffset": 139,
      "word": "THE"
    },
    {
      "alignedWord": "letters",
      "case": "success",
      "end": 11.3,
      "endOffset": 150,
      "phones": [
        {
          "duration": 0.08,
          "phone": "l_B"
        },
        {
          "duration": 0.08,
          "phone": "eh_I"
        },
        {
          "duration": 0.09,
          "phone": "t_I"
        },
        {
          "duration": 0.15,
          "phone": "er_I"
        },
        {
          "duration": 0.15,
          "phone": "z_E"
        }
      ],
      "start": 10.75,
      "startOffset": 143,
      "word": "LETTERS"
    },
    {
      "alignedWord": "he",
      "case": "success",
      "end": 11.899999999999999,
      "endOffset": 153,
      "phones": [
        {
          "duration": 0.25,
          "phone": "hh_B"
        },
        {
          "duration": 0.12,
          "phone": "iy_E"
        }
      ],
      "start": 11.53,
      "startOffset": 151,
      "word": "HE"
    },
    {
      "alignedWord": "caught",
      "case": "success",
      "end": 12.32,
      "endOffset": 160,
      "phones": [
        {
          "duration": 0.13,
          "phone": "k_B"
        },
        {
          "duration": 0.15,
          "phone": "ao_I"
        },
        {
          "duration": 0.14,
          "phone": "t_E"
        }
      ],
      "start": 11.9,
      "startOffset": 154,
      "word": "CAUGHT"
    },
    {
      "alignedWord": "shame",
      "case": "success",
      "end": 12.809999000000001,
      "endOffset": 166,
      "phones": [
        {
          "duration": 0.2,
          "phone": "sh_B"
        },
        {
          "duration": 0.14,
          "phone": "ey_I"
        },
        {
          "duration": 0.12,
          "phone": "m_E"
        }
      ],
      "start": 12.349999,
      "startOffset": 161,
      "word": "SHAME"
    },
    {
      "alignedWord": "faced",
      "case": "success",
      "end": 13.290000000000001,
      "endOffset": 172,
      "phones": [
        {
          "duration": 0.13,
          "phone": "f_B"
        },
        {
          "duration": 0.14,
          "phone": "ey_I"
        },
        {
          "duration": 0.09,
          "phone": "s_I"
        },
        {
          "duration": 0.11,
          "phone": "t_E"
        }
      ],
      "start": 12.82,
      "startOffset": 167,
      "word": "FACED"
    },
    {
      "alignedWord": "<unk>",
      "case": "success",
      "end": 13.919999,
      "endOffset": 179,
      "phones": [
        {
          "duration": 0.57,
          "phone": "oov_S"
        }
      ],
      "start": 13.349999,
      "startOffset": 173,
      "word": "GLEAMS"
    },
    {
      "alignedWord": "of",
      "case": "success",
      "end": 14.129999999999999,
      "endOffset": 182,
      "phones": [
        {
          "duration": 0.08,
          "phone": "ah_B"
        },
        {
          "duration": 0.1,
          "phone": "v_E"
        }
      ],
      "start": 13.95,
      "startOffset": 180,
      "word": "OF"
    },
    {
      "alignedWord": "the",
      "case": "success",
      "end": 14.21,
      "endOffset": 186,
      "phones": [
        {
          "duration": 0.01,
          "phone": "dh_B"
        },
        {
          "duration": 0.07,
          "phone": "ah_E"
        }
      ],
      "start": 14.13,
      "startOffset": 183,
      "word": "THE"
    },
    {
      "alignedWord": "truth",
      "case": "success",
      "end": 14.75,
      "endOffset": 192,
      "phones": [
        {
          "duration": 0.09,
          "phone": "t_B"
        },
        {
          "duration": 0.11,
          "phone": "r_I"
        },
        {
          "duration": 0.12,
          "phone": "uw_I"
        },
        {
          "duration": 0.22,
          "phone": "th_E"
        }
      ],
      "start": 14.21,
      "startOffset": 187,
      "word": "TRUTH"
    }
  ]
}