{
  "transcript": "NO MA'AM RETURNED DEASEY TO LOOK AT YOU YE'D THINK MA'AM YE COULD NEVER KILL A FLY AND RESPECTFULLY HE PASSED THE PEPPERMINTS SOMETIMES THE WIDOW MUTTERED I HEARS IT",
  "words": [
    {
      "alignedWord": "no",
      "case": "success",
      "end": 0.8500000000000001,
      "endOffset": 2,
      "phones": [
        {
          "duration": 0.16,
          "phone": "n_B"
        },
        {
          "duration": 0.15,
          "phone": "ow_E"
        }
      ],
      "start": 0.54,
      "startOffset": 0,
      "word": "NO"
    },
    {
      "alignedWord": "ma'am",
      "case": "success",
      "end": 1.29,
      "endOffset": 8,
      "phones": [
        {
          "duration": 0.1,
          "phone": "m_B"
        },
        {
          "duration": 0.2,
          "phone": "ae_I"
        },
        {
          "duration": 0.13,
          "phone": "m_E"
        }
      ],
      "start": 0.86,
      "startOffset": 3,
      "word": "MA'AM"
    },
    {
      "alignedWord": "returned",
      "case": "success",
      "end": 1.75,
      "endOffset": 17,
      "phones": [
        {
          "duration": 0.12,
          "phone": "r_B"
        },
        {
          "duration": 0.05,
          "phone": "iy_I"
        },
        {
          "duration": 0.08,
          "phone": "t_I"
        },
        {
          "duration": 0.12,
          "phone": "er_I"
        },
        {
          "duration": 0.04,
          "phone": "n_I"
        },
        {
          "duration": 0.03,
          "phone": "d_E"
        }
      ],
      "start": 1.31,
      "startOffset": 9,
      "word": "RETURNED"
    },
    {
      "alignedWord": "<unk>",
      "case": "success",
      "end": 2.37,
      "endOffset": 24,
      "phones": [
        {
          "duration": 0.62,
          "phone": "oov_S"
        }
      ],
      "start": 1.75,
      "startOffset": 18,
      "word": "DEASEY"
    },
    {
      "alignedWord": "to",
      "case": "success",
      "end": 2.79,
      "endOffset": 27,
      "phones": [
        {
          "duration": 0.09,
          "phone": "t_B"
        },
        {
          "duration": 0.05,
          "phone": "ih_E"
        }
      ],
      "start": 2.65,
      "startOffset": 25,
      "word": "TO"
    },
    {
      "alignedWord": "look",
      "case": "success",
      "end": 2.99,
      "endOffset": 32,
      "phones": [
        {
          "duration": 0.09,
          "phone": "l_B"
        },
        {
          "duration": 0.05,
          "phone": "uh_I"
        },
        {
          "duration": 0.06,
          "phone": "k_E"
        }
      ],
      "start": 2.79,
      "startOffset": 28,
      "word": "LOOK"
    },
    {
      "alignedWord": "at",
      "case": "success",
      "end": 3.1100000000000003,
      "endOffset": 35,
      "phones": [
        {
          "duration": 0.05,
          "phone": "ae_B"
        },
        {
          "duration": 0.07,
          "phone": "t_E"
        }
      ],
      "start": 2.99,
      "startOffset": 33,
      "word": "AT"
    },
    {
      "alignedWord": "you",
      "case": "success",
      "end": 3.4899999999999998,
      "endOffset": 39,
      "phones": [
        {
          "duration": 0.07,
          "phone": "y_B"
        },
        {
          "duration": 0.31,
          "phone": "uw_E"
        }
      ],
      "start": 3.11,
      "startOffset": 36,
      "word": "YOU"
    },
    {
      "alignedWord": "<unk>",
      "case": "success",
      "end": 3.5199999999999996,
      "endOffset": 44,
      "phones": [
        {
          "duration": 0.01,
          "phone": "oov_S"
        }
      ],
      "start": 3.51,
      "startOffset": 40,
      "word": "YE'D"
    },
    {
      "alignedWord": "think",
      "case": "success",
      "end": 3.82,
      "endOffset": 50,
      "phones": [
        {
          "duration": 0.09,
          "phone": "th_B"
        },
        {
          "duration": 0.07,
          "phone": "ih_I"
        },
        {
          "duration": 0.05,
          "phone": "ng_I"
        },
        {
          "duration": 0.08,
          "phone": "k_E"
        }
      ],
      "start": 3.53,
      "startOffset": 45,
      "word": "THINK"
    },
    {
      "alignedWord": "ma'am",
      "case": "success",
      "end": 4.13,
      "endOffset": 56,
      "phones": [
        {
          "duration": 0.09,
          "phone": "m_B"
        },
        {
          "duration": 0.16,
          "phone": "ae_I"
        },
        {
          "duration": 0.06,
          "phone": "m_E"
        }
      ],
      "start": 3.82,
      "startOffset": 51,
      "word": "MA'AM"
    },
    {
      "alignedWord": "ye",
      "case": "success",
      "end": 4.27,
      "endOffset": 59,
      "phones": [
        {
          "duration": 0.08,
          "phone": "y_B"
        },
        {
          "duration": 0.06,
          "phone": "iy_E"
        }
      ],
      "start": 4.13,
      "startOffset": 57,
      "word": "YE"
    },
    {
      "alignedWord": "could",
      "case": "success",
      "end": 4.449999999999999,
      "endOffset": 65,
      "phones": [
        {
          "duration": 0.04,
          "phone": "k_B"
        },
        {
          "duration": 0.08,
          "phone": "uh_I"
        },
        {
          "duration": 0.06,
          "phone": "d_E"
        }
      ],
      "start": 4.27,
      "startOffset": 60,
      "word": "COULD"
    },
    {
      "alignedWord": "never",
      "case": "success",
      "end": 4.73,
      "endOffset": 71,
      "phones": [
        {
          "duration": 0.05,
          "phone": "n_B"
        },
        {
          "duration": 0.09,
          "phone": "eh_I"
        },
        {
          "duration": 0.07,
          "phone": "v_I"
        },
        {
          "duration": 0.07,
          "phone": "er_E"
        }
      ],
      "start": 4.45,
      "startOffset": 66,
      "word": "NEVER"
    },
    {
      "alignedWord": "kill",
      "case": "success",
      "end": 4.95,
      "endOffset": 76,
      "phones": [
        {
          "duration": 0.06,
          "phone": "k_B"
        },
        {
          "duration": 0.08,
          "phone": "ih_I"
        },
        {
          "duration": 0.08,
          "phone": "l_E"
        }
      ],
      "start": 4.73,
      "startOffset": 72,
      "word": "KILL"
    },
    {
      "alignedWord": "a",
      "case": "success",
      "end": 5.0200000000000005,
      "endOffset": 78,
      "phones": [
        {
          "duration": 0.07,
          "phone": "ah_S"
        }
      ],
      "start": 4.95,
      "startOffset": 77,
      "word": "A"
    },
    {
      "alignedWord": "fly",
      "case": "success",
      "end": 5.64,
      "endOffset": 82,
      "phones": [
        {
          "duration": 0.1,
          "phone": "f_B"
        },
        {
          "duration": 0.07,
          "phone": "l_I"
        },
        {
          "duration": 0.45,
          "phone": "ay_E"
        }
      ],
      "start": 5.02,
      "startOffset": 79,
      "word": "FLY"
    },
    {
      "alignedWord": "and",
      "case": "success",
      "end": 6.5200000000000005,
      "endOffset": 86,
      "phones": [
        {
          "duration": 0.1,
          "phone": "ae_B"
        },
        {
          "duration": 0.06,
          "phone": "n_I"
        },
        {
          "duration": 0.07,
          "phone": "d_E"
        }
      ],
      "start": 6.29,
      "startOffset": 83,
      "word": "AND"
    },
    {
      "alignedWord": "respectfully",
      "case": "success",
      "end": 7.4799999999999995,
      "endOffset": 99,
      "phones": [
        {
          "duration": 0.03,
          "phone": "r_B"
        },
        {
          "duration": 0.08,
          "phone": "ih_I"
        },
        {
          "duration": 0.08,
          "phone": "s_I"
        },
        {
          "duration": 0.07,
          "phone": "p_I"
        },
        {
          "duration": 0.08,
          "phone": "eh_I"
        },
        {
          "duration": 0.1,
          "phone": "k_I"
        },
        {
          "duration": 0.07,
          "phone": "t_I"
        },
        {
          "duration": 0.07,
          "phone": "f_I"
        },
        {
          "duration": 0.07,
          "phone": "ah_I"
        },
        {
          "duration": 0.1,
          "phone": "l_I"
        },
        {
          "duration": 0.21,
          "phone": "iy_E"
        }
      ],
      "start": 6.52,
      "startOffset": 87,
      "word": "RESPECTFULLY"
    },
    {
      "alignedWord": "he",
      "case": "success",
      "end": 7.69,
      "endOffset": 102,
      "phones": [
        {
          "duration": 0.12,
          "phone": "hh_B"
        },
        {
          "duration": 0.08,
          "phone": "iy_E"
        }
      ],
      "start": 7.49,
      "startOffset": 100,
      "word": "HE"
    },
    {
      "alignedWord": "passed",
      "case": "success",
      "end": 8.190000000000001,
      "endOffset": 109,
      "phones": [
        {
          "duration": 0.12,
          "phone": "p_B"
        },
        {
          "duration": 0.14,
          "phone": "ae_I"
        },
        {
          "duration": 0.1,
          "phone": "s_I"
        },
        {
          "duration": 0.14,
          "phone": "t_E"
        }
      ],
      "start": 7.69,
      "startOffset": 103,
      "word": "PASSED"
    },
    {
      "alignedWord": "the",
      "case": "success",
      "end": 8.360000000000001,
      "endOffset": 113,
      "phones": [
        {
          "duration": 0.08,
          "phone": "dh_B"
        },
        {
          "duration": 0.06,
          "phone": "ah_E"
        }
      ],
      "start": 8.22,
      "startOffset": 110,
      "word": "THE"
    },
    {
      "alignedWord": "<unk>",
      "case": "success",
      "end": 9.1,
      "endOffset": 125,
      "phones": [
        {
          "duration": 0.74,
          "phone": "oov_S"
        }
      ],
      "start": 8.36,
      "startOffset": 114,
      "word": "PEPPERMINTS"
    },
    {
      "alignedWord": "sometimes",
      "case": "success",
      "end": 11.23,
      "endOffset": 135,
      "phones": [
        {
          "duration": 0.26,
          "phone": "s_B"
        },
        {
          "duration": 0.11,
          "phone": "ah_I"
        },
        {
          "duration": 0.12,
          "phone": "m_I"
        },
        {
          "duration": 0.11,
          "phone": "t_I"
        },
        {
          "duration": 0.27,
          "phone": "ay_I"
        },
        {
          "duration": 0.13,
          "phone": "m_I"
        },
        {
          "duration": 0.12,
          "phone": "z_E"
        }
      ],
      "start": 10.11,
      "startOffset": 126,
      "word": "SOMETIMES"
    },
    {
      "alignedWord": "the",
      "case": "success",
      "end": 11.42,
      "endOffset": 139,
      "phones": [
        {
          "duration": 0.11,
          "phone": "dh_B"
        },
        {
          "duration": 0.06,
          "phone": "ah_E"
        }
      ],
      "start": 11.25,
      "startOffset": 136,
      "word": "THE"
    },
    {
      "alignedWord": "widow",
      "case": "success",
      "end": 11.73,
      "endOffset": 145,
      "phones": [
        {
          "duration": 0.06,
          "phone": "w_B"
        },
        {
          "duration": 0.07,
          "phone": "ih_I"
        },
        {
          "duration": 0.07,
          "phone": "d_I"
        },
        {
          "duration": 0.11,
          "phone": "ow_E"
        }
      ],
      "start": 11.42,
      "startOffset": 140,
      "word": "WIDOW"
    },
    {
      "alignedWord": "<unk>",
      "case": "success",
      "end": 12.31,
      "endOffset": 154,
      "phones": [
        {
          "duration": 0.58,
          "phone": "oov_S"
        }
      ],
      "start": 11.73,
      "startOffset": 146,
      "word": "MUTTERED"
    },
    {
      "alignedWord": "i",
      "case": "success",
      "end": 12.700000000000001,
      "endOffset": 156,
      "phones": [
        {
          "duration": 0.21,
          "phone": "ay_S"
        }
      ],
      "start": 12.49,
      "startOffset": 155,
      "word": "I"
    },
    {
      "alignedWord": "hears",
      "case": "success",
      "end": 13.139999999999999,
      "endOffset": 162,
      "phones": [
        {
          "duration": 0.11,
          "phone": "hh_B"
        },
        {
          "duration": 0.12,
          "phone": "iy_I"
        },
        {
          "duration": 0.12,
          "phone": "r_I"
        },
        {
          "duration": 0.09,
          "phone": "z_E"
        }
      ],
      "start": 12.7,
      "startOffset": 157,
      "word": "HEARS"
    },
    {
      "alignedWord": "it",
      "case": "success",
      "end": 13.339998999999999,
      "endOffset": 165,
      "phones": [
        {
          "duration": 0.1,
          "phone": "ih_B"
        },
        {
          "duration": 0.1,
          "phone": "t_E"
        }
      ],
      "start": 13.139999,
      "startOffset": 163,
      "word": "IT"
    }
  ]
}