{
  "transcript": "HE PROFFERED VARIOUS CORROBORATING CIRCUMSTANCES I SEE HIM MYSELF HE SAID I SEE HIM COMING ALONG BY THE CRAB TREE MEADOW ON A BALD FACED HOSS I'D JUST BEEN T HEV A PINT",
  "words": [
    {
      "alignedWord": "he",
      "case": "success",
      "end": 0.33999999999999997,
      "endOffset": 2,
      "phones": [
        {
          "duration": 0.08,
          "phone": "hh_B"
        },
        {
          "duration": 0.1,
          "phone": "iy_E"
        }
      ],
      "start": 0.16,
      "startOffset": 0,
      "word": "HE"
    },
    {
      "alignedWord": "<unk>",
      "case": "success",
      "end": 0.73,
      "endOffset": 12,
      "phones": [
        {
          "duration": 0.39,
          "phone": "oov_S"
        }
      ],
      "start": 0.34,
      "startOffset": 3,
      "word": "PROFFERED"
    },
    {
      "alignedWord": "various",
      "case": "success",
      "end": 1.3599999999999999,
      "endOffset": 20,
      "phones": [
        {
          "duration": 0.09,
          "phone": "v_B"
        },
        {
          "duration": 0.08,
          "phone": "eh_I"
        },
        {
          "duration": 0.11,
          "phone": "r_I"
        },
        {
          "duration": 0.09,
          "phone": "iy_I"
        },
        {
          "duration": 0.08,
          "phone": "ah_I"
        },
        {
          "duration": 0.18,
          "phone": "s_E"
        }
      ],
      "start": 0.73,
      "startOffset": 13,
      "word": "VARIOUS"
    },
    {
      "alignedWord": "<unk>",
      "case": "success",
      "end": 2.24,
      "endOffset": 34,
      "phones": [
        {
          "duration": 0.77,
          "phone": "oov_S"
        }
      ],
      "start": 1.47,
      "startOffset": 21,
      "word": "CORROBORATING"
    },
    {
      "alignedWord": "circumstances",
      "case": "success",
      "end": 3.21,
      "endOffset": 48,
      "phones": [
        {
          "duration": 0.09,
          "phone": "s_B"
        },
        {
          "duration": 0.07,
          "phone": "er_I"
        },
        {
          "duration": 0.04,
          "phone": "k_I"
        },
        {
          "duration": 0.05,
          "phone": "ah_I"
        },
        {
          "duration": 0.07,
          "phone": "m_I"
        },
        {
          "duration": 0.05,
          "phone": "s_I"
        },
        {
          "duration": 0.08,
          "phone": "t_I"
        },
        {
          "duration": 0.06,
          "phone": "ae_I"
        },
        {
          "duration": 0.07,
          "phone": "n_I"
        },
        {
          "duration": 0.09,
          "phone": "s_I"
        },
        {
          "duration": 0.08,
          "phone": "ih_I"
        },
        {
          "duration": 0.22,
          "phone": "z_E"
        }
      ],
      "start": 2.24,
      "startOffset": 35,
      "word": "CIRCUMSTANCES"
    },
    {
      "alignedWord": "i",
      "case": "success",
      "end": 4.67,
      "endOffset": 50,
      "phones": [
        {
          "duration": 0.24,
          "phone": "ay_S"
        }
      ],
      "start": 4.43,
      "startOffset": 49,
      "word": "I"
    },
    {
      "alignedWord": "see",
      "case": "success",
      "end": 4.9399999999999995,
      "endOffset": 54,
      "phones": [
        {
          "duration": 0.15,
          "phone": "s_B"
        },
        {
          "duration": 0.12,
          "phone": "iy_E"
        }
      ],
      "start": 4.67,
      "startOffset": 51,
      "word": "SEE"
    },
    {
      "alignedWord": "him",
      "case": "success",
      "end": 5.07,
      "endOffset": 58,
      "phones": [
        {
          "duration": 0.06,
          "phone": "ih_B"
        },
        {
          "duration": 0.07,
          "phone": "m_E"
        }
      ],
      "start": 4.94,
      "startOffset": 55,
      "word": "HIM"
    },
    {
      "alignedWord": "myself",
      "case": "success",
      "end": 5.86,
      "endOffset": 65,
      "phones": [
        {
          "duration": 0.08,
          "phone": "m_B"
        },
        {
          "duration": 0.11,
          "phone": "ay_I"
        },
        {
          "duration": 0.13,
          "phone": "s_I"
        },
        {
          "duration": 0.16,
          "phone": "eh_I"
        },
        {
          "duration": 0.08,
          "phone": "l_I"
        },
        {
          "duration": 0.23,
          "phone": "f_E"
        }
      ],
      "start": 5.07,
      "startOffset": 59,
      "word": "MYSELF"
    },
    {
      "alignedWord": "he",
      "case": "success",
      "end": 6.11,
      "endOffset": 68,
      "phones": [
        {
          "duration": 0.1,
          "phone": "hh_B"
        },
        {
          "duration": 0.07,
          "phone": "iy_E"
        }
      ],
      "start": 5.94,
      "startOffset": 66,
      "word": "HE"
    },
    {
      "alignedWord": "said",
      "case": "success",
      "end": 6.550000000000001,
      "endOffset": 73,
      "phones": [
        {
          "duration": 0.1,
          "phone": "s_B"
        },
        {
          "duration": 0.13,
          "phone": "eh_I"
        },
        {
          "duration": 0.21,
          "phone": "d_E"
        }
      ],
      "start": 6.11,
      "startOffset": 69,
      "word": "SAID"
    },
    {
      "alignedWord": "i",
      "case": "success",
      "end": 7.12,
      "endOffset": 75,
      "phones": [
        {
          "duration": 0.16,
          "phone": "ay_S"
        }
      ],
      "start": 6.96,
      "startOffset": 74,
      "word": "I"
    },
    {
      "alignedWord": "see",
      "case": "success",
      "end": 7.37,
      "endOffset": 79,
      "phones": [
        {
          "duration": 0.14,
          "phone": "s_B"
        },
        {
          "duration": 0.11,
          "phone": "iy_E"
        }
      ],
      "start": 7.12,
      "startOffset": 76,
      "word": "SEE"
    },
    {
      "alignedWord": "him",
      "case": "success",
      "end": 7.53,
      "endOffset": 83,
      "phones": [
        {
          "duration": 0.06,
          "phone": "ih_B"
        },
        {
          "duration": 0.1,
          "phone": "m_E"
        }
      ],
      "start": 7.37,
      "startOffset": 80,
      "word": "HIM"
    },
    {
      "alignedWord": "coming",
      "case": "success",
      "end": 7.86,
      "endOffset": 90,
      "phones": [
        {
          "duration": 0.08,
          "phone": "k_B"
        },
        {
          "duration": 0.06,
          "phone": "ah_I"
        },
        {
          "duration": 0.06,
          "phone": "m_I"
        },
        {
          "duration": 0.07,
          "phone": "ih_I"
        },
        {
          "duration": 0.06,
          "phone": "ng_E"
        }
      ],
      "start": 7.53,
      "startOffset": 84,
      "word": "COMING"
    },
    {
      "alignedWord": "along",
      "case": "success",
      "end": 8.4,
      "endOffset": 96,
      "phones": [
        {
          "duration": 0.04,
          "phone": "ah_B"
        },
        {
          "duration": 0.1,
          "phone": "l_I"
        },
        {
          "duration": 0.21,
          "phone": "ao_I"
        },
        {
          "duration": 0.19,
          "phone": "ng_E"
        }
      ],
      "start": 7.86,
      "startOffset": 91,
      "word": "ALONG"
    },
    {
      "alignedWord": "by",
      "case": "success",
      "end": 8.68,
      "endOffset": 99,
      "phones": [
        {
          "duration": 0.1,
          "phone": "b_B"
        },
        {
          "duration": 0.05,
          "phone": "ay_E"
        }
      ],
      "start": 8.53,
      "startOffset": 97,
      "word": "BY"
    },
    {
      "alignedWord": "the",
      "case": "success",
      "end": 8.819999000000001,
      "endOffset": 103,
      "phones": [
        {
          "duration": 0.08,
          "phone": "dh_B"
        },
        {
          "duration": 0.06,
          "phone": "ah_E"
        }
      ],
      "start": 8.679999,
      "startOffset": 100,
      "word": "THE"
    },
    {
      "alignedWord": "crab",
      "case": "success",
      "end": 9.17,
      "endOffset": 108,
      "phones": [
        {
          "duration": 0.1,
          "phone": "k_B"
        },
        {
          "duration": 0.08,
          "phone": "r_I"
        },
        {
          "duration": 0.08,
          "phone": "ae_I"
        },
        {
          "duration": 0.09,
          "phone": "b_E"
        }
      ],
      "start": 8.82,
      "startOffset": 104,
      "word": "CRAB"
    },
    {
      "alignedWord": "tree",
      "case": "success",
      "end": 9.38,
      "endOffset": 113,
      "phones": [
        {
          "duration": 0.06,
          "phone": "t_B"
        },
        {
          "duration": 0.07,
          "phone": "r_I"
        },
        {
          "duration": 0.08,
          "phone": "iy_E"
        }
      ],
      "start": 9.17,
      "startOffset": 109,
      "word": "TREE"
    },
    {
      "alignedWord": "meadow",
      "case": "success",
      "end": 9.81,
      "endOffset": 120,
      "phones": [
        {
          "duration": 0.08,
          "phone": "m_B"
        },
        {
          "duration": 0.1,
          "phone": "eh_I"
        },
        {
          "duration": 0.05,
          "phone": "d_I"
        },
        {
          "duration": 0.2,
          "phone": "ow_E"
        }
      ],
      "start": 9.38,
      "startOffset": 114,
      "word": "MEADOW"
    },
    {
      "alignedWord": "on",
      "case": "success",
      "end": 10.119999,
      "endOffset": 123,
      "phones": [
        {
          "duration": 0.11,
          "phone": "aa_B"
        },
        {
          "duration": 0.08,
          "phone": "n_E"
        }
      ],
      "start": 9.929999,
      "startOffset": 121,
      "word": "ON"
    },
    {
      "alignedWord": "a",
      "case": "success",
      "end": 10.18,
      "endOffset": 125,
      "phones": [
        {
          "duration": 0.06,
          "phone": "ah_S"
        }
      ],
      "start": 10.12,
      "startOffset": 124,
      "word": "A"
    },
    {
      "alignedWord": "bald",
      "case": "success",
      "end": 10.629999,
      "endOffset": 130,
      "phones": [
        {
          "duration": 0.14,
          "phone": "b_B"
        },
        {
          "duration": 0.13,
          "phone": "ao_I"
        },
        {
          "duration": 0.1,
          "phone": "l_I"
        },
        {
          "duration": 0.08,
          "phone": "d_E"
        }
      ],
      "start": 10.179999,
      "startOffset": 126,
      "word": "BALD"
    },
    {
      "alignedWord": "faced",
      "case": "success",
      "end": 11.100000000000001,
      "endOffset": 136,
      "phones": [
        {
          "duration": 0.12,
          "phone": "f_B"
        },
        {
          "duration": 0.13,
          "phone": "ey_I"
        },
        {
          "duration": 0.09,
          "phone": "s_I"
        },
        {
          "duration": 0.13,
          "phone": "t_E"
        }
      ],
      "start": 10.63,
      "startOffset": 131,
      "word": "FACED"
    },
    {
      "alignedWord": "<unk>",
      "case": "success",
      "end": 11.569999000000001,
      "endOffset": 141,
      "phones": [
        {
          "duration": 0.47,
          "phone": "oov_S"
        }
      ],
      "start": 11.099999,
      "startOffset": 137,
      "word": "HOSS"
    },
    {
      "alignedWord": "i'd",
      "case": "success",
      "end": 12.760000000000002,
      "endOffset": 145,
      "phones": [
        {
          "duration": 0.17,
          "phone": "ay_B"
        },
        {
          "duration": 0.04,
          "phone": "d_E"
        }
      ],
      "start": 12.55,
      "startOffset": 142,
      "word": "I'D"
    },
    {
      "alignedWord": "just",
      "case": "success",
      "end": 13.11,
      "endOffset": 150,
      "phones": [
        {
          "duration": 0.1,
          "phone": "jh_B"
        },
        {
          "duration": 0.1,
          "phone": "ah_I"
        },
        {
          "duration": 0.08,
          "phone": "s_I"
        },
        {
          "duration": 0.06,
          "phone": "t_E"
        }
      ],
      "start": 12.77,
      "startOffset": 146,
      "word": "JUST"
    },
    {
      "alignedWord": "been",
      "case": "success",
      "end": 13.41,
      "endOffset": 155,
      "phones": [
        {
          "duration": 0.05,
          "phone": "b_B"
        },
        {
          "duration": 0.15,
          "phone": "ih_I"
        },
        {
          "duration": 0.1,
          "phone": "n_E"
        }
      ],
      "start": 13.11,
      "startOffset": 151,
      "word": "BEEN"
    },
    {
      "alignedWord": "t",
      "case": "success",
      "end": 13.43,
      "endOffset": 157,
      "phones": [
        {
          "duration": 0.01,
          "phone": "t_B"
        },
        {
          "duration": 0.01,
          "phone": "iy_E"
        }
      ],
      "start": 13.41,
      "startOffset": 156,
      "word": "T"
    },
    {
      "alignedWord": "<unk>",
      "case": "success",
      "end": 13.689999,
      "endOffset": 161,
      "phones": [
        {
          "duration": 0.26,
          "phone": "oov_S"
        }
      ],
      "start": 13.429999,
      "startOffset": 158,
      "word": "HEV"
    },
    {
      "alignedWord": "a",
      "case": "success",
      "end": 13.76,
      "endOffset": 163,
      "phones": [
        {
          "duration": 0.07,
          "phone": "ah_S"
        }
      ],
      "start": 13.69,
      "startOffset": 162,
      "word": "A"
    },
    {
      "alignedWord": "pint",
      "case": "success",
      "end": 14.299999,
      "endOffset": 168,
      "phones": [
        {
          "duration": 0.1,
          "phone": "p_B"
        },
        {
          "duration": 0.17,
          "phone": "ay_I"
        },
        {
          "duration": 0.04,
          "phone": "n_I"
        },
        {
          "duration": 0.23,
          "phone": "t_E"
        }
      ],
      "start": 13.759999,
      "startOffset": 164,
      "word": "PINT"
    }
  ]
}