{
  "transcript": "HAD NOT THE MAN WHO HID THE MONEY BURIED IT IN THAT PRECISE SPOT THE GOLD WOULD NOT HAVE BEEN FOUND THESE THEN ARE THE REASONS WHY THE FIND IS A CHANCE ONE IN THAT IT RESULTS FROM CAUSES WHICH MET TOGETHER AND CONCURRED",
  "words": [
    {
      "alignedWord": "had",
      "case": "success",
      "end": 0.61,
      "endOffset": 3,
      "phones": [
        {
          "duration": 0.08,
          "phone": "hh_B"
        },
        {
          "duration": 0.06,
          "phone": "ae_I"
        },
        {
          "duration": 0.06,
          "phone": "d_E"
        }
      ],
      "start": 0.41,
      "startOffset": 0,
      "word": "HAD"
    },
    {
      "alignedWord": "not",
      "case": "success",
      "end": 0.88,
      "endOffset": 7,
      "phones": [
        {
          "duration": 0.09,
          "phone": "n_B"
        },
        {
          "duration": 0.09,
          "phone": "aa_I"
        },
        {
          "duration": 0.08,
          "phone": "t_E"
        }
      ],
      "start": 0.62,
      "startOffset": 4,
      "word": "NOT"
    },
    {
      "alignedWord": "the",
      "case": "success",
      "end": 1.0,
      "endOffset": 11,
      "phones": [
        {
          "duration": 0.06,
          "phone": "dh_B"
        },
        {
          "duration": 0.06,
          "phone": "ah_E"
        }
      ],
      "start": 0.88,
      "startOffset": 8,
      "word": "THE"
    },
    {
      "alignedWord": "man",
      "case": "success",
      "end": 1.34,
      "endOffset": 15,
      "phones": [
        {
          "duration": 0.1,
          "phone": "m_B"
        },
        {
          "duration": 0.19,
          "phone": "ae_I"
        },
        {
          "duration": 0.05,
          "phone": "n_E"
        }
      ],
      "start": 1.0,
      "startOffset": 12,
      "word": "MAN"
    },
    {
      "alignedWord": "who",
      "case": "success",
      "end": 1.49,
      "endOffset": 19,
      "phones": [
        {
          "duration": 0.06,
          "phone": "hh_B"
        },
        {
          "duration": 0.09,
          "phone": "uw_E"
        }
      ],
      "start": 1.34,
      "startOffset": 16,
      "word": "WHO"
    },
    {
      "alignedWord": "hid",
      "case": "success",
      "end": 1.74,
      "endOffset": 23,
      "phones": [
        {
          "duration": 0.09,
          "phone": "hh_B"
        },
        {
          "duration": 0.07,
          "phone": "ih_I"
        },
        {
          "duration": 0.09,
          "phone": "d_E"
        }
      ],
      "start": 1.49,
      "startOffset": 20,
      "word": "HID"
    },
    {
      "alignedWord": "the",
      "case": "success",
      "end": 1.83,
      "endOffset": 27,
      "phones": [
        {
          "duration": 0.01,
          "phone": "dh_B"
        },
        {
          "duration": 0.08,
          "phone": "ah_E"
        }
      ],
      "start": 1.74,
      "startOffset": 24,
      "word": "THE"
    },
    {
      "alignedWord": "money",
      "case": "success",
      "end": 2.2800000000000002,
      "endOffset": 33,
      "phones": [
        {
          "duration": 0.07,
          "phone": "m_B"
        },
        {
          "duration": 0.11,
          "phone": "ah_I"
        },
        {
          "duration": 0.07,
          "phone": "n_I"
        },
        {
          "duration": 0.2,
          "phone": "iy_E"
        }
      ],
      "start": 1.83,
      "startOffset": 28,
      "word": "MONEY"
    },
    {
      "alignedWord": "buried",
      "case": "success",
      "end": 2.7600000000000002,
      "endOffset": 40,
      "phones": [
        {
          "duration": 0.1,
          "phone": "b_B"
        },
        {
          "duration": 0.08,
          "phone": "eh_I"
        },
        {
          "duration": 0.11,
          "phone": "r_I"
        },
        {
          "duration": 0.09,
          "phone": "iy_I"
        },
        {
          "duration": 0.05,
          "phone": "d_E"
        }
      ],
      "start": 2.33,
      "startOffset": 34,
      "word": "BURIED"
    },
    {
      "alignedWord": "it",
      "case": "success",
      "end": 2.9,
      "endOffset": 43,
      "phones": [
        {
          "duration": 0.07,
          "phone": "ih_B"
        },
        {
          "duration": 0.07,
          "phone": "t_E"
        }
      ],
      "start": 2.76,
      "startOffset": 41,
      "word": "IT"
    },
    {
      "alignedWord": "in",
      "case": "success",
      "end": 3.05,
      "endOffset": 46,
      "phones": [
        {
          "duration": 0.06,
          "phone": "ih_B"
        },
        {
          "duration": 0.09,
          "phone": "n_E"
        }
      ],
      "start": 2.9,
      "startOffset": 44,
      "word": "IN"
    },
    {
      "alignedWord": "that",
      "case": "success",
      "end": 3.29,
      "endOffset": 51,
      "phones": [
        {
          "duration": 0.06,
          "phone": "dh_B"
        },
        {
          "duration": 0.08,
          "phone": "ae_I"
        },
        {
          "duration": 0.1,
          "phone": "t_E"
        }
      ],
      "start": 3.05,
      "startOffset": 47,
      "word": "THAT"
    },
    {
      "alignedWord": "precise",
      "case": "success",
      "end": 3.79,
      "endOffset": 59,
      "phones": [
        {
          "duration": 0.06,
          "phone": "p_B"
        },
        {
          "duration": 0.05,
          "phone": "r_I"
        },
        {
          "duration": 0.05,
          "phone": "iy_I"
        },
        {
          "duration": 0.14,
          "phone": "s_I"
        },
        {
          "duration": 0.13,
          "phone": "ay_I"
        },
        {
          "duration": 0.07,
          "phone": "s_E"
        }
      ],
      "start": 3.29,
      "startOffset": 52,
      "word": "PRECISE"
    },
    {
      "alignedWord": "spot",
      "case": "success",
      "end": 4.42,
      "endOffset": 64,
      "phones": [
        {
          "duration": 0.14,
          "phone": "s_B"
        },
        {
          "duration": 0.09,
          "phone": "p_I"
        },
        {
          "duration": 0.17,
          "phone": "aa_I"
        },
        {
          "duration": 0.23,
          "phone": "t_E"
        }
      ],
      "start": 3.79,
      "startOffset": 60,
      "word": "SPOT"
    },
    {
      "alignedWord": "the",
      "case": "success",
      "end": 4.720000000000001,
      "endOffset": 68,
      "phones": [
        {
          "duration": 0.08,
          "phone": "dh_B"
        },
        {
          "duration": 0.07,
          "phone": "ah_E"
        }
      ],
      "start": 4.57,
      "startOffset": 65,
      "word": "THE"
    },
    {
      "alignedWord": "gold",
      "case": "success",
      "end": 5.14,
      "endOffset": 73,
      "phones": [
        {
          "duration": 0.09,
          "phone": "g_B"
        },
        {
          "duration": 0.09,
          "phone": "ow_I"
        },
        {
          "duration": 0.16,
          "phone": "l_I"
        },
        {
          "duration": 0.08,
          "phone": "d_E"
        }
      ],
      "start": 4.72,
      "startOffset": 69,
      "word": "GOLD"
    },
    {
      "alignedWord": "would",
      "case": "success",
      "end": 5.3,
      "endOffset": 79,
      "phones": [
        {
          "duration": 0.04,
          "phone": "w_B"
        },
        {
          "duration": 0.04,
          "phone": "uh_I"
        },
        {
          "duration": 0.08,
          "phone": "d_E"
        }
      ],
      "start": 5.14,
      "startOffset": 74,
      "word": "WOULD"
    },
    {
      "alignedWord": "not",
      "case": "success",
      "end": 5.47,
      "endOffset": 83,
      "phones": [
        {
          "duration": 0.04,
          "phone": "n_B"
        },
        {
          "duration": 0.1,
          "phone": "aa_I"
        },
        {
          "duration": 0.03,
          "phone": "t_E"
        }
      ],
      "start": 5.3,
      "startOffset": 80,
      "word": "NOT"
    },
    {
      "alignedWord": "have",
      "case": "success",
      "end": 5.6,
      "endOffset": 88,
      "phones": [
        {
          "duration": 0.05,
          "phone": "hh_B"
        },
        {
          "duration": 0.01,
          "phone": "ae_I"
        },
        {
          "duration": 0.07,
          "phone": "v_E"
        }
      ],
      "start": 5.47,
      "startOffset": 84,
      "word": "HAVE"
    },
    {
      "alignedWord": "been",
      "case": "success",
      "end": 5.79,
      "endOffset": 93,
      "phones": [
        {
          "duration": 0.04,
          "phone": "b_B"
        },
        {
          "duration": 0.06,
          "phone": "ih_I"
        },
        {
          "duration": 0.09,
          "phone": "n_E"
        }
      ],
      "start": 5.6,
      "startOffset": 89,
      "word": "BEEN"
    },
    {
      "alignedWord": "found",
      "case": "success",
      "end": 6.47,
      "endOffset": 99,
      "phones": [
        {
          "duration": 0.12,
          "phone": "f_B"
        },
        {
          "duration": 0.23,
          "phone": "aw_I"
        },
        {
          "duration": 0.12,
          "phone": "n_I"
        },
        {
          "duration": 0.21,
          "phone": "d_E"
        }
      ],
      "start": 5.79,
      "startOffset": 94,
      "word": "FOUND"
    },
    {
      "alignedWord": "these",
      "case": "success",
      "end": 8.07,
      "endOffset": 105,
      "phones": [
        {
          "duration": 0.19,
          "phone": "dh_B"
        },
        {
          "duration": 0.35,
          "phone": "iy_I"
        },
        {
          "duration": 0.16,
          "phone": "z_E"
        }
      ],
      "start": 7.37,
      "startOffset": 100,
      "word": "THESE"
    },
    {
      "alignedWord": "then",
      "case": "success",
      "end": 8.48,
      "endOffset": 110,
      "phones": [
        {
          "duration": 0.07,
          "phone": "dh_B"
        },
        {
          "duration": 0.17,
          "phone": "eh_I"
        },
        {
          "duration": 0.17,
          "phone": "n_E"
        }
      ],
      "start": 8.07,
      "startOffset": 106,
      "word": "THEN"
    },
    {
      "alignedWord": "are",
      "case": "success",
      "end": 8.73,
      "endOffset": 114,
      "phones": [
        {
          "duration": 0.14,
          "phone": "aa_B"
        },
        {
          "duration": 0.09,
          "phone": "r_E"
        }
      ],
      "start": 8.5,
      "startOffset": 111,
      "word": "ARE"
    },
    {
      "alignedWord": "the",
      "case": "success",
      "end": 8.84,
      "endOffset": 118,
      "phones": [
        {
          "duration": 0.04,
          "phone": "dh_B"
        },
        {
          "duration": 0.07,
          "phone": "ah_E"
        }
      ],
      "start": 8.73,
      "startOffset": 115,
      "word": "THE"
    },
    {
      "alignedWord": "reasons",
      "case": "success",
      "end": 9.39,
      "endOffset": 126,
      "phones": [
        {
          "duration": 0.11,
          "phone": "r_B"
        },
        {
          "duration": 0.11,
          "phone": "iy_I"
        },
        {
          "duration": 0.06,
          "phone": "z_I"
        },
        {
          "duration": 0.07,
          "phone": "ah_I"
        },
        {
          "duration": 0.11,
          "phone": "n_I"
        },
        {
          "duration": 0.09,
          "phone": "z_E"
        }
      ],
      "start": 8.84,
      "startOffset": 119,
      "word": "REASONS"
    },
    {
      "alignedWord": "why",
      "case": "success",
      "end": 9.599999,
      "endOffset": 130,
      "phones": [
        {
          "duration": 0.12,
          "phone": "w_B"
        },
        {
          "duration": 0.09,
          "phone": "ay_E"
        }
      ],
      "start": 9.389999,
      "startOffset": 127,
      "word": "WHY"
    },
    {
      "alignedWord": "the",
      "case": "success",
      "end": 9.719999999999999,
      "endOffset": 134,
      "phones": [
        {
          "duration": 0.06,
          "phone": "dh_B"
        },
        {
          "duration": 0.05,
          "phone": "ah_E"
        }
      ],
      "start": 9.61,
      "startOffset": 131,
      "word": "THE"
    },
    {
      "alignedWord": "find",
      "case": "success",
      "end": 10.109999,
      "endOffset": 139,
      "phones": [
        {
          "duration": 0.13,
          "phone": "f_B"
        },
        {
          "duration": 0.15,
          "phone": "ay_I"
        },
        {
          "duration": 0.07,
          "phone": "n_I"
        },
        {
          "duration": 0.04,
          "phone": "d_E"
        }
      ],
      "start": 9.719999,
      "startOffset": 135,
      "word": "FIND"
    },
    {
      "alignedWord": "is",
      "case": "success",
      "end": 10.229999999999999,
      "endOffset": 142,
      "phones": [
        {
          "duration": 0.05,
          "phone": "ih_B"
        },
        {
          "duration": 0.07,
          "phone": "z_E"
        }
      ],
      "start": 10.11,
      "startOffset": 140,
      "word": "IS"
    },
    {
      "alignedWord": "a",
      "case": "success",
      "end": 10.33,
      "endOffset": 144,
      "phones": [
        {
          "duration": 0.1,
          "phone": "ah_S"
        }
      ],
      "start": 10.23,
      "startOffset": 143,
      "word": "A"
    },
    {
      "alignedWord": "chance",
      "case": "success",
      "end": 10.96,
      "endOffset": 151,
      "phones": [
        {
          "duration": 0.27,
          "phone": "ch_B"
        },
        {
          "duration": 0.11,
          "phone": "ae_I"
        },
        {
          "duration": 0.1,
          "phone": "n_I"
        },
        {
          "duration": 0.15,
          "phone": "s_E"
        }
      ],
      "start": 10.33,
      "startOffset": 145,
      "word": "CHANCE"
    },
    {
      "alignedWord": "one",
      "case": "success",
      "end": 11.370000000000001,
      "endOffset": 155,
      "phones": [
        {
          "duration": 0.09,
          "phone": "w_B"
        },
        {
          "duration": 0.13,
          "phone": "ah_I"
        },
        {
          "duration": 0.19,
          "phone": "n_E"
        }
      ],
      "start": 10.96,
      "startOffset": 152,
      "word": "ONE"
    },
    {
      "alignedWord": "in",
      "case": "success",
      "end": 11.83,
      "endOffset": 158,
      "phones": [
        {
          "duration": 0.11,
          "phone": "ih_B"
        },
        {
          "duration": 0.07,
          "phone": "n_E"
        }
      ],
      "start": 11.65,
      "startOffset": 156,
      "word": "IN"
    },
    {
      "alignedWord": "that",
      "case": "success",
      "end": 11.99,
      "endOffset": 163,
      "phones": [
        {
          "duration": 0.04,
          "phone": "dh_B"
        },
        {
          "duration": 0.07,
          "phone": "ae_I"
        },
        {
          "duration": 0.05,
          "phone": "t_E"
        }
      ],
      "start": 11.83,
      "startOffset": 159,
      "word": "THAT"
    },
    {
      "alignedWord": "it",
      "case": "success",
      "end": 12.07,
      "endOffset": 166,
      "phones": [
        {
          "duration": 0.03,
          "phone": "ih_B"
        },
        {
          "duration": 0.05,
          "phone": "t_E"
        }
      ],
      "start": 11.99,
      "startOffset": 164,
      "word": "IT"
    },
    {
      "alignedWord": "results",
      "case": "success",
      "end": 12.620000000000001,
      "endOffset": 174,
      "phones": [
        {
          "duration": 0.08,
          "phone": "r_B"
        },
        {
          "duration": 0.09,
          "phone": "iy_I"
        },
        {
          "duration": 0.03,
          "phone": "z_I"
        },
        {
          "duration": 0.11,
          "phone": "ah_I"
        },
        {
          "duration": 0.09,
          "phone": "l_I"
        },
        {
          "duration": 0.08,
          "phone": "t_I"
        },
        {
          "duration": 0.06,
          "phone": "s_E"
        }
      ],
      "start": 12.08,
      "startOffset": 167,
      "word": "RESULTS"
    },
    {
      "alignedWord": "from",
      "case": "success",
      "end": 12.819999999999999,
      "endOffset": 179,
      "phones": [
        {
          "duration": 0.07,
          "phone": "f_B"
        },
        {
          "duration": 0.04,
          "phone": "er_I"
        },
        {
          "duration": 0.09,
          "phone": "m_E"
        }
      ],
      "start": 12.62,
      "startOffset": 175,
      "word": "FROM"
    },
    {
      "alignedWord": "causes",
      "case": "success",
      "end": 13.529999,
      "endOffset": 186,
      "phones": [
        {
          "duration": 0.16,
          "phone": "k_B"
        },
        {
          "duration": 0.2,
          "phone": "ao_I"
        },
        {
          "duration": 0.1,
          "phone": "z_I"
        },
        {
          "duration": 0.1,
          "phone": "ih_I"
        },
        {
          "duration": 0.12,
          "phone": "z_E"
        }
      ],
      "start": 12.849999,
      "startOffset": 180,
      "word": "CAUSES"
    },
    {
      "alignedWord": "which",
      "case": "success",
      "end": 13.77,
      "endOffset": 192,
      "phones": [
        {
          "duration": 0.06,
          "phone": "w_B"
        },
        {
          "duration": 0.05,
          "phone": "ih_I"
        },
        {
          "duration": 0.13,
          "phone": "ch_E"
        }
      ],
      "start": 13.53,
      "startOffset": 187,
      "word": "WHICH"
    },
    {
      "alignedWord": "met",
      "case": "success",
      "end": 14.04,
      "endOffset": 196,
      "phones": [
        {
          "duration": 0.09,
          "phone": "m_B"
        },
        {
          "duration": 0.08,
          "phone": "eh_I"
        },
        {
          "duration": 0.08,
          "phone": "t_E"
        }
      ],
      "start": 13.79,
      "startOffset": 193,
      "word": "MET"
    },
    {
      "alignedWord": "together",
      "case": "success",
      "end": 14.569999999999999,
      "endOffset": 205,
      "phones": [
        {
          "duration": 0.05,
          "phone": "t_B"
        },
        {
          "duration": 0.05,
          "phone": "ah_I"
        },
        {
          "duration": 0.1,
          "phone": "g_I"
        },
        {
          "duration": 0.08,
          "phone": "eh_I"
        },
        {
          "duration": 0.09,
          "phone": "dh_I"
        },
        {
          "duration": 0.16,
          "phone": "er_E"
        }
      ],
      "start": 14.04,
      "startOffset": 197,
      "word": "TOGETHER"
    },
    {
      "alignedWord": "and",
      "case": "success",
      "end": 14.790000000000001,
      "endOffset": 209,
      "phones": [
        {
          "duration": 0.07,
          "phone": "ae_B"
        },
        {
          "duration": 0.07,
          "phone": "n_I"
        },
        {
          "duration": 0.08,
          "phone": "d_E"
        }
      ],
      "start": 14.57,
      "startOffset": 206,
      "word": "AND"
    },
    {
      "alignedWord": "concurred",
      "case": "success",
      "end": 15.629999999999999,
      "endOffset": 219,
      "phones": [
        {
          "duration": 0.05,
          "phone": "k_B"
        },
        {
          "duration": 0.08,
          "phone": "ah_I"
        },
        {
          "duration": 0.09,
          "phone": "n_I"
        },
        {
          "duration": 0.18,
          "phone": "k_I"
        },
        {
          "duration": 0.27,
          "phone": "er_I"
        },
        {
          "duration": 0.17,
          "phone": "d_E"
        }
      ],
      "start": 14.79,
      "startOffset": 210,
      "word": "CONCURRED"
    }
  ]
}