{
  "transcript": "JUST A LITTLE AS SILLY HE WAS CONSCIOUS MOREOVER OF A SMALL STRANGE DREAD OF THE RESULTS OF DISCUSSION WITH HER STRANGE TRULY BECAUSE IT WAS HER GOOD NATURE NOT HER ASPERITY THAT HE FEARED ASPERITY MIGHT HAVE MADE HIM ANGRY",
  "words": [
    {
      "alignedWord": "just",
      "case": "success",
      "end": 0.44999999999999996,
      "endOffset": 4,
      "phones": [
        {
          "duration": 0.1,
          "phone": "jh_B"
        },
        {
          "duration": 0.06,
          "phone": "ah_I"
        },
        {
          "duration": 0.06,
          "phone": "s_I"
        },
        {
          "duration": 0.07,
          "phone": "t_E"
        }
      ],
      "start": 0.16,
      "startOffset": 0,
      "word": "JUST"
    },
    {
      "alignedWord": "a",
      "case": "success",
      "end": 0.51,
      "endOffset": 6,
      "phones": [
        {
          "duration": 0.06,
          "phone": "ah_S"
        }
      ],
      "start": 0.45,
      "startOffset": 5,
      "word": "A"
    },
    {
      "alignedWord": "little",
      "case": "success",
      "end": 0.88,
      "endOffset": 13,
      "phones": [
        {
          "duration": 0.14,
          "phone": "l_B"
        },
        {
          "duration": 0.07,
          "phone": "ih_I"
        },
        {
          "duration": 0.02,
          "phone": "t_I"
        },
        {
          "duration": 0.06,
          "phone": "ah_I"
        },
        {
          "duration": 0.08,
          "phone": "l_E"
        }
      ],
      "start": 0.51,
      "startOffset": 7,
      "word": "LITTLE"
    },
    {
      "alignedWord": "as",
      "case": "success",
      "end": 1.31,
      "endOffset": 16,
      "phones": [
        {
          "duration": 0.19,
          "phone": "ae_B"
        },
        {
          "duration": 0.2,
          "phone": "z_E"
        }
      ],
      "start": 0.92,
      "startOffset": 14,
      "word": "AS"
    },
    {
      "alignedWord": "silly",
      "case": "success",
      "end": 1.9900000000000002,
      "endOffset": 22,
      "phones": [
        {
          "duration": 0.17,
          "phone": "s_B"
        },
        {
          "duration": 0.12,
          "phone": "ih_I"
        },
        {
          "duration": 0.11,
          "phone": "l_I"
        },
        {
          "duration": 0.22,
          "phone": "iy_E"
        }
      ],
      "start": 1.37,
      "startOffset": 17,
      "word": "SILLY"
    },
    {
      "alignedWord": "he",
      "case": "success",
      "end": 3.0300000000000002,
      "endOffset": 25,
      "phones": [
        {
          "duration": 0.11,
          "phone": "hh_B"
        },
        {
          "duration": 0.09,
          "phone": "iy_E"
        }
      ],
      "start": 2.83,
      "startOffset": 23,
      "word": "HE"
    },
    {
      "alignedWord": "was",
      "case": "success",
      "end": 3.2199999999999998,
      "endOffset": 29,
      "phones": [
        {
          "duration": 0.04,
          "phone": "w_B"
        },
        {
          "duration": 0.07,
          "phone": "ah_I"
        },
        {
          "duration": 0.08,
          "phone": "z_E"
        }
      ],
      "start": 3.03,
      "startOffset": 26,
      "word": "WAS"
    },
    {
      "alignedWord": "conscious",
      "case": "success",
      "end": 3.66,
      "endOffset": 39,
      "phones": [
        {
          "duration": 0.09,
          "phone": "k_B"
        },
        {
          "duration": 0.1,
          "phone": "aa_I"
        },
        {
          "duration": 0.04,
          "phone": "n_I"
        },
        {
          "duration": 0.08,
          "phone": "sh_I"
        },
        {
          "duration": 0.05,
          "phone": "ah_I"
        },
        {
          "duration": 0.08,
          "phone": "s_E"
        }
      ],
      "start": 3.22,
      "startOffset": 30,
      "word": "CONSCIOUS"
    },
    {
      "alignedWord": "moreover",
      "case": "success",
      "end": 4.32,
      "endOffset": 48,
      "phones": [
        {
          "duration": 0.08,
          "phone": "m_B"
        },
        {
          "duration": 0.12,
          "phone": "ao_I"
        },
        {
          "duration": 0.09,
          "phone": "r_I"
        },
        {
          "duration": 0.11,
          "phone": "ow_I"
        },
        {
          "duration": 0.14,
          "phone": "v_I"
        },
        {
          "duration": 0.11,
          "phone": "er_E"
        }
      ],
      "start": 3.67,
      "startOffset": 40,
      "word": "MOREOVER"
    },
    {
      "alignedWord": "of",
      "case": "success",
      "end": 4.5,
      "endOffset": 51,
      "phones": [
        {
          "duration": 0.08,
          "phone": "ah_B"
        },
        {
          "duration": 0.1,
          "phone": "v_E"
        }
      ],
      "start": 4.32,
      "startOffset": 49,
      "word": "OF"
    },
    {
      "alignedWord": "a",
      "case": "success",
      "end": 4.58,
      "endOffset": 53,
      "phones": [
        {
          "duration": 0.08,
          "phone": "ah_S"
        }
      ],
      "start": 4.5,
      "startOffset": 52,
      "word": "A"
    },
    {
      "alignedWord": "small",
      "case": "success",
      "end": 5.01,
      "endOffset": 59,
      "phones": [
        {
          "duration": 0.14,
          "phone": "s_B"
        },
        {
          "duration": 0.06,
          "phone": "m_I"
        },
        {
          "duration": 0.13,
          "phone": "ao_I"
        },
        {
          "duration": 0.1,
          "phone": "l_E"
        }
      ],
      "start": 4.58,
      "startOffset": 54,
      "word": "SMALL"
    },
    {
      "alignedWord": "strange",
      "case": "success",
      "end": 5.62,
      "endOffset": 67,
      "phones": [
        {
          "duration": 0.11,
          "phone": "s_B"
        },
        {
          "duration": 0.08,
          "phone": "t_I"
        },
        {
          "duration": 0.11,
          "phone": "r_I"
        },
        {
          "duration": 0.15,
          "phone": "ey_I"
        },
        {
          "duration": 0.07,
          "phone": "n_I"
        },
        {
          "duration": 0.09,
          "phone": "jh_E"
        }
      ],
      "start": 5.01,
      "startOffset": 60,
      "word": "STRANGE"
    },
    {
      "alignedWord": "dread",
      "case": "success",
      "end": 6.06,
      "endOffset": 73,
      "phones": [
        {
          "duration": 0.1,
          "phone": "d_B"
        },
        {
          "duration": 0.17,
          "phone": "r_I"
        },
        {
          "duration": 0.11,
          "phone": "eh_I"
        },
        {
          "duration": 0.05,
          "phone": "d_E"
        }
      ],
      "start": 5.63,
      "startOffset": 68,
      "word": "DREAD"
    },
    {
      "alignedWord": "of",
      "case": "success",
      "end": 6.21,
      "endOffset": 76,
      "phones": [
        {
          "duration": 0.06,
          "phone": "ah_B"
        },
        {
          "duration": 0.09,
          "phone": "v_E"
        }
      ],
      "start": 6.06,
      "startOffset": 74,
      "word": "OF"
    },
    {
      "alignedWord": "the",
      "case": "success",
      "end": 6.3,
      "endOffset": 80,
      "phones": [
        {
          "duration": 0.01,
          "phone": "dh_B"
        },
        {
          "duration": 0.08,
          "phone": "ah_E"
        }
      ],
      "start": 6.21,
      "startOffset": 77,
      "word": "THE"
    },
    {
      "alignedWord": "results",
      "case": "success",
      "end": 6.77,
      "endOffset": 88,
      "phones": [
        {
          "duration": 0.05,
          "phone": "r_B"
        },
        {
          "duration": 0.11,
          "phone": "iy_I"
        },
        {
          "duration": 0.02,
          "phone": "z_I"
        },
        {
          "duration": 0.11,
          "phone": "ah_I"
        },
        {
          "duration": 0.08,
          "phone": "l_I"
        },
        {
          "duration": 0.06,
          "phone": "t_I"
        },
        {
          "duration": 0.04,
          "phone": "s_E"
        }
      ],
      "start": 6.3,
      "startOffset": 81,
      "word": "RESULTS"
    },
    {
      "alignedWord": "of",
      "case": "success",
      "end": 6.909999999999999,
      "endOffset": 91,
      "phones": [
        {
          "duration": 0.06,
          "phone": "ah_B"
        },
        {
          "duration": 0.08,
          "phone": "v_E"
        }
      ],
      "start": 6.77,
      "startOffset": 89,
      "word": "OF"
    },
    {
      "alignedWord": "discussion",
      "case": "success",
      "end": 7.51,
      "endOffset": 102,
      "phones": [
        {
          "duration": 0.04,
          "phone": "d_B"
        },
        {
          "duration": 0.08,
          "phone": "ih_I"
        },
        {
          "duration": 0.09,
          "phone": "s_I"
        },
        {
          "duration": 0.07,
          "phone": "k_I"
        },
        {
          "duration": 0.1,
          "phone": "ah_I"
        },
        {
          "duration": 0.09,
          "phone": "sh_I"
        },
        {
          "duration": 0.04,
          "phone": "ah_I"
        },
        {
          "duration": 0.09,
          "phone": "n_E"
        }
      ],
      "start": 6.91,
      "startOffset": 92,
      "word": "DISCUSSION"
    },
    {
      "alignedWord": "with",
      "case": "success",
      "end": 7.7,
      "endOffset": 107,
      "phones": [
        {
          "duration": 0.05,
          "phone": "w_B"
        },
        {
          "duration": 0.05,
          "phone": "ih_I"
        },
        {
          "duration": 0.09,
          "phone": "th_E"
        }
      ],
      "start": 7.51,
      "startOffset": 103,
      "word": "WITH"
    },
    {
      "alignedWord": "her",
      "case": "success",
      "end": 7.95,
      "endOffset": 111,
      "phones": [
        {
          "duration": 0.07,
          "phone": "hh_B"
        },
        {
          "duration": 0.18,
          "phone": "er_E"
        }
      ],
      "start": 7.7,
      "startOffset": 108,
      "word": "HER"
    },
    {
      "alignedWord": "strange",
      "case": "success",
      "end": 8.88,
      "endOffset": 119,
      "phones": [
        {
          "duration": 0.1,
          "phone": "s_B"
        },
        {
          "duration": 0.08,
          "phone": "t_I"
        },
        {
          "duration": 0.1,
          "phone": "r_I"
        },
        {
          "duration": 0.12,
          "phone": "ey_I"
        },
        {
          "duration": 0.04,
          "phone": "n_I"
        },
        {
          "duration": 0.11,
          "phone": "jh_E"
        }
      ],
      "start": 8.33,
      "startOffset": 112,
      "word": "STRANGE"
    },
    {
      "alignedWord": "truly",
      "case": "success",
      "end": 9.32,
      "endOffset": 125,
      "phones": [
        {
          "duration": 0.11,
          "phone": "t_B"
        },
        {
          "duration": 0.08,
          "phone": "r_I"
        },
        {
          "duration": 0.1,
          "phone": "uw_I"
        },
        {
          "duration": 0.07,
          "phone": "l_I"
        },
        {
          "duration": 0.08,
          "phone": "iy_E"
        }
      ],
      "start": 8.88,
      "startOffset": 120,
      "word": "TRULY"
    },
    {
      "alignedWord": "because",
      "case": "success",
      "end": 9.73,
      "endOffset": 133,
      "phones": [
        {
          "duration": 0.04,
          "phone": "b_B"
        },
        {
          "duration": 0.07,
          "phone": "ih_I"
        },
        {
          "duration": 0.1,
          "phone": "k_I"
        },
        {
          "duration": 0.09,
          "phone": "aa_I"
        },
        {
          "duration": 0.11,
          "phone": "z_E"
        }
      ],
      "start": 9.32,
      "startOffset": 126,
      "word": "BECAUSE"
    },
    {
      "alignedWord": "it",
      "case": "success",
      "end": 9.91,
      "endOffset": 136,
      "phones": [
        {
          "duration": 0.09,
          "phone": "ih_B"
        },
        {
          "duration": 0.07,
          "phone": "t_E"
        }
      ],
      "start": 9.75,
      "startOffset": 134,
      "word": "IT"
    },
    {
      "alignedWord": "was",
      "case": "success",
      "end": 10.17,
      "endOffset": 140,
      "phones": [
        {
          "duration": 0.11,
          "phone": "w_B"
        },
        {
          "duration": 0.09,
          "phone": "aa_I"
        },
        {
          "duration": 0.06,
          "phone": "z_E"
        }
      ],
      "start": 9.91,
      "startOffset": 137,
      "word": "WAS"
    },
    {
      "alignedWord": "her",
      "case": "success",
      "end": 10.28,
      "endOffset": 144,
      "phones": [
        {
          "duration": 0.06,
          "phone": "hh_B"
        },
        {
          "duration": 0.05,
          "phone": "er_E"
        }
      ],
      "start": 10.17,
      "startOffset": 141,
      "word": "HER"
    },
    {
      "alignedWord": "good",
      "case": "success",
      "end": 10.51,
      "endOffset": 149,
      "phones": [
        {
          "duration": 0.09,
          "phone": "g_B"
        },
        {
          "duration": 0.08,
          "phone": "uh_I"
        },
        {
          "duration": 0.06,
          "phone": "d_E"
        }
      ],
      "start": 10.28,
      "startOffset": 145,
      "word": "GOOD"
    },
    {
      "alignedWord": "nature",
      "case": "success",
      "end": 10.89,
      "endOffset": 156,
      "phones": [
        {
          "duration": 0.08,
          "phone": "n_B"
        },
        {
          "duration": 0.09,
          "phone": "ey_I"
        },
        {
          "duration": 0.14,
          "phone": "ch_I"
        },
        {
          "duration": 0.07,
          "phone": "er_E"
        }
      ],
      "start": 10.51,
      "startOffset": 150,
      "word": "NATURE"
    },
    {
      "alignedWord": "not",
      "case": "success",
      "end": 11.119999,
      "endOffset": 160,
      "phones": [
        {
          "duration": 0.05,
          "phone": "n_B"
        },
        {
          "duration": 0.11,
          "phone": "aa_I"
        },
        {
          "duration": 0.07,
          "phone": "t_E"
        }
      ],
      "start": 10.889999,
      "startOffset": 157,
      "word": "NOT"
    },
    {
      "alignedWord": "her",
      "case": "success",
      "end": 11.319999999999999,
      "endOffset": 164,
      "phones": [
        {
          "duration": 0.07,
          "phone": "hh_B"
        },
        {
          "duration": 0.13,
          "phone": "er_E"
        }
      ],
      "start": 11.12,
      "startOffset": 161,
      "word": "HER"
    },
    {
      "alignedWord": "<unk>",
      "case": "success",
      "end": 12.040000000000001,
      "endOffset": 173,
      "phones": [
        {
          "duration": 0.72,
          "phone": "oov_S"
        }
      ],
      "start": 11.32,
      "startOffset": 165,
      "word": "ASPERITY"
    },
    {
      "alignedWord": "that",
      "case": "success",
      "end": 12.51,
      "endOffset": 178,
      "phones": [
        {
          "duration": 0.07,
          "phone": "dh_B"
        },
        {
          "duration": 0.06,
          "phone": "ah_I"
        },
        {
          "duration": 0.05,
          "phone": "t_E"
        }
      ],
      "start": 12.33,
      "startOffset": 174,
      "word": "THAT"
    },
    {
      "alignedWord": "he",
      "case": "success",
      "end": 12.679999,
      "endOffset": 181,
      "phones": [
        {
          "duration": 0.06,
          "phone": "hh_B"
        },
        {
          "duration": 0.11,
          "phone": "iy_E"
        }
      ],
      "start": 12.509999,
      "startOffset": 179,
      "word": "HE"
    },
    {
      "alignedWord": "feared",
      "case": "success",
      "end": 13.229999000000001,
      "endOffset": 188,
      "phones": [
        {
          "duration": 0.11,
          "phone": "f_B"
        },
        {
          "duration": 0.2,
          "phone": "ih_I"
        },
        {
          "duration": 0.1,
          "phone": "r_I"
        },
        {
          "duration": 0.14,
          "phone": "d_E"
        }
      ],
      "start": 12.679999,
      "startOffset": 182,
      "word": "FEARED"
    },
    {
      "alignedWord": "<unk>",
      "case": "success",
      "end": 14.19,
      "endOffset": 197,
      "phones": [
        {
          "duration": 0.61,
          "phone": "oov_S"
        }
      ],
      "start": 13.58,
      "startOffset": 189,
      "word": "ASPERITY"
    },
    {
      "alignedWord": "might",
      "case": "success",
      "end": 14.440000000000001,
      "endOffset": 203,
      "phones": [
        {
          "duration": 0.08,
          "phone": "m_B"
        },
        {
          "duration": 0.09,
          "phone": "ay_I"
        },
        {
          "duration": 0.06,
          "phone": "t_E"
        }
      ],
      "start": 14.21,
      "startOffset": 198,
      "word": "MIGHT"
    },
    {
      "alignedWord": "have",
      "case": "success",
      "end": 14.6,
      "endOffset": 208,
      "phones": [
        {
          "duration": 0.05,
          "phone": "hh_B"
        },
        {
          "duration": 0.04,
          "phone": "ae_I"
        },
        {
          "duration": 0.07,
          "phone": "v_E"
        }
      ],
      "start": 14.44,
      "startOffset": 204,
      "word": "HAVE"
    },
    {
      "alignedWord": "made",
      "case": "success",
      "end": 14.829999,
      "endOffset": 213,
      "phones": [
        {
          "duration": 0.09,
          "phone": "m_B"
        },
        {
          "duration": 0.09,
          "phone": "ey_I"
        },
        {
          "duration": 0.05,
          "phone": "d_E"
        }
      ],
      "start": 14.599999,
      "startOffset": 209,
      "word": "MADE"
    },
    {
      "alignedWord": "him",
      "case": "success",
      "end": 14.99,
      "endOffset": 217,
      "phones": [
        {
          "duration": 0.02,
          "phone": "hh_B"
        },
        {
          "duration": 0.05,
          "phone": "ih_I"
        },
        {
          "duration": 0.09,
          "phone": "m_E"
        }
      ],
      "start": 14.83,
      "startOffset": 214,
      "word": "HIM"
    },
    {
      "alignedWord": "angry",
      "case": "success",
      "end": 15.559999999999999,
      "endOffset": 223,
      "phones": [
        {
          "duration": 0.19,
          "phone": "ae_B"
        },
        {
          "duration": 0.1,
          "phone": "ng_I"
        },
        {
          "duration": 0.06,
          "phone": "g_I"
        },
        {
          "duration": 0.09,
          "phone": "r_I"
        },
        {
          "duration": 0.08,
          "phone": "iy_E"
        }
      ],
      "start": 15.04,
      "startOffset": 218,
      "word": "ANGRY"
    }
  ]
}