{
  "transcript": "TIME AMONG THEM FOR HIM TO FEEL ALMOST TOO SCARED TO TAKE PART IN THE OVATION HE STRUCK HIMSELF AS HAVING LOST FOR THE MINUTE HIS PRESENCE OF MIND SO THAT IN ANY CASE HE ONLY STARED IN SILENCE AT THE OLDER WOMAN'S TECHNICAL CHALLENGE",
  "words": [
    {
      "alignedWord": "time",
      "case": "success",
      "end": 0.5700000000000001,
      "endOffset": 4,
      "phones": [
        {
          "duration": 0.13,
          "phone": "t_B"
        },
        {
          "duration": 0.17,
          "phone": "ay_I"
        },
        {
          "duration": 0.09,
          "phone": "m_E"
        }
      ],
      "start": 0.18,
      "startOffset": 0,
      "word": "TIME"
    },
    {
      "alignedWord": "among",
      "case": "success",
      "end": 0.8999999999999999,
      "endOffset": 10,
      "phones": [
        {
          "duration": 0.07,
          "phone": "ah_B"
        },
        {
          "duration": 0.08,
          "phone": "m_I"
        },
        {
          "duration": 0.09,
          "phone": "ah_I"
        },
        {
          "duration": 0.09,
          "phone": "ng_E"
        }
      ],
      "start": 0.57,
      "startOffset": 5,
      "word": "AMONG"
    },
    {
      "alignedWord": "them",
      "case": "success",
      "end": 1.21,
      "endOffset": 15,
      "phones": [
        {
          "duration": 0.05,
          "phone": "dh_B"
        },
        {
          "duration": 0.11,
          "phone": "eh_I"
        },
        {
          "duration": 0.15,
          "phone": "m_E"
        }
      ],
      "start": 0.9,
      "startOffset": 11,
      "word": "THEM"
    },
    {
      "alignedWord": "for",
      "case": "success",
      "end": 1.52,
      "endOffset": 19,
      "phones": [
        {
          "duration": 0.14,
          "phone": "f_B"
        },
        {
          "duration": 0.08,
          "phone": "er_E"
        }
      ],
      "start": 1.3,
      "startOffset": 16,
      "word": "FOR"
    },
    {
      "alignedWord": "him",
      "case": "success",
      "end": 1.78,
      "endOffset": 23,
      "phones": [
        {
          "duration": 0.13,
          "phone": "hh_B"
        },
        {
          "duration": 0.08,
          "phone": "ih_I"
        },
        {
          "duration": 0.05,
          "phone": "m_E"
        }
      ],
      "start": 1.52,
      "startOffset": 20,
      "word": "HIM"
    },
    {
      "alignedWord": "to",
      "case": "success",
      "end": 1.9400000000000002,
      "endOffset": 26,
      "phones": [
        {
          "duration": 0.05,
          "phone": "t_B"
        },
        {
          "duration": 0.06,
          "phone": "ih_E"
        }
      ],
      "start": 1.83,
      "startOffset": 24,
      "word": "TO"
    },
    {
      "alignedWord": "feel",
      "case": "success",
      "end": 2.2399999999999998,
      "endOffset": 31,
      "phones": [
        {
          "duration": 0.12,
          "phone": "f_B"
        },
        {
          "duration": 0.09,
          "phone": "iy_I"
        },
        {
          "duration": 0.09,
          "phone": "l_E"
        }
      ],
      "start": 1.94,
      "startOffset": 27,
      "word": "FEEL"
    },
    {
      "alignedWord": "almost",
      "case": "success",
      "end": 2.65,
      "endOffset": 38,
      "phones": [
        {
          "duration": 0.1,
          "phone": "ao_B"
        },
        {
          "duration": 0.08,
          "phone": "l_I"
        },
        {
          "duration": 0.04,
          "phone": "m_I"
        },
        {
          "duration": 0.03,
          "phone": "ow_I"
        },
        {
          "duration": 0.1,
          "phone": "s_I"
        },
        {
          "duration": 0.04,
          "phone": "t_E"
        }
      ],
      "start": 2.26,
      "startOffset": 32,
      "word": "ALMOST"
    },
    {
      "alignedWord": "too",
      "case": "success",
      "end": 2.89,
      "endOffset": 42,
      "phones": [
        {
          "duration": 0.12,
          "phone": "t_B"
        },
        {
          "duration": 0.11,
          "phone": "uw_E"
        }
      ],
      "start": 2.66,
      "startOffset": 39,
      "word": "TOO"
    },
    {
      "alignedWord": "scared",
      "case": "success",
      "end": 3.33,
      "endOffset": 49,
      "phones": [
        {
          "duration": 0.1,
          "phone": "s_B"
        },
        {
          "duration": 0.08,
          "phone": "k_I"
        },
        {
          "duration": 0.11,
          "phone": "eh_I"
        },
        {
          "duration": 0.08,
          "phone": "r_I"
        },
        {
          "duration": 0.07,
          "phone": "d_E"
        }
      ],
      "start": 2.89,
      "startOffset": 43,
      "word": "SCARED"
    },
    {
      "alignedWord": "to",
      "case": "success",
      "end": 3.43,
      "endOffset": 52,
      "phones": [
        {
          "duration": 0.03,
          "phone": "t_B"
        },
        {
          "duration": 0.07,
          "phone": "ih_E"
        }
      ],
      "start": 3.33,
      "startOffset": 50,
      "word": "TO"
    },
    {
      "alignedWord": "take",
      "case": "success",
      "end": 3.68,
      "endOffset": 57,
      "phones": [
        {
          "duration": 0.07,
          "phone": "t_B"
        },
        {
          "duration": 0.1,
          "phone": "ey_I"
        },
        {
          "duration": 0.08,
          "phone": "k_E"
        }
      ],
      "start": 3.43,
      "startOffset": 53,
      "word": "TAKE"
    },
    {
      "alignedWord": "part",
      "case": "success",
      "end": 4.03,
      "endOffset": 62,
      "phones": [
        {
          "duration": 0.14,
          "phone": "p_B"
        },
        {
          "duration": 0.09,
          "phone": "aa_I"
        },
        {
          "duration": 0.06,
          "phone": "r_I"
        },
        {
          "duration": 0.06,
          "phone": "t_E"
        }
      ],
      "start": 3.68,
      "startOffset": 58,
      "word": "PART"
    },
    {
      "alignedWord": "in",
      "case": "success",
      "end": 4.15,
      "endOffset": 65,
      "phones": [
        {
          "duration": 0.07,
          "phone": "ih_B"
        },
        {
          "duration": 0.05,
          "phone": "n_E"
        }
      ],
      "start": 4.03,
      "startOffset": 63,
      "word": "IN"
    },
    {
      "alignedWord": "the",
      "case": "success",
      "end": 4.300000000000001,
      "endOffset": 69,
      "phones": [
        {
          "duration": 0.07,
          "phone": "dh_B"
        },
        {
          "duration": 0.08,
          "phone": "iy_E"
        }
      ],
      "start": 4.15,
      "startOffset": 66,
      "word": "THE"
    },
    {
      "alignedWord": "<unk>",
      "case": "success",
      "end": 4.95,
      "endOffset": 77,
      "phones": [
        {
          "duration": 0.65,
          "phone": "oov_S"
        }
      ],
      "start": 4.3,
      "startOffset": 70,
      "word": "OVATION"
    },
    {
      "alignedWord": "he",
      "case": "success",
      "end": 5.82,
      "endOffset": 80,
      "phones": [
        {
          "duration": 0.14,
          "phone": "hh_B"
        },
        {
          "duration": 0.07,
          "phone": "iy_E"
        }
      ],
      "start": 5.61,
      "startOffset": 78,
      "word": "HE"
    },
    {
      "alignedWord": "struck",
      "case": "success",
      "end": 6.12,
      "endOffset": 87,
      "phones": [
        {
          "duration": 0.04,
          "phone": "s_B"
        },
        {
          "duration": 0.06,
          "phone": "t_I"
        },
        {
          "duration": 0.07,
          "phone": "r_I"
        },
        {
          "duration": 0.07,
          "phone": "ah_I"
        },
        {
          "duration": 0.06,
          "phone": "k_E"
        }
      ],
      "start": 5.82,
      "startOffset": 81,
      "word": "STRUCK"
    },
    {
      "alignedWord": "himself",
      "case": "success",
      "end": 6.49,
      "endOffset": 95,
      "phones": [
        {
          "duration": 0.01,
          "phone": "hh_B"
        },
        {
          "duration": 0.04,
          "phone": "ih_I"
        },
        {
          "duration": 0.06,
          "phone": "m_I"
        },
        {
          "duration": 0.06,
          "phone": "s_I"
        },
        {
          "duration": 0.07,
          "phone": "eh_I"
        },
        {
          "duration": 0.06,
          "phone": "l_I"
        },
        {
          "duration": 0.07,
          "phone": "f_E"
        }
      ],
      "start": 6.12,
      "startOffset": 88,
      "word": "HIMSELF"
    },
    {
      "alignedWord": "as",
      "case": "success",
      "end": 6.63,
      "endOffset": 98,
      "phones": [
        {
          "duration": 0.07,
          "phone": "eh_B"
        },
        {
          "duration": 0.07,
          "phone": "z_E"
        }
      ],
      "start": 6.49,
      "startOffset": 96,
      "word": "AS"
    },
    {
      "alignedWord": "having",
      "case": "success",
      "end": 7.02,
      "endOffset": 105,
      "phones": [
        {
          "duration": 0.07,
          "phone": "hh_B"
        },
        {
          "duration": 0.06,
          "phone": "ae_I"
        },
        {
          "duration": 0.07,
          "phone": "v_I"
        },
        {
          "duration": 0.07,
          "phone": "ih_I"
        },
        {
          "duration": 0.11,
          "phone": "ng_E"
        }
      ],
      "start": 6.64,
      "startOffset": 99,
      "word": "HAVING"
    },
    {
      "alignedWord": "lost",
      "case": "success",
      "end": 7.4399999999999995,
      "endOffset": 110,
      "phones": [
        {
          "duration": 0.09,
          "phone": "l_B"
        },
        {
          "duration": 0.18,
          "phone": "ao_I"
        },
        {
          "duration": 0.09,
          "phone": "s_I"
        },
        {
          "duration": 0.06,
          "phone": "t_E"
        }
      ],
      "start": 7.02,
      "startOffset": 106,
      "word": "LOST"
    },
    {
      "alignedWord": "for",
      "case": "success",
      "end": 7.510000000000001,
      "endOffset": 114,
      "phones": [
        {
          "duration": 0.04,
          "phone": "f_B"
        },
        {
          "duration": 0.03,
          "phone": "er_E"
        }
      ],
      "start": 7.44,
      "startOffset": 111,
      "word": "FOR"
    },
    {
      "alignedWord": "the",
      "case": "success",
      "end": 7.64,
      "endOffset": 118,
      "phones": [
        {
          "duration": 0.07,
          "phone": "dh_B"
        },
        {
          "duration": 0.05,
          "phone": "ah_E"
        }
      ],
      "start": 7.52,
      "startOffset": 115,
      "word": "THE"
    },
    {
      "alignedWord": "minute",
      "case": "success",
      "end": 7.989999999999999,
      "endOffset": 125,
      "phones": [
        {
          "duration": 0.04,
          "phone": "m_B"
        },
        {
          "duration": 0.09,
          "phone": "ih_I"
        },
        {
          "duration": 0.05,
          "phone": "n_I"
        },
        {
          "duration": 0.07,
          "phone": "ah_I"
        },
        {
          "duration": 0.1,
          "phone": "t_E"
        }
      ],
      "start": 7.64,
      "startOffset": 119,
      "word": "MINUTE"
    },
    {
      "alignedWord": "his",
      "case": "success",
      "end": 8.44,
      "endOffset": 129,
      "phones": [
        {
          "duration": 0.07,
          "phone": "hh_B"
        },
        {
          "duration": 0.05,
          "phone": "ih_I"
        },
        {
          "duration": 0.06,
          "phone": "z_E"
        }
      ],
      "start": 8.26,
      "startOffset": 126,
      "word": "HIS"
    },
    {
      "alignedWord": "presence",
      "case": "success",
      "end": 8.83,
      "endOffset": 138,
      "phones": [
        {
          "duration": 0.06,
          "phone": "p_B"
        },
        {
          "duration": 0.08,
          "phone": "r_I"
        },
        {
          "duration": 0.06,
          "phone": "eh_I"
        },
        {
          "duration": 0.04,
          "phone": "z_I"
        },
        {
          "duration": 0.06,
          "phone": "ah_I"
        },
        {
          "duration": 0.08,
          "phone": "n_I"
        },
        {
          "duration": 0.01,
          "phone": "s_E"
        }
      ],
      "start": 8.44,
      "startOffset": 130,
      "word": "PRESENCE"
    },
    {
      "alignedWord": "of",
      "case": "success",
      "end": 9.0,
      "endOffset": 141,
      "phones": [
        {
          "duration": 0.09,
          "phone": "ah_B"
        },
        {
          "duration": 0.08,
          "phone": "v_E"
        }
      ],
      "start": 8.83,
      "startOffset": 139,
      "word": "OF"
    },
    {
      "alignedWord": "mind",
      "case": "success",
      "end": 9.45,
      "endOffset": 146,
      "phones": [
        {
          "duration": 0.08,
          "phone": "m_B"
        },
        {
          "duration": 0.23,
          "phone": "ay_I"
        },
        {
          "duration": 0.05,
          "phone": "n_I"
        },
        {
          "duration": 0.09,
          "phone": "d_E"
        }
      ],
      "start": 9.0,
      "startOffset": 142,
      "word": "MIND"
    },
    {
      "alignedWord": "so",
      "case": "success",
      "end": 9.94,
      "endOffset": 149,
      "phones": [
        {
          "duration": 0.11,
          "phone": "s_B"
        },
        {
          "duration": 0.08,
          "phone": "ow_E"
        }
      ],
      "start": 9.75,
      "startOffset": 147,
      "word": "SO"
    },
    {
      "alignedWord": "that",
      "case": "success",
      "end": 10.209999999999999,
      "endOffset": 154,
      "phones": [
        {
          "duration": 0.09,
          "phone": "dh_B"
        },
        {
          "duration": 0.11,
          "phone": "ae_I"
        },
        {
          "duration": 0.07,
          "phone": "t_E"
        }
      ],
      "start": 9.94,
      "startOffset": 150,
      "word": "THAT"
    },
    {
      "alignedWord": "in",
      "case": "success",
      "end": 10.4,
      "endOffset": 157,
      "phones": [
        {
          "duration": 0.08,
          "phone": "ih_B"
        },
        {
          "duration": 0.09,
          "phone": "n_E"
        }
      ],
      "start": 10.23,
      "startOffset": 155,
      "word": "IN"
    },
    {
      "alignedWord": "any",
      "case": "success",
      "end": 10.67,
      "endOffset": 161,
      "phones": [
        {
          "duration": 0.09,
          "phone": "eh_B"
        },
        {
          "duration": 0.08,
          "phone": "n_I"
        },
        {
          "duration": 0.09,
          "phone": "iy_E"
        }
      ],
      "start": 10.41,
      "startOffset": 158,
      "word": "ANY"
    },
    {
      "alignedWord": "case",
      "case": "success",
      "end": 10.959999999999999,
      "endOffset": 166,
      "phones": [
        {
          "duration": 0.11,
          "phone": "k_B"
        },
        {
          "duration": 0.11,
          "phone": "ey_I"
        },
        {
          "duration": 0.07,
          "phone": "s_E"
        }
      ],
      "start": 10.67,
      "startOffset": 162,
      "word": "CASE"
    },
    {
      "alignedWord": "he",
      "case": "success",
      "end": 11.110000000000001,
      "endOffset": 169,
      "phones": [
        {
          "duration": 0.06,
          "phone": "hh_B"
        },
        {
          "duration": 0.09,
          "phone": "iy_E"
        }
      ],
      "start": 10.96,
      "startOffset": 167,
      "word": "HE"
    },
    {
      "alignedWord": "only",
      "case": "success",
      "end": 11.44,
      "endOffset": 174,
      "phones": [
        {
          "duration": 0.12,
          "phone": "ow_B"
        },
        {
          "duration": 0.08,
          "phone": "n_I"
        },
        {
          "duration": 0.06,
          "phone": "l_I"
        },
        {
          "duration": 0.07,
          "phone": "iy_E"
        }
      ],
      "start": 11.11,
      "startOffset": 170,
      "word": "ONLY"
    },
    {
      "alignedWord": "stared",
      "case": "success",
      "end": 11.799999999999999,
      "endOffset": 181,
      "phones": [
        {
          "duration": 0.09,
          "phone": "s_B"
        },
        {
          "duration": 0.08,
          "phone": "t_I"
        },
        {
          "duration": 0.09,
          "phone": "eh_I"
        },
        {
          "duration": 0.05,
          "phone": "r_I"
        },
        {
          "duration": 0.05,
          "phone": "d_E"
        }
      ],
      "start": 11.44,
      "startOffset": 175,
      "word": "STARED"
    },
    {
      "alignedWord": "in",
      "case": "success",
      "end": 11.930000000000001,
      "endOffset": 184,
      "phones": [
        {
          "duration": 0.05,
          "phone": "ih_B"
        },
        {
          "duration": 0.08,
          "phone": "n_E"
        }
      ],
      "start": 11.8,
      "startOffset": 182,
      "word": "IN"
    },
    {
      "alignedWord": "silence",
      "case": "success",
      "end": 12.489999000000001,
      "endOffset": 192,
      "phones": [
        {
          "duration": 0.14,
          "phone": "s_B"
        },
        {
          "duration": 0.14,
          "phone": "ay_I"
        },
        {
          "duration": 0.07,
          "phone": "l_I"
        },
        {
          "duration": 0.08,
          "phone": "ah_I"
        },
        {
          "duration": 0.07,
          "phone": "n_I"
        },
        {
          "duration": 0.06,
          "phone": "s_E"
        }
      ],
      "start": 11.929999,
      "startOffset": 185,
      "word": "SILENCE"
    },
    {
      "alignedWord": "at",
      "case": "success",
      "end": 12.620000000000001,
      "endOffset": 195,
      "phones": [
        {
          "duration": 0.07,
          "phone": "ae_B"
        },
        {
          "duration": 0.06,
          "phone": "t_E"
        }
      ],
      "start": 12.49,
      "startOffset": 193,
      "word": "AT"
    },
    {
      "alignedWord": "the",
      "case": "success",
      "end": 12.77,
      "endOffset": 199,
      "phones": [
        {
          "duration": 0.06,
          "phone": "dh_B"
        },
        {
          "duration": 0.09,
          "phone": "iy_E"
        }
      ],
      "start": 12.62,
      "startOffset": 196,
      "word": "THE"
    },
    {
      "alignedWord": "older",
      "case": "success",
      "end": 13.08,
      "endOffset": 205,
      "phones": [
        {
          "duration": 0.09,
          "phone": "ow_B"
        },
        {
          "duration": 0.08,
          "phone": "l_I"
        },
        {
          "duration": 0.06,
          "phone": "d_I"
        },
        {
          "duration": 0.07,
          "phone": "er_E"
        }
      ],
      "start": 12.78,
      "startOffset": 200,
      "word": "OLDER"
    },
    {
      "alignedWord": "woman's",
      "case": "success",
      "end": 13.57,
      "endOffset": 213,
      "phones": [
        {
          "duration": 0.1,
          "phone": "w_B"
        },
        {
          "duration": 0.1,
          "phone": "uh_I"
        },
        {
          "duration": 0.04,
          "phone": "m_I"
        },
        {
          "duration": 0.06,
          "phone": "ah_I"
        },
        {
          "duration": 0.05,
          "phone": "n_I"
        },
        {
          "duration": 0.14,
          "phone": "z_E"
        }
      ],
      "start": 13.08,
      "startOffset": 206,
      "word": "WOMAN'S"
    },
    {
      "alignedWord": "technical",
      "case": "success",
      "end": 14.120000000000001,
      "endOffset": 223,
      "phones": [
        {
          "duration": 0.11,
          "phone": "t_B"
        },
        {
          "duration": 0.08,
          "phone": "eh_I"
        },
        {
          "duration": 0.07,
          "phone": "k_I"
        },
        {
          "duration": 0.04,
          "phone": "n_I"
        },
        {
          "duration": 0.07,
          "phone": "ih_I"
        },
        {
          "duration": 0.02,
          "phone": "k_I"
        },
        {
          "duration": 0.08,
          "phone": "ah_I"
        },
        {
          "duration": 0.08,
          "phone": "l_E"
        }
      ],
      "start": 13.57,
      "startOffset": 214,
      "word": "TECHNICAL"
    },
    {
      "alignedWord": "challenge",
      "case": "success",
      "end": 14.67,
      "endOffset": 233,
      "phones": [
        {
          "duration": 0.15,
          "phone": "ch_B"
        },
        {
          "duration": 0.1,
          "phone": "ae_I"
        },
        {
          "duration": 0.09,
          "phone": "l_I"
        },
        {
          "duration": 0.05,
          "phone": "ah_I"
        },
        {
          "duration": 0.07,
          "phone": "n_I"
        },
        {
          "duration": 0.09,
          "phone": "jh_E"
        }
      ],
      "start": 14.12,
      "startOffset": 224,
      "word": "CHALLENGE"
    }
  ]
}