{
  "transcript": "OR SOMETHING ELSE WE'LL SEE JIMMIE DALE TOOK A BOX OF MATCHES FROM HIS POCKET THE FIRST WOULD NOT LIGHT",
  "words": [
    {
      "alignedWord": "or",
      "case": "success",
      "end": 0.41000000000000003,
      "endOffset": 2,
      "phones": [
        {
          "duration": 0.08,
          "phone": "ao_B"
        },
        {
          "duration": 0.07,
          "phone": "r_E"
        }
      ],
      "start": 0.26,
      "startOffset": 0,
      "word": "OR"
    },
    {
      "alignedWord": "something",
      "case": "success",
      "end": 0.86,
      "endOffset": 12,
      "phones": [
        {
          "duration": 0.09,
          "phone": "s_B"
        },
        {
          "duration": 0.07,
          "phone": "ah_I"
        },
        {
          "duration": 0.07,
          "phone": "m_I"
        },
        {
          "duration": 0.07,
          "phone": "th_I"
        },
        {
          "duration": 0.07,
          "phone": "ih_I"
        },
        {
          "duration": 0.08,
          "phone": "ng_E"
        }
      ],
      "start": 0.41,
      "startOffset": 3,
      "word": "SOMETHING"
    },
    {
      "alignedWord": "else",
      "case": "success",
      "end": 1.43,
      "endOffset": 17,
      "phones": [
        {
          "duration": 0.14,
          "phone": "eh_B"
        },
        {
          "duration": 0.14,
          "phone": "l_I"
        },
        {
          "duration": 0.29,
          "phone": "s_E"
        }
      ],
      "start": 0.86,
      "startOffset": 13,
      "word": "ELSE"
    },
    {
      "alignedWord": "we'll",
      "case": "success",
      "end": 2.83,
      "endOffset": 23,
      "phones": [
        {
          "duration": 0.09,
          "phone": "w_B"
        },
        {
          "duration": 0.07,
          "phone": "ih_I"
        },
        {
          "duration": 0.1,
          "phone": "l_E"
        }
      ],
      "start": 2.57,
      "startOffset": 18,
      "word": "WE'LL"
    },
    {
      "alignedWord": "see",
      "case": "success",
      "end": 3.35,
      "endOffset": 27,
      "phones": [
        {
          "duration": 0.15,
          "phone": "s_B"
        },
        {
          "duration": 0.37,
          "phone": "iy_E"
        }
      ],
      "start": 2.83,
      "startOffset": 24,
      "word": "SEE"
    },
    {
      "alignedWord": "jimmie",
      "case": "success",
      "end": 7.35,
      "endOffset": 34,
      "phones": [
        {
          "duration": 0.08,
          "phone": "jh_B"
        },
        {
          "duration": 0.08,
          "phone": "ih_I"
        },
        {
          "duration": 0.06,
          "phone": "m_I"
        },
        {
          "duration": 0.07,
          "phone": "iy_E"
        }
      ],
      "start": 7.06,
      "startOffset": 28,
      "word": "JIMMIE"
    },
    {
      "alignedWord": "dale",
      "case": "success",
      "end": 7.6899999999999995,
      "endOffset": 39,
      "phones": [
        {
          "duration": 0.09,
          "phone": "d_B"
        },
        {
          "duration": 0.16,
          "phone": "ey_I"
        },
        {
          "duration": 0.09,
          "phone": "l_E"
        }
      ],
      "start": 7.35,
      "startOffset": 35,
      "word": "DALE"
    },
    {
      "alignedWord": "took",
      "case": "success",
      "end": 7.890000000000001,
      "endOffset": 44,
      "phones": [
        {
          "duration": 0.07,
          "phone": "t_B"
        },
        {
          "duration": 0.08,
          "phone": "uh_I"
        },
        {
          "duration": 0.05,
          "phone": "k_E"
        }
      ],
      "start": 7.69,
      "startOffset": 40,
      "word": "TOOK"
    },
    {
      "alignedWord": "a",
      "case": "success",
      "end": 7.97,
      "endOffset": 46,
      "phones": [
        {
          "duration": 0.08,
          "phone": "ah_S"
        }
      ],
      "start": 7.89,
      "startOffset": 45,
      "word": "A"
    },
    {
      "alignedWord": "box",
      "case": "success",
      "end": 8.280000000000001,
      "endOffset": 50,
      "phones": [
        {
          "duration": 0.08,
          "phone": "b_B"
        },
        {
          "duration": 0.09,
          "phone": "aa_I"
        },
        {
          "duration": 0.09,
          "phone": "k_I"
        },
        {
          "duration": 0.04,
          "phone": "s_E"
        }
      ],
      "start": 7.98,
      "startOffset": 47,
      "word": "BOX"
    },
    {
      "alignedWord": "of",
      "case": "success",
      "end": 8.45,
      "endOffset": 53,
      "phones": [
        {
          "duration": 0.08,
          "phone": "ah_B"
        },
        {
          "duration": 0.09,
          "phone": "v_E"
        }
      ],
      "start": 8.28,
      "startOffset": 51,
      "word": "OF"
    },
    {
      "alignedWord": "matches",
      "case": "success",
      "end": 8.84,
      "endOffset": 61,
      "phones": [
        {
          "duration": 0.08,
          "phone": "m_B"
        },
        {
          "duration": 0.12,
          "phone": "ae_I"
        },
        {
          "duration": 0.1,
          "phone": "ch_I"
        },
        {
          "duration": 0.04,
          "phone": "ih_I"
        },
        {
          "duration": 0.05,
          "phone": "z_E"
        }
      ],
      "start": 8.45,
      "startOffset": 54,
      "word": "MATCHES"
    },
    {
      "alignedWord": "from",
      "case": "success",
      "end": 9.039999,
      "endOffset": 66,
      "phones": [
        {
          "duration": 0.07,
          "phone": "f_B"
        },
        {
          "duration": 0.05,
          "phone": "er_I"
        },
        {
          "duration": 0.07,
          "phone": "m_E"
        }
      ],
      "start": 8.849999,
      "startOffset": 62,
      "word": "FROM"
    },
    {
      "alignedWord": "his",
      "case": "success",
      "end": 9.18,
      "endOffset": 70,
      "phones": [
        {
          "duration": 0.02,
          "phone": "hh_B"
        },
        {
          "duration": 0.04,
          "phone": "ih_I"
        },
        {
          "duration": 0.08,
          "phone": "z_E"
        }
      ],
      "start": 9.04,
      "startOffset": 67,
      "word": "HIS"
    },
    {
      "alignedWord": "pocket",
      "case": "success",
      "end": 9.77,
      "endOffset": 77,
      "phones": [
        {
          "duration": 0.07,
          "phone": "p_B"
        },
        {
          "duration": 0.11,
          "phone": "aa_I"
        },
        {
          "duration": 0.09,
          "phone": "k_I"
        },
        {
          "duration": 0.07,
          "phone": "ah_I"
        },
        {
          "duration": 0.23,
          "phone": "t_E"
        }
      ],
      "start": 9.2,
      "startOffset": 71,
      "word": "POCKET"
    },
    {
      "alignedWord": "the",
      "case": "success",
      "end": 11.38,
      "endOffset": 81,
      "phones": [
        {
          "duration": 0.07,
          "phone": "dh_B"
        },
        {
          "duration": 0.08,
          "phone": "ah_E"
        }
      ],
      "start": 11.23,
      "startOffset": 78,
      "word": "THE"
    },
    {
      "alignedWord": "first",
      "case": "success",
      "end": 11.83,
      "endOffset": 87,
      "phones": [
        {
          "duration": 0.1,
          "phone": "f_B"
        },
        {
          "duration": 0.17,
          "phone": "er_I"
        },
        {
          "duration": 0.08,
          "phone": "s_I"
        },
        {
          "duration": 0.1,
          "phone": "t_E"
        }
      ],
      "start": 11.38,
      "startOffset": 82,
      "word": "FIRST"
    },
    {
      "alignedWord": "would",
      "case": "success",
      "end": 11.97,
      "endOffset": 93,
      "phones": [
        {
          "duration": 0.02,
          "phone": "w_B"
        },
        {
          "duration": 0.06,
          "phone": "uh_I"
        },
        {
          "duration": 0.06,
          "phone": "d_E"
        }
      ],
      "start": 11.83,
      "startOffset": 88,
      "word": "WOULD"
    },
    {
      "alignedWord": "not",
      "case": "success",
      "end": 12.189999,
      "endOffset": 97,
      "phones": [
        {
          "duration": 0.04,
          "phone": "n_B"
        },
        {
          "duration": 0.1,
          "phone": "aa_I"
        },
        {
          "duration": 0.08,
          "phone": "t_E"
        }
      ],
      "start": 11.969999,
      "startOffset": 94,
      "word": "NOT"
    },
    {
      "alignedWord": "light",
      "case": "success",
      "end": 12.67,
      "endOffset": 103,
      "phones": [
        {
          "duration": 0.11,
          "phone": "l_B"
        },
        {
          "duration": 0.19,
          "phone": "ay_I"
        },
        {
          "duration": 0.17,
          "phone": "t_E"
        }
      ],
      "start": 12.2,
      "startOffset": 98,
      "word": "LIGHT"
    }
  ]
}