{
  "transcript": "THAT IS WHY YOU LOVE ME ALL OF ME AND WILL SURRENDER NO PART OF ME TO THE STATE TO POSTERITY OR TO MANLY PLEASURES I AM ALL YOURS WE ARE CLOSEST TO EACH OTHER",
  "words": [
    {
      "alignedWord": "that",
      "case": "success",
      "end": 0.64,
      "endOffset": 4,
      "phones": [
        {
          "duration": 0.09,
          "phone": "dh_B"
        },
        {
          "duration": 0.05,
          "phone": "ae_I"
        },
        {
          "duration": 0.06,
          "phone": "t_E"
        }
      ],
      "start": 0.44,
      "startOffset": 0,
      "word": "THAT"
    },
    {
      "alignedWord": "is",
      "case": "success",
      "end": 0.78,
      "endOffset": 7,
      "phones": [
        {
          "duration": 0.07,
          "phone": "ih_B"
        },
        {
          "duration": 0.07,
          "phone": "z_E"
        }
      ],
      "start": 0.64,
      "startOffset": 5,
      "word": "IS"
    },
    {
      "alignedWord": "why",
      "case": "success",
      "end": 1.01,
      "endOffset": 11,
      "phones": [
        {
          "duration": 0.13,
          "phone": "w_B"
        },
        {
          "duration": 0.09,
          "phone": "ay_E"
        }
      ],
      "start": 0.79,
      "startOffset": 8,
      "word": "WHY"
    },
    {
      "alignedWord": "you",
      "case": "success",
      "end": 1.22,
      "endOffset": 15,
      "phones": [
        {
          "duration": 0.09,
          "phone": "y_B"
        },
        {
          "duration": 0.12,
          "phone": "uw_E"
        }
      ],
      "start": 1.01,
      "startOffset": 12,
      "word": "YOU"
    },
    {
      "alignedWord": "love",
      "case": "success",
      "end": 1.56,
      "endOffset": 20,
      "phones": [
        {
          "duration": 0.16,
          "phone": "l_B"
        },
        {
          "duration": 0.09,
          "phone": "ah_I"
        },
        {
          "duration": 0.09,
          "phone": "v_E"
        }
      ],
      "start": 1.22,
      "startOffset": 16,
      "word": "LOVE"
    },
    {
      "alignedWord": "me",
      "case": "success",
      "end": 1.82,
      "endOffset": 23,
      "phones": [
        {
          "duration": 0.08,
          "phone": "m_B"
        },
        {
          "duration": 0.18,
          "phone": "iy_E"
        }
      ],
      "start": 1.56,
      "startOffset": 21,
      "word": "ME"
    },
    {
      "alignedWord": "all",
      "case": "success",
      "end": 2.8699999999999997,
      "endOffset": 27,
      "phones": [
        {
          "duration": 0.22,
          "phone": "ao_B"
        },
        {
          "duration": 0.12,
          "phone": "l_E"
        }
      ],
      "start": 2.53,
      "startOffset": 24,
      "word": "ALL"
    },
    {
      "alignedWord": "of",
      "case": "success",
      "end": 3.0300000000000002,
      "endOffset": 30,
      "phones": [
        {
          "duration": 0.06,
          "phone": "ah_B"
        },
        {
          "duration": 0.1,
          "phone": "v_E"
        }
      ],
      "start": 2.87,
      "startOffset": 28,
      "word": "OF"
    },
    {
      "alignedWord": "me",
      "case": "success",
      "end": 3.29,
      "endOffset": 33,
      "phones": [
        {
          "duration": 0.06,
          "phone": "m_B"
        },
        {
          "duration": 0.2,
          "phone": "iy_E"
        }
      ],
      "start": 3.03,
      "startOffset": 31,
      "word": "ME"
    },
    {
      "alignedWord": "and",
      "case": "success",
      "end": 3.87,
      "endOffset": 37,
      "phones": [
        {
          "duration": 0.09,
          "phone": "ae_B"
        },
        {
          "duration": 0.04,
          "phone": "n_I"
        },
        {
          "duration": 0.06,
          "phone": "d_E"
        }
      ],
      "start": 3.68,
      "startOffset": 34,
      "word": "AND"
    },
    {
      "alignedWord": "will",
      "case": "success",
      "end": 4.05,
      "endOffset": 42,
      "phones": [
        {
          "duration": 0.01,
          "phone": "w_B"
        },
        {
          "duration": 0.07,
          "phone": "ih_I"
        },
        {
          "duration": 0.1,
          "phone": "l_E"
        }
      ],
      "start": 3.87,
      "startOffset": 38,
      "word": "WILL"
    },
    {
      "alignedWord": "surrender",
      "case": "success",
      "end": 4.569999999999999,
      "endOffset": 52,
      "phones": [
        {
          "duration": 0.12,
          "phone": "s_B"
        },
        {
          "duration": 0.12,
          "phone": "er_I"
        },
        {
          "duration": 0.06,
          "phone": "eh_I"
        },
        {
          "duration": 0.06,
          "phone": "n_I"
        },
        {
          "duration": 0.07,
          "phone": "d_I"
        },
        {
          "duration": 0.08,
          "phone": "er_E"
        }
      ],
      "start": 4.06,
      "startOffset": 43,
      "word": "SURRENDER"
    },
    {
      "alignedWord": "no",
      "case": "success",
      "end": 4.8100000000000005,
      "endOffset": 55,
      "phones": [
        {
          "duration": 0.07,
          "phone": "n_B"
        },
        {
          "duration": 0.17,
          "phone": "ow_E"
        }
      ],
      "start": 4.57,
      "startOffset": 53,
      "word": "NO"
    },
    {
      "alignedWord": "part",
      "case": "success",
      "end": 5.09,
      "endOffset": 60,
      "phones": [
        {
          "duration": 0.07,
          "phone": "p_B"
        },
        {
          "duration": 0.07,
          "phone": "aa_I"
        },
        {
          "duration": 0.09,
          "phone": "r_I"
        },
        {
          "duration": 0.02,
          "phone": "t_E"
        }
      ],
      "start": 4.84,
      "startOffset": 56,
      "word": "PART"
    },
    {
      "alignedWord": "of",
      "case": "success",
      "end": 5.2299999999999995,
      "endOffset": 63,
      "phones": [
        {
          "duration": 0.06,
          "phone": "ah_B"
        },
        {
          "duration": 0.08,
          "phone": "v_E"
        }
      ],
      "start": 5.09,
      "startOffset": 61,
      "word": "OF"
    },
    {
      "alignedWord": "me",
      "case": "success",
      "end": 5.420000000000001,
      "endOffset": 66,
      "phones": [
        {
          "duration": 0.07,
          "phone": "m_B"
        },
        {
          "duration": 0.12,
          "phone": "iy_E"
        }
      ],
      "start": 5.23,
      "startOffset": 64,
      "word": "ME"
    },
    {
      "alignedWord": "to",
      "case": "success",
      "end": 5.64,
      "endOffset": 69,
      "phones": [
        {
          "duration": 0.12,
          "phone": "t_B"
        },
        {
          "duration": 0.1,
          "phone": "uw_E"
        }
      ],
      "start": 5.42,
      "startOffset": 67,
      "word": "TO"
    },
    {
      "alignedWord": "the",
      "case": "success",
      "end": 5.81,
      "endOffset": 73,
      "phones": [
        {
          "duration": 0.06,
          "phone": "dh_B"
        },
        {
          "duration": 0.11,
          "phone": "ah_E"
        }
      ],
      "start": 5.64,
      "startOffset": 70,
      "word": "THE"
    },
    {
      "alignedWord": "state",
      "case": "success",
      "end": 6.33,
      "endOffset": 79,
      "phones": [
        {
          "duration": 0.11,
          "phone": "s_B"
        },
        {
          "duration": 0.09,
          "phone": "t_I"
        },
        {
          "duration": 0.13,
          "phone": "ey_I"
        },
        {
          "duration": 0.19,
          "phone": "t_E"
        }
      ],
      "start": 5.81,
      "startOffset": 74,
      "word": "STATE"
    },
    {
      "alignedWord": "to",
      "case": "success",
      "end": 7.0,
      "endOffset": 82,
      "phones": [
        {
          "duration": 0.09,
          "phone": "t_B"
        },
        {
          "duration": 0.1,
          "phone": "uw_E"
        }
      ],
      "start": 6.81,
      "startOffset": 80,
      "word": "TO"
    },
    {
      "alignedWord": "posterity",
      "case": "success",
      "end": 7.87,
      "endOffset": 92,
      "phones": [
        {
          "duration": 0.08,
          "phone": "p_B"
        },
        {
          "duration": 0.1,
          "phone": "aa_I"
        },
        {
          "duration": 0.08,
          "phone": "s_I"
        },
        {
          "duration": 0.09,
          "phone": "t_I"
        },
        {
          "duration": 0.08,
          "phone": "eh_I"
        },
        {
          "duration": 0.08,
          "phone": "r_I"
        },
        {
          "duration": 0.06,
          "phone": "ah_I"
        },
        {
          "duration": 0.11,
          "phone": "t_I"
        },
        {
          "duration": 0.19,
          "phone": "iy_E"
        }
      ],
      "start": 7.0,
      "startOffset": 83,
      "word": "POSTERITY"
    },
    {
      "alignedWord": "or",
      "case": "success",
      "end": 8.45,
      "endOffset": 95,
      "phones": [
        {
          "duration": 0.1,
          "phone": "ao_B"
        },
        {
          "duration": 0.1,
          "phone": "r_E"
        }
      ],
      "start": 8.25,
      "startOffset": 93,
      "word": "OR"
    },
    {
      "alignedWord": "to",
      "case": "success",
      "end": 8.58,
      "endOffset": 98,
      "phones": [
        {
          "duration": 0.05,
          "phone": "t_B"
        },
        {
          "duration": 0.05,
          "phone": "ih_E"
        }
      ],
      "start": 8.48,
      "startOffset": 96,
      "word": "TO"
    },
    {
      "alignedWord": "manly",
      "case": "success",
      "end": 9.13,
      "endOffset": 104,
      "phones": [
        {
          "duration": 0.11,
          "phone": "m_B"
        },
        {
          "duration": 0.14,
          "phone": "ae_I"
        },
        {
          "duration": 0.08,
          "phone": "n_I"
        },
        {
          "duration": 0.07,
          "phone": "l_I"
        },
        {
          "duration": 0.15,
          "phone": "iy_E"
        }
      ],
      "start": 8.58,
      "startOffset": 99,
      "word": "MANLY"
    },
    {
      "alignedWord": "pleasures",
      "case": "success",
      "end": 9.799999,
      "endOffset": 114,
      "phones": [
        {
          "duration": 0.1,
          "phone": "p_B"
        },
        {
          "duration": 0.08,
          "phone": "l_I"
        },
        {
          "duration": 0.08,
          "phone": "eh_I"
        },
        {
          "duration": 0.13,
          "phone": "zh_I"
        },
        {
          "duration": 0.08,
          "phone": "er_I"
        },
        {
          "duration": 0.19,
          "phone": "z_E"
        }
      ],
      "start": 9.139999,
      "startOffset": 105,
      "word": "PLEASURES"
    },
    {
      "alignedWord": "i",
      "case": "success",
      "end": 10.959999999999999,
      "endOffset": 116,
      "phones": [
        {
          "duration": 0.18,
          "phone": "ay_S"
        }
      ],
      "start": 10.78,
      "startOffset": 115,
      "word": "I"
    },
    {
      "alignedWord": "am",
      "case": "success",
      "end": 11.13,
      "endOffset": 119,
      "phones": [
        {
          "duration": 0.08,
          "phone": "ae_B"
        },
        {
          "duration": 0.09,
          "phone": "m_E"
        }
      ],
      "start": 10.96,
      "startOffset": 117,
      "word": "AM"
    },
    {
      "alignedWord": "all",
      "case": "success",
      "end": 11.350000000000001,
      "endOffset": 123,
      "phones": [
        {
          "duration": 0.14,
          "phone": "ao_B"
        },
        {
          "duration": 0.08,
          "phone": "l_E"
        }
      ],
      "start": 11.13,
      "startOffset": 120,
      "word": "ALL"
    },
    {
      "alignedWord": "yours",
      "case": "success",
      "end": 11.889999,
      "endOffset": 129,
      "phones": [
        {
          "duration": 0.09,
          "phone": "y_B"
        },
        {
          "duration": 0.09,
          "phone": "uh_I"
        },
        {
          "duration": 0.14,
          "phone": "r_I"
        },
        {
          "duration": 0.22,
          "phone": "z_E"
        }
      ],
      "start": 11.349999,
      "startOffset": 124,
      "word": "YOURS"
    },
    {
      "alignedWord": "we",
      "case": "success",
      "end": 13.159999,
      "endOffset": 132,
      "phones": [
        {
          "duration": 0.13,
          "phone": "w_B"
        },
        {
          "duration": 0.22,
          "phone": "iy_E"
        }
      ],
      "start": 12.809999,
      "startOffset": 130,
      "word": "WE"
    },
    {
      "alignedWord": "are",
      "case": "success",
      "end": 13.42,
      "endOffset": 136,
      "phones": [
        {
          "duration": 0.09,
          "phone": "aa_B"
        },
        {
          "duration": 0.13,
          "phone": "r_E"
        }
      ],
      "start": 13.2,
      "startOffset": 133,
      "word": "ARE"
    },
    {
      "alignedWord": "closest",
      "case": "success",
      "end": 14.07,
      "endOffset": 144,
      "phones": [
        {
          "duration": 0.14,
          "phone": "k_B"
        },
        {
          "duration": 0.08,
          "phone": "l_I"
        },
        {
          "duration": 0.09,
          "phone": "ow_I"
        },
        {
          "duration": 0.12,
          "phone": "s_I"
        },
        {
          "duration": 0.08,
          "phone": "ah_I"
        },
        {
          "duration": 0.04,
          "phone": "s_I"
        },
        {
          "duration": 0.08,
          "phone": "t_E"
        }
      ],
      "start": 13.44,
      "startOffset": 137,
      "word": "CLOSEST"
    },
    {
      "alignedWord": "to",
      "case": "success",
      "end": 14.23,
      "endOffset": 147,
      "phones": [
        {
          "duration": 0.03,
          "phone": "t_B"
        },
        {
          "duration": 0.13,
          "phone": "uw_E"
        }
      ],
      "start": 14.07,
      "startOffset": 145,
      "word": "TO"
    },
    {
      "alignedWord": "each",
      "case": "success",
      "end": 14.41,
      "endOffset": 152,
      "phones": [
        {
          "duration": 0.07,
          "phone": "iy_B"
        },
        {
          "duration": 0.11,
          "phone": "ch_E"
        }
      ],
      "start": 14.23,
      "startOffset": 148,
      "word": "EACH"
    },
    {
      "alignedWord": "other",
      "case": "success",
      "end": 14.63,
      "endOffset": 158,
      "phones": [
        {
          "duration": 0.13,
          "phone": "ah_B"
        },
        {
          "duration": 0.08,
          "phone": "dh_I"
        },
        {
          "duration": 0.01,
          "phone": "er_E"
        }
      ],
      "start": 14.41,
      "startOffset": 153,
      "word": "OTHER"
    }
  ]
}