{
  "transcript": "JOE REMARKED UPON IT IN TONES OF OPEN ADMIRATION IT'S NOTHING THE YOUTHFUL CHAUFFEUR REPLIED YOU'LL GET USED TO IT TOO AS HE TURNED THE AUTOMOBILE AND STARTED BACKWARD SLIM SUDDENLY REMEMBERED THAT THEY HADN'T EVEN HEARD HIS NAME DON'T KNOW IT SAID HOSKINS",
  "words": [
    {
      "alignedWord": "joe",
      "case": "success",
      "end": 0.39,
      "endOffset": 3,
      "phones": [
        {
          "duration": 0.13,
          "phone": "jh_B"
        },
        {
          "duration": 0.1,
          "phone": "ow_E"
        }
      ],
      "start": 0.16,
      "startOffset": 0,
      "word": "JOE"
    },
    {
      "alignedWord": "remarked",
      "case": "success",
      "end": 0.78,
      "endOffset": 12,
      "phones": [
        {
          "duration": 0.06,
          "phone": "r_B"
        },
        {
          "duration": 0.06,
          "phone": "ih_I"
        },
        {
          "duration": 0.07,
          "phone": "m_I"
        },
        {
          "duration": 0.04,
          "phone": "aa_I"
        },
        {
          "duration": 0.07,
          "phone": "r_I"
        },
        {
          "duration": 0.05,
          "phone": "k_I"
        },
        {
          "duration": 0.04,
          "phone": "t_E"
        }
      ],
      "start": 0.39,
      "startOffset": 4,
      "word": "REMARKED"
    },
    {
      "alignedWord": "upon",
      "case": "success",
      "end": 1.0,
      "endOffset": 17,
      "phones": [
        {
          "duration": 0.04,
          "phone": "ah_B"
        },
        {
          "duration": 0.06,
          "phone": "p_I"
        },
        {
          "duration": 0.07,
          "phone": "aa_I"
        },
        {
          "duration": 0.05,
          "phone": "n_E"
        }
      ],
      "start": 0.78,
      "startOffset": 13,
      "word": "UPON"
    },
    {
      "alignedWord": "it",
      "case": "success",
      "end": 1.05,
      "endOffset": 20,
      "phones": [
        {
          "duration": 0.04,
          "phone": "ih_B"
        },
        {
          "duration": 0.01,
          "phone": "t_E"
        }
      ],
      "start": 1.0,
      "startOffset": 18,
      "word": "IT"
    },
    {
      "alignedWord": "in",
      "case": "success",
      "end": 1.2000000000000002,
      "endOffset": 23,
      "phones": [
        {
          "duration": 0.08,
          "phone": "ih_B"
        },
        {
          "duration": 0.06,
          "phone": "n_E"
        }
      ],
      "start": 1.06,
      "startOffset": 21,
      "word": "IN"
    },
    {
      "alignedWord": "tones",
      "case": "success",
      "end": 1.48,
      "endOffset": 29,
      "phones": [
        {
          "duration": 0.08,
          "phone": "t_B"
        },
        {
          "duration": 0.1,
          "phone": "ow_I"
        },
        {
          "duration": 0.05,
          "phone": "n_I"
        },
        {
          "duration": 0.05,
          "phone": "z_E"
        }
      ],
      "start": 1.2,
      "startOffset": 24,
      "word": "TONES"
    },
    {
      "alignedWord": "of",
      "case": "success",
      "end": 1.59,
      "endOffset": 32,
      "phones": [
        {
          "duration": 0.05,
          "phone": "ah_B"
        },
        {
          "duration": 0.06,
          "phone": "v_E"
        }
      ],
      "start": 1.48,
      "startOffset": 30,
      "word": "OF"
    },
    {
      "alignedWord": "open",
      "case": "success",
      "end": 1.9000000000000001,
      "endOffset": 37,
      "phones": [
        {
          "duration": 0.12,
          "phone": "ow_B"
        },
        {
          "duration": 0.07,
          "phone": "p_I"
        },
        {
          "duration": 0.05,
          "phone": "ah_I"
        },
        {
          "duration": 0.06,
          "phone": "n_E"
        }
      ],
      "start": 1.6,
      "startOffset": 33,
      "word": "OPEN"
    },
    {
      "alignedWord": "admiration",
      "case": "success",
      "end": 2.67,
      "endOffset": 48,
      "phones": [
        {
          "duration": 0.09,
          "phone": "ae_B"
        },
        {
          "duration": 0.08,
          "phone": "d_I"
        },
        {
          "duration": 0.06,
          "phone": "m_I"
        },
        {
          "duration": 0.11,
          "phone": "er_I"
        },
        {
          "duration": 0.08,
          "phone": "ey_I"
        },
        {
          "duration": 0.1,
          "phone": "sh_I"
        },
        {
          "duration": 0.06,
          "phone": "ah_I"
        },
        {
          "duration": 0.19,
          "phone": "n_E"
        }
      ],
      "start": 1.9,
      "startOffset": 38,
      "word": "ADMIRATION"
    },
    {
      "alignedWord": "it's",
      "case": "success",
      "end": 3.4800000000000004,
      "endOffset": 53,
      "phones": [
        {
          "duration": 0.1,
          "phone": "ih_B"
        },
        {
          "duration": 0.07,
          "phone": "t_I"
        },
        {
          "duration": 0.07,
          "phone": "s_E"
        }
      ],
      "start": 3.24,
      "startOffset": 49,
      "word": "IT'S"
    },
    {
      "alignedWord": "nothing",
      "case": "success",
      "end": 3.85,
      "endOffset": 61,
      "phones": [
        {
          "duration": 0.08,
          "phone": "n_B"
        },
        {
          "duration": 0.08,
          "phone": "ah_I"
        },
        {
          "duration": 0.09,
          "phone": "th_I"
        },
        {
          "duration": 0.06,
          "phone": "ih_I"
        },
        {
          "duration": 0.05,
          "phone": "ng_E"
        }
      ],
      "start": 3.49,
      "startOffset": 54,
      "word": "NOTHING"
    },
    {
      "alignedWord": "the",
      "case": "success",
      "end": 3.96,
      "endOffset": 65,
      "phones": [
        {
          "duration": 0.07,
          "phone": "dh_B"
        },
        {
          "duration": 0.04,
          "phone": "iy_E"
        }
      ],
      "start": 3.85,
      "startOffset": 62,
      "word": "THE"
    },
    {
      "alignedWord": "youthful",
      "case": "success",
      "end": 4.32,
      "endOffset": 74,
      "phones": [
        {
          "duration": 0.08,
          "phone": "y_B"
        },
        {
          "duration": 0.06,
          "phone": "uw_I"
        },
        {
          "duration": 0.04,
          "phone": "th_I"
        },
        {
          "duration": 0.07,
          "phone": "f_I"
        },
        {
          "duration": 0.05,
          "phone": "ah_I"
        },
        {
          "duration": 0.06,
          "phone": "l_E"
        }
      ],
      "start": 3.96,
      "startOffset": 66,
      "word": "YOUTHFUL"
    },
    {
      "alignedWord": "chauffeur",
      "case": "success",
      "end": 4.67,
      "endOffset": 84,
      "phones": [
        {
          "duration": 0.1,
          "phone": "sh_B"
        },
        {
          "duration": 0.11,
          "phone": "ow_I"
        },
        {
          "duration": 0.09,
          "phone": "f_I"
        },
        {
          "duration": 0.05,
          "phone": "er_E"
        }
      ],
      "start": 4.32,
      "startOffset": 75,
      "word": "CHAUFFEUR"
    },
    {
      "alignedWord": "replied",
      "case": "success",
      "end": 5.2,
      "endOffset": 92,
      "phones": [
        {
          "duration": 0.02,
          "phone": "r_B"
        },
        {
          "duration": 0.1,
          "phone": "iy_I"
        },
        {
          "duration": 0.07,
          "phone": "p_I"
        },
        {
          "duration": 0.08,
          "phone": "l_I"
        },
        {
          "duration": 0.14,
          "phone": "ay_I"
        },
        {
          "duration": 0.12,
          "phone": "d_E"
        }
      ],
      "start": 4.67,
      "startOffset": 85,
      "word": "REPLIED"
    },
    {
      "alignedWord": "you'll",
      "case": "success",
      "end": 5.5,
      "endOffset": 99,
      "phones": [
        {
          "duration": 0.1,
          "phone": "y_B"
        },
        {
          "duration": 0.03,
          "phone": "uw_I"
        },
        {
          "duration": 0.01,
          "phone": "l_E"
        }
      ],
      "start": 5.36,
      "startOffset": 93,
      "word": "YOU'LL"
    },
    {
      "alignedWord": "get",
      "case": "success",
      "end": 5.71,
      "endOffset": 103,
      "phones": [
        {
          "duration": 0.06,
          "phone": "g_B"
        },
        {
          "duration": 0.05,
          "phone": "ih_I"
        },
        {
          "duration": 0.07,
          "phone": "t_E"
        }
      ],
      "start": 5.53,
      "startOffset": 100,
      "word": "GET"
    },
    {
      "alignedWord": "used",
      "case": "success",
      "end": 5.99,
      "endOffset": 108,
      "phones": [
        {
          "duration": 0.08,
          "phone": "y_B"
        },
        {
          "duration": 0.09,
          "phone": "uw_I"
        },
        {
          "duration": 0.06,
          "phone": "z_I"
        },
        {
          "duration": 0.05,
          "phone": "d_E"
        }
      ],
      "start": 5.71,
      "startOffset": 104,
      "word": "USED"
    },
    {
      "alignedWord": "to",
      "case": "success",
      "end": 6.09,
      "endOffset": 111,
      "phones": [
        {
          "duration": 0.04,
          "phone": "t_B"
        },
        {
          "duration": 0.06,
          "phone": "uw_E"
        }
      ],
      "start": 5.99,
      "startOffset": 109,
      "word": "TO"
    },
    {
      "alignedWord": "it",
      "case": "success",
      "end": 6.21,
      "endOffset": 114,
      "phones": [
        {
          "duration": 0.06,
          "phone": "ih_B"
        },
        {
          "duration": 0.06,
          "phone": "t_E"
        }
      ],
      "start": 6.09,
      "startOffset": 112,
      "word": "IT"
    },
    {
      "alignedWord": "too",
      "case": "success",
      "end": 6.529999999999999,
      "endOffset": 118,
      "phones": [
        {
          "duration": 0.09,
          "phone": "t_B"
        },
        {
          "duration": 0.22,
          "phone": "uw_E"
        }
      ],
      "start": 6.22,
      "startOffset": 115,
      "word": "TOO"
    },
    {
      "alignedWord": "as",
      "case": "success",
      "end": 7.239999999999999,
      "endOffset": 121,
      "phones": [
        {
          "duration": 0.11,
          "phone": "ae_B"
        },
        {
          "duration": 0.07,
          "phone": "z_E"
        }
      ],
      "start": 7.06,
      "startOffset": 119,
      "word": "AS"
    },
    {
      "alignedWord": "he",
      "case": "success",
      "end": 7.36,
      "endOffset": 124,
      "phones": [
        {
          "duration": 0.04,
          "phone": "hh_B"
        },
        {
          "duration": 0.08,
          "phone": "iy_E"
        }
      ],
      "start": 7.24,
      "startOffset": 122,
      "word": "HE"
    },
    {
      "alignedWord": "turned",
      "case": "success",
      "end": 7.640000000000001,
      "endOffset": 131,
      "phones": [
        {
          "duration": 0.09,
          "phone": "t_B"
        },
        {
          "duration": 0.1,
          "phone": "er_I"
        },
        {
          "duration": 0.08,
          "phone": "n_I"
        },
        {
          "duration": 0.01,
          "phone": "d_E"
        }
      ],
      "start": 7.36,
      "startOffset": 125,
      "word": "TURNED"
    },
    {
      "alignedWord": "the",
      "case": "success",
      "end": 7.7299999999999995,
      "endOffset": 135,
      "phones": [
        {
          "duration": 0.03,
          "phone": "dh_B"
        },
        {
          "duration": 0.06,
          "phone": "iy_E"
        }
      ],
      "start": 7.64,
      "startOffset": 132,
      "word": "THE"
    },
    {
      "alignedWord": "automobile",
      "case": "success",
      "end": 8.39,
      "endOffset": 146,
      "phones": [
        {
          "duration": 0.16,
          "phone": "ao_B"
        },
        {
          "duration": 0.06,
          "phone": "t_I"
        },
        {
          "duration": 0.05,
          "phone": "ah_I"
        },
        {
          "duration": 0.06,
          "phone": "m_I"
        },
        {
          "duration": 0.07,
          "phone": "ow_I"
        },
        {
          "duration": 0.08,
          "phone": "b_I"
        },
        {
          "duration": 0.08,
          "phone": "iy_I"
        },
        {
          "duration": 0.07,
          "phone": "l_E"
        }
      ],
      "start": 7.76,
      "startOffset": 136,
      "word": "AUTOMOBILE"
    },
    {
      "alignedWord": "and",
      "case": "success",
      "end": 8.509998999999999,
      "endOffset": 150,
      "phones": [
        {
          "duration": 0.06,
          "phone": "ah_B"
        },
        {
          "duration": 0.01,
          "phone": "n_I"
        },
        {
          "duration": 0.05,
          "phone": "d_E"
        }
      ],
      "start": 8.389999,
      "startOffset": 147,
      "word": "AND"
    },
    {
      "alignedWord": "started",
      "case": "success",
      "end": 8.77,
      "endOffset": 158,
      "phones": [
        {
          "duration": 0.03,
          "phone": "s_B"
        },
        {
          "duration": 0.06,
          "phone": "t_I"
        },
        {
          "duration": 0.04,
          "phone": "aa_I"
        },
        {
          "duration": 0.03,
          "phone": "r_I"
        },
        {
          "duration": 0.03,
          "phone": "t_I"
        },
        {
          "duration": 0.05,
          "phone": "ih_I"
        },
        {
          "duration": 0.02,
          "phone": "d_E"
        }
      ],
      "start": 8.51,
      "startOffset": 151,
      "word": "STARTED"
    },
    {
      "alignedWord": "backward",
      "case": "success",
      "end": 9.29,
      "endOffset": 167,
      "phones": [
        {
          "duration": 0.1,
          "phone": "b_B"
        },
        {
          "duration": 0.11,
          "phone": "ae_I"
        },
        {
          "duration": 0.07,
          "phone": "k_I"
        },
        {
          "duration": 0.06,
          "phone": "w_I"
        },
        {
          "duration": 0.05,
          "phone": "er_I"
        },
        {
          "duration": 0.12,
          "phone": "d_E"
        }
      ],
      "start": 8.78,
      "startOffset": 159,
      "word": "BACKWARD"
    },
    {
      "alignedWord": "slim",
      "case": "success",
      "end": 9.940000000000001,
      "endOffset": 172,
      "phones": [
        {
          "duration": 0.18,
          "phone": "s_B"
        },
        {
          "duration": 0.07,
          "phone": "l_I"
        },
        {
          "duration": 0.12,
          "phone": "ih_I"
        },
        {
          "duration": 0.11,
          "phone": "m_E"
        }
      ],
      "start": 9.46,
      "startOffset": 168,
      "word": "SLIM"
    },
    {
      "alignedWord": "suddenly",
      "case": "success",
      "end": 10.34,
      "endOffset": 181,
      "phones": [
        {
          "duration": 0.12,
          "phone": "s_B"
        },
        {
          "duration": 0.09,
          "phone": "ah_I"
        },
        {
          "duration": 0.01,
          "phone": "d_I"
        },
        {
          "duration": 0.04,
          "phone": "ah_I"
        },
        {
          "duration": 0.02,
          "phone": "n_I"
        },
        {
          "duration": 0.06,
          "phone": "l_I"
        },
        {
          "duration": 0.06,
          "phone": "iy_E"
        }
      ],
      "start": 9.94,
      "startOffset": 173,
      "word": "SUDDENLY"
    },
    {
      "alignedWord": "remembered",
      "case": "success",
      "end": 10.76,
      "endOffset": 192,
      "phones": [
        {
          "duration": 0.02,
          "phone": "r_B"
        },
        {
          "duration": 0.06,
          "phone": "iy_I"
        },
        {
          "duration": 0.05,
          "phone": "m_I"
        },
        {
          "duration": 0.08,
          "phone": "eh_I"
        },
        {
          "duration": 0.04,
          "phone": "m_I"
        },
        {
          "duration": 0.04,
          "phone": "b_I"
        },
        {
          "duration": 0.07,
          "phone": "er_I"
        },
        {
          "duration": 0.06,
          "phone": "d_E"
        }
      ],
      "start": 10.34,
      "startOffset": 182,
      "word": "REMEMBERED"
    },
    {
      "alignedWord": "that",
      "case": "success",
      "end": 10.84,
      "endOffset": 197,
      "phones": [
        {
          "duration": 0.01,
          "phone": "dh_B"
        },
        {
          "duration": 0.03,
          "phone": "ah_I"
        },
        {
          "duration": 0.04,
          "phone": "t_E"
        }
      ],
      "start": 10.76,
      "startOffset": 193,
      "word": "THAT"
    },
    {
      "alignedWord": "they",
      "case": "success",
      "end": 10.91,
      "endOffset": 202,
      "phones": [
        {
          "duration": 0.01,
          "phone": "dh_B"
        },
        {
          "duration": 0.06,
          "phone": "ey_E"
        }
      ],
      "start": 10.84,
      "startOffset": 198,
      "word": "THEY"
    },
    {
      "alignedWord": "hadn't",
      "case": "success",
      "end": 11.2,
      "endOffset": 209,
      "phones": [
        {
          "duration": 0.11,
          "phone": "hh_B"
        },
        {
          "duration": 0.07,
          "phone": "ae_I"
        },
        {
          "duration": 0.01,
          "phone": "d_I"
        },
        {
          "duration": 0.03,
          "phone": "ah_I"
        },
        {
          "duration": 0.06,
          "phone": "n_E"
        }
      ],
      "start": 10.92,
      "startOffset": 203,
      "word": "HADN'T"
    },
    {
      "alignedWord": "even",
      "case": "success",
      "end": 11.37,
      "endOffset": 214,
      "phones": [
        {
          "duration": 0.06,
          "phone": "iy_B"
        },
        {
          "duration": 0.05,
          "phone": "v_I"
        },
        {
          "duration": 0.02,
          "phone": "ih_I"
        },
        {
          "duration": 0.04,
          "phone": "n_E"
        }
      ],
      "start": 11.2,
      "startOffset": 210,
      "word": "EVEN"
    },
    {
      "alignedWord": "heard",
      "case": "success",
      "end": 11.559999999999999,
      "endOffset": 220,
      "phones": [
        {
          "duration": 0.07,
          "phone": "hh_B"
        },
        {
          "duration": 0.07,
          "phone": "er_I"
        },
        {
          "duration": 0.05,
          "phone": "d_E"
        }
      ],
      "start": 11.37,
      "startOffset": 215,
      "word": "HEARD"
    },
    {
      "alignedWord": "his",
      "case": "success",
      "end": 11.669998999999999,
      "endOffset": 224,
      "phones": [
        {
          "duration": 0.03,
          "phone": "hh_B"
        },
        {
          "duration": 0.02,
          "phone": "ih_I"
        },
        {
          "duration": 0.06,
          "phone": "z_E"
        }
      ],
      "start": 11.559999,
      "startOffset": 221,
      "word": "HIS"
    },
    {
      "alignedWord": "name",
      "case": "success",
      "end": 12.09,
      "endOffset": 229,
      "phones": [
        {
          "duration": 0.08,
          "phone": "n_B"
        },
        {
          "duration": 0.14,
          "phone": "ey_I"
        },
        {
          "duration": 0.2,
          "phone": "m_E"
        }
      ],
      "start": 11.67,
      "startOffset": 225,
      "word": "NAME"
    },
    {
      "alignedWord": "don't",
      "case": "success",
      "end": 13.0,
      "endOffset": 235,
      "phones": [
        {
          "duration": 0.09,
          "phone": "d_B"
        },
        {
          "duration": 0.09,
          "phone": "ow_I"
        },
        {
          "duration": 0.06,
          "phone": "n_I"
        },
        {
          "duration": 0.01,
          "phone": "t_E"
        }
      ],
      "start": 12.75,
      "startOffset": 230,
      "word": "DON'T"
    },
    {
      "alignedWord": "know",
      "case": "success",
      "end": 13.249999,
      "endOffset": 240,
      "phones": [
        {
          "duration": 0.11,
          "phone": "n_B"
        },
        {
          "duration": 0.13,
          "phone": "ow_E"
        }
      ],
      "start": 13.009999,
      "startOffset": 236,
      "word": "KNOW"
    },
    {
      "alignedWord": "it",
      "case": "success",
      "end": 13.36,
      "endOffset": 243,
      "phones": [
        {
          "duration": 0.06,
          "phone": "ih_B"
        },
        {
          "duration": 0.05,
          "phone": "t_E"
        }
      ],
      "start": 13.25,
      "startOffset": 241,
      "word": "IT"
    },
    {
      "alignedWord": "said",
      "case": "success",
      "end": 13.54,
      "endOffset": 248,
      "phones": [
        {
          "duration": 0.06,
          "phone": "s_B"
        },
        {
          "duration": 0.06,
          "phone": "eh_I"
        },
        {
          "duration": 0.06,
          "phone": "d_E"
        }
      ],
      "start": 13.36,
      "startOffset": 244,
      "word": "SAID"
    },
    {
      "alignedWord": "hoskins",
      "case": "success",
      "end": 14.01,
      "endOffset": 256,
      "phones": [
        {
          "duration": 0.04,
          "phone": "hh_B"
        },
        {
          "duration": 0.11,
          "phone": "aa_I"
        },
        {
          "duration": 0.1,
          "phone": "s_I"
        },
        {
          "duration": 0.05,
          "phone": "k_I"
        },
        {
          "duration": 0.06,
          "phone": "ih_I"
        },
        {
          "duration": 0.07,
          "phone": "n_I"
        },
        {
          "duration": 0.04,
          "phone": "z_E"
        }
      ],
      "start": 13.54,
      "startOffset": 249,
      "word": "HOSKINS"
    }
  ]
}