{
  "transcript": "IT WAS THAT SAME DAY THAT THE THREE BOYS FROM BRIGHTON WERE FOR THE FIRST TIME ASSIGNED TO A REGULAR UNIT OF THE SIGNAL CORPS ALSO WITH A REAL THRILL THEY LEARNED THAT THEY WERE ALMOST IMMEDIATELY TO SEE WAR SERVICE FOR AMERICAN TROOPS WERE ALREADY IN THE TRENCHES",
  "words": [
    {
      "alignedWord": "it",
      "case": "success",
      "end": 0.61,
      "endOffset": 2,
      "phones": [
        {
          "duration": 0.12,
          "phone": "ih_B"
        },
        {
          "duration": 0.07,
          "phone": "t_E"
        }
      ],
      "start": 0.42,
      "startOffset": 0,
      "word": "IT"
    },
    {
      "alignedWord": "was",
      "case": "success",
      "end": 0.87,
      "endOffset": 6,
      "phones": [
        {
          "duration": 0.1,
          "phone": "w_B"
        },
        {
          "duration": 0.09,
          "phone": "aa_I"
        },
        {
          "duration": 0.07,
          "phone": "z_E"
        }
      ],
      "start": 0.61,
      "startOffset": 3,
      "word": "WAS"
    },
    {
      "alignedWord": "that",
      "case": "success",
      "end": 1.05,
      "endOffset": 11,
      "phones": [
        {
          "duration": 0.05,
          "phone": "dh_B"
        },
        {
          "duration": 0.06,
          "phone": "ae_I"
        },
        {
          "duration": 0.07,
          "phone": "t_E"
        }
      ],
      "start": 0.87,
      "startOffset": 7,
      "word": "THAT"
    },
    {
      "alignedWord": "same",
      "case": "success",
      "end": 1.35,
      "endOffset": 16,
      "phones": [
        {
          "duration": 0.11,
          "phone": "s_B"
        },
        {
          "duration": 0.11,
          "phone": "ey_I"
        },
        {
          "duration": 0.08,
          "phone": "m_E"
        }
      ],
      "start": 1.05,
      "startOffset": 12,
      "word": "SAME"
    },
    {
      "alignedWord": "day",
      "case": "success",
      "end": 1.6800000000000002,
      "endOffset": 20,
      "phones": [
        {
          "duration": 0.09,
          "phone": "d_B"
        },
        {
          "duration": 0.24,
          "phone": "ey_E"
        }
      ],
      "start": 1.35,
      "startOffset": 17,
      "word": "DAY"
    },
    {
      "alignedWord": "that",
      "case": "success",
      "end": 1.88,
      "endOffset": 25,
      "phones": [
        {
          "duration": 0.08,
          "phone": "dh_B"
        },
        {
          "duration": 0.06,
          "phone": "ah_I"
        },
        {
          "duration": 0.04,
          "phone": "t_E"
        }
      ],
      "start": 1.7,
      "startOffset": 21,
      "word": "THAT"
    },
    {
      "alignedWord": "the",
      "case": "success",
      "end": 1.96,
      "endOffset": 29,
      "phones": [
        {
          "duration": 0.03,
          "phone": "dh_B"
        },
        {
          "duration": 0.05,
          "phone": "ah_E"
        }
      ],
      "start": 1.88,
      "startOffset": 26,
      "word": "THE"
    },
    {
      "alignedWord": "three",
      "case": "success",
      "end": 2.21,
      "endOffset": 35,
      "phones": [
        {
          "duration": 0.09,
          "phone": "th_B"
        },
        {
          "duration": 0.09,
          "phone": "r_I"
        },
        {
          "duration": 0.07,
          "phone": "iy_E"
        }
      ],
      "start": 1.96,
      "startOffset": 30,
      "word": "THREE"
    },
    {
      "alignedWord": "boys",
      "case": "success",
      "end": 2.49,
      "endOffset": 40,
      "phones": [
        {
          "duration": 0.08,
          "phone": "b_B"
        },
        {
          "duration": 0.15,
          "phone": "oy_I"
        },
        {
          "duration": 0.05,
          "phone": "z_E"
        }
      ],
      "start": 2.21,
      "startOffset": 36,
      "word": "BOYS"
    },
    {
      "alignedWord": "from",
      "case": "success",
      "end": 2.64,
      "endOffset": 45,
      "phones": [
        {
          "duration": 0.01,
          "phone": "f_B"
        },
        {
          "duration": 0.04,
          "phone": "er_I"
        },
        {
          "duration": 0.09,
          "phone": "m_E"
        }
      ],
      "start": 2.5,
      "startOffset": 41,
      "word": "FROM"
    },
    {
      "alignedWord": "brighton",
      "case": "success",
      "end": 3.1,
      "endOffset": 54,
      "phones": [
        {
          "duration": 0.05,
          "phone": "b_B"
        },
        {
          "duration": 0.06,
          "phone": "r_I"
        },
        {
          "duration": 0.07,
          "phone": "ay_I"
        },
        {
          "duration": 0.09,
          "phone": "t_I"
        },
        {
          "duration": 0.06,
          "phone": "ah_I"
        },
        {
          "duration": 0.13,
          "phone": "n_E"
        }
      ],
      "start": 2.64,
      "startOffset": 46,
      "word": "BRIGHTON"
    },
    {
      "alignedWord": "were",
      "case": "success",
      "end": 3.2600000000000002,
      "endOffset": 59,
      "phones": [
        {
          "duration": 0.1,
          "phone": "w_B"
        },
        {
          "duration": 0.06,
          "phone": "er_E"
        }
      ],
      "start": 3.1,
      "startOffset": 55,
      "word": "WERE"
    },
    {
      "alignedWord": "for",
      "case": "success",
      "end": 3.42,
      "endOffset": 63,
      "phones": [
        {
          "duration": 0.06,
          "phone": "f_B"
        },
        {
          "duration": 0.07,
          "phone": "er_E"
        }
      ],
      "start": 3.29,
      "startOffset": 60,
      "word": "FOR"
    },
    {
      "alignedWord": "the",
      "case": "success",
      "end": 3.53,
      "endOffset": 67,
      "phones": [
        {
          "duration": 0.04,
          "phone": "dh_B"
        },
        {
          "duration": 0.07,
          "phone": "ah_E"
        }
      ],
      "start": 3.42,
      "startOffset": 64,
      "word": "THE"
    },
    {
      "alignedWord": "first",
      "case": "success",
      "end": 3.78,
      "endOffset": 73,
      "phones": [
        {
          "duration": 0.07,
          "phone": "f_B"
        },
        {
          "duration": 0.1,
          "phone": "er_I"
        },
        {
          "duration": 0.05,
          "phone": "s_I"
        },
        {
          "duration": 0.03,
          "phone": "t_E"
        }
      ],
      "start": 3.53,
      "startOffset": 68,
      "word": "FIRST"
    },
    {
      "alignedWord": "time",
      "case": "success",
      "end": 3.96,
      "endOffset": 78,
      "phones": [
        {
          "duration": 0.06,
          "phone": "t_B"
        },
        {
          "duration": 0.07,
          "phone": "ay_I"
        },
        {
          "duration": 0.05,
          "phone": "m_E"
        }
      ],
      "start": 3.78,
      "startOffset": 74,
      "word": "TIME"
    },
    {
      "alignedWord": "assigned",
      "case": "success",
      "end": 4.53,
      "endOffset": 87,
      "phones": [
        {
          "duration": 0.08,
          "phone": "ah_B"
        },
        {
          "duration": 0.13,
          "phone": "s_I"
        },
        {
          "duration": 0.17,
          "phone": "ay_I"
        },
        {
          "duration": 0.06,
          "phone": "n_I"
        },
        {
          "duration": 0.13,
          "phone": "d_E"
        }
      ],
      "start": 3.96,
      "startOffset": 79,
      "word": "ASSIGNED"
    },
    {
      "alignedWord": "to",
      "case": "success",
      "end": 4.8,
      "endOffset": 90,
      "phones": [
        {
          "duration": 0.08,
          "phone": "t_B"
        },
        {
          "duration": 0.06,
          "phone": "uw_E"
        }
      ],
      "start": 4.66,
      "startOffset": 88,
      "word": "TO"
    },
    {
      "alignedWord": "a",
      "case": "success",
      "end": 4.89,
      "endOffset": 92,
      "phones": [
        {
          "duration": 0.09,
          "phone": "ah_S"
        }
      ],
      "start": 4.8,
      "startOffset": 91,
      "word": "A"
    },
    {
      "alignedWord": "regular",
      "case": "success",
      "end": 5.31,
      "endOffset": 100,
      "phones": [
        {
          "duration": 0.07,
          "phone": "r_B"
        },
        {
          "duration": 0.05,
          "phone": "eh_I"
        },
        {
          "duration": 0.07,
          "phone": "g_I"
        },
        {
          "duration": 0.03,
          "phone": "y_I"
        },
        {
          "duration": 0.05,
          "phone": "ah_I"
        },
        {
          "duration": 0.07,
          "phone": "l_I"
        },
        {
          "duration": 0.08,
          "phone": "er_E"
        }
      ],
      "start": 4.89,
      "startOffset": 93,
      "word": "REGULAR"
    },
    {
      "alignedWord": "unit",
      "case": "success",
      "end": 5.64,
      "endOffset": 105,
      "phones": [
        {
          "duration": 0.07,
          "phone": "y_B"
        },
        {
          "duration": 0.1,
          "phone": "uw_I"
        },
        {
          "duration": 0.04,
          "phone": "n_I"
        },
        {
          "duration": 0.07,
          "phone": "ah_I"
        },
        {
          "duration": 0.05,
          "phone": "t_E"
        }
      ],
      "start": 5.31,
      "startOffset": 101,
      "word": "UNIT"
    },
    {
      "alignedWord": "of",
      "case": "success",
      "end": 5.73,
      "endOffset": 108,
      "phones": [
        {
          "duration": 0.03,
          "phone": "ah_B"
        },
        {
          "duration": 0.05,
          "phone": "v_E"
        }
      ],
      "start": 5.65,
      "startOffset": 106,
      "word": "OF"
    },
    {
      "alignedWord": "the",
      "case": "success",
      "end": 5.8100000000000005,
      "endOffset": 112,
      "phones": [
        {
          "duration": 0.01,
          "phone": "dh_B"
        },
        {
          "duration": 0.07,
          "phone": "ah_E"
        }
      ],
      "start": 5.73,
      "startOffset": 109,
      "word": "THE"
    },
    {
      "alignedWord": "signal",
      "case": "success",
      "end": 6.13,
      "endOffset": 119,
      "phones": [
        {
          "duration": 0.07,
          "phone": "s_B"
        },
        {
          "duration": 0.06,
          "phone": "ih_I"
        },
        {
          "duration": 0.08,
          "phone": "g_I"
        },
        {
          "duration": 0.02,
          "phone": "n_I"
        },
        {
          "duration": 0.05,
          "phone": "ah_I"
        },
        {
          "duration": 0.04,
          "phone": "l_E"
        }
      ],
      "start": 5.81,
      "startOffset": 113,
      "word": "SIGNAL"
    },
    {
      "alignedWord": "corps",
      "case": "success",
      "end": 6.51,
      "endOffset": 125,
      "phones": [
        {
          "duration": 0.1,
          "phone": "k_B"
        },
        {
          "duration": 0.12,
          "phone": "ao_I"
        },
        {
          "duration": 0.16,
          "phone": "r_E"
        }
      ],
      "start": 6.13,
      "startOffset": 120,
      "word": "CORPS"
    },
    {
      "alignedWord": "also",
      "case": "success",
      "end": 7.85,
      "endOffset": 130,
      "phones": [
        {
          "duration": 0.12,
          "phone": "ao_B"
        },
        {
          "duration": 0.1,
          "phone": "l_I"
        },
        {
          "duration": 0.09,
          "phone": "s_I"
        },
        {
          "duration": 0.08,
          "phone": "ow_E"
        }
      ],
      "start": 7.46,
      "startOffset": 126,
      "word": "ALSO"
    },
    {
      "alignedWord": "with",
      "case": "success",
      "end": 8.03,
      "endOffset": 135,
      "phones": [
        {
          "duration": 0.05,
          "phone": "w_B"
        },
        {
          "duration": 0.05,
          "phone": "ih_I"
        },
        {
          "duration": 0.08,
          "phone": "th_E"
        }
      ],
      "start": 7.85,
      "startOffset": 131,
      "word": "WITH"
    },
    {
      "alignedWord": "a",
      "case": "success",
      "end": 8.08,
      "endOffset": 137,
      "phones": [
        {
          "duration": 0.05,
          "phone": "ah_S"
        }
      ],
      "start": 8.03,
      "startOffset": 136,
      "word": "A"
    },
    {
      "alignedWord": "real",
      "case": "success",
      "end": 8.37,
      "endOffset": 142,
      "phones": [
        {
          "duration": 0.11,
          "phone": "r_B"
        },
        {
          "duration": 0.1,
          "phone": "iy_I"
        },
        {
          "duration": 0.08,
          "phone": "l_E"
        }
      ],
      "start": 8.08,
      "startOffset": 138,
      "word": "REAL"
    },
    {
      "alignedWord": "thrill",
      "case": "success",
      "end": 8.86,
      "endOffset": 149,
      "phones": [
        {
          "duration": 0.11,
          "phone": "th_B"
        },
        {
          "duration": 0.08,
          "phone": "r_I"
        },
        {
          "duration": 0.09,
          "phone": "ih_I"
        },
        {
          "duration": 0.21,
          "phone": "l_E"
        }
      ],
      "start": 8.37,
      "startOffset": 143,
      "word": "THRILL"
    },
    {
      "alignedWord": "they",
      "case": "success",
      "end": 9.2,
      "endOffset": 154,
      "phones": [
        {
          "duration": 0.08,
          "phone": "dh_B"
        },
        {
          "duration": 0.09,
          "phone": "ey_E"
        }
      ],
      "start": 9.03,
      "startOffset": 150,
      "word": "THEY"
    },
    {
      "alignedWord": "learned",
      "case": "success",
      "end": 9.5,
      "endOffset": 162,
      "phones": [
        {
          "duration": 0.13,
          "phone": "l_B"
        },
        {
          "duration": 0.08,
          "phone": "er_I"
        },
        {
          "duration": 0.06,
          "phone": "n_I"
        },
        {
          "duration": 0.03,
          "phone": "d_E"
        }
      ],
      "start": 9.2,
      "startOffset": 155,
      "word": "LEARNED"
    },
    {
      "alignedWord": "that",
      "case": "success",
      "end": 9.63,
      "endOffset": 167,
      "phones": [
        {
          "duration": 0.02,
          "phone": "dh_B"
        },
        {
          "duration": 0.05,
          "phone": "ah_I"
        },
        {
          "duration": 0.06,
          "phone": "t_E"
        }
      ],
      "start": 9.5,
      "startOffset": 163,
      "word": "THAT"
    },
    {
      "alignedWord": "they",
      "case": "success",
      "end": 9.73,
      "endOffset": 172,
      "phones": [
        {
          "duration": 0.03,
          "phone": "dh_B"
        },
        {
          "duration": 0.07,
          "phone": "ey_E"
        }
      ],
      "start": 9.63,
      "startOffset": 168,
      "word": "THEY"
    },
    {
      "alignedWord": "were",
      "case": "success",
      "end": 9.860000000000001,
      "endOffset": 177,
      "phones": [
        {
          "duration": 0.07,
          "phone": "w_B"
        },
        {
          "duration": 0.06,
          "phone": "er_E"
        }
      ],
      "start": 9.73,
      "startOffset": 173,
      "word": "WERE"
    },
    {
      "alignedWord": "almost",
      "case": "success",
      "end": 10.29,
      "endOffset": 184,
      "phones": [
        {
          "duration": 0.11,
          "phone": "ao_B"
        },
        {
          "duration": 0.07,
          "phone": "l_I"
        },
        {
          "duration": 0.06,
          "phone": "m_I"
        },
        {
          "duration": 0.05,
          "phone": "ow_I"
        },
        {
          "duration": 0.08,
          "phone": "s_I"
        },
        {
          "duration": 0.05,
          "phone": "t_E"
        }
      ],
      "start": 9.87,
      "startOffset": 178,
      "word": "ALMOST"
    },
    {
      "alignedWord": "immediately",
      "case": "success",
      "end": 10.799999999999999,
      "endOffset": 196,
      "phones": [
        {
          "duration": 0.06,
          "phone": "ih_B"
        },
        {
          "duration": 0.07,
          "phone": "m_I"
        },
        {
          "duration": 0.07,
          "phone": "iy_I"
        },
        {
          "duration": 0.04,
          "phone": "d_I"
        },
        {
          "duration": 0.05,
          "phone": "iy_I"
        },
        {
          "duration": 0.04,
          "phone": "ah_I"
        },
        {
          "duration": 0.03,
          "phone": "t_I"
        },
        {
          "duration": 0.06,
          "phone": "l_I"
        },
        {
          "duration": 0.09,
          "phone": "iy_E"
        }
      ],
      "start": 10.29,
      "startOffset": 185,
      "word": "IMMEDIATELY"
    },
    {
      "alignedWord": "to",
      "case": "success",
      "end": 10.84,
      "endOffset": 199,
      "phones": [
        {
          "duration": 0.03,
          "phone": "t_B"
        },
        {
          "duration": 0.01,
          "phone": "ih_E"
        }
      ],
      "start": 10.8,
      "startOffset": 197,
      "word": "TO"
    },
    {
      "alignedWord": "see",
      "case": "success",
      "end": 11.079999,
      "endOffset": 203,
      "phones": [
        {
          "duration": 0.14,
          "phone": "s_B"
        },
        {
          "duration": 0.09,
          "phone": "iy_E"
        }
      ],
      "start": 10.849999,
      "startOffset": 200,
      "word": "SEE"
    },
    {
      "alignedWord": "war",
      "case": "success",
      "end": 11.34,
      "endOffset": 207,
      "phones": [
        {
          "duration": 0.06,
          "phone": "w_B"
        },
        {
          "duration": 0.09,
          "phone": "ao_I"
        },
        {
          "duration": 0.11,
          "phone": "r_E"
        }
      ],
      "start": 11.08,
      "startOffset": 204,
      "word": "WAR"
    },
    {
      "alignedWord": "service",
      "case": "success",
      "end": 11.879999999999999,
      "endOffset": 215,
      "phones": [
        {
          "duration": 0.12,
          "phone": "s_B"
        },
        {
          "duration": 0.1,
          "phone": "er_I"
        },
        {
          "duration": 0.05,
          "phone": "v_I"
        },
        {
          "duration": 0.07,
          "phone": "ah_I"
        },
        {
          "duration": 0.2,
          "phone": "s_E"
        }
      ],
      "start": 11.34,
      "startOffset": 208,
      "word": "SERVICE"
    },
    {
      "alignedWord": "for",
      "case": "success",
      "end": 12.429999,
      "endOffset": 219,
      "phones": [
        {
          "duration": 0.15,
          "phone": "f_B"
        },
        {
          "duration": 0.1,
          "phone": "er_E"
        }
      ],
      "start": 12.179999,
      "startOffset": 216,
      "word": "FOR"
    },
    {
      "alignedWord": "american",
      "case": "success",
      "end": 12.889999000000001,
      "endOffset": 228,
      "phones": [
        {
          "duration": 0.04,
          "phone": "ah_B"
        },
        {
          "duration": 0.05,
          "phone": "m_I"
        },
        {
          "duration": 0.06,
          "phone": "eh_I"
        },
        {
          "duration": 0.07,
          "phone": "r_I"
        },
        {
          "duration": 0.07,
          "phone": "ah_I"
        },
        {
          "duration": 0.05,
          "phone": "k_I"
        },
        {
          "duration": 0.06,
          "phone": "ah_I"
        },
        {
          "duration": 0.06,
          "phone": "n_E"
        }
      ],
      "start": 12.429999,
      "startOffset": 220,
      "word": "AMERICAN"
    },
    {
      "alignedWord": "troops",
      "case": "success",
      "end": 13.309999,
      "endOffset": 235,
      "phones": [
        {
          "duration": 0.09,
          "phone": "t_B"
        },
        {
          "duration": 0.05,
          "phone": "r_I"
        },
        {
          "duration": 0.09,
          "phone": "uw_I"
        },
        {
          "duration": 0.1,
          "phone": "p_I"
        },
        {
          "duration": 0.09,
          "phone": "s_E"
        }
      ],
      "start": 12.889999,
      "startOffset": 229,
      "word": "TROOPS"
    },
    {
      "alignedWord": "were",
      "case": "success",
      "end": 13.449999,
      "endOffset": 240,
      "phones": [
        {
          "duration": 0.09,
          "phone": "w_B"
        },
        {
          "duration": 0.05,
          "phone": "er_E"
        }
      ],
      "start": 13.309999,
      "startOffset": 236,
      "word": "WERE"
    },
    {
      "alignedWord": "already",
      "case": "success",
      "end": 14.0,
      "endOffset": 248,
      "phones": [
        {
          "duration": 0.12,
          "phone": "ao_B"
        },
        {
          "duration": 0.04,
          "phone": "l_I"
        },
        {
          "duration": 0.13,
          "phone": "r_I"
        },
        {
          "duration": 0.08,
          "phone": "eh_I"
        },
        {
          "duration": 0.05,
          "phone": "d_I"
        },
        {
          "duration": 0.09,
          "phone": "iy_E"
        }
      ],
      "start": 13.49,
      "startOffset": 241,
      "word": "ALREADY"
    },
    {
      "alignedWord": "in",
      "case": "success",
      "end": 14.129999,
      "endOffset": 251,
      "phones": [
        {
          "duration": 0.08,
          "phone": "ih_B"
        },
        {
          "duration": 0.04,
          "phone": "n_E"
        }
      ],
      "start": 14.009999,
      "startOffset": 249,
      "word": "IN"
    },
    {
      "alignedWord": "the",
      "case": "success",
      "end": 14.22,
      "endOffset": 255,
      "phones": [
        {
          "duration": 0.05,
          "phone": "dh_B"
        },
        {
          "duration": 0.04,
          "phone": "ah_E"
        }
      ],
      "start": 14.13,
      "startOffset": 252,
      "word": "THE"
    },
    {
      "alignedWord": "trenches",
      "case": "success",
      "end": 14.829998999999999,
      "endOffset": 264,
      "phones": [
        {
          "duration": 0.07,
          "phone": "t_B"
        },
        {
          "duration": 0.06,
          "phone": "r_I"
        },
        {
          "duration": 0.04,
          "phone": "eh_I"
        },
        {
          "duration": 0.07,
          "phone": "n_I"
        },
        {
          "duration": 0.06,
          "phone": "ch_I"
        },
        {
          "duration": 0.07,
          "phone": "ih_I"
        },
        {
          "duration": 0.24,
          "phone": "z_E"
        }
      ],
      "start": 14.219999,
      "startOffset": 256,
      "word": "TRENCHES"
    }
  ]
}