{
  "transcript": "SAY THAT MUST BE THRILLING TO BE A MEMBER OF AN ADVANCE PARTY LIKE THAT SAID JERRY HIS ENTHUSIASM AS FIERY AS HIS HAIR I WONDER IF WE'LL GET ANY WORK LIKE THAT YOU SURE WILL RESPONDED RAWLE AND PLENTY OF IT YOU NEEDN'T WORRY ON THAT SCORE",
  "words": [
    {
      "alignedWord": "say",
      "case": "success",
      "end": 1.46,
      "endOffset": 3,
      "phones": [
        {
          "duration": 0.41,
          "phone": "s_B"
        },
        {
          "duration": 0.57,
          "phone": "ey_E"
        }
      ],
      "start": 0.48,
      "startOffset": 0,
      "word": "SAY"
    },
    {
      "alignedWord": "that",
      "case": "success",
      "end": 1.65,
      "endOffset": 8,
      "phones": [
        {
          "duration": 0.06,
          "phone": "dh_B"
        },
        {
          "duration": 0.05,
          "phone": "ae_I"
        },
        {
          "duration": 0.08,
          "phone": "t_E"
        }
      ],
      "start": 1.46,
      "startOffset": 4,
      "word": "THAT"
    },
    {
      "alignedWord": "must",
      "case": "success",
      "end": 1.88,
      "endOffset": 13,
      "phones": [
        {
          "duration": 0.06,
          "phone": "m_B"
        },
        {
          "duration": 0.08,
          "phone": "ah_I"
        },
        {
          "duration": 0.04,
          "phone": "s_I"
        },
        {
          "duration": 0.05,
          "phone": "t_E"
        }
      ],
      "start": 1.65,
      "startOffset": 9,
      "word": "MUST"
    },
    {
      "alignedWord": "be",
      "case": "success",
      "end": 2.0,
      "endOffset": 16,
      "phones": [
        {
          "duration": 0.06,
          "phone": "b_B"
        },
        {
          "duration": 0.06,
          "phone": "iy_E"
        }
      ],
      "start": 1.88,
      "startOffset": 14,
      "word": "BE"
    },
    {
      "alignedWord": "thrilling",
      "case": "success",
      "end": 2.56,
      "endOffset": 26,
      "phones": [
        {
          "duration": 0.11,
          "phone": "th_B"
        },
        {
          "duration": 0.09,
          "phone": "r_I"
        },
        {
          "duration": 0.07,
          "phone": "ih_I"
        },
        {
          "duration": 0.09,
          "phone": "l_I"
        },
        {
          "duration": 0.1,
          "phone": "ih_I"
        },
        {
          "duration": 0.1,
          "phone": "ng_E"
        }
      ],
      "start": 2.0,
      "startOffset": 17,
      "word": "THRILLING"
    },
    {
      "alignedWord": "to",
      "case": "success",
      "end": 2.83,
      "endOffset": 29,
      "phones": [
        {
          "duration": 0.01,
          "phone": "t_B"
        },
        {
          "duration": 0.01,
          "phone": "ih_E"
        }
      ],
      "start": 2.81,
      "startOffset": 27,
      "word": "TO"
    },
    {
      "alignedWord": "be",
      "case": "success",
      "end": 3.0,
      "endOffset": 32,
      "phones": [
        {
          "duration": 0.1,
          "phone": "b_B"
        },
        {
          "duration": 0.06,
          "phone": "iy_E"
        }
      ],
      "start": 2.84,
      "startOffset": 30,
      "word": "BE"
    },
    {
      "alignedWord": "a",
      "case": "success",
      "end": 3.05,
      "endOffset": 34,
      "phones": [
        {
          "duration": 0.05,
          "phone": "ah_S"
        }
      ],
      "start": 3.0,
      "startOffset": 33,
      "word": "A"
    },
    {
      "alignedWord": "member",
      "case": "success",
      "end": 3.32,
      "endOffset": 41,
      "phones": [
        {
          "duration": 0.06,
          "phone": "m_B"
        },
        {
          "duration": 0.08,
          "phone": "eh_I"
        },
        {
          "duration": 0.05,
          "phone": "m_I"
        },
        {
          "duration": 0.05,
          "phone": "b_I"
        },
        {
          "duration": 0.03,
          "phone": "er_E"
        }
      ],
      "start": 3.05,
      "startOffset": 35,
      "word": "MEMBER"
    },
    {
      "alignedWord": "of",
      "case": "success",
      "end": 3.4299999999999997,
      "endOffset": 44,
      "phones": [
        {
          "duration": 0.06,
          "phone": "ah_B"
        },
        {
          "duration": 0.05,
          "phone": "v_E"
        }
      ],
      "start": 3.32,
      "startOffset": 42,
      "word": "OF"
    },
    {
      "alignedWord": "an",
      "case": "success",
      "end": 3.45,
      "endOffset": 47,
      "phones": [
        {
          "duration": 0.01,
          "phone": "ah_B"
        },
        {
          "duration": 0.01,
          "phone": "n_E"
        }
      ],
      "start": 3.43,
      "startOffset": 45,
      "word": "AN"
    },
    {
      "alignedWord": "advance",
      "case": "success",
      "end": 3.8600000000000003,
      "endOffset": 55,
      "phones": [
        {
          "duration": 0.04,
          "phone": "ah_B"
        },
        {
          "duration": 0.02,
          "phone": "d_I"
        },
        {
          "duration": 0.11,
          "phone": "v_I"
        },
        {
          "duration": 0.09,
          "phone": "ae_I"
        },
        {
          "duration": 0.07,
          "phone": "n_I"
        },
        {
          "duration": 0.08,
          "phone": "s_E"
        }
      ],
      "start": 3.45,
      "startOffset": 48,
      "word": "ADVANCE"
    },
    {
      "alignedWord": "party",
      "case": "success",
      "end": 4.1899999999999995,
      "endOffset": 61,
      "phones": [
        {
          "duration": 0.08,
          "phone": "p_B"
        },
        {
          "duration": 0.06,
          "phone": "aa_I"
        },
        {
          "duration": 0.06,
          "phone": "r_I"
        },
        {
          "duration": 0.05,
          "phone": "t_I"
        },
        {
          "duration": 0.06,
          "phone": "iy_E"
        }
      ],
      "start": 3.88,
      "startOffset": 56,
      "word": "PARTY"
    },
    {
      "alignedWord": "like",
      "case": "success",
      "end": 4.380000000000001,
      "endOffset": 66,
      "phones": [
        {
          "duration": 0.06,
          "phone": "l_B"
        },
        {
          "duration": 0.06,
          "phone": "ay_I"
        },
        {
          "duration": 0.07,
          "phone": "k_E"
        }
      ],
      "start": 4.19,
      "startOffset": 62,
      "word": "LIKE"
    },
    {
      "alignedWord": "that",
      "case": "success",
      "end": 4.55,
      "endOffset": 71,
      "phones": [
        {
          "duration": 0.05,
          "phone": "dh_B"
        },
        {
          "duration": 0.06,
          "phone": "ae_I"
        },
        {
          "duration": 0.06,
          "phone": "t_E"
        }
      ],
      "start": 4.38,
      "startOffset": 67,
      "word": "THAT"
    },
    {
      "alignedWord": "said",
      "case": "success",
      "end": 4.75,
      "endOffset": 76,
      "phones": [
        {
          "duration": 0.08,
          "phone": "s_B"
        },
        {
          "duration": 0.06,
          "phone": "eh_I"
        },
        {
          "duration": 0.06,
          "phone": "d_E"
        }
      ],
      "start": 4.55,
      "startOffset": 72,
      "word": "SAID"
    },
    {
      "alignedWord": "jerry",
      "case": "success",
      "end": 5.16,
      "endOffset": 82,
      "phones": [
        {
          "duration": 0.11,
          "phone": "jh_B"
        },
        {
          "duration": 0.07,
          "phone": "eh_I"
        },
        {
          "duration": 0.1,
          "phone": "r_I"
        },
        {
          "duration": 0.13,
          "phone": "iy_E"
        }
      ],
      "start": 4.75,
      "startOffset": 77,
      "word": "JERRY"
    },
    {
      "alignedWord": "his",
      "case": "success",
      "end": 5.62,
      "endOffset": 86,
      "phones": [
        {
          "duration": 0.08,
          "phone": "hh_B"
        },
        {
          "duration": 0.07,
          "phone": "ih_I"
        },
        {
          "duration": 0.06,
          "phone": "z_E"
        }
      ],
      "start": 5.41,
      "startOffset": 83,
      "word": "HIS"
    },
    {
      "alignedWord": "enthusiasm",
      "case": "success",
      "end": 6.54,
      "endOffset": 97,
      "phones": [
        {
          "duration": 0.07,
          "phone": "ih_B"
        },
        {
          "duration": 0.08,
          "phone": "n_I"
        },
        {
          "duration": 0.12,
          "phone": "th_I"
        },
        {
          "duration": 0.15,
          "phone": "uw_I"
        },
        {
          "duration": 0.11,
          "phone": "z_I"
        },
        {
          "duration": 0.1,
          "phone": "iy_I"
        },
        {
          "duration": 0.08,
          "phone": "ae_I"
        },
        {
          "duration": 0.05,
          "phone": "z_I"
        },
        {
          "duration": 0.07,
          "phone": "ah_I"
        },
        {
          "duration": 0.09,
          "phone": "m_E"
        }
      ],
      "start": 5.62,
      "startOffset": 87,
      "word": "ENTHUSIASM"
    },
    {
      "alignedWord": "as",
      "case": "success",
      "end": 6.779999999999999,
      "endOffset": 100,
      "phones": [
        {
          "duration": 0.1,
          "phone": "eh_B"
        },
        {
          "duration": 0.08,
          "phone": "z_E"
        }
      ],
      "start": 6.6,
      "startOffset": 98,
      "word": "AS"
    },
    {
      "alignedWord": "fiery",
      "case": "success",
      "end": 7.2,
      "endOffset": 106,
      "phones": [
        {
          "duration": 0.13,
          "phone": "f_B"
        },
        {
          "duration": 0.09,
          "phone": "ay_I"
        },
        {
          "duration": 0.12,
          "phone": "er_I"
        },
        {
          "duration": 0.08,
          "phone": "iy_E"
        }
      ],
      "start": 6.78,
      "startOffset": 101,
      "word": "FIERY"
    },
    {
      "alignedWord": "as",
      "case": "success",
      "end": 7.34,
      "endOffset": 109,
      "phones": [
        {
          "duration": 0.08,
          "phone": "eh_B"
        },
        {
          "duration": 0.06,
          "phone": "z_E"
        }
      ],
      "start": 7.2,
      "startOffset": 107,
      "word": "AS"
    },
    {
      "alignedWord": "his",
      "case": "success",
      "end": 7.47,
      "endOffset": 113,
      "phones": [
        {
          "duration": 0.05,
          "phone": "hh_B"
        },
        {
          "duration": 0.01,
          "phone": "ih_I"
        },
        {
          "duration": 0.07,
          "phone": "z_E"
        }
      ],
      "start": 7.34,
      "startOffset": 110,
      "word": "HIS"
    },
    {
      "alignedWord": "hair",
      "case": "success",
      "end": 7.85,
      "endOffset": 118,
      "phones": [
        {
          "duration": 0.05,
          "phone": "hh_B"
        },
        {
          "duration": 0.11,
          "phone": "eh_I"
        },
        {
          "duration": 0.22,
          "phone": "r_E"
        }
      ],
      "start": 7.47,
      "startOffset": 114,
      "word": "HAIR"
    },
    {
      "alignedWord": "i",
      "case": "success",
      "end": 8.559999999999999,
      "endOffset": 120,
      "phones": [
        {
          "duration": 0.2,
          "phone": "ay_S"
        }
      ],
      "start": 8.36,
      "startOffset": 119,
      "word": "I"
    },
    {
      "alignedWord": "wonder",
      "case": "success",
      "end": 8.879999,
      "endOffset": 127,
      "phones": [
        {
          "duration": 0.11,
          "phone": "w_B"
        },
        {
          "duration": 0.09,
          "phone": "ah_I"
        },
        {
          "duration": 0.03,
          "phone": "n_I"
        },
        {
          "duration": 0.04,
          "phone": "d_I"
        },
        {
          "duration": 0.05,
          "phone": "er_E"
        }
      ],
      "start": 8.559999,
      "startOffset": 121,
      "word": "WONDER"
    },
    {
      "alignedWord": "if",
      "case": "success",
      "end": 8.97,
      "endOffset": 130,
      "phones": [
        {
          "duration": 0.06,
          "phone": "ih_B"
        },
        {
          "duration": 0.03,
          "phone": "f_E"
        }
      ],
      "start": 8.88,
      "startOffset": 128,
      "word": "IF"
    },
    {
      "alignedWord": "we'll",
      "case": "success",
      "end": 9.290000000000001,
      "endOffset": 136,
      "phones": [
        {
          "duration": 0.13,
          "phone": "w_B"
        },
        {
          "duration": 0.09,
          "phone": "ih_I"
        },
        {
          "duration": 0.09,
          "phone": "l_E"
        }
      ],
      "start": 8.98,
      "startOffset": 131,
      "word": "WE'LL"
    },
    {
      "alignedWord": "get",
      "case": "success",
      "end": 9.459999999999999,
      "endOffset": 140,
      "phones": [
        {
          "duration": 0.06,
          "phone": "g_B"
        },
        {
          "duration": 0.05,
          "phone": "ih_I"
        },
        {
          "duration": 0.06,
          "phone": "t_E"
        }
      ],
      "start": 9.29,
      "startOffset": 137,
      "word": "GET"
    },
    {
      "alignedWord": "any",
      "case": "success",
      "end": 9.64,
      "endOffset": 144,
      "phones": [
        {
          "duration": 0.06,
          "phone": "eh_B"
        },
        {
          "duration": 0.01,
          "phone": "n_I"
        },
        {
          "duration": 0.11,
          "phone": "iy_E"
        }
      ],
      "start": 9.46,
      "startOffset": 141,
      "word": "ANY"
    },
    {
      "alignedWord": "work",
      "case": "success",
      "end": 9.879999,
      "endOffset": 149,
      "phones": [
        {
          "duration": 0.11,
          "phone": "w_B"
        },
        {
          "duration": 0.07,
          "phone": "er_I"
        },
        {
          "duration": 0.06,
          "phone": "k_E"
        }
      ],
      "start": 9.639999,
      "startOffset": 145,
      "word": "WORK"
    },
    {
      "alignedWord": "like",
      "case": "success",
      "end": 10.06,
      "endOffset": 154,
      "phones": [
        {
          "duration": 0.06,
          "phone": "l_B"
        },
        {
          "duration": 0.06,
          "phone": "ay_I"
        },
        {
          "duration": 0.06,
          "phone": "k_E"
        }
      ],
      "start": 9.88,
      "startOffset": 150,
      "word": "LIKE"
    },
    {
      "alignedWord": "that",
      "case": "success",
      "end": 10.409999,
      "endOffset": 159,
      "phones": [
        {
          "duration": 0.06,
          "phone": "dh_B"
        },
        {
          "duration": 0.1,
          "phone": "ae_I"
        },
        {
          "duration": 0.19,
          "phone": "t_E"
        }
      ],
      "start": 10.059999,
      "startOffset": 155,
      "word": "THAT"
    },
    {
      "alignedWord": "you",
      "case": "success",
      "end": 11.299999999999999,
      "endOffset": 163,
      "phones": [
        {
          "duration": 0.17,
          "phone": "y_B"
        },
        {
          "duration": 0.11,
          "phone": "uw_E"
        }
      ],
      "start": 11.02,
      "startOffset": 160,
      "word": "YOU"
    },
    {
      "alignedWord": "sure",
      "case": "success",
      "end": 11.59,
      "endOffset": 168,
      "phones": [
        {
          "duration": 0.11,
          "phone": "sh_B"
        },
        {
          "duration": 0.08,
          "phone": "uh_I"
        },
        {
          "duration": 0.1,
          "phone": "r_E"
        }
      ],
      "start": 11.3,
      "startOffset": 164,
      "word": "SURE"
    },
    {
      "alignedWord": "will",
      "case": "success",
      "end": 11.92,
      "endOffset": 173,
      "phones": [
        {
          "duration": 0.11,
          "phone": "w_B"
        },
        {
          "duration": 0.1,
          "phone": "ih_I"
        },
        {
          "duration": 0.12,
          "phone": "l_E"
        }
      ],
      "start": 11.59,
      "startOffset": 169,
      "word": "WILL"
    },
    {
      "alignedWord": "responded",
      "case": "success",
      "end": 12.38,
      "endOffset": 183,
      "phones": [
        {
          "duration": 0.02,
          "phone": "r_B"
        },
        {
          "duration": 0.07,
          "phone": "iy_I"
        },
        {
          "duration": 0.06,
          "phone": "s_I"
        },
        {
          "duration": 0.08,
          "phone": "p_I"
        },
        {
          "duration": 0.07,
          "phone": "aa_I"
        },
        {
          "duration": 0.04,
          "phone": "n_I"
        },
        {
          "duration": 0.01,
          "phone": "d_I"
        },
        {
          "duration": 0.06,
          "phone": "ih_I"
        },
        {
          "duration": 0.05,
          "phone": "d_E"
        }
      ],
      "start": 11.92,
      "startOffset": 174,
      "word": "RESPONDED"
    },
    {
      "alignedWord": "<unk>",
      "case": "success",
      "end": 12.73,
      "endOffset": 189,
      "phones": [
        {
          "duration": 0.35,
          "phone": "oov_S"
        }
      ],
      "start": 12.38,
      "startOffset": 184,
      "word": "RAWLE"
    },
    {
      "alignedWord": "and",
      "case": "success",
      "end": 12.99,
      "endOffset": 193,
      "phones": [
        {
          "duration": 0.07,
          "phone": "ae_B"
        },
        {
          "duration": 0.07,
          "phone": "n_I"
        },
        {
          "duration": 0.08,
          "phone": "d_E"
        }
      ],
      "start": 12.77,
      "startOffset": 190,
      "word": "AND"
    },
    {
      "alignedWord": "plenty",
      "case": "success",
      "end": 13.47,
      "endOffset": 200,
      "phones": [
        {
          "duration": 0.11,
          "phone": "p_B"
        },
        {
          "duration": 0.09,
          "phone": "l_I"
        },
        {
          "duration": 0.08,
          "phone": "eh_I"
        },
        {
          "duration": 0.01,
          "phone": "n_I"
        },
        {
          "duration": 0.07,
          "phone": "t_I"
        },
        {
          "duration": 0.11,
          "phone": "iy_E"
        }
      ],
      "start": 13.0,
      "startOffset": 194,
      "word": "PLENTY"
    },
    {
      "alignedWord": "of",
      "case": "success",
      "end": 13.71,
      "endOffset": 203,
      "phones": [
        {
          "duration": 0.12,
          "phone": "ah_B"
        },
        {
          "duration": 0.09,
          "phone": "v_E"
        }
      ],
      "start": 13.5,
      "startOffset": 201,
      "word": "OF"
    },
    {
      "alignedWord": "it",
      "case": "success",
      "end": 13.840000000000002,
      "endOffset": 206,
      "phones": [
        {
          "duration": 0.05,
          "phone": "ih_B"
        },
        {
          "duration": 0.08,
          "phone": "t_E"
        }
      ],
      "start": 13.71,
      "startOffset": 204,
      "word": "IT"
    },
    {
      "alignedWord": "you",
      "case": "success",
      "end": 14.319999,
      "endOffset": 210,
      "phones": [
        {
          "duration": 0.1,
          "phone": "y_B"
        },
        {
          "duration": 0.08,
          "phone": "uw_E"
        }
      ],
      "start": 14.139999,
      "startOffset": 207,
      "word": "YOU"
    },
    {
      "alignedWord": "needn't",
      "case": "success",
      "end": 14.61,
      "endOffset": 218,
      "phones": [
        {
          "duration": 0.08,
          "phone": "n_B"
        },
        {
          "duration": 0.1,
          "phone": "iy_I"
        },
        {
          "duration": 0.03,
          "phone": "d_I"
        },
        {
          "duration": 0.05,
          "phone": "ah_I"
        },
        {
          "duration": 0.01,
          "phone": "n_I"
        },
        {
          "duration": 0.01,
          "phone": "t_E"
        }
      ],
      "start": 14.33,
      "startOffset": 211,
      "word": "NEEDN'T"
    },
    {
      "alignedWord": "worry",
      "case": "success",
      "end": 14.93,
      "endOffset": 224,
      "phones": [
        {
          "duration": 0.15,
          "phone": "w_B"
        },
        {
          "duration": 0.09,
          "phone": "er_I"
        },
        {
          "duration": 0.07,
          "phone": "iy_E"
        }
      ],
      "start": 14.62,
      "startOffset": 219,
      "word": "WORRY"
    },
    {
      "alignedWord": "on",
      "case": "success",
      "end": 15.059999000000001,
      "endOffset": 227,
      "phones": [
        {
          "duration": 0.07,
          "phone": "ao_B"
        },
        {
          "duration": 0.06,
          "phone": "n_E"
        }
      ],
      "start": 14.929999,
      "startOffset": 225,
      "word": "ON"
    },
    {
      "alignedWord": "that",
      "case": "success",
      "end": 15.269999,
      "endOffset": 232,
      "phones": [
        {
          "duration": 0.05,
          "phone": "dh_B"
        },
        {
          "duration": 0.07,
          "phone": "ae_I"
        },
        {
          "duration": 0.09,
          "phone": "t_E"
        }
      ],
      "start": 15.059999,
      "startOffset": 228,
      "word": "THAT"
    },
    {
      "alignedWord": "score",
      "case": "success",
      "end": 15.74,
      "endOffset": 238,
      "phones": [
        {
          "duration": 0.07,
          "phone": "s_B"
        },
        {
          "duration": 0.08,
          "phone": "k_I"
        },
        {
          "duration": 0.13,
          "phone": "ao_I"
        },
        {
          "duration": 0.19,
          "phone": "r_E"
        }
      ],
      "start": 15.27,
      "startOffset": 233,
      "word": "SCORE"
    }
  ]
}