{
  "transcript": "MY MONEY I MEAN GOD'S WHICH HE WANTS ME TO USE CAN BUILD WHOLESOME LODGING HOUSES REFUGES FOR POOR WOMEN ASYLUMS FOR SHOP GIRLS SAFETY FOR MANY AND MANY A LOST GIRL LIKE LOREEN",
  "words": [
    {
      "alignedWord": "my",
      "case": "success",
      "end": 0.66,
      "endOffset": 2,
      "phones": [
        {
          "duration": 0.1,
          "phone": "m_B"
        },
        {
          "duration": 0.12,
          "phone": "ay_E"
        }
      ],
      "start": 0.44,
      "startOffset": 0,
      "word": "MY"
    },
    {
      "alignedWord": "money",
      "case": "success",
      "end": 1.1400000000000001,
      "endOffset": 8,
      "phones": [
        {
          "duration": 0.08,
          "phone": "m_B"
        },
        {
          "duration": 0.11,
          "phone": "ah_I"
        },
        {
          "duration": 0.08,
          "phone": "n_I"
        },
        {
          "duration": 0.21,
          "phone": "iy_E"
        }
      ],
      "start": 0.66,
      "startOffset": 3,
      "word": "MONEY"
    },
    {
      "alignedWord": "i",
      "case": "success",
      "end": 1.39,
      "endOffset": 10,
      "phones": [
        {
          "duration": 0.16,
          "phone": "ay_S"
        }
      ],
      "start": 1.23,
      "startOffset": 9,
      "word": "I"
    },
    {
      "alignedWord": "mean",
      "case": "success",
      "end": 1.64,
      "endOffset": 15,
      "phones": [
        {
          "duration": 0.08,
          "phone": "m_B"
        },
        {
          "duration": 0.08,
          "phone": "iy_I"
        },
        {
          "duration": 0.09,
          "phone": "n_E"
        }
      ],
      "start": 1.39,
      "startOffset": 11,
      "word": "MEAN"
    },
    {
      "alignedWord": "god's",
      "case": "success",
      "end": 2.11,
      "endOffset": 21,
      "phones": [
        {
          "duration": 0.08,
          "phone": "g_B"
        },
        {
          "duration": 0.23,
          "phone": "aa_I"
        },
        {
          "duration": 0.09,
          "phone": "d_I"
        },
        {
          "duration": 0.07,
          "phone": "z_E"
        }
      ],
      "start": 1.64,
      "startOffset": 16,
      "word": "GOD'S"
    },
    {
      "alignedWord": "which",
      "case": "success",
      "end": 2.33,
      "endOffset": 27,
      "phones": [
        {
          "duration": 0.07,
          "phone": "w_B"
        },
        {
          "duration": 0.07,
          "phone": "ih_I"
        },
        {
          "duration": 0.08,
          "phone": "ch_E"
        }
      ],
      "start": 2.11,
      "startOffset": 22,
      "word": "WHICH"
    },
    {
      "alignedWord": "he",
      "case": "success",
      "end": 2.4,
      "endOffset": 30,
      "phones": [
        {
          "duration": 0.04,
          "phone": "hh_B"
        },
        {
          "duration": 0.03,
          "phone": "iy_E"
        }
      ],
      "start": 2.33,
      "startOffset": 28,
      "word": "HE"
    },
    {
      "alignedWord": "wants",
      "case": "success",
      "end": 2.67,
      "endOffset": 36,
      "phones": [
        {
          "duration": 0.08,
          "phone": "w_B"
        },
        {
          "duration": 0.08,
          "phone": "aa_I"
        },
        {
          "duration": 0.01,
          "phone": "n_I"
        },
        {
          "duration": 0.05,
          "phone": "t_I"
        },
        {
          "duration": 0.05,
          "phone": "s_E"
        }
      ],
      "start": 2.4,
      "startOffset": 31,
      "word": "WANTS"
    },
    {
      "alignedWord": "me",
      "case": "success",
      "end": 2.8,
      "endOffset": 39,
      "phones": [
        {
          "duration": 0.07,
          "phone": "m_B"
        },
        {
          "duration": 0.04,
          "phone": "iy_E"
        }
      ],
      "start": 2.69,
      "startOffset": 37,
      "word": "ME"
    },
    {
      "alignedWord": "to",
      "case": "success",
      "end": 2.9499999999999997,
      "endOffset": 42,
      "phones": [
        {
          "duration": 0.08,
          "phone": "t_B"
        },
        {
          "duration": 0.07,
          "phone": "uw_E"
        }
      ],
      "start": 2.8,
      "startOffset": 40,
      "word": "TO"
    },
    {
      "alignedWord": "use",
      "case": "success",
      "end": 3.49,
      "endOffset": 46,
      "phones": [
        {
          "duration": 0.12,
          "phone": "y_B"
        },
        {
          "duration": 0.22,
          "phone": "uw_I"
        },
        {
          "duration": 0.2,
          "phone": "z_E"
        }
      ],
      "start": 2.95,
      "startOffset": 43,
      "word": "USE"
    },
    {
      "alignedWord": "can",
      "case": "success",
      "end": 4.15,
      "endOffset": 50,
      "phones": [
        {
          "duration": 0.11,
          "phone": "k_B"
        },
        {
          "duration": 0.06,
          "phone": "ae_I"
        },
        {
          "duration": 0.08,
          "phone": "n_E"
        }
      ],
      "start": 3.9,
      "startOffset": 47,
      "word": "CAN"
    },
    {
      "alignedWord": "build",
      "case": "success",
      "end": 4.42,
      "endOffset": 56,
      "phones": [
        {
          "duration": 0.04,
          "phone": "b_B"
        },
        {
          "duration": 0.08,
          "phone": "ih_I"
        },
        {
          "duration": 0.07,
          "phone": "l_I"
        },
        {
          "duration": 0.08,
          "phone": "d_E"
        }
      ],
      "start": 4.15,
      "startOffset": 51,
      "word": "BUILD"
    },
    {
      "alignedWord": "wholesome",
      "case": "success",
      "end": 4.95,
      "endOffset": 66,
      "phones": [
        {
          "duration": 0.09,
          "phone": "hh_B"
        },
        {
          "duration": 0.06,
          "phone": "ow_I"
        },
        {
          "duration": 0.13,
          "phone": "l_I"
        },
        {
          "duration": 0.09,
          "phone": "s_I"
        },
        {
          "duration": 0.07,
          "phone": "ah_I"
        },
        {
          "duration": 0.09,
          "phone": "m_E"
        }
      ],
      "start": 4.42,
      "startOffset": 57,
      "word": "WHOLESOME"
    },
    {
      "alignedWord": "lodging",
      "case": "success",
      "end": 5.33,
      "endOffset": 74,
      "phones": [
        {
          "duration": 0.07,
          "phone": "l_B"
        },
        {
          "duration": 0.08,
          "phone": "aa_I"
        },
        {
          "duration": 0.08,
          "phone": "jh_I"
        },
        {
          "duration": 0.06,
          "phone": "ih_I"
        },
        {
          "duration": 0.09,
          "phone": "ng_E"
        }
      ],
      "start": 4.95,
      "startOffset": 67,
      "word": "LODGING"
    },
    {
      "alignedWord": "houses",
      "case": "success",
      "end": 5.8,
      "endOffset": 81,
      "phones": [
        {
          "duration": 0.06,
          "phone": "hh_B"
        },
        {
          "duration": 0.15,
          "phone": "aw_I"
        },
        {
          "duration": 0.05,
          "phone": "s_I"
        },
        {
          "duration": 0.09,
          "phone": "ih_I"
        },
        {
          "duration": 0.12,
          "phone": "z_E"
        }
      ],
      "start": 5.33,
      "startOffset": 75,
      "word": "HOUSES"
    },
    {
      "alignedWord": "refuges",
      "case": "success",
      "end": 6.49,
      "endOffset": 89,
      "phones": [
        {
          "duration": 0.15,
          "phone": "r_B"
        },
        {
          "duration": 0.06,
          "phone": "eh_I"
        },
        {
          "duration": 0.09,
          "phone": "f_I"
        },
        {
          "duration": 0.05,
          "phone": "y_I"
        },
        {
          "duration": 0.08,
          "phone": "uw_I"
        },
        {
          "duration": 0.06,
          "phone": "jh_I"
        },
        {
          "duration": 0.09,
          "phone": "ih_I"
        },
        {
          "duration": 0.08,
          "phone": "z_E"
        }
      ],
      "start": 5.83,
      "startOffset": 82,
      "word": "REFUGES"
    },
    {
      "alignedWord": "for",
      "case": "success",
      "end": 6.69,
      "endOffset": 93,
      "phones": [
        {
          "duration": 0.08,
          "phone": "f_B"
        },
        {
          "duration": 0.05,
          "phone": "ao_I"
        },
        {
          "duration": 0.07,
          "phone": "r_E"
        }
      ],
      "start": 6.49,
      "startOffset": 90,
      "word": "FOR"
    },
    {
      "alignedWord": "poor",
      "case": "success",
      "end": 6.970000000000001,
      "endOffset": 98,
      "phones": [
        {
          "duration": 0.12,
          "phone": "p_B"
        },
        {
          "duration": 0.12,
          "phone": "uw_I"
        },
        {
          "duration": 0.04,
          "phone": "r_E"
        }
      ],
      "start": 6.69,
      "startOffset": 94,
      "word": "POOR"
    },
    {
      "alignedWord": "women",
      "case": "success",
      "end": 7.42,
      "endOffset": 104,
      "phones": [
        {
          "duration": 0.1,
          "phone": "w_B"
        },
        {
          "duration": 0.1,
          "phone": "ih_I"
        },
        {
          "duration": 0.05,
          "phone": "m_I"
        },
        {
          "duration": 0.08,
          "phone": "ah_I"
        },
        {
          "duration": 0.12,
          "phone": "n_E"
        }
      ],
      "start": 6.97,
      "startOffset": 99,
      "word": "WOMEN"
    },
    {
      "alignedWord": "<unk>",
      "case": "success",
      "end": 8.530000000000001,
      "endOffset": 112,
      "phones": [
        {
          "duration": 0.67,
          "phone": "oov_S"
        }
      ],
      "start": 7.86,
      "startOffset": 105,
      "word": "ASYLUMS"
    },
    {
      "alignedWord": "for",
      "case": "success",
      "end": 8.709999999999999,
      "endOffset": 116,
      "phones": [
        {
          "duration": 0.1,
          "phone": "f_B"
        },
        {
          "duration": 0.07,
          "phone": "er_E"
        }
      ],
      "start": 8.54,
      "startOffset": 113,
      "word": "FOR"
    },
    {
      "alignedWord": "shop",
      "case": "success",
      "end": 9.05,
      "endOffset": 121,
      "phones": [
        {
          "duration": 0.14,
          "phone": "sh_B"
        },
        {
          "duration": 0.1,
          "phone": "aa_I"
        },
        {
          "duration": 0.1,
          "phone": "p_E"
        }
      ],
      "start": 8.71,
      "startOffset": 117,
      "word": "SHOP"
    },
    {
      "alignedWord": "girls",
      "case": "success",
      "end": 9.48,
      "endOffset": 127,
      "phones": [
        {
          "duration": 0.1,
          "phone": "g_B"
        },
        {
          "duration": 0.15,
          "phone": "er_I"
        },
        {
          "duration": 0.07,
          "phone": "l_I"
        },
        {
          "duration": 0.11,
          "phone": "z_E"
        }
      ],
      "start": 9.05,
      "startOffset": 122,
      "word": "GIRLS"
    },
    {
      "alignedWord": "safety",
      "case": "success",
      "end": 10.43,
      "endOffset": 134,
      "phones": [
        {
          "duration": 0.2,
          "phone": "s_B"
        },
        {
          "duration": 0.1,
          "phone": "ey_I"
        },
        {
          "duration": 0.06,
          "phone": "f_I"
        },
        {
          "duration": 0.08,
          "phone": "t_I"
        },
        {
          "duration": 0.07,
          "phone": "iy_E"
        }
      ],
      "start": 9.92,
      "startOffset": 128,
      "word": "SAFETY"
    },
    {
      "alignedWord": "for",
      "case": "success",
      "end": 10.599999,
      "endOffset": 138,
      "phones": [
        {
          "duration": 0.08,
          "phone": "f_B"
        },
        {
          "duration": 0.09,
          "phone": "er_E"
        }
      ],
      "start": 10.429999,
      "startOffset": 135,
      "word": "FOR"
    },
    {
      "alignedWord": "many",
      "case": "success",
      "end": 11.009999,
      "endOffset": 143,
      "phones": [
        {
          "duration": 0.11,
          "phone": "m_B"
        },
        {
          "duration": 0.11,
          "phone": "eh_I"
        },
        {
          "duration": 0.08,
          "phone": "n_I"
        },
        {
          "duration": 0.11,
          "phone": "iy_E"
        }
      ],
      "start": 10.599999,
      "startOffset": 139,
      "word": "MANY"
    },
    {
      "alignedWord": "and",
      "case": "success",
      "end": 11.17,
      "endOffset": 147,
      "phones": [
        {
          "duration": 0.07,
          "phone": "ae_B"
        },
        {
          "duration": 0.07,
          "phone": "n_I"
        },
        {
          "duration": 0.02,
          "phone": "d_E"
        }
      ],
      "start": 11.01,
      "startOffset": 144,
      "word": "AND"
    },
    {
      "alignedWord": "many",
      "case": "success",
      "end": 11.48,
      "endOffset": 152,
      "phones": [
        {
          "duration": 0.07,
          "phone": "m_B"
        },
        {
          "duration": 0.09,
          "phone": "eh_I"
        },
        {
          "duration": 0.08,
          "phone": "n_I"
        },
        {
          "duration": 0.07,
          "phone": "iy_E"
        }
      ],
      "start": 11.17,
      "startOffset": 148,
      "word": "MANY"
    },
    {
      "alignedWord": "a",
      "case": "success",
      "end": 11.57,
      "endOffset": 154,
      "phones": [
        {
          "duration": 0.09,
          "phone": "ah_S"
        }
      ],
      "start": 11.48,
      "startOffset": 153,
      "word": "A"
    },
    {
      "alignedWord": "lost",
      "case": "success",
      "end": 12.01,
      "endOffset": 159,
      "phones": [
        {
          "duration": 0.12,
          "phone": "l_B"
        },
        {
          "duration": 0.1,
          "phone": "ao_I"
        },
        {
          "duration": 0.15,
          "phone": "s_I"
        },
        {
          "duration": 0.07,
          "phone": "t_E"
        }
      ],
      "start": 11.57,
      "startOffset": 155,
      "word": "LOST"
    },
    {
      "alignedWord": "girl",
      "case": "success",
      "end": 12.399999999999999,
      "endOffset": 164,
      "phones": [
        {
          "duration": 0.11,
          "phone": "g_B"
        },
        {
          "duration": 0.17,
          "phone": "er_I"
        },
        {
          "duration": 0.09,
          "phone": "l_E"
        }
      ],
      "start": 12.03,
      "startOffset": 160,
      "word": "GIRL"
    },
    {
      "alignedWord": "like",
      "case": "success",
      "end": 12.59,
      "endOffset": 169,
      "phones": [
        {
          "duration": 0.07,
          "phone": "l_B"
        },
        {
          "duration": 0.07,
          "phone": "ay_I"
        },
        {
          "duration": 0.05,
          "phone": "k_E"
        }
      ],
      "start": 12.4,
      "startOffset": 165,
      "word": "LIKE"
    },
    {
      "alignedWord": "<unk>",
      "case": "success",
      "end": 13.2,
      "endOffset": 176,
      "phones": [
        {
          "duration": 0.61,
          "phone": "oov_S"
        }
      ],
      "start": 12.59,
      "startOffset": 170,
      "word": "LOREEN"
    }
  ]
}