{
  "transcript": "COMMANDER OF THE IMPERIAL GUARD WHICH ATTENDED THE EMPEROR THE POOR SHEPHERD BOY HAD HEARD OF THE SUCCESS OF HIS UNCLE AND THIS WAS THE REASON WHY HE RESOLVED TO SET OFF FOR THE BIG CITY SO HE STARTED DOWN THE MOUNTAIN",
  "words": [
    {
      "alignedWord": "commander",
      "case": "success",
      "end": 0.8200000000000001,
      "endOffset": 9,
      "phones": [
        {
          "duration": 0.07,
          "phone": "k_B"
        },
        {
          "duration": 0.06,
          "phone": "ah_I"
        },
        {
          "duration": 0.11,
          "phone": "m_I"
        },
        {
          "duration": 0.12,
          "phone": "ae_I"
        },
        {
          "duration": 0.07,
          "phone": "n_I"
        },
        {
          "duration": 0.1,
          "phone": "d_I"
        },
        {
          "duration": 0.14,
          "phone": "er_E"
        }
      ],
      "start": 0.15,
      "startOffset": 0,
      "word": "COMMANDER"
    },
    {
      "alignedWord": "of",
      "case": "success",
      "end": 1.02,
      "endOffset": 12,
      "phones": [
        {
          "duration": 0.11,
          "phone": "ah_B"
        },
        {
          "duration": 0.08,
          "phone": "v_E"
        }
      ],
      "start": 0.83,
      "startOffset": 10,
      "word": "OF"
    },
    {
      "alignedWord": "the",
      "case": "success",
      "end": 1.17,
      "endOffset": 16,
      "phones": [
        {
          "duration": 0.04,
          "phone": "dh_B"
        },
        {
          "duration": 0.11,
          "phone": "iy_E"
        }
      ],
      "start": 1.02,
      "startOffset": 13,
      "word": "THE"
    },
    {
      "alignedWord": "imperial",
      "case": "success",
      "end": 1.75,
      "endOffset": 25,
      "phones": [
        {
          "duration": 0.08,
          "phone": "ih_B"
        },
        {
          "duration": 0.08,
          "phone": "m_I"
        },
        {
          "duration": 0.07,
          "phone": "p_I"
        },
        {
          "duration": 0.08,
          "phone": "ih_I"
        },
        {
          "duration": 0.08,
          "phone": "r_I"
        },
        {
          "duration": 0.06,
          "phone": "iy_I"
        },
        {
          "duration": 0.07,
          "phone": "ah_I"
        },
        {
          "duration": 0.05,
          "phone": "l_E"
        }
      ],
      "start": 1.18,
      "startOffset": 17,
      "word": "IMPERIAL"
    },
    {
      "alignedWord": "guard",
      "case": "success",
      "end": 2.2800000000000002,
      "endOffset": 31,
      "phones": [
        {
          "duration": 0.1,
          "phone": "g_B"
        },
        {
          "duration": 0.14,
          "phone": "aa_I"
        },
        {
          "duration": 0.12,
          "phone": "r_I"
        },
        {
          "duration": 0.17,
          "phone": "d_E"
        }
      ],
      "start": 1.75,
      "startOffset": 26,
      "word": "GUARD"
    },
    {
      "alignedWord": "which",
      "case": "success",
      "end": 2.62,
      "endOffset": 37,
      "phones": [
        {
          "duration": 0.05,
          "phone": "hh_B"
        },
        {
          "duration": 0.06,
          "phone": "w_I"
        },
        {
          "duration": 0.07,
          "phone": "ih_I"
        },
        {
          "duration": 0.08,
          "phone": "ch_E"
        }
      ],
      "start": 2.36,
      "startOffset": 32,
      "word": "WHICH"
    },
    {
      "alignedWord": "attended",
      "case": "success",
      "end": 3.06,
      "endOffset": 46,
      "phones": [
        {
          "duration": 0.07,
          "phone": "ah_B"
        },
        {
          "duration": 0.09,
          "phone": "t_I"
        },
        {
          "duration": 0.05,
          "phone": "eh_I"
        },
        {
          "duration": 0.06,
          "phone": "n_I"
        },
        {
          "duration": 0.05,
          "phone": "d_I"
        },
        {
          "duration": 0.06,
          "phone": "ah_I"
        },
        {
          "duration": 0.06,
          "phone": "d_E"
        }
      ],
      "start": 2.62,
      "startOffset": 38,
      "word": "ATTENDED"
    },
    {
      "alignedWord": "the",
      "case": "success",
      "end": 3.17,
      "endOffset": 50,
      "phones": [
        {
          "duration": 0.01,
          "phone": "dh_B"
        },
        {
          "duration": 0.1,
          "phone": "iy_E"
        }
      ],
      "start": 3.06,
      "startOffset": 47,
      "word": "THE"
    },
    {
      "alignedWord": "emperor",
      "case": "success",
      "end": 3.6399999999999997,
      "endOffset": 58,
      "phones": [
        {
          "duration": 0.07,
          "phone": "eh_B"
        },
        {
          "duration": 0.05,
          "phone": "m_I"
        },
        {
          "duration": 0.1,
          "phone": "p_I"
        },
        {
          "duration": 0.03,
          "phone": "er_I"
        },
        {
          "duration": 0.22,
          "phone": "er_E"
        }
      ],
      "start": 3.17,
      "startOffset": 51,
      "word": "EMPEROR"
    },
    {
      "alignedWord": "the",
      "case": "success",
      "end": 4.92,
      "endOffset": 62,
      "phones": [
        {
          "duration": 0.07,
          "phone": "dh_B"
        },
        {
          "duration": 0.05,
          "phone": "ah_E"
        }
      ],
      "start": 4.8,
      "startOffset": 59,
      "word": "THE"
    },
    {
      "alignedWord": "poor",
      "case": "success",
      "end": 5.14,
      "endOffset": 67,
      "phones": [
        {
          "duration": 0.07,
          "phone": "p_B"
        },
        {
          "duration": 0.11,
          "phone": "uw_I"
        },
        {
          "duration": 0.04,
          "phone": "r_E"
        }
      ],
      "start": 4.92,
      "startOffset": 63,
      "word": "POOR"
    },
    {
      "alignedWord": "shepherd",
      "case": "success",
      "end": 5.489999999999999,
      "endOffset": 76,
      "phones": [
        {
          "duration": 0.1,
          "phone": "sh_B"
        },
        {
          "duration": 0.05,
          "phone": "eh_I"
        },
        {
          "duration": 0.07,
          "phone": "p_I"
        },
        {
          "duration": 0.08,
          "phone": "er_I"
        },
        {
          "duration": 0.05,
          "phone": "d_E"
        }
      ],
      "start": 5.14,
      "startOffset": 68,
      "word": "SHEPHERD"
    },
    {
      "alignedWord": "boy",
      "case": "success",
      "end": 5.78,
      "endOffset": 80,
      "phones": [
        {
          "duration": 0.07,
          "phone": "b_B"
        },
        {
          "duration": 0.22,
          "phone": "oy_E"
        }
      ],
      "start": 5.49,
      "startOffset": 77,
      "word": "BOY"
    },
    {
      "alignedWord": "had",
      "case": "success",
      "end": 5.96,
      "endOffset": 84,
      "phones": [
        {
          "duration": 0.07,
          "phone": "hh_B"
        },
        {
          "duration": 0.03,
          "phone": "ae_I"
        },
        {
          "duration": 0.07,
          "phone": "d_E"
        }
      ],
      "start": 5.79,
      "startOffset": 81,
      "word": "HAD"
    },
    {
      "alignedWord": "heard",
      "case": "success",
      "end": 6.41,
      "endOffset": 90,
      "phones": [
        {
          "duration": 0.14,
          "phone": "hh_B"
        },
        {
          "duration": 0.14,
          "phone": "er_I"
        },
        {
          "duration": 0.16,
          "phone": "d_E"
        }
      ],
      "start": 5.97,
      "startOffset": 85,
      "word": "HEARD"
    },
    {
      "alignedWord": "of",
      "case": "success",
      "end": 6.68,
      "endOffset": 93,
      "phones": [
        {
          "duration": 0.08,
          "phone": "ah_B"
        },
        {
          "duration": 0.09,
          "phone": "v_E"
        }
      ],
      "start": 6.51,
      "startOffset": 91,
      "word": "OF"
    },
    {
      "alignedWord": "the",
      "case": "success",
      "end": 6.79,
      "endOffset": 97,
      "phones": [
        {
          "duration": 0.03,
          "phone": "dh_B"
        },
        {
          "duration": 0.08,
          "phone": "iy_E"
        }
      ],
      "start": 6.68,
      "startOffset": 94,
      "word": "THE"
    },
    {
      "alignedWord": "success",
      "case": "success",
      "end": 7.2299999999999995,
      "endOffset": 105,
      "phones": [
        {
          "duration": 0.07,
          "phone": "s_B"
        },
        {
          "duration": 0.07,
          "phone": "ah_I"
        },
        {
          "duration": 0.05,
          "phone": "k_I"
        },
        {
          "duration": 0.11,
          "phone": "s_I"
        },
        {
          "duration": 0.07,
          "phone": "eh_I"
        },
        {
          "duration": 0.05,
          "phone": "s_E"
        }
      ],
      "start": 6.81,
      "startOffset": 98,
      "word": "SUCCESS"
    },
    {
      "alignedWord": "of",
      "case": "success",
      "end": 7.3500000000000005,
      "endOffset": 108,
      "phones": [
        {
          "duration": 0.06,
          "phone": "ah_B"
        },
        {
          "duration": 0.06,
          "phone": "v_E"
        }
      ],
      "start": 7.23,
      "startOffset": 106,
      "word": "OF"
    },
    {
      "alignedWord": "his",
      "case": "success",
      "end": 7.4399999999999995,
      "endOffset": 112,
      "phones": [
        {
          "duration": 0.02,
          "phone": "hh_B"
        },
        {
          "duration": 0.03,
          "phone": "ih_I"
        },
        {
          "duration": 0.04,
          "phone": "z_E"
        }
      ],
      "start": 7.35,
      "startOffset": 109,
      "word": "HIS"
    },
    {
      "alignedWord": "uncle",
      "case": "success",
      "end": 7.87,
      "endOffset": 118,
      "phones": [
        {
          "duration": 0.05,
          "phone": "ah_B"
        },
        {
          "duration": 0.09,
          "phone": "ng_I"
        },
        {
          "duration": 0.03,
          "phone": "k_I"
        },
        {
          "duration": 0.08,
          "phone": "ah_I"
        },
        {
          "duration": 0.15,
          "phone": "l_E"
        }
      ],
      "start": 7.47,
      "startOffset": 113,
      "word": "UNCLE"
    },
    {
      "alignedWord": "and",
      "case": "success",
      "end": 8.709999,
      "endOffset": 122,
      "phones": [
        {
          "duration": 0.12,
          "phone": "ae_B"
        },
        {
          "duration": 0.08,
          "phone": "n_I"
        },
        {
          "duration": 0.08,
          "phone": "d_E"
        }
      ],
      "start": 8.429999,
      "startOffset": 119,
      "word": "AND"
    },
    {
      "alignedWord": "this",
      "case": "success",
      "end": 8.950000000000001,
      "endOffset": 127,
      "phones": [
        {
          "duration": 0.02,
          "phone": "dh_B"
        },
        {
          "duration": 0.1,
          "phone": "ih_I"
        },
        {
          "duration": 0.12,
          "phone": "s_E"
        }
      ],
      "start": 8.71,
      "startOffset": 123,
      "word": "THIS"
    },
    {
      "alignedWord": "was",
      "case": "success",
      "end": 9.149999999999999,
      "endOffset": 131,
      "phones": [
        {
          "duration": 0.05,
          "phone": "w_B"
        },
        {
          "duration": 0.07,
          "phone": "ah_I"
        },
        {
          "duration": 0.08,
          "phone": "z_E"
        }
      ],
      "start": 8.95,
      "startOffset": 128,
      "word": "WAS"
    },
    {
      "alignedWord": "the",
      "case": "success",
      "end": 9.24,
      "endOffset": 135,
      "phones": [
        {
          "duration": 0.04,
          "phone": "dh_B"
        },
        {
          "duration": 0.05,
          "phone": "ah_E"
        }
      ],
      "start": 9.15,
      "startOffset": 132,
      "word": "THE"
    },
    {
      "alignedWord": "reason",
      "case": "success",
      "end": 9.64,
      "endOffset": 142,
      "phones": [
        {
          "duration": 0.09,
          "phone": "r_B"
        },
        {
          "duration": 0.08,
          "phone": "iy_I"
        },
        {
          "duration": 0.07,
          "phone": "z_I"
        },
        {
          "duration": 0.05,
          "phone": "ah_I"
        },
        {
          "duration": 0.11,
          "phone": "n_E"
        }
      ],
      "start": 9.24,
      "startOffset": 136,
      "word": "REASON"
    },
    {
      "alignedWord": "why",
      "case": "success",
      "end": 9.83,
      "endOffset": 146,
      "phones": [
        {
          "duration": 0.12,
          "phone": "w_B"
        },
        {
          "duration": 0.06,
          "phone": "ay_E"
        }
      ],
      "start": 9.65,
      "startOffset": 143,
      "word": "WHY"
    },
    {
      "alignedWord": "he",
      "case": "success",
      "end": 9.99,
      "endOffset": 149,
      "phones": [
        {
          "duration": 0.07,
          "phone": "hh_B"
        },
        {
          "duration": 0.09,
          "phone": "iy_E"
        }
      ],
      "start": 9.83,
      "startOffset": 147,
      "word": "HE"
    },
    {
      "alignedWord": "resolved",
      "case": "success",
      "end": 10.33,
      "endOffset": 158,
      "phones": [
        {
          "duration": 0.05,
          "phone": "r_B"
        },
        {
          "duration": 0.06,
          "phone": "iy_I"
        },
        {
          "duration": 0.07,
          "phone": "z_I"
        },
        {
          "duration": 0.06,
          "phone": "aa_I"
        },
        {
          "duration": 0.07,
          "phone": "l_I"
        },
        {
          "duration": 0.01,
          "phone": "v_I"
        },
        {
          "duration": 0.02,
          "phone": "d_E"
        }
      ],
      "start": 9.99,
      "startOffset": 150,
      "word": "RESOLVED"
    },
    {
      "alignedWord": "to",
      "case": "success",
      "end": 10.459999999999999,
      "endOffset": 161,
      "phones": [
        {
          "duration": 0.05,
          "phone": "t_B"
        },
        {
          "duration": 0.07,
          "phone": "ih_E"
        }
      ],
      "start": 10.34,
      "startOffset": 159,
      "word": "TO"
    },
    {
      "alignedWord": "set",
      "case": "success",
      "end": 10.680000000000001,
      "endOffset": 165,
      "phones": [
        {
          "duration": 0.1,
          "phone": "s_B"
        },
        {
          "duration": 0.07,
          "phone": "eh_I"
        },
        {
          "duration": 0.05,
          "phone": "t_E"
        }
      ],
      "start": 10.46,
      "startOffset": 162,
      "word": "SET"
    },
    {
      "alignedWord": "off",
      "case": "success",
      "end": 10.919999,
      "endOffset": 169,
      "phones": [
        {
          "duration": 0.16,
          "phone": "ao_B"
        },
        {
          "duration": 0.08,
          "phone": "f_E"
        }
      ],
      "start": 10.679999,
      "startOffset": 166,
      "word": "OFF"
    },
    {
      "alignedWord": "for",
      "case": "success",
      "end": 11.069999000000001,
      "endOffset": 173,
      "phones": [
        {
          "duration": 0.06,
          "phone": "f_B"
        },
        {
          "duration": 0.08,
          "phone": "er_E"
        }
      ],
      "start": 10.929999,
      "startOffset": 170,
      "word": "FOR"
    },
    {
      "alignedWord": "the",
      "case": "success",
      "end": 11.13,
      "endOffset": 177,
      "phones": [
        {
          "duration": 0.01,
          "phone": "dh_B"
        },
        {
          "duration": 0.05,
          "phone": "ah_E"
        }
      ],
      "start": 11.07,
      "startOffset": 174,
      "word": "THE"
    },
    {
      "alignedWord": "big",
      "case": "success",
      "end": 11.340000000000002,
      "endOffset": 181,
      "phones": [
        {
          "duration": 0.04,
          "phone": "b_B"
        },
        {
          "duration": 0.09,
          "phone": "ih_I"
        },
        {
          "duration": 0.08,
          "phone": "g_E"
        }
      ],
      "start": 11.13,
      "startOffset": 178,
      "word": "BIG"
    },
    {
      "alignedWord": "city",
      "case": "success",
      "end": 11.79,
      "endOffset": 186,
      "phones": [
        {
          "duration": 0.1,
          "phone": "s_B"
        },
        {
          "duration": 0.08,
          "phone": "ih_I"
        },
        {
          "duration": 0.06,
          "phone": "t_I"
        },
        {
          "duration": 0.21,
          "phone": "iy_E"
        }
      ],
      "start": 11.34,
      "startOffset": 182,
      "word": "CITY"
    },
    {
      "alignedWord": "so",
      "case": "success",
      "end": 12.42,
      "endOffset": 189,
      "phones": [
        {
          "duration": 0.15,
          "phone": "s_B"
        },
        {
          "duration": 0.1,
          "phone": "ow_E"
        }
      ],
      "start": 12.17,
      "startOffset": 187,
      "word": "SO"
    },
    {
      "alignedWord": "he",
      "case": "success",
      "end": 12.57,
      "endOffset": 192,
      "phones": [
        {
          "duration": 0.08,
          "phone": "hh_B"
        },
        {
          "duration": 0.07,
          "phone": "iy_E"
        }
      ],
      "start": 12.42,
      "startOffset": 190,
      "word": "HE"
    },
    {
      "alignedWord": "started",
      "case": "success",
      "end": 12.99,
      "endOffset": 200,
      "phones": [
        {
          "duration": 0.1,
          "phone": "s_B"
        },
        {
          "duration": 0.07,
          "phone": "t_I"
        },
        {
          "duration": 0.05,
          "phone": "aa_I"
        },
        {
          "duration": 0.04,
          "phone": "r_I"
        },
        {
          "duration": 0.04,
          "phone": "t_I"
        },
        {
          "duration": 0.07,
          "phone": "ih_I"
        },
        {
          "duration": 0.05,
          "phone": "d_E"
        }
      ],
      "start": 12.57,
      "startOffset": 193,
      "word": "STARTED"
    },
    {
      "alignedWord": "down",
      "case": "success",
      "end": 13.28,
      "endOffset": 205,
      "phones": [
        {
          "duration": 0.11,
          "phone": "d_B"
        },
        {
          "duration": 0.12,
          "phone": "aw_I"
        },
        {
          "duration": 0.05,
          "phone": "n_E"
        }
      ],
      "start": 13.0,
      "startOffset": 201,
      "word": "DOWN"
    },
    {
      "alignedWord": "the",
      "case": "success",
      "end": 13.34,
      "endOffset": 209,
      "phones": [
        {
          "duration": 0.05,
          "phone": "dh_B"
        },
        {
          "duration": 0.01,
          "phone": "ah_E"
        }
      ],
      "start": 13.28,
      "startOffset": 206,
      "word": "THE"
    },
    {
      "alignedWord": "mountain",
      "case": "success",
      "end": 13.769999,
      "endOffset": 218,
      "phones": [
        {
          "duration": 0.08,
          "phone": "m_B"
        },
        {
          "duration": 0.1,
          "phone": "aw_I"
        },
        {
          "duration": 0.07,
          "phone": "n_I"
        },
        {
          "duration": 0.05,
          "phone": "t_I"
        },
        {
          "duration": 0.05,
          "phone": "ah_I"
        },
        {
          "duration": 0.07,
          "phone": "n_E"
        }
      ],
      "start": 13.349999,
      "startOffset": 210,
      "word": "MOUNTAIN"
    }
  ]
}