{
  "transcript": "FOR MY RECOVERY FROM ACTUAL AND HABITUAL SIN IN THE OTHER SACRAMENT THOU O LORD WHO HAST IMPRINTED ALL MEDICINAL VIRTUES WHICH ARE IN ALL CREATURES AND HAST MADE EVEN THE FLESH OF VIPERS TO ASSIST IN CORDIALS",
  "words": [
    {
      "alignedWord": "for",
      "case": "success",
      "end": 0.41000000000000003,
      "endOffset": 3,
      "phones": [
        {
          "duration": 0.1,
          "phone": "f_B"
        },
        {
          "duration": 0.03,
          "phone": "ao_I"
        },
        {
          "duration": 0.05,
          "phone": "r_E"
        }
      ],
      "start": 0.23,
      "startOffset": 0,
      "word": "FOR"
    },
    {
      "alignedWord": "my",
      "case": "success",
      "end": 0.59,
      "endOffset": 6,
      "phones": [
        {
          "duration": 0.08,
          "phone": "m_B"
        },
        {
          "duration": 0.1,
          "phone": "ay_E"
        }
      ],
      "start": 0.41,
      "startOffset": 4,
      "word": "MY"
    },
    {
      "alignedWord": "recovery",
      "case": "success",
      "end": 1.12,
      "endOffset": 15,
      "phones": [
        {
          "duration": 0.06,
          "phone": "r_B"
        },
        {
          "duration": 0.08,
          "phone": "ih_I"
        },
        {
          "duration": 0.07,
          "phone": "k_I"
        },
        {
          "duration": 0.11,
          "phone": "ah_I"
        },
        {
          "duration": 0.07,
          "phone": "v_I"
        },
        {
          "duration": 0.06,
          "phone": "er_I"
        },
        {
          "duration": 0.08,
          "phone": "iy_E"
        }
      ],
      "start": 0.59,
      "startOffset": 7,
      "word": "RECOVERY"
    },
    {
      "alignedWord": "from",
      "case": "success",
      "end": 1.33,
      "endOffset": 20,
      "phones": [
        {
          "duration": 0.05,
          "phone": "f_B"
        },
        {
          "duration": 0.06,
          "phone": "er_I"
        },
        {
          "duration": 0.1,
          "phone": "m_E"
        }
      ],
      "start": 1.12,
      "startOffset": 16,
      "word": "FROM"
    },
    {
      "alignedWord": "actual",
      "case": "success",
      "end": 1.9000000000000001,
      "endOffset": 27,
      "phones": [
        {
          "duration": 0.15,
          "phone": "ae_B"
        },
        {
          "duration": 0.09,
          "phone": "k_I"
        },
        {
          "duration": 0.08,
          "phone": "sh_I"
        },
        {
          "duration": 0.12,
          "phone": "ah_I"
        },
        {
          "duration": 0.11,
          "phone": "l_E"
        }
      ],
      "start": 1.35,
      "startOffset": 21,
      "word": "ACTUAL"
    },
    {
      "alignedWord": "and",
      "case": "success",
      "end": 2.07,
      "endOffset": 31,
      "phones": [
        {
          "duration": 0.04,
          "phone": "ae_B"
        },
        {
          "duration": 0.06,
          "phone": "n_I"
        },
        {
          "duration": 0.07,
          "phone": "d_E"
        }
      ],
      "start": 1.9,
      "startOffset": 28,
      "word": "AND"
    },
    {
      "alignedWord": "habitual",
      "case": "success",
      "end": 2.65,
      "endOffset": 40,
      "phones": [
        {
          "duration": 0.06,
          "phone": "hh_B"
        },
        {
          "duration": 0.07,
          "phone": "ah_I"
        },
        {
          "duration": 0.06,
          "phone": "b_I"
        },
        {
          "duration": 0.07,
          "phone": "ih_I"
        },
        {
          "duration": 0.11,
          "phone": "ch_I"
        },
        {
          "duration": 0.07,
          "phone": "uw_I"
        },
        {
          "duration": 0.04,
          "phone": "ah_I"
        },
        {
          "duration": 0.1,
          "phone": "l_E"
        }
      ],
      "start": 2.07,
      "startOffset": 32,
      "word": "HABITUAL"
    },
    {
      "alignedWord": "sin",
      "case": "success",
      "end": 3.06,
      "endOffset": 44,
      "phones": [
        {
          "duration": 0.15,
          "phone": "s_B"
        },
        {
          "duration": 0.08,
          "phone": "ih_I"
        },
        {
          "duration": 0.17,
          "phone": "n_E"
        }
      ],
      "start": 2.66,
      "startOffset": 41,
      "word": "SIN"
    },
    {
      "alignedWord": "in",
      "case": "success",
      "end": 3.81,
      "endOffset": 47,
      "phones": [
        {
          "duration": 0.1,
          "phone": "ih_B"
        },
        {
          "duration": 0.05,
          "phone": "n_E"
        }
      ],
      "start": 3.66,
      "startOffset": 45,
      "word": "IN"
    },
    {
      "alignedWord": "the",
      "case": "success",
      "end": 3.95,
      "endOffset": 51,
      "phones": [
        {
          "duration": 0.05,
          "phone": "dh_B"
        },
        {
          "duration": 0.09,
          "phone": "iy_E"
        }
      ],
      "start": 3.81,
      "startOffset": 48,
      "word": "THE"
    },
    {
      "alignedWord": "other",
      "case": "success",
      "end": 4.27,
      "endOffset": 57,
      "phones": [
        {
          "duration": 0.1,
          "phone": "ah_B"
        },
        {
          "duration": 0.1,
          "phone": "dh_I"
        },
        {
          "duration": 0.09,
          "phone": "er_E"
        }
      ],
      "start": 3.98,
      "startOffset": 52,
      "word": "OTHER"
    },
    {
      "alignedWord": "sacrament",
      "case": "success",
      "end": 5.06,
      "endOffset": 67,
      "phones": [
        {
          "duration": 0.14,
          "phone": "s_B"
        },
        {
          "duration": 0.11,
          "phone": "ae_I"
        },
        {
          "duration": 0.08,
          "phone": "k_I"
        },
        {
          "duration": 0.08,
          "phone": "r_I"
        },
        {
          "duration": 0.04,
          "phone": "ah_I"
        },
        {
          "duration": 0.06,
          "phone": "m_I"
        },
        {
          "duration": 0.05,
          "phone": "ah_I"
        },
        {
          "duration": 0.06,
          "phone": "n_I"
        },
        {
          "duration": 0.17,
          "phone": "t_E"
        }
      ],
      "start": 4.27,
      "startOffset": 58,
      "word": "SACRAMENT"
    },
    {
      "alignedWord": "thou",
      "case": "success",
      "end": 6.49,
      "endOffset": 72,
      "phones": [
        {
          "duration": 0.12,
          "phone": "dh_B"
        },
        {
          "duration": 0.37,
          "phone": "aw_E"
        }
      ],
      "start": 6.0,
      "startOffset": 68,
      "word": "THOU"
    },
    {
      "alignedWord": "o",
      "case": "success",
      "end": 6.7,
      "endOffset": 74,
      "phones": [
        {
          "duration": 0.21,
          "phone": "ow_S"
        }
      ],
      "start": 6.49,
      "startOffset": 73,
      "word": "O"
    },
    {
      "alignedWord": "lord",
      "case": "success",
      "end": 7.14,
      "endOffset": 79,
      "phones": [
        {
          "duration": 0.14,
          "phone": "l_B"
        },
        {
          "duration": 0.14,
          "phone": "ao_I"
        },
        {
          "duration": 0.07,
          "phone": "r_I"
        },
        {
          "duration": 0.08,
          "phone": "d_E"
        }
      ],
      "start": 6.71,
      "startOffset": 75,
      "word": "LORD"
    },
    {
      "alignedWord": "who",
      "case": "success",
      "end": 7.35,
      "endOffset": 83,
      "phones": [
        {
          "duration": 0.06,
          "phone": "hh_B"
        },
        {
          "duration": 0.15,
          "phone": "uw_E"
        }
      ],
      "start": 7.14,
      "startOffset": 80,
      "word": "WHO"
    },
    {
      "alignedWord": "<unk>",
      "case": "success",
      "end": 7.89,
      "endOffset": 88,
      "phones": [
        {
          "duration": 0.54,
          "phone": "oov_S"
        }
      ],
      "start": 7.35,
      "startOffset": 84,
      "word": "HAST"
    },
    {
      "alignedWord": "<unk>",
      "case": "success",
      "end": 8.41,
      "endOffset": 98,
      "phones": [
        {
          "duration": 0.46,
          "phone": "oov_S"
        }
      ],
      "start": 7.95,
      "startOffset": 89,
      "word": "IMPRINTED"
    },
    {
      "alignedWord": "all",
      "case": "success",
      "end": 8.74,
      "endOffset": 102,
      "phones": [
        {
          "duration": 0.22,
          "phone": "ao_B"
        },
        {
          "duration": 0.1,
          "phone": "l_E"
        }
      ],
      "start": 8.42,
      "startOffset": 99,
      "word": "ALL"
    },
    {
      "alignedWord": "medicinal",
      "case": "success",
      "end": 9.41,
      "endOffset": 112,
      "phones": [
        {
          "duration": 0.07,
          "phone": "m_B"
        },
        {
          "duration": 0.07,
          "phone": "ah_I"
        },
        {
          "duration": 0.08,
          "phone": "d_I"
        },
        {
          "duration": 0.09,
          "phone": "ih_I"
        },
        {
          "duration": 0.07,
          "phone": "s_I"
        },
        {
          "duration": 0.05,
          "phone": "ah_I"
        },
        {
          "duration": 0.08,
          "phone": "n_I"
        },
        {
          "duration": 0.06,
          "phone": "ah_I"
        },
        {
          "duration": 0.08,
          "phone": "l_E"
        }
      ],
      "start": 8.76,
      "startOffset": 103,
      "word": "MEDICINAL"
    },
    {
      "alignedWord": "virtues",
      "case": "success",
      "end": 10.09,
      "endOffset": 120,
      "phones": [
        {
          "duration": 0.1,
          "phone": "v_B"
        },
        {
          "duration": 0.1,
          "phone": "er_I"
        },
        {
          "duration": 0.15,
          "phone": "ch_I"
        },
        {
          "duration": 0.18,
          "phone": "uw_I"
        },
        {
          "duration": 0.14,
          "phone": "z_E"
        }
      ],
      "start": 9.42,
      "startOffset": 113,
      "word": "VIRTUES"
    },
    {
      "alignedWord": "which",
      "case": "success",
      "end": 10.38,
      "endOffset": 126,
      "phones": [
        {
          "duration": 0.1,
          "phone": "w_B"
        },
        {
          "duration": 0.06,
          "phone": "ih_I"
        },
        {
          "duration": 0.09,
          "phone": "ch_E"
        }
      ],
      "start": 10.13,
      "startOffset": 121,
      "word": "WHICH"
    },
    {
      "alignedWord": "are",
      "case": "success",
      "end": 10.600000000000001,
      "endOffset": 130,
      "phones": [
        {
          "duration": 0.11,
          "phone": "aa_B"
        },
        {
          "duration": 0.11,
          "phone": "r_E"
        }
      ],
      "start": 10.38,
      "startOffset": 127,
      "word": "ARE"
    },
    {
      "alignedWord": "in",
      "case": "success",
      "end": 10.769999,
      "endOffset": 133,
      "phones": [
        {
          "duration": 0.08,
          "phone": "ih_B"
        },
        {
          "duration": 0.09,
          "phone": "n_E"
        }
      ],
      "start": 10.599999,
      "startOffset": 131,
      "word": "IN"
    },
    {
      "alignedWord": "all",
      "case": "success",
      "end": 11.01,
      "endOffset": 137,
      "phones": [
        {
          "duration": 0.13,
          "phone": "ao_B"
        },
        {
          "duration": 0.09,
          "phone": "l_E"
        }
      ],
      "start": 10.79,
      "startOffset": 134,
      "word": "ALL"
    },
    {
      "alignedWord": "creatures",
      "case": "success",
      "end": 11.68,
      "endOffset": 147,
      "phones": [
        {
          "duration": 0.09,
          "phone": "k_B"
        },
        {
          "duration": 0.08,
          "phone": "r_I"
        },
        {
          "duration": 0.08,
          "phone": "iy_I"
        },
        {
          "duration": 0.16,
          "phone": "ch_I"
        },
        {
          "duration": 0.14,
          "phone": "er_I"
        },
        {
          "duration": 0.12,
          "phone": "z_E"
        }
      ],
      "start": 11.01,
      "startOffset": 138,
      "word": "CREATURES"
    },
    {
      "alignedWord": "and",
      "case": "success",
      "end": 11.940000000000001,
      "endOffset": 151,
      "phones": [
        {
          "duration": 0.11,
          "phone": "ae_B"
        },
        {
          "duration": 0.06,
          "phone": "n_I"
        },
        {
          "duration": 0.06,
          "phone": "d_E"
        }
      ],
      "start": 11.71,
      "startOffset": 148,
      "word": "AND"
    },
    {
      "alignedWord": "<unk>",
      "case": "success",
      "end": 12.16,
      "endOffset": 156,
      "phones": [
        {
          "duration": 0.22,
          "phone": "oov_S"
        }
      ],
      "start": 11.94,
      "startOffset": 152,
      "word": "HAST"
    },
    {
      "alignedWord": "made",
      "case": "success",
      "end": 12.44,
      "endOffset": 161,
      "phones": [
        {
          "duration": 0.1,
          "phone": "m_B"
        },
        {
          "duration": 0.1,
          "phone": "ey_I"
        },
        {
          "duration": 0.08,
          "phone": "d_E"
        }
      ],
      "start": 12.16,
      "startOffset": 157,
      "word": "MADE"
    },
    {
      "alignedWord": "even",
      "case": "success",
      "end": 12.76,
      "endOffset": 166,
      "phones": [
        {
          "duration": 0.14,
          "phone": "iy_B"
        },
        {
          "duration": 0.06,
          "phone": "v_I"
        },
        {
          "duration": 0.02,
          "phone": "ih_I"
        },
        {
          "duration": 0.06,
          "phone": "n_E"
        }
      ],
      "start": 12.48,
      "startOffset": 162,
      "word": "EVEN"
    },
    {
      "alignedWord": "the",
      "case": "success",
      "end": 12.879999,
      "endOffset": 170,
      "phones": [
        {
          "duration": 0.05,
          "phone": "dh_B"
        },
        {
          "duration": 0.07,
          "phone": "ah_E"
        }
      ],
      "start": 12.759999,
      "startOffset": 167,
      "word": "THE"
    },
    {
      "alignedWord": "flesh",
      "case": "success",
      "end": 13.270000000000001,
      "endOffset": 176,
      "phones": [
        {
          "duration": 0.15,
          "phone": "f_B"
        },
        {
          "duration": 0.07,
          "phone": "l_I"
        },
        {
          "duration": 0.07,
          "phone": "eh_I"
        },
        {
          "duration": 0.1,
          "phone": "sh_E"
        }
      ],
      "start": 12.88,
      "startOffset": 171,
      "word": "FLESH"
    },
    {
      "alignedWord": "of",
      "case": "success",
      "end": 13.43,
      "endOffset": 179,
      "phones": [
        {
          "duration": 0.09,
          "phone": "ah_B"
        },
        {
          "duration": 0.07,
          "phone": "v_E"
        }
      ],
      "start": 13.27,
      "startOffset": 177,
      "word": "OF"
    },
    {
      "alignedWord": "<unk>",
      "case": "success",
      "end": 13.92,
      "endOffset": 186,
      "phones": [
        {
          "duration": 0.48,
          "phone": "oov_S"
        }
      ],
      "start": 13.44,
      "startOffset": 180,
      "word": "VIPERS"
    },
    {
      "alignedWord": "to",
      "case": "success",
      "end": 14.120000000000001,
      "endOffset": 189,
      "phones": [
        {
          "duration": 0.08,
          "phone": "t_B"
        },
        {
          "duration": 0.08,
          "phone": "uw_E"
        }
      ],
      "start": 13.96,
      "startOffset": 187,
      "word": "TO"
    },
    {
      "alignedWord": "assist",
      "case": "success",
      "end": 14.569999999999999,
      "endOffset": 196,
      "phones": [
        {
          "duration": 0.1,
          "phone": "ah_B"
        },
        {
          "duration": 0.11,
          "phone": "s_I"
        },
        {
          "duration": 0.09,
          "phone": "ih_I"
        },
        {
          "duration": 0.08,
          "phone": "s_I"
        },
        {
          "duration": 0.07,
          "phone": "t_E"
        }
      ],
      "start": 14.12,
      "startOffset": 190,
      "word": "ASSIST"
    },
    {
      "alignedWord": "in",
      "case": "success",
      "end": 14.8,
      "endOffset": 199,
      "phones": [
        {
          "duration": 0.13,
          "phone": "ih_B"
        },
        {
          "duration": 0.09,
          "phone": "n_E"
        }
      ],
      "start": 14.58,
      "startOffset": 197,
      "word": "IN"
    },
    {
      "alignedWord": "<unk>",
      "case": "success",
      "end": 15.369999,
      "endOffset": 208,
      "phones": [
        {
          "duration": 0.57,
          "phone": "oov_S"
        }
      ],
      "start": 14.799999,
      "startOffset": 200,
      "word": "CORDIALS"
    }
  ]
}