{
  "transcript": "AND HE MUST SURELY HAVE PERISHED AND SISSON WAS BLAMED FOR ALLOWING ANY ONE TO ATTEMPT CLIMBING IN SUCH WEATHER WHILE I WAS AS SAFE AS ANYBODY IN THE LOWLANDS LYING LIKE A SQUIRREL IN A WARM FLUFFY NEST BUSIED ABOUT MY OWN AFFAIRS AND WISHING ONLY TO BE LET ALONE",
  "words": [
    {
      "alignedWord": "and",
      "case": "success",
      "end": 0.28,
      "endOffset": 3,
      "phones": [
        {
          "duration": 0.05,
          "phone": "ae_B"
        },
        {
          "duration": 0.05,
          "phone": "n_I"
        },
        {
          "duration": 0.03,
          "phone": "d_E"
        }
      ],
      "start": 0.15,
      "startOffset": 0,
      "word": "AND"
    },
    {
      "alignedWord": "he",
      "case": "success",
      "end": 0.38,
      "endOffset": 6,
      "phones": [
        {
          "duration": 0.05,
          "phone": "hh_B"
        },
        {
          "duration": 0.05,
          "phone": "iy_E"
        }
      ],
      "start": 0.28,
      "startOffset": 4,
      "word": "HE"
    },
    {
      "alignedWord": "must",
      "case": "success",
      "end": 0.55,
      "endOffset": 11,
      "phones": [
        {
          "duration": 0.05,
          "phone": "m_B"
        },
        {
          "duration": 0.06,
          "phone": "ah_I"
        },
        {
          "duration": 0.05,
          "phone": "s_I"
        },
        {
          "duration": 0.01,
          "phone": "t_E"
        }
      ],
      "start": 0.38,
      "startOffset": 7,
      "word": "MUST"
    },
    {
      "alignedWord": "surely",
      "case": "success",
      "end": 1.02,
      "endOffset": 18,
      "phones": [
        {
          "duration": 0.15,
          "phone": "sh_B"
        },
        {
          "duration": 0.08,
          "phone": "uh_I"
        },
        {
          "duration": 0.08,
          "phone": "r_I"
        },
        {
          "duration": 0.07,
          "phone": "l_I"
        },
        {
          "duration": 0.09,
          "phone": "iy_E"
        }
      ],
      "start": 0.55,
      "startOffset": 12,
      "word": "SURELY"
    },
    {
      "alignedWord": "have",
      "case": "success",
      "end": 1.1600000000000001,
      "endOffset": 23,
      "phones": [
        {
          "duration": 0.04,
          "phone": "hh_B"
        },
        {
          "duration": 0.04,
          "phone": "ae_I"
        },
        {
          "duration": 0.06,
          "phone": "v_E"
        }
      ],
      "start": 1.02,
      "startOffset": 19,
      "word": "HAVE"
    },
    {
      "alignedWord": "perished",
      "case": "success",
      "end": 1.7799999999999998,
      "endOffset": 32,
      "phones": [
        {
          "duration": 0.07,
          "phone": "p_B"
        },
        {
          "duration": 0.1,
          "phone": "eh_I"
        },
        {
          "duration": 0.1,
          "phone": "r_I"
        },
        {
          "duration": 0.07,
          "phone": "ih_I"
        },
        {
          "duration": 0.14,
          "phone": "sh_I"
        },
        {
          "duration": 0.11,
          "phone": "t_E"
        }
      ],
      "start": 1.19,
      "startOffset": 24,
      "word": "PERISHED"
    },
    {
      "alignedWord": "and",
      "case": "success",
      "end": 2.4000000000000004,
      "endOffset": 36,
      "phones": [
        {
          "duration": 0.05,
          "phone": "ae_B"
        },
        {
          "duration": 0.04,
          "phone": "n_I"
        },
        {
          "duration": 0.07,
          "phone": "d_E"
        }
      ],
      "start": 2.24,
      "startOffset": 33,
      "word": "AND"
    },
    {
      "alignedWord": "<unk>",
      "case": "success",
      "end": 2.73,
      "endOffset": 43,
      "phones": [
        {
          "duration": 0.33,
          "phone": "oov_S"
        }
      ],
      "start": 2.4,
      "startOffset": 37,
      "word": "SISSON"
    },
    {
      "alignedWord": "was",
      "case": "success",
      "end": 2.93,
      "endOffset": 47,
      "phones": [
        {
          "duration": 0.07,
          "phone": "w_B"
        },
        {
          "duration": 0.05,
          "phone": "ah_I"
        },
        {
          "duration": 0.07,
          "phone": "z_E"
        }
      ],
      "start": 2.74,
      "startOffset": 44,
      "word": "WAS"
    },
    {
      "alignedWord": "blamed",
      "case": "success",
      "end": 3.3000000000000003,
      "endOffset": 54,
      "phones": [
        {
          "duration": 0.08,
          "phone": "b_B"
        },
        {
          "duration": 0.09,
          "phone": "l_I"
        },
        {
          "duration": 0.1,
          "phone": "ey_I"
        },
        {
          "duration": 0.06,
          "phone": "m_I"
        },
        {
          "duration": 0.04,
          "phone": "d_E"
        }
      ],
      "start": 2.93,
      "startOffset": 48,
      "word": "BLAMED"
    },
    {
      "alignedWord": "for",
      "case": "success",
      "end": 3.45,
      "endOffset": 58,
      "phones": [
        {
          "duration": 0.08,
          "phone": "f_B"
        },
        {
          "duration": 0.06,
          "phone": "er_E"
        }
      ],
      "start": 3.31,
      "startOffset": 55,
      "word": "FOR"
    },
    {
      "alignedWord": "allowing",
      "case": "success",
      "end": 3.9400000000000004,
      "endOffset": 67,
      "phones": [
        {
          "duration": 0.06,
          "phone": "ah_B"
        },
        {
          "duration": 0.1,
          "phone": "l_I"
        },
        {
          "duration": 0.15,
          "phone": "aw_I"
        },
        {
          "duration": 0.09,
          "phone": "ih_I"
        },
        {
          "duration": 0.09,
          "phone": "ng_E"
        }
      ],
      "start": 3.45,
      "startOffset": 59,
      "word": "ALLOWING"
    },
    {
      "alignedWord": "any",
      "case": "success",
      "end": 4.22,
      "endOffset": 71,
      "phones": [
        {
          "duration": 0.09,
          "phone": "eh_B"
        },
        {
          "duration": 0.07,
          "phone": "n_I"
        },
        {
          "duration": 0.1,
          "phone": "iy_E"
        }
      ],
      "start": 3.96,
      "startOffset": 68,
      "word": "ANY"
    },
    {
      "alignedWord": "one",
      "case": "success",
      "end": 4.4399999999999995,
      "endOffset": 75,
      "phones": [
        {
          "duration": 0.05,
          "phone": "w_B"
        },
        {
          "duration": 0.1,
          "phone": "ah_I"
        },
        {
          "duration": 0.07,
          "phone": "n_E"
        }
      ],
      "start": 4.22,
      "startOffset": 72,
      "word": "ONE"
    },
    {
      "alignedWord": "to",
      "case": "success",
      "end": 4.590000000000001,
      "endOffset": 78,
      "phones": [
        {
          "duration": 0.08,
          "phone": "t_B"
        },
        {
          "duration": 0.07,
          "phone": "uw_E"
        }
      ],
      "start": 4.44,
      "startOffset": 76,
      "word": "TO"
    },
    {
      "alignedWord": "attempt",
      "case": "success",
      "end": 4.9399999999999995,
      "endOffset": 86,
      "phones": [
        {
          "duration": 0.07,
          "phone": "ah_B"
        },
        {
          "duration": 0.08,
          "phone": "t_I"
        },
        {
          "duration": 0.09,
          "phone": "eh_I"
        },
        {
          "duration": 0.01,
          "phone": "m_I"
        },
        {
          "duration": 0.05,
          "phone": "p_I"
        },
        {
          "duration": 0.05,
          "phone": "t_E"
        }
      ],
      "start": 4.59,
      "startOffset": 79,
      "word": "ATTEMPT"
    },
    {
      "alignedWord": "climbing",
      "case": "success",
      "end": 5.3999999999999995,
      "endOffset": 95,
      "phones": [
        {
          "duration": 0.1,
          "phone": "k_B"
        },
        {
          "duration": 0.06,
          "phone": "l_I"
        },
        {
          "duration": 0.1,
          "phone": "ay_I"
        },
        {
          "duration": 0.04,
          "phone": "m_I"
        },
        {
          "duration": 0.07,
          "phone": "ih_I"
        },
        {
          "duration": 0.06,
          "phone": "ng_E"
        }
      ],
      "start": 4.97,
      "startOffset": 87,
      "word": "CLIMBING"
    },
    {
      "alignedWord": "in",
      "case": "success",
      "end": 5.5200000000000005,
      "endOffset": 98,
      "phones": [
        {
          "duration": 0.05,
          "phone": "ih_B"
        },
        {
          "duration": 0.07,
          "phone": "n_E"
        }
      ],
      "start": 5.4,
      "startOffset": 96,
      "word": "IN"
    },
    {
      "alignedWord": "such",
      "case": "success",
      "end": 5.8,
      "endOffset": 103,
      "phones": [
        {
          "duration": 0.07,
          "phone": "s_B"
        },
        {
          "duration": 0.09,
          "phone": "ah_I"
        },
        {
          "duration": 0.12,
          "phone": "ch_E"
        }
      ],
      "start": 5.52,
      "startOffset": 99,
      "word": "SUCH"
    },
    {
      "alignedWord": "weather",
      "case": "success",
      "end": 6.2,
      "endOffset": 111,
      "phones": [
        {
          "duration": 0.06,
          "phone": "w_B"
        },
        {
          "duration": 0.09,
          "phone": "eh_I"
        },
        {
          "duration": 0.07,
          "phone": "dh_I"
        },
        {
          "duration": 0.18,
          "phone": "er_E"
        }
      ],
      "start": 5.8,
      "startOffset": 104,
      "word": "WEATHER"
    },
    {
      "alignedWord": "while",
      "case": "success",
      "end": 6.96,
      "endOffset": 117,
      "phones": [
        {
          "duration": 0.11,
          "phone": "w_B"
        },
        {
          "duration": 0.04,
          "phone": "ay_I"
        },
        {
          "duration": 0.11,
          "phone": "l_E"
        }
      ],
      "start": 6.7,
      "startOffset": 112,
      "word": "WHILE"
    },
    {
      "alignedWord": "i",
      "case": "success",
      "end": 7.08,
      "endOffset": 119,
      "phones": [
        {
          "duration": 0.12,
          "phone": "ay_S"
        }
      ],
      "start": 6.96,
      "startOffset": 118,
      "word": "I"
    },
    {
      "alignedWord": "was",
      "case": "success",
      "end": 7.26,
      "endOffset": 123,
      "phones": [
        {
          "duration": 0.06,
          "phone": "w_B"
        },
        {
          "duration": 0.06,
          "phone": "ah_I"
        },
        {
          "duration": 0.06,
          "phone": "z_E"
        }
      ],
      "start": 7.08,
      "startOffset": 120,
      "word": "WAS"
    },
    {
      "alignedWord": "as",
      "case": "success",
      "end": 7.37,
      "endOffset": 126,
      "phones": [
        {
          "duration": 0.05,
          "phone": "eh_B"
        },
        {
          "duration": 0.06,
          "phone": "z_E"
        }
      ],
      "start": 7.26,
      "startOffset": 124,
      "word": "AS"
    },
    {
      "alignedWord": "safe",
      "case": "success",
      "end": 7.68,
      "endOffset": 131,
      "phones": [
        {
          "duration": 0.12,
          "phone": "s_B"
        },
        {
          "duration": 0.12,
          "phone": "ey_I"
        },
        {
          "duration": 0.07,
          "phone": "f_E"
        }
      ],
      "start": 7.37,
      "startOffset": 127,
      "word": "SAFE"
    },
    {
      "alignedWord": "as",
      "case": "success",
      "end": 7.84,
      "endOffset": 134,
      "phones": [
        {
          "duration": 0.07,
          "phone": "eh_B"
        },
        {
          "duration": 0.09,
          "phone": "z_E"
        }
      ],
      "start": 7.68,
      "startOffset": 132,
      "word": "AS"
    },
    {
      "alignedWord": "anybody",
      "case": "success",
      "end": 8.28,
      "endOffset": 142,
      "phones": [
        {
          "duration": 0.06,
          "phone": "eh_B"
        },
        {
          "duration": 0.07,
          "phone": "n_I"
        },
        {
          "duration": 0.08,
          "phone": "iy_I"
        },
        {
          "duration": 0.05,
          "phone": "b_I"
        },
        {
          "duration": 0.07,
          "phone": "ah_I"
        },
        {
          "duration": 0.05,
          "phone": "d_I"
        },
        {
          "duration": 0.06,
          "phone": "iy_E"
        }
      ],
      "start": 7.84,
      "startOffset": 135,
      "word": "ANYBODY"
    },
    {
      "alignedWord": "in",
      "case": "success",
      "end": 8.37,
      "endOffset": 145,
      "phones": [
        {
          "duration": 0.05,
          "phone": "ih_B"
        },
        {
          "duration": 0.04,
          "phone": "n_E"
        }
      ],
      "start": 8.28,
      "startOffset": 143,
      "word": "IN"
    },
    {
      "alignedWord": "the",
      "case": "success",
      "end": 8.469999999999999,
      "endOffset": 149,
      "phones": [
        {
          "duration": 0.05,
          "phone": "dh_B"
        },
        {
          "duration": 0.05,
          "phone": "ah_E"
        }
      ],
      "start": 8.37,
      "startOffset": 146,
      "word": "THE"
    },
    {
      "alignedWord": "<unk>",
      "case": "success",
      "end": 9.030000000000001,
      "endOffset": 158,
      "phones": [
        {
          "duration": 0.56,
          "phone": "oov_S"
        }
      ],
      "start": 8.47,
      "startOffset": 150,
      "word": "LOWLANDS"
    },
    {
      "alignedWord": "lying",
      "case": "success",
      "end": 9.76,
      "endOffset": 164,
      "phones": [
        {
          "duration": 0.14,
          "phone": "l_B"
        },
        {
          "duration": 0.11,
          "phone": "ay_I"
        },
        {
          "duration": 0.06,
          "phone": "ih_I"
        },
        {
          "duration": 0.09,
          "phone": "ng_E"
        }
      ],
      "start": 9.36,
      "startOffset": 159,
      "word": "LYING"
    },
    {
      "alignedWord": "like",
      "case": "success",
      "end": 9.9,
      "endOffset": 169,
      "phones": [
        {
          "duration": 0.04,
          "phone": "l_B"
        },
        {
          "duration": 0.04,
          "phone": "ay_I"
        },
        {
          "duration": 0.06,
          "phone": "k_E"
        }
      ],
      "start": 9.76,
      "startOffset": 165,
      "word": "LIKE"
    },
    {
      "alignedWord": "a",
      "case": "success",
      "end": 9.96,
      "endOffset": 171,
      "phones": [
        {
          "duration": 0.06,
          "phone": "ah_S"
        }
      ],
      "start": 9.9,
      "startOffset": 170,
      "word": "A"
    },
    {
      "alignedWord": "squirrel",
      "case": "success",
      "end": 10.41,
      "endOffset": 180,
      "phones": [
        {
          "duration": 0.1,
          "phone": "s_B"
        },
        {
          "duration": 0.06,
          "phone": "k_I"
        },
        {
          "duration": 0.06,
          "phone": "w_I"
        },
        {
          "duration": 0.07,
          "phone": "er_I"
        },
        {
          "duration": 0.08,
          "phone": "ah_I"
        },
        {
          "duration": 0.08,
          "phone": "l_E"
        }
      ],
      "start": 9.96,
      "startOffset": 172,
      "word": "SQUIRREL"
    },
    {
      "alignedWord": "in",
      "case": "success",
      "end": 10.52,
      "endOffset": 183,
      "phones": [
        {
          "duration": 0.05,
          "phone": "ih_B"
        },
        {
          "duration": 0.06,
          "phone": "n_E"
        }
      ],
      "start": 10.41,
      "startOffset": 181,
      "word": "IN"
    },
    {
      "alignedWord": "a",
      "case": "success",
      "end": 10.59,
      "endOffset": 185,
      "phones": [
        {
          "duration": 0.07,
          "phone": "ah_S"
        }
      ],
      "start": 10.52,
      "startOffset": 184,
      "word": "A"
    },
    {
      "alignedWord": "warm",
      "case": "success",
      "end": 10.98,
      "endOffset": 190,
      "phones": [
        {
          "duration": 0.1,
          "phone": "w_B"
        },
        {
          "duration": 0.12,
          "phone": "ao_I"
        },
        {
          "duration": 0.09,
          "phone": "r_I"
        },
        {
          "duration": 0.08,
          "phone": "m_E"
        }
      ],
      "start": 10.59,
      "startOffset": 186,
      "word": "WARM"
    },
    {
      "alignedWord": "fluffy",
      "case": "success",
      "end": 11.39,
      "endOffset": 197,
      "phones": [
        {
          "duration": 0.09,
          "phone": "f_B"
        },
        {
          "duration": 0.09,
          "phone": "l_I"
        },
        {
          "duration": 0.02,
          "phone": "ah_I"
        },
        {
          "duration": 0.11,
          "phone": "f_I"
        },
        {
          "duration": 0.1,
          "phone": "iy_E"
        }
      ],
      "start": 10.98,
      "startOffset": 191,
      "word": "FLUFFY"
    },
    {
      "alignedWord": "nest",
      "case": "success",
      "end": 11.799999,
      "endOffset": 202,
      "phones": [
        {
          "duration": 0.08,
          "phone": "n_B"
        },
        {
          "duration": 0.12,
          "phone": "eh_I"
        },
        {
          "duration": 0.09,
          "phone": "s_I"
        },
        {
          "duration": 0.12,
          "phone": "t_E"
        }
      ],
      "start": 11.389999,
      "startOffset": 198,
      "word": "NEST"
    },
    {
      "alignedWord": "<unk>",
      "case": "success",
      "end": 12.439999,
      "endOffset": 209,
      "phones": [
        {
          "duration": 0.3,
          "phone": "oov_S"
        }
      ],
      "start": 12.139999,
      "startOffset": 203,
      "word": "BUSIED"
    },
    {
      "alignedWord": "about",
      "case": "success",
      "end": 12.739999999999998,
      "endOffset": 215,
      "phones": [
        {
          "duration": 0.05,
          "phone": "ah_B"
        },
        {
          "duration": 0.08,
          "phone": "b_I"
        },
        {
          "duration": 0.08,
          "phone": "aw_I"
        },
        {
          "duration": 0.08,
          "phone": "t_E"
        }
      ],
      "start": 12.45,
      "startOffset": 210,
      "word": "ABOUT"
    },
    {
      "alignedWord": "my",
      "case": "success",
      "end": 12.88,
      "endOffset": 218,
      "phones": [
        {
          "duration": 0.04,
          "phone": "m_B"
        },
        {
          "duration": 0.1,
          "phone": "ay_E"
        }
      ],
      "start": 12.74,
      "startOffset": 216,
      "word": "MY"
    },
    {
      "alignedWord": "own",
      "case": "success",
      "end": 13.07,
      "endOffset": 222,
      "phones": [
        {
          "duration": 0.12,
          "phone": "ow_B"
        },
        {
          "duration": 0.07,
          "phone": "n_E"
        }
      ],
      "start": 12.88,
      "startOffset": 219,
      "word": "OWN"
    },
    {
      "alignedWord": "affairs",
      "case": "success",
      "end": 13.620000000000001,
      "endOffset": 230,
      "phones": [
        {
          "duration": 0.05,
          "phone": "ah_B"
        },
        {
          "duration": 0.1,
          "phone": "f_I"
        },
        {
          "duration": 0.15,
          "phone": "eh_I"
        },
        {
          "duration": 0.1,
          "phone": "r_I"
        },
        {
          "duration": 0.15,
          "phone": "z_E"
        }
      ],
      "start": 13.07,
      "startOffset": 223,
      "word": "AFFAIRS"
    },
    {
      "alignedWord": "and",
      "case": "success",
      "end": 13.969999000000001,
      "endOffset": 234,
      "phones": [
        {
          "duration": 0.09,
          "phone": "ae_B"
        },
        {
          "duration": 0.05,
          "phone": "n_I"
        },
        {
          "duration": 0.07,
          "phone": "d_E"
        }
      ],
      "start": 13.759999,
      "startOffset": 231,
      "word": "AND"
    },
    {
      "alignedWord": "wishing",
      "case": "success",
      "end": 14.329998999999999,
      "endOffset": 242,
      "phones": [
        {
          "duration": 0.04,
          "phone": "w_B"
        },
        {
          "duration": 0.08,
          "phone": "ih_I"
        },
        {
          "duration": 0.06,
          "phone": "sh_I"
        },
        {
          "duration": 0.08,
          "phone": "ih_I"
        },
        {
          "duration": 0.1,
          "phone": "ng_E"
        }
      ],
      "start": 13.969999,
      "startOffset": 235,
      "word": "WISHING"
    },
    {
      "alignedWord": "only",
      "case": "success",
      "end": 14.739999999999998,
      "endOffset": 247,
      "phones": [
        {
          "duration": 0.13,
          "phone": "ow_B"
        },
        {
          "duration": 0.08,
          "phone": "n_I"
        },
        {
          "duration": 0.07,
          "phone": "l_I"
        },
        {
          "duration": 0.09,
          "phone": "iy_E"
        }
      ],
      "start": 14.37,
      "startOffset": 243,
      "word": "ONLY"
    },
    {
      "alignedWord": "to",
      "case": "success",
      "end": 14.88,
      "endOffset": 250,
      "phones": [
        {
          "duration": 0.07,
          "phone": "t_B"
        },
        {
          "duration": 0.07,
          "phone": "ih_E"
        }
      ],
      "start": 14.74,
      "startOffset": 248,
      "word": "TO"
    },
    {
      "alignedWord": "be",
      "case": "success",
      "end": 15.029999,
      "endOffset": 253,
      "phones": [
        {
          "duration": 0.07,
          "phone": "b_B"
        },
        {
          "duration": 0.07,
          "phone": "iy_E"
        }
      ],
      "start": 14.889999,
      "startOffset": 251,
      "word": "BE"
    },
    {
      "alignedWord": "let",
      "case": "success",
      "end": 15.229999999999999,
      "endOffset": 257,
      "phones": [
        {
          "duration": 0.07,
          "phone": "l_B"
        },
        {
          "duration": 0.08,
          "phone": "eh_I"
        },
        {
          "duration": 0.05,
          "phone": "t_E"
        }
      ],
      "start": 15.03,
      "startOffset": 254,
      "word": "LET"
    },
    {
      "alignedWord": "alone",
      "case": "success",
      "end": 15.73,
      "endOffset": 263,
      "phones": [
        {
          "duration": 0.07,
          "phone": "ah_B"
        },
        {
          "duration": 0.11,
          "phone": "l_I"
        },
        {
          "duration": 0.13,
          "phone": "ow_I"
        },
        {
          "duration": 0.19,
          "phone": "n_E"
        }
      ],
      "start": 15.23,
      "startOffset": 258,
      "word": "ALONE"
    }
  ]
}