{
  "transcript": "HE COULD NOT TELL WHY BUT HE THOUGHT OF THE SPIDER AND CALMLY OPENED THE DOOR A SERVANT HANDED HIM A LETTER FROM FALANDER BEGGING HIM TO COME TO HIS ROOMS AT TEN ON VERY IMPORTANT BUSINESS AGAIN HE WAS ASSAILED BY THE INDESCRIBABLE FEELING OF FEAR",
  "words": [
    {
      "alignedWord": "he",
      "case": "success",
      "end": 0.33,
      "endOffset": 2,
      "phones": [
        {
          "duration": 0.08,
          "phone": "hh_B"
        },
        {
          "duration": 0.06,
          "phone": "iy_E"
        }
      ],
      "start": 0.19,
      "startOffset": 0,
      "word": "HE"
    },
    {
      "alignedWord": "could",
      "case": "success",
      "end": 0.49,
      "endOffset": 8,
      "phones": [
        {
          "duration": 0.05,
          "phone": "k_B"
        },
        {
          "duration": 0.05,
          "phone": "uh_I"
        },
        {
          "duration": 0.06,
          "phone": "d_E"
        }
      ],
      "start": 0.33,
      "startOffset": 3,
      "word": "COULD"
    },
    {
      "alignedWord": "not",
      "case": "success",
      "end": 0.69,
      "endOffset": 12,
      "phones": [
        {
          "duration": 0.02,
          "phone": "n_B"
        },
        {
          "duration": 0.1,
          "phone": "aa_I"
        },
        {
          "duration": 0.08,
          "phone": "t_E"
        }
      ],
      "start": 0.49,
      "startOffset": 9,
      "word": "NOT"
    },
    {
      "alignedWord": "tell",
      "case": "success",
      "end": 0.8899999999999999,
      "endOffset": 17,
      "phones": [
        {
          "duration": 0.04,
          "phone": "t_B"
        },
        {
          "duration": 0.1,
          "phone": "eh_I"
        },
        {
          "duration": 0.06,
          "phone": "l_E"
        }
      ],
      "start": 0.69,
      "startOffset": 13,
      "word": "TELL"
    },
    {
      "alignedWord": "why",
      "case": "success",
      "end": 1.28,
      "endOffset": 21,
      "phones": [
        {
          "duration": 0.13,
          "phone": "w_B"
        },
        {
          "duration": 0.26,
          "phone": "ay_E"
        }
      ],
      "start": 0.89,
      "startOffset": 18,
      "word": "WHY"
    },
    {
      "alignedWord": "but",
      "case": "success",
      "end": 1.8399999999999999,
      "endOffset": 25,
      "phones": [
        {
          "duration": 0.07,
          "phone": "b_B"
        },
        {
          "duration": 0.05,
          "phone": "ah_I"
        },
        {
          "duration": 0.04,
          "phone": "t_E"
        }
      ],
      "start": 1.68,
      "startOffset": 22,
      "word": "BUT"
    },
    {
      "alignedWord": "he",
      "case": "success",
      "end": 1.9300000000000002,
      "endOffset": 28,
      "phones": [
        {
          "duration": 0.01,
          "phone": "hh_B"
        },
        {
          "duration": 0.08,
          "phone": "iy_E"
        }
      ],
      "start": 1.84,
      "startOffset": 26,
      "word": "HE"
    },
    {
      "alignedWord": "thought",
      "case": "success",
      "end": 2.31,
      "endOffset": 36,
      "phones": [
        {
          "duration": 0.11,
          "phone": "th_B"
        },
        {
          "duration": 0.16,
          "phone": "ao_I"
        },
        {
          "duration": 0.11,
          "phone": "t_E"
        }
      ],
      "start": 1.93,
      "startOffset": 29,
      "word": "THOUGHT"
    },
    {
      "alignedWord": "of",
      "case": "success",
      "end": 2.5,
      "endOffset": 39,
      "phones": [
        {
          "duration": 0.09,
          "phone": "ah_B"
        },
        {
          "duration": 0.07,
          "phone": "v_E"
        }
      ],
      "start": 2.34,
      "startOffset": 37,
      "word": "OF"
    },
    {
      "alignedWord": "the",
      "case": "success",
      "end": 2.59,
      "endOffset": 43,
      "phones": [
        {
          "duration": 0.01,
          "phone": "dh_B"
        },
        {
          "duration": 0.08,
          "phone": "ah_E"
        }
      ],
      "start": 2.5,
      "startOffset": 40,
      "word": "THE"
    },
    {
      "alignedWord": "spider",
      "case": "success",
      "end": 3.04,
      "endOffset": 50,
      "phones": [
        {
          "duration": 0.07,
          "phone": "s_B"
        },
        {
          "duration": 0.09,
          "phone": "p_I"
        },
        {
          "duration": 0.1,
          "phone": "ay_I"
        },
        {
          "duration": 0.07,
          "phone": "d_I"
        },
        {
          "duration": 0.12,
          "phone": "er_E"
        }
      ],
      "start": 2.59,
      "startOffset": 44,
      "word": "SPIDER"
    },
    {
      "alignedWord": "and",
      "case": "success",
      "end": 3.26,
      "endOffset": 54,
      "phones": [
        {
          "duration": 0.08,
          "phone": "ae_B"
        },
        {
          "duration": 0.02,
          "phone": "n_I"
        },
        {
          "duration": 0.07,
          "phone": "d_E"
        }
      ],
      "start": 3.09,
      "startOffset": 51,
      "word": "AND"
    },
    {
      "alignedWord": "calmly",
      "case": "success",
      "end": 3.67,
      "endOffset": 61,
      "phones": [
        {
          "duration": 0.08,
          "phone": "k_B"
        },
        {
          "duration": 0.12,
          "phone": "aa_I"
        },
        {
          "duration": 0.07,
          "phone": "m_I"
        },
        {
          "duration": 0.06,
          "phone": "l_I"
        },
        {
          "duration": 0.08,
          "phone": "iy_E"
        }
      ],
      "start": 3.26,
      "startOffset": 55,
      "word": "CALMLY"
    },
    {
      "alignedWord": "opened",
      "case": "success",
      "end": 3.9299999999999997,
      "endOffset": 68,
      "phones": [
        {
          "duration": 0.08,
          "phone": "ow_B"
        },
        {
          "duration": 0.07,
          "phone": "p_I"
        },
        {
          "duration": 0.04,
          "phone": "ah_I"
        },
        {
          "duration": 0.06,
          "phone": "n_I"
        },
        {
          "duration": 0.01,
          "phone": "d_E"
        }
      ],
      "start": 3.67,
      "startOffset": 62,
      "word": "OPENED"
    },
    {
      "alignedWord": "the",
      "case": "success",
      "end": 4.0,
      "endOffset": 72,
      "phones": [
        {
          "duration": 0.01,
          "phone": "dh_B"
        },
        {
          "duration": 0.06,
          "phone": "ah_E"
        }
      ],
      "start": 3.93,
      "startOffset": 69,
      "word": "THE"
    },
    {
      "alignedWord": "door",
      "case": "success",
      "end": 4.43,
      "endOffset": 77,
      "phones": [
        {
          "duration": 0.06,
          "phone": "d_B"
        },
        {
          "duration": 0.14,
          "phone": "ao_I"
        },
        {
          "duration": 0.23,
          "phone": "r_E"
        }
      ],
      "start": 4.0,
      "startOffset": 73,
      "word": "DOOR"
    },
    {
      "alignedWord": "a",
      "case": "success",
      "end": 4.9799999999999995,
      "endOffset": 79,
      "phones": [
        {
          "duration": 0.13,
          "phone": "ah_S"
        }
      ],
      "start": 4.85,
      "startOffset": 78,
      "word": "A"
    },
    {
      "alignedWord": "servant",
      "case": "success",
      "end": 5.430000000000001,
      "endOffset": 87,
      "phones": [
        {
          "duration": 0.14,
          "phone": "s_B"
        },
        {
          "duration": 0.11,
          "phone": "er_I"
        },
        {
          "duration": 0.04,
          "phone": "v_I"
        },
        {
          "duration": 0.05,
          "phone": "ah_I"
        },
        {
          "duration": 0.04,
          "phone": "n_I"
        },
        {
          "duration": 0.07,
          "phone": "t_E"
        }
      ],
      "start": 4.98,
      "startOffset": 80,
      "word": "SERVANT"
    },
    {
      "alignedWord": "handed",
      "case": "success",
      "end": 5.760000000000001,
      "endOffset": 94,
      "phones": [
        {
          "duration": 0.12,
          "phone": "hh_B"
        },
        {
          "duration": 0.09,
          "phone": "ae_I"
        },
        {
          "duration": 0.03,
          "phone": "n_I"
        },
        {
          "duration": 0.01,
          "phone": "d_I"
        },
        {
          "duration": 0.04,
          "phone": "ih_I"
        },
        {
          "duration": 0.03,
          "phone": "d_E"
        }
      ],
      "start": 5.44,
      "startOffset": 88,
      "word": "HANDED"
    },
    {
      "alignedWord": "him",
      "case": "success",
      "end": 5.89,
      "endOffset": 98,
      "phones": [
        {
          "duration": 0.03,
          "phone": "hh_B"
        },
        {
          "duration": 0.06,
          "phone": "ih_I"
        },
        {
          "duration": 0.04,
          "phone": "m_E"
        }
      ],
      "start": 5.76,
      "startOffset": 95,
      "word": "HIM"
    },
    {
      "alignedWord": "a",
      "case": "success",
      "end": 5.96,
      "endOffset": 100,
      "phones": [
        {
          "duration": 0.07,
          "phone": "ah_S"
        }
      ],
      "start": 5.89,
      "startOffset": 99,
      "word": "A"
    },
    {
      "alignedWord": "letter",
      "case": "success",
      "end": 6.24,
      "endOffset": 107,
      "phones": [
        {
          "duration": 0.06,
          "phone": "l_B"
        },
        {
          "duration": 0.08,
          "phone": "eh_I"
        },
        {
          "duration": 0.06,
          "phone": "t_I"
        },
        {
          "duration": 0.08,
          "phone": "er_E"
        }
      ],
      "start": 5.96,
      "startOffset": 101,
      "word": "LETTER"
    },
    {
      "alignedWord": "from",
      "case": "success",
      "end": 6.42,
      "endOffset": 112,
      "phones": [
        {
          "duration": 0.04,
          "phone": "f_B"
        },
        {
          "duration": 0.04,
          "phone": "r_I"
        },
        {
          "duration": 0.02,
          "phone": "ah_I"
        },
        {
          "duration": 0.08,
          "phone": "m_E"
        }
      ],
      "start": 6.24,
      "startOffset": 108,
      "word": "FROM"
    },
    {
      "alignedWord": "<unk>",
      "case": "success",
      "end": 7.04,
      "endOffset": 121,
      "phones": [
        {
          "duration": 0.62,
          "phone": "oov_S"
        }
      ],
      "start": 6.42,
      "startOffset": 113,
      "word": "FALANDER"
    },
    {
      "alignedWord": "begging",
      "case": "success",
      "end": 7.88,
      "endOffset": 129,
      "phones": [
        {
          "duration": 0.15,
          "phone": "b_B"
        },
        {
          "duration": 0.09,
          "phone": "eh_I"
        },
        {
          "duration": 0.08,
          "phone": "g_I"
        },
        {
          "duration": 0.03,
          "phone": "ih_I"
        },
        {
          "duration": 0.04,
          "phone": "ng_E"
        }
      ],
      "start": 7.49,
      "startOffset": 122,
      "word": "BEGGING"
    },
    {
      "alignedWord": "him",
      "case": "success",
      "end": 8.06,
      "endOffset": 133,
      "phones": [
        {
          "duration": 0.03,
          "phone": "hh_B"
        },
        {
          "duration": 0.09,
          "phone": "ih_I"
        },
        {
          "duration": 0.06,
          "phone": "m_E"
        }
      ],
      "start": 7.88,
      "startOffset": 130,
      "word": "HIM"
    },
    {
      "alignedWord": "to",
      "case": "success",
      "end": 8.159999,
      "endOffset": 136,
      "phones": [
        {
          "duration": 0.04,
          "phone": "t_B"
        },
        {
          "duration": 0.06,
          "phone": "ah_E"
        }
      ],
      "start": 8.059999,
      "startOffset": 134,
      "word": "TO"
    },
    {
      "alignedWord": "come",
      "case": "success",
      "end": 8.4,
      "endOffset": 141,
      "phones": [
        {
          "duration": 0.08,
          "phone": "k_B"
        },
        {
          "duration": 0.1,
          "phone": "ah_I"
        },
        {
          "duration": 0.06,
          "phone": "m_E"
        }
      ],
      "start": 8.16,
      "startOffset": 137,
      "word": "COME"
    },
    {
      "alignedWord": "to",
      "case": "success",
      "end": 8.540000000000001,
      "endOffset": 144,
      "phones": [
        {
          "duration": 0.07,
          "phone": "t_B"
        },
        {
          "duration": 0.07,
          "phone": "uw_E"
        }
      ],
      "start": 8.4,
      "startOffset": 142,
      "word": "TO"
    },
    {
      "alignedWord": "his",
      "case": "success",
      "end": 8.7,
      "endOffset": 148,
      "phones": [
        {
          "duration": 0.04,
          "phone": "hh_B"
        },
        {
          "duration": 0.03,
          "phone": "ih_I"
        },
        {
          "duration": 0.09,
          "phone": "z_E"
        }
      ],
      "start": 8.54,
      "startOffset": 145,
      "word": "HIS"
    },
    {
      "alignedWord": "rooms",
      "case": "success",
      "end": 9.03,
      "endOffset": 154,
      "phones": [
        {
          "duration": 0.06,
          "phone": "r_B"
        },
        {
          "duration": 0.13,
          "phone": "uw_I"
        },
        {
          "duration": 0.08,
          "phone": "m_I"
        },
        {
          "duration": 0.06,
          "phone": "z_E"
        }
      ],
      "start": 8.7,
      "startOffset": 149,
      "word": "ROOMS"
    },
    {
      "alignedWord": "at",
      "case": "success",
      "end": 9.17,
      "endOffset": 157,
      "phones": [
        {
          "duration": 0.06,
          "phone": "ae_B"
        },
        {
          "duration": 0.08,
          "phone": "t_E"
        }
      ],
      "start": 9.03,
      "startOffset": 155,
      "word": "AT"
    },
    {
      "alignedWord": "ten",
      "case": "success",
      "end": 9.57,
      "endOffset": 161,
      "phones": [
        {
          "duration": 0.08,
          "phone": "t_B"
        },
        {
          "duration": 0.12,
          "phone": "eh_I"
        },
        {
          "duration": 0.2,
          "phone": "n_E"
        }
      ],
      "start": 9.17,
      "startOffset": 158,
      "word": "TEN"
    },
    {
      "alignedWord": "on",
      "case": "success",
      "end": 10.13,
      "endOffset": 164,
      "phones": [
        {
          "duration": 0.14,
          "phone": "aa_B"
        },
        {
          "duration": 0.09,
          "phone": "n_E"
        }
      ],
      "start": 9.9,
      "startOffset": 162,
      "word": "ON"
    },
    {
      "alignedWord": "very",
      "case": "success",
      "end": 10.46,
      "endOffset": 169,
      "phones": [
        {
          "duration": 0.08,
          "phone": "v_B"
        },
        {
          "duration": 0.08,
          "phone": "eh_I"
        },
        {
          "duration": 0.11,
          "phone": "r_I"
        },
        {
          "duration": 0.06,
          "phone": "iy_E"
        }
      ],
      "start": 10.13,
      "startOffset": 165,
      "word": "VERY"
    },
    {
      "alignedWord": "important",
      "case": "success",
      "end": 10.91,
      "endOffset": 179,
      "phones": [
        {
          "duration": 0.06,
          "phone": "ih_B"
        },
        {
          "duration": 0.06,
          "phone": "m_I"
        },
        {
          "duration": 0.06,
          "phone": "p_I"
        },
        {
          "duration": 0.06,
          "phone": "ao_I"
        },
        {
          "duration": 0.03,
          "phone": "r_I"
        },
        {
          "duration": 0.06,
          "phone": "t_I"
        },
        {
          "duration": 0.04,
          "phone": "ah_I"
        },
        {
          "duration": 0.03,
          "phone": "n_I"
        },
        {
          "duration": 0.05,
          "phone": "t_E"
        }
      ],
      "start": 10.46,
      "startOffset": 170,
      "word": "IMPORTANT"
    },
    {
      "alignedWord": "business",
      "case": "success",
      "end": 11.45,
      "endOffset": 188,
      "phones": [
        {
          "duration": 0.03,
          "phone": "b_B"
        },
        {
          "duration": 0.11,
          "phone": "ih_I"
        },
        {
          "duration": 0.07,
          "phone": "z_I"
        },
        {
          "duration": 0.05,
          "phone": "n_I"
        },
        {
          "duration": 0.08,
          "phone": "ah_I"
        },
        {
          "duration": 0.2,
          "phone": "s_E"
        }
      ],
      "start": 10.91,
      "startOffset": 180,
      "word": "BUSINESS"
    },
    {
      "alignedWord": "again",
      "case": "success",
      "end": 12.399999000000001,
      "endOffset": 194,
      "phones": [
        {
          "duration": 0.12,
          "phone": "ah_B"
        },
        {
          "duration": 0.11,
          "phone": "g_I"
        },
        {
          "duration": 0.14,
          "phone": "eh_I"
        },
        {
          "duration": 0.18,
          "phone": "n_E"
        }
      ],
      "start": 11.849999,
      "startOffset": 189,
      "word": "AGAIN"
    },
    {
      "alignedWord": "he",
      "case": "success",
      "end": 12.55,
      "endOffset": 197,
      "phones": [
        {
          "duration": 0.07,
          "phone": "hh_B"
        },
        {
          "duration": 0.06,
          "phone": "iy_E"
        }
      ],
      "start": 12.42,
      "startOffset": 195,
      "word": "HE"
    },
    {
      "alignedWord": "was",
      "case": "success",
      "end": 12.780000000000001,
      "endOffset": 201,
      "phones": [
        {
          "duration": 0.04,
          "phone": "w_B"
        },
        {
          "duration": 0.06,
          "phone": "ah_I"
        },
        {
          "duration": 0.13,
          "phone": "z_E"
        }
      ],
      "start": 12.55,
      "startOffset": 198,
      "word": "WAS"
    },
    {
      "alignedWord": "<unk>",
      "case": "success",
      "end": 13.11,
      "endOffset": 210,
      "phones": [
        {
          "duration": 0.32,
          "phone": "oov_S"
        }
      ],
      "start": 12.79,
      "startOffset": 202,
      "word": "ASSAILED"
    },
    {
      "alignedWord": "by",
      "case": "success",
      "end": 13.29,
      "endOffset": 213,
      "phones": [
        {
          "duration": 0.09,
          "phone": "b_B"
        },
        {
          "duration": 0.08,
          "phone": "ay_E"
        }
      ],
      "start": 13.12,
      "startOffset": 211,
      "word": "BY"
    },
    {
      "alignedWord": "the",
      "case": "success",
      "end": 13.459999999999999,
      "endOffset": 217,
      "phones": [
        {
          "duration": 0.08,
          "phone": "dh_B"
        },
        {
          "duration": 0.09,
          "phone": "iy_E"
        }
      ],
      "start": 13.29,
      "startOffset": 214,
      "word": "THE"
    },
    {
      "alignedWord": "indescribable",
      "case": "success",
      "end": 14.279999,
      "endOffset": 231,
      "phones": [
        {
          "duration": 0.09,
          "phone": "ih_B"
        },
        {
          "duration": 0.1,
          "phone": "n_I"
        },
        {
          "duration": 0.01,
          "phone": "d_I"
        },
        {
          "duration": 0.08,
          "phone": "ih_I"
        },
        {
          "duration": 0.07,
          "phone": "s_I"
        },
        {
          "duration": 0.06,
          "phone": "k_I"
        },
        {
          "duration": 0.03,
          "phone": "r_I"
        },
        {
          "duration": 0.09,
          "phone": "ay_I"
        },
        {
          "duration": 0.04,
          "phone": "b_I"
        },
        {
          "duration": 0.08,
          "phone": "ah_I"
        },
        {
          "duration": 0.04,
          "phone": "b_I"
        },
        {
          "duration": 0.06,
          "phone": "ah_I"
        },
        {
          "duration": 0.06,
          "phone": "l_E"
        }
      ],
      "start": 13.469999,
      "startOffset": 218,
      "word": "INDESCRIBABLE"
    },
    {
      "alignedWord": "feeling",
      "case": "success",
      "end": 14.649999999999999,
      "endOffset": 239,
      "phones": [
        {
          "duration": 0.11,
          "phone": "f_B"
        },
        {
          "duration": 0.09,
          "phone": "iy_I"
        },
        {
          "duration": 0.03,
          "phone": "l_I"
        },
        {
          "duration": 0.07,
          "phone": "ih_I"
        },
        {
          "duration": 0.07,
          "phone": "ng_E"
        }
      ],
      "start": 14.28,
      "startOffset": 232,
      "word": "FEELING"
    },
    {
      "alignedWord": "of",
      "case": "success",
      "end": 14.75,
      "endOffset": 242,
      "phones": [
        {
          "duration": 0.05,
          "phone": "ah_B"
        },
        {
          "duration": 0.05,
          "phone": "v_E"
        }
      ],
      "start": 14.65,
      "startOffset": 240,
      "word": "OF"
    },
    {
      "alignedWord": "fear",
      "case": "success",
      "end": 15.11,
      "endOffset": 247,
      "phones": [
        {
          "duration": 0.1,
          "phone": "f_B"
        },
        {
          "duration": 0.14,
          "phone": "ih_I"
        },
        {
          "duration": 0.12,
          "phone": "r_E"
        }
      ],
      "start": 14.75,
      "startOffset": 243,
      "word": "FEAR"
    }
  ]
}