{
  "transcript": "ALL MATTERS CONNECTED WITH THE SHRINES OF THE SHINTO OR INDIGENOUS RELIGION ARE CONFIDED TO THE SUPERINTENDENCE OF THE FAMILIES OF YOSHIDA AND FUSHIMI",
  "words": [
    {
      "alignedWord": "all",
      "case": "success",
      "end": 0.48,
      "endOffset": 3,
      "phones": [
        {
          "duration": 0.14,
          "phone": "ao_B"
        },
        {
          "duration": 0.09,
          "phone": "l_E"
        }
      ],
      "start": 0.25,
      "startOffset": 0,
      "word": "ALL"
    },
    {
      "alignedWord": "matters",
      "case": "success",
      "end": 0.97,
      "endOffset": 11,
      "phones": [
        {
          "duration": 0.08,
          "phone": "m_B"
        },
        {
          "duration": 0.07,
          "phone": "ae_I"
        },
        {
          "duration": 0.12,
          "phone": "t_I"
        },
        {
          "duration": 0.1,
          "phone": "er_I"
        },
        {
          "duration": 0.1,
          "phone": "z_E"
        }
      ],
      "start": 0.5,
      "startOffset": 4,
      "word": "MATTERS"
    },
    {
      "alignedWord": "connected",
      "case": "success",
      "end": 1.45,
      "endOffset": 21,
      "phones": [
        {
          "duration": 0.06,
          "phone": "k_B"
        },
        {
          "duration": 0.05,
          "phone": "ah_I"
        },
        {
          "duration": 0.08,
          "phone": "n_I"
        },
        {
          "duration": 0.04,
          "phone": "eh_I"
        },
        {
          "duration": 0.06,
          "phone": "k_I"
        },
        {
          "duration": 0.06,
          "phone": "t_I"
        },
        {
          "duration": 0.07,
          "phone": "ah_I"
        },
        {
          "duration": 0.06,
          "phone": "d_E"
        }
      ],
      "start": 0.97,
      "startOffset": 12,
      "word": "CONNECTED"
    },
    {
      "alignedWord": "with",
      "case": "success",
      "end": 1.5899999999999999,
      "endOffset": 26,
      "phones": [
        {
          "duration": 0.06,
          "phone": "w_B"
        },
        {
          "duration": 0.05,
          "phone": "ih_I"
        },
        {
          "duration": 0.01,
          "phone": "th_E"
        }
      ],
      "start": 1.47,
      "startOffset": 22,
      "word": "WITH"
    },
    {
      "alignedWord": "the",
      "case": "success",
      "end": 1.7100000000000002,
      "endOffset": 30,
      "phones": [
        {
          "duration": 0.06,
          "phone": "dh_B"
        },
        {
          "duration": 0.05,
          "phone": "ah_E"
        }
      ],
      "start": 1.6,
      "startOffset": 27,
      "word": "THE"
    },
    {
      "alignedWord": "shrines",
      "case": "success",
      "end": 2.19,
      "endOffset": 38,
      "phones": [
        {
          "duration": 0.16,
          "phone": "sh_B"
        },
        {
          "duration": 0.07,
          "phone": "r_I"
        },
        {
          "duration": 0.1,
          "phone": "ay_I"
        },
        {
          "duration": 0.07,
          "phone": "n_I"
        },
        {
          "duration": 0.08,
          "phone": "z_E"
        }
      ],
      "start": 1.71,
      "startOffset": 31,
      "word": "SHRINES"
    },
    {
      "alignedWord": "of",
      "case": "success",
      "end": 2.37,
      "endOffset": 41,
      "phones": [
        {
          "duration": 0.08,
          "phone": "ah_B"
        },
        {
          "duration": 0.1,
          "phone": "v_E"
        }
      ],
      "start": 2.19,
      "startOffset": 39,
      "word": "OF"
    },
    {
      "alignedWord": "the",
      "case": "success",
      "end": 2.44,
      "endOffset": 45,
      "phones": [
        {
          "duration": 0.01,
          "phone": "dh_B"
        },
        {
          "duration": 0.06,
          "phone": "ah_E"
        }
      ],
      "start": 2.37,
      "startOffset": 42,
      "word": "THE"
    },
    {
      "alignedWord": "<unk>",
      "case": "success",
      "end": 3.0,
      "endOffset": 52,
      "phones": [
        {
          "duration": 0.56,
          "phone": "oov_S"
        }
      ],
      "start": 2.44,
      "startOffset": 46,
      "word": "SHINTO"
    },
    {
      "alignedWord": "or",
      "case": "success",
      "end": 3.4,
      "endOffset": 55,
      "phones": [
        {
          "duration": 0.13,
          "phone": "ao_B"
        },
        {
          "duration": 0.06,
          "phone": "r_E"
        }
      ],
      "start": 3.21,
      "startOffset": 53,
      "word": "OR"
    },
    {
      "alignedWord": "indigenous",
      "case": "success",
      "end": 4.06,
      "endOffset": 66,
      "phones": [
        {
          "duration": 0.07,
          "phone": "ih_B"
        },
        {
          "duration": 0.09,
          "phone": "n_I"
        },
        {
          "duration": 0.04,
          "phone": "d_I"
        },
        {
          "duration": 0.09,
          "phone": "ih_I"
        },
        {
          "duration": 0.07,
          "phone": "jh_I"
        },
        {
          "duration": 0.08,
          "phone": "ah_I"
        },
        {
          "duration": 0.05,
          "phone": "n_I"
        },
        {
          "duration": 0.07,
          "phone": "ah_I"
        },
        {
          "duration": 0.1,
          "phone": "s_E"
        }
      ],
      "start": 3.4,
      "startOffset": 56,
      "word": "INDIGENOUS"
    },
    {
      "alignedWord": "religion",
      "case": "success",
      "end": 4.6899999999999995,
      "endOffset": 75,
      "phones": [
        {
          "duration": 0.06,
          "phone": "r_B"
        },
        {
          "duration": 0.07,
          "phone": "iy_I"
        },
        {
          "duration": 0.06,
          "phone": "l_I"
        },
        {
          "duration": 0.08,
          "phone": "ih_I"
        },
        {
          "duration": 0.09,
          "phone": "jh_I"
        },
        {
          "duration": 0.09,
          "phone": "ah_I"
        },
        {
          "duration": 0.18,
          "phone": "n_E"
        }
      ],
      "start": 4.06,
      "startOffset": 67,
      "word": "RELIGION"
    },
    {
      "alignedWord": "are",
      "case": "success",
      "end": 5.19,
      "endOffset": 79,
      "phones": [
        {
          "duration": 0.11,
          "phone": "aa_B"
        },
        {
          "duration": 0.09,
          "phone": "r_E"
        }
      ],
      "start": 4.99,
      "startOffset": 76,
      "word": "ARE"
    },
    {
      "alignedWord": "confided",
      "case": "success",
      "end": 5.890000000000001,
      "endOffset": 88,
      "phones": [
        {
          "duration": 0.06,
          "phone": "k_B"
        },
        {
          "duration": 0.08,
          "phone": "ah_I"
        },
        {
          "duration": 0.07,
          "phone": "n_I"
        },
        {
          "duration": 0.13,
          "phone": "f_I"
        },
        {
          "duration": 0.14,
          "phone": "ay_I"
        },
        {
          "duration": 0.05,
          "phone": "d_I"
        },
        {
          "duration": 0.01,
          "phone": "ih_I"
        },
        {
          "duration": 0.16,
          "phone": "d_E"
        }
      ],
      "start": 5.19,
      "startOffset": 80,
      "word": "CONFIDED"
    },
    {
      "alignedWord": "to",
      "case": "success",
      "end": 6.36,
      "endOffset": 91,
      "phones": [
        {
          "duration": 0.11,
          "phone": "t_B"
        },
        {
          "duration": 0.06,
          "phone": "uw_E"
        }
      ],
      "start": 6.19,
      "startOffset": 89,
      "word": "TO"
    },
    {
      "alignedWord": "the",
      "case": "success",
      "end": 6.53,
      "endOffset": 95,
      "phones": [
        {
          "duration": 0.07,
          "phone": "dh_B"
        },
        {
          "duration": 0.1,
          "phone": "ah_E"
        }
      ],
      "start": 6.36,
      "startOffset": 92,
      "word": "THE"
    },
    {
      "alignedWord": "<unk>",
      "case": "success",
      "end": 7.48,
      "endOffset": 111,
      "phones": [
        {
          "duration": 0.94,
          "phone": "oov_S"
        }
      ],
      "start": 6.54,
      "startOffset": 96,
      "word": "SUPERINTENDENCE"
    },
    {
      "alignedWord": "of",
      "case": "success",
      "end": 7.680000000000001,
      "endOffset": 114,
      "phones": [
        {
          "duration": 0.08,
          "phone": "ah_B"
        },
        {
          "duration": 0.11,
          "phone": "v_E"
        }
      ],
      "start": 7.49,
      "startOffset": 112,
      "word": "OF"
    },
    {
      "alignedWord": "the",
      "case": "success",
      "end": 7.75,
      "endOffset": 118,
      "phones": [
        {
          "duration": 0.01,
          "phone": "dh_B"
        },
        {
          "duration": 0.06,
          "phone": "ah_E"
        }
      ],
      "start": 7.68,
      "startOffset": 115,
      "word": "THE"
    },
    {
      "alignedWord": "families",
      "case": "success",
      "end": 8.3,
      "endOffset": 127,
      "phones": [
        {
          "duration": 0.07,
          "phone": "f_B"
        },
        {
          "duration": 0.1,
          "phone": "ae_I"
        },
        {
          "duration": 0.1,
          "phone": "m_I"
        },
        {
          "duration": 0.11,
          "phone": "l_I"
        },
        {
          "duration": 0.08,
          "phone": "iy_I"
        },
        {
          "duration": 0.09,
          "phone": "z_E"
        }
      ],
      "start": 7.75,
      "startOffset": 119,
      "word": "FAMILIES"
    },
    {
      "alignedWord": "of",
      "case": "success",
      "end": 8.419998999999999,
      "endOffset": 130,
      "phones": [
        {
          "duration": 0.07,
          "phone": "ah_B"
        },
        {
          "duration": 0.04,
          "phone": "v_E"
        }
      ],
      "start": 8.309999,
      "startOffset": 128,
      "word": "OF"
    },
    {
      "alignedWord": "<unk>",
      "case": "success",
      "end": 8.989999000000001,
      "endOffset": 138,
      "phones": [
        {
          "duration": 0.56,
          "phone": "oov_S"
        }
      ],
      "start": 8.429999,
      "startOffset": 131,
      "word": "YOSHIDA"
    },
    {
      "alignedWord": "and",
      "case": "success",
      "end": 9.17,
      "endOffset": 142,
      "phones": [
        {
          "duration": 0.05,
          "phone": "ae_B"
        },
        {
          "duration": 0.05,
          "phone": "n_I"
        },
        {
          "duration": 0.07,
          "phone": "d_E"
        }
      ],
      "start": 9.0,
      "startOffset": 139,
      "word": "AND"
    },
    {
      "alignedWord": "<unk>",
      "case": "success",
      "end": 9.67,
      "endOffset": 150,
      "phones": [
        {
          "duration": 0.5,
          "phone": "oov_S"
        }
      ],
      "start": 9.17,
      "startOffset": 143,
      "word": "FUSHIMI"
    }
  ]
}