{
  "transcript": "WHICH YOU HAD JUST PROCURED AND SAID THAT HE WOULD COME AND TELL US THE PRICE ANOTHER DAY WHEN WE ASKED HIM TO SPEND THE NIGHT HERE HE ANSWERED THAT HE WOULD LODGE WITH A RELATION IN THE NEXT VILLAGE AND WENT AWAY THE VISITOR WAS MORE AND MORE LOST IN AMAZEMENT AND",
  "words": [
    {
      "alignedWord": "which",
      "case": "success",
      "end": 0.38,
      "endOffset": 5,
      "phones": [
        {
          "duration": 0.09,
          "phone": "w_B"
        },
        {
          "duration": 0.05,
          "phone": "ih_I"
        },
        {
          "duration": 0.08,
          "phone": "ch_E"
        }
      ],
      "start": 0.16,
      "startOffset": 0,
      "word": "WHICH"
    },
    {
      "alignedWord": "you",
      "case": "success",
      "end": 0.52,
      "endOffset": 9,
      "phones": [
        {
          "duration": 0.07,
          "phone": "y_B"
        },
        {
          "duration": 0.07,
          "phone": "uw_E"
        }
      ],
      "start": 0.38,
      "startOffset": 6,
      "word": "YOU"
    },
    {
      "alignedWord": "had",
      "case": "success",
      "end": 0.71,
      "endOffset": 13,
      "phones": [
        {
          "duration": 0.07,
          "phone": "hh_B"
        },
        {
          "duration": 0.05,
          "phone": "ae_I"
        },
        {
          "duration": 0.06,
          "phone": "d_E"
        }
      ],
      "start": 0.53,
      "startOffset": 10,
      "word": "HAD"
    },
    {
      "alignedWord": "just",
      "case": "success",
      "end": 0.9299999999999999,
      "endOffset": 18,
      "phones": [
        {
          "duration": 0.04,
          "phone": "jh_B"
        },
        {
          "duration": 0.08,
          "phone": "ah_I"
        },
        {
          "duration": 0.05,
          "phone": "s_I"
        },
        {
          "duration": 0.05,
          "phone": "t_E"
        }
      ],
      "start": 0.71,
      "startOffset": 14,
      "word": "JUST"
    },
    {
      "alignedWord": "<unk>",
      "case": "success",
      "end": 1.48,
      "endOffset": 27,
      "phones": [
        {
          "duration": 0.54,
          "phone": "oov_S"
        }
      ],
      "start": 0.94,
      "startOffset": 19,
      "word": "PROCURED"
    },
    {
      "alignedWord": "and",
      "case": "success",
      "end": 1.7,
      "endOffset": 31,
      "phones": [
        {
          "duration": 0.07,
          "phone": "ae_B"
        },
        {
          "duration": 0.06,
          "phone": "n_I"
        },
        {
          "duration": 0.07,
          "phone": "d_E"
        }
      ],
      "start": 1.5,
      "startOffset": 28,
      "word": "AND"
    },
    {
      "alignedWord": "said",
      "case": "success",
      "end": 2.0,
      "endOffset": 36,
      "phones": [
        {
          "duration": 0.12,
          "phone": "s_B"
        },
        {
          "duration": 0.08,
          "phone": "eh_I"
        },
        {
          "duration": 0.1,
          "phone": "d_E"
        }
      ],
      "start": 1.7,
      "startOffset": 32,
      "word": "SAID"
    },
    {
      "alignedWord": "that",
      "case": "success",
      "end": 2.16,
      "endOffset": 41,
      "phones": [
        {
          "duration": 0.01,
          "phone": "dh_B"
        },
        {
          "duration": 0.09,
          "phone": "ah_I"
        },
        {
          "duration": 0.06,
          "phone": "t_E"
        }
      ],
      "start": 2.0,
      "startOffset": 37,
      "word": "THAT"
    },
    {
      "alignedWord": "he",
      "case": "success",
      "end": 2.32,
      "endOffset": 44,
      "phones": [
        {
          "duration": 0.1,
          "phone": "hh_B"
        },
        {
          "duration": 0.05,
          "phone": "iy_E"
        }
      ],
      "start": 2.17,
      "startOffset": 42,
      "word": "HE"
    },
    {
      "alignedWord": "would",
      "case": "success",
      "end": 2.53,
      "endOffset": 50,
      "phones": [
        {
          "duration": 0.06,
          "phone": "w_B"
        },
        {
          "duration": 0.06,
          "phone": "uh_I"
        },
        {
          "duration": 0.09,
          "phone": "d_E"
        }
      ],
      "start": 2.32,
      "startOffset": 45,
      "word": "WOULD"
    },
    {
      "alignedWord": "come",
      "case": "success",
      "end": 2.7699999999999996,
      "endOffset": 55,
      "phones": [
        {
          "duration": 0.06,
          "phone": "k_B"
        },
        {
          "duration": 0.1,
          "phone": "ah_I"
        },
        {
          "duration": 0.08,
          "phone": "m_E"
        }
      ],
      "start": 2.53,
      "startOffset": 51,
      "word": "COME"
    },
    {
      "alignedWord": "and",
      "case": "success",
      "end": 2.95,
      "endOffset": 59,
      "phones": [
        {
          "duration": 0.07,
          "phone": "ae_B"
        },
        {
          "duration": 0.03,
          "phone": "n_I"
        },
        {
          "duration": 0.08,
          "phone": "d_E"
        }
      ],
      "start": 2.77,
      "startOffset": 56,
      "word": "AND"
    },
    {
      "alignedWord": "tell",
      "case": "success",
      "end": 3.12,
      "endOffset": 64,
      "phones": [
        {
          "duration": 0.02,
          "phone": "t_B"
        },
        {
          "duration": 0.09,
          "phone": "eh_I"
        },
        {
          "duration": 0.06,
          "phone": "l_E"
        }
      ],
      "start": 2.95,
      "startOffset": 60,
      "word": "TELL"
    },
    {
      "alignedWord": "us",
      "case": "success",
      "end": 3.2800000000000002,
      "endOffset": 67,
      "phones": [
        {
          "duration": 0.08,
          "phone": "ah_B"
        },
        {
          "duration": 0.08,
          "phone": "s_E"
        }
      ],
      "start": 3.12,
      "startOffset": 65,
      "word": "US"
    },
    {
      "alignedWord": "the",
      "case": "success",
      "end": 3.3899999999999997,
      "endOffset": 71,
      "phones": [
        {
          "duration": 0.06,
          "phone": "dh_B"
        },
        {
          "duration": 0.05,
          "phone": "ah_E"
        }
      ],
      "start": 3.28,
      "startOffset": 68,
      "word": "THE"
    },
    {
      "alignedWord": "price",
      "case": "success",
      "end": 3.7,
      "endOffset": 77,
      "phones": [
        {
          "duration": 0.09,
          "phone": "p_B"
        },
        {
          "duration": 0.06,
          "phone": "r_I"
        },
        {
          "duration": 0.1,
          "phone": "ay_I"
        },
        {
          "duration": 0.06,
          "phone": "s_E"
        }
      ],
      "start": 3.39,
      "startOffset": 72,
      "word": "PRICE"
    },
    {
      "alignedWord": "another",
      "case": "success",
      "end": 4.08,
      "endOffset": 85,
      "phones": [
        {
          "duration": 0.07,
          "phone": "ah_B"
        },
        {
          "duration": 0.09,
          "phone": "n_I"
        },
        {
          "duration": 0.07,
          "phone": "ah_I"
        },
        {
          "duration": 0.08,
          "phone": "dh_I"
        },
        {
          "duration": 0.07,
          "phone": "er_E"
        }
      ],
      "start": 3.7,
      "startOffset": 78,
      "word": "ANOTHER"
    },
    {
      "alignedWord": "day",
      "case": "success",
      "end": 4.46,
      "endOffset": 89,
      "phones": [
        {
          "duration": 0.1,
          "phone": "d_B"
        },
        {
          "duration": 0.28,
          "phone": "ey_E"
        }
      ],
      "start": 4.08,
      "startOffset": 86,
      "word": "DAY"
    },
    {
      "alignedWord": "when",
      "case": "success",
      "end": 5.15,
      "endOffset": 94,
      "phones": [
        {
          "duration": 0.13,
          "phone": "w_B"
        },
        {
          "duration": 0.07,
          "phone": "eh_I"
        },
        {
          "duration": 0.09,
          "phone": "n_E"
        }
      ],
      "start": 4.86,
      "startOffset": 90,
      "word": "WHEN"
    },
    {
      "alignedWord": "we",
      "case": "success",
      "end": 5.3500000000000005,
      "endOffset": 97,
      "phones": [
        {
          "duration": 0.06,
          "phone": "w_B"
        },
        {
          "duration": 0.14,
          "phone": "iy_E"
        }
      ],
      "start": 5.15,
      "startOffset": 95,
      "word": "WE"
    },
    {
      "alignedWord": "asked",
      "case": "success",
      "end": 5.72,
      "endOffset": 103,
      "phones": [
        {
          "duration": 0.19,
          "phone": "ae_B"
        },
        {
          "duration": 0.07,
          "phone": "s_I"
        },
        {
          "duration": 0.09,
          "phone": "t_E"
        }
      ],
      "start": 5.37,
      "startOffset": 98,
      "word": "ASKED"
    },
    {
      "alignedWord": "him",
      "case": "success",
      "end": 5.92,
      "endOffset": 107,
      "phones": [
        {
          "duration": 0.05,
          "phone": "hh_B"
        },
        {
          "duration": 0.07,
          "phone": "ih_I"
        },
        {
          "duration": 0.08,
          "phone": "m_E"
        }
      ],
      "start": 5.72,
      "startOffset": 104,
      "word": "HIM"
    },
    {
      "alignedWord": "to",
      "case": "success",
      "end": 6.06,
      "endOffset": 110,
      "phones": [
        {
          "duration": 0.06,
          "phone": "t_B"
        },
        {
          "duration": 0.08,
          "phone": "ih_E"
        }
      ],
      "start": 5.92,
      "startOffset": 108,
      "word": "TO"
    },
    {
      "alignedWord": "spend",
      "case": "success",
      "end": 6.369999999999999,
      "endOffset": 116,
      "phones": [
        {
          "duration": 0.08,
          "phone": "s_B"
        },
        {
          "duration": 0.07,
          "phone": "p_I"
        },
        {
          "duration": 0.08,
          "phone": "eh_I"
        },
        {
          "duration": 0.07,
          "phone": "n_I"
        },
        {
          "duration": 0.01,
          "phone": "d_E"
        }
      ],
      "start": 6.06,
      "startOffset": 111,
      "word": "SPEND"
    },
    {
      "alignedWord": "the",
      "case": "success",
      "end": 6.51,
      "endOffset": 120,
      "phones": [
        {
          "duration": 0.06,
          "phone": "dh_B"
        },
        {
          "duration": 0.07,
          "phone": "ah_E"
        }
      ],
      "start": 6.38,
      "startOffset": 117,
      "word": "THE"
    },
    {
      "alignedWord": "night",
      "case": "success",
      "end": 6.79,
      "endOffset": 126,
      "phones": [
        {
          "duration": 0.07,
          "phone": "n_B"
        },
        {
          "duration": 0.14,
          "phone": "ay_I"
        },
        {
          "duration": 0.07,
          "phone": "t_E"
        }
      ],
      "start": 6.51,
      "startOffset": 121,
      "word": "NIGHT"
    },
    {
      "alignedWord": "here",
      "case": "success",
      "end": 7.22,
      "endOffset": 131,
      "phones": [
        {
          "duration": 0.11,
          "phone": "hh_B"
        },
        {
          "duration": 0.14,
          "phone": "iy_I"
        },
        {
          "duration": 0.18,
          "phone": "r_E"
        }
      ],
      "start": 6.79,
      "startOffset": 127,
      "word": "HERE"
    },
    {
      "alignedWord": "he",
      "case": "success",
      "end": 7.7,
      "endOffset": 134,
      "phones": [
        {
          "duration": 0.26,
          "phone": "hh_B"
        },
        {
          "duration": 0.1,
          "phone": "iy_E"
        }
      ],
      "start": 7.34,
      "startOffset": 132,
      "word": "HE"
    },
    {
      "alignedWord": "answered",
      "case": "success",
      "end": 8.09,
      "endOffset": 143,
      "phones": [
        {
          "duration": 0.07,
          "phone": "ae_B"
        },
        {
          "duration": 0.1,
          "phone": "n_I"
        },
        {
          "duration": 0.09,
          "phone": "s_I"
        },
        {
          "duration": 0.08,
          "phone": "er_I"
        },
        {
          "duration": 0.05,
          "phone": "d_E"
        }
      ],
      "start": 7.7,
      "startOffset": 135,
      "word": "ANSWERED"
    },
    {
      "alignedWord": "that",
      "case": "success",
      "end": 8.23,
      "endOffset": 148,
      "phones": [
        {
          "duration": 0.01,
          "phone": "dh_B"
        },
        {
          "duration": 0.07,
          "phone": "ah_I"
        },
        {
          "duration": 0.06,
          "phone": "t_E"
        }
      ],
      "start": 8.09,
      "startOffset": 144,
      "word": "THAT"
    },
    {
      "alignedWord": "he",
      "case": "success",
      "end": 8.39,
      "endOffset": 151,
      "phones": [
        {
          "duration": 0.08,
          "phone": "hh_B"
        },
        {
          "duration": 0.08,
          "phone": "iy_E"
        }
      ],
      "start": 8.23,
      "startOffset": 149,
      "word": "HE"
    },
    {
      "alignedWord": "would",
      "case": "success",
      "end": 8.599999,
      "endOffset": 157,
      "phones": [
        {
          "duration": 0.07,
          "phone": "w_B"
        },
        {
          "duration": 0.06,
          "phone": "uh_I"
        },
        {
          "duration": 0.08,
          "phone": "d_E"
        }
      ],
      "start": 8.389999,
      "startOffset": 152,
      "word": "WOULD"
    },
    {
      "alignedWord": "lodge",
      "case": "success",
      "end": 8.929999,
      "endOffset": 163,
      "phones": [
        {
          "duration": 0.09,
          "phone": "l_B"
        },
        {
          "duration": 0.12,
          "phone": "aa_I"
        },
        {
          "duration": 0.12,
          "phone": "jh_E"
        }
      ],
      "start": 8.599999,
      "startOffset": 158,
      "word": "LODGE"
    },
    {
      "alignedWord": "with",
      "case": "success",
      "end": 9.13,
      "endOffset": 168,
      "phones": [
        {
          "duration": 0.07,
          "phone": "w_B"
        },
        {
          "duration": 0.04,
          "phone": "ih_I"
        },
        {
          "duration": 0.06,
          "phone": "th_E"
        }
      ],
      "start": 8.96,
      "startOffset": 164,
      "word": "WITH"
    },
    {
      "alignedWord": "a",
      "case": "success",
      "end": 9.279999,
      "endOffset": 170,
      "phones": [
        {
          "duration": 0.14,
          "phone": "ey_S"
        }
      ],
      "start": 9.139999,
      "startOffset": 169,
      "word": "A"
    },
    {
      "alignedWord": "relation",
      "case": "success",
      "end": 9.79,
      "endOffset": 179,
      "phones": [
        {
          "duration": 0.05,
          "phone": "r_B"
        },
        {
          "duration": 0.09,
          "phone": "iy_I"
        },
        {
          "duration": 0.08,
          "phone": "l_I"
        },
        {
          "duration": 0.08,
          "phone": "ey_I"
        },
        {
          "duration": 0.1,
          "phone": "sh_I"
        },
        {
          "duration": 0.05,
          "phone": "ah_I"
        },
        {
          "duration": 0.06,
          "phone": "n_E"
        }
      ],
      "start": 9.28,
      "startOffset": 171,
      "word": "RELATION"
    },
    {
      "alignedWord": "in",
      "case": "success",
      "end": 9.909999999999998,
      "endOffset": 182,
      "phones": [
        {
          "duration": 0.06,
          "phone": "ih_B"
        },
        {
          "duration": 0.06,
          "phone": "n_E"
        }
      ],
      "start": 9.79,
      "startOffset": 180,
      "word": "IN"
    },
    {
      "alignedWord": "the",
      "case": "success",
      "end": 10.04,
      "endOffset": 186,
      "phones": [
        {
          "duration": 0.06,
          "phone": "dh_B"
        },
        {
          "duration": 0.06,
          "phone": "ah_E"
        }
      ],
      "start": 9.92,
      "startOffset": 183,
      "word": "THE"
    },
    {
      "alignedWord": "next",
      "case": "success",
      "end": 10.329999999999998,
      "endOffset": 191,
      "phones": [
        {
          "duration": 0.06,
          "phone": "n_B"
        },
        {
          "duration": 0.06,
          "phone": "eh_I"
        },
        {
          "duration": 0.09,
          "phone": "k_I"
        },
        {
          "duration": 0.02,
          "phone": "s_I"
        },
        {
          "duration": 0.06,
          "phone": "t_E"
        }
      ],
      "start": 10.04,
      "startOffset": 187,
      "word": "NEXT"
    },
    {
      "alignedWord": "village",
      "case": "success",
      "end": 10.72,
      "endOffset": 199,
      "phones": [
        {
          "duration": 0.08,
          "phone": "v_B"
        },
        {
          "duration": 0.07,
          "phone": "ih_I"
        },
        {
          "duration": 0.06,
          "phone": "l_I"
        },
        {
          "duration": 0.07,
          "phone": "ih_I"
        },
        {
          "duration": 0.11,
          "phone": "jh_E"
        }
      ],
      "start": 10.33,
      "startOffset": 192,
      "word": "VILLAGE"
    },
    {
      "alignedWord": "and",
      "case": "success",
      "end": 10.92,
      "endOffset": 203,
      "phones": [
        {
          "duration": 0.06,
          "phone": "ae_B"
        },
        {
          "duration": 0.06,
          "phone": "n_I"
        },
        {
          "duration": 0.06,
          "phone": "d_E"
        }
      ],
      "start": 10.74,
      "startOffset": 200,
      "word": "AND"
    },
    {
      "alignedWord": "went",
      "case": "success",
      "end": 11.18,
      "endOffset": 208,
      "phones": [
        {
          "duration": 0.05,
          "phone": "w_B"
        },
        {
          "duration": 0.06,
          "phone": "eh_I"
        },
        {
          "duration": 0.07,
          "phone": "n_I"
        },
        {
          "duration": 0.08,
          "phone": "t_E"
        }
      ],
      "start": 10.92,
      "startOffset": 204,
      "word": "WENT"
    },
    {
      "alignedWord": "away",
      "case": "success",
      "end": 11.639999000000001,
      "endOffset": 213,
      "phones": [
        {
          "duration": 0.07,
          "phone": "ah_B"
        },
        {
          "duration": 0.1,
          "phone": "w_I"
        },
        {
          "duration": 0.29,
          "phone": "ey_E"
        }
      ],
      "start": 11.179999,
      "startOffset": 209,
      "word": "AWAY"
    },
    {
      "alignedWord": "the",
      "case": "success",
      "end": 12.709999999999999,
      "endOffset": 217,
      "phones": [
        {
          "duration": 0.12,
          "phone": "dh_B"
        },
        {
          "duration": 0.05,
          "phone": "ah_E"
        }
      ],
      "start": 12.54,
      "startOffset": 214,
      "word": "THE"
    },
    {
      "alignedWord": "visitor",
      "case": "success",
      "end": 13.25,
      "endOffset": 225,
      "phones": [
        {
          "duration": 0.08,
          "phone": "v_B"
        },
        {
          "duration": 0.06,
          "phone": "ih_I"
        },
        {
          "duration": 0.04,
          "phone": "z_I"
        },
        {
          "duration": 0.13,
          "phone": "ih_I"
        },
        {
          "duration": 0.1,
          "phone": "t_I"
        },
        {
          "duration": 0.13,
          "phone": "er_E"
        }
      ],
      "start": 12.71,
      "startOffset": 218,
      "word": "VISITOR"
    },
    {
      "alignedWord": "was",
      "case": "success",
      "end": 13.5,
      "endOffset": 229,
      "phones": [
        {
          "duration": 0.08,
          "phone": "w_B"
        },
        {
          "duration": 0.07,
          "phone": "ah_I"
        },
        {
          "duration": 0.1,
          "phone": "z_E"
        }
      ],
      "start": 13.25,
      "startOffset": 226,
      "word": "WAS"
    },
    {
      "alignedWord": "more",
      "case": "success",
      "end": 13.899999000000001,
      "endOffset": 234,
      "phones": [
        {
          "duration": 0.15,
          "phone": "m_B"
        },
        {
          "duration": 0.14,
          "phone": "ao_I"
        },
        {
          "duration": 0.1,
          "phone": "r_E"
        }
      ],
      "start": 13.509999,
      "startOffset": 230,
      "word": "MORE"
    },
    {
      "alignedWord": "and",
      "case": "success",
      "end": 14.07,
      "endOffset": 238,
      "phones": [
        {
          "duration": 0.08,
          "phone": "ae_B"
        },
        {
          "duration": 0.08,
          "phone": "n_I"
        },
        {
          "duration": 0.01,
          "phone": "d_E"
        }
      ],
      "start": 13.9,
      "startOffset": 235,
      "word": "AND"
    },
    {
      "alignedWord": "more",
      "case": "success",
      "end": 14.39,
      "endOffset": 243,
      "phones": [
        {
          "duration": 0.1,
          "phone": "m_B"
        },
        {
          "duration": 0.12,
          "phone": "ao_I"
        },
        {
          "duration": 0.09,
          "phone": "r_E"
        }
      ],
      "start": 14.08,
      "startOffset": 239,
      "word": "MORE"
    },
    {
      "alignedWord": "lost",
      "case": "success",
      "end": 14.73,
      "endOffset": 248,
      "phones": [
        {
          "duration": 0.11,
          "phone": "l_B"
        },
        {
          "duration": 0.08,
          "phone": "ao_I"
        },
        {
          "duration": 0.09,
          "phone": "s_I"
        },
        {
          "duration": 0.05,
          "phone": "t_E"
        }
      ],
      "start": 14.4,
      "startOffset": 244,
      "word": "LOST"
    },
    {
      "alignedWord": "in",
      "case": "success",
      "end": 14.93,
      "endOffset": 251,
      "phones": [
        {
          "duration": 0.1,
          "phone": "ih_B"
        },
        {
          "duration": 0.09,
          "phone": "n_E"
        }
      ],
      "start": 14.74,
      "startOffset": 249,
      "word": "IN"
    },
    {
      "alignedWord": "amazement",
      "case": "success",
      "end": 15.519999,
      "endOffset": 261,
      "phones": [
        {
          "duration": 0.04,
          "phone": "ah_B"
        },
        {
          "duration": 0.1,
          "phone": "m_I"
        },
        {
          "duration": 0.12,
          "phone": "ey_I"
        },
        {
          "duration": 0.08,
          "phone": "z_I"
        },
        {
          "duration": 0.05,
          "phone": "m_I"
        },
        {
          "duration": 0.07,
          "phone": "ah_I"
        },
        {
          "duration": 0.05,
          "phone": "n_I"
        },
        {
          "duration": 0.08,
          "phone": "t_E"
        }
      ],
      "start": 14.929999,
      "startOffset": 252,
      "word": "AMAZEMENT"
    },
    {
      "alignedWord": "and",
      "case": "success",
      "end": 15.899999999999999,
      "endOffset": 265,
      "phones": [
        {
          "duration": 0.18,
          "phone": "ae_B"
        },
        {
          "duration": 0.09,
          "phone": "n_I"
        },
        {
          "duration": 0.09,
          "phone": "d_E"
        }
      ],
      "start": 15.54,
      "startOffset": 262,
      "word": "AND"
    }
  ]
}