{
  "transcript": "HAD UNDERTAKEN TO PREPARE FOR COLLEGE AND IT HAD BEEN A GREAT DELIGHT TO HER TO HAVE THE LATTER PLACED WITH HER IN ONE OR TWO SPECIAL CLASSES JULIA'S LIKING FOR HER HAD MADE EDITH TAKE A LITTLE MORE INTEREST IN HER THAN WOULD OTHERWISE HAVE BEEN THE CASE",
  "words": [
    {
      "alignedWord": "had",
      "case": "success",
      "end": 0.35,
      "endOffset": 3,
      "phones": [
        {
          "duration": 0.07,
          "phone": "hh_B"
        },
        {
          "duration": 0.05,
          "phone": "ae_I"
        },
        {
          "duration": 0.05,
          "phone": "d_E"
        }
      ],
      "start": 0.18,
      "startOffset": 0,
      "word": "HAD"
    },
    {
      "alignedWord": "<unk>",
      "case": "success",
      "end": 1.12,
      "endOffset": 14,
      "phones": [
        {
          "duration": 0.73,
          "phone": "oov_S"
        }
      ],
      "start": 0.39,
      "startOffset": 4,
      "word": "UNDERTAKEN"
    },
    {
      "alignedWord": "to",
      "case": "success",
      "end": 1.1900000000000002,
      "endOffset": 17,
      "phones": [
        {
          "duration": 0.01,
          "phone": "t_B"
        },
        {
          "duration": 0.06,
          "phone": "uw_E"
        }
      ],
      "start": 1.12,
      "startOffset": 15,
      "word": "TO"
    },
    {
      "alignedWord": "prepare",
      "case": "success",
      "end": 1.65,
      "endOffset": 25,
      "phones": [
        {
          "duration": 0.06,
          "phone": "p_B"
        },
        {
          "duration": 0.03,
          "phone": "r_I"
        },
        {
          "duration": 0.07,
          "phone": "iy_I"
        },
        {
          "duration": 0.09,
          "phone": "p_I"
        },
        {
          "duration": 0.12,
          "phone": "eh_I"
        },
        {
          "duration": 0.09,
          "phone": "r_E"
        }
      ],
      "start": 1.19,
      "startOffset": 18,
      "word": "PREPARE"
    },
    {
      "alignedWord": "for",
      "case": "success",
      "end": 1.7999999999999998,
      "endOffset": 29,
      "phones": [
        {
          "duration": 0.07,
          "phone": "f_B"
        },
        {
          "duration": 0.08,
          "phone": "er_E"
        }
      ],
      "start": 1.65,
      "startOffset": 26,
      "word": "FOR"
    },
    {
      "alignedWord": "college",
      "case": "success",
      "end": 2.39,
      "endOffset": 37,
      "phones": [
        {
          "duration": 0.11,
          "phone": "k_B"
        },
        {
          "duration": 0.14,
          "phone": "aa_I"
        },
        {
          "duration": 0.09,
          "phone": "l_I"
        },
        {
          "duration": 0.09,
          "phone": "ih_I"
        },
        {
          "duration": 0.16,
          "phone": "jh_E"
        }
      ],
      "start": 1.8,
      "startOffset": 30,
      "word": "COLLEGE"
    },
    {
      "alignedWord": "and",
      "case": "success",
      "end": 2.98,
      "endOffset": 41,
      "phones": [
        {
          "duration": 0.2,
          "phone": "ae_B"
        },
        {
          "duration": 0.06,
          "phone": "n_I"
        },
        {
          "duration": 0.05,
          "phone": "d_E"
        }
      ],
      "start": 2.67,
      "startOffset": 38,
      "word": "AND"
    },
    {
      "alignedWord": "it",
      "case": "success",
      "end": 3.09,
      "endOffset": 44,
      "phones": [
        {
          "duration": 0.06,
          "phone": "ih_B"
        },
        {
          "duration": 0.05,
          "phone": "t_E"
        }
      ],
      "start": 2.98,
      "startOffset": 42,
      "word": "IT"
    },
    {
      "alignedWord": "had",
      "case": "success",
      "end": 3.28,
      "endOffset": 48,
      "phones": [
        {
          "duration": 0.05,
          "phone": "hh_B"
        },
        {
          "duration": 0.05,
          "phone": "ae_I"
        },
        {
          "duration": 0.09,
          "phone": "d_E"
        }
      ],
      "start": 3.09,
      "startOffset": 45,
      "word": "HAD"
    },
    {
      "alignedWord": "been",
      "case": "success",
      "end": 3.46,
      "endOffset": 53,
      "phones": [
        {
          "duration": 0.04,
          "phone": "b_B"
        },
        {
          "duration": 0.06,
          "phone": "ih_I"
        },
        {
          "duration": 0.08,
          "phone": "n_E"
        }
      ],
      "start": 3.28,
      "startOffset": 49,
      "word": "BEEN"
    },
    {
      "alignedWord": "a",
      "case": "success",
      "end": 3.5,
      "endOffset": 55,
      "phones": [
        {
          "duration": 0.04,
          "phone": "ah_S"
        }
      ],
      "start": 3.46,
      "startOffset": 54,
      "word": "A"
    },
    {
      "alignedWord": "great",
      "case": "success",
      "end": 3.8,
      "endOffset": 61,
      "phones": [
        {
          "duration": 0.08,
          "phone": "g_B"
        },
        {
          "duration": 0.09,
          "phone": "r_I"
        },
        {
          "duration": 0.07,
          "phone": "ey_I"
        },
        {
          "duration": 0.06,
          "phone": "t_E"
        }
      ],
      "start": 3.5,
      "startOffset": 56,
      "word": "GREAT"
    },
    {
      "alignedWord": "delight",
      "case": "success",
      "end": 4.25,
      "endOffset": 69,
      "phones": [
        {
          "duration": 0.06,
          "phone": "d_B"
        },
        {
          "duration": 0.09,
          "phone": "ih_I"
        },
        {
          "duration": 0.1,
          "phone": "l_I"
        },
        {
          "duration": 0.1,
          "phone": "ay_I"
        },
        {
          "duration": 0.09,
          "phone": "t_E"
        }
      ],
      "start": 3.81,
      "startOffset": 62,
      "word": "DELIGHT"
    },
    {
      "alignedWord": "to",
      "case": "success",
      "end": 4.39,
      "endOffset": 72,
      "phones": [
        {
          "duration": 0.03,
          "phone": "t_B"
        },
        {
          "duration": 0.11,
          "phone": "uw_E"
        }
      ],
      "start": 4.25,
      "startOffset": 70,
      "word": "TO"
    },
    {
      "alignedWord": "her",
      "case": "success",
      "end": 4.699999999999999,
      "endOffset": 76,
      "phones": [
        {
          "duration": 0.11,
          "phone": "hh_B"
        },
        {
          "duration": 0.2,
          "phone": "er_E"
        }
      ],
      "start": 4.39,
      "startOffset": 73,
      "word": "HER"
    },
    {
      "alignedWord": "to",
      "case": "success",
      "end": 4.86,
      "endOffset": 79,
      "phones": [
        {
          "duration": 0.07,
          "phone": "t_B"
        },
        {
          "duration": 0.08,
          "phone": "ah_E"
        }
      ],
      "start": 4.71,
      "startOffset": 77,
      "word": "TO"
    },
    {
      "alignedWord": "have",
      "case": "success",
      "end": 5.1000000000000005,
      "endOffset": 84,
      "phones": [
        {
          "duration": 0.07,
          "phone": "hh_B"
        },
        {
          "duration": 0.09,
          "phone": "ae_I"
        },
        {
          "duration": 0.08,
          "phone": "v_E"
        }
      ],
      "start": 4.86,
      "startOffset": 80,
      "word": "HAVE"
    },
    {
      "alignedWord": "the",
      "case": "success",
      "end": 5.1899999999999995,
      "endOffset": 88,
      "phones": [
        {
          "duration": 0.01,
          "phone": "dh_B"
        },
        {
          "duration": 0.08,
          "phone": "ah_E"
        }
      ],
      "start": 5.1,
      "startOffset": 85,
      "word": "THE"
    },
    {
      "alignedWord": "latter",
      "case": "success",
      "end": 5.6000000000000005,
      "endOffset": 95,
      "phones": [
        {
          "duration": 0.1,
          "phone": "l_B"
        },
        {
          "duration": 0.09,
          "phone": "ae_I"
        },
        {
          "duration": 0.08,
          "phone": "t_I"
        },
        {
          "duration": 0.14,
          "phone": "er_E"
        }
      ],
      "start": 5.19,
      "startOffset": 89,
      "word": "LATTER"
    },
    {
      "alignedWord": "placed",
      "case": "success",
      "end": 5.99,
      "endOffset": 102,
      "phones": [
        {
          "duration": 0.07,
          "phone": "p_B"
        },
        {
          "duration": 0.1,
          "phone": "l_I"
        },
        {
          "duration": 0.07,
          "phone": "ey_I"
        },
        {
          "duration": 0.06,
          "phone": "s_I"
        },
        {
          "duration": 0.07,
          "phone": "t_E"
        }
      ],
      "start": 5.62,
      "startOffset": 96,
      "word": "PLACED"
    },
    {
      "alignedWord": "with",
      "case": "success",
      "end": 6.16,
      "endOffset": 107,
      "phones": [
        {
          "duration": 0.04,
          "phone": "w_B"
        },
        {
          "duration": 0.04,
          "phone": "ih_I"
        },
        {
          "duration": 0.09,
          "phone": "th_E"
        }
      ],
      "start": 5.99,
      "startOffset": 103,
      "word": "WITH"
    },
    {
      "alignedWord": "her",
      "case": "success",
      "end": 6.5,
      "endOffset": 111,
      "phones": [
        {
          "duration": 0.07,
          "phone": "hh_B"
        },
        {
          "duration": 0.27,
          "phone": "er_E"
        }
      ],
      "start": 6.16,
      "startOffset": 108,
      "word": "HER"
    },
    {
      "alignedWord": "in",
      "case": "success",
      "end": 6.74,
      "endOffset": 114,
      "phones": [
        {
          "duration": 0.14,
          "phone": "ih_B"
        },
        {
          "duration": 0.09,
          "phone": "n_E"
        }
      ],
      "start": 6.51,
      "startOffset": 112,
      "word": "IN"
    },
    {
      "alignedWord": "one",
      "case": "success",
      "end": 6.970000000000001,
      "endOffset": 118,
      "phones": [
        {
          "duration": 0.09,
          "phone": "w_B"
        },
        {
          "duration": 0.07,
          "phone": "ah_I"
        },
        {
          "duration": 0.07,
          "phone": "n_E"
        }
      ],
      "start": 6.74,
      "startOffset": 115,
      "word": "ONE"
    },
    {
      "alignedWord": "or",
      "case": "success",
      "end": 7.029999999999999,
      "endOffset": 121,
      "phones": [
        {
          "duration": 0.06,
          "phone": "er_S"
        }
      ],
      "start": 6.97,
      "startOffset": 119,
      "word": "OR"
    },
    {
      "alignedWord": "two",
      "case": "success",
      "end": 7.2700000000000005,
      "endOffset": 125,
      "phones": [
        {
          "duration": 0.1,
          "phone": "t_B"
        },
        {
          "duration": 0.14,
          "phone": "uw_E"
        }
      ],
      "start": 7.03,
      "startOffset": 122,
      "word": "TWO"
    },
    {
      "alignedWord": "special",
      "case": "success",
      "end": 7.6899999999999995,
      "endOffset": 133,
      "phones": [
        {
          "duration": 0.07,
          "phone": "s_B"
        },
        {
          "duration": 0.07,
          "phone": "p_I"
        },
        {
          "duration": 0.08,
          "phone": "eh_I"
        },
        {
          "duration": 0.08,
          "phone": "sh_I"
        },
        {
          "duration": 0.07,
          "phone": "ah_I"
        },
        {
          "duration": 0.05,
          "phone": "l_E"
        }
      ],
      "start": 7.27,
      "startOffset": 126,
      "word": "SPECIAL"
    },
    {
      "alignedWord": "classes",
      "case": "success",
      "end": 8.42,
      "endOffset": 141,
      "phones": [
        {
          "duration": 0.1,
          "phone": "k_B"
        },
        {
          "duration": 0.09,
          "phone": "l_I"
        },
        {
          "duration": 0.15,
          "phone": "ae_I"
        },
        {
          "duration": 0.11,
          "phone": "s_I"
        },
        {
          "duration": 0.1,
          "phone": "ih_I"
        },
        {
          "duration": 0.18,
          "phone": "z_E"
        }
      ],
      "start": 7.69,
      "startOffset": 134,
      "word": "CLASSES"
    },
    {
      "alignedWord": "<unk>",
      "case": "success",
      "end": 9.5,
      "endOffset": 149,
      "phones": [
        {
          "duration": 0.48,
          "phone": "oov_S"
        }
      ],
      "start": 9.02,
      "startOffset": 142,
      "word": "JULIA'S"
    },
    {
      "alignedWord": "liking",
      "case": "success",
      "end": 10.049999999999999,
      "endOffset": 156,
      "phones": [
        {
          "duration": 0.13,
          "phone": "l_B"
        },
        {
          "duration": 0.1,
          "phone": "ay_I"
        },
        {
          "duration": 0.08,
          "phone": "k_I"
        },
        {
          "duration": 0.1,
          "phone": "ih_I"
        },
        {
          "duration": 0.11,
          "phone": "ng_E"
        }
      ],
      "start": 9.53,
      "startOffset": 150,
      "word": "LIKING"
    },
    {
      "alignedWord": "for",
      "case": "success",
      "end": 10.270000000000001,
      "endOffset": 160,
      "phones": [
        {
          "duration": 0.09,
          "phone": "f_B"
        },
        {
          "duration": 0.07,
          "phone": "ao_I"
        },
        {
          "duration": 0.06,
          "phone": "r_E"
        }
      ],
      "start": 10.05,
      "startOffset": 157,
      "word": "FOR"
    },
    {
      "alignedWord": "her",
      "case": "success",
      "end": 10.629999999999999,
      "endOffset": 164,
      "phones": [
        {
          "duration": 0.13,
          "phone": "hh_B"
        },
        {
          "duration": 0.23,
          "phone": "er_E"
        }
      ],
      "start": 10.27,
      "startOffset": 161,
      "word": "HER"
    },
    {
      "alignedWord": "had",
      "case": "success",
      "end": 10.869999,
      "endOffset": 168,
      "phones": [
        {
          "duration": 0.08,
          "phone": "hh_B"
        },
        {
          "duration": 0.07,
          "phone": "ae_I"
        },
        {
          "duration": 0.08,
          "phone": "d_E"
        }
      ],
      "start": 10.639999,
      "startOffset": 165,
      "word": "HAD"
    },
    {
      "alignedWord": "made",
      "case": "success",
      "end": 11.11,
      "endOffset": 173,
      "phones": [
        {
          "duration": 0.08,
          "phone": "m_B"
        },
        {
          "duration": 0.08,
          "phone": "ey_I"
        },
        {
          "duration": 0.08,
          "phone": "d_E"
        }
      ],
      "start": 10.87,
      "startOffset": 169,
      "word": "MADE"
    },
    {
      "alignedWord": "edith",
      "case": "success",
      "end": 11.54,
      "endOffset": 179,
      "phones": [
        {
          "duration": 0.15,
          "phone": "iy_B"
        },
        {
          "duration": 0.05,
          "phone": "d_I"
        },
        {
          "duration": 0.09,
          "phone": "ih_I"
        },
        {
          "duration": 0.13,
          "phone": "th_E"
        }
      ],
      "start": 11.12,
      "startOffset": 174,
      "word": "EDITH"
    },
    {
      "alignedWord": "take",
      "case": "success",
      "end": 11.77,
      "endOffset": 184,
      "phones": [
        {
          "duration": 0.05,
          "phone": "t_B"
        },
        {
          "duration": 0.1,
          "phone": "ey_I"
        },
        {
          "duration": 0.08,
          "phone": "k_E"
        }
      ],
      "start": 11.54,
      "startOffset": 180,
      "word": "TAKE"
    },
    {
      "alignedWord": "a",
      "case": "success",
      "end": 11.83,
      "endOffset": 186,
      "phones": [
        {
          "duration": 0.06,
          "phone": "ah_S"
        }
      ],
      "start": 11.77,
      "startOffset": 185,
      "word": "A"
    },
    {
      "alignedWord": "little",
      "case": "success",
      "end": 12.05,
      "endOffset": 193,
      "phones": [
        {
          "duration": 0.06,
          "phone": "l_B"
        },
        {
          "duration": 0.04,
          "phone": "ih_I"
        },
        {
          "duration": 0.03,
          "phone": "t_I"
        },
        {
          "duration": 0.04,
          "phone": "ah_I"
        },
        {
          "duration": 0.05,
          "phone": "l_E"
        }
      ],
      "start": 11.83,
      "startOffset": 187,
      "word": "LITTLE"
    },
    {
      "alignedWord": "more",
      "case": "success",
      "end": 12.270000000000001,
      "endOffset": 198,
      "phones": [
        {
          "duration": 0.07,
          "phone": "m_B"
        },
        {
          "duration": 0.06,
          "phone": "ao_I"
        },
        {
          "duration": 0.09,
          "phone": "r_E"
        }
      ],
      "start": 12.05,
      "startOffset": 194,
      "word": "MORE"
    },
    {
      "alignedWord": "interest",
      "case": "success",
      "end": 12.709999999999999,
      "endOffset": 207,
      "phones": [
        {
          "duration": 0.12,
          "phone": "ih_B"
        },
        {
          "duration": 0.04,
          "phone": "n_I"
        },
        {
          "duration": 0.05,
          "phone": "t_I"
        },
        {
          "duration": 0.07,
          "phone": "r_I"
        },
        {
          "duration": 0.04,
          "phone": "ih_I"
        },
        {
          "duration": 0.05,
          "phone": "s_I"
        },
        {
          "duration": 0.06,
          "phone": "t_E"
        }
      ],
      "start": 12.28,
      "startOffset": 199,
      "word": "INTEREST"
    },
    {
      "alignedWord": "in",
      "case": "success",
      "end": 12.850000000000001,
      "endOffset": 210,
      "phones": [
        {
          "duration": 0.06,
          "phone": "ih_B"
        },
        {
          "duration": 0.08,
          "phone": "n_E"
        }
      ],
      "start": 12.71,
      "startOffset": 208,
      "word": "IN"
    },
    {
      "alignedWord": "her",
      "case": "success",
      "end": 13.159999000000001,
      "endOffset": 214,
      "phones": [
        {
          "duration": 0.09,
          "phone": "hh_B"
        },
        {
          "duration": 0.22,
          "phone": "er_E"
        }
      ],
      "start": 12.849999,
      "startOffset": 211,
      "word": "HER"
    },
    {
      "alignedWord": "than",
      "case": "success",
      "end": 13.68,
      "endOffset": 219,
      "phones": [
        {
          "duration": 0.08,
          "phone": "dh_B"
        },
        {
          "duration": 0.08,
          "phone": "ah_I"
        },
        {
          "duration": 0.08,
          "phone": "n_E"
        }
      ],
      "start": 13.44,
      "startOffset": 215,
      "word": "THAN"
    },
    {
      "alignedWord": "would",
      "case": "success",
      "end": 13.869999,
      "endOffset": 225,
      "phones": [
        {
          "duration": 0.06,
          "phone": "w_B"
        },
        {
          "duration": 0.05,
          "phone": "uh_I"
        },
        {
          "duration": 0.08,
          "phone": "d_E"
        }
      ],
      "start": 13.679999,
      "startOffset": 220,
      "word": "WOULD"
    },
    {
      "alignedWord": "otherwise",
      "case": "success",
      "end": 14.5,
      "endOffset": 235,
      "phones": [
        {
          "duration": 0.1,
          "phone": "ah_B"
        },
        {
          "duration": 0.08,
          "phone": "dh_I"
        },
        {
          "duration": 0.08,
          "phone": "er_I"
        },
        {
          "duration": 0.12,
          "phone": "w_I"
        },
        {
          "duration": 0.17,
          "phone": "ay_I"
        },
        {
          "duration": 0.07,
          "phone": "z_E"
        }
      ],
      "start": 13.88,
      "startOffset": 226,
      "word": "OTHERWISE"
    },
    {
      "alignedWord": "have",
      "case": "success",
      "end": 14.67,
      "endOffset": 240,
      "phones": [
        {
          "duration": 0.07,
          "phone": "hh_B"
        },
        {
          "duration": 0.04,
          "phone": "ae_I"
        },
        {
          "duration": 0.06,
          "phone": "v_E"
        }
      ],
      "start": 14.5,
      "startOffset": 236,
      "word": "HAVE"
    },
    {
      "alignedWord": "been",
      "case": "success",
      "end": 14.87,
      "endOffset": 245,
      "phones": [
        {
          "duration": 0.05,
          "phone": "b_B"
        },
        {
          "duration": 0.08,
          "phone": "ih_I"
        },
        {
          "duration": 0.07,
          "phone": "n_E"
        }
      ],
      "start": 14.67,
      "startOffset": 241,
      "word": "BEEN"
    },
    {
      "alignedWord": "the",
      "case": "success",
      "end": 14.979999999999999,
      "endOffset": 249,
      "phones": [
        {
          "duration": 0.05,
          "phone": "dh_B"
        },
        {
          "duration": 0.06,
          "phone": "ah_E"
        }
      ],
      "start": 14.87,
      "startOffset": 246,
      "word": "THE"
    },
    {
      "alignedWord": "case",
      "case": "success",
      "end": 15.52,
      "endOffset": 254,
      "phones": [
        {
          "duration": 0.14,
          "phone": "k_B"
        },
        {
          "duration": 0.2,
          "phone": "ey_I"
        },
        {
          "duration": 0.2,
          "phone": "s_E"
        }
      ],
      "start": 14.98,
      "startOffset": 250,
      "word": "CASE"
    }
  ]
}