{
  "transcript": "HE HAD BEEN POINTED OUT AS A VERY SUCCESSFUL AND WELL KNOWN MAN ABOUT TOWN HURSTWOOD LOOKED THE PART FOR BESIDES BEING SLIGHTLY UNDER FORTY HE HAD A GOOD STOUT CONSTITUTION AN ACTIVE MANNER AND A SOLID SUBSTANTIAL AIR",
  "words": [
    {
      "alignedWord": "he",
      "case": "success",
      "end": 0.39,
      "endOffset": 2,
      "phones": [
        {
          "duration": 0.27,
          "phone": "hh_B"
        },
        {
          "duration": 0.02,
          "phone": "iy_E"
        }
      ],
      "start": 0.1,
      "startOffset": 0,
      "word": "HE"
    },
    {
      "alignedWord": "had",
      "case": "success",
      "end": 0.5,
      "endOffset": 6,
      "phones": [
        {
          "duration": 0.01,
          "phone": "hh_B"
        },
        {
          "duration": 0.02,
          "phone": "ae_I"
        },
        {
          "duration": 0.08,
          "phone": "d_E"
        }
      ],
      "start": 0.39,
      "startOffset": 3,
      "word": "HAD"
    },
    {
      "alignedWord": "been",
      "case": "success",
      "end": 0.66,
      "endOffset": 11,
      "phones": [
        {
          "duration": 0.03,
          "phone": "b_B"
        },
        {
          "duration": 0.06,
          "phone": "ih_I"
        },
        {
          "duration": 0.07,
          "phone": "n_E"
        }
      ],
      "start": 0.5,
      "startOffset": 7,
      "word": "BEEN"
    },
    {
      "alignedWord": "pointed",
      "case": "success",
      "end": 1.04,
      "endOffset": 19,
      "phones": [
        {
          "duration": 0.08,
          "phone": "p_B"
        },
        {
          "duration": 0.1,
          "phone": "oy_I"
        },
        {
          "duration": 0.05,
          "phone": "n_I"
        },
        {
          "duration": 0.06,
          "phone": "t_I"
        },
        {
          "duration": 0.04,
          "phone": "ih_I"
        },
        {
          "duration": 0.05,
          "phone": "d_E"
        }
      ],
      "start": 0.66,
      "startOffset": 12,
      "word": "POINTED"
    },
    {
      "alignedWord": "out",
      "case": "success",
      "end": 1.21,
      "endOffset": 23,
      "phones": [
        {
          "duration": 0.11,
          "phone": "aw_B"
        },
        {
          "duration": 0.06,
          "phone": "t_E"
        }
      ],
      "start": 1.04,
      "startOffset": 20,
      "word": "OUT"
    },
    {
      "alignedWord": "as",
      "case": "success",
      "end": 1.33,
      "endOffset": 26,
      "phones": [
        {
          "duration": 0.06,
          "phone": "eh_B"
        },
        {
          "duration": 0.06,
          "phone": "z_E"
        }
      ],
      "start": 1.21,
      "startOffset": 24,
      "word": "AS"
    },
    {
      "alignedWord": "a",
      "case": "success",
      "end": 1.37,
      "endOffset": 28,
      "phones": [
        {
          "duration": 0.04,
          "phone": "ah_S"
        }
      ],
      "start": 1.33,
      "startOffset": 27,
      "word": "A"
    },
    {
      "alignedWord": "very",
      "case": "success",
      "end": 1.6300000000000001,
      "endOffset": 33,
      "phones": [
        {
          "duration": 0.04,
          "phone": "v_B"
        },
        {
          "duration": 0.08,
          "phone": "eh_I"
        },
        {
          "duration": 0.07,
          "phone": "r_I"
        },
        {
          "duration": 0.07,
          "phone": "iy_E"
        }
      ],
      "start": 1.37,
      "startOffset": 29,
      "word": "VERY"
    },
    {
      "alignedWord": "successful",
      "case": "success",
      "end": 2.26,
      "endOffset": 44,
      "phones": [
        {
          "duration": 0.05,
          "phone": "s_B"
        },
        {
          "duration": 0.07,
          "phone": "ah_I"
        },
        {
          "duration": 0.07,
          "phone": "k_I"
        },
        {
          "duration": 0.09,
          "phone": "s_I"
        },
        {
          "duration": 0.11,
          "phone": "eh_I"
        },
        {
          "duration": 0.07,
          "phone": "s_I"
        },
        {
          "duration": 0.08,
          "phone": "f_I"
        },
        {
          "duration": 0.04,
          "phone": "ah_I"
        },
        {
          "duration": 0.05,
          "phone": "l_E"
        }
      ],
      "start": 1.63,
      "startOffset": 34,
      "word": "SUCCESSFUL"
    },
    {
      "alignedWord": "and",
      "case": "success",
      "end": 2.3899999999999997,
      "endOffset": 48,
      "phones": [
        {
          "duration": 0.06,
          "phone": "ah_B"
        },
        {
          "duration": 0.01,
          "phone": "n_I"
        },
        {
          "duration": 0.06,
          "phone": "d_E"
        }
      ],
      "start": 2.26,
      "startOffset": 45,
      "word": "AND"
    },
    {
      "alignedWord": "well",
      "case": "success",
      "end": 2.6,
      "endOffset": 53,
      "phones": [
        {
          "duration": 0.05,
          "phone": "w_B"
        },
        {
          "duration": 0.08,
          "phone": "eh_I"
        },
        {
          "duration": 0.08,
          "phone": "l_E"
        }
      ],
      "start": 2.39,
      "startOffset": 49,
      "word": "WELL"
    },
    {
      "alignedWord": "known",
      "case": "success",
      "end": 2.83,
      "endOffset": 59,
      "phones": [
        {
          "duration": 0.06,
          "phone": "n_B"
        },
        {
          "duration": 0.08,
          "phone": "ow_I"
        },
        {
          "duration": 0.09,
          "phone": "n_E"
        }
      ],
      "start": 2.6,
      "startOffset": 54,
      "word": "KNOWN"
    },
    {
      "alignedWord": "man",
      "case": "success",
      "end": 3.15,
      "endOffset": 63,
      "phones": [
        {
          "duration": 0.08,
          "phone": "m_B"
        },
        {
          "duration": 0.19,
          "phone": "ae_I"
        },
        {
          "duration": 0.05,
          "phone": "n_E"
        }
      ],
      "start": 2.83,
      "startOffset": 60,
      "word": "MAN"
    },
    {
      "alignedWord": "about",
      "case": "success",
      "end": 3.43,
      "endOffset": 69,
      "phones": [
        {
          "duration": 0.05,
          "phone": "ah_B"
        },
        {
          "duration": 0.06,
          "phone": "b_I"
        },
        {
          "duration": 0.07,
          "phone": "aw_I"
        },
        {
          "duration": 0.09,
          "phone": "t_E"
        }
      ],
      "start": 3.16,
      "startOffset": 64,
      "word": "ABOUT"
    },
    {
      "alignedWord": "town",
      "case": "success",
      "end": 3.95,
      "endOffset": 74,
      "phones": [
        {
          "duration": 0.08,
          "phone": "t_B"
        },
        {
          "duration": 0.24,
          "phone": "aw_I"
        },
        {
          "duration": 0.2,
          "phone": "n_E"
        }
      ],
      "start": 3.43,
      "startOffset": 70,
      "word": "TOWN"
    },
    {
      "alignedWord": "<unk>",
      "case": "success",
      "end": 5.11,
      "endOffset": 84,
      "phones": [
        {
          "duration": 0.45,
          "phone": "oov_S"
        }
      ],
      "start": 4.66,
      "startOffset": 75,
      "word": "HURSTWOOD"
    },
    {
      "alignedWord": "looked",
      "case": "success",
      "end": 5.38,
      "endOffset": 91,
      "phones": [
        {
          "duration": 0.1,
          "phone": "l_B"
        },
        {
          "duration": 0.05,
          "phone": "uh_I"
        },
        {
          "duration": 0.06,
          "phone": "k_I"
        },
        {
          "duration": 0.04,
          "phone": "t_E"
        }
      ],
      "start": 5.13,
      "startOffset": 85,
      "word": "LOOKED"
    },
    {
      "alignedWord": "the",
      "case": "success",
      "end": 5.51,
      "endOffset": 95,
      "phones": [
        {
          "duration": 0.07,
          "phone": "dh_B"
        },
        {
          "duration": 0.05,
          "phone": "ah_E"
        }
      ],
      "start": 5.39,
      "startOffset": 92,
      "word": "THE"
    },
    {
      "alignedWord": "part",
      "case": "success",
      "end": 5.91,
      "endOffset": 100,
      "phones": [
        {
          "duration": 0.08,
          "phone": "p_B"
        },
        {
          "duration": 0.13,
          "phone": "aa_I"
        },
        {
          "duration": 0.09,
          "phone": "r_I"
        },
        {
          "duration": 0.1,
          "phone": "t_E"
        }
      ],
      "start": 5.51,
      "startOffset": 96,
      "word": "PART"
    },
    {
      "alignedWord": "for",
      "case": "success",
      "end": 6.49,
      "endOffset": 104,
      "phones": [
        {
          "duration": 0.13,
          "phone": "f_B"
        },
        {
          "duration": 0.1,
          "phone": "ao_I"
        },
        {
          "duration": 0.11,
          "phone": "r_E"
        }
      ],
      "start": 6.15,
      "startOffset": 101,
      "word": "FOR"
    },
    {
      "alignedWord": "besides",
      "case": "success",
      "end": 7.029999999999999,
      "endOffset": 112,
      "phones": [
        {
          "duration": 0.08,
          "phone": "b_B"
        },
        {
          "duration": 0.06,
          "phone": "ih_I"
        },
        {
          "duration": 0.1,
          "phone": "s_I"
        },
        {
          "duration": 0.13,
          "phone": "ay_I"
        },
        {
          "duration": 0.09,
          "phone": "d_I"
        },
        {
          "duration": 0.06,
          "phone": "z_E"
        }
      ],
      "start": 6.51,
      "startOffset": 105,
      "word": "BESIDES"
    },
    {
      "alignedWord": "being",
      "case": "success",
      "end": 7.34,
      "endOffset": 118,
      "phones": [
        {
          "duration": 0.09,
          "phone": "b_B"
        },
        {
          "duration": 0.04,
          "phone": "iy_I"
        },
        {
          "duration": 0.07,
          "phone": "ih_I"
        },
        {
          "duration": 0.1,
          "phone": "ng_E"
        }
      ],
      "start": 7.04,
      "startOffset": 113,
      "word": "BEING"
    },
    {
      "alignedWord": "slightly",
      "case": "success",
      "end": 7.84,
      "endOffset": 127,
      "phones": [
        {
          "duration": 0.11,
          "phone": "s_B"
        },
        {
          "duration": 0.08,
          "phone": "l_I"
        },
        {
          "duration": 0.09,
          "phone": "ay_I"
        },
        {
          "duration": 0.09,
          "phone": "t_I"
        },
        {
          "duration": 0.06,
          "phone": "l_I"
        },
        {
          "duration": 0.07,
          "phone": "iy_E"
        }
      ],
      "start": 7.34,
      "startOffset": 119,
      "word": "SLIGHTLY"
    },
    {
      "alignedWord": "under",
      "case": "success",
      "end": 8.08,
      "endOffset": 133,
      "phones": [
        {
          "duration": 0.06,
          "phone": "ah_B"
        },
        {
          "duration": 0.06,
          "phone": "n_I"
        },
        {
          "duration": 0.06,
          "phone": "d_I"
        },
        {
          "duration": 0.06,
          "phone": "er_E"
        }
      ],
      "start": 7.84,
      "startOffset": 128,
      "word": "UNDER"
    },
    {
      "alignedWord": "forty",
      "case": "success",
      "end": 8.58,
      "endOffset": 139,
      "phones": [
        {
          "duration": 0.1,
          "phone": "f_B"
        },
        {
          "duration": 0.12,
          "phone": "ao_I"
        },
        {
          "duration": 0.01,
          "phone": "r_I"
        },
        {
          "duration": 0.07,
          "phone": "t_I"
        },
        {
          "duration": 0.2,
          "phone": "iy_E"
        }
      ],
      "start": 8.08,
      "startOffset": 134,
      "word": "FORTY"
    },
    {
      "alignedWord": "he",
      "case": "success",
      "end": 8.79,
      "endOffset": 142,
      "phones": [
        {
          "duration": 0.12,
          "phone": "hh_B"
        },
        {
          "duration": 0.08,
          "phone": "iy_E"
        }
      ],
      "start": 8.59,
      "startOffset": 140,
      "word": "HE"
    },
    {
      "alignedWord": "had",
      "case": "success",
      "end": 8.92,
      "endOffset": 146,
      "phones": [
        {
          "duration": 0.02,
          "phone": "hh_B"
        },
        {
          "duration": 0.06,
          "phone": "ae_I"
        },
        {
          "duration": 0.05,
          "phone": "d_E"
        }
      ],
      "start": 8.79,
      "startOffset": 143,
      "word": "HAD"
    },
    {
      "alignedWord": "a",
      "case": "success",
      "end": 8.98,
      "endOffset": 148,
      "phones": [
        {
          "duration": 0.06,
          "phone": "ah_S"
        }
      ],
      "start": 8.92,
      "startOffset": 147,
      "word": "A"
    },
    {
      "alignedWord": "good",
      "case": "success",
      "end": 9.4,
      "endOffset": 153,
      "phones": [
        {
          "duration": 0.13,
          "phone": "g_B"
        },
        {
          "duration": 0.13,
          "phone": "uh_I"
        },
        {
          "duration": 0.16,
          "phone": "d_E"
        }
      ],
      "start": 8.98,
      "startOffset": 149,
      "word": "GOOD"
    },
    {
      "alignedWord": "stout",
      "case": "success",
      "end": 9.9,
      "endOffset": 159,
      "phones": [
        {
          "duration": 0.19,
          "phone": "s_B"
        },
        {
          "duration": 0.07,
          "phone": "t_I"
        },
        {
          "duration": 0.12,
          "phone": "aw_I"
        },
        {
          "duration": 0.11,
          "phone": "t_E"
        }
      ],
      "start": 9.41,
      "startOffset": 154,
      "word": "STOUT"
    },
    {
      "alignedWord": "constitution",
      "case": "success",
      "end": 10.84,
      "endOffset": 172,
      "phones": [
        {
          "duration": 0.09,
          "phone": "k_B"
        },
        {
          "duration": 0.08,
          "phone": "aa_I"
        },
        {
          "duration": 0.06,
          "phone": "n_I"
        },
        {
          "duration": 0.07,
          "phone": "s_I"
        },
        {
          "duration": 0.07,
          "phone": "t_I"
        },
        {
          "duration": 0.06,
          "phone": "ah_I"
        },
        {
          "duration": 0.09,
          "phone": "t_I"
        },
        {
          "duration": 0.09,
          "phone": "uw_I"
        },
        {
          "duration": 0.09,
          "phone": "sh_I"
        },
        {
          "duration": 0.07,
          "phone": "ah_I"
        },
        {
          "duration": 0.17,
          "phone": "n_E"
        }
      ],
      "start": 9.9,
      "startOffset": 160,
      "word": "CONSTITUTION"
    },
    {
      "alignedWord": "an",
      "case": "success",
      "end": 11.299999999999999,
      "endOffset": 175,
      "phones": [
        {
          "duration": 0.1,
          "phone": "ah_B"
        },
        {
          "duration": 0.08,
          "phone": "n_E"
        }
      ],
      "start": 11.12,
      "startOffset": 173,
      "word": "AN"
    },
    {
      "alignedWord": "active",
      "case": "success",
      "end": 11.709999,
      "endOffset": 182,
      "phones": [
        {
          "duration": 0.12,
          "phone": "ae_B"
        },
        {
          "duration": 0.08,
          "phone": "k_I"
        },
        {
          "duration": 0.06,
          "phone": "t_I"
        },
        {
          "duration": 0.07,
          "phone": "ih_I"
        },
        {
          "duration": 0.07,
          "phone": "v_E"
        }
      ],
      "start": 11.309999,
      "startOffset": 176,
      "word": "ACTIVE"
    },
    {
      "alignedWord": "manner",
      "case": "success",
      "end": 12.23,
      "endOffset": 189,
      "phones": [
        {
          "duration": 0.08,
          "phone": "m_B"
        },
        {
          "duration": 0.11,
          "phone": "ae_I"
        },
        {
          "duration": 0.09,
          "phone": "n_I"
        },
        {
          "duration": 0.24,
          "phone": "er_E"
        }
      ],
      "start": 11.71,
      "startOffset": 183,
      "word": "MANNER"
    },
    {
      "alignedWord": "and",
      "case": "success",
      "end": 12.41,
      "endOffset": 193,
      "phones": [
        {
          "duration": 0.09,
          "phone": "ah_B"
        },
        {
          "duration": 0.04,
          "phone": "n_I"
        },
        {
          "duration": 0.04,
          "phone": "d_E"
        }
      ],
      "start": 12.24,
      "startOffset": 190,
      "word": "AND"
    },
    {
      "alignedWord": "a",
      "case": "success",
      "end": 12.47,
      "endOffset": 195,
      "phones": [
        {
          "duration": 0.06,
          "phone": "ah_S"
        }
      ],
      "start": 12.41,
      "startOffset": 194,
      "word": "A"
    },
    {
      "alignedWord": "solid",
      "case": "success",
      "end": 12.999998999999999,
      "endOffset": 201,
      "phones": [
        {
          "duration": 0.17,
          "phone": "s_B"
        },
        {
          "duration": 0.1,
          "phone": "aa_I"
        },
        {
          "duration": 0.09,
          "phone": "l_I"
        },
        {
          "duration": 0.09,
          "phone": "ah_I"
        },
        {
          "duration": 0.08,
          "phone": "d_E"
        }
      ],
      "start": 12.469999,
      "startOffset": 196,
      "word": "SOLID"
    },
    {
      "alignedWord": "substantial",
      "case": "success",
      "end": 13.7,
      "endOffset": 213,
      "phones": [
        {
          "duration": 0.07,
          "phone": "s_B"
        },
        {
          "duration": 0.04,
          "phone": "ah_I"
        },
        {
          "duration": 0.1,
          "phone": "b_I"
        },
        {
          "duration": 0.04,
          "phone": "s_I"
        },
        {
          "duration": 0.08,
          "phone": "t_I"
        },
        {
          "duration": 0.09,
          "phone": "ae_I"
        },
        {
          "duration": 0.07,
          "phone": "n_I"
        },
        {
          "duration": 0.05,
          "phone": "sh_I"
        },
        {
          "duration": 0.09,
          "phone": "ah_I"
        },
        {
          "duration": 0.07,
          "phone": "l_E"
        }
      ],
      "start": 13.0,
      "startOffset": 202,
      "word": "SUBSTANTIAL"
    },
    {
      "alignedWord": "air",
      "case": "success",
      "end": 14.0,
      "endOffset": 217,
      "phones": [
        {
          "duration": 0.16,
          "phone": "eh_B"
        },
        {
          "duration": 0.14,
          "phone": "r_E"
        }
      ],
      "start": 13.7,
      "startOffset": 214,
      "word": "AIR"
    }
  ]
}