{
  "transcript": "UNDER THE SERENE LIGHT OF THE ETERNAL STARS MUST SEEM A STRANGE AND SHINY THING UNDER THE STARS AND SWEEPING NIGHT WINDS WHAT A LAMP FLOWER IT MUST BLOOM A",
  "words": [
    {
      "alignedWord": "under",
      "case": "success",
      "end": 0.43000000000000005,
      "endOffset": 5,
      "phones": [
        {
          "duration": 0.06,
          "phone": "ah_B"
        },
        {
          "duration": 0.08,
          "phone": "n_I"
        },
        {
          "duration": 0.06,
          "phone": "d_I"
        },
        {
          "duration": 0.08,
          "phone": "er_E"
        }
      ],
      "start": 0.15,
      "startOffset": 0,
      "word": "UNDER"
    },
    {
      "alignedWord": "the",
      "case": "success",
      "end": 0.56,
      "endOffset": 9,
      "phones": [
        {
          "duration": 0.04,
          "phone": "dh_B"
        },
        {
          "duration": 0.09,
          "phone": "ah_E"
        }
      ],
      "start": 0.43,
      "startOffset": 6,
      "word": "THE"
    },
    {
      "alignedWord": "serene",
      "case": "success",
      "end": 1.02,
      "endOffset": 16,
      "phones": [
        {
          "duration": 0.14,
          "phone": "s_B"
        },
        {
          "duration": 0.12,
          "phone": "er_I"
        },
        {
          "duration": 0.11,
          "phone": "iy_I"
        },
        {
          "duration": 0.09,
          "phone": "n_E"
        }
      ],
      "start": 0.56,
      "startOffset": 10,
      "word": "SERENE"
    },
    {
      "alignedWord": "light",
      "case": "success",
      "end": 1.3,
      "endOffset": 22,
      "phones": [
        {
          "duration": 0.07,
          "phone": "l_B"
        },
        {
          "duration": 0.12,
          "phone": "ay_I"
        },
        {
          "duration": 0.09,
          "phone": "t_E"
        }
      ],
      "start": 1.02,
      "startOffset": 17,
      "word": "LIGHT"
    },
    {
      "alignedWord": "of",
      "case": "success",
      "end": 1.4500000000000002,
      "endOffset": 25,
      "phones": [
        {
          "duration": 0.07,
          "phone": "ah_B"
        },
        {
          "duration": 0.07,
          "phone": "v_E"
        }
      ],
      "start": 1.31,
      "startOffset": 23,
      "word": "OF"
    },
    {
      "alignedWord": "the",
      "case": "success",
      "end": 1.5699999999999998,
      "endOffset": 29,
      "phones": [
        {
          "duration": 0.04,
          "phone": "dh_B"
        },
        {
          "duration": 0.08,
          "phone": "iy_E"
        }
      ],
      "start": 1.45,
      "startOffset": 26,
      "word": "THE"
    },
    {
      "alignedWord": "eternal",
      "case": "success",
      "end": 1.92,
      "endOffset": 37,
      "phones": [
        {
          "duration": 0.02,
          "phone": "ih_B"
        },
        {
          "duration": 0.11,
          "phone": "t_I"
        },
        {
          "duration": 0.09,
          "phone": "er_I"
        },
        {
          "duration": 0.03,
          "phone": "n_I"
        },
        {
          "duration": 0.06,
          "phone": "ah_I"
        },
        {
          "duration": 0.04,
          "phone": "l_E"
        }
      ],
      "start": 1.57,
      "startOffset": 30,
      "word": "ETERNAL"
    },
    {
      "alignedWord": "stars",
      "case": "success",
      "end": 2.4699999999999998,
      "endOffset": 43,
      "phones": [
        {
          "duration": 0.08,
          "phone": "s_B"
        },
        {
          "duration": 0.08,
          "phone": "t_I"
        },
        {
          "duration": 0.12,
          "phone": "aa_I"
        },
        {
          "duration": 0.14,
          "phone": "r_I"
        },
        {
          "duration": 0.13,
          "phone": "z_E"
        }
      ],
      "start": 1.92,
      "startOffset": 38,
      "word": "STARS"
    },
    {
      "alignedWord": "must",
      "case": "success",
      "end": 3.0200000000000005,
      "endOffset": 48,
      "phones": [
        {
          "duration": 0.12,
          "phone": "m_B"
        },
        {
          "duration": 0.08,
          "phone": "ah_I"
        },
        {
          "duration": 0.07,
          "phone": "s_I"
        },
        {
          "duration": 0.01,
          "phone": "t_E"
        }
      ],
      "start": 2.74,
      "startOffset": 44,
      "word": "MUST"
    },
    {
      "alignedWord": "seem",
      "case": "success",
      "end": 3.31,
      "endOffset": 53,
      "phones": [
        {
          "duration": 0.14,
          "phone": "s_B"
        },
        {
          "duration": 0.09,
          "phone": "iy_I"
        },
        {
          "duration": 0.06,
          "phone": "m_E"
        }
      ],
      "start": 3.02,
      "startOffset": 49,
      "word": "SEEM"
    },
    {
      "alignedWord": "a",
      "case": "success",
      "end": 3.37,
      "endOffset": 55,
      "phones": [
        {
          "duration": 0.06,
          "phone": "ah_S"
        }
      ],
      "start": 3.31,
      "startOffset": 54,
      "word": "A"
    },
    {
      "alignedWord": "strange",
      "case": "success",
      "end": 4.16,
      "endOffset": 63,
      "phones": [
        {
          "duration": 0.12,
          "phone": "s_B"
        },
        {
          "duration": 0.13,
          "phone": "t_I"
        },
        {
          "duration": 0.1,
          "phone": "r_I"
        },
        {
          "duration": 0.2,
          "phone": "ey_I"
        },
        {
          "duration": 0.13,
          "phone": "n_I"
        },
        {
          "duration": 0.11,
          "phone": "jh_E"
        }
      ],
      "start": 3.37,
      "startOffset": 56,
      "word": "STRANGE"
    },
    {
      "alignedWord": "and",
      "case": "success",
      "end": 4.37,
      "endOffset": 67,
      "phones": [
        {
          "duration": 0.07,
          "phone": "ae_B"
        },
        {
          "duration": 0.06,
          "phone": "n_I"
        },
        {
          "duration": 0.07,
          "phone": "d_E"
        }
      ],
      "start": 4.17,
      "startOffset": 64,
      "word": "AND"
    },
    {
      "alignedWord": "shiny",
      "case": "success",
      "end": 4.79,
      "endOffset": 73,
      "phones": [
        {
          "duration": 0.13,
          "phone": "sh_B"
        },
        {
          "duration": 0.14,
          "phone": "ay_I"
        },
        {
          "duration": 0.07,
          "phone": "n_I"
        },
        {
          "duration": 0.08,
          "phone": "iy_E"
        }
      ],
      "start": 4.37,
      "startOffset": 68,
      "word": "SHINY"
    },
    {
      "alignedWord": "thing",
      "case": "success",
      "end": 5.27,
      "endOffset": 79,
      "phones": [
        {
          "duration": 0.08,
          "phone": "th_B"
        },
        {
          "duration": 0.13,
          "phone": "ih_I"
        },
        {
          "duration": 0.27,
          "phone": "ng_E"
        }
      ],
      "start": 4.79,
      "startOffset": 74,
      "word": "THING"
    },
    {
      "alignedWord": "under",
      "case": "success",
      "end": 6.45,
      "endOffset": 85,
      "phones": [
        {
          "duration": 0.11,
          "phone": "ah_B"
        },
        {
          "duration": 0.06,
          "phone": "n_I"
        },
        {
          "duration": 0.07,
          "phone": "d_I"
        },
        {
          "duration": 0.06,
          "phone": "er_E"
        }
      ],
      "start": 6.15,
      "startOffset": 80,
      "word": "UNDER"
    },
    {
      "alignedWord": "the",
      "case": "success",
      "end": 6.5600000000000005,
      "endOffset": 89,
      "phones": [
        {
          "duration": 0.04,
          "phone": "dh_B"
        },
        {
          "duration": 0.07,
          "phone": "ah_E"
        }
      ],
      "start": 6.45,
      "startOffset": 86,
      "word": "THE"
    },
    {
      "alignedWord": "stars",
      "case": "success",
      "end": 7.09,
      "endOffset": 95,
      "phones": [
        {
          "duration": 0.07,
          "phone": "s_B"
        },
        {
          "duration": 0.09,
          "phone": "t_I"
        },
        {
          "duration": 0.16,
          "phone": "aa_I"
        },
        {
          "duration": 0.14,
          "phone": "r_I"
        },
        {
          "duration": 0.07,
          "phone": "z_E"
        }
      ],
      "start": 6.56,
      "startOffset": 90,
      "word": "STARS"
    },
    {
      "alignedWord": "and",
      "case": "success",
      "end": 7.25,
      "endOffset": 99,
      "phones": [
        {
          "duration": 0.05,
          "phone": "ah_B"
        },
        {
          "duration": 0.04,
          "phone": "n_I"
        },
        {
          "duration": 0.07,
          "phone": "d_E"
        }
      ],
      "start": 7.09,
      "startOffset": 96,
      "word": "AND"
    },
    {
      "alignedWord": "sweeping",
      "case": "success",
      "end": 7.75,
      "endOffset": 108,
      "phones": [
        {
          "duration": 0.14,
          "phone": "s_B"
        },
        {
          "duration": 0.07,
          "phone": "w_I"
        },
        {
          "duration": 0.06,
          "phone": "iy_I"
        },
        {
          "duration": 0.05,
          "phone": "p_I"
        },
        {
          "duration": 0.06,
          "phone": "ih_I"
        },
        {
          "duration": 0.12,
          "phone": "ng_E"
        }
      ],
      "start": 7.25,
      "startOffset": 100,
      "word": "SWEEPING"
    },
    {
      "alignedWord": "night",
      "case": "success",
      "end": 8.01,
      "endOffset": 114,
      "phones": [
        {
          "duration": 0.01,
          "phone": "n_B"
        },
        {
          "duration": 0.16,
          "phone": "ay_I"
        },
        {
          "duration": 0.09,
          "phone": "t_E"
        }
      ],
      "start": 7.75,
      "startOffset": 109,
      "word": "NIGHT"
    },
    {
      "alignedWord": "winds",
      "case": "success",
      "end": 8.51,
      "endOffset": 120,
      "phones": [
        {
          "duration": 0.08,
          "phone": "w_B"
        },
        {
          "duration": 0.16,
          "phone": "ih_I"
        },
        {
          "duration": 0.08,
          "phone": "n_I"
        },
        {
          "duration": 0.06,
          "phone": "d_I"
        },
        {
          "duration": 0.12,
          "phone": "z_E"
        }
      ],
      "start": 8.01,
      "startOffset": 115,
      "word": "WINDS"
    },
    {
      "alignedWord": "what",
      "case": "success",
      "end": 8.969999999999999,
      "endOffset": 125,
      "phones": [
        {
          "duration": 0.09,
          "phone": "hh_B"
        },
        {
          "duration": 0.08,
          "phone": "w_I"
        },
        {
          "duration": 0.05,
          "phone": "ah_I"
        },
        {
          "duration": 0.05,
          "phone": "t_E"
        }
      ],
      "start": 8.7,
      "startOffset": 121,
      "word": "WHAT"
    },
    {
      "alignedWord": "a",
      "case": "success",
      "end": 9.040000000000001,
      "endOffset": 127,
      "phones": [
        {
          "duration": 0.07,
          "phone": "ah_S"
        }
      ],
      "start": 8.97,
      "startOffset": 126,
      "word": "A"
    },
    {
      "alignedWord": "lamp",
      "case": "success",
      "end": 9.430000000000001,
      "endOffset": 132,
      "phones": [
        {
          "duration": 0.15,
          "phone": "l_B"
        },
        {
          "duration": 0.09,
          "phone": "ae_I"
        },
        {
          "duration": 0.06,
          "phone": "m_I"
        },
        {
          "duration": 0.08,
          "phone": "p_E"
        }
      ],
      "start": 9.05,
      "startOffset": 128,
      "word": "LAMP"
    },
    {
      "alignedWord": "flower",
      "case": "success",
      "end": 9.859999,
      "endOffset": 139,
      "phones": [
        {
          "duration": 0.1,
          "phone": "f_B"
        },
        {
          "duration": 0.06,
          "phone": "l_I"
        },
        {
          "duration": 0.17,
          "phone": "aw_I"
        },
        {
          "duration": 0.1,
          "phone": "er_E"
        }
      ],
      "start": 9.429999,
      "startOffset": 133,
      "word": "FLOWER"
    },
    {
      "alignedWord": "it",
      "case": "success",
      "end": 10.03,
      "endOffset": 142,
      "phones": [
        {
          "duration": 0.08,
          "phone": "ih_B"
        },
        {
          "duration": 0.09,
          "phone": "t_E"
        }
      ],
      "start": 9.86,
      "startOffset": 140,
      "word": "IT"
    },
    {
      "alignedWord": "must",
      "case": "success",
      "end": 10.25,
      "endOffset": 147,
      "phones": [
        {
          "duration": 0.04,
          "phone": "m_B"
        },
        {
          "duration": 0.07,
          "phone": "ah_I"
        },
        {
          "duration": 0.07,
          "phone": "s_I"
        },
        {
          "duration": 0.04,
          "phone": "t_E"
        }
      ],
      "start": 10.03,
      "startOffset": 143,
      "word": "MUST"
    },
    {
      "alignedWord": "bloom",
      "case": "success",
      "end": 10.8,
      "endOffset": 153,
      "phones": [
        {
          "duration": 0.13,
          "phone": "b_B"
        },
        {
          "duration": 0.1,
          "phone": "l_I"
        },
        {
          "duration": 0.15,
          "phone": "uw_I"
        },
        {
          "duration": 0.17,
          "phone": "m_E"
        }
      ],
      "start": 10.25,
      "startOffset": 148,
      "word": "BLOOM"
    },
    {
      "alignedWord": "a",
      "case": "success",
      "end": 10.84,
      "endOffset": 155,
      "phones": [
        {
          "duration": 0.04,
          "phone": "sil"
        }
      ],
      "start": 10.8,
      "startOffset": 154,
      "word": "A"
    }
  ]
}