{
  "transcript": "BUT THAT IF THE PRICE OF DANDY COULD BE REMITTED TO HIM AT ONCE IT WOULD GREATLY FACILITATE HIS OBJECT NOTHING COULD BE MORE DIFFERENT THAN MISTER SOWERBY'S TONE ABOUT MONEY AT DIFFERENT TIMES WHEN HE WANTED TO RAISE THE WIND EVERYTHING WAS SO IMPORTANT",
  "words": [
    {
      "alignedWord": "but",
      "case": "success",
      "end": 0.54,
      "endOffset": 3,
      "phones": [
        {
          "duration": 0.07,
          "phone": "b_B"
        },
        {
          "duration": 0.04,
          "phone": "ah_I"
        },
        {
          "duration": 0.07,
          "phone": "t_E"
        }
      ],
      "start": 0.36,
      "startOffset": 0,
      "word": "BUT"
    },
    {
      "alignedWord": "that",
      "case": "success",
      "end": 0.67,
      "endOffset": 8,
      "phones": [
        {
          "duration": 0.02,
          "phone": "dh_B"
        },
        {
          "duration": 0.05,
          "phone": "ae_I"
        },
        {
          "duration": 0.06,
          "phone": "t_E"
        }
      ],
      "start": 0.54,
      "startOffset": 4,
      "word": "THAT"
    },
    {
      "alignedWord": "if",
      "case": "success",
      "end": 0.8400000000000001,
      "endOffset": 11,
      "phones": [
        {
          "duration": 0.07,
          "phone": "ih_B"
        },
        {
          "duration": 0.1,
          "phone": "f_E"
        }
      ],
      "start": 0.67,
      "startOffset": 9,
      "word": "IF"
    },
    {
      "alignedWord": "the",
      "case": "success",
      "end": 0.95,
      "endOffset": 15,
      "phones": [
        {
          "duration": 0.05,
          "phone": "dh_B"
        },
        {
          "duration": 0.06,
          "phone": "ah_E"
        }
      ],
      "start": 0.84,
      "startOffset": 12,
      "word": "THE"
    },
    {
      "alignedWord": "price",
      "case": "success",
      "end": 1.25,
      "endOffset": 21,
      "phones": [
        {
          "duration": 0.07,
          "phone": "p_B"
        },
        {
          "duration": 0.07,
          "phone": "r_I"
        },
        {
          "duration": 0.1,
          "phone": "ay_I"
        },
        {
          "duration": 0.06,
          "phone": "s_E"
        }
      ],
      "start": 0.95,
      "startOffset": 16,
      "word": "PRICE"
    },
    {
      "alignedWord": "of",
      "case": "success",
      "end": 1.3900000000000001,
      "endOffset": 24,
      "phones": [
        {
          "duration": 0.06,
          "phone": "ah_B"
        },
        {
          "duration": 0.08,
          "phone": "v_E"
        }
      ],
      "start": 1.25,
      "startOffset": 22,
      "word": "OF"
    },
    {
      "alignedWord": "dandy",
      "case": "success",
      "end": 1.8199999999999998,
      "endOffset": 30,
      "phones": [
        {
          "duration": 0.09,
          "phone": "d_B"
        },
        {
          "duration": 0.12,
          "phone": "ae_I"
        },
        {
          "duration": 0.06,
          "phone": "n_I"
        },
        {
          "duration": 0.06,
          "phone": "d_I"
        },
        {
          "duration": 0.1,
          "phone": "iy_E"
        }
      ],
      "start": 1.39,
      "startOffset": 25,
      "word": "DANDY"
    },
    {
      "alignedWord": "could",
      "case": "success",
      "end": 2.0,
      "endOffset": 36,
      "phones": [
        {
          "duration": 0.08,
          "phone": "k_B"
        },
        {
          "duration": 0.04,
          "phone": "uh_I"
        },
        {
          "duration": 0.04,
          "phone": "d_E"
        }
      ],
      "start": 1.84,
      "startOffset": 31,
      "word": "COULD"
    },
    {
      "alignedWord": "be",
      "case": "success",
      "end": 2.15,
      "endOffset": 39,
      "phones": [
        {
          "duration": 0.06,
          "phone": "b_B"
        },
        {
          "duration": 0.08,
          "phone": "iy_E"
        }
      ],
      "start": 2.01,
      "startOffset": 37,
      "word": "BE"
    },
    {
      "alignedWord": "<unk>",
      "case": "success",
      "end": 2.52,
      "endOffset": 48,
      "phones": [
        {
          "duration": 0.37,
          "phone": "oov_S"
        }
      ],
      "start": 2.15,
      "startOffset": 40,
      "word": "REMITTED"
    },
    {
      "alignedWord": "to",
      "case": "success",
      "end": 2.71,
      "endOffset": 51,
      "phones": [
        {
          "duration": 0.08,
          "phone": "t_B"
        },
        {
          "duration": 0.09,
          "phone": "uw_E"
        }
      ],
      "start": 2.54,
      "startOffset": 49,
      "word": "TO"
    },
    {
      "alignedWord": "him",
      "case": "success",
      "end": 2.86,
      "endOffset": 55,
      "phones": [
        {
          "duration": 0.01,
          "phone": "hh_B"
        },
        {
          "duration": 0.06,
          "phone": "ih_I"
        },
        {
          "duration": 0.08,
          "phone": "m_E"
        }
      ],
      "start": 2.71,
      "startOffset": 52,
      "word": "HIM"
    },
    {
      "alignedWord": "at",
      "case": "success",
      "end": 3.02,
      "endOffset": 58,
      "phones": [
        {
          "duration": 0.08,
          "phone": "ae_B"
        },
        {
          "duration": 0.08,
          "phone": "t_E"
        }
      ],
      "start": 2.86,
      "startOffset": 56,
      "word": "AT"
    },
    {
      "alignedWord": "once",
      "case": "success",
      "end": 3.34,
      "endOffset": 63,
      "phones": [
        {
          "duration": 0.07,
          "phone": "w_B"
        },
        {
          "duration": 0.11,
          "phone": "ah_I"
        },
        {
          "duration": 0.07,
          "phone": "n_I"
        },
        {
          "duration": 0.07,
          "phone": "s_E"
        }
      ],
      "start": 3.02,
      "startOffset": 59,
      "word": "ONCE"
    },
    {
      "alignedWord": "it",
      "case": "success",
      "end": 3.48,
      "endOffset": 66,
      "phones": [
        {
          "duration": 0.07,
          "phone": "ih_B"
        },
        {
          "duration": 0.07,
          "phone": "t_E"
        }
      ],
      "start": 3.34,
      "startOffset": 64,
      "word": "IT"
    },
    {
      "alignedWord": "would",
      "case": "success",
      "end": 3.68,
      "endOffset": 72,
      "phones": [
        {
          "duration": 0.06,
          "phone": "w_B"
        },
        {
          "duration": 0.05,
          "phone": "uh_I"
        },
        {
          "duration": 0.09,
          "phone": "d_E"
        }
      ],
      "start": 3.48,
      "startOffset": 67,
      "word": "WOULD"
    },
    {
      "alignedWord": "greatly",
      "case": "success",
      "end": 4.09,
      "endOffset": 80,
      "phones": [
        {
          "duration": 0.05,
          "phone": "g_B"
        },
        {
          "duration": 0.1,
          "phone": "r_I"
        },
        {
          "duration": 0.06,
          "phone": "ey_I"
        },
        {
          "duration": 0.08,
          "phone": "t_I"
        },
        {
          "duration": 0.05,
          "phone": "l_I"
        },
        {
          "duration": 0.07,
          "phone": "iy_E"
        }
      ],
      "start": 3.68,
      "startOffset": 73,
      "word": "GREATLY"
    },
    {
      "alignedWord": "facilitate",
      "case": "success",
      "end": 4.67,
      "endOffset": 91,
      "phones": [
        {
          "duration": 0.06,
          "phone": "f_B"
        },
        {
          "duration": 0.06,
          "phone": "ah_I"
        },
        {
          "duration": 0.09,
          "phone": "s_I"
        },
        {
          "duration": 0.06,
          "phone": "ih_I"
        },
        {
          "duration": 0.07,
          "phone": "l_I"
        },
        {
          "duration": 0.07,
          "phone": "ah_I"
        },
        {
          "duration": 0.08,
          "phone": "t_I"
        },
        {
          "duration": 0.04,
          "phone": "ey_I"
        },
        {
          "duration": 0.05,
          "phone": "t_E"
        }
      ],
      "start": 4.09,
      "startOffset": 81,
      "word": "FACILITATE"
    },
    {
      "alignedWord": "his",
      "case": "success",
      "end": 4.85,
      "endOffset": 95,
      "phones": [
        {
          "duration": 0.05,
          "phone": "hh_B"
        },
        {
          "duration": 0.04,
          "phone": "ih_I"
        },
        {
          "duration": 0.09,
          "phone": "z_E"
        }
      ],
      "start": 4.67,
      "startOffset": 92,
      "word": "HIS"
    },
    {
      "alignedWord": "object",
      "case": "success",
      "end": 5.41,
      "endOffset": 102,
      "phones": [
        {
          "duration": 0.11,
          "phone": "aa_B"
        },
        {
          "duration": 0.07,
          "phone": "b_I"
        },
        {
          "duration": 0.07,
          "phone": "jh_I"
        },
        {
          "duration": 0.08,
          "phone": "eh_I"
        },
        {
          "duration": 0.07,
          "phone": "k_I"
        },
        {
          "duration": 0.16,
          "phone": "t_E"
        }
      ],
      "start": 4.85,
      "startOffset": 96,
      "word": "OBJECT"
    },
    {
      "alignedWord": "nothing",
      "case": "success",
      "end": 7.07,
      "endOffset": 110,
      "phones": [
        {
          "duration": 0.11,
          "phone": "n_B"
        },
        {
          "duration": 0.08,
          "phone": "ah_I"
        },
        {
          "duration": 0.1,
          "phone": "th_I"
        },
        {
          "duration": 0.07,
          "phone": "ih_I"
        },
        {
          "duration": 0.1,
          "phone": "ng_E"
        }
      ],
      "start": 6.61,
      "startOffset": 103,
      "word": "NOTHING"
    },
    {
      "alignedWord": "could",
      "case": "success",
      "end": 7.2,
      "endOffset": 116,
      "phones": [
        {
          "duration": 0.07,
          "phone": "k_B"
        },
        {
          "duration": 0.03,
          "phone": "uh_I"
        },
        {
          "duration": 0.03,
          "phone": "d_E"
        }
      ],
      "start": 7.07,
      "startOffset": 111,
      "word": "COULD"
    },
    {
      "alignedWord": "be",
      "case": "success",
      "end": 7.34,
      "endOffset": 119,
      "phones": [
        {
          "duration": 0.06,
          "phone": "b_B"
        },
        {
          "duration": 0.07,
          "phone": "iy_E"
        }
      ],
      "start": 7.21,
      "startOffset": 117,
      "word": "BE"
    },
    {
      "alignedWord": "more",
      "case": "success",
      "end": 7.49,
      "endOffset": 124,
      "phones": [
        {
          "duration": 0.04,
          "phone": "m_B"
        },
        {
          "duration": 0.06,
          "phone": "ao_I"
        },
        {
          "duration": 0.05,
          "phone": "r_E"
        }
      ],
      "start": 7.34,
      "startOffset": 120,
      "word": "MORE"
    },
    {
      "alignedWord": "different",
      "case": "success",
      "end": 7.970000000000001,
      "endOffset": 134,
      "phones": [
        {
          "duration": 0.06,
          "phone": "d_B"
        },
        {
          "duration": 0.1,
          "phone": "ih_I"
        },
        {
          "duration": 0.08,
          "phone": "f_I"
        },
        {
          "duration": 0.04,
          "phone": "r_I"
        },
        {
          "duration": 0.08,
          "phone": "ah_I"
        },
        {
          "duration": 0.05,
          "phone": "n_I"
        },
        {
          "duration": 0.07,
          "phone": "t_E"
        }
      ],
      "start": 7.49,
      "startOffset": 125,
      "word": "DIFFERENT"
    },
    {
      "alignedWord": "than",
      "case": "success",
      "end": 8.25,
      "endOffset": 139,
      "phones": [
        {
          "duration": 0.09,
          "phone": "dh_B"
        },
        {
          "duration": 0.08,
          "phone": "ah_I"
        },
        {
          "duration": 0.07,
          "phone": "n_E"
        }
      ],
      "start": 8.01,
      "startOffset": 135,
      "word": "THAN"
    },
    {
      "alignedWord": "mister",
      "case": "success",
      "end": 8.5,
      "endOffset": 146,
      "phones": [
        {
          "duration": 0.01,
          "phone": "m_B"
        },
        {
          "duration": 0.06,
          "phone": "ih_I"
        },
        {
          "duration": 0.03,
          "phone": "s_I"
        },
        {
          "duration": 0.08,
          "phone": "t_I"
        },
        {
          "duration": 0.07,
          "phone": "er_E"
        }
      ],
      "start": 8.25,
      "startOffset": 140,
      "word": "MISTER"
    },
    {
      "alignedWord": "<unk>",
      "case": "success",
      "end": 8.96,
      "endOffset": 156,
      "phones": [
        {
          "duration": 0.46,
          "phone": "oov_S"
        }
      ],
      "start": 8.5,
      "startOffset": 147,
      "word": "SOWERBY'S"
    },
    {
      "alignedWord": "tone",
      "case": "success",
      "end": 9.28,
      "endOffset": 161,
      "phones": [
        {
          "duration": 0.09,
          "phone": "t_B"
        },
        {
          "duration": 0.12,
          "phone": "ow_I"
        },
        {
          "duration": 0.08,
          "phone": "n_E"
        }
      ],
      "start": 8.99,
      "startOffset": 157,
      "word": "TONE"
    },
    {
      "alignedWord": "about",
      "case": "success",
      "end": 9.51,
      "endOffset": 167,
      "phones": [
        {
          "duration": 0.05,
          "phone": "ah_B"
        },
        {
          "duration": 0.07,
          "phone": "b_I"
        },
        {
          "duration": 0.05,
          "phone": "aw_I"
        },
        {
          "duration": 0.06,
          "phone": "t_E"
        }
      ],
      "start": 9.28,
      "startOffset": 162,
      "word": "ABOUT"
    },
    {
      "alignedWord": "money",
      "case": "success",
      "end": 9.829999999999998,
      "endOffset": 173,
      "phones": [
        {
          "duration": 0.07,
          "phone": "m_B"
        },
        {
          "duration": 0.08,
          "phone": "ah_I"
        },
        {
          "duration": 0.07,
          "phone": "n_I"
        },
        {
          "duration": 0.07,
          "phone": "iy_E"
        }
      ],
      "start": 9.54,
      "startOffset": 168,
      "word": "MONEY"
    },
    {
      "alignedWord": "at",
      "case": "success",
      "end": 9.94,
      "endOffset": 176,
      "phones": [
        {
          "duration": 0.05,
          "phone": "ae_B"
        },
        {
          "duration": 0.06,
          "phone": "t_E"
        }
      ],
      "start": 9.83,
      "startOffset": 174,
      "word": "AT"
    },
    {
      "alignedWord": "different",
      "case": "success",
      "end": 10.229999999999999,
      "endOffset": 186,
      "phones": [
        {
          "duration": 0.02,
          "phone": "d_B"
        },
        {
          "duration": 0.09,
          "phone": "ih_I"
        },
        {
          "duration": 0.05,
          "phone": "f_I"
        },
        {
          "duration": 0.01,
          "phone": "r_I"
        },
        {
          "duration": 0.06,
          "phone": "ah_I"
        },
        {
          "duration": 0.04,
          "phone": "n_I"
        },
        {
          "duration": 0.02,
          "phone": "t_E"
        }
      ],
      "start": 9.94,
      "startOffset": 177,
      "word": "DIFFERENT"
    },
    {
      "alignedWord": "times",
      "case": "success",
      "end": 10.84,
      "endOffset": 192,
      "phones": [
        {
          "duration": 0.08,
          "phone": "t_B"
        },
        {
          "duration": 0.18,
          "phone": "ay_I"
        },
        {
          "duration": 0.1,
          "phone": "m_I"
        },
        {
          "duration": 0.25,
          "phone": "z_E"
        }
      ],
      "start": 10.23,
      "startOffset": 187,
      "word": "TIMES"
    },
    {
      "alignedWord": "when",
      "case": "success",
      "end": 11.76,
      "endOffset": 197,
      "phones": [
        {
          "duration": 0.1,
          "phone": "w_B"
        },
        {
          "duration": 0.05,
          "phone": "eh_I"
        },
        {
          "duration": 0.03,
          "phone": "n_E"
        }
      ],
      "start": 11.58,
      "startOffset": 193,
      "word": "WHEN"
    },
    {
      "alignedWord": "he",
      "case": "success",
      "end": 11.809999000000001,
      "endOffset": 200,
      "phones": [
        {
          "duration": 0.03,
          "phone": "hh_B"
        },
        {
          "duration": 0.02,
          "phone": "iy_E"
        }
      ],
      "start": 11.759999,
      "startOffset": 198,
      "word": "HE"
    },
    {
      "alignedWord": "wanted",
      "case": "success",
      "end": 12.159999,
      "endOffset": 207,
      "phones": [
        {
          "duration": 0.1,
          "phone": "w_B"
        },
        {
          "duration": 0.08,
          "phone": "ao_I"
        },
        {
          "duration": 0.04,
          "phone": "n_I"
        },
        {
          "duration": 0.08,
          "phone": "ih_I"
        },
        {
          "duration": 0.05,
          "phone": "d_E"
        }
      ],
      "start": 11.809999,
      "startOffset": 201,
      "word": "WANTED"
    },
    {
      "alignedWord": "to",
      "case": "success",
      "end": 12.27,
      "endOffset": 210,
      "phones": [
        {
          "duration": 0.03,
          "phone": "t_B"
        },
        {
          "duration": 0.08,
          "phone": "ah_E"
        }
      ],
      "start": 12.16,
      "startOffset": 208,
      "word": "TO"
    },
    {
      "alignedWord": "raise",
      "case": "success",
      "end": 12.51,
      "endOffset": 216,
      "phones": [
        {
          "duration": 0.09,
          "phone": "r_B"
        },
        {
          "duration": 0.09,
          "phone": "ey_I"
        },
        {
          "duration": 0.06,
          "phone": "z_E"
        }
      ],
      "start": 12.27,
      "startOffset": 211,
      "word": "RAISE"
    },
    {
      "alignedWord": "the",
      "case": "success",
      "end": 12.609999,
      "endOffset": 220,
      "phones": [
        {
          "duration": 0.05,
          "phone": "dh_B"
        },
        {
          "duration": 0.05,
          "phone": "ah_E"
        }
      ],
      "start": 12.509999,
      "startOffset": 217,
      "word": "THE"
    },
    {
      "alignedWord": "wind",
      "case": "success",
      "end": 13.0,
      "endOffset": 225,
      "phones": [
        {
          "duration": 0.07,
          "phone": "w_B"
        },
        {
          "duration": 0.1,
          "phone": "ih_I"
        },
        {
          "duration": 0.09,
          "phone": "n_I"
        },
        {
          "duration": 0.13,
          "phone": "d_E"
        }
      ],
      "start": 12.61,
      "startOffset": 221,
      "word": "WIND"
    },
    {
      "alignedWord": "everything",
      "case": "success",
      "end": 13.719999,
      "endOffset": 236,
      "phones": [
        {
          "duration": 0.11,
          "phone": "eh_B"
        },
        {
          "duration": 0.05,
          "phone": "v_I"
        },
        {
          "duration": 0.03,
          "phone": "r_I"
        },
        {
          "duration": 0.05,
          "phone": "iy_I"
        },
        {
          "duration": 0.06,
          "phone": "th_I"
        },
        {
          "duration": 0.05,
          "phone": "ih_I"
        },
        {
          "duration": 0.07,
          "phone": "ng_E"
        }
      ],
      "start": 13.299999,
      "startOffset": 226,
      "word": "EVERYTHING"
    },
    {
      "alignedWord": "was",
      "case": "success",
      "end": 13.849999,
      "endOffset": 240,
      "phones": [
        {
          "duration": 0.03,
          "phone": "w_B"
        },
        {
          "duration": 0.04,
          "phone": "ah_I"
        },
        {
          "duration": 0.06,
          "phone": "z_E"
        }
      ],
      "start": 13.719999,
      "startOffset": 237,
      "word": "WAS"
    },
    {
      "alignedWord": "so",
      "case": "success",
      "end": 13.999999,
      "endOffset": 243,
      "phones": [
        {
          "duration": 0.08,
          "phone": "s_B"
        },
        {
          "duration": 0.07,
          "phone": "ow_E"
        }
      ],
      "start": 13.849999,
      "startOffset": 241,
      "word": "SO"
    },
    {
      "alignedWord": "important",
      "case": "success",
      "end": 14.53,
      "endOffset": 253,
      "phones": [
        {
          "duration": 0.06,
          "phone": "ih_B"
        },
        {
          "duration": 0.05,
          "phone": "m_I"
        },
        {
          "duration": 0.06,
          "phone": "p_I"
        },
        {
          "duration": 0.08,
          "phone": "ao_I"
        },
        {
          "duration": 0.04,
          "phone": "r_I"
        },
        {
          "duration": 0.05,
          "phone": "t_I"
        },
        {
          "duration": 0.01,
          "phone": "ah_I"
        },
        {
          "duration": 0.03,
          "phone": "n_I"
        },
        {
          "duration": 0.15,
          "phone": "t_E"
        }
      ],
      "start": 14.0,
      "startOffset": 244,
      "word": "IMPORTANT"
    }
  ]
}