{
  "transcript": "FORTY ONE WOMEN REPRESENTING SIXTEEN STATES IN THE UNION MIGHT CREATE A CONSIDERABLE POLITICAL DISLOCATION BUT THESE SAME FORTY ONE WOMEN WERE DETERMINED TO FORCE THE ADMINISTRATION TO TAKE ITS CHOICE IT COULD ALLOW THEM TO CONTINUE THEIR PEACEFUL AGITATION",
  "words": [
    {
      "alignedWord": "forty",
      "case": "success",
      "end": 0.6799999999999999,
      "endOffset": 5,
      "phones": [
        {
          "duration": 0.13,
          "phone": "f_B"
        },
        {
          "duration": 0.09,
          "phone": "ao_I"
        },
        {
          "duration": 0.01,
          "phone": "r_I"
        },
        {
          "duration": 0.06,
          "phone": "t_I"
        },
        {
          "duration": 0.08,
          "phone": "iy_E"
        }
      ],
      "start": 0.31,
      "startOffset": 0,
      "word": "FORTY"
    },
    {
      "alignedWord": "one",
      "case": "success",
      "end": 0.9,
      "endOffset": 9,
      "phones": [
        {
          "duration": 0.06,
          "phone": "w_B"
        },
        {
          "duration": 0.08,
          "phone": "ah_I"
        },
        {
          "duration": 0.08,
          "phone": "n_E"
        }
      ],
      "start": 0.68,
      "startOffset": 6,
      "word": "ONE"
    },
    {
      "alignedWord": "women",
      "case": "success",
      "end": 1.22,
      "endOffset": 15,
      "phones": [
        {
          "duration": 0.06,
          "phone": "w_B"
        },
        {
          "duration": 0.07,
          "phone": "ih_I"
        },
        {
          "duration": 0.04,
          "phone": "m_I"
        },
        {
          "duration": 0.07,
          "phone": "ah_I"
        },
        {
          "duration": 0.08,
          "phone": "n_E"
        }
      ],
      "start": 0.9,
      "startOffset": 10,
      "word": "WOMEN"
    },
    {
      "alignedWord": "representing",
      "case": "success",
      "end": 1.7999999999999998,
      "endOffset": 28,
      "phones": [
        {
          "duration": 0.05,
          "phone": "r_B"
        },
        {
          "duration": 0.04,
          "phone": "eh_I"
        },
        {
          "duration": 0.07,
          "phone": "p_I"
        },
        {
          "duration": 0.01,
          "phone": "r_I"
        },
        {
          "duration": 0.06,
          "phone": "ih_I"
        },
        {
          "duration": 0.05,
          "phone": "z_I"
        },
        {
          "duration": 0.05,
          "phone": "eh_I"
        },
        {
          "duration": 0.06,
          "phone": "n_I"
        },
        {
          "duration": 0.06,
          "phone": "t_I"
        },
        {
          "duration": 0.03,
          "phone": "ih_I"
        },
        {
          "duration": 0.1,
          "phone": "ng_E"
        }
      ],
      "start": 1.22,
      "startOffset": 16,
      "word": "REPRESENTING"
    },
    {
      "alignedWord": "sixteen",
      "case": "success",
      "end": 2.4,
      "endOffset": 36,
      "phones": [
        {
          "duration": 0.07,
          "phone": "s_B"
        },
        {
          "duration": 0.07,
          "phone": "ih_I"
        },
        {
          "duration": 0.07,
          "phone": "k_I"
        },
        {
          "duration": 0.06,
          "phone": "s_I"
        },
        {
          "duration": 0.11,
          "phone": "t_I"
        },
        {
          "duration": 0.11,
          "phone": "iy_I"
        },
        {
          "duration": 0.11,
          "phone": "n_E"
        }
      ],
      "start": 1.8,
      "startOffset": 29,
      "word": "SIXTEEN"
    },
    {
      "alignedWord": "states",
      "case": "success",
      "end": 2.85,
      "endOffset": 43,
      "phones": [
        {
          "duration": 0.09,
          "phone": "s_B"
        },
        {
          "duration": 0.09,
          "phone": "t_I"
        },
        {
          "duration": 0.1,
          "phone": "ey_I"
        },
        {
          "duration": 0.08,
          "phone": "t_I"
        },
        {
          "duration": 0.09,
          "phone": "s_E"
        }
      ],
      "start": 2.4,
      "startOffset": 37,
      "word": "STATES"
    },
    {
      "alignedWord": "in",
      "case": "success",
      "end": 2.97,
      "endOffset": 46,
      "phones": [
        {
          "duration": 0.06,
          "phone": "ih_B"
        },
        {
          "duration": 0.06,
          "phone": "n_E"
        }
      ],
      "start": 2.85,
      "startOffset": 44,
      "word": "IN"
    },
    {
      "alignedWord": "the",
      "case": "success",
      "end": 3.08,
      "endOffset": 50,
      "phones": [
        {
          "duration": 0.06,
          "phone": "dh_B"
        },
        {
          "duration": 0.05,
          "phone": "iy_E"
        }
      ],
      "start": 2.97,
      "startOffset": 47,
      "word": "THE"
    },
    {
      "alignedWord": "union",
      "case": "success",
      "end": 3.49,
      "endOffset": 56,
      "phones": [
        {
          "duration": 0.06,
          "phone": "y_B"
        },
        {
          "duration": 0.09,
          "phone": "uw_I"
        },
        {
          "duration": 0.04,
          "phone": "n_I"
        },
        {
          "duration": 0.06,
          "phone": "y_I"
        },
        {
          "duration": 0.07,
          "phone": "ah_I"
        },
        {
          "duration": 0.09,
          "phone": "n_E"
        }
      ],
      "start": 3.08,
      "startOffset": 51,
      "word": "UNION"
    },
    {
      "alignedWord": "might",
      "case": "success",
      "end": 3.7800000000000002,
      "endOffset": 62,
      "phones": [
        {
          "duration": 0.06,
          "phone": "m_B"
        },
        {
          "duration": 0.14,
          "phone": "ay_I"
        },
        {
          "duration": 0.09,
          "phone": "t_E"
        }
      ],
      "start": 3.49,
      "startOffset": 57,
      "word": "MIGHT"
    },
    {
      "alignedWord": "create",
      "case": "success",
      "end": 4.21,
      "endOffset": 69,
      "phones": [
        {
          "duration": 0.1,
          "phone": "k_B"
        },
        {
          "duration": 0.09,
          "phone": "r_I"
        },
        {
          "duration": 0.09,
          "phone": "iy_I"
        },
        {
          "duration": 0.09,
          "phone": "ey_I"
        },
        {
          "duration": 0.06,
          "phone": "t_E"
        }
      ],
      "start": 3.78,
      "startOffset": 63,
      "word": "CREATE"
    },
    {
      "alignedWord": "a",
      "case": "success",
      "end": 4.3100000000000005,
      "endOffset": 71,
      "phones": [
        {
          "duration": 0.08,
          "phone": "ah_S"
        }
      ],
      "start": 4.23,
      "startOffset": 70,
      "word": "A"
    },
    {
      "alignedWord": "considerable",
      "case": "success",
      "end": 5.029999999999999,
      "endOffset": 84,
      "phones": [
        {
          "duration": 0.06,
          "phone": "k_B"
        },
        {
          "duration": 0.05,
          "phone": "ah_I"
        },
        {
          "duration": 0.07,
          "phone": "n_I"
        },
        {
          "duration": 0.1,
          "phone": "s_I"
        },
        {
          "duration": 0.06,
          "phone": "ih_I"
        },
        {
          "duration": 0.04,
          "phone": "d_I"
        },
        {
          "duration": 0.1,
          "phone": "er_I"
        },
        {
          "duration": 0.05,
          "phone": "ah_I"
        },
        {
          "duration": 0.05,
          "phone": "b_I"
        },
        {
          "duration": 0.05,
          "phone": "ah_I"
        },
        {
          "duration": 0.09,
          "phone": "l_E"
        }
      ],
      "start": 4.31,
      "startOffset": 72,
      "word": "CONSIDERABLE"
    },
    {
      "alignedWord": "political",
      "case": "success",
      "end": 5.55,
      "endOffset": 94,
      "phones": [
        {
          "duration": 0.05,
          "phone": "p_B"
        },
        {
          "duration": 0.08,
          "phone": "ah_I"
        },
        {
          "duration": 0.08,
          "phone": "l_I"
        },
        {
          "duration": 0.03,
          "phone": "ih_I"
        },
        {
          "duration": 0.04,
          "phone": "t_I"
        },
        {
          "duration": 0.05,
          "phone": "ih_I"
        },
        {
          "duration": 0.02,
          "phone": "k_I"
        },
        {
          "duration": 0.09,
          "phone": "ah_I"
        },
        {
          "duration": 0.07,
          "phone": "l_E"
        }
      ],
      "start": 5.04,
      "startOffset": 85,
      "word": "POLITICAL"
    },
    {
      "alignedWord": "<unk>",
      "case": "success",
      "end": 6.359999999999999,
      "endOffset": 106,
      "phones": [
        {
          "duration": 0.81,
          "phone": "oov_S"
        }
      ],
      "start": 5.55,
      "startOffset": 95,
      "word": "DISLOCATION"
    },
    {
      "alignedWord": "but",
      "case": "success",
      "end": 7.18,
      "endOffset": 110,
      "phones": [
        {
          "duration": 0.07,
          "phone": "b_B"
        },
        {
          "duration": 0.07,
          "phone": "ah_I"
        },
        {
          "duration": 0.07,
          "phone": "t_E"
        }
      ],
      "start": 6.97,
      "startOffset": 107,
      "word": "BUT"
    },
    {
      "alignedWord": "these",
      "case": "success",
      "end": 7.47,
      "endOffset": 116,
      "phones": [
        {
          "duration": 0.06,
          "phone": "dh_B"
        },
        {
          "duration": 0.15,
          "phone": "iy_I"
        },
        {
          "duration": 0.08,
          "phone": "z_E"
        }
      ],
      "start": 7.18,
      "startOffset": 111,
      "word": "THESE"
    },
    {
      "alignedWord": "same",
      "case": "success",
      "end": 7.91,
      "endOffset": 121,
      "phones": [
        {
          "duration": 0.14,
          "phone": "s_B"
        },
        {
          "duration": 0.18,
          "phone": "ey_I"
        },
        {
          "duration": 0.12,
          "phone": "m_E"
        }
      ],
      "start": 7.47,
      "startOffset": 117,
      "word": "SAME"
    },
    {
      "alignedWord": "forty",
      "case": "success",
      "end": 8.24,
      "endOffset": 127,
      "phones": [
        {
          "duration": 0.08,
          "phone": "f_B"
        },
        {
          "duration": 0.11,
          "phone": "ao_I"
        },
        {
          "duration": 0.01,
          "phone": "r_I"
        },
        {
          "duration": 0.05,
          "phone": "t_I"
        },
        {
          "duration": 0.08,
          "phone": "iy_E"
        }
      ],
      "start": 7.91,
      "startOffset": 122,
      "word": "FORTY"
    },
    {
      "alignedWord": "one",
      "case": "success",
      "end": 8.51,
      "endOffset": 131,
      "phones": [
        {
          "duration": 0.07,
          "phone": "w_B"
        },
        {
          "duration": 0.1,
          "phone": "ah_I"
        },
        {
          "duration": 0.1,
          "phone": "n_E"
        }
      ],
      "start": 8.24,
      "startOffset": 128,
      "word": "ONE"
    },
    {
      "alignedWord": "women",
      "case": "success",
      "end": 8.86,
      "endOffset": 137,
      "phones": [
        {
          "duration": 0.05,
          "phone": "w_B"
        },
        {
          "duration": 0.08,
          "phone": "ih_I"
        },
        {
          "duration": 0.04,
          "phone": "m_I"
        },
        {
          "duration": 0.08,
          "phone": "ah_I"
        },
        {
          "duration": 0.1,
          "phone": "n_E"
        }
      ],
      "start": 8.51,
      "startOffset": 132,
      "word": "WOMEN"
    },
    {
      "alignedWord": "were",
      "case": "success",
      "end": 8.969999999999999,
      "endOffset": 142,
      "phones": [
        {
          "duration": 0.07,
          "phone": "w_B"
        },
        {
          "duration": 0.04,
          "phone": "er_E"
        }
      ],
      "start": 8.86,
      "startOffset": 138,
      "word": "WERE"
    },
    {
      "alignedWord": "determined",
      "case": "success",
      "end": 9.57,
      "endOffset": 153,
      "phones": [
        {
          "duration": 0.06,
          "phone": "d_B"
        },
        {
          "duration": 0.07,
          "phone": "ih_I"
        },
        {
          "duration": 0.12,
          "phone": "t_I"
        },
        {
          "duration": 0.11,
          "phone": "er_I"
        },
        {
          "duration": 0.03,
          "phone": "m_I"
        },
        {
          "duration": 0.07,
          "phone": "ah_I"
        },
        {
          "duration": 0.06,
          "phone": "n_I"
        },
        {
          "duration": 0.08,
          "phone": "d_E"
        }
      ],
      "start": 8.97,
      "startOffset": 143,
      "word": "DETERMINED"
    },
    {
      "alignedWord": "to",
      "case": "success",
      "end": 9.74,
      "endOffset": 156,
      "phones": [
        {
          "duration": 0.08,
          "phone": "t_B"
        },
        {
          "duration": 0.05,
          "phone": "ah_E"
        }
      ],
      "start": 9.61,
      "startOffset": 154,
      "word": "TO"
    },
    {
      "alignedWord": "force",
      "case": "success",
      "end": 10.05,
      "endOffset": 162,
      "phones": [
        {
          "duration": 0.09,
          "phone": "f_B"
        },
        {
          "duration": 0.09,
          "phone": "ao_I"
        },
        {
          "duration": 0.06,
          "phone": "r_I"
        },
        {
          "duration": 0.07,
          "phone": "s_E"
        }
      ],
      "start": 9.74,
      "startOffset": 157,
      "word": "FORCE"
    },
    {
      "alignedWord": "the",
      "case": "success",
      "end": 10.17,
      "endOffset": 166,
      "phones": [
        {
          "duration": 0.07,
          "phone": "dh_B"
        },
        {
          "duration": 0.05,
          "phone": "iy_E"
        }
      ],
      "start": 10.05,
      "startOffset": 163,
      "word": "THE"
    },
    {
      "alignedWord": "administration",
      "case": "success",
      "end": 10.91,
      "endOffset": 181,
      "phones": [
        {
          "duration": 0.04,
          "phone": "ae_B"
        },
        {
          "duration": 0.06,
          "phone": "d_I"
        },
        {
          "duration": 0.04,
          "phone": "m_I"
        },
        {
          "duration": 0.04,
          "phone": "ih_I"
        },
        {
          "duration": 0.05,
          "phone": "n_I"
        },
        {
          "duration": 0.06,
          "phone": "ih_I"
        },
        {
          "duration": 0.05,
          "phone": "s_I"
        },
        {
          "duration": 0.06,
          "phone": "t_I"
        },
        {
          "duration": 0.08,
          "phone": "r_I"
        },
        {
          "duration": 0.06,
          "phone": "ey_I"
        },
        {
          "duration": 0.09,
          "phone": "sh_I"
        },
        {
          "duration": 0.06,
          "phone": "ah_I"
        },
        {
          "duration": 0.05,
          "phone": "n_E"
        }
      ],
      "start": 10.17,
      "startOffset": 167,
      "word": "ADMINISTRATION"
    },
    {
      "alignedWord": "to",
      "case": "success",
      "end": 11.05,
      "endOffset": 184,
      "phones": [
        {
          "duration": 0.07,
          "phone": "t_B"
        },
        {
          "duration": 0.07,
          "phone": "ih_E"
        }
      ],
      "start": 10.91,
      "startOffset": 182,
      "word": "TO"
    },
    {
      "alignedWord": "take",
      "case": "success",
      "end": 11.360000000000001,
      "endOffset": 189,
      "phones": [
        {
          "duration": 0.09,
          "phone": "t_B"
        },
        {
          "duration": 0.11,
          "phone": "ey_I"
        },
        {
          "duration": 0.11,
          "phone": "k_E"
        }
      ],
      "start": 11.05,
      "startOffset": 185,
      "word": "TAKE"
    },
    {
      "alignedWord": "its",
      "case": "success",
      "end": 11.639999999999999,
      "endOffset": 193,
      "phones": [
        {
          "duration": 0.12,
          "phone": "ih_B"
        },
        {
          "duration": 0.07,
          "phone": "t_I"
        },
        {
          "duration": 0.08,
          "phone": "s_E"
        }
      ],
      "start": 11.37,
      "startOffset": 190,
      "word": "ITS"
    },
    {
      "alignedWord": "choice",
      "case": "success",
      "end": 12.199999,
      "endOffset": 200,
      "phones": [
        {
          "duration": 0.17,
          "phone": "ch_B"
        },
        {
          "duration": 0.17,
          "phone": "oy_I"
        },
        {
          "duration": 0.22,
          "phone": "s_E"
        }
      ],
      "start": 11.639999,
      "startOffset": 194,
      "word": "CHOICE"
    },
    {
      "alignedWord": "it",
      "case": "success",
      "end": 13.129999999999999,
      "endOffset": 203,
      "phones": [
        {
          "duration": 0.12,
          "phone": "ih_B"
        },
        {
          "duration": 0.06,
          "phone": "t_E"
        }
      ],
      "start": 12.95,
      "startOffset": 201,
      "word": "IT"
    },
    {
      "alignedWord": "could",
      "case": "success",
      "end": 13.3,
      "endOffset": 209,
      "phones": [
        {
          "duration": 0.03,
          "phone": "k_B"
        },
        {
          "duration": 0.04,
          "phone": "uh_I"
        },
        {
          "duration": 0.07,
          "phone": "d_E"
        }
      ],
      "start": 13.16,
      "startOffset": 204,
      "word": "COULD"
    },
    {
      "alignedWord": "allow",
      "case": "success",
      "end": 13.639999,
      "endOffset": 215,
      "phones": [
        {
          "duration": 0.06,
          "phone": "ah_B"
        },
        {
          "duration": 0.1,
          "phone": "l_I"
        },
        {
          "duration": 0.18,
          "phone": "aw_E"
        }
      ],
      "start": 13.299999,
      "startOffset": 210,
      "word": "ALLOW"
    },
    {
      "alignedWord": "them",
      "case": "success",
      "end": 13.969999,
      "endOffset": 220,
      "phones": [
        {
          "duration": 0.08,
          "phone": "dh_B"
        },
        {
          "duration": 0.14,
          "phone": "ah_I"
        },
        {
          "duration": 0.11,
          "phone": "m_E"
        }
      ],
      "start": 13.639999,
      "startOffset": 216,
      "word": "THEM"
    },
    {
      "alignedWord": "to",
      "case": "success",
      "end": 14.129999,
      "endOffset": 223,
      "phones": [
        {
          "duration": 0.08,
          "phone": "t_B"
        },
        {
          "duration": 0.08,
          "phone": "uw_E"
        }
      ],
      "start": 13.969999,
      "startOffset": 221,
      "word": "TO"
    },
    {
      "alignedWord": "continue",
      "case": "success",
      "end": 14.590000000000002,
      "endOffset": 232,
      "phones": [
        {
          "duration": 0.04,
          "phone": "k_B"
        },
        {
          "duration": 0.05,
          "phone": "ah_I"
        },
        {
          "duration": 0.04,
          "phone": "n_I"
        },
        {
          "duration": 0.07,
          "phone": "t_I"
        },
        {
          "duration": 0.06,
          "phone": "ih_I"
        },
        {
          "duration": 0.04,
          "phone": "n_I"
        },
        {
          "duration": 0.07,
          "phone": "y_I"
        },
        {
          "duration": 0.09,
          "phone": "uw_E"
        }
      ],
      "start": 14.13,
      "startOffset": 224,
      "word": "CONTINUE"
    },
    {
      "alignedWord": "their",
      "case": "success",
      "end": 14.759999,
      "endOffset": 238,
      "phones": [
        {
          "duration": 0.05,
          "phone": "dh_B"
        },
        {
          "duration": 0.07,
          "phone": "eh_I"
        },
        {
          "duration": 0.05,
          "phone": "r_E"
        }
      ],
      "start": 14.589999,
      "startOffset": 233,
      "word": "THEIR"
    },
    {
      "alignedWord": "peaceful",
      "case": "success",
      "end": 15.179999,
      "endOffset": 247,
      "phones": [
        {
          "duration": 0.1,
          "phone": "p_B"
        },
        {
          "duration": 0.09,
          "phone": "iy_I"
        },
        {
          "duration": 0.05,
          "phone": "s_I"
        },
        {
          "duration": 0.07,
          "phone": "f_I"
        },
        {
          "duration": 0.03,
          "phone": "ah_I"
        },
        {
          "duration": 0.08,
          "phone": "l_E"
        }
      ],
      "start": 14.759999,
      "startOffset": 239,
      "word": "PEACEFUL"
    },
    {
      "alignedWord": "agitation",
      "case": "success",
      "end": 15.809999000000001,
      "endOffset": 257,
      "phones": [
        {
          "duration": 0.06,
          "phone": "ae_B"
        },
        {
          "duration": 0.07,
          "phone": "jh_I"
        },
        {
          "duration": 0.06,
          "phone": "ah_I"
        },
        {
          "duration": 0.1,
          "phone": "t_I"
        },
        {
          "duration": 0.1,
          "phone": "ey_I"
        },
        {
          "duration": 0.09,
          "phone": "sh_I"
        },
        {
          "duration": 0.07,
          "phone": "ah_I"
        },
        {
          "duration": 0.08,
          "phone": "n_E"
        }
      ],
      "start": 15.179999,
      "startOffset": 248,
      "word": "AGITATION"
    }
  ]
}