{
  "transcript": "IT IS ALSO NECESSARY TO ESTABLISH THE OPPOSITE PRINCIPLE AND TO FORMULATE THE SYSTEM WHICH MUST PROCEED FROM IT STILL FURTHER IT IS NECESSARY TO SHOW THE METHOD BY WHICH THE NEW SYSTEM",
  "words": [
    {
      "alignedWord": "it",
      "case": "success",
      "end": 0.56,
      "endOffset": 2,
      "phones": [
        {
          "duration": 0.11,
          "phone": "ih_B"
        },
        {
          "duration": 0.05,
          "phone": "t_E"
        }
      ],
      "start": 0.4,
      "startOffset": 0,
      "word": "IT"
    },
    {
      "alignedWord": "is",
      "case": "success",
      "end": 0.76,
      "endOffset": 5,
      "phones": [
        {
          "duration": 0.07,
          "phone": "ih_B"
        },
        {
          "duration": 0.13,
          "phone": "z_E"
        }
      ],
      "start": 0.56,
      "startOffset": 3,
      "word": "IS"
    },
    {
      "alignedWord": "also",
      "case": "success",
      "end": 1.3399999999999999,
      "endOffset": 10,
      "phones": [
        {
          "duration": 0.2,
          "phone": "ao_B"
        },
        {
          "duration": 0.12,
          "phone": "l_I"
        },
        {
          "duration": 0.13,
          "phone": "s_I"
        },
        {
          "duration": 0.12,
          "phone": "ow_E"
        }
      ],
      "start": 0.77,
      "startOffset": 6,
      "word": "ALSO"
    },
    {
      "alignedWord": "necessary",
      "case": "success",
      "end": 1.9500000000000002,
      "endOffset": 20,
      "phones": [
        {
          "duration": 0.08,
          "phone": "n_B"
        },
        {
          "duration": 0.07,
          "phone": "eh_I"
        },
        {
          "duration": 0.09,
          "phone": "s_I"
        },
        {
          "duration": 0.09,
          "phone": "ah_I"
        },
        {
          "duration": 0.08,
          "phone": "s_I"
        },
        {
          "duration": 0.07,
          "phone": "eh_I"
        },
        {
          "duration": 0.08,
          "phone": "r_I"
        },
        {
          "duration": 0.05,
          "phone": "iy_E"
        }
      ],
      "start": 1.34,
      "startOffset": 11,
      "word": "NECESSARY"
    },
    {
      "alignedWord": "to",
      "case": "success",
      "end": 2.09,
      "endOffset": 23,
      "phones": [
        {
          "duration": 0.08,
          "phone": "t_B"
        },
        {
          "duration": 0.06,
          "phone": "uw_E"
        }
      ],
      "start": 1.95,
      "startOffset": 21,
      "word": "TO"
    },
    {
      "alignedWord": "establish",
      "case": "success",
      "end": 2.7199999999999998,
      "endOffset": 33,
      "phones": [
        {
          "duration": 0.09,
          "phone": "ih_B"
        },
        {
          "duration": 0.13,
          "phone": "s_I"
        },
        {
          "duration": 0.09,
          "phone": "t_I"
        },
        {
          "duration": 0.08,
          "phone": "ae_I"
        },
        {
          "duration": 0.05,
          "phone": "b_I"
        },
        {
          "duration": 0.09,
          "phone": "l_I"
        },
        {
          "duration": 0.03,
          "phone": "ih_I"
        },
        {
          "duration": 0.07,
          "phone": "sh_E"
        }
      ],
      "start": 2.09,
      "startOffset": 24,
      "word": "ESTABLISH"
    },
    {
      "alignedWord": "the",
      "case": "success",
      "end": 2.91,
      "endOffset": 37,
      "phones": [
        {
          "duration": 0.07,
          "phone": "dh_B"
        },
        {
          "duration": 0.1,
          "phone": "iy_E"
        }
      ],
      "start": 2.74,
      "startOffset": 34,
      "word": "THE"
    },
    {
      "alignedWord": "opposite",
      "case": "success",
      "end": 3.46,
      "endOffset": 46,
      "phones": [
        {
          "duration": 0.11,
          "phone": "aa_B"
        },
        {
          "duration": 0.11,
          "phone": "p_I"
        },
        {
          "duration": 0.05,
          "phone": "ah_I"
        },
        {
          "duration": 0.1,
          "phone": "z_I"
        },
        {
          "duration": 0.11,
          "phone": "ah_I"
        },
        {
          "duration": 0.05,
          "phone": "t_E"
        }
      ],
      "start": 2.93,
      "startOffset": 38,
      "word": "OPPOSITE"
    },
    {
      "alignedWord": "principle",
      "case": "success",
      "end": 4.140000000000001,
      "endOffset": 56,
      "phones": [
        {
          "duration": 0.06,
          "phone": "p_B"
        },
        {
          "duration": 0.04,
          "phone": "r_I"
        },
        {
          "duration": 0.08,
          "phone": "ih_I"
        },
        {
          "duration": 0.05,
          "phone": "n_I"
        },
        {
          "duration": 0.04,
          "phone": "s_I"
        },
        {
          "duration": 0.09,
          "phone": "ah_I"
        },
        {
          "duration": 0.06,
          "phone": "p_I"
        },
        {
          "duration": 0.04,
          "phone": "ah_I"
        },
        {
          "duration": 0.19,
          "phone": "l_E"
        }
      ],
      "start": 3.49,
      "startOffset": 47,
      "word": "PRINCIPLE"
    },
    {
      "alignedWord": "and",
      "case": "success",
      "end": 4.83,
      "endOffset": 60,
      "phones": [
        {
          "duration": 0.16,
          "phone": "ae_B"
        },
        {
          "duration": 0.07,
          "phone": "n_I"
        },
        {
          "duration": 0.09,
          "phone": "d_E"
        }
      ],
      "start": 4.51,
      "startOffset": 57,
      "word": "AND"
    },
    {
      "alignedWord": "to",
      "case": "success",
      "end": 4.99,
      "endOffset": 63,
      "phones": [
        {
          "duration": 0.07,
          "phone": "t_B"
        },
        {
          "duration": 0.06,
          "phone": "ah_E"
        }
      ],
      "start": 4.86,
      "startOffset": 61,
      "word": "TO"
    },
    {
      "alignedWord": "formulate",
      "case": "success",
      "end": 5.61,
      "endOffset": 73,
      "phones": [
        {
          "duration": 0.11,
          "phone": "f_B"
        },
        {
          "duration": 0.09,
          "phone": "ao_I"
        },
        {
          "duration": 0.05,
          "phone": "r_I"
        },
        {
          "duration": 0.05,
          "phone": "m_I"
        },
        {
          "duration": 0.05,
          "phone": "y_I"
        },
        {
          "duration": 0.04,
          "phone": "ah_I"
        },
        {
          "duration": 0.09,
          "phone": "l_I"
        },
        {
          "duration": 0.08,
          "phone": "ey_I"
        },
        {
          "duration": 0.06,
          "phone": "t_E"
        }
      ],
      "start": 4.99,
      "startOffset": 64,
      "word": "FORMULATE"
    },
    {
      "alignedWord": "the",
      "case": "success",
      "end": 5.76,
      "endOffset": 77,
      "phones": [
        {
          "duration": 0.06,
          "phone": "dh_B"
        },
        {
          "duration": 0.08,
          "phone": "ah_E"
        }
      ],
      "start": 5.62,
      "startOffset": 74,
      "word": "THE"
    },
    {
      "alignedWord": "system",
      "case": "success",
      "end": 6.27,
      "endOffset": 84,
      "phones": [
        {
          "duration": 0.1,
          "phone": "s_B"
        },
        {
          "duration": 0.09,
          "phone": "ih_I"
        },
        {
          "duration": 0.1,
          "phone": "s_I"
        },
        {
          "duration": 0.07,
          "phone": "t_I"
        },
        {
          "duration": 0.07,
          "phone": "ah_I"
        },
        {
          "duration": 0.08,
          "phone": "m_E"
        }
      ],
      "start": 5.76,
      "startOffset": 78,
      "word": "SYSTEM"
    },
    {
      "alignedWord": "which",
      "case": "success",
      "end": 6.4799999999999995,
      "endOffset": 90,
      "phones": [
        {
          "duration": 0.07,
          "phone": "w_B"
        },
        {
          "duration": 0.06,
          "phone": "ih_I"
        },
        {
          "duration": 0.08,
          "phone": "ch_E"
        }
      ],
      "start": 6.27,
      "startOffset": 85,
      "word": "WHICH"
    },
    {
      "alignedWord": "must",
      "case": "success",
      "end": 6.78,
      "endOffset": 95,
      "phones": [
        {
          "duration": 0.09,
          "phone": "m_B"
        },
        {
          "duration": 0.08,
          "phone": "ah_I"
        },
        {
          "duration": 0.06,
          "phone": "s_I"
        },
        {
          "duration": 0.05,
          "phone": "t_E"
        }
      ],
      "start": 6.5,
      "startOffset": 91,
      "word": "MUST"
    },
    {
      "alignedWord": "proceed",
      "case": "success",
      "end": 7.359999999999999,
      "endOffset": 103,
      "phones": [
        {
          "duration": 0.1,
          "phone": "p_B"
        },
        {
          "duration": 0.04,
          "phone": "r_I"
        },
        {
          "duration": 0.08,
          "phone": "ah_I"
        },
        {
          "duration": 0.14,
          "phone": "s_I"
        },
        {
          "duration": 0.12,
          "phone": "iy_I"
        },
        {
          "duration": 0.08,
          "phone": "d_E"
        }
      ],
      "start": 6.8,
      "startOffset": 96,
      "word": "PROCEED"
    },
    {
      "alignedWord": "from",
      "case": "success",
      "end": 7.5600000000000005,
      "endOffset": 108,
      "phones": [
        {
          "duration": 0.07,
          "phone": "f_B"
        },
        {
          "duration": 0.05,
          "phone": "r_I"
        },
        {
          "duration": 0.04,
          "phone": "ah_I"
        },
        {
          "duration": 0.04,
          "phone": "m_E"
        }
      ],
      "start": 7.36,
      "startOffset": 104,
      "word": "FROM"
    },
    {
      "alignedWord": "it",
      "case": "success",
      "end": 7.79,
      "endOffset": 111,
      "phones": [
        {
          "duration": 0.07,
          "phone": "ih_B"
        },
        {
          "duration": 0.16,
          "phone": "t_E"
        }
      ],
      "start": 7.56,
      "startOffset": 109,
      "word": "IT"
    },
    {
      "alignedWord": "still",
      "case": "success",
      "end": 9.090000000000002,
      "endOffset": 117,
      "phones": [
        {
          "duration": 0.15,
          "phone": "s_B"
        },
        {
          "duration": 0.06,
          "phone": "t_I"
        },
        {
          "duration": 0.07,
          "phone": "ih_I"
        },
        {
          "duration": 0.1,
          "phone": "l_E"
        }
      ],
      "start": 8.71,
      "startOffset": 112,
      "word": "STILL"
    },
    {
      "alignedWord": "further",
      "case": "success",
      "end": 9.49,
      "endOffset": 125,
      "phones": [
        {
          "duration": 0.1,
          "phone": "f_B"
        },
        {
          "duration": 0.12,
          "phone": "er_I"
        },
        {
          "duration": 0.05,
          "phone": "dh_I"
        },
        {
          "duration": 0.13,
          "phone": "er_E"
        }
      ],
      "start": 9.09,
      "startOffset": 118,
      "word": "FURTHER"
    },
    {
      "alignedWord": "it",
      "case": "success",
      "end": 10.039999,
      "endOffset": 128,
      "phones": [
        {
          "duration": 0.11,
          "phone": "ih_B"
        },
        {
          "duration": 0.08,
          "phone": "t_E"
        }
      ],
      "start": 9.849999,
      "startOffset": 126,
      "word": "IT"
    },
    {
      "alignedWord": "is",
      "case": "success",
      "end": 10.28,
      "endOffset": 131,
      "phones": [
        {
          "duration": 0.13,
          "phone": "ih_B"
        },
        {
          "duration": 0.11,
          "phone": "z_E"
        }
      ],
      "start": 10.04,
      "startOffset": 129,
      "word": "IS"
    },
    {
      "alignedWord": "necessary",
      "case": "success",
      "end": 10.969999999999999,
      "endOffset": 141,
      "phones": [
        {
          "duration": 0.09,
          "phone": "n_B"
        },
        {
          "duration": 0.09,
          "phone": "eh_I"
        },
        {
          "duration": 0.08,
          "phone": "s_I"
        },
        {
          "duration": 0.08,
          "phone": "ah_I"
        },
        {
          "duration": 0.1,
          "phone": "s_I"
        },
        {
          "duration": 0.08,
          "phone": "eh_I"
        },
        {
          "duration": 0.11,
          "phone": "r_I"
        },
        {
          "duration": 0.06,
          "phone": "iy_E"
        }
      ],
      "start": 10.28,
      "startOffset": 132,
      "word": "NECESSARY"
    },
    {
      "alignedWord": "to",
      "case": "success",
      "end": 11.109999,
      "endOffset": 144,
      "phones": [
        {
          "duration": 0.08,
          "phone": "t_B"
        },
        {
          "duration": 0.06,
          "phone": "uw_E"
        }
      ],
      "start": 10.969999,
      "startOffset": 142,
      "word": "TO"
    },
    {
      "alignedWord": "show",
      "case": "success",
      "end": 11.41,
      "endOffset": 149,
      "phones": [
        {
          "duration": 0.17,
          "phone": "sh_B"
        },
        {
          "duration": 0.13,
          "phone": "ow_E"
        }
      ],
      "start": 11.11,
      "startOffset": 145,
      "word": "SHOW"
    },
    {
      "alignedWord": "the",
      "case": "success",
      "end": 11.540000000000001,
      "endOffset": 153,
      "phones": [
        {
          "duration": 0.06,
          "phone": "dh_B"
        },
        {
          "duration": 0.07,
          "phone": "ah_E"
        }
      ],
      "start": 11.41,
      "startOffset": 150,
      "word": "THE"
    },
    {
      "alignedWord": "method",
      "case": "success",
      "end": 12.030000000000001,
      "endOffset": 160,
      "phones": [
        {
          "duration": 0.11,
          "phone": "m_B"
        },
        {
          "duration": 0.09,
          "phone": "eh_I"
        },
        {
          "duration": 0.13,
          "phone": "th_I"
        },
        {
          "duration": 0.06,
          "phone": "ah_I"
        },
        {
          "duration": 0.09,
          "phone": "d_E"
        }
      ],
      "start": 11.55,
      "startOffset": 154,
      "word": "METHOD"
    },
    {
      "alignedWord": "by",
      "case": "success",
      "end": 12.25,
      "endOffset": 163,
      "phones": [
        {
          "duration": 0.13,
          "phone": "b_B"
        },
        {
          "duration": 0.08,
          "phone": "ay_E"
        }
      ],
      "start": 12.04,
      "startOffset": 161,
      "word": "BY"
    },
    {
      "alignedWord": "which",
      "case": "success",
      "end": 12.48,
      "endOffset": 169,
      "phones": [
        {
          "duration": 0.07,
          "phone": "w_B"
        },
        {
          "duration": 0.07,
          "phone": "ih_I"
        },
        {
          "duration": 0.09,
          "phone": "ch_E"
        }
      ],
      "start": 12.25,
      "startOffset": 164,
      "word": "WHICH"
    },
    {
      "alignedWord": "the",
      "case": "success",
      "end": 12.610000000000001,
      "endOffset": 173,
      "phones": [
        {
          "duration": 0.06,
          "phone": "dh_B"
        },
        {
          "duration": 0.07,
          "phone": "ah_E"
        }
      ],
      "start": 12.48,
      "startOffset": 170,
      "word": "THE"
    },
    {
      "alignedWord": "new",
      "case": "success",
      "end": 12.899999999999999,
      "endOffset": 177,
      "phones": [
        {
          "duration": 0.05,
          "phone": "n_B"
        },
        {
          "duration": 0.11,
          "phone": "y_I"
        },
        {
          "duration": 0.13,
          "phone": "uw_E"
        }
      ],
      "start": 12.61,
      "startOffset": 174,
      "word": "NEW"
    },
    {
      "alignedWord": "system",
      "case": "success",
      "end": 13.42,
      "endOffset": 184,
      "phones": [
        {
          "duration": 0.12,
          "phone": "s_B"
        },
        {
          "duration": 0.09,
          "phone": "ih_I"
        },
        {
          "duration": 0.1,
          "phone": "s_I"
        },
        {
          "duration": 0.07,
          "phone": "t_I"
        },
        {
          "duration": 0.08,
          "phone": "ah_I"
        },
        {
          "duration": 0.06,
          "phone": "m_E"
        }
      ],
      "start": 12.9,
      "startOffset": 178,
      "word": "SYSTEM"
    }
  ]
}