{
  "transcript": "IN A WORD CAN THE PRINCIPLE OF SUCCESSION BECOME A PRINCIPLE OF EQUALITY TO SUM UP ALL THESE IDEAS IN ONE INCLUSIVE QUESTION WHAT IS THE PRINCIPLE OF HEREDITY",
  "words": [
    {
      "alignedWord": "in",
      "case": "success",
      "end": 0.7100000000000001,
      "endOffset": 2,
      "phones": [
        {
          "duration": 0.09,
          "phone": "ih_B"
        },
        {
          "duration": 0.08,
          "phone": "n_E"
        }
      ],
      "start": 0.54,
      "startOffset": 0,
      "word": "IN"
    },
    {
      "alignedWord": "a",
      "case": "success",
      "end": 0.82,
      "endOffset": 4,
      "phones": [
        {
          "duration": 0.11,
          "phone": "ah_S"
        }
      ],
      "start": 0.71,
      "startOffset": 3,
      "word": "A"
    },
    {
      "alignedWord": "word",
      "case": "success",
      "end": 1.3199999999999998,
      "endOffset": 9,
      "phones": [
        {
          "duration": 0.14,
          "phone": "w_B"
        },
        {
          "duration": 0.16,
          "phone": "er_I"
        },
        {
          "duration": 0.2,
          "phone": "d_E"
        }
      ],
      "start": 0.82,
      "startOffset": 5,
      "word": "WORD"
    },
    {
      "alignedWord": "can",
      "case": "success",
      "end": 1.99,
      "endOffset": 13,
      "phones": [
        {
          "duration": 0.14,
          "phone": "k_B"
        },
        {
          "duration": 0.08,
          "phone": "ae_I"
        },
        {
          "duration": 0.11,
          "phone": "n_E"
        }
      ],
      "start": 1.66,
      "startOffset": 10,
      "word": "CAN"
    },
    {
      "alignedWord": "the",
      "case": "success",
      "end": 2.09,
      "endOffset": 17,
      "phones": [
        {
          "duration": 0.03,
          "phone": "dh_B"
        },
        {
          "duration": 0.07,
          "phone": "ah_E"
        }
      ],
      "start": 1.99,
      "startOffset": 14,
      "word": "THE"
    },
    {
      "alignedWord": "principle",
      "case": "success",
      "end": 2.71,
      "endOffset": 27,
      "phones": [
        {
          "duration": 0.09,
          "phone": "p_B"
        },
        {
          "duration": 0.05,
          "phone": "r_I"
        },
        {
          "duration": 0.06,
          "phone": "ih_I"
        },
        {
          "duration": 0.06,
          "phone": "n_I"
        },
        {
          "duration": 0.07,
          "phone": "s_I"
        },
        {
          "duration": 0.09,
          "phone": "ah_I"
        },
        {
          "duration": 0.05,
          "phone": "p_I"
        },
        {
          "duration": 0.03,
          "phone": "ah_I"
        },
        {
          "duration": 0.12,
          "phone": "l_E"
        }
      ],
      "start": 2.09,
      "startOffset": 18,
      "word": "PRINCIPLE"
    },
    {
      "alignedWord": "of",
      "case": "success",
      "end": 2.95,
      "endOffset": 30,
      "phones": [
        {
          "duration": 0.1,
          "phone": "ah_B"
        },
        {
          "duration": 0.1,
          "phone": "v_E"
        }
      ],
      "start": 2.75,
      "startOffset": 28,
      "word": "OF"
    },
    {
      "alignedWord": "succession",
      "case": "success",
      "end": 3.84,
      "endOffset": 41,
      "phones": [
        {
          "duration": 0.15,
          "phone": "s_B"
        },
        {
          "duration": 0.08,
          "phone": "ah_I"
        },
        {
          "duration": 0.09,
          "phone": "k_I"
        },
        {
          "duration": 0.16,
          "phone": "s_I"
        },
        {
          "duration": 0.08,
          "phone": "eh_I"
        },
        {
          "duration": 0.11,
          "phone": "sh_I"
        },
        {
          "duration": 0.09,
          "phone": "ah_I"
        },
        {
          "duration": 0.12,
          "phone": "n_E"
        }
      ],
      "start": 2.96,
      "startOffset": 31,
      "word": "SUCCESSION"
    },
    {
      "alignedWord": "become",
      "case": "success",
      "end": 4.34,
      "endOffset": 48,
      "phones": [
        {
          "duration": 0.07,
          "phone": "b_B"
        },
        {
          "duration": 0.08,
          "phone": "ih_I"
        },
        {
          "duration": 0.12,
          "phone": "k_I"
        },
        {
          "duration": 0.1,
          "phone": "ah_I"
        },
        {
          "duration": 0.12,
          "phone": "m_E"
        }
      ],
      "start": 3.85,
      "startOffset": 42,
      "word": "BECOME"
    },
    {
      "alignedWord": "a",
      "case": "success",
      "end": 4.63,
      "endOffset": 50,
      "phones": [
        {
          "duration": 0.24,
          "phone": "ey_S"
        }
      ],
      "start": 4.39,
      "startOffset": 49,
      "word": "A"
    },
    {
      "alignedWord": "principle",
      "case": "success",
      "end": 5.4399999999999995,
      "endOffset": 60,
      "phones": [
        {
          "duration": 0.09,
          "phone": "p_B"
        },
        {
          "duration": 0.06,
          "phone": "r_I"
        },
        {
          "duration": 0.08,
          "phone": "ih_I"
        },
        {
          "duration": 0.09,
          "phone": "n_I"
        },
        {
          "duration": 0.08,
          "phone": "s_I"
        },
        {
          "duration": 0.1,
          "phone": "ah_I"
        },
        {
          "duration": 0.06,
          "phone": "p_I"
        },
        {
          "duration": 0.05,
          "phone": "ah_I"
        },
        {
          "duration": 0.16,
          "phone": "l_E"
        }
      ],
      "start": 4.67,
      "startOffset": 51,
      "word": "PRINCIPLE"
    },
    {
      "alignedWord": "of",
      "case": "success",
      "end": 5.83,
      "endOffset": 63,
      "phones": [
        {
          "duration": 0.14,
          "phone": "ah_B"
        },
        {
          "duration": 0.19,
          "phone": "v_E"
        }
      ],
      "start": 5.5,
      "startOffset": 61,
      "word": "OF"
    },
    {
      "alignedWord": "equality",
      "case": "success",
      "end": 6.83,
      "endOffset": 72,
      "phones": [
        {
          "duration": 0.14,
          "phone": "ih_B"
        },
        {
          "duration": 0.13,
          "phone": "k_I"
        },
        {
          "duration": 0.09,
          "phone": "w_I"
        },
        {
          "duration": 0.05,
          "phone": "aa_I"
        },
        {
          "duration": 0.07,
          "phone": "l_I"
        },
        {
          "duration": 0.11,
          "phone": "ah_I"
        },
        {
          "duration": 0.13,
          "phone": "t_I"
        },
        {
          "duration": 0.22,
          "phone": "iy_E"
        }
      ],
      "start": 5.89,
      "startOffset": 64,
      "word": "EQUALITY"
    },
    {
      "alignedWord": "to",
      "case": "success",
      "end": 8.82,
      "endOffset": 75,
      "phones": [
        {
          "duration": 0.08,
          "phone": "t_B"
        },
        {
          "duration": 0.08,
          "phone": "uw_E"
        }
      ],
      "start": 8.66,
      "startOffset": 73,
      "word": "TO"
    },
    {
      "alignedWord": "sum",
      "case": "success",
      "end": 9.06,
      "endOffset": 79,
      "phones": [
        {
          "duration": 0.08,
          "phone": "s_B"
        },
        {
          "duration": 0.08,
          "phone": "ah_I"
        },
        {
          "duration": 0.08,
          "phone": "m_E"
        }
      ],
      "start": 8.82,
      "startOffset": 76,
      "word": "SUM"
    },
    {
      "alignedWord": "up",
      "case": "success",
      "end": 9.26,
      "endOffset": 82,
      "phones": [
        {
          "duration": 0.1,
          "phone": "ah_B"
        },
        {
          "duration": 0.09,
          "phone": "p_E"
        }
      ],
      "start": 9.07,
      "startOffset": 80,
      "word": "UP"
    },
    {
      "alignedWord": "all",
      "case": "success",
      "end": 9.58,
      "endOffset": 86,
      "phones": [
        {
          "duration": 0.17,
          "phone": "ao_B"
        },
        {
          "duration": 0.13,
          "phone": "l_E"
        }
      ],
      "start": 9.28,
      "startOffset": 83,
      "word": "ALL"
    },
    {
      "alignedWord": "these",
      "case": "success",
      "end": 9.9,
      "endOffset": 92,
      "phones": [
        {
          "duration": 0.09,
          "phone": "dh_B"
        },
        {
          "duration": 0.13,
          "phone": "iy_I"
        },
        {
          "duration": 0.1,
          "phone": "z_E"
        }
      ],
      "start": 9.58,
      "startOffset": 87,
      "word": "THESE"
    },
    {
      "alignedWord": "ideas",
      "case": "success",
      "end": 10.529999,
      "endOffset": 98,
      "phones": [
        {
          "duration": 0.16,
          "phone": "ay_B"
        },
        {
          "duration": 0.11,
          "phone": "d_I"
        },
        {
          "duration": 0.11,
          "phone": "iy_I"
        },
        {
          "duration": 0.11,
          "phone": "ah_I"
        },
        {
          "duration": 0.11,
          "phone": "z_E"
        }
      ],
      "start": 9.929999,
      "startOffset": 93,
      "word": "IDEAS"
    },
    {
      "alignedWord": "in",
      "case": "success",
      "end": 10.78,
      "endOffset": 101,
      "phones": [
        {
          "duration": 0.13,
          "phone": "ih_B"
        },
        {
          "duration": 0.11,
          "phone": "n_E"
        }
      ],
      "start": 10.54,
      "startOffset": 99,
      "word": "IN"
    },
    {
      "alignedWord": "one",
      "case": "success",
      "end": 11.1,
      "endOffset": 105,
      "phones": [
        {
          "duration": 0.09,
          "phone": "w_B"
        },
        {
          "duration": 0.11,
          "phone": "ah_I"
        },
        {
          "duration": 0.12,
          "phone": "n_E"
        }
      ],
      "start": 10.78,
      "startOffset": 102,
      "word": "ONE"
    },
    {
      "alignedWord": "inclusive",
      "case": "success",
      "end": 11.79,
      "endOffset": 115,
      "phones": [
        {
          "duration": 0.08,
          "phone": "ih_B"
        },
        {
          "duration": 0.12,
          "phone": "n_I"
        },
        {
          "duration": 0.07,
          "phone": "k_I"
        },
        {
          "duration": 0.07,
          "phone": "l_I"
        },
        {
          "duration": 0.1,
          "phone": "uw_I"
        },
        {
          "duration": 0.06,
          "phone": "s_I"
        },
        {
          "duration": 0.09,
          "phone": "ih_I"
        },
        {
          "duration": 0.08,
          "phone": "v_E"
        }
      ],
      "start": 11.12,
      "startOffset": 106,
      "word": "INCLUSIVE"
    },
    {
      "alignedWord": "question",
      "case": "success",
      "end": 12.379999999999999,
      "endOffset": 124,
      "phones": [
        {
          "duration": 0.08,
          "phone": "k_B"
        },
        {
          "duration": 0.03,
          "phone": "w_I"
        },
        {
          "duration": 0.1,
          "phone": "eh_I"
        },
        {
          "duration": 0.09,
          "phone": "s_I"
        },
        {
          "duration": 0.08,
          "phone": "ch_I"
        },
        {
          "duration": 0.06,
          "phone": "ah_I"
        },
        {
          "duration": 0.15,
          "phone": "n_E"
        }
      ],
      "start": 11.79,
      "startOffset": 116,
      "word": "QUESTION"
    },
    {
      "alignedWord": "what",
      "case": "success",
      "end": 13.389999999999999,
      "endOffset": 129,
      "phones": [
        {
          "duration": 0.06,
          "phone": "hh_B"
        },
        {
          "duration": 0.1,
          "phone": "w_I"
        },
        {
          "duration": 0.07,
          "phone": "ah_I"
        },
        {
          "duration": 0.13,
          "phone": "t_E"
        }
      ],
      "start": 13.03,
      "startOffset": 125,
      "word": "WHAT"
    },
    {
      "alignedWord": "is",
      "case": "success",
      "end": 13.849999,
      "endOffset": 132,
      "phones": [
        {
          "duration": 0.26,
          "phone": "ih_B"
        },
        {
          "duration": 0.16,
          "phone": "z_E"
        }
      ],
      "start": 13.429999,
      "startOffset": 130,
      "word": "IS"
    },
    {
      "alignedWord": "the",
      "case": "success",
      "end": 14.040000000000001,
      "endOffset": 136,
      "phones": [
        {
          "duration": 0.1,
          "phone": "dh_B"
        },
        {
          "duration": 0.06,
          "phone": "ah_E"
        }
      ],
      "start": 13.88,
      "startOffset": 133,
      "word": "THE"
    },
    {
      "alignedWord": "principle",
      "case": "success",
      "end": 14.61,
      "endOffset": 146,
      "phones": [
        {
          "duration": 0.08,
          "phone": "p_B"
        },
        {
          "duration": 0.04,
          "phone": "r_I"
        },
        {
          "duration": 0.07,
          "phone": "ih_I"
        },
        {
          "duration": 0.07,
          "phone": "n_I"
        },
        {
          "duration": 0.05,
          "phone": "s_I"
        },
        {
          "duration": 0.09,
          "phone": "ah_I"
        },
        {
          "duration": 0.05,
          "phone": "p_I"
        },
        {
          "duration": 0.03,
          "phone": "ah_I"
        },
        {
          "duration": 0.09,
          "phone": "l_E"
        }
      ],
      "start": 14.04,
      "startOffset": 137,
      "word": "PRINCIPLE"
    },
    {
      "alignedWord": "of",
      "case": "success",
      "end": 14.819999,
      "endOffset": 149,
      "phones": [
        {
          "duration": 0.08,
          "phone": "ah_B"
        },
        {
          "duration": 0.1,
          "phone": "v_E"
        }
      ],
      "start": 14.639999,
      "startOffset": 147,
      "word": "OF"
    },
    {
      "alignedWord": "heredity",
      "case": "success",
      "end": 15.59,
      "endOffset": 158,
      "phones": [
        {
          "duration": 0.1,
          "phone": "hh_B"
        },
        {
          "duration": 0.13,
          "phone": "er_I"
        },
        {
          "duration": 0.08,
          "phone": "eh_I"
        },
        {
          "duration": 0.06,
          "phone": "d_I"
        },
        {
          "duration": 0.08,
          "phone": "ah_I"
        },
        {
          "duration": 0.11,
          "phone": "t_I"
        },
        {
          "duration": 0.2,
          "phone": "iy_E"
        }
      ],
      "start": 14.83,
      "startOffset": 150,
      "word": "HEREDITY"
    }
  ]
}