{
  "transcript": "ALMOST INCAPABLE OF MOVEMENT OR REFLECTION AS THOUGH ANNIHILATED BY THE ABOMINABLE THINGS VIEWED AT SUCH CLOSE QUARTERS HE WAITED IN THE HOPE OF SOME INCIDENT NO MATTER OF WHAT NATURE",
  "words": [
    {
      "alignedWord": "almost",
      "case": "success",
      "end": 0.7100000000000001,
      "endOffset": 6,
      "phones": [
        {
          "duration": 0.16,
          "phone": "ao_B"
        },
        {
          "duration": 0.09,
          "phone": "l_I"
        },
        {
          "duration": 0.06,
          "phone": "m_I"
        },
        {
          "duration": 0.1,
          "phone": "ow_I"
        },
        {
          "duration": 0.08,
          "phone": "s_I"
        },
        {
          "duration": 0.06,
          "phone": "t_E"
        }
      ],
      "start": 0.16,
      "startOffset": 0,
      "word": "ALMOST"
    },
    {
      "alignedWord": "incapable",
      "case": "success",
      "end": 1.6099999999999999,
      "endOffset": 16,
      "phones": [
        {
          "duration": 0.11,
          "phone": "ih_B"
        },
        {
          "duration": 0.09,
          "phone": "n_I"
        },
        {
          "duration": 0.12,
          "phone": "k_I"
        },
        {
          "duration": 0.1,
          "phone": "ey_I"
        },
        {
          "duration": 0.1,
          "phone": "p_I"
        },
        {
          "duration": 0.06,
          "phone": "ah_I"
        },
        {
          "duration": 0.05,
          "phone": "b_I"
        },
        {
          "duration": 0.07,
          "phone": "ah_I"
        },
        {
          "duration": 0.18,
          "phone": "l_E"
        }
      ],
      "start": 0.73,
      "startOffset": 7,
      "word": "INCAPABLE"
    },
    {
      "alignedWord": "of",
      "case": "success",
      "end": 1.73,
      "endOffset": 19,
      "phones": [
        {
          "duration": 0.04,
          "phone": "ah_B"
        },
        {
          "duration": 0.08,
          "phone": "v_E"
        }
      ],
      "start": 1.61,
      "startOffset": 17,
      "word": "OF"
    },
    {
      "alignedWord": "movement",
      "case": "success",
      "end": 2.41,
      "endOffset": 28,
      "phones": [
        {
          "duration": 0.13,
          "phone": "m_B"
        },
        {
          "duration": 0.13,
          "phone": "uw_I"
        },
        {
          "duration": 0.09,
          "phone": "v_I"
        },
        {
          "duration": 0.05,
          "phone": "m_I"
        },
        {
          "duration": 0.08,
          "phone": "ah_I"
        },
        {
          "duration": 0.06,
          "phone": "n_I"
        },
        {
          "duration": 0.1,
          "phone": "t_E"
        }
      ],
      "start": 1.77,
      "startOffset": 20,
      "word": "MOVEMENT"
    },
    {
      "alignedWord": "or",
      "case": "success",
      "end": 2.64,
      "endOffset": 31,
      "phones": [
        {
          "duration": 0.12,
          "phone": "ao_B"
        },
        {
          "duration": 0.09,
          "phone": "r_E"
        }
      ],
      "start": 2.43,
      "startOffset": 29,
      "word": "OR"
    },
    {
      "alignedWord": "reflection",
      "case": "success",
      "end": 3.37,
      "endOffset": 42,
      "phones": [
        {
          "duration": 0.06,
          "phone": "r_B"
        },
        {
          "duration": 0.07,
          "phone": "ih_I"
        },
        {
          "duration": 0.09,
          "phone": "f_I"
        },
        {
          "duration": 0.05,
          "phone": "l_I"
        },
        {
          "duration": 0.07,
          "phone": "eh_I"
        },
        {
          "duration": 0.06,
          "phone": "k_I"
        },
        {
          "duration": 0.09,
          "phone": "sh_I"
        },
        {
          "duration": 0.08,
          "phone": "ah_I"
        },
        {
          "duration": 0.16,
          "phone": "n_E"
        }
      ],
      "start": 2.64,
      "startOffset": 32,
      "word": "REFLECTION"
    },
    {
      "alignedWord": "as",
      "case": "success",
      "end": 3.87,
      "endOffset": 45,
      "phones": [
        {
          "duration": 0.14,
          "phone": "ae_B"
        },
        {
          "duration": 0.08,
          "phone": "z_E"
        }
      ],
      "start": 3.65,
      "startOffset": 43,
      "word": "AS"
    },
    {
      "alignedWord": "though",
      "case": "success",
      "end": 4.11,
      "endOffset": 52,
      "phones": [
        {
          "duration": 0.06,
          "phone": "dh_B"
        },
        {
          "duration": 0.18,
          "phone": "ow_E"
        }
      ],
      "start": 3.87,
      "startOffset": 46,
      "word": "THOUGH"
    },
    {
      "alignedWord": "annihilated",
      "case": "success",
      "end": 5.08,
      "endOffset": 64,
      "phones": [
        {
          "duration": 0.07,
          "phone": "ah_B"
        },
        {
          "duration": 0.14,
          "phone": "n_I"
        },
        {
          "duration": 0.17,
          "phone": "ay_I"
        },
        {
          "duration": 0.11,
          "phone": "ah_I"
        },
        {
          "duration": 0.11,
          "phone": "l_I"
        },
        {
          "duration": 0.08,
          "phone": "ey_I"
        },
        {
          "duration": 0.05,
          "phone": "t_I"
        },
        {
          "duration": 0.09,
          "phone": "ih_I"
        },
        {
          "duration": 0.13,
          "phone": "d_E"
        }
      ],
      "start": 4.13,
      "startOffset": 53,
      "word": "ANNIHILATED"
    },
    {
      "alignedWord": "by",
      "case": "success",
      "end": 5.35,
      "endOffset": 67,
      "phones": [
        {
          "duration": 0.11,
          "phone": "b_B"
        },
        {
          "duration": 0.1,
          "phone": "ay_E"
        }
      ],
      "start": 5.14,
      "startOffset": 65,
      "word": "BY"
    },
    {
      "alignedWord": "the",
      "case": "success",
      "end": 5.52,
      "endOffset": 71,
      "phones": [
        {
          "duration": 0.08,
          "phone": "dh_B"
        },
        {
          "duration": 0.09,
          "phone": "iy_E"
        }
      ],
      "start": 5.35,
      "startOffset": 68,
      "word": "THE"
    },
    {
      "alignedWord": "abominable",
      "case": "success",
      "end": 6.319999999999999,
      "endOffset": 82,
      "phones": [
        {
          "duration": 0.05,
          "phone": "ah_B"
        },
        {
          "duration": 0.16,
          "phone": "b_I"
        },
        {
          "duration": 0.13,
          "phone": "aa_I"
        },
        {
          "duration": 0.06,
          "phone": "m_I"
        },
        {
          "duration": 0.04,
          "phone": "ah_I"
        },
        {
          "duration": 0.07,
          "phone": "n_I"
        },
        {
          "duration": 0.06,
          "phone": "ah_I"
        },
        {
          "duration": 0.05,
          "phone": "b_I"
        },
        {
          "duration": 0.06,
          "phone": "ah_I"
        },
        {
          "duration": 0.12,
          "phone": "l_E"
        }
      ],
      "start": 5.52,
      "startOffset": 72,
      "word": "ABOMINABLE"
    },
    {
      "alignedWord": "things",
      "case": "success",
      "end": 6.8,
      "endOffset": 89,
      "phones": [
        {
          "duration": 0.1,
          "phone": "th_B"
        },
        {
          "duration": 0.11,
          "phone": "ih_I"
        },
        {
          "duration": 0.17,
          "phone": "ng_I"
        },
        {
          "duration": 0.09,
          "phone": "z_E"
        }
      ],
      "start": 6.33,
      "startOffset": 83,
      "word": "THINGS"
    },
    {
      "alignedWord": "viewed",
      "case": "success",
      "end": 7.27,
      "endOffset": 96,
      "phones": [
        {
          "duration": 0.07,
          "phone": "v_B"
        },
        {
          "duration": 0.09,
          "phone": "y_I"
        },
        {
          "duration": 0.23,
          "phone": "uw_I"
        },
        {
          "duration": 0.07,
          "phone": "d_E"
        }
      ],
      "start": 6.81,
      "startOffset": 90,
      "word": "VIEWED"
    },
    {
      "alignedWord": "at",
      "case": "success",
      "end": 7.409999999999999,
      "endOffset": 99,
      "phones": [
        {
          "duration": 0.06,
          "phone": "ae_B"
        },
        {
          "duration": 0.08,
          "phone": "t_E"
        }
      ],
      "start": 7.27,
      "startOffset": 97,
      "word": "AT"
    },
    {
      "alignedWord": "such",
      "case": "success",
      "end": 7.7,
      "endOffset": 104,
      "phones": [
        {
          "duration": 0.07,
          "phone": "s_B"
        },
        {
          "duration": 0.11,
          "phone": "ah_I"
        },
        {
          "duration": 0.11,
          "phone": "ch_E"
        }
      ],
      "start": 7.41,
      "startOffset": 100,
      "word": "SUCH"
    },
    {
      "alignedWord": "close",
      "case": "success",
      "end": 8.05,
      "endOffset": 110,
      "phones": [
        {
          "duration": 0.08,
          "phone": "k_B"
        },
        {
          "duration": 0.07,
          "phone": "l_I"
        },
        {
          "duration": 0.1,
          "phone": "ow_I"
        },
        {
          "duration": 0.1,
          "phone": "s_E"
        }
      ],
      "start": 7.7,
      "startOffset": 105,
      "word": "CLOSE"
    },
    {
      "alignedWord": "quarters",
      "case": "success",
      "end": 8.690000000000001,
      "endOffset": 119,
      "phones": [
        {
          "duration": 0.09,
          "phone": "k_B"
        },
        {
          "duration": 0.03,
          "phone": "w_I"
        },
        {
          "duration": 0.08,
          "phone": "ao_I"
        },
        {
          "duration": 0.06,
          "phone": "r_I"
        },
        {
          "duration": 0.06,
          "phone": "t_I"
        },
        {
          "duration": 0.09,
          "phone": "er_I"
        },
        {
          "duration": 0.23,
          "phone": "z_E"
        }
      ],
      "start": 8.05,
      "startOffset": 111,
      "word": "QUARTERS"
    },
    {
      "alignedWord": "he",
      "case": "success",
      "end": 9.51,
      "endOffset": 122,
      "phones": [
        {
          "duration": 0.22,
          "phone": "hh_B"
        },
        {
          "duration": 0.09,
          "phone": "iy_E"
        }
      ],
      "start": 9.2,
      "startOffset": 120,
      "word": "HE"
    },
    {
      "alignedWord": "waited",
      "case": "success",
      "end": 10.05,
      "endOffset": 129,
      "phones": [
        {
          "duration": 0.12,
          "phone": "w_B"
        },
        {
          "duration": 0.13,
          "phone": "ey_I"
        },
        {
          "duration": 0.06,
          "phone": "t_I"
        },
        {
          "duration": 0.09,
          "phone": "ah_I"
        },
        {
          "duration": 0.14,
          "phone": "d_E"
        }
      ],
      "start": 9.51,
      "startOffset": 123,
      "word": "WAITED"
    },
    {
      "alignedWord": "in",
      "case": "success",
      "end": 10.31,
      "endOffset": 132,
      "phones": [
        {
          "duration": 0.13,
          "phone": "ih_B"
        },
        {
          "duration": 0.05,
          "phone": "n_E"
        }
      ],
      "start": 10.13,
      "startOffset": 130,
      "word": "IN"
    },
    {
      "alignedWord": "the",
      "case": "success",
      "end": 10.399999,
      "endOffset": 136,
      "phones": [
        {
          "duration": 0.05,
          "phone": "dh_B"
        },
        {
          "duration": 0.04,
          "phone": "ah_E"
        }
      ],
      "start": 10.309999,
      "startOffset": 133,
      "word": "THE"
    },
    {
      "alignedWord": "hope",
      "case": "success",
      "end": 10.65,
      "endOffset": 141,
      "phones": [
        {
          "duration": 0.08,
          "phone": "hh_B"
        },
        {
          "duration": 0.08,
          "phone": "ow_I"
        },
        {
          "duration": 0.09,
          "phone": "p_E"
        }
      ],
      "start": 10.4,
      "startOffset": 137,
      "word": "HOPE"
    },
    {
      "alignedWord": "of",
      "case": "success",
      "end": 10.81,
      "endOffset": 144,
      "phones": [
        {
          "duration": 0.07,
          "phone": "ah_B"
        },
        {
          "duration": 0.09,
          "phone": "v_E"
        }
      ],
      "start": 10.65,
      "startOffset": 142,
      "word": "OF"
    },
    {
      "alignedWord": "some",
      "case": "success",
      "end": 11.069999,
      "endOffset": 149,
      "phones": [
        {
          "duration": 0.1,
          "phone": "s_B"
        },
        {
          "duration": 0.08,
          "phone": "ah_I"
        },
        {
          "duration": 0.08,
          "phone": "m_E"
        }
      ],
      "start": 10.809999,
      "startOffset": 145,
      "word": "SOME"
    },
    {
      "alignedWord": "incident",
      "case": "success",
      "end": 11.71,
      "endOffset": 158,
      "phones": [
        {
          "duration": 0.12,
          "phone": "ih_B"
        },
        {
          "duration": 0.09,
          "phone": "n_I"
        },
        {
          "duration": 0.05,
          "phone": "s_I"
        },
        {
          "duration": 0.1,
          "phone": "ah_I"
        },
        {
          "duration": 0.01,
          "phone": "d_I"
        },
        {
          "duration": 0.08,
          "phone": "ah_I"
        },
        {
          "duration": 0.06,
          "phone": "n_I"
        },
        {
          "duration": 0.13,
          "phone": "t_E"
        }
      ],
      "start": 11.07,
      "startOffset": 150,
      "word": "INCIDENT"
    },
    {
      "alignedWord": "no",
      "case": "success",
      "end": 12.009998999999999,
      "endOffset": 161,
      "phones": [
        {
          "duration": 0.13,
          "phone": "n_B"
        },
        {
          "duration": 0.07,
          "phone": "ow_E"
        }
      ],
      "start": 11.809999,
      "startOffset": 159,
      "word": "NO"
    },
    {
      "alignedWord": "matter",
      "case": "success",
      "end": 12.389999000000001,
      "endOffset": 168,
      "phones": [
        {
          "duration": 0.05,
          "phone": "m_B"
        },
        {
          "duration": 0.16,
          "phone": "ae_I"
        },
        {
          "duration": 0.09,
          "phone": "t_I"
        },
        {
          "duration": 0.08,
          "phone": "er_E"
        }
      ],
      "start": 12.009999,
      "startOffset": 162,
      "word": "MATTER"
    },
    {
      "alignedWord": "of",
      "case": "success",
      "end": 12.549999,
      "endOffset": 171,
      "phones": [
        {
          "duration": 0.07,
          "phone": "ah_B"
        },
        {
          "duration": 0.09,
          "phone": "v_E"
        }
      ],
      "start": 12.389999,
      "startOffset": 169,
      "word": "OF"
    },
    {
      "alignedWord": "what",
      "case": "success",
      "end": 12.790000000000001,
      "endOffset": 176,
      "phones": [
        {
          "duration": 0.07,
          "phone": "w_B"
        },
        {
          "duration": 0.07,
          "phone": "ah_I"
        },
        {
          "duration": 0.1,
          "phone": "t_E"
        }
      ],
      "start": 12.55,
      "startOffset": 172,
      "word": "WHAT"
    },
    {
      "alignedWord": "nature",
      "case": "success",
      "end": 13.33,
      "endOffset": 183,
      "phones": [
        {
          "duration": 0.09,
          "phone": "n_B"
        },
        {
          "duration": 0.09,
          "phone": "ey_I"
        },
        {
          "duration": 0.13,
          "phone": "ch_I"
        },
        {
          "duration": 0.19,
          "phone": "er_E"
        }
      ],
      "start": 12.83,
      "startOffset": 177,
      "word": "NATURE"
    }
  ]
}