{
  "transcript": "TO HOLLOW OUT THESE PLATES WITHOUT AFFECTING THE COINAGE STAMP AND TO MAKE A FURROW ON THE EDGE OF THE SOU IN SUCH A MANNER THAT THE PLATES WILL ADHERE AGAIN THIS CAN BE SCREWED TOGETHER AND UNSCREWED AT WILL IT IS A BOX",
  "words": [
    {
      "alignedWord": "to",
      "case": "success",
      "end": 0.32999999999999996,
      "endOffset": 2,
      "phones": [
        {
          "duration": 0.07,
          "phone": "t_B"
        },
        {
          "duration": 0.05,
          "phone": "ah_E"
        }
      ],
      "start": 0.21,
      "startOffset": 0,
      "word": "TO"
    },
    {
      "alignedWord": "hollow",
      "case": "success",
      "end": 0.71,
      "endOffset": 9,
      "phones": [
        {
          "duration": 0.09,
          "phone": "hh_B"
        },
        {
          "duration": 0.1,
          "phone": "aa_I"
        },
        {
          "duration": 0.07,
          "phone": "l_I"
        },
        {
          "duration": 0.12,
          "phone": "ow_E"
        }
      ],
      "start": 0.33,
      "startOffset": 3,
      "word": "HOLLOW"
    },
    {
      "alignedWord": "out",
      "case": "success",
      "end": 0.99,
      "endOffset": 13,
      "phones": [
        {
          "duration": 0.16,
          "phone": "aw_B"
        },
        {
          "duration": 0.12,
          "phone": "t_E"
        }
      ],
      "start": 0.71,
      "startOffset": 10,
      "word": "OUT"
    },
    {
      "alignedWord": "these",
      "case": "success",
      "end": 1.28,
      "endOffset": 19,
      "phones": [
        {
          "duration": 0.09,
          "phone": "dh_B"
        },
        {
          "duration": 0.07,
          "phone": "iy_I"
        },
        {
          "duration": 0.1,
          "phone": "z_E"
        }
      ],
      "start": 1.02,
      "startOffset": 14,
      "word": "THESE"
    },
    {
      "alignedWord": "plates",
      "case": "success",
      "end": 1.67,
      "endOffset": 26,
      "phones": [
        {
          "duration": 0.08,
          "phone": "p_B"
        },
        {
          "duration": 0.08,
          "phone": "l_I"
        },
        {
          "duration": 0.07,
          "phone": "ey_I"
        },
        {
          "duration": 0.06,
          "phone": "t_I"
        },
        {
          "duration": 0.1,
          "phone": "s_E"
        }
      ],
      "start": 1.28,
      "startOffset": 20,
      "word": "PLATES"
    },
    {
      "alignedWord": "without",
      "case": "success",
      "end": 2.15,
      "endOffset": 34,
      "phones": [
        {
          "duration": 0.1,
          "phone": "w_B"
        },
        {
          "duration": 0.05,
          "phone": "ih_I"
        },
        {
          "duration": 0.08,
          "phone": "th_I"
        },
        {
          "duration": 0.12,
          "phone": "aw_I"
        },
        {
          "duration": 0.09,
          "phone": "t_E"
        }
      ],
      "start": 1.71,
      "startOffset": 27,
      "word": "WITHOUT"
    },
    {
      "alignedWord": "affecting",
      "case": "success",
      "end": 2.7600000000000002,
      "endOffset": 44,
      "phones": [
        {
          "duration": 0.08,
          "phone": "ah_B"
        },
        {
          "duration": 0.1,
          "phone": "f_I"
        },
        {
          "duration": 0.07,
          "phone": "eh_I"
        },
        {
          "duration": 0.08,
          "phone": "k_I"
        },
        {
          "duration": 0.06,
          "phone": "t_I"
        },
        {
          "duration": 0.08,
          "phone": "ih_I"
        },
        {
          "duration": 0.11,
          "phone": "ng_E"
        }
      ],
      "start": 2.18,
      "startOffset": 35,
      "word": "AFFECTING"
    },
    {
      "alignedWord": "the",
      "case": "success",
      "end": 2.8699999999999997,
      "endOffset": 48,
      "phones": [
        {
          "duration": 0.05,
          "phone": "dh_B"
        },
        {
          "duration": 0.06,
          "phone": "ah_E"
        }
      ],
      "start": 2.76,
      "startOffset": 45,
      "word": "THE"
    },
    {
      "alignedWord": "<unk>",
      "case": "success",
      "end": 3.33,
      "endOffset": 56,
      "phones": [
        {
          "duration": 0.46,
          "phone": "oov_S"
        }
      ],
      "start": 2.87,
      "startOffset": 49,
      "word": "COINAGE"
    },
    {
      "alignedWord": "stamp",
      "case": "success",
      "end": 3.88,
      "endOffset": 62,
      "phones": [
        {
          "duration": 0.11,
          "phone": "s_B"
        },
        {
          "duration": 0.09,
          "phone": "t_I"
        },
        {
          "duration": 0.13,
          "phone": "ae_I"
        },
        {
          "duration": 0.05,
          "phone": "m_I"
        },
        {
          "duration": 0.16,
          "phone": "p_E"
        }
      ],
      "start": 3.34,
      "startOffset": 57,
      "word": "STAMP"
    },
    {
      "alignedWord": "and",
      "case": "success",
      "end": 4.72,
      "endOffset": 66,
      "phones": [
        {
          "duration": 0.28,
          "phone": "ae_B"
        },
        {
          "duration": 0.05,
          "phone": "n_I"
        },
        {
          "duration": 0.08,
          "phone": "d_E"
        }
      ],
      "start": 4.31,
      "startOffset": 63,
      "word": "AND"
    },
    {
      "alignedWord": "to",
      "case": "success",
      "end": 4.88,
      "endOffset": 69,
      "phones": [
        {
          "duration": 0.07,
          "phone": "t_B"
        },
        {
          "duration": 0.07,
          "phone": "ih_E"
        }
      ],
      "start": 4.74,
      "startOffset": 67,
      "word": "TO"
    },
    {
      "alignedWord": "make",
      "case": "success",
      "end": 5.11,
      "endOffset": 74,
      "phones": [
        {
          "duration": 0.06,
          "phone": "m_B"
        },
        {
          "duration": 0.1,
          "phone": "ey_I"
        },
        {
          "duration": 0.07,
          "phone": "k_E"
        }
      ],
      "start": 4.88,
      "startOffset": 70,
      "word": "MAKE"
    },
    {
      "alignedWord": "a",
      "case": "success",
      "end": 5.2,
      "endOffset": 76,
      "phones": [
        {
          "duration": 0.09,
          "phone": "ah_S"
        }
      ],
      "start": 5.11,
      "startOffset": 75,
      "word": "A"
    },
    {
      "alignedWord": "furrow",
      "case": "success",
      "end": 5.73,
      "endOffset": 83,
      "phones": [
        {
          "duration": 0.15,
          "phone": "f_B"
        },
        {
          "duration": 0.18,
          "phone": "er_I"
        },
        {
          "duration": 0.2,
          "phone": "ow_E"
        }
      ],
      "start": 5.2,
      "startOffset": 77,
      "word": "FURROW"
    },
    {
      "alignedWord": "on",
      "case": "success",
      "end": 5.95,
      "endOffset": 86,
      "phones": [
        {
          "duration": 0.13,
          "phone": "ao_B"
        },
        {
          "duration": 0.07,
          "phone": "n_E"
        }
      ],
      "start": 5.75,
      "startOffset": 84,
      "word": "ON"
    },
    {
      "alignedWord": "the",
      "case": "success",
      "end": 6.11,
      "endOffset": 90,
      "phones": [
        {
          "duration": 0.06,
          "phone": "dh_B"
        },
        {
          "duration": 0.1,
          "phone": "iy_E"
        }
      ],
      "start": 5.95,
      "startOffset": 87,
      "word": "THE"
    },
    {
      "alignedWord": "edge",
      "case": "success",
      "end": 6.36,
      "endOffset": 95,
      "phones": [
        {
          "duration": 0.14,
          "phone": "eh_B"
        },
        {
          "duration": 0.11,
          "phone": "jh_E"
        }
      ],
      "start": 6.11,
      "startOffset": 91,
      "word": "EDGE"
    },
    {
      "alignedWord": "of",
      "case": "success",
      "end": 6.53,
      "endOffset": 98,
      "phones": [
        {
          "duration": 0.08,
          "phone": "ah_B"
        },
        {
          "duration": 0.09,
          "phone": "v_E"
        }
      ],
      "start": 6.36,
      "startOffset": 96,
      "word": "OF"
    },
    {
      "alignedWord": "the",
      "case": "success",
      "end": 6.63,
      "endOffset": 102,
      "phones": [
        {
          "duration": 0.01,
          "phone": "dh_B"
        },
        {
          "duration": 0.09,
          "phone": "ah_E"
        }
      ],
      "start": 6.53,
      "startOffset": 99,
      "word": "THE"
    },
    {
      "alignedWord": "<unk>",
      "case": "success",
      "end": 7.03,
      "endOffset": 106,
      "phones": [
        {
          "duration": 0.4,
          "phone": "oov_S"
        }
      ],
      "start": 6.63,
      "startOffset": 103,
      "word": "SOU"
    },
    {
      "alignedWord": "in",
      "case": "success",
      "end": 7.28,
      "endOffset": 109,
      "phones": [
        {
          "duration": 0.14,
          "phone": "ih_B"
        },
        {
          "duration": 0.1,
          "phone": "n_E"
        }
      ],
      "start": 7.04,
      "startOffset": 107,
      "word": "IN"
    },
    {
      "alignedWord": "such",
      "case": "success",
      "end": 7.57,
      "endOffset": 114,
      "phones": [
        {
          "duration": 0.07,
          "phone": "s_B"
        },
        {
          "duration": 0.12,
          "phone": "ah_I"
        },
        {
          "duration": 0.1,
          "phone": "ch_E"
        }
      ],
      "start": 7.28,
      "startOffset": 110,
      "word": "SUCH"
    },
    {
      "alignedWord": "a",
      "case": "success",
      "end": 7.63,
      "endOffset": 116,
      "phones": [
        {
          "duration": 0.06,
          "phone": "ah_S"
        }
      ],
      "start": 7.57,
      "startOffset": 115,
      "word": "A"
    },
    {
      "alignedWord": "manner",
      "case": "success",
      "end": 8.1,
      "endOffset": 123,
      "phones": [
        {
          "duration": 0.09,
          "phone": "m_B"
        },
        {
          "duration": 0.11,
          "phone": "ae_I"
        },
        {
          "duration": 0.1,
          "phone": "n_I"
        },
        {
          "duration": 0.17,
          "phone": "er_E"
        }
      ],
      "start": 7.63,
      "startOffset": 117,
      "word": "MANNER"
    },
    {
      "alignedWord": "that",
      "case": "success",
      "end": 8.54,
      "endOffset": 128,
      "phones": [
        {
          "duration": 0.08,
          "phone": "dh_B"
        },
        {
          "duration": 0.05,
          "phone": "ah_I"
        },
        {
          "duration": 0.05,
          "phone": "t_E"
        }
      ],
      "start": 8.36,
      "startOffset": 124,
      "word": "THAT"
    },
    {
      "alignedWord": "the",
      "case": "success",
      "end": 8.649999999999999,
      "endOffset": 132,
      "phones": [
        {
          "duration": 0.04,
          "phone": "dh_B"
        },
        {
          "duration": 0.07,
          "phone": "ah_E"
        }
      ],
      "start": 8.54,
      "startOffset": 129,
      "word": "THE"
    },
    {
      "alignedWord": "plates",
      "case": "success",
      "end": 9.13,
      "endOffset": 139,
      "phones": [
        {
          "duration": 0.09,
          "phone": "p_B"
        },
        {
          "duration": 0.09,
          "phone": "l_I"
        },
        {
          "duration": 0.07,
          "phone": "ey_I"
        },
        {
          "duration": 0.08,
          "phone": "t_I"
        },
        {
          "duration": 0.15,
          "phone": "s_E"
        }
      ],
      "start": 8.65,
      "startOffset": 133,
      "word": "PLATES"
    },
    {
      "alignedWord": "will",
      "case": "success",
      "end": 9.33,
      "endOffset": 144,
      "phones": [
        {
          "duration": 0.06,
          "phone": "w_B"
        },
        {
          "duration": 0.08,
          "phone": "ih_I"
        },
        {
          "duration": 0.06,
          "phone": "l_E"
        }
      ],
      "start": 9.13,
      "startOffset": 140,
      "word": "WILL"
    },
    {
      "alignedWord": "adhere",
      "case": "success",
      "end": 9.83,
      "endOffset": 151,
      "phones": [
        {
          "duration": 0.09,
          "phone": "ah_B"
        },
        {
          "duration": 0.06,
          "phone": "d_I"
        },
        {
          "duration": 0.1,
          "phone": "hh_I"
        },
        {
          "duration": 0.15,
          "phone": "ih_I"
        },
        {
          "duration": 0.1,
          "phone": "r_E"
        }
      ],
      "start": 9.33,
      "startOffset": 145,
      "word": "ADHERE"
    },
    {
      "alignedWord": "again",
      "case": "success",
      "end": 10.38,
      "endOffset": 157,
      "phones": [
        {
          "duration": 0.09,
          "phone": "ah_B"
        },
        {
          "duration": 0.11,
          "phone": "g_I"
        },
        {
          "duration": 0.14,
          "phone": "eh_I"
        },
        {
          "duration": 0.21,
          "phone": "n_E"
        }
      ],
      "start": 9.83,
      "startOffset": 152,
      "word": "AGAIN"
    },
    {
      "alignedWord": "this",
      "case": "success",
      "end": 11.3,
      "endOffset": 162,
      "phones": [
        {
          "duration": 0.12,
          "phone": "dh_B"
        },
        {
          "duration": 0.1,
          "phone": "ih_I"
        },
        {
          "duration": 0.08,
          "phone": "s_E"
        }
      ],
      "start": 11.0,
      "startOffset": 158,
      "word": "THIS"
    },
    {
      "alignedWord": "can",
      "case": "success",
      "end": 11.51,
      "endOffset": 166,
      "phones": [
        {
          "duration": 0.07,
          "phone": "k_B"
        },
        {
          "duration": 0.05,
          "phone": "ah_I"
        },
        {
          "duration": 0.07,
          "phone": "n_E"
        }
      ],
      "start": 11.32,
      "startOffset": 163,
      "word": "CAN"
    },
    {
      "alignedWord": "be",
      "case": "success",
      "end": 11.659999000000001,
      "endOffset": 169,
      "phones": [
        {
          "duration": 0.06,
          "phone": "b_B"
        },
        {
          "duration": 0.09,
          "phone": "iy_E"
        }
      ],
      "start": 11.509999,
      "startOffset": 167,
      "word": "BE"
    },
    {
      "alignedWord": "screwed",
      "case": "success",
      "end": 12.07,
      "endOffset": 177,
      "phones": [
        {
          "duration": 0.09,
          "phone": "s_B"
        },
        {
          "duration": 0.07,
          "phone": "k_I"
        },
        {
          "duration": 0.08,
          "phone": "r_I"
        },
        {
          "duration": 0.1,
          "phone": "uw_I"
        },
        {
          "duration": 0.07,
          "phone": "d_E"
        }
      ],
      "start": 11.66,
      "startOffset": 170,
      "word": "SCREWED"
    },
    {
      "alignedWord": "together",
      "case": "success",
      "end": 12.69,
      "endOffset": 186,
      "phones": [
        {
          "duration": 0.1,
          "phone": "t_B"
        },
        {
          "duration": 0.05,
          "phone": "ah_I"
        },
        {
          "duration": 0.08,
          "phone": "g_I"
        },
        {
          "duration": 0.09,
          "phone": "eh_I"
        },
        {
          "duration": 0.1,
          "phone": "dh_I"
        },
        {
          "duration": 0.2,
          "phone": "er_E"
        }
      ],
      "start": 12.07,
      "startOffset": 178,
      "word": "TOGETHER"
    },
    {
      "alignedWord": "and",
      "case": "success",
      "end": 12.940000000000001,
      "endOffset": 190,
      "phones": [
        {
          "duration": 0.08,
          "phone": "ae_B"
        },
        {
          "duration": 0.07,
          "phone": "n_I"
        },
        {
          "duration": 0.08,
          "phone": "d_E"
        }
      ],
      "start": 12.71,
      "startOffset": 187,
      "word": "AND"
    },
    {
      "alignedWord": "<unk>",
      "case": "success",
      "end": 13.639999,
      "endOffset": 200,
      "phones": [
        {
          "duration": 0.67,
          "phone": "oov_S"
        }
      ],
      "start": 12.969999,
      "startOffset": 191,
      "word": "UNSCREWED"
    },
    {
      "alignedWord": "at",
      "case": "success",
      "end": 13.81,
      "endOffset": 203,
      "phones": [
        {
          "duration": 0.09,
          "phone": "ae_B"
        },
        {
          "duration": 0.07,
          "phone": "t_E"
        }
      ],
      "start": 13.65,
      "startOffset": 201,
      "word": "AT"
    },
    {
      "alignedWord": "will",
      "case": "success",
      "end": 14.289999,
      "endOffset": 208,
      "phones": [
        {
          "duration": 0.07,
          "phone": "w_B"
        },
        {
          "duration": 0.13,
          "phone": "ih_I"
        },
        {
          "duration": 0.28,
          "phone": "l_E"
        }
      ],
      "start": 13.809999,
      "startOffset": 204,
      "word": "WILL"
    },
    {
      "alignedWord": "it",
      "case": "success",
      "end": 14.6,
      "endOffset": 211,
      "phones": [
        {
          "duration": 0.13,
          "phone": "ih_B"
        },
        {
          "duration": 0.07,
          "phone": "t_E"
        }
      ],
      "start": 14.4,
      "startOffset": 209,
      "word": "IT"
    },
    {
      "alignedWord": "is",
      "case": "success",
      "end": 14.809999000000001,
      "endOffset": 214,
      "phones": [
        {
          "duration": 0.12,
          "phone": "ih_B"
        },
        {
          "duration": 0.09,
          "phone": "z_E"
        }
      ],
      "start": 14.599999,
      "startOffset": 212,
      "word": "IS"
    },
    {
      "alignedWord": "a",
      "case": "success",
      "end": 14.91,
      "endOffset": 216,
      "phones": [
        {
          "duration": 0.08,
          "phone": "ah_S"
        }
      ],
      "start": 14.83,
      "startOffset": 215,
      "word": "A"
    },
    {
      "alignedWord": "box",
      "case": "success",
      "end": 15.56,
      "endOffset": 220,
      "phones": [
        {
          "duration": 0.09,
          "phone": "b_B"
        },
        {
          "duration": 0.19,
          "phone": "aa_I"
        },
        {
          "duration": 0.12,
          "phone": "k_I"
        },
        {
          "duration": 0.25,
          "phone": "s_E"
        }
      ],
      "start": 14.91,
      "startOffset": 217,
      "word": "BOX"
    }
  ]
}