{
  "transcript": "STILL MORE THAT IS TRUE OF THE HEALING OF THE SICK WHETHER OR NOT SUCH EXPANSION OF CHURCH ACTIVITY IN DIFFERENT DIRECTIONS SAPS THE VITAL STRENGTH OF RELIGION ITSELF IS INDEED A PROBLEM FOR THE WHOLE COMMUNITY",
  "words": [
    {
      "alignedWord": "still",
      "case": "success",
      "end": 0.8,
      "endOffset": 5,
      "phones": [
        {
          "duration": 0.16,
          "phone": "s_B"
        },
        {
          "duration": 0.07,
          "phone": "t_I"
        },
        {
          "duration": 0.07,
          "phone": "ih_I"
        },
        {
          "duration": 0.1,
          "phone": "l_E"
        }
      ],
      "start": 0.4,
      "startOffset": 0,
      "word": "STILL"
    },
    {
      "alignedWord": "more",
      "case": "success",
      "end": 1.1500000000000001,
      "endOffset": 10,
      "phones": [
        {
          "duration": 0.13,
          "phone": "m_B"
        },
        {
          "duration": 0.14,
          "phone": "ao_I"
        },
        {
          "duration": 0.07,
          "phone": "r_E"
        }
      ],
      "start": 0.81,
      "startOffset": 6,
      "word": "MORE"
    },
    {
      "alignedWord": "that",
      "case": "success",
      "end": 1.3099999999999998,
      "endOffset": 15,
      "phones": [
        {
          "duration": 0.06,
          "phone": "dh_B"
        },
        {
          "duration": 0.05,
          "phone": "ah_I"
        },
        {
          "duration": 0.05,
          "phone": "t_E"
        }
      ],
      "start": 1.15,
      "startOffset": 11,
      "word": "THAT"
    },
    {
      "alignedWord": "is",
      "case": "success",
      "end": 1.49,
      "endOffset": 18,
      "phones": [
        {
          "duration": 0.08,
          "phone": "ih_B"
        },
        {
          "duration": 0.1,
          "phone": "z_E"
        }
      ],
      "start": 1.31,
      "startOffset": 16,
      "word": "IS"
    },
    {
      "alignedWord": "true",
      "case": "success",
      "end": 1.91,
      "endOffset": 23,
      "phones": [
        {
          "duration": 0.11,
          "phone": "t_B"
        },
        {
          "duration": 0.11,
          "phone": "r_I"
        },
        {
          "duration": 0.2,
          "phone": "uw_E"
        }
      ],
      "start": 1.49,
      "startOffset": 19,
      "word": "TRUE"
    },
    {
      "alignedWord": "of",
      "case": "success",
      "end": 2.16,
      "endOffset": 26,
      "phones": [
        {
          "duration": 0.09,
          "phone": "ah_B"
        },
        {
          "duration": 0.08,
          "phone": "v_E"
        }
      ],
      "start": 1.99,
      "startOffset": 24,
      "word": "OF"
    },
    {
      "alignedWord": "the",
      "case": "success",
      "end": 2.23,
      "endOffset": 30,
      "phones": [
        {
          "duration": 0.01,
          "phone": "dh_B"
        },
        {
          "duration": 0.06,
          "phone": "ah_E"
        }
      ],
      "start": 2.16,
      "startOffset": 27,
      "word": "THE"
    },
    {
      "alignedWord": "healing",
      "case": "success",
      "end": 2.69,
      "endOffset": 38,
      "phones": [
        {
          "duration": 0.12,
          "phone": "hh_B"
        },
        {
          "duration": 0.12,
          "phone": "iy_I"
        },
        {
          "duration": 0.04,
          "phone": "l_I"
        },
        {
          "duration": 0.09,
          "phone": "ih_I"
        },
        {
          "duration": 0.09,
          "phone": "ng_E"
        }
      ],
      "start": 2.23,
      "startOffset": 31,
      "word": "HEALING"
    },
    {
      "alignedWord": "of",
      "case": "success",
      "end": 2.95,
      "endOffset": 41,
      "phones": [
        {
          "duration": 0.09,
          "phone": "ah_B"
        },
        {
          "duration": 0.12,
          "phone": "v_E"
        }
      ],
      "start": 2.74,
      "startOffset": 39,
      "word": "OF"
    },
    {
      "alignedWord": "the",
      "case": "success",
      "end": 3.0300000000000002,
      "endOffset": 45,
      "phones": [
        {
          "duration": 0.01,
          "phone": "dh_B"
        },
        {
          "duration": 0.07,
          "phone": "ah_E"
        }
      ],
      "start": 2.95,
      "startOffset": 42,
      "word": "THE"
    },
    {
      "alignedWord": "sick",
      "case": "success",
      "end": 3.4499999999999997,
      "endOffset": 50,
      "phones": [
        {
          "duration": 0.09,
          "phone": "s_B"
        },
        {
          "duration": 0.1,
          "phone": "ih_I"
        },
        {
          "duration": 0.23,
          "phone": "k_E"
        }
      ],
      "start": 3.03,
      "startOffset": 46,
      "word": "SICK"
    },
    {
      "alignedWord": "whether",
      "case": "success",
      "end": 4.3999999999999995,
      "endOffset": 58,
      "phones": [
        {
          "duration": 0.13,
          "phone": "w_B"
        },
        {
          "duration": 0.06,
          "phone": "eh_I"
        },
        {
          "duration": 0.06,
          "phone": "dh_I"
        },
        {
          "duration": 0.06,
          "phone": "er_E"
        }
      ],
      "start": 4.09,
      "startOffset": 51,
      "word": "WHETHER"
    },
    {
      "alignedWord": "or",
      "case": "success",
      "end": 4.5600000000000005,
      "endOffset": 61,
      "phones": [
        {
          "duration": 0.11,
          "phone": "ao_B"
        },
        {
          "duration": 0.05,
          "phone": "r_E"
        }
      ],
      "start": 4.4,
      "startOffset": 59,
      "word": "OR"
    },
    {
      "alignedWord": "not",
      "case": "success",
      "end": 4.909999999999999,
      "endOffset": 65,
      "phones": [
        {
          "duration": 0.11,
          "phone": "n_B"
        },
        {
          "duration": 0.14,
          "phone": "aa_I"
        },
        {
          "duration": 0.1,
          "phone": "t_E"
        }
      ],
      "start": 4.56,
      "startOffset": 62,
      "word": "NOT"
    },
    {
      "alignedWord": "such",
      "case": "success",
      "end": 5.18,
      "endOffset": 70,
      "phones": [
        {
          "duration": 0.1,
          "phone": "s_B"
        },
        {
          "duration": 0.09,
          "phone": "ah_I"
        },
        {
          "duration": 0.07,
          "phone": "ch_E"
        }
      ],
      "start": 4.92,
      "startOffset": 66,
      "word": "SUCH"
    },
    {
      "alignedWord": "expansion",
      "case": "success",
      "end": 5.67,
      "endOffset": 80,
      "phones": [
        {
          "duration": 0.05,
          "phone": "ih_B"
        },
        {
          "duration": 0.06,
          "phone": "k_I"
        },
        {
          "duration": 0.05,
          "phone": "s_I"
        },
        {
          "duration": 0.07,
          "phone": "p_I"
        },
        {
          "duration": 0.05,
          "phone": "ae_I"
        },
        {
          "duration": 0.06,
          "phone": "n_I"
        },
        {
          "duration": 0.07,
          "phone": "sh_I"
        },
        {
          "duration": 0.05,
          "phone": "ah_I"
        },
        {
          "duration": 0.03,
          "phone": "n_E"
        }
      ],
      "start": 5.18,
      "startOffset": 71,
      "word": "EXPANSION"
    },
    {
      "alignedWord": "of",
      "case": "success",
      "end": 5.81,
      "endOffset": 83,
      "phones": [
        {
          "duration": 0.07,
          "phone": "ah_B"
        },
        {
          "duration": 0.07,
          "phone": "v_E"
        }
      ],
      "start": 5.67,
      "startOffset": 81,
      "word": "OF"
    },
    {
      "alignedWord": "church",
      "case": "success",
      "end": 6.1499999999999995,
      "endOffset": 90,
      "phones": [
        {
          "duration": 0.12,
          "phone": "ch_B"
        },
        {
          "duration": 0.11,
          "phone": "er_I"
        },
        {
          "duration": 0.11,
          "phone": "ch_E"
        }
      ],
      "start": 5.81,
      "startOffset": 84,
      "word": "CHURCH"
    },
    {
      "alignedWord": "activity",
      "case": "success",
      "end": 6.65,
      "endOffset": 99,
      "phones": [
        {
          "duration": 0.04,
          "phone": "ae_B"
        },
        {
          "duration": 0.11,
          "phone": "k_I"
        },
        {
          "duration": 0.04,
          "phone": "t_I"
        },
        {
          "duration": 0.07,
          "phone": "ih_I"
        },
        {
          "duration": 0.05,
          "phone": "v_I"
        },
        {
          "duration": 0.05,
          "phone": "ah_I"
        },
        {
          "duration": 0.07,
          "phone": "t_I"
        },
        {
          "duration": 0.07,
          "phone": "iy_E"
        }
      ],
      "start": 6.15,
      "startOffset": 91,
      "word": "ACTIVITY"
    },
    {
      "alignedWord": "in",
      "case": "success",
      "end": 6.7700000000000005,
      "endOffset": 102,
      "phones": [
        {
          "duration": 0.04,
          "phone": "ih_B"
        },
        {
          "duration": 0.08,
          "phone": "n_E"
        }
      ],
      "start": 6.65,
      "startOffset": 100,
      "word": "IN"
    },
    {
      "alignedWord": "different",
      "case": "success",
      "end": 7.039999999999999,
      "endOffset": 112,
      "phones": [
        {
          "duration": 0.01,
          "phone": "d_B"
        },
        {
          "duration": 0.09,
          "phone": "ih_I"
        },
        {
          "duration": 0.04,
          "phone": "f_I"
        },
        {
          "duration": 0.01,
          "phone": "r_I"
        },
        {
          "duration": 0.06,
          "phone": "ah_I"
        },
        {
          "duration": 0.02,
          "phone": "n_I"
        },
        {
          "duration": 0.04,
          "phone": "t_E"
        }
      ],
      "start": 6.77,
      "startOffset": 103,
      "word": "DIFFERENT"
    },
    {
      "alignedWord": "directions",
      "case": "success",
      "end": 7.71,
      "endOffset": 123,
      "phones": [
        {
          "duration": 0.07,
          "phone": "d_B"
        },
        {
          "duration": 0.1,
          "phone": "er_I"
        },
        {
          "duration": 0.08,
          "phone": "eh_I"
        },
        {
          "duration": 0.08,
          "phone": "k_I"
        },
        {
          "duration": 0.08,
          "phone": "sh_I"
        },
        {
          "duration": 0.05,
          "phone": "ah_I"
        },
        {
          "duration": 0.06,
          "phone": "n_I"
        },
        {
          "duration": 0.15,
          "phone": "z_E"
        }
      ],
      "start": 7.04,
      "startOffset": 113,
      "word": "DIRECTIONS"
    },
    {
      "alignedWord": "saps",
      "case": "success",
      "end": 8.22,
      "endOffset": 128,
      "phones": [
        {
          "duration": 0.19,
          "phone": "s_B"
        },
        {
          "duration": 0.09,
          "phone": "ae_I"
        },
        {
          "duration": 0.11,
          "phone": "p_I"
        },
        {
          "duration": 0.08,
          "phone": "s_E"
        }
      ],
      "start": 7.75,
      "startOffset": 124,
      "word": "SAPS"
    },
    {
      "alignedWord": "the",
      "case": "success",
      "end": 8.350000000000001,
      "endOffset": 132,
      "phones": [
        {
          "duration": 0.06,
          "phone": "dh_B"
        },
        {
          "duration": 0.07,
          "phone": "ah_E"
        }
      ],
      "start": 8.22,
      "startOffset": 129,
      "word": "THE"
    },
    {
      "alignedWord": "vital",
      "case": "success",
      "end": 8.709999,
      "endOffset": 138,
      "phones": [
        {
          "duration": 0.1,
          "phone": "v_B"
        },
        {
          "duration": 0.07,
          "phone": "ay_I"
        },
        {
          "duration": 0.09,
          "phone": "t_I"
        },
        {
          "duration": 0.02,
          "phone": "ah_I"
        },
        {
          "duration": 0.08,
          "phone": "l_E"
        }
      ],
      "start": 8.349999,
      "startOffset": 133,
      "word": "VITAL"
    },
    {
      "alignedWord": "strength",
      "case": "success",
      "end": 9.08,
      "endOffset": 147,
      "phones": [
        {
          "duration": 0.07,
          "phone": "s_B"
        },
        {
          "duration": 0.09,
          "phone": "t_I"
        },
        {
          "duration": 0.06,
          "phone": "r_I"
        },
        {
          "duration": 0.02,
          "phone": "eh_I"
        },
        {
          "duration": 0.07,
          "phone": "ng_I"
        },
        {
          "duration": 0.01,
          "phone": "k_I"
        },
        {
          "duration": 0.05,
          "phone": "th_E"
        }
      ],
      "start": 8.71,
      "startOffset": 139,
      "word": "STRENGTH"
    },
    {
      "alignedWord": "of",
      "case": "success",
      "end": 9.32,
      "endOffset": 150,
      "phones": [
        {
          "duration": 0.11,
          "phone": "ah_B"
        },
        {
          "duration": 0.1,
          "phone": "v_E"
        }
      ],
      "start": 9.11,
      "startOffset": 148,
      "word": "OF"
    },
    {
      "alignedWord": "religion",
      "case": "success",
      "end": 9.69,
      "endOffset": 159,
      "phones": [
        {
          "duration": 0.01,
          "phone": "r_B"
        },
        {
          "duration": 0.05,
          "phone": "iy_I"
        },
        {
          "duration": 0.06,
          "phone": "l_I"
        },
        {
          "duration": 0.07,
          "phone": "ih_I"
        },
        {
          "duration": 0.07,
          "phone": "jh_I"
        },
        {
          "duration": 0.05,
          "phone": "ah_I"
        },
        {
          "duration": 0.06,
          "phone": "n_E"
        }
      ],
      "start": 9.32,
      "startOffset": 151,
      "word": "RELIGION"
    },
    {
      "alignedWord": "itself",
      "case": "success",
      "end": 10.24,
      "endOffset": 166,
      "phones": [
        {
          "duration": 0.05,
          "phone": "ih_B"
        },
        {
          "duration": 0.09,
          "phone": "t_I"
        },
        {
          "duration": 0.08,
          "phone": "s_I"
        },
        {
          "duration": 0.1,
          "phone": "eh_I"
        },
        {
          "duration": 0.07,
          "phone": "l_I"
        },
        {
          "duration": 0.16,
          "phone": "f_E"
        }
      ],
      "start": 9.69,
      "startOffset": 160,
      "word": "ITSELF"
    },
    {
      "alignedWord": "is",
      "case": "success",
      "end": 10.85,
      "endOffset": 169,
      "phones": [
        {
          "duration": 0.14,
          "phone": "ih_B"
        },
        {
          "duration": 0.06,
          "phone": "z_E"
        }
      ],
      "start": 10.65,
      "startOffset": 167,
      "word": "IS"
    },
    {
      "alignedWord": "indeed",
      "case": "success",
      "end": 11.289999,
      "endOffset": 176,
      "phones": [
        {
          "duration": 0.06,
          "phone": "ih_B"
        },
        {
          "duration": 0.08,
          "phone": "n_I"
        },
        {
          "duration": 0.08,
          "phone": "d_I"
        },
        {
          "duration": 0.16,
          "phone": "iy_I"
        },
        {
          "duration": 0.06,
          "phone": "d_E"
        }
      ],
      "start": 10.849999,
      "startOffset": 170,
      "word": "INDEED"
    },
    {
      "alignedWord": "a",
      "case": "success",
      "end": 11.399999,
      "endOffset": 178,
      "phones": [
        {
          "duration": 0.09,
          "phone": "ah_S"
        }
      ],
      "start": 11.309999,
      "startOffset": 177,
      "word": "A"
    },
    {
      "alignedWord": "problem",
      "case": "success",
      "end": 11.91,
      "endOffset": 186,
      "phones": [
        {
          "duration": 0.08,
          "phone": "p_B"
        },
        {
          "duration": 0.06,
          "phone": "r_I"
        },
        {
          "duration": 0.06,
          "phone": "aa_I"
        },
        {
          "duration": 0.07,
          "phone": "b_I"
        },
        {
          "duration": 0.07,
          "phone": "l_I"
        },
        {
          "duration": 0.03,
          "phone": "ah_I"
        },
        {
          "duration": 0.14,
          "phone": "m_E"
        }
      ],
      "start": 11.4,
      "startOffset": 179,
      "word": "PROBLEM"
    },
    {
      "alignedWord": "for",
      "case": "success",
      "end": 12.120000000000001,
      "endOffset": 190,
      "phones": [
        {
          "duration": 0.08,
          "phone": "f_B"
        },
        {
          "duration": 0.06,
          "phone": "er_E"
        }
      ],
      "start": 11.98,
      "startOffset": 187,
      "word": "FOR"
    },
    {
      "alignedWord": "the",
      "case": "success",
      "end": 12.209999999999999,
      "endOffset": 194,
      "phones": [
        {
          "duration": 0.04,
          "phone": "dh_B"
        },
        {
          "duration": 0.05,
          "phone": "ah_E"
        }
      ],
      "start": 12.12,
      "startOffset": 191,
      "word": "THE"
    },
    {
      "alignedWord": "whole",
      "case": "success",
      "end": 12.430000000000001,
      "endOffset": 200,
      "phones": [
        {
          "duration": 0.06,
          "phone": "hh_B"
        },
        {
          "duration": 0.07,
          "phone": "ow_I"
        },
        {
          "duration": 0.09,
          "phone": "l_E"
        }
      ],
      "start": 12.21,
      "startOffset": 195,
      "word": "WHOLE"
    },
    {
      "alignedWord": "community",
      "case": "success",
      "end": 12.999999,
      "endOffset": 210,
      "phones": [
        {
          "duration": 0.06,
          "phone": "k_B"
        },
        {
          "duration": 0.06,
          "phone": "ah_I"
        },
        {
          "duration": 0.03,
          "phone": "m_I"
        },
        {
          "duration": 0.05,
          "phone": "y_I"
        },
        {
          "duration": 0.07,
          "phone": "uw_I"
        },
        {
          "duration": 0.03,
          "phone": "n_I"
        },
        {
          "duration": 0.06,
          "phone": "ah_I"
        },
        {
          "duration": 0.08,
          "phone": "t_I"
        },
        {
          "duration": 0.13,
          "phone": "iy_E"
        }
      ],
      "start": 12.429999,
      "startOffset": 201,
      "word": "COMMUNITY"
    }
  ]
}