{
  "transcript": "IF IT IS NOT SUGGESTED BY THE INTERESTS OF THE SUBJECT HIMSELF SCIENCE HAS THE RIGHT TO MAKE HYPNOTIC EXPERIMENTS OR EXPERIMENTS WITH ABNORMAL MENTAL STATES ONLY UNDER THE ONE CONDITION THAT A PHYSICIAN HAS HYPNOTIZED THE SUBJECT IN THE INTERESTS OF HIS HEALTH",
  "words": [
    {
      "alignedWord": "if",
      "case": "success",
      "end": 0.31000000000000005,
      "endOffset": 2,
      "phones": [
        {
          "duration": 0.1,
          "phone": "ih_B"
        },
        {
          "duration": 0.07,
          "phone": "f_E"
        }
      ],
      "start": 0.14,
      "startOffset": 0,
      "word": "IF"
    },
    {
      "alignedWord": "it",
      "case": "success",
      "end": 0.41000000000000003,
      "endOffset": 5,
      "phones": [
        {
          "duration": 0.05,
          "phone": "ih_B"
        },
        {
          "duration": 0.05,
          "phone": "t_E"
        }
      ],
      "start": 0.31,
      "startOffset": 3,
      "word": "IT"
    },
    {
      "alignedWord": "is",
      "case": "success",
      "end": 0.54,
      "endOffset": 8,
      "phones": [
        {
          "duration": 0.05,
          "phone": "ih_B"
        },
        {
          "duration": 0.08,
          "phone": "z_E"
        }
      ],
      "start": 0.41,
      "startOffset": 6,
      "word": "IS"
    },
    {
      "alignedWord": "not",
      "case": "success",
      "end": 0.77,
      "endOffset": 12,
      "phones": [
        {
          "duration": 0.03,
          "phone": "n_B"
        },
        {
          "duration": 0.11,
          "phone": "aa_I"
        },
        {
          "duration": 0.09,
          "phone": "t_E"
        }
      ],
      "start": 0.54,
      "startOffset": 9,
      "word": "NOT"
    },
    {
      "alignedWord": "suggested",
      "case": "success",
      "end": 1.3599999999999999,
      "endOffset": 22,
      "phones": [
        {
          "duration": 0.04,
          "phone": "s_B"
        },
        {
          "duration": 0.1,
          "phone": "ah_I"
        },
        {
          "duration": 0.01,
          "phone": "g_I"
        },
        {
          "duration": 0.1,
          "phone": "jh_I"
        },
        {
          "duration": 0.08,
          "phone": "eh_I"
        },
        {
          "duration": 0.07,
          "phone": "s_I"
        },
        {
          "duration": 0.06,
          "phone": "t_I"
        },
        {
          "duration": 0.06,
          "phone": "ah_I"
        },
        {
          "duration": 0.07,
          "phone": "d_E"
        }
      ],
      "start": 0.77,
      "startOffset": 13,
      "word": "SUGGESTED"
    },
    {
      "alignedWord": "by",
      "case": "success",
      "end": 1.51,
      "endOffset": 25,
      "phones": [
        {
          "duration": 0.08,
          "phone": "b_B"
        },
        {
          "duration": 0.07,
          "phone": "ay_E"
        }
      ],
      "start": 1.36,
      "startOffset": 23,
      "word": "BY"
    },
    {
      "alignedWord": "the",
      "case": "success",
      "end": 1.65,
      "endOffset": 29,
      "phones": [
        {
          "duration": 0.08,
          "phone": "dh_B"
        },
        {
          "duration": 0.06,
          "phone": "iy_E"
        }
      ],
      "start": 1.51,
      "startOffset": 26,
      "word": "THE"
    },
    {
      "alignedWord": "interests",
      "case": "success",
      "end": 2.1799999999999997,
      "endOffset": 39,
      "phones": [
        {
          "duration": 0.1,
          "phone": "ih_B"
        },
        {
          "duration": 0.06,
          "phone": "n_I"
        },
        {
          "duration": 0.08,
          "phone": "t_I"
        },
        {
          "duration": 0.07,
          "phone": "r_I"
        },
        {
          "duration": 0.05,
          "phone": "ih_I"
        },
        {
          "duration": 0.07,
          "phone": "s_I"
        },
        {
          "duration": 0.01,
          "phone": "t_I"
        },
        {
          "duration": 0.08,
          "phone": "s_E"
        }
      ],
      "start": 1.66,
      "startOffset": 30,
      "word": "INTERESTS"
    },
    {
      "alignedWord": "of",
      "case": "success",
      "end": 2.41,
      "endOffset": 42,
      "phones": [
        {
          "duration": 0.12,
          "phone": "ah_B"
        },
        {
          "duration": 0.09,
          "phone": "v_E"
        }
      ],
      "start": 2.2,
      "startOffset": 40,
      "word": "OF"
    },
    {
      "alignedWord": "the",
      "case": "success",
      "end": 2.52,
      "endOffset": 46,
      "phones": [
        {
          "duration": 0.03,
          "phone": "dh_B"
        },
        {
          "duration": 0.08,
          "phone": "ah_E"
        }
      ],
      "start": 2.41,
      "startOffset": 43,
      "word": "THE"
    },
    {
      "alignedWord": "subject",
      "case": "success",
      "end": 2.9,
      "endOffset": 54,
      "phones": [
        {
          "duration": 0.07,
          "phone": "s_B"
        },
        {
          "duration": 0.06,
          "phone": "ah_I"
        },
        {
          "duration": 0.07,
          "phone": "b_I"
        },
        {
          "duration": 0.05,
          "phone": "jh_I"
        },
        {
          "duration": 0.04,
          "phone": "eh_I"
        },
        {
          "duration": 0.05,
          "phone": "k_I"
        },
        {
          "duration": 0.04,
          "phone": "t_E"
        }
      ],
      "start": 2.52,
      "startOffset": 47,
      "word": "SUBJECT"
    },
    {
      "alignedWord": "himself",
      "case": "success",
      "end": 3.3899999999999997,
      "endOffset": 62,
      "phones": [
        {
          "duration": 0.01,
          "phone": "hh_B"
        },
        {
          "duration": 0.07,
          "phone": "ih_I"
        },
        {
          "duration": 0.06,
          "phone": "m_I"
        },
        {
          "duration": 0.06,
          "phone": "s_I"
        },
        {
          "duration": 0.07,
          "phone": "eh_I"
        },
        {
          "duration": 0.06,
          "phone": "l_I"
        },
        {
          "duration": 0.16,
          "phone": "f_E"
        }
      ],
      "start": 2.9,
      "startOffset": 55,
      "word": "HIMSELF"
    },
    {
      "alignedWord": "science",
      "case": "success",
      "end": 4.43,
      "endOffset": 70,
      "phones": [
        {
          "duration": 0.19,
          "phone": "s_B"
        },
        {
          "duration": 0.11,
          "phone": "ay_I"
        },
        {
          "duration": 0.05,
          "phone": "ah_I"
        },
        {
          "duration": 0.04,
          "phone": "n_I"
        },
        {
          "duration": 0.06,
          "phone": "s_E"
        }
      ],
      "start": 3.98,
      "startOffset": 63,
      "word": "SCIENCE"
    },
    {
      "alignedWord": "has",
      "case": "success",
      "end": 4.66,
      "endOffset": 74,
      "phones": [
        {
          "duration": 0.05,
          "phone": "hh_B"
        },
        {
          "duration": 0.09,
          "phone": "ae_I"
        },
        {
          "duration": 0.09,
          "phone": "z_E"
        }
      ],
      "start": 4.43,
      "startOffset": 71,
      "word": "HAS"
    },
    {
      "alignedWord": "the",
      "case": "success",
      "end": 4.76,
      "endOffset": 78,
      "phones": [
        {
          "duration": 0.03,
          "phone": "dh_B"
        },
        {
          "duration": 0.07,
          "phone": "ah_E"
        }
      ],
      "start": 4.66,
      "startOffset": 75,
      "word": "THE"
    },
    {
      "alignedWord": "right",
      "case": "success",
      "end": 5.09,
      "endOffset": 84,
      "phones": [
        {
          "duration": 0.1,
          "phone": "r_B"
        },
        {
          "duration": 0.09,
          "phone": "ay_I"
        },
        {
          "duration": 0.14,
          "phone": "t_E"
        }
      ],
      "start": 4.76,
      "startOffset": 79,
      "word": "RIGHT"
    },
    {
      "alignedWord": "to",
      "case": "success",
      "end": 5.25,
      "endOffset": 87,
      "phones": [
        {
          "duration": 0.07,
          "phone": "t_B"
        },
        {
          "duration": 0.05,
          "phone": "ih_E"
        }
      ],
      "start": 5.13,
      "startOffset": 85,
      "word": "TO"
    },
    {
      "alignedWord": "make",
      "case": "success",
      "end": 5.5,
      "endOffset": 92,
      "phones": [
        {
          "duration": 0.07,
          "phone": "m_B"
        },
        {
          "duration": 0.1,
          "phone": "ey_I"
        },
        {
          "duration": 0.08,
          "phone": "k_E"
        }
      ],
      "start": 5.25,
      "startOffset": 88,
      "word": "MAKE"
    },
    {
      "alignedWord": "hypnotic",
      "case": "success",
      "end": 5.92,
      "endOffset": 101,
      "phones": [
        {
          "duration": 0.06,
          "phone": "hh_B"
        },
        {
          "duration": 0.04,
          "phone": "ih_I"
        },
        {
          "duration": 0.07,
          "phone": "p_I"
        },
        {
          "duration": 0.05,
          "phone": "n_I"
        },
        {
          "duration": 0.06,
          "phone": "aa_I"
        },
        {
          "duration": 0.05,
          "phone": "t_I"
        },
        {
          "duration": 0.04,
          "phone": "ih_I"
        },
        {
          "duration": 0.05,
          "phone": "k_E"
        }
      ],
      "start": 5.5,
      "startOffset": 93,
      "word": "HYPNOTIC"
    },
    {
      "alignedWord": "experiments",
      "case": "success",
      "end": 6.54,
      "endOffset": 113,
      "phones": [
        {
          "duration": 0.05,
          "phone": "ih_B"
        },
        {
          "duration": 0.06,
          "phone": "k_I"
        },
        {
          "duration": 0.06,
          "phone": "s_I"
        },
        {
          "duration": 0.05,
          "phone": "p_I"
        },
        {
          "duration": 0.09,
          "phone": "eh_I"
        },
        {
          "duration": 0.05,
          "phone": "r_I"
        },
        {
          "duration": 0.02,
          "phone": "ah_I"
        },
        {
          "duration": 0.06,
          "phone": "m_I"
        },
        {
          "duration": 0.04,
          "phone": "ah_I"
        },
        {
          "duration": 0.03,
          "phone": "n_I"
        },
        {
          "duration": 0.03,
          "phone": "t_I"
        },
        {
          "duration": 0.08,
          "phone": "s_E"
        }
      ],
      "start": 5.92,
      "startOffset": 102,
      "word": "EXPERIMENTS"
    },
    {
      "alignedWord": "or",
      "case": "success",
      "end": 7.0200000000000005,
      "endOffset": 116,
      "phones": [
        {
          "duration": 0.23,
          "phone": "ao_B"
        },
        {
          "duration": 0.06,
          "phone": "r_E"
        }
      ],
      "start": 6.73,
      "startOffset": 114,
      "word": "OR"
    },
    {
      "alignedWord": "experiments",
      "case": "success",
      "end": 7.659999999999999,
      "endOffset": 128,
      "phones": [
        {
          "duration": 0.08,
          "phone": "ih_B"
        },
        {
          "duration": 0.06,
          "phone": "k_I"
        },
        {
          "duration": 0.07,
          "phone": "s_I"
        },
        {
          "duration": 0.05,
          "phone": "p_I"
        },
        {
          "duration": 0.08,
          "phone": "eh_I"
        },
        {
          "duration": 0.07,
          "phone": "r_I"
        },
        {
          "duration": 0.04,
          "phone": "ah_I"
        },
        {
          "duration": 0.04,
          "phone": "m_I"
        },
        {
          "duration": 0.03,
          "phone": "ah_I"
        },
        {
          "duration": 0.04,
          "phone": "n_I"
        },
        {
          "duration": 0.01,
          "phone": "t_I"
        },
        {
          "duration": 0.07,
          "phone": "s_E"
        }
      ],
      "start": 7.02,
      "startOffset": 117,
      "word": "EXPERIMENTS"
    },
    {
      "alignedWord": "with",
      "case": "success",
      "end": 7.8,
      "endOffset": 133,
      "phones": [
        {
          "duration": 0.03,
          "phone": "w_B"
        },
        {
          "duration": 0.04,
          "phone": "ih_I"
        },
        {
          "duration": 0.07,
          "phone": "th_E"
        }
      ],
      "start": 7.66,
      "startOffset": 129,
      "word": "WITH"
    },
    {
      "alignedWord": "abnormal",
      "case": "success",
      "end": 8.32,
      "endOffset": 142,
      "phones": [
        {
          "duration": 0.13,
          "phone": "ae_B"
        },
        {
          "duration": 0.07,
          "phone": "b_I"
        },
        {
          "duration": 0.07,
          "phone": "n_I"
        },
        {
          "duration": 0.08,
          "phone": "ao_I"
        },
        {
          "duration": 0.04,
          "phone": "r_I"
        },
        {
          "duration": 0.06,
          "phone": "m_I"
        },
        {
          "duration": 0.03,
          "phone": "ah_I"
        },
        {
          "duration": 0.04,
          "phone": "l_E"
        }
      ],
      "start": 7.8,
      "startOffset": 134,
      "word": "ABNORMAL"
    },
    {
      "alignedWord": "mental",
      "case": "success",
      "end": 8.620000000000001,
      "endOffset": 149,
      "phones": [
        {
          "duration": 0.05,
          "phone": "m_B"
        },
        {
          "duration": 0.05,
          "phone": "eh_I"
        },
        {
          "duration": 0.03,
          "phone": "n_I"
        },
        {
          "duration": 0.07,
          "phone": "t_I"
        },
        {
          "duration": 0.05,
          "phone": "ah_I"
        },
        {
          "duration": 0.05,
          "phone": "l_E"
        }
      ],
      "start": 8.32,
      "startOffset": 143,
      "word": "MENTAL"
    },
    {
      "alignedWord": "states",
      "case": "success",
      "end": 8.95,
      "endOffset": 156,
      "phones": [
        {
          "duration": 0.05,
          "phone": "s_B"
        },
        {
          "duration": 0.08,
          "phone": "t_I"
        },
        {
          "duration": 0.07,
          "phone": "ey_I"
        },
        {
          "duration": 0.04,
          "phone": "t_I"
        },
        {
          "duration": 0.09,
          "phone": "s_E"
        }
      ],
      "start": 8.62,
      "startOffset": 150,
      "word": "STATES"
    },
    {
      "alignedWord": "only",
      "case": "success",
      "end": 9.61,
      "endOffset": 161,
      "phones": [
        {
          "duration": 0.16,
          "phone": "ow_B"
        },
        {
          "duration": 0.1,
          "phone": "n_I"
        },
        {
          "duration": 0.06,
          "phone": "l_I"
        },
        {
          "duration": 0.09,
          "phone": "iy_E"
        }
      ],
      "start": 9.2,
      "startOffset": 157,
      "word": "ONLY"
    },
    {
      "alignedWord": "under",
      "case": "success",
      "end": 9.999998999999999,
      "endOffset": 167,
      "phones": [
        {
          "duration": 0.06,
          "phone": "ah_B"
        },
        {
          "duration": 0.08,
          "phone": "n_I"
        },
        {
          "duration": 0.08,
          "phone": "d_I"
        },
        {
          "duration": 0.14,
          "phone": "er_E"
        }
      ],
      "start": 9.639999,
      "startOffset": 162,
      "word": "UNDER"
    },
    {
      "alignedWord": "the",
      "case": "success",
      "end": 10.35,
      "endOffset": 171,
      "phones": [
        {
          "duration": 0.11,
          "phone": "dh_B"
        },
        {
          "duration": 0.08,
          "phone": "ah_E"
        }
      ],
      "start": 10.16,
      "startOffset": 168,
      "word": "THE"
    },
    {
      "alignedWord": "one",
      "case": "success",
      "end": 10.719999,
      "endOffset": 175,
      "phones": [
        {
          "duration": 0.14,
          "phone": "w_B"
        },
        {
          "duration": 0.11,
          "phone": "ah_I"
        },
        {
          "duration": 0.12,
          "phone": "n_E"
        }
      ],
      "start": 10.349999,
      "startOffset": 172,
      "word": "ONE"
    },
    {
      "alignedWord": "condition",
      "case": "success",
      "end": 11.319999,
      "endOffset": 185,
      "phones": [
        {
          "duration": 0.07,
          "phone": "k_B"
        },
        {
          "duration": 0.05,
          "phone": "ah_I"
        },
        {
          "duration": 0.06,
          "phone": "n_I"
        },
        {
          "duration": 0.04,
          "phone": "d_I"
        },
        {
          "duration": 0.07,
          "phone": "ih_I"
        },
        {
          "duration": 0.08,
          "phone": "sh_I"
        },
        {
          "duration": 0.08,
          "phone": "ah_I"
        },
        {
          "duration": 0.15,
          "phone": "n_E"
        }
      ],
      "start": 10.719999,
      "startOffset": 176,
      "word": "CONDITION"
    },
    {
      "alignedWord": "that",
      "case": "success",
      "end": 11.679999,
      "endOffset": 190,
      "phones": [
        {
          "duration": 0.06,
          "phone": "dh_B"
        },
        {
          "duration": 0.06,
          "phone": "ah_I"
        },
        {
          "duration": 0.05,
          "phone": "t_E"
        }
      ],
      "start": 11.509999,
      "startOffset": 186,
      "word": "THAT"
    },
    {
      "alignedWord": "a",
      "case": "success",
      "end": 11.759999,
      "endOffset": 192,
      "phones": [
        {
          "duration": 0.08,
          "phone": "ah_S"
        }
      ],
      "start": 11.679999,
      "startOffset": 191,
      "word": "A"
    },
    {
      "alignedWord": "physician",
      "case": "success",
      "end": 12.239999000000001,
      "endOffset": 202,
      "phones": [
        {
          "duration": 0.08,
          "phone": "f_B"
        },
        {
          "duration": 0.06,
          "phone": "ah_I"
        },
        {
          "duration": 0.05,
          "phone": "z_I"
        },
        {
          "duration": 0.09,
          "phone": "ih_I"
        },
        {
          "duration": 0.09,
          "phone": "sh_I"
        },
        {
          "duration": 0.04,
          "phone": "ah_I"
        },
        {
          "duration": 0.07,
          "phone": "n_E"
        }
      ],
      "start": 11.759999,
      "startOffset": 193,
      "word": "PHYSICIAN"
    },
    {
      "alignedWord": "has",
      "case": "success",
      "end": 12.44,
      "endOffset": 206,
      "phones": [
        {
          "duration": 0.08,
          "phone": "hh_B"
        },
        {
          "duration": 0.05,
          "phone": "ae_I"
        },
        {
          "duration": 0.06,
          "phone": "z_E"
        }
      ],
      "start": 12.25,
      "startOffset": 203,
      "word": "HAS"
    },
    {
      "alignedWord": "hypnotized",
      "case": "success",
      "end": 13.09,
      "endOffset": 217,
      "phones": [
        {
          "duration": 0.06,
          "phone": "hh_B"
        },
        {
          "duration": 0.06,
          "phone": "ih_I"
        },
        {
          "duration": 0.08,
          "phone": "p_I"
        },
        {
          "duration": 0.05,
          "phone": "n_I"
        },
        {
          "duration": 0.04,
          "phone": "ah_I"
        },
        {
          "duration": 0.09,
          "phone": "t_I"
        },
        {
          "duration": 0.15,
          "phone": "ay_I"
        },
        {
          "duration": 0.06,
          "phone": "z_I"
        },
        {
          "duration": 0.06,
          "phone": "d_E"
        }
      ],
      "start": 12.44,
      "startOffset": 207,
      "word": "HYPNOTIZED"
    },
    {
      "alignedWord": "the",
      "case": "success",
      "end": 13.17,
      "endOffset": 221,
      "phones": [
        {
          "duration": 0.01,
          "phone": "dh_B"
        },
        {
          "duration": 0.07,
          "phone": "ah_E"
        }
      ],
      "start": 13.09,
      "startOffset": 218,
      "word": "THE"
    },
    {
      "alignedWord": "subject",
      "case": "success",
      "end": 13.69,
      "endOffset": 229,
      "phones": [
        {
          "duration": 0.07,
          "phone": "s_B"
        },
        {
          "duration": 0.07,
          "phone": "ah_I"
        },
        {
          "duration": 0.07,
          "phone": "b_I"
        },
        {
          "duration": 0.06,
          "phone": "jh_I"
        },
        {
          "duration": 0.07,
          "phone": "eh_I"
        },
        {
          "duration": 0.06,
          "phone": "k_I"
        },
        {
          "duration": 0.12,
          "phone": "t_E"
        }
      ],
      "start": 13.17,
      "startOffset": 222,
      "word": "SUBJECT"
    },
    {
      "alignedWord": "in",
      "case": "success",
      "end": 14.089999,
      "endOffset": 232,
      "phones": [
        {
          "duration": 0.12,
          "phone": "ih_B"
        },
        {
          "duration": 0.04,
          "phone": "n_E"
        }
      ],
      "start": 13.929999,
      "startOffset": 230,
      "word": "IN"
    },
    {
      "alignedWord": "the",
      "case": "success",
      "end": 14.23,
      "endOffset": 236,
      "phones": [
        {
          "duration": 0.05,
          "phone": "dh_B"
        },
        {
          "duration": 0.09,
          "phone": "iy_E"
        }
      ],
      "start": 14.09,
      "startOffset": 233,
      "word": "THE"
    },
    {
      "alignedWord": "interests",
      "case": "success",
      "end": 14.860000000000001,
      "endOffset": 246,
      "phones": [
        {
          "duration": 0.04,
          "phone": "ih_B"
        },
        {
          "duration": 0.06,
          "phone": "n_I"
        },
        {
          "duration": 0.08,
          "phone": "t_I"
        },
        {
          "duration": 0.08,
          "phone": "r_I"
        },
        {
          "duration": 0.05,
          "phone": "ih_I"
        },
        {
          "duration": 0.12,
          "phone": "s_I"
        },
        {
          "duration": 0.05,
          "phone": "t_I"
        },
        {
          "duration": 0.15,
          "phone": "s_E"
        }
      ],
      "start": 14.23,
      "startOffset": 237,
      "word": "INTERESTS"
    },
    {
      "alignedWord": "of",
      "case": "success",
      "end": 15.249998999999999,
      "endOffset": 249,
      "phones": [
        {
          "duration": 0.12,
          "phone": "ah_B"
        },
        {
          "duration": 0.08,
          "phone": "v_E"
        }
      ],
      "start": 15.049999,
      "startOffset": 247,
      "word": "OF"
    },
    {
      "alignedWord": "his",
      "case": "success",
      "end": 15.42,
      "endOffset": 253,
      "phones": [
        {
          "duration": 0.05,
          "phone": "hh_B"
        },
        {
          "duration": 0.05,
          "phone": "ih_I"
        },
        {
          "duration": 0.07,
          "phone": "z_E"
        }
      ],
      "start": 15.25,
      "startOffset": 250,
      "word": "HIS"
    },
    {
      "alignedWord": "health",
      "case": "success",
      "end": 15.78,
      "endOffset": 260,
      "phones": [
        {
          "duration": 0.04,
          "phone": "hh_B"
        },
        {
          "duration": 0.08,
          "phone": "eh_I"
        },
        {
          "duration": 0.07,
          "phone": "l_I"
        },
        {
          "duration": 0.17,
          "phone": "th_E"
        }
      ],
      "start": 15.42,
      "startOffset": 254,
      "word": "HEALTH"
    }
  ]
}