{
  "transcript": "THE EVENING WORE AWAY WITH NO ABATEMENT OF THIS SOOTHING POLITENESS AND HER SPIRITS WERE GRADUALLY RAISED TO A MODEST TRANQUILLITY SHE DID NOT LEARN EITHER TO FORGET OR DEFEND THE PAST",
  "words": [
    {
      "alignedWord": "the",
      "case": "success",
      "end": 0.69,
      "endOffset": 3,
      "phones": [
        {
          "duration": 0.1,
          "phone": "dh_B"
        },
        {
          "duration": 0.08,
          "phone": "iy_E"
        }
      ],
      "start": 0.51,
      "startOffset": 0,
      "word": "THE"
    },
    {
      "alignedWord": "evening",
      "case": "success",
      "end": 1.17,
      "endOffset": 11,
      "phones": [
        {
          "duration": 0.18,
          "phone": "iy_B"
        },
        {
          "duration": 0.07,
          "phone": "v_I"
        },
        {
          "duration": 0.04,
          "phone": "n_I"
        },
        {
          "duration": 0.06,
          "phone": "ih_I"
        },
        {
          "duration": 0.13,
          "phone": "ng_E"
        }
      ],
      "start": 0.69,
      "startOffset": 4,
      "word": "EVENING"
    },
    {
      "alignedWord": "wore",
      "case": "success",
      "end": 1.47,
      "endOffset": 16,
      "phones": [
        {
          "duration": 0.09,
          "phone": "w_B"
        },
        {
          "duration": 0.13,
          "phone": "ao_I"
        },
        {
          "duration": 0.08,
          "phone": "r_E"
        }
      ],
      "start": 1.17,
      "startOffset": 12,
      "word": "WORE"
    },
    {
      "alignedWord": "away",
      "case": "success",
      "end": 1.85,
      "endOffset": 21,
      "phones": [
        {
          "duration": 0.07,
          "phone": "ah_B"
        },
        {
          "duration": 0.13,
          "phone": "w_I"
        },
        {
          "duration": 0.18,
          "phone": "ey_E"
        }
      ],
      "start": 1.47,
      "startOffset": 17,
      "word": "AWAY"
    },
    {
      "alignedWord": "with",
      "case": "success",
      "end": 2.06,
      "endOffset": 26,
      "phones": [
        {
          "duration": 0.06,
          "phone": "w_B"
        },
        {
          "duration": 0.06,
          "phone": "ih_I"
        },
        {
          "duration": 0.09,
          "phone": "th_E"
        }
      ],
      "start": 1.85,
      "startOffset": 22,
      "word": "WITH"
    },
    {
      "alignedWord": "no",
      "case": "success",
      "end": 2.3,
      "endOffset": 29,
      "phones": [
        {
          "duration": 0.09,
          "phone": "n_B"
        },
        {
          "duration": 0.15,
          "phone": "ow_E"
        }
      ],
      "start": 2.06,
      "startOffset": 27,
      "word": "NO"
    },
    {
      "alignedWord": "abatement",
      "case": "success",
      "end": 2.86,
      "endOffset": 39,
      "phones": [
        {
          "duration": 0.07,
          "phone": "ah_B"
        },
        {
          "duration": 0.1,
          "phone": "b_I"
        },
        {
          "duration": 0.11,
          "phone": "ey_I"
        },
        {
          "duration": 0.07,
          "phone": "t_I"
        },
        {
          "duration": 0.06,
          "phone": "m_I"
        },
        {
          "duration": 0.03,
          "phone": "ah_I"
        },
        {
          "duration": 0.06,
          "phone": "n_I"
        },
        {
          "duration": 0.06,
          "phone": "t_E"
        }
      ],
      "start": 2.3,
      "startOffset": 30,
      "word": "ABATEMENT"
    },
    {
      "alignedWord": "of",
      "case": "success",
      "end": 2.98,
      "endOffset": 42,
      "phones": [
        {
          "duration": 0.04,
          "phone": "ah_B"
        },
        {
          "duration": 0.08,
          "phone": "v_E"
        }
      ],
      "start": 2.86,
      "startOffset": 40,
      "word": "OF"
    },
    {
      "alignedWord": "this",
      "case": "success",
      "end": 3.13,
      "endOffset": 47,
      "phones": [
        {
          "duration": 0.01,
          "phone": "dh_B"
        },
        {
          "duration": 0.1,
          "phone": "ih_I"
        },
        {
          "duration": 0.04,
          "phone": "s_E"
        }
      ],
      "start": 2.98,
      "startOffset": 43,
      "word": "THIS"
    },
    {
      "alignedWord": "soothing",
      "case": "success",
      "end": 3.58,
      "endOffset": 56,
      "phones": [
        {
          "duration": 0.15,
          "phone": "s_B"
        },
        {
          "duration": 0.12,
          "phone": "uw_I"
        },
        {
          "duration": 0.02,
          "phone": "dh_I"
        },
        {
          "duration": 0.05,
          "phone": "ih_I"
        },
        {
          "duration": 0.11,
          "phone": "ng_E"
        }
      ],
      "start": 3.13,
      "startOffset": 48,
      "word": "SOOTHING"
    },
    {
      "alignedWord": "politeness",
      "case": "success",
      "end": 4.28,
      "endOffset": 67,
      "phones": [
        {
          "duration": 0.05,
          "phone": "p_B"
        },
        {
          "duration": 0.07,
          "phone": "ah_I"
        },
        {
          "duration": 0.08,
          "phone": "l_I"
        },
        {
          "duration": 0.1,
          "phone": "ay_I"
        },
        {
          "duration": 0.05,
          "phone": "t_I"
        },
        {
          "duration": 0.07,
          "phone": "n_I"
        },
        {
          "duration": 0.09,
          "phone": "ah_I"
        },
        {
          "duration": 0.19,
          "phone": "s_E"
        }
      ],
      "start": 3.58,
      "startOffset": 57,
      "word": "POLITENESS"
    },
    {
      "alignedWord": "and",
      "case": "success",
      "end": 4.800000000000001,
      "endOffset": 71,
      "phones": [
        {
          "duration": 0.1,
          "phone": "ae_B"
        },
        {
          "duration": 0.04,
          "phone": "n_I"
        },
        {
          "duration": 0.05,
          "phone": "d_E"
        }
      ],
      "start": 4.61,
      "startOffset": 68,
      "word": "AND"
    },
    {
      "alignedWord": "her",
      "case": "success",
      "end": 4.91,
      "endOffset": 75,
      "phones": [
        {
          "duration": 0.07,
          "phone": "hh_B"
        },
        {
          "duration": 0.04,
          "phone": "er_E"
        }
      ],
      "start": 4.8,
      "startOffset": 72,
      "word": "HER"
    },
    {
      "alignedWord": "spirits",
      "case": "success",
      "end": 5.44,
      "endOffset": 83,
      "phones": [
        {
          "duration": 0.1,
          "phone": "s_B"
        },
        {
          "duration": 0.07,
          "phone": "p_I"
        },
        {
          "duration": 0.09,
          "phone": "ih_I"
        },
        {
          "duration": 0.09,
          "phone": "r_I"
        },
        {
          "duration": 0.05,
          "phone": "ih_I"
        },
        {
          "duration": 0.06,
          "phone": "t_I"
        },
        {
          "duration": 0.07,
          "phone": "s_E"
        }
      ],
      "start": 4.91,
      "startOffset": 76,
      "word": "SPIRITS"
    },
    {
      "alignedWord": "were",
      "case": "success",
      "end": 5.6000000000000005,
      "endOffset": 88,
      "phones": [
        {
          "duration": 0.09,
          "phone": "w_B"
        },
        {
          "duration": 0.07,
          "phone": "er_E"
        }
      ],
      "start": 5.44,
      "startOffset": 84,
      "word": "WERE"
    },
    {
      "alignedWord": "gradually",
      "case": "success",
      "end": 6.25,
      "endOffset": 98,
      "phones": [
        {
          "duration": 0.06,
          "phone": "g_B"
        },
        {
          "duration": 0.09,
          "phone": "r_I"
        },
        {
          "duration": 0.11,
          "phone": "ae_I"
        },
        {
          "duration": 0.09,
          "phone": "jh_I"
        },
        {
          "duration": 0.1,
          "phone": "uw_I"
        },
        {
          "duration": 0.1,
          "phone": "l_I"
        },
        {
          "duration": 0.1,
          "phone": "iy_E"
        }
      ],
      "start": 5.6,
      "startOffset": 89,
      "word": "GRADUALLY"
    },
    {
      "alignedWord": "raised",
      "case": "success",
      "end": 6.64,
      "endOffset": 105,
      "phones": [
        {
          "duration": 0.11,
          "phone": "r_B"
        },
        {
          "duration": 0.18,
          "phone": "ey_I"
        },
        {
          "duration": 0.09,
          "phone": "z_I"
        },
        {
          "duration": 0.01,
          "phone": "d_E"
        }
      ],
      "start": 6.25,
      "startOffset": 99,
      "word": "RAISED"
    },
    {
      "alignedWord": "to",
      "case": "success",
      "end": 6.78,
      "endOffset": 108,
      "phones": [
        {
          "duration": 0.06,
          "phone": "t_B"
        },
        {
          "duration": 0.07,
          "phone": "uw_E"
        }
      ],
      "start": 6.65,
      "startOffset": 106,
      "word": "TO"
    },
    {
      "alignedWord": "a",
      "case": "success",
      "end": 6.84,
      "endOffset": 110,
      "phones": [
        {
          "duration": 0.06,
          "phone": "ah_S"
        }
      ],
      "start": 6.78,
      "startOffset": 109,
      "word": "A"
    },
    {
      "alignedWord": "modest",
      "case": "success",
      "end": 7.31,
      "endOffset": 117,
      "phones": [
        {
          "duration": 0.09,
          "phone": "m_B"
        },
        {
          "duration": 0.1,
          "phone": "aa_I"
        },
        {
          "duration": 0.06,
          "phone": "d_I"
        },
        {
          "duration": 0.08,
          "phone": "ah_I"
        },
        {
          "duration": 0.09,
          "phone": "s_I"
        },
        {
          "duration": 0.05,
          "phone": "t_E"
        }
      ],
      "start": 6.84,
      "startOffset": 111,
      "word": "MODEST"
    },
    {
      "alignedWord": "<unk>",
      "case": "success",
      "end": 8.08,
      "endOffset": 130,
      "phones": [
        {
          "duration": 0.77,
          "phone": "oov_S"
        }
      ],
      "start": 7.31,
      "startOffset": 118,
      "word": "TRANQUILLITY"
    },
    {
      "alignedWord": "she",
      "case": "success",
      "end": 8.89,
      "endOffset": 134,
      "phones": [
        {
          "duration": 0.11,
          "phone": "sh_B"
        },
        {
          "duration": 0.06,
          "phone": "iy_E"
        }
      ],
      "start": 8.72,
      "startOffset": 131,
      "word": "SHE"
    },
    {
      "alignedWord": "did",
      "case": "success",
      "end": 9.039999,
      "endOffset": 138,
      "phones": [
        {
          "duration": 0.04,
          "phone": "d_B"
        },
        {
          "duration": 0.06,
          "phone": "ih_I"
        },
        {
          "duration": 0.05,
          "phone": "d_E"
        }
      ],
      "start": 8.889999,
      "startOffset": 135,
      "word": "DID"
    },
    {
      "alignedWord": "not",
      "case": "success",
      "end": 9.319999999999999,
      "endOffset": 142,
      "phones": [
        {
          "duration": 0.06,
          "phone": "n_B"
        },
        {
          "duration": 0.14,
          "phone": "aa_I"
        },
        {
          "duration": 0.08,
          "phone": "t_E"
        }
      ],
      "start": 9.04,
      "startOffset": 139,
      "word": "NOT"
    },
    {
      "alignedWord": "learn",
      "case": "success",
      "end": 9.749999,
      "endOffset": 148,
      "phones": [
        {
          "duration": 0.13,
          "phone": "l_B"
        },
        {
          "duration": 0.17,
          "phone": "er_I"
        },
        {
          "duration": 0.1,
          "phone": "n_E"
        }
      ],
      "start": 9.349999,
      "startOffset": 143,
      "word": "LEARN"
    },
    {
      "alignedWord": "either",
      "case": "success",
      "end": 10.16,
      "endOffset": 155,
      "phones": [
        {
          "duration": 0.21,
          "phone": "ay_B"
        },
        {
          "duration": 0.09,
          "phone": "dh_I"
        },
        {
          "duration": 0.08,
          "phone": "er_E"
        }
      ],
      "start": 9.78,
      "startOffset": 149,
      "word": "EITHER"
    },
    {
      "alignedWord": "to",
      "case": "success",
      "end": 10.31,
      "endOffset": 158,
      "phones": [
        {
          "duration": 0.08,
          "phone": "t_B"
        },
        {
          "duration": 0.07,
          "phone": "uw_E"
        }
      ],
      "start": 10.16,
      "startOffset": 156,
      "word": "TO"
    },
    {
      "alignedWord": "forget",
      "case": "success",
      "end": 10.929998999999999,
      "endOffset": 165,
      "phones": [
        {
          "duration": 0.09,
          "phone": "f_B"
        },
        {
          "duration": 0.07,
          "phone": "er_I"
        },
        {
          "duration": 0.11,
          "phone": "g_I"
        },
        {
          "duration": 0.12,
          "phone": "eh_I"
        },
        {
          "duration": 0.23,
          "phone": "t_E"
        }
      ],
      "start": 10.309999,
      "startOffset": 159,
      "word": "FORGET"
    },
    {
      "alignedWord": "or",
      "case": "success",
      "end": 11.29,
      "endOffset": 168,
      "phones": [
        {
          "duration": 0.17,
          "phone": "ao_B"
        },
        {
          "duration": 0.09,
          "phone": "r_E"
        }
      ],
      "start": 11.03,
      "startOffset": 166,
      "word": "OR"
    },
    {
      "alignedWord": "defend",
      "case": "success",
      "end": 11.77,
      "endOffset": 175,
      "phones": [
        {
          "duration": 0.06,
          "phone": "d_B"
        },
        {
          "duration": 0.09,
          "phone": "ih_I"
        },
        {
          "duration": 0.11,
          "phone": "f_I"
        },
        {
          "duration": 0.11,
          "phone": "eh_I"
        },
        {
          "duration": 0.07,
          "phone": "n_I"
        },
        {
          "duration": 0.04,
          "phone": "d_E"
        }
      ],
      "start": 11.29,
      "startOffset": 169,
      "word": "DEFEND"
    },
    {
      "alignedWord": "the",
      "case": "success",
      "end": 11.85,
      "endOffset": 179,
      "phones": [
        {
          "duration": 0.02,
          "phone": "dh_B"
        },
        {
          "duration": 0.06,
          "phone": "ah_E"
        }
      ],
      "start": 11.77,
      "startOffset": 176,
      "word": "THE"
    },
    {
      "alignedWord": "past",
      "case": "success",
      "end": 12.409999000000001,
      "endOffset": 184,
      "phones": [
        {
          "duration": 0.09,
          "phone": "p_B"
        },
        {
          "duration": 0.25,
          "phone": "ae_I"
        },
        {
          "duration": 0.11,
          "phone": "s_I"
        },
        {
          "duration": 0.11,
          "phone": "t_E"
        }
      ],
      "start": 11.849999,
      "startOffset": 180,
      "word": "PAST"
    }
  ]
}