{
  "transcript": "THE SPACE BETWEEN THE WATER AND THE FOOT OF THE CLIFFS WAS CONSIDERABLE IT TOOK HALF AN HOUR TO BRING US TO THE WALL OF ROCK WE TRAMPLED UNDER OUR FEET NUMBERLESS SHELLS OF ALL THE FORMS AND SIZES WHICH EXISTED IN THE EARLIEST AGES OF THE WORLD",
  "words": [
    {
      "alignedWord": "the",
      "case": "success",
      "end": 0.54,
      "endOffset": 3,
      "phones": [
        {
          "duration": 0.07,
          "phone": "dh_B"
        },
        {
          "duration": 0.07,
          "phone": "ah_E"
        }
      ],
      "start": 0.4,
      "startOffset": 0,
      "word": "THE"
    },
    {
      "alignedWord": "space",
      "case": "success",
      "end": 0.91,
      "endOffset": 9,
      "phones": [
        {
          "duration": 0.08,
          "phone": "s_B"
        },
        {
          "duration": 0.08,
          "phone": "p_I"
        },
        {
          "duration": 0.13,
          "phone": "ey_I"
        },
        {
          "duration": 0.08,
          "phone": "s_E"
        }
      ],
      "start": 0.54,
      "startOffset": 4,
      "word": "SPACE"
    },
    {
      "alignedWord": "between",
      "case": "success",
      "end": 1.27,
      "endOffset": 17,
      "phones": [
        {
          "duration": 0.07,
          "phone": "b_B"
        },
        {
          "duration": 0.05,
          "phone": "iy_I"
        },
        {
          "duration": 0.09,
          "phone": "t_I"
        },
        {
          "duration": 0.03,
          "phone": "w_I"
        },
        {
          "duration": 0.06,
          "phone": "iy_I"
        },
        {
          "duration": 0.04,
          "phone": "n_E"
        }
      ],
      "start": 0.93,
      "startOffset": 10,
      "word": "BETWEEN"
    },
    {
      "alignedWord": "the",
      "case": "success",
      "end": 1.3800000000000001,
      "endOffset": 21,
      "phones": [
        {
          "duration": 0.05,
          "phone": "dh_B"
        },
        {
          "duration": 0.06,
          "phone": "ah_E"
        }
      ],
      "start": 1.27,
      "startOffset": 18,
      "word": "THE"
    },
    {
      "alignedWord": "water",
      "case": "success",
      "end": 1.7899999999999998,
      "endOffset": 27,
      "phones": [
        {
          "duration": 0.09,
          "phone": "w_B"
        },
        {
          "duration": 0.11,
          "phone": "ao_I"
        },
        {
          "duration": 0.08,
          "phone": "t_I"
        },
        {
          "duration": 0.13,
          "phone": "er_E"
        }
      ],
      "start": 1.38,
      "startOffset": 22,
      "word": "WATER"
    },
    {
      "alignedWord": "and",
      "case": "success",
      "end": 1.9500000000000002,
      "endOffset": 31,
      "phones": [
        {
          "duration": 0.06,
          "phone": "ah_B"
        },
        {
          "duration": 0.05,
          "phone": "n_I"
        },
        {
          "duration": 0.03,
          "phone": "d_E"
        }
      ],
      "start": 1.81,
      "startOffset": 28,
      "word": "AND"
    },
    {
      "alignedWord": "the",
      "case": "success",
      "end": 2.02,
      "endOffset": 35,
      "phones": [
        {
          "duration": 0.01,
          "phone": "dh_B"
        },
        {
          "duration": 0.06,
          "phone": "ah_E"
        }
      ],
      "start": 1.95,
      "startOffset": 32,
      "word": "THE"
    },
    {
      "alignedWord": "foot",
      "case": "success",
      "end": 2.27,
      "endOffset": 40,
      "phones": [
        {
          "duration": 0.14,
          "phone": "f_B"
        },
        {
          "duration": 0.06,
          "phone": "uh_I"
        },
        {
          "duration": 0.05,
          "phone": "t_E"
        }
      ],
      "start": 2.02,
      "startOffset": 36,
      "word": "FOOT"
    },
    {
      "alignedWord": "of",
      "case": "success",
      "end": 2.44,
      "endOffset": 43,
      "phones": [
        {
          "duration": 0.06,
          "phone": "ah_B"
        },
        {
          "duration": 0.08,
          "phone": "v_E"
        }
      ],
      "start": 2.3,
      "startOffset": 41,
      "word": "OF"
    },
    {
      "alignedWord": "the",
      "case": "success",
      "end": 2.52,
      "endOffset": 47,
      "phones": [
        {
          "duration": 0.01,
          "phone": "dh_B"
        },
        {
          "duration": 0.07,
          "phone": "ah_E"
        }
      ],
      "start": 2.44,
      "startOffset": 44,
      "word": "THE"
    },
    {
      "alignedWord": "cliffs",
      "case": "success",
      "end": 2.88,
      "endOffset": 54,
      "phones": [
        {
          "duration": 0.09,
          "phone": "k_B"
        },
        {
          "duration": 0.05,
          "phone": "l_I"
        },
        {
          "duration": 0.09,
          "phone": "ih_I"
        },
        {
          "duration": 0.04,
          "phone": "f_I"
        },
        {
          "duration": 0.09,
          "phone": "s_E"
        }
      ],
      "start": 2.52,
      "startOffset": 48,
      "word": "CLIFFS"
    },
    {
      "alignedWord": "was",
      "case": "success",
      "end": 3.1300000000000003,
      "endOffset": 58,
      "phones": [
        {
          "duration": 0.09,
          "phone": "w_B"
        },
        {
          "duration": 0.06,
          "phone": "ah_I"
        },
        {
          "duration": 0.07,
          "phone": "z_E"
        }
      ],
      "start": 2.91,
      "startOffset": 55,
      "word": "WAS"
    },
    {
      "alignedWord": "considerable",
      "case": "success",
      "end": 3.8899999999999997,
      "endOffset": 71,
      "phones": [
        {
          "duration": 0.04,
          "phone": "k_B"
        },
        {
          "duration": 0.06,
          "phone": "ah_I"
        },
        {
          "duration": 0.06,
          "phone": "n_I"
        },
        {
          "duration": 0.1,
          "phone": "s_I"
        },
        {
          "duration": 0.06,
          "phone": "ih_I"
        },
        {
          "duration": 0.03,
          "phone": "d_I"
        },
        {
          "duration": 0.08,
          "phone": "er_I"
        },
        {
          "duration": 0.05,
          "phone": "ah_I"
        },
        {
          "duration": 0.04,
          "phone": "b_I"
        },
        {
          "duration": 0.06,
          "phone": "ah_I"
        },
        {
          "duration": 0.18,
          "phone": "l_E"
        }
      ],
      "start": 3.13,
      "startOffset": 59,
      "word": "CONSIDERABLE"
    },
    {
      "alignedWord": "it",
      "case": "success",
      "end": 4.630000000000001,
      "endOffset": 74,
      "phones": [
        {
          "duration": 0.11,
          "phone": "ih_B"
        },
        {
          "duration": 0.08,
          "phone": "t_E"
        }
      ],
      "start": 4.44,
      "startOffset": 72,
      "word": "IT"
    },
    {
      "alignedWord": "took",
      "case": "success",
      "end": 4.86,
      "endOffset": 79,
      "phones": [
        {
          "duration": 0.04,
          "phone": "t_B"
        },
        {
          "duration": 0.1,
          "phone": "uh_I"
        },
        {
          "duration": 0.09,
          "phone": "k_E"
        }
      ],
      "start": 4.63,
      "startOffset": 75,
      "word": "TOOK"
    },
    {
      "alignedWord": "half",
      "case": "success",
      "end": 5.19,
      "endOffset": 84,
      "phones": [
        {
          "duration": 0.13,
          "phone": "hh_B"
        },
        {
          "duration": 0.13,
          "phone": "ae_I"
        },
        {
          "duration": 0.07,
          "phone": "f_E"
        }
      ],
      "start": 4.86,
      "startOffset": 80,
      "word": "HALF"
    },
    {
      "alignedWord": "an",
      "case": "success",
      "end": 5.32,
      "endOffset": 87,
      "phones": [
        {
          "duration": 0.04,
          "phone": "ah_B"
        },
        {
          "duration": 0.09,
          "phone": "n_E"
        }
      ],
      "start": 5.19,
      "startOffset": 85,
      "word": "AN"
    },
    {
      "alignedWord": "hour",
      "case": "success",
      "end": 5.6000000000000005,
      "endOffset": 92,
      "phones": [
        {
          "duration": 0.16,
          "phone": "aw_B"
        },
        {
          "duration": 0.12,
          "phone": "er_E"
        }
      ],
      "start": 5.32,
      "startOffset": 88,
      "word": "HOUR"
    },
    {
      "alignedWord": "to",
      "case": "success",
      "end": 5.75,
      "endOffset": 95,
      "phones": [
        {
          "duration": 0.08,
          "phone": "t_B"
        },
        {
          "duration": 0.05,
          "phone": "ah_E"
        }
      ],
      "start": 5.62,
      "startOffset": 93,
      "word": "TO"
    },
    {
      "alignedWord": "bring",
      "case": "success",
      "end": 6.0,
      "endOffset": 101,
      "phones": [
        {
          "duration": 0.09,
          "phone": "b_B"
        },
        {
          "duration": 0.03,
          "phone": "r_I"
        },
        {
          "duration": 0.07,
          "phone": "ih_I"
        },
        {
          "duration": 0.06,
          "phone": "ng_E"
        }
      ],
      "start": 5.75,
      "startOffset": 96,
      "word": "BRING"
    },
    {
      "alignedWord": "us",
      "case": "success",
      "end": 6.16,
      "endOffset": 104,
      "phones": [
        {
          "duration": 0.08,
          "phone": "ah_B"
        },
        {
          "duration": 0.08,
          "phone": "s_E"
        }
      ],
      "start": 6.0,
      "startOffset": 102,
      "word": "US"
    },
    {
      "alignedWord": "to",
      "case": "success",
      "end": 6.4799999999999995,
      "endOffset": 107,
      "phones": [
        {
          "duration": 0.13,
          "phone": "t_B"
        },
        {
          "duration": 0.17,
          "phone": "uw_E"
        }
      ],
      "start": 6.18,
      "startOffset": 105,
      "word": "TO"
    },
    {
      "alignedWord": "the",
      "case": "success",
      "end": 6.640000000000001,
      "endOffset": 111,
      "phones": [
        {
          "duration": 0.1,
          "phone": "dh_B"
        },
        {
          "duration": 0.05,
          "phone": "ah_E"
        }
      ],
      "start": 6.49,
      "startOffset": 108,
      "word": "THE"
    },
    {
      "alignedWord": "wall",
      "case": "success",
      "end": 7.04,
      "endOffset": 116,
      "phones": [
        {
          "duration": 0.1,
          "phone": "w_B"
        },
        {
          "duration": 0.19,
          "phone": "ao_I"
        },
        {
          "duration": 0.11,
          "phone": "l_E"
        }
      ],
      "start": 6.64,
      "startOffset": 112,
      "word": "WALL"
    },
    {
      "alignedWord": "of",
      "case": "success",
      "end": 7.1899999999999995,
      "endOffset": 119,
      "phones": [
        {
          "duration": 0.07,
          "phone": "ah_B"
        },
        {
          "duration": 0.07,
          "phone": "v_E"
        }
      ],
      "start": 7.05,
      "startOffset": 117,
      "word": "OF"
    },
    {
      "alignedWord": "rock",
      "case": "success",
      "end": 7.65,
      "endOffset": 124,
      "phones": [
        {
          "duration": 0.1,
          "phone": "r_B"
        },
        {
          "duration": 0.12,
          "phone": "aa_I"
        },
        {
          "duration": 0.24,
          "phone": "k_E"
        }
      ],
      "start": 7.19,
      "startOffset": 120,
      "word": "ROCK"
    },
    {
      "alignedWord": "we",
      "case": "success",
      "end": 8.68,
      "endOffset": 127,
      "phones": [
        {
          "duration": 0.1,
          "phone": "w_B"
        },
        {
          "duration": 0.08,
          "phone": "iy_E"
        }
      ],
      "start": 8.5,
      "startOffset": 125,
      "word": "WE"
    },
    {
      "alignedWord": "trampled",
      "case": "success",
      "end": 9.129999,
      "endOffset": 136,
      "phones": [
        {
          "duration": 0.06,
          "phone": "t_B"
        },
        {
          "duration": 0.08,
          "phone": "r_I"
        },
        {
          "duration": 0.05,
          "phone": "ae_I"
        },
        {
          "duration": 0.06,
          "phone": "m_I"
        },
        {
          "duration": 0.04,
          "phone": "p_I"
        },
        {
          "duration": 0.03,
          "phone": "ah_I"
        },
        {
          "duration": 0.05,
          "phone": "l_I"
        },
        {
          "duration": 0.08,
          "phone": "d_E"
        }
      ],
      "start": 8.679999,
      "startOffset": 128,
      "word": "TRAMPLED"
    },
    {
      "alignedWord": "under",
      "case": "success",
      "end": 9.42,
      "endOffset": 142,
      "phones": [
        {
          "duration": 0.06,
          "phone": "ah_B"
        },
        {
          "duration": 0.06,
          "phone": "n_I"
        },
        {
          "duration": 0.06,
          "phone": "d_I"
        },
        {
          "duration": 0.09,
          "phone": "er_E"
        }
      ],
      "start": 9.15,
      "startOffset": 137,
      "word": "UNDER"
    },
    {
      "alignedWord": "our",
      "case": "success",
      "end": 9.54,
      "endOffset": 146,
      "phones": [
        {
          "duration": 0.04,
          "phone": "aa_B"
        },
        {
          "duration": 0.08,
          "phone": "r_E"
        }
      ],
      "start": 9.42,
      "startOffset": 143,
      "word": "OUR"
    },
    {
      "alignedWord": "feet",
      "case": "success",
      "end": 9.829999999999998,
      "endOffset": 151,
      "phones": [
        {
          "duration": 0.11,
          "phone": "f_B"
        },
        {
          "duration": 0.12,
          "phone": "iy_I"
        },
        {
          "duration": 0.06,
          "phone": "t_E"
        }
      ],
      "start": 9.54,
      "startOffset": 147,
      "word": "FEET"
    },
    {
      "alignedWord": "<unk>",
      "case": "success",
      "end": 10.41,
      "endOffset": 162,
      "phones": [
        {
          "duration": 0.5,
          "phone": "oov_S"
        }
      ],
      "start": 9.91,
      "startOffset": 152,
      "word": "NUMBERLESS"
    },
    {
      "alignedWord": "shells",
      "case": "success",
      "end": 10.92,
      "endOffset": 169,
      "phones": [
        {
          "duration": 0.18,
          "phone": "sh_B"
        },
        {
          "duration": 0.11,
          "phone": "eh_I"
        },
        {
          "duration": 0.14,
          "phone": "l_I"
        },
        {
          "duration": 0.08,
          "phone": "z_E"
        }
      ],
      "start": 10.41,
      "startOffset": 163,
      "word": "SHELLS"
    },
    {
      "alignedWord": "of",
      "case": "success",
      "end": 11.129999999999999,
      "endOffset": 172,
      "phones": [
        {
          "duration": 0.11,
          "phone": "ah_B"
        },
        {
          "duration": 0.07,
          "phone": "v_E"
        }
      ],
      "start": 10.95,
      "startOffset": 170,
      "word": "OF"
    },
    {
      "alignedWord": "all",
      "case": "success",
      "end": 11.429998999999999,
      "endOffset": 176,
      "phones": [
        {
          "duration": 0.2,
          "phone": "ao_B"
        },
        {
          "duration": 0.09,
          "phone": "l_E"
        }
      ],
      "start": 11.139999,
      "startOffset": 173,
      "word": "ALL"
    },
    {
      "alignedWord": "the",
      "case": "success",
      "end": 11.519999,
      "endOffset": 180,
      "phones": [
        {
          "duration": 0.04,
          "phone": "dh_B"
        },
        {
          "duration": 0.05,
          "phone": "ah_E"
        }
      ],
      "start": 11.429999,
      "startOffset": 177,
      "word": "THE"
    },
    {
      "alignedWord": "forms",
      "case": "success",
      "end": 11.98,
      "endOffset": 186,
      "phones": [
        {
          "duration": 0.12,
          "phone": "f_B"
        },
        {
          "duration": 0.12,
          "phone": "ao_I"
        },
        {
          "duration": 0.08,
          "phone": "r_I"
        },
        {
          "duration": 0.07,
          "phone": "m_I"
        },
        {
          "duration": 0.07,
          "phone": "z_E"
        }
      ],
      "start": 11.52,
      "startOffset": 181,
      "word": "FORMS"
    },
    {
      "alignedWord": "and",
      "case": "success",
      "end": 12.17,
      "endOffset": 190,
      "phones": [
        {
          "duration": 0.05,
          "phone": "ah_B"
        },
        {
          "duration": 0.07,
          "phone": "n_I"
        },
        {
          "duration": 0.07,
          "phone": "d_E"
        }
      ],
      "start": 11.98,
      "startOffset": 187,
      "word": "AND"
    },
    {
      "alignedWord": "sizes",
      "case": "success",
      "end": 12.78,
      "endOffset": 196,
      "phones": [
        {
          "duration": 0.11,
          "phone": "s_B"
        },
        {
          "duration": 0.14,
          "phone": "ay_I"
        },
        {
          "duration": 0.08,
          "phone": "z_I"
        },
        {
          "duration": 0.11,
          "phone": "ih_I"
        },
        {
          "duration": 0.17,
          "phone": "z_E"
        }
      ],
      "start": 12.17,
      "startOffset": 191,
      "word": "SIZES"
    },
    {
      "alignedWord": "which",
      "case": "success",
      "end": 13.190000000000001,
      "endOffset": 202,
      "phones": [
        {
          "duration": 0.04,
          "phone": "hh_B"
        },
        {
          "duration": 0.06,
          "phone": "w_I"
        },
        {
          "duration": 0.04,
          "phone": "ih_I"
        },
        {
          "duration": 0.07,
          "phone": "ch_E"
        }
      ],
      "start": 12.98,
      "startOffset": 197,
      "word": "WHICH"
    },
    {
      "alignedWord": "existed",
      "case": "success",
      "end": 13.709999999999999,
      "endOffset": 210,
      "phones": [
        {
          "duration": 0.05,
          "phone": "ih_B"
        },
        {
          "duration": 0.06,
          "phone": "g_I"
        },
        {
          "duration": 0.09,
          "phone": "z_I"
        },
        {
          "duration": 0.08,
          "phone": "ih_I"
        },
        {
          "duration": 0.05,
          "phone": "s_I"
        },
        {
          "duration": 0.05,
          "phone": "t_I"
        },
        {
          "duration": 0.06,
          "phone": "ah_I"
        },
        {
          "duration": 0.08,
          "phone": "d_E"
        }
      ],
      "start": 13.19,
      "startOffset": 203,
      "word": "EXISTED"
    },
    {
      "alignedWord": "in",
      "case": "success",
      "end": 13.869999,
      "endOffset": 213,
      "phones": [
        {
          "duration": 0.09,
          "phone": "ih_B"
        },
        {
          "duration": 0.06,
          "phone": "n_E"
        }
      ],
      "start": 13.719999,
      "startOffset": 211,
      "word": "IN"
    },
    {
      "alignedWord": "the",
      "case": "success",
      "end": 14.0,
      "endOffset": 217,
      "phones": [
        {
          "duration": 0.04,
          "phone": "dh_B"
        },
        {
          "duration": 0.09,
          "phone": "iy_E"
        }
      ],
      "start": 13.87,
      "startOffset": 214,
      "word": "THE"
    },
    {
      "alignedWord": "earliest",
      "case": "success",
      "end": 14.469999000000001,
      "endOffset": 226,
      "phones": [
        {
          "duration": 0.15,
          "phone": "er_B"
        },
        {
          "duration": 0.08,
          "phone": "l_I"
        },
        {
          "duration": 0.08,
          "phone": "iy_I"
        },
        {
          "duration": 0.04,
          "phone": "ah_I"
        },
        {
          "duration": 0.05,
          "phone": "s_I"
        },
        {
          "duration": 0.06,
          "phone": "t_E"
        }
      ],
      "start": 14.009999,
      "startOffset": 218,
      "word": "EARLIEST"
    },
    {
      "alignedWord": "ages",
      "case": "success",
      "end": 14.84,
      "endOffset": 231,
      "phones": [
        {
          "duration": 0.17,
          "phone": "ey_B"
        },
        {
          "duration": 0.07,
          "phone": "jh_I"
        },
        {
          "duration": 0.06,
          "phone": "ih_I"
        },
        {
          "duration": 0.05,
          "phone": "z_E"
        }
      ],
      "start": 14.49,
      "startOffset": 227,
      "word": "AGES"
    },
    {
      "alignedWord": "of",
      "case": "success",
      "end": 14.989999000000001,
      "endOffset": 234,
      "phones": [
        {
          "duration": 0.06,
          "phone": "ah_B"
        },
        {
          "duration": 0.09,
          "phone": "v_E"
        }
      ],
      "start": 14.839999,
      "startOffset": 232,
      "word": "OF"
    },
    {
      "alignedWord": "the",
      "case": "success",
      "end": 15.08,
      "endOffset": 238,
      "phones": [
        {
          "duration": 0.01,
          "phone": "dh_B"
        },
        {
          "duration": 0.08,
          "phone": "ah_E"
        }
      ],
      "start": 14.99,
      "startOffset": 235,
      "word": "THE"
    },
    {
      "alignedWord": "world",
      "case": "success",
      "end": 15.56,
      "endOffset": 244,
      "phones": [
        {
          "duration": 0.11,
          "phone": "w_B"
        },
        {
          "duration": 0.11,
          "phone": "er_I"
        },
        {
          "duration": 0.13,
          "phone": "l_I"
        },
        {
          "duration": 0.13,
          "phone": "d_E"
        }
      ],
      "start": 15.08,
      "startOffset": 239,
      "word": "WORLD"
    }
  ]
}