{
  "transcript": "AND HAD MET MY PEOPLE THEY WERE CAMPED SOME THIRTY MILES AWAY HE THOUGHT",
  "words": [
    {
      "alignedWord": "and",
      "case": "success",
      "end": 0.33999999999999997,
      "endOffset": 3,
      "phones": [
        {
          "duration": 0.08,
          "phone": "ae_B"
        },
        {
          "duration": 0.03,
          "phone": "n_I"
        },
        {
          "duration": 0.04,
          "phone": "d_E"
        }
      ],
      "start": 0.19,
      "startOffset": 0,
      "word": "AND"
    },
    {
      "alignedWord": "had",
      "case": "success",
      "end": 0.49,
      "endOffset": 7,
      "phones": [
        {
          "duration": 0.01,
          "phone": "hh_B"
        },
        {
          "duration": 0.07,
          "phone": "ae_I"
        },
        {
          "duration": 0.07,
          "phone": "d_E"
        }
      ],
      "start": 0.34,
      "startOffset": 4,
      "word": "HAD"
    },
    {
      "alignedWord": "met",
      "case": "success",
      "end": 0.65,
      "endOffset": 11,
      "phones": [
        {
          "duration": 0.04,
          "phone": "m_B"
        },
        {
          "duration": 0.08,
          "phone": "eh_I"
        },
        {
          "duration": 0.04,
          "phone": "t_E"
        }
      ],
      "start": 0.49,
      "startOffset": 8,
      "word": "MET"
    },
    {
      "alignedWord": "my",
      "case": "success",
      "end": 0.79,
      "endOffset": 14,
      "phones": [
        {
          "duration": 0.04,
          "phone": "m_B"
        },
        {
          "duration": 0.1,
          "phone": "ay_E"
        }
      ],
      "start": 0.65,
      "startOffset": 12,
      "word": "MY"
    },
    {
      "alignedWord": "people",
      "case": "success",
      "end": 1.21,
      "endOffset": 21,
      "phones": [
        {
          "duration": 0.07,
          "phone": "p_B"
        },
        {
          "duration": 0.09,
          "phone": "iy_I"
        },
        {
          "duration": 0.07,
          "phone": "p_I"
        },
        {
          "duration": 0.05,
          "phone": "ah_I"
        },
        {
          "duration": 0.14,
          "phone": "l_E"
        }
      ],
      "start": 0.79,
      "startOffset": 15,
      "word": "PEOPLE"
    },
    {
      "alignedWord": "they",
      "case": "success",
      "end": 1.7200000000000002,
      "endOffset": 26,
      "phones": [
        {
          "duration": 0.09,
          "phone": "dh_B"
        },
        {
          "duration": 0.05,
          "phone": "ey_E"
        }
      ],
      "start": 1.58,
      "startOffset": 22,
      "word": "THEY"
    },
    {
      "alignedWord": "were",
      "case": "success",
      "end": 1.8599999999999999,
      "endOffset": 31,
      "phones": [
        {
          "duration": 0.07,
          "phone": "w_B"
        },
        {
          "duration": 0.07,
          "phone": "er_E"
        }
      ],
      "start": 1.72,
      "startOffset": 27,
      "word": "WERE"
    },
    {
      "alignedWord": "camped",
      "case": "success",
      "end": 2.18,
      "endOffset": 38,
      "phones": [
        {
          "duration": 0.12,
          "phone": "k_B"
        },
        {
          "duration": 0.1,
          "phone": "ae_I"
        },
        {
          "duration": 0.04,
          "phone": "m_I"
        },
        {
          "duration": 0.05,
          "phone": "p_I"
        },
        {
          "duration": 0.01,
          "phone": "t_E"
        }
      ],
      "start": 1.86,
      "startOffset": 32,
      "word": "CAMPED"
    },
    {
      "alignedWord": "some",
      "case": "success",
      "end": 2.44,
      "endOffset": 43,
      "phones": [
        {
          "duration": 0.09,
          "phone": "s_B"
        },
        {
          "duration": 0.06,
          "phone": "ah_I"
        },
        {
          "duration": 0.1,
          "phone": "m_E"
        }
      ],
      "start": 2.19,
      "startOffset": 39,
      "word": "SOME"
    },
    {
      "alignedWord": "thirty",
      "case": "success",
      "end": 2.7,
      "endOffset": 50,
      "phones": [
        {
          "duration": 0.09,
          "phone": "th_B"
        },
        {
          "duration": 0.06,
          "phone": "er_I"
        },
        {
          "duration": 0.05,
          "phone": "t_I"
        },
        {
          "duration": 0.05,
          "phone": "iy_E"
        }
      ],
      "start": 2.45,
      "startOffset": 44,
      "word": "THIRTY"
    },
    {
      "alignedWord": "miles",
      "case": "success",
      "end": 2.96,
      "endOffset": 56,
      "phones": [
        {
          "duration": 0.05,
          "phone": "m_B"
        },
        {
          "duration": 0.1,
          "phone": "ay_I"
        },
        {
          "duration": 0.07,
          "phone": "l_I"
        },
        {
          "duration": 0.04,
          "phone": "z_E"
        }
      ],
      "start": 2.7,
      "startOffset": 51,
      "word": "MILES"
    },
    {
      "alignedWord": "away",
      "case": "success",
      "end": 3.29,
      "endOffset": 61,
      "phones": [
        {
          "duration": 0.09,
          "phone": "ah_B"
        },
        {
          "duration": 0.12,
          "phone": "w_I"
        },
        {
          "duration": 0.12,
          "phone": "ey_E"
        }
      ],
      "start": 2.96,
      "startOffset": 57,
      "word": "AWAY"
    },
    {
      "alignedWord": "he",
      "case": "success",
      "end": 3.42,
      "endOffset": 64,
      "phones": [
        {
          "duration": 0.05,
          "phone": "hh_B"
        },
        {
          "duration": 0.08,
          "phone": "iy_E"
        }
      ],
      "start": 3.29,
      "startOffset": 62,
      "word": "HE"
    },
    {
      "alignedWord": "thought",
      "case": "success",
      "end": 3.63,
      "endOffset": 72,
      "phones": [
        {
          "duration": 0.1,
          "phone": "th_B"
        },
        {
          "duration": 0.11,
          "phone": "ao_I"
        }
      ],
      "start": 3.42,
      "startOffset": 65,
      "word": "THOUGHT"
    }
  ]
}