{
  "transcript": "POOR MISSUS LOW WE CAN FORESEE THAT THERE IS MUCH GRIEF IN STORE FOR HER AND SOME ROCKS AHEAD TOO IN THE POLITICAL CAREER OF HER HUSBAND PHINEAS WAS STILL IN LONDON HANGING ABOUT THE CLUBS DOING NOTHING",
  "words": [
    {
      "alignedWord": "poor",
      "case": "success",
      "end": 0.75,
      "endOffset": 4,
      "phones": [
        {
          "duration": 0.11,
          "phone": "p_B"
        },
        {
          "duration": 0.09,
          "phone": "uw_I"
        },
        {
          "duration": 0.04,
          "phone": "r_E"
        }
      ],
      "start": 0.51,
      "startOffset": 0,
      "word": "POOR"
    },
    {
      "alignedWord": "missus",
      "case": "success",
      "end": 1.05,
      "endOffset": 11,
      "phones": [
        {
          "duration": 0.05,
          "phone": "m_B"
        },
        {
          "duration": 0.06,
          "phone": "ih_I"
        },
        {
          "duration": 0.05,
          "phone": "s_I"
        },
        {
          "duration": 0.06,
          "phone": "ih_I"
        },
        {
          "duration": 0.08,
          "phone": "z_E"
        }
      ],
      "start": 0.75,
      "startOffset": 5,
      "word": "MISSUS"
    },
    {
      "alignedWord": "low",
      "case": "success",
      "end": 1.44,
      "endOffset": 15,
      "phones": [
        {
          "duration": 0.1,
          "phone": "l_B"
        },
        {
          "duration": 0.29,
          "phone": "ow_E"
        }
      ],
      "start": 1.05,
      "startOffset": 12,
      "word": "LOW"
    },
    {
      "alignedWord": "we",
      "case": "success",
      "end": 2.1999999999999997,
      "endOffset": 18,
      "phones": [
        {
          "duration": 0.1,
          "phone": "w_B"
        },
        {
          "duration": 0.07,
          "phone": "iy_E"
        }
      ],
      "start": 2.03,
      "startOffset": 16,
      "word": "WE"
    },
    {
      "alignedWord": "can",
      "case": "success",
      "end": 2.3800000000000003,
      "endOffset": 22,
      "phones": [
        {
          "duration": 0.04,
          "phone": "k_B"
        },
        {
          "duration": 0.06,
          "phone": "ah_I"
        },
        {
          "duration": 0.08,
          "phone": "n_E"
        }
      ],
      "start": 2.2,
      "startOffset": 19,
      "word": "CAN"
    },
    {
      "alignedWord": "foresee",
      "case": "success",
      "end": 2.92,
      "endOffset": 30,
      "phones": [
        {
          "duration": 0.02,
          "phone": "f_B"
        },
        {
          "duration": 0.03,
          "phone": "ao_I"
        },
        {
          "duration": 0.07,
          "phone": "r_I"
        },
        {
          "duration": 0.15,
          "phone": "s_I"
        },
        {
          "duration": 0.27,
          "phone": "iy_E"
        }
      ],
      "start": 2.38,
      "startOffset": 23,
      "word": "FORESEE"
    },
    {
      "alignedWord": "that",
      "case": "success",
      "end": 3.21,
      "endOffset": 35,
      "phones": [
        {
          "duration": 0.07,
          "phone": "dh_B"
        },
        {
          "duration": 0.02,
          "phone": "ah_I"
        },
        {
          "duration": 0.07,
          "phone": "t_E"
        }
      ],
      "start": 3.05,
      "startOffset": 31,
      "word": "THAT"
    },
    {
      "alignedWord": "there",
      "case": "success",
      "end": 3.33,
      "endOffset": 41,
      "phones": [
        {
          "duration": 0.01,
          "phone": "dh_B"
        },
        {
          "duration": 0.07,
          "phone": "eh_I"
        },
        {
          "duration": 0.04,
          "phone": "r_E"
        }
      ],
      "start": 3.21,
      "startOffset": 36,
      "word": "THERE"
    },
    {
      "alignedWord": "is",
      "case": "success",
      "end": 3.47,
      "endOffset": 44,
      "phones": [
        {
          "duration": 0.06,
          "phone": "ih_B"
        },
        {
          "duration": 0.08,
          "phone": "z_E"
        }
      ],
      "start": 3.33,
      "startOffset": 42,
      "word": "IS"
    },
    {
      "alignedWord": "much",
      "case": "success",
      "end": 3.83,
      "endOffset": 49,
      "phones": [
        {
          "duration": 0.09,
          "phone": "m_B"
        },
        {
          "duration": 0.11,
          "phone": "ah_I"
        },
        {
          "duration": 0.16,
          "phone": "ch_E"
        }
      ],
      "start": 3.47,
      "startOffset": 45,
      "word": "MUCH"
    },
    {
      "alignedWord": "grief",
      "case": "success",
      "end": 4.2299999999999995,
      "endOffset": 55,
      "phones": [
        {
          "duration": 0.07,
          "phone": "g_B"
        },
        {
          "duration": 0.1,
          "phone": "r_I"
        },
        {
          "duration": 0.11,
          "phone": "iy_I"
        },
        {
          "duration": 0.09,
          "phone": "f_E"
        }
      ],
      "start": 3.86,
      "startOffset": 50,
      "word": "GRIEF"
    },
    {
      "alignedWord": "in",
      "case": "success",
      "end": 4.340000000000001,
      "endOffset": 58,
      "phones": [
        {
          "duration": 0.05,
          "phone": "ih_B"
        },
        {
          "duration": 0.06,
          "phone": "n_E"
        }
      ],
      "start": 4.23,
      "startOffset": 56,
      "word": "IN"
    },
    {
      "alignedWord": "store",
      "case": "success",
      "end": 4.66,
      "endOffset": 64,
      "phones": [
        {
          "duration": 0.07,
          "phone": "s_B"
        },
        {
          "duration": 0.09,
          "phone": "t_I"
        },
        {
          "duration": 0.11,
          "phone": "ao_I"
        },
        {
          "duration": 0.05,
          "phone": "r_E"
        }
      ],
      "start": 4.34,
      "startOffset": 59,
      "word": "STORE"
    },
    {
      "alignedWord": "for",
      "case": "success",
      "end": 4.82,
      "endOffset": 68,
      "phones": [
        {
          "duration": 0.06,
          "phone": "f_B"
        },
        {
          "duration": 0.07,
          "phone": "er_E"
        }
      ],
      "start": 4.69,
      "startOffset": 65,
      "word": "FOR"
    },
    {
      "alignedWord": "her",
      "case": "success",
      "end": 5.11,
      "endOffset": 72,
      "phones": [
        {
          "duration": 0.08,
          "phone": "hh_B"
        },
        {
          "duration": 0.21,
          "phone": "er_E"
        }
      ],
      "start": 4.82,
      "startOffset": 69,
      "word": "HER"
    },
    {
      "alignedWord": "and",
      "case": "success",
      "end": 5.77,
      "endOffset": 76,
      "phones": [
        {
          "duration": 0.1,
          "phone": "ah_B"
        },
        {
          "duration": 0.04,
          "phone": "n_I"
        },
        {
          "duration": 0.07,
          "phone": "d_E"
        }
      ],
      "start": 5.56,
      "startOffset": 73,
      "word": "AND"
    },
    {
      "alignedWord": "some",
      "case": "success",
      "end": 5.989999999999999,
      "endOffset": 81,
      "phones": [
        {
          "duration": 0.06,
          "phone": "s_B"
        },
        {
          "duration": 0.07,
          "phone": "ah_I"
        },
        {
          "duration": 0.09,
          "phone": "m_E"
        }
      ],
      "start": 5.77,
      "startOffset": 77,
      "word": "SOME"
    },
    {
      "alignedWord": "rocks",
      "case": "success",
      "end": 6.37,
      "endOffset": 87,
      "phones": [
        {
          "duration": 0.1,
          "phone": "r_B"
        },
        {
          "duration": 0.09,
          "phone": "aa_I"
        },
        {
          "duration": 0.13,
          "phone": "k_I"
        },
        {
          "duration": 0.06,
          "phone": "s_E"
        }
      ],
      "start": 5.99,
      "startOffset": 82,
      "word": "ROCKS"
    },
    {
      "alignedWord": "ahead",
      "case": "success",
      "end": 6.68,
      "endOffset": 93,
      "phones": [
        {
          "duration": 0.06,
          "phone": "ah_B"
        },
        {
          "duration": 0.06,
          "phone": "hh_I"
        },
        {
          "duration": 0.09,
          "phone": "eh_I"
        },
        {
          "duration": 0.1,
          "phone": "d_E"
        }
      ],
      "start": 6.37,
      "startOffset": 88,
      "word": "AHEAD"
    },
    {
      "alignedWord": "too",
      "case": "success",
      "end": 7.069999999999999,
      "endOffset": 97,
      "phones": [
        {
          "duration": 0.1,
          "phone": "t_B"
        },
        {
          "duration": 0.29,
          "phone": "uw_E"
        }
      ],
      "start": 6.68,
      "startOffset": 94,
      "word": "TOO"
    },
    {
      "alignedWord": "in",
      "case": "success",
      "end": 7.52,
      "endOffset": 100,
      "phones": [
        {
          "duration": 0.08,
          "phone": "ih_B"
        },
        {
          "duration": 0.06,
          "phone": "n_E"
        }
      ],
      "start": 7.38,
      "startOffset": 98,
      "word": "IN"
    },
    {
      "alignedWord": "the",
      "case": "success",
      "end": 7.6,
      "endOffset": 104,
      "phones": [
        {
          "duration": 0.03,
          "phone": "dh_B"
        },
        {
          "duration": 0.05,
          "phone": "ah_E"
        }
      ],
      "start": 7.52,
      "startOffset": 101,
      "word": "THE"
    },
    {
      "alignedWord": "political",
      "case": "success",
      "end": 8.129999999999999,
      "endOffset": 114,
      "phones": [
        {
          "duration": 0.06,
          "phone": "p_B"
        },
        {
          "duration": 0.06,
          "phone": "ah_I"
        },
        {
          "duration": 0.07,
          "phone": "l_I"
        },
        {
          "duration": 0.04,
          "phone": "ih_I"
        },
        {
          "duration": 0.07,
          "phone": "t_I"
        },
        {
          "duration": 0.07,
          "phone": "ih_I"
        },
        {
          "duration": 0.02,
          "phone": "k_I"
        },
        {
          "duration": 0.08,
          "phone": "ah_I"
        },
        {
          "duration": 0.06,
          "phone": "l_E"
        }
      ],
      "start": 7.6,
      "startOffset": 105,
      "word": "POLITICAL"
    },
    {
      "alignedWord": "career",
      "case": "success",
      "end": 8.47,
      "endOffset": 121,
      "phones": [
        {
          "duration": 0.1,
          "phone": "k_B"
        },
        {
          "duration": 0.1,
          "phone": "er_I"
        },
        {
          "duration": 0.1,
          "phone": "ih_I"
        },
        {
          "duration": 0.04,
          "phone": "r_E"
        }
      ],
      "start": 8.13,
      "startOffset": 115,
      "word": "CAREER"
    },
    {
      "alignedWord": "of",
      "case": "success",
      "end": 8.56,
      "endOffset": 124,
      "phones": [
        {
          "duration": 0.05,
          "phone": "ah_B"
        },
        {
          "duration": 0.04,
          "phone": "v_E"
        }
      ],
      "start": 8.47,
      "startOffset": 122,
      "word": "OF"
    },
    {
      "alignedWord": "her",
      "case": "success",
      "end": 8.659999,
      "endOffset": 128,
      "phones": [
        {
          "duration": 0.03,
          "phone": "hh_B"
        },
        {
          "duration": 0.07,
          "phone": "er_E"
        }
      ],
      "start": 8.559999,
      "startOffset": 125,
      "word": "HER"
    },
    {
      "alignedWord": "husband",
      "case": "success",
      "end": 9.22,
      "endOffset": 136,
      "phones": [
        {
          "duration": 0.07,
          "phone": "hh_B"
        },
        {
          "duration": 0.07,
          "phone": "ah_I"
        },
        {
          "duration": 0.12,
          "phone": "z_I"
        },
        {
          "duration": 0.01,
          "phone": "b_I"
        },
        {
          "duration": 0.06,
          "phone": "ah_I"
        },
        {
          "duration": 0.08,
          "phone": "n_I"
        },
        {
          "duration": 0.15,
          "phone": "d_E"
        }
      ],
      "start": 8.66,
      "startOffset": 129,
      "word": "HUSBAND"
    },
    {
      "alignedWord": "<unk>",
      "case": "success",
      "end": 11.629999,
      "endOffset": 144,
      "phones": [
        {
          "duration": 0.45,
          "phone": "oov_S"
        }
      ],
      "start": 11.179999,
      "startOffset": 137,
      "word": "PHINEAS"
    },
    {
      "alignedWord": "was",
      "case": "success",
      "end": 11.75,
      "endOffset": 148,
      "phones": [
        {
          "duration": 0.05,
          "phone": "w_B"
        },
        {
          "duration": 0.04,
          "phone": "ah_I"
        },
        {
          "duration": 0.01,
          "phone": "z_E"
        }
      ],
      "start": 11.65,
      "startOffset": 145,
      "word": "WAS"
    },
    {
      "alignedWord": "still",
      "case": "success",
      "end": 11.999999,
      "endOffset": 154,
      "phones": [
        {
          "duration": 0.07,
          "phone": "s_B"
        },
        {
          "duration": 0.05,
          "phone": "t_I"
        },
        {
          "duration": 0.06,
          "phone": "ih_I"
        },
        {
          "duration": 0.06,
          "phone": "l_E"
        }
      ],
      "start": 11.759999,
      "startOffset": 149,
      "word": "STILL"
    },
    {
      "alignedWord": "in",
      "case": "success",
      "end": 12.11,
      "endOffset": 157,
      "phones": [
        {
          "duration": 0.06,
          "phone": "ih_B"
        },
        {
          "duration": 0.05,
          "phone": "n_E"
        }
      ],
      "start": 12.0,
      "startOffset": 155,
      "word": "IN"
    },
    {
      "alignedWord": "london",
      "case": "success",
      "end": 12.5,
      "endOffset": 164,
      "phones": [
        {
          "duration": 0.06,
          "phone": "l_B"
        },
        {
          "duration": 0.04,
          "phone": "ah_I"
        },
        {
          "duration": 0.05,
          "phone": "n_I"
        },
        {
          "duration": 0.06,
          "phone": "d_I"
        },
        {
          "duration": 0.06,
          "phone": "ah_I"
        },
        {
          "duration": 0.12,
          "phone": "n_E"
        }
      ],
      "start": 12.11,
      "startOffset": 158,
      "word": "LONDON"
    },
    {
      "alignedWord": "hanging",
      "case": "success",
      "end": 13.0,
      "endOffset": 172,
      "phones": [
        {
          "duration": 0.11,
          "phone": "hh_B"
        },
        {
          "duration": 0.1,
          "phone": "ae_I"
        },
        {
          "duration": 0.05,
          "phone": "ng_I"
        },
        {
          "duration": 0.08,
          "phone": "ih_I"
        },
        {
          "duration": 0.05,
          "phone": "ng_E"
        }
      ],
      "start": 12.61,
      "startOffset": 165,
      "word": "HANGING"
    },
    {
      "alignedWord": "about",
      "case": "success",
      "end": 13.239999000000001,
      "endOffset": 178,
      "phones": [
        {
          "duration": 0.06,
          "phone": "ah_B"
        },
        {
          "duration": 0.04,
          "phone": "b_I"
        },
        {
          "duration": 0.06,
          "phone": "aw_I"
        },
        {
          "duration": 0.07,
          "phone": "t_E"
        }
      ],
      "start": 13.009999,
      "startOffset": 173,
      "word": "ABOUT"
    },
    {
      "alignedWord": "the",
      "case": "success",
      "end": 13.33,
      "endOffset": 182,
      "phones": [
        {
          "duration": 0.04,
          "phone": "dh_B"
        },
        {
          "duration": 0.05,
          "phone": "ah_E"
        }
      ],
      "start": 13.24,
      "startOffset": 179,
      "word": "THE"
    },
    {
      "alignedWord": "clubs",
      "case": "success",
      "end": 13.76,
      "endOffset": 188,
      "phones": [
        {
          "duration": 0.09,
          "phone": "k_B"
        },
        {
          "duration": 0.12,
          "phone": "l_I"
        },
        {
          "duration": 0.01,
          "phone": "ah_I"
        },
        {
          "duration": 0.1,
          "phone": "b_I"
        },
        {
          "duration": 0.11,
          "phone": "z_E"
        }
      ],
      "start": 13.33,
      "startOffset": 183,
      "word": "CLUBS"
    },
    {
      "alignedWord": "doing",
      "case": "success",
      "end": 14.129999,
      "endOffset": 194,
      "phones": [
        {
          "duration": 0.07,
          "phone": "d_B"
        },
        {
          "duration": 0.07,
          "phone": "uw_I"
        },
        {
          "duration": 0.08,
          "phone": "ih_I"
        },
        {
          "duration": 0.11,
          "phone": "ng_E"
        }
      ],
      "start": 13.799999,
      "startOffset": 189,
      "word": "DOING"
    },
    {
      "alignedWord": "nothing",
      "case": "success",
      "end": 14.58,
      "endOffset": 202,
      "phones": [
        {
          "duration": 0.01,
          "phone": "n_B"
        },
        {
          "duration": 0.1,
          "phone": "ah_I"
        },
        {
          "duration": 0.1,
          "phone": "th_I"
        },
        {
          "duration": 0.07,
          "phone": "ih_I"
        },
        {
          "duration": 0.17,
          "phone": "ng_E"
        }
      ],
      "start": 14.13,
      "startOffset": 195,
      "word": "NOTHING"
    }
  ]
}