{
  "transcript": "LEIF NOTICED TWO STRANGERS AN OLD MAN WHO SAT AT ERIC'S SIDE AND A YOUNG WOMAN ON THE CROSS BENCH HE TURNED TO HIS BROTHER THORSTEIN WHO SAT NEXT TO HIM WHO ARE THESE STRANGERS HE ASKED",
  "words": [
    {
      "alignedWord": "leif",
      "case": "success",
      "end": 0.8400000000000001,
      "endOffset": 4,
      "phones": [
        {
          "duration": 0.14,
          "phone": "l_B"
        },
        {
          "duration": 0.08,
          "phone": "iy_I"
        },
        {
          "duration": 0.09,
          "phone": "f_E"
        }
      ],
      "start": 0.53,
      "startOffset": 0,
      "word": "LEIF"
    },
    {
      "alignedWord": "noticed",
      "case": "success",
      "end": 1.3,
      "endOffset": 12,
      "phones": [
        {
          "duration": 0.08,
          "phone": "n_B"
        },
        {
          "duration": 0.1,
          "phone": "ow_I"
        },
        {
          "duration": 0.05,
          "phone": "t_I"
        },
        {
          "duration": 0.07,
          "phone": "ah_I"
        },
        {
          "duration": 0.15,
          "phone": "s_I"
        },
        {
          "duration": 0.01,
          "phone": "t_E"
        }
      ],
      "start": 0.84,
      "startOffset": 5,
      "word": "NOTICED"
    },
    {
      "alignedWord": "two",
      "case": "success",
      "end": 1.55,
      "endOffset": 16,
      "phones": [
        {
          "duration": 0.11,
          "phone": "t_B"
        },
        {
          "duration": 0.1,
          "phone": "uw_E"
        }
      ],
      "start": 1.34,
      "startOffset": 13,
      "word": "TWO"
    },
    {
      "alignedWord": "strangers",
      "case": "success",
      "end": 2.31,
      "endOffset": 26,
      "phones": [
        {
          "duration": 0.07,
          "phone": "s_B"
        },
        {
          "duration": 0.08,
          "phone": "t_I"
        },
        {
          "duration": 0.08,
          "phone": "r_I"
        },
        {
          "duration": 0.09,
          "phone": "ey_I"
        },
        {
          "duration": 0.06,
          "phone": "n_I"
        },
        {
          "duration": 0.07,
          "phone": "jh_I"
        },
        {
          "duration": 0.12,
          "phone": "er_I"
        },
        {
          "duration": 0.19,
          "phone": "z_E"
        }
      ],
      "start": 1.55,
      "startOffset": 17,
      "word": "STRANGERS"
    },
    {
      "alignedWord": "an",
      "case": "success",
      "end": 3.3000000000000003,
      "endOffset": 29,
      "phones": [
        {
          "duration": 0.1,
          "phone": "ah_B"
        },
        {
          "duration": 0.06,
          "phone": "n_E"
        }
      ],
      "start": 3.14,
      "startOffset": 27,
      "word": "AN"
    },
    {
      "alignedWord": "old",
      "case": "success",
      "end": 3.54,
      "endOffset": 33,
      "phones": [
        {
          "duration": 0.07,
          "phone": "ow_B"
        },
        {
          "duration": 0.07,
          "phone": "l_I"
        },
        {
          "duration": 0.1,
          "phone": "d_E"
        }
      ],
      "start": 3.3,
      "startOffset": 30,
      "word": "OLD"
    },
    {
      "alignedWord": "man",
      "case": "success",
      "end": 3.98,
      "endOffset": 37,
      "phones": [
        {
          "duration": 0.08,
          "phone": "m_B"
        },
        {
          "duration": 0.27,
          "phone": "ae_I"
        },
        {
          "duration": 0.09,
          "phone": "n_E"
        }
      ],
      "start": 3.54,
      "startOffset": 34,
      "word": "MAN"
    },
    {
      "alignedWord": "who",
      "case": "success",
      "end": 4.14,
      "endOffset": 41,
      "phones": [
        {
          "duration": 0.06,
          "phone": "hh_B"
        },
        {
          "duration": 0.1,
          "phone": "uw_E"
        }
      ],
      "start": 3.98,
      "startOffset": 38,
      "word": "WHO"
    },
    {
      "alignedWord": "sat",
      "case": "success",
      "end": 4.41,
      "endOffset": 45,
      "phones": [
        {
          "duration": 0.1,
          "phone": "s_B"
        },
        {
          "duration": 0.1,
          "phone": "ae_I"
        },
        {
          "duration": 0.07,
          "phone": "t_E"
        }
      ],
      "start": 4.14,
      "startOffset": 42,
      "word": "SAT"
    },
    {
      "alignedWord": "at",
      "case": "success",
      "end": 4.51,
      "endOffset": 48,
      "phones": [
        {
          "duration": 0.05,
          "phone": "ae_B"
        },
        {
          "duration": 0.05,
          "phone": "t_E"
        }
      ],
      "start": 4.41,
      "startOffset": 46,
      "word": "AT"
    },
    {
      "alignedWord": "<unk>",
      "case": "success",
      "end": 4.8500000000000005,
      "endOffset": 55,
      "phones": [
        {
          "duration": 0.32,
          "phone": "oov_S"
        }
      ],
      "start": 4.53,
      "startOffset": 49,
      "word": "ERIC'S"
    },
    {
      "alignedWord": "side",
      "case": "success",
      "end": 5.449999999999999,
      "endOffset": 60,
      "phones": [
        {
          "duration": 0.17,
          "phone": "s_B"
        },
        {
          "duration": 0.28,
          "phone": "ay_I"
        },
        {
          "duration": 0.15,
          "phone": "d_E"
        }
      ],
      "start": 4.85,
      "startOffset": 56,
      "word": "SIDE"
    },
    {
      "alignedWord": "and",
      "case": "success",
      "end": 5.82,
      "endOffset": 64,
      "phones": [
        {
          "duration": 0.08,
          "phone": "ae_B"
        },
        {
          "duration": 0.07,
          "phone": "n_I"
        },
        {
          "duration": 0.04,
          "phone": "d_E"
        }
      ],
      "start": 5.63,
      "startOffset": 61,
      "word": "AND"
    },
    {
      "alignedWord": "a",
      "case": "success",
      "end": 5.890000000000001,
      "endOffset": 66,
      "phones": [
        {
          "duration": 0.07,
          "phone": "ey_S"
        }
      ],
      "start": 5.82,
      "startOffset": 65,
      "word": "A"
    },
    {
      "alignedWord": "young",
      "case": "success",
      "end": 6.13,
      "endOffset": 72,
      "phones": [
        {
          "duration": 0.08,
          "phone": "y_B"
        },
        {
          "duration": 0.09,
          "phone": "ah_I"
        },
        {
          "duration": 0.07,
          "phone": "ng_E"
        }
      ],
      "start": 5.89,
      "startOffset": 67,
      "word": "YOUNG"
    },
    {
      "alignedWord": "woman",
      "case": "success",
      "end": 6.43,
      "endOffset": 78,
      "phones": [
        {
          "duration": 0.04,
          "phone": "w_B"
        },
        {
          "duration": 0.1,
          "phone": "uh_I"
        },
        {
          "duration": 0.02,
          "phone": "m_I"
        },
        {
          "duration": 0.08,
          "phone": "ah_I"
        },
        {
          "duration": 0.06,
          "phone": "n_E"
        }
      ],
      "start": 6.13,
      "startOffset": 73,
      "word": "WOMAN"
    },
    {
      "alignedWord": "on",
      "case": "success",
      "end": 6.5600000000000005,
      "endOffset": 81,
      "phones": [
        {
          "duration": 0.06,
          "phone": "ao_B"
        },
        {
          "duration": 0.06,
          "phone": "n_E"
        }
      ],
      "start": 6.44,
      "startOffset": 79,
      "word": "ON"
    },
    {
      "alignedWord": "the",
      "case": "success",
      "end": 6.6499999999999995,
      "endOffset": 85,
      "phones": [
        {
          "duration": 0.05,
          "phone": "dh_B"
        },
        {
          "duration": 0.04,
          "phone": "ah_E"
        }
      ],
      "start": 6.56,
      "startOffset": 82,
      "word": "THE"
    },
    {
      "alignedWord": "cross",
      "case": "success",
      "end": 6.99,
      "endOffset": 91,
      "phones": [
        {
          "duration": 0.08,
          "phone": "k_B"
        },
        {
          "duration": 0.06,
          "phone": "r_I"
        },
        {
          "duration": 0.12,
          "phone": "ao_I"
        },
        {
          "duration": 0.08,
          "phone": "s_E"
        }
      ],
      "start": 6.65,
      "startOffset": 86,
      "word": "CROSS"
    },
    {
      "alignedWord": "bench",
      "case": "success",
      "end": 7.489999999999999,
      "endOffset": 97,
      "phones": [
        {
          "duration": 0.1,
          "phone": "b_B"
        },
        {
          "duration": 0.08,
          "phone": "eh_I"
        },
        {
          "duration": 0.07,
          "phone": "n_I"
        },
        {
          "duration": 0.22,
          "phone": "ch_E"
        }
      ],
      "start": 7.02,
      "startOffset": 92,
      "word": "BENCH"
    },
    {
      "alignedWord": "he",
      "case": "success",
      "end": 8.34,
      "endOffset": 100,
      "phones": [
        {
          "duration": 0.09,
          "phone": "hh_B"
        },
        {
          "duration": 0.06,
          "phone": "iy_E"
        }
      ],
      "start": 8.19,
      "startOffset": 98,
      "word": "HE"
    },
    {
      "alignedWord": "turned",
      "case": "success",
      "end": 8.59,
      "endOffset": 107,
      "phones": [
        {
          "duration": 0.09,
          "phone": "t_B"
        },
        {
          "duration": 0.1,
          "phone": "er_I"
        },
        {
          "duration": 0.05,
          "phone": "n_I"
        },
        {
          "duration": 0.01,
          "phone": "d_E"
        }
      ],
      "start": 8.34,
      "startOffset": 101,
      "word": "TURNED"
    },
    {
      "alignedWord": "to",
      "case": "success",
      "end": 8.68,
      "endOffset": 110,
      "phones": [
        {
          "duration": 0.03,
          "phone": "t_B"
        },
        {
          "duration": 0.06,
          "phone": "uw_E"
        }
      ],
      "start": 8.59,
      "startOffset": 108,
      "word": "TO"
    },
    {
      "alignedWord": "his",
      "case": "success",
      "end": 8.829999,
      "endOffset": 114,
      "phones": [
        {
          "duration": 0.06,
          "phone": "hh_B"
        },
        {
          "duration": 0.01,
          "phone": "ih_I"
        },
        {
          "duration": 0.08,
          "phone": "z_E"
        }
      ],
      "start": 8.679999,
      "startOffset": 111,
      "word": "HIS"
    },
    {
      "alignedWord": "brother",
      "case": "success",
      "end": 9.15,
      "endOffset": 122,
      "phones": [
        {
          "duration": 0.05,
          "phone": "b_B"
        },
        {
          "duration": 0.05,
          "phone": "r_I"
        },
        {
          "duration": 0.06,
          "phone": "ah_I"
        },
        {
          "duration": 0.07,
          "phone": "dh_I"
        },
        {
          "duration": 0.09,
          "phone": "er_E"
        }
      ],
      "start": 8.83,
      "startOffset": 115,
      "word": "BROTHER"
    },
    {
      "alignedWord": "<unk>",
      "case": "success",
      "end": 9.74,
      "endOffset": 132,
      "phones": [
        {
          "duration": 0.55,
          "phone": "oov_S"
        }
      ],
      "start": 9.19,
      "startOffset": 123,
      "word": "THORSTEIN"
    },
    {
      "alignedWord": "who",
      "case": "success",
      "end": 9.870000000000001,
      "endOffset": 136,
      "phones": [
        {
          "duration": 0.05,
          "phone": "hh_B"
        },
        {
          "duration": 0.08,
          "phone": "uw_E"
        }
      ],
      "start": 9.74,
      "startOffset": 133,
      "word": "WHO"
    },
    {
      "alignedWord": "sat",
      "case": "success",
      "end": 10.11,
      "endOffset": 140,
      "phones": [
        {
          "duration": 0.07,
          "phone": "s_B"
        },
        {
          "duration": 0.09,
          "phone": "ae_I"
        },
        {
          "duration": 0.08,
          "phone": "t_E"
        }
      ],
      "start": 9.87,
      "startOffset": 137,
      "word": "SAT"
    },
    {
      "alignedWord": "next",
      "case": "success",
      "end": 10.36,
      "endOffset": 145,
      "phones": [
        {
          "duration": 0.05,
          "phone": "n_B"
        },
        {
          "duration": 0.06,
          "phone": "eh_I"
        },
        {
          "duration": 0.1,
          "phone": "k_I"
        },
        {
          "duration": 0.04,
          "phone": "s_E"
        }
      ],
      "start": 10.11,
      "startOffset": 141,
      "word": "NEXT"
    },
    {
      "alignedWord": "to",
      "case": "success",
      "end": 10.54,
      "endOffset": 148,
      "phones": [
        {
          "duration": 0.07,
          "phone": "t_B"
        },
        {
          "duration": 0.11,
          "phone": "uw_E"
        }
      ],
      "start": 10.36,
      "startOffset": 146,
      "word": "TO"
    },
    {
      "alignedWord": "him",
      "case": "success",
      "end": 10.739999999999998,
      "endOffset": 152,
      "phones": [
        {
          "duration": 0.06,
          "phone": "ih_B"
        },
        {
          "duration": 0.14,
          "phone": "m_E"
        }
      ],
      "start": 10.54,
      "startOffset": 149,
      "word": "HIM"
    },
    {
      "alignedWord": "who",
      "case": "success",
      "end": 11.85,
      "endOffset": 156,
      "phones": [
        {
          "duration": 0.09,
          "phone": "hh_B"
        },
        {
          "duration": 0.09,
          "phone": "uw_E"
        }
      ],
      "start": 11.67,
      "startOffset": 153,
      "word": "WHO"
    },
    {
      "alignedWord": "are",
      "case": "success",
      "end": 11.979999000000001,
      "endOffset": 160,
      "phones": [
        {
          "duration": 0.06,
          "phone": "aa_B"
        },
        {
          "duration": 0.07,
          "phone": "r_E"
        }
      ],
      "start": 11.849999,
      "startOffset": 157,
      "word": "ARE"
    },
    {
      "alignedWord": "these",
      "case": "success",
      "end": 12.15,
      "endOffset": 166,
      "phones": [
        {
          "duration": 0.07,
          "phone": "dh_B"
        },
        {
          "duration": 0.07,
          "phone": "iy_I"
        },
        {
          "duration": 0.03,
          "phone": "z_E"
        }
      ],
      "start": 11.98,
      "startOffset": 161,
      "word": "THESE"
    },
    {
      "alignedWord": "strangers",
      "case": "success",
      "end": 12.94,
      "endOffset": 176,
      "phones": [
        {
          "duration": 0.06,
          "phone": "s_B"
        },
        {
          "duration": 0.06,
          "phone": "t_I"
        },
        {
          "duration": 0.07,
          "phone": "r_I"
        },
        {
          "duration": 0.1,
          "phone": "ey_I"
        },
        {
          "duration": 0.06,
          "phone": "n_I"
        },
        {
          "duration": 0.08,
          "phone": "jh_I"
        },
        {
          "duration": 0.13,
          "phone": "er_I"
        },
        {
          "duration": 0.22,
          "phone": "z_E"
        }
      ],
      "start": 12.16,
      "startOffset": 167,
      "word": "STRANGERS"
    },
    {
      "alignedWord": "he",
      "case": "success",
      "end": 13.499998999999999,
      "endOffset": 179,
      "phones": [
        {
          "duration": 0.1,
          "phone": "hh_B"
        },
        {
          "duration": 0.09,
          "phone": "iy_E"
        }
      ],
      "start": 13.309999,
      "startOffset": 177,
      "word": "HE"
    },
    {
      "alignedWord": "asked",
      "case": "success",
      "end": 14.0,
      "endOffset": 185,
      "phones": [
        {
          "duration": 0.2,
          "phone": "ae_B"
        },
        {
          "duration": 0.14,
          "phone": "s_I"
        },
        {
          "duration": 0.16,
          "phone": "t_E"
        }
      ],
      "start": 13.5,
      "startOffset": 180,
      "word": "ASKED"
    }
  ]
}