{
  "transcript": "PREPARING THEIR LESSONS FANNY CAME RUNNING IN HER HAIR IN CURL PAPERS SOME BREAD AND BUTTER IN HER HAND CARRY HAS NOT FINISHED HER BREAKFAST MISS CHANNING QUOTH SHE SHE WAS LAZY THIS MORNING I THINK SOME ONE ELSE WAS LAZY ALSO SAID CONSTANCE GENTLY DRAWING THE CHILD TO HER",
  "words": [
    {
      "alignedWord": "preparing",
      "case": "success",
      "end": 0.61,
      "endOffset": 9,
      "phones": [
        {
          "duration": 0.02,
          "phone": "p_B"
        },
        {
          "duration": 0.02,
          "phone": "r_I"
        },
        {
          "duration": 0.06,
          "phone": "iy_I"
        },
        {
          "duration": 0.08,
          "phone": "p_I"
        },
        {
          "duration": 0.1,
          "phone": "eh_I"
        },
        {
          "duration": 0.05,
          "phone": "r_I"
        },
        {
          "duration": 0.05,
          "phone": "ih_I"
        },
        {
          "duration": 0.08,
          "phone": "ng_E"
        }
      ],
      "start": 0.15,
      "startOffset": 0,
      "word": "PREPARING"
    },
    {
      "alignedWord": "their",
      "case": "success",
      "end": 0.74,
      "endOffset": 15,
      "phones": [
        {
          "duration": 0.03,
          "phone": "dh_B"
        },
        {
          "duration": 0.04,
          "phone": "eh_I"
        },
        {
          "duration": 0.06,
          "phone": "r_E"
        }
      ],
      "start": 0.61,
      "startOffset": 10,
      "word": "THEIR"
    },
    {
      "alignedWord": "lessons",
      "case": "success",
      "end": 1.3,
      "endOffset": 23,
      "phones": [
        {
          "duration": 0.06,
          "phone": "l_B"
        },
        {
          "duration": 0.1,
          "phone": "eh_I"
        },
        {
          "duration": 0.06,
          "phone": "s_I"
        },
        {
          "duration": 0.07,
          "phone": "ah_I"
        },
        {
          "duration": 0.08,
          "phone": "n_I"
        },
        {
          "duration": 0.19,
          "phone": "z_E"
        }
      ],
      "start": 0.74,
      "startOffset": 16,
      "word": "LESSONS"
    },
    {
      "alignedWord": "fanny",
      "case": "success",
      "end": 2.26,
      "endOffset": 29,
      "phones": [
        {
          "duration": 0.14,
          "phone": "f_B"
        },
        {
          "duration": 0.08,
          "phone": "ae_I"
        },
        {
          "duration": 0.07,
          "phone": "n_I"
        },
        {
          "duration": 0.07,
          "phone": "iy_E"
        }
      ],
      "start": 1.9,
      "startOffset": 24,
      "word": "FANNY"
    },
    {
      "alignedWord": "came",
      "case": "success",
      "end": 2.5,
      "endOffset": 34,
      "phones": [
        {
          "duration": 0.07,
          "phone": "k_B"
        },
        {
          "duration": 0.07,
          "phone": "ey_I"
        },
        {
          "duration": 0.1,
          "phone": "m_E"
        }
      ],
      "start": 2.26,
      "startOffset": 30,
      "word": "CAME"
    },
    {
      "alignedWord": "running",
      "case": "success",
      "end": 2.79,
      "endOffset": 42,
      "phones": [
        {
          "duration": 0.06,
          "phone": "r_B"
        },
        {
          "duration": 0.07,
          "phone": "ah_I"
        },
        {
          "duration": 0.02,
          "phone": "n_I"
        },
        {
          "duration": 0.07,
          "phone": "ih_I"
        },
        {
          "duration": 0.07,
          "phone": "ng_E"
        }
      ],
      "start": 2.5,
      "startOffset": 35,
      "word": "RUNNING"
    },
    {
      "alignedWord": "in",
      "case": "success",
      "end": 3.0700000000000003,
      "endOffset": 45,
      "phones": [
        {
          "duration": 0.09,
          "phone": "ih_B"
        },
        {
          "duration": 0.19,
          "phone": "n_E"
        }
      ],
      "start": 2.79,
      "startOffset": 43,
      "word": "IN"
    },
    {
      "alignedWord": "her",
      "case": "success",
      "end": 3.48,
      "endOffset": 49,
      "phones": [
        {
          "duration": 0.11,
          "phone": "hh_B"
        },
        {
          "duration": 0.09,
          "phone": "er_E"
        }
      ],
      "start": 3.28,
      "startOffset": 46,
      "word": "HER"
    },
    {
      "alignedWord": "hair",
      "case": "success",
      "end": 3.7,
      "endOffset": 54,
      "phones": [
        {
          "duration": 0.07,
          "phone": "hh_B"
        },
        {
          "duration": 0.1,
          "phone": "eh_I"
        },
        {
          "duration": 0.05,
          "phone": "r_E"
        }
      ],
      "start": 3.48,
      "startOffset": 50,
      "word": "HAIR"
    },
    {
      "alignedWord": "in",
      "case": "success",
      "end": 3.8600000000000003,
      "endOffset": 57,
      "phones": [
        {
          "duration": 0.08,
          "phone": "ih_B"
        },
        {
          "duration": 0.08,
          "phone": "n_E"
        }
      ],
      "start": 3.7,
      "startOffset": 55,
      "word": "IN"
    },
    {
      "alignedWord": "curl",
      "case": "success",
      "end": 4.12,
      "endOffset": 62,
      "phones": [
        {
          "duration": 0.12,
          "phone": "k_B"
        },
        {
          "duration": 0.09,
          "phone": "er_I"
        },
        {
          "duration": 0.05,
          "phone": "l_E"
        }
      ],
      "start": 3.86,
      "startOffset": 58,
      "word": "CURL"
    },
    {
      "alignedWord": "papers",
      "case": "success",
      "end": 4.68,
      "endOffset": 69,
      "phones": [
        {
          "duration": 0.1,
          "phone": "p_B"
        },
        {
          "duration": 0.08,
          "phone": "ey_I"
        },
        {
          "duration": 0.09,
          "phone": "p_I"
        },
        {
          "duration": 0.11,
          "phone": "er_I"
        },
        {
          "duration": 0.18,
          "phone": "z_E"
        }
      ],
      "start": 4.12,
      "startOffset": 63,
      "word": "PAPERS"
    },
    {
      "alignedWord": "some",
      "case": "success",
      "end": 4.96,
      "endOffset": 74,
      "phones": [
        {
          "duration": 0.12,
          "phone": "s_B"
        },
        {
          "duration": 0.05,
          "phone": "ah_I"
        },
        {
          "duration": 0.08,
          "phone": "m_E"
        }
      ],
      "start": 4.71,
      "startOffset": 70,
      "word": "SOME"
    },
    {
      "alignedWord": "bread",
      "case": "success",
      "end": 5.17,
      "endOffset": 80,
      "phones": [
        {
          "duration": 0.03,
          "phone": "b_B"
        },
        {
          "duration": 0.05,
          "phone": "r_I"
        },
        {
          "duration": 0.07,
          "phone": "eh_I"
        },
        {
          "duration": 0.06,
          "phone": "d_E"
        }
      ],
      "start": 4.96,
      "startOffset": 75,
      "word": "BREAD"
    },
    {
      "alignedWord": "and",
      "case": "success",
      "end": 5.27,
      "endOffset": 84,
      "phones": [
        {
          "duration": 0.04,
          "phone": "ah_B"
        },
        {
          "duration": 0.01,
          "phone": "n_I"
        },
        {
          "duration": 0.05,
          "phone": "d_E"
        }
      ],
      "start": 5.17,
      "startOffset": 81,
      "word": "AND"
    },
    {
      "alignedWord": "butter",
      "case": "success",
      "end": 5.489999999999999,
      "endOffset": 91,
      "phones": [
        {
          "duration": 0.02,
          "phone": "b_B"
        },
        {
          "duration": 0.1,
          "phone": "ah_I"
        },
        {
          "duration": 0.04,
          "phone": "t_I"
        },
        {
          "duration": 0.06,
          "phone": "er_E"
        }
      ],
      "start": 5.27,
      "startOffset": 85,
      "word": "BUTTER"
    },
    {
      "alignedWord": "in",
      "case": "success",
      "end": 5.59,
      "endOffset": 94,
      "phones": [
        {
          "duration": 0.06,
          "phone": "ih_B"
        },
        {
          "duration": 0.04,
          "phone": "n_E"
        }
      ],
      "start": 5.49,
      "startOffset": 92,
      "word": "IN"
    },
    {
      "alignedWord": "her",
      "case": "success",
      "end": 5.72,
      "endOffset": 98,
      "phones": [
        {
          "duration": 0.06,
          "phone": "hh_B"
        },
        {
          "duration": 0.07,
          "phone": "er_E"
        }
      ],
      "start": 5.59,
      "startOffset": 95,
      "word": "HER"
    },
    {
      "alignedWord": "hand",
      "case": "success",
      "end": 6.08,
      "endOffset": 103,
      "phones": [
        {
          "duration": 0.07,
          "phone": "hh_B"
        },
        {
          "duration": 0.13,
          "phone": "ae_I"
        },
        {
          "duration": 0.05,
          "phone": "n_I"
        },
        {
          "duration": 0.11,
          "phone": "d_E"
        }
      ],
      "start": 5.72,
      "startOffset": 99,
      "word": "HAND"
    },
    {
      "alignedWord": "carry",
      "case": "success",
      "end": 7.34,
      "endOffset": 109,
      "phones": [
        {
          "duration": 0.1,
          "phone": "k_B"
        },
        {
          "duration": 0.05,
          "phone": "eh_I"
        },
        {
          "duration": 0.06,
          "phone": "r_I"
        },
        {
          "duration": 0.05,
          "phone": "iy_E"
        }
      ],
      "start": 7.08,
      "startOffset": 104,
      "word": "CARRY"
    },
    {
      "alignedWord": "has",
      "case": "success",
      "end": 7.5,
      "endOffset": 113,
      "phones": [
        {
          "duration": 0.05,
          "phone": "hh_B"
        },
        {
          "duration": 0.05,
          "phone": "ah_I"
        },
        {
          "duration": 0.06,
          "phone": "z_E"
        }
      ],
      "start": 7.34,
      "startOffset": 110,
      "word": "HAS"
    },
    {
      "alignedWord": "not",
      "case": "success",
      "end": 7.69,
      "endOffset": 117,
      "phones": [
        {
          "duration": 0.04,
          "phone": "n_B"
        },
        {
          "duration": 0.08,
          "phone": "aa_I"
        },
        {
          "duration": 0.07,
          "phone": "t_E"
        }
      ],
      "start": 7.5,
      "startOffset": 114,
      "word": "NOT"
    },
    {
      "alignedWord": "finished",
      "case": "success",
      "end": 8.030000000000001,
      "endOffset": 126,
      "phones": [
        {
          "duration": 0.07,
          "phone": "f_B"
        },
        {
          "duration": 0.05,
          "phone": "ih_I"
        },
        {
          "duration": 0.06,
          "phone": "n_I"
        },
        {
          "duration": 0.04,
          "phone": "ih_I"
        },
        {
          "duration": 0.06,
          "phone": "sh_I"
        },
        {
          "duration": 0.06,
          "phone": "t_E"
        }
      ],
      "start": 7.69,
      "startOffset": 118,
      "word": "FINISHED"
    },
    {
      "alignedWord": "her",
      "case": "success",
      "end": 8.11,
      "endOffset": 130,
      "phones": [
        {
          "duration": 0.04,
          "phone": "hh_B"
        },
        {
          "duration": 0.04,
          "phone": "er_E"
        }
      ],
      "start": 8.03,
      "startOffset": 127,
      "word": "HER"
    },
    {
      "alignedWord": "breakfast",
      "case": "success",
      "end": 8.57,
      "endOffset": 140,
      "phones": [
        {
          "duration": 0.05,
          "phone": "b_B"
        },
        {
          "duration": 0.04,
          "phone": "r_I"
        },
        {
          "duration": 0.05,
          "phone": "eh_I"
        },
        {
          "duration": 0.07,
          "phone": "k_I"
        },
        {
          "duration": 0.06,
          "phone": "f_I"
        },
        {
          "duration": 0.06,
          "phone": "ah_I"
        },
        {
          "duration": 0.05,
          "phone": "s_I"
        },
        {
          "duration": 0.08,
          "phone": "t_E"
        }
      ],
      "start": 8.11,
      "startOffset": 131,
      "word": "BREAKFAST"
    },
    {
      "alignedWord": "miss",
      "case": "success",
      "end": 8.74,
      "endOffset": 145,
      "phones": [
        {
          "duration": 0.06,
          "phone": "m_B"
        },
        {
          "duration": 0.04,
          "phone": "ih_I"
        },
        {
          "duration": 0.07,
          "phone": "s_E"
        }
      ],
      "start": 8.57,
      "startOffset": 141,
      "word": "MISS"
    },
    {
      "alignedWord": "channing",
      "case": "success",
      "end": 9.200000000000001,
      "endOffset": 154,
      "phones": [
        {
          "duration": 0.12,
          "phone": "ch_B"
        },
        {
          "duration": 0.08,
          "phone": "ae_I"
        },
        {
          "duration": 0.04,
          "phone": "n_I"
        },
        {
          "duration": 0.06,
          "phone": "ih_I"
        },
        {
          "duration": 0.16,
          "phone": "ng_E"
        }
      ],
      "start": 8.74,
      "startOffset": 146,
      "word": "CHANNING"
    },
    {
      "alignedWord": "<unk>",
      "case": "success",
      "end": 9.64,
      "endOffset": 160,
      "phones": [
        {
          "duration": 0.26,
          "phone": "oov_S"
        }
      ],
      "start": 9.38,
      "startOffset": 155,
      "word": "QUOTH"
    },
    {
      "alignedWord": "she",
      "case": "success",
      "end": 9.969999,
      "endOffset": 164,
      "phones": [
        {
          "duration": 0.12,
          "phone": "sh_B"
        },
        {
          "duration": 0.21,
          "phone": "iy_E"
        }
      ],
      "start": 9.639999,
      "startOffset": 161,
      "word": "SHE"
    },
    {
      "alignedWord": "she",
      "case": "success",
      "end": 10.419998999999999,
      "endOffset": 168,
      "phones": [
        {
          "duration": 0.14,
          "phone": "sh_B"
        },
        {
          "duration": 0.06,
          "phone": "iy_E"
        }
      ],
      "start": 10.219999,
      "startOffset": 165,
      "word": "SHE"
    },
    {
      "alignedWord": "was",
      "case": "success",
      "end": 10.59,
      "endOffset": 172,
      "phones": [
        {
          "duration": 0.05,
          "phone": "w_B"
        },
        {
          "duration": 0.05,
          "phone": "ah_I"
        },
        {
          "duration": 0.07,
          "phone": "z_E"
        }
      ],
      "start": 10.42,
      "startOffset": 169,
      "word": "WAS"
    },
    {
      "alignedWord": "lazy",
      "case": "success",
      "end": 11.029999,
      "endOffset": 177,
      "phones": [
        {
          "duration": 0.17,
          "phone": "l_B"
        },
        {
          "duration": 0.11,
          "phone": "ey_I"
        },
        {
          "duration": 0.08,
          "phone": "z_I"
        },
        {
          "duration": 0.07,
          "phone": "iy_E"
        }
      ],
      "start": 10.599999,
      "startOffset": 173,
      "word": "LAZY"
    },
    {
      "alignedWord": "this",
      "case": "success",
      "end": 11.229999999999999,
      "endOffset": 182,
      "phones": [
        {
          "duration": 0.06,
          "phone": "dh_B"
        },
        {
          "duration": 0.05,
          "phone": "ih_I"
        },
        {
          "duration": 0.09,
          "phone": "s_E"
        }
      ],
      "start": 11.03,
      "startOffset": 178,
      "word": "THIS"
    },
    {
      "alignedWord": "morning",
      "case": "success",
      "end": 11.65,
      "endOffset": 190,
      "phones": [
        {
          "duration": 0.07,
          "phone": "m_B"
        },
        {
          "duration": 0.06,
          "phone": "ao_I"
        },
        {
          "duration": 0.04,
          "phone": "r_I"
        },
        {
          "duration": 0.03,
          "phone": "n_I"
        },
        {
          "duration": 0.06,
          "phone": "ih_I"
        },
        {
          "duration": 0.16,
          "phone": "ng_E"
        }
      ],
      "start": 11.23,
      "startOffset": 183,
      "word": "MORNING"
    },
    {
      "alignedWord": "i",
      "case": "success",
      "end": 12.42,
      "endOffset": 192,
      "phones": [
        {
          "duration": 0.12,
          "phone": "ay_S"
        }
      ],
      "start": 12.3,
      "startOffset": 191,
      "word": "I"
    },
    {
      "alignedWord": "think",
      "case": "success",
      "end": 12.66,
      "endOffset": 198,
      "phones": [
        {
          "duration": 0.09,
          "phone": "th_B"
        },
        {
          "duration": 0.01,
          "phone": "ih_I"
        },
        {
          "duration": 0.06,
          "phone": "ng_I"
        },
        {
          "duration": 0.06,
          "phone": "k_E"
        }
      ],
      "start": 12.44,
      "startOffset": 193,
      "word": "THINK"
    },
    {
      "alignedWord": "some",
      "case": "success",
      "end": 12.83,
      "endOffset": 203,
      "phones": [
        {
          "duration": 0.06,
          "phone": "s_B"
        },
        {
          "duration": 0.06,
          "phone": "ah_I"
        },
        {
          "duration": 0.05,
          "phone": "m_E"
        }
      ],
      "start": 12.66,
      "startOffset": 199,
      "word": "SOME"
    },
    {
      "alignedWord": "one",
      "case": "success",
      "end": 12.92,
      "endOffset": 207,
      "phones": [
        {
          "duration": 0.01,
          "phone": "w_B"
        },
        {
          "duration": 0.04,
          "phone": "ah_I"
        },
        {
          "duration": 0.04,
          "phone": "n_E"
        }
      ],
      "start": 12.83,
      "startOffset": 204,
      "word": "ONE"
    },
    {
      "alignedWord": "else",
      "case": "success",
      "end": 13.13,
      "endOffset": 212,
      "phones": [
        {
          "duration": 0.07,
          "phone": "eh_B"
        },
        {
          "duration": 0.08,
          "phone": "l_I"
        },
        {
          "duration": 0.06,
          "phone": "s_E"
        }
      ],
      "start": 12.92,
      "startOffset": 208,
      "word": "ELSE"
    },
    {
      "alignedWord": "was",
      "case": "success",
      "end": 13.260000000000002,
      "endOffset": 216,
      "phones": [
        {
          "duration": 0.04,
          "phone": "w_B"
        },
        {
          "duration": 0.02,
          "phone": "ah_I"
        },
        {
          "duration": 0.07,
          "phone": "z_E"
        }
      ],
      "start": 13.13,
      "startOffset": 213,
      "word": "WAS"
    },
    {
      "alignedWord": "lazy",
      "case": "success",
      "end": 13.569999000000001,
      "endOffset": 221,
      "phones": [
        {
          "duration": 0.08,
          "phone": "l_B"
        },
        {
          "duration": 0.07,
          "phone": "ey_I"
        },
        {
          "duration": 0.09,
          "phone": "z_I"
        },
        {
          "duration": 0.07,
          "phone": "iy_E"
        }
      ],
      "start": 13.259999,
      "startOffset": 217,
      "word": "LAZY"
    },
    {
      "alignedWord": "also",
      "case": "success",
      "end": 13.91,
      "endOffset": 226,
      "phones": [
        {
          "duration": 0.08,
          "phone": "ao_B"
        },
        {
          "duration": 0.08,
          "phone": "l_I"
        },
        {
          "duration": 0.09,
          "phone": "s_I"
        },
        {
          "duration": 0.09,
          "phone": "ow_E"
        }
      ],
      "start": 13.57,
      "startOffset": 222,
      "word": "ALSO"
    },
    {
      "alignedWord": "said",
      "case": "success",
      "end": 14.11,
      "endOffset": 231,
      "phones": [
        {
          "duration": 0.07,
          "phone": "s_B"
        },
        {
          "duration": 0.06,
          "phone": "eh_I"
        },
        {
          "duration": 0.07,
          "phone": "d_E"
        }
      ],
      "start": 13.91,
      "startOffset": 227,
      "word": "SAID"
    },
    {
      "alignedWord": "constance",
      "case": "success",
      "end": 14.629999999999999,
      "endOffset": 241,
      "phones": [
        {
          "duration": 0.08,
          "phone": "k_B"
        },
        {
          "duration": 0.08,
          "phone": "aa_I"
        },
        {
          "duration": 0.06,
          "phone": "n_I"
        },
        {
          "duration": 0.06,
          "phone": "s_I"
        },
        {
          "duration": 0.04,
          "phone": "t_I"
        },
        {
          "duration": 0.04,
          "phone": "ah_I"
        },
        {
          "duration": 0.07,
          "phone": "n_I"
        },
        {
          "duration": 0.09,
          "phone": "s_E"
        }
      ],
      "start": 14.11,
      "startOffset": 232,
      "word": "CONSTANCE"
    },
    {
      "alignedWord": "gently",
      "case": "success",
      "end": 14.950000000000001,
      "endOffset": 248,
      "phones": [
        {
          "duration": 0.08,
          "phone": "jh_B"
        },
        {
          "duration": 0.05,
          "phone": "eh_I"
        },
        {
          "duration": 0.03,
          "phone": "n_I"
        },
        {
          "duration": 0.06,
          "phone": "t_I"
        },
        {
          "duration": 0.05,
          "phone": "l_I"
        },
        {
          "duration": 0.05,
          "phone": "iy_E"
        }
      ],
      "start": 14.63,
      "startOffset": 242,
      "word": "GENTLY"
    },
    {
      "alignedWord": "drawing",
      "case": "success",
      "end": 15.27,
      "endOffset": 256,
      "phones": [
        {
          "duration": 0.06,
          "phone": "d_B"
        },
        {
          "duration": 0.08,
          "phone": "r_I"
        },
        {
          "duration": 0.07,
          "phone": "ao_I"
        },
        {
          "duration": 0.06,
          "phone": "ih_I"
        },
        {
          "duration": 0.05,
          "phone": "ng_E"
        }
      ],
      "start": 14.95,
      "startOffset": 249,
      "word": "DRAWING"
    },
    {
      "alignedWord": "the",
      "case": "success",
      "end": 15.35,
      "endOffset": 260,
      "phones": [
        {
          "duration": 0.04,
          "phone": "dh_B"
        },
        {
          "duration": 0.04,
          "phone": "ah_E"
        }
      ],
      "start": 15.27,
      "startOffset": 257,
      "word": "THE"
    },
    {
      "alignedWord": "child",
      "case": "success",
      "end": 15.709999,
      "endOffset": 266,
      "phones": [
        {
          "duration": 0.13,
          "phone": "ch_B"
        },
        {
          "duration": 0.13,
          "phone": "ay_I"
        },
        {
          "duration": 0.04,
          "phone": "l_I"
        },
        {
          "duration": 0.06,
          "phone": "d_E"
        }
      ],
      "start": 15.349999,
      "startOffset": 261,
      "word": "CHILD"
    },
    {
      "alignedWord": "to",
      "case": "success",
      "end": 15.850000000000001,
      "endOffset": 269,
      "phones": [
        {
          "duration": 0.05,
          "phone": "t_B"
        },
        {
          "duration": 0.09,
          "phone": "uw_E"
        }
      ],
      "start": 15.71,
      "startOffset": 267,
      "word": "TO"
    },
    {
      "alignedWord": "her",
      "case": "success",
      "end": 16.079999,
      "endOffset": 273,
      "phones": [
        {
          "duration": 0.08,
          "phone": "hh_B"
        },
        {
          "duration": 0.15,
          "phone": "er_E"
        }
      ],
      "start": 15.849999,
      "startOffset": 270,
      "word": "HER"
    }
  ]
}