{
  "transcript": "INTO A CORPS NO MATTER WHETHER HE LOVES THE SERVICE OR NO BEING ONCE IN IT HE ACTS AS IF HE DID AND TAKES EVERY STEP TO SHEW HIMSELF A MAN OF PROWESSE",
  "words": [
    {
      "alignedWord": "into",
      "case": "success",
      "end": 0.43,
      "endOffset": 4,
      "phones": [
        {
          "duration": 0.06,
          "phone": "ih_B"
        },
        {
          "duration": 0.06,
          "phone": "n_I"
        },
        {
          "duration": 0.08,
          "phone": "t_I"
        },
        {
          "duration": 0.12,
          "phone": "uw_E"
        }
      ],
      "start": 0.11,
      "startOffset": 0,
      "word": "INTO"
    },
    {
      "alignedWord": "a",
      "case": "success",
      "end": 0.58,
      "endOffset": 6,
      "phones": [
        {
          "duration": 0.11,
          "phone": "ah_S"
        }
      ],
      "start": 0.47,
      "startOffset": 5,
      "word": "A"
    },
    {
      "alignedWord": "corps",
      "case": "success",
      "end": 1.19,
      "endOffset": 12,
      "phones": [
        {
          "duration": 0.15,
          "phone": "k_B"
        },
        {
          "duration": 0.19,
          "phone": "ao_I"
        },
        {
          "duration": 0.27,
          "phone": "r_E"
        }
      ],
      "start": 0.58,
      "startOffset": 7,
      "word": "CORPS"
    },
    {
      "alignedWord": "no",
      "case": "success",
      "end": 1.44,
      "endOffset": 15,
      "phones": [
        {
          "duration": 0.09,
          "phone": "n_B"
        },
        {
          "duration": 0.04,
          "phone": "ow_E"
        }
      ],
      "start": 1.31,
      "startOffset": 13,
      "word": "NO"
    },
    {
      "alignedWord": "matter",
      "case": "success",
      "end": 1.76,
      "endOffset": 22,
      "phones": [
        {
          "duration": 0.04,
          "phone": "m_B"
        },
        {
          "duration": 0.12,
          "phone": "ae_I"
        },
        {
          "duration": 0.07,
          "phone": "t_I"
        },
        {
          "duration": 0.09,
          "phone": "er_E"
        }
      ],
      "start": 1.44,
      "startOffset": 16,
      "word": "MATTER"
    },
    {
      "alignedWord": "whether",
      "case": "success",
      "end": 2.0300000000000002,
      "endOffset": 30,
      "phones": [
        {
          "duration": 0.06,
          "phone": "w_B"
        },
        {
          "duration": 0.08,
          "phone": "eh_I"
        },
        {
          "duration": 0.06,
          "phone": "dh_I"
        },
        {
          "duration": 0.07,
          "phone": "er_E"
        }
      ],
      "start": 1.76,
      "startOffset": 23,
      "word": "WHETHER"
    },
    {
      "alignedWord": "he",
      "case": "success",
      "end": 2.19,
      "endOffset": 33,
      "phones": [
        {
          "duration": 0.07,
          "phone": "hh_B"
        },
        {
          "duration": 0.09,
          "phone": "iy_E"
        }
      ],
      "start": 2.03,
      "startOffset": 31,
      "word": "HE"
    },
    {
      "alignedWord": "loves",
      "case": "success",
      "end": 2.54,
      "endOffset": 39,
      "phones": [
        {
          "duration": 0.13,
          "phone": "l_B"
        },
        {
          "duration": 0.07,
          "phone": "ah_I"
        },
        {
          "duration": 0.07,
          "phone": "v_I"
        },
        {
          "duration": 0.08,
          "phone": "z_E"
        }
      ],
      "start": 2.19,
      "startOffset": 34,
      "word": "LOVES"
    },
    {
      "alignedWord": "the",
      "case": "success",
      "end": 2.71,
      "endOffset": 43,
      "phones": [
        {
          "duration": 0.07,
          "phone": "dh_B"
        },
        {
          "duration": 0.07,
          "phone": "ah_E"
        }
      ],
      "start": 2.57,
      "startOffset": 40,
      "word": "THE"
    },
    {
      "alignedWord": "service",
      "case": "success",
      "end": 3.12,
      "endOffset": 51,
      "phones": [
        {
          "duration": 0.13,
          "phone": "s_B"
        },
        {
          "duration": 0.08,
          "phone": "er_I"
        },
        {
          "duration": 0.05,
          "phone": "v_I"
        },
        {
          "duration": 0.07,
          "phone": "ah_I"
        },
        {
          "duration": 0.08,
          "phone": "s_E"
        }
      ],
      "start": 2.71,
      "startOffset": 44,
      "word": "SERVICE"
    },
    {
      "alignedWord": "or",
      "case": "success",
      "end": 3.27,
      "endOffset": 54,
      "phones": [
        {
          "duration": 0.12,
          "phone": "er_S"
        }
      ],
      "start": 3.15,
      "startOffset": 52,
      "word": "OR"
    },
    {
      "alignedWord": "no",
      "case": "success",
      "end": 3.73,
      "endOffset": 57,
      "phones": [
        {
          "duration": 0.1,
          "phone": "n_B"
        },
        {
          "duration": 0.36,
          "phone": "ow_E"
        }
      ],
      "start": 3.27,
      "startOffset": 55,
      "word": "NO"
    },
    {
      "alignedWord": "being",
      "case": "success",
      "end": 4.3,
      "endOffset": 63,
      "phones": [
        {
          "duration": 0.1,
          "phone": "b_B"
        },
        {
          "duration": 0.1,
          "phone": "iy_I"
        },
        {
          "duration": 0.06,
          "phone": "ih_I"
        },
        {
          "duration": 0.1,
          "phone": "ng_E"
        }
      ],
      "start": 3.94,
      "startOffset": 58,
      "word": "BEING"
    },
    {
      "alignedWord": "once",
      "case": "success",
      "end": 4.54,
      "endOffset": 68,
      "phones": [
        {
          "duration": 0.06,
          "phone": "w_B"
        },
        {
          "duration": 0.07,
          "phone": "ah_I"
        },
        {
          "duration": 0.04,
          "phone": "n_I"
        },
        {
          "duration": 0.07,
          "phone": "s_E"
        }
      ],
      "start": 4.3,
      "startOffset": 64,
      "word": "ONCE"
    },
    {
      "alignedWord": "in",
      "case": "success",
      "end": 4.79,
      "endOffset": 71,
      "phones": [
        {
          "duration": 0.14,
          "phone": "ih_B"
        },
        {
          "duration": 0.08,
          "phone": "n_E"
        }
      ],
      "start": 4.57,
      "startOffset": 69,
      "word": "IN"
    },
    {
      "alignedWord": "it",
      "case": "success",
      "end": 5.08,
      "endOffset": 74,
      "phones": [
        {
          "duration": 0.07,
          "phone": "ih_B"
        },
        {
          "duration": 0.22,
          "phone": "t_E"
        }
      ],
      "start": 4.79,
      "startOffset": 72,
      "word": "IT"
    },
    {
      "alignedWord": "he",
      "case": "success",
      "end": 5.510000000000001,
      "endOffset": 77,
      "phones": [
        {
          "duration": 0.13,
          "phone": "hh_B"
        },
        {
          "duration": 0.1,
          "phone": "iy_E"
        }
      ],
      "start": 5.28,
      "startOffset": 75,
      "word": "HE"
    },
    {
      "alignedWord": "acts",
      "case": "success",
      "end": 5.91,
      "endOffset": 82,
      "phones": [
        {
          "duration": 0.16,
          "phone": "ae_B"
        },
        {
          "duration": 0.09,
          "phone": "k_I"
        },
        {
          "duration": 0.11,
          "phone": "s_E"
        }
      ],
      "start": 5.55,
      "startOffset": 78,
      "word": "ACTS"
    },
    {
      "alignedWord": "as",
      "case": "success",
      "end": 6.17,
      "endOffset": 85,
      "phones": [
        {
          "duration": 0.11,
          "phone": "eh_B"
        },
        {
          "duration": 0.09,
          "phone": "z_E"
        }
      ],
      "start": 5.97,
      "startOffset": 83,
      "word": "AS"
    },
    {
      "alignedWord": "if",
      "case": "success",
      "end": 6.33,
      "endOffset": 88,
      "phones": [
        {
          "duration": 0.09,
          "phone": "ih_B"
        },
        {
          "duration": 0.07,
          "phone": "f_E"
        }
      ],
      "start": 6.17,
      "startOffset": 86,
      "word": "IF"
    },
    {
      "alignedWord": "he",
      "case": "success",
      "end": 6.48,
      "endOffset": 91,
      "phones": [
        {
          "duration": 0.06,
          "phone": "hh_B"
        },
        {
          "duration": 0.09,
          "phone": "iy_E"
        }
      ],
      "start": 6.33,
      "startOffset": 89,
      "word": "HE"
    },
    {
      "alignedWord": "did",
      "case": "success",
      "end": 6.920000000000001,
      "endOffset": 95,
      "phones": [
        {
          "duration": 0.09,
          "phone": "d_B"
        },
        {
          "duration": 0.15,
          "phone": "ih_I"
        },
        {
          "duration": 0.2,
          "phone": "d_E"
        }
      ],
      "start": 6.48,
      "startOffset": 92,
      "word": "DID"
    },
    {
      "alignedWord": "and",
      "case": "success",
      "end": 7.17,
      "endOffset": 99,
      "phones": [
        {
          "duration": 0.11,
          "phone": "ae_B"
        },
        {
          "duration": 0.04,
          "phone": "n_I"
        },
        {
          "duration": 0.06,
          "phone": "d_E"
        }
      ],
      "start": 6.96,
      "startOffset": 96,
      "word": "AND"
    },
    {
      "alignedWord": "takes",
      "case": "success",
      "end": 7.43,
      "endOffset": 105,
      "phones": [
        {
          "duration": 0.04,
          "phone": "t_B"
        },
        {
          "duration": 0.1,
          "phone": "ey_I"
        },
        {
          "duration": 0.05,
          "phone": "k_I"
        },
        {
          "duration": 0.07,
          "phone": "s_E"
        }
      ],
      "start": 7.17,
      "startOffset": 100,
      "word": "TAKES"
    },
    {
      "alignedWord": "every",
      "case": "success",
      "end": 7.710000000000001,
      "endOffset": 111,
      "phones": [
        {
          "duration": 0.08,
          "phone": "eh_B"
        },
        {
          "duration": 0.09,
          "phone": "v_I"
        },
        {
          "duration": 0.05,
          "phone": "r_I"
        },
        {
          "duration": 0.05,
          "phone": "iy_E"
        }
      ],
      "start": 7.44,
      "startOffset": 106,
      "word": "EVERY"
    },
    {
      "alignedWord": "step",
      "case": "success",
      "end": 8.05,
      "endOffset": 116,
      "phones": [
        {
          "duration": 0.08,
          "phone": "s_B"
        },
        {
          "duration": 0.09,
          "phone": "t_I"
        },
        {
          "duration": 0.09,
          "phone": "eh_I"
        },
        {
          "duration": 0.08,
          "phone": "p_E"
        }
      ],
      "start": 7.71,
      "startOffset": 112,
      "word": "STEP"
    },
    {
      "alignedWord": "to",
      "case": "success",
      "end": 8.21,
      "endOffset": 119,
      "phones": [
        {
          "duration": 0.1,
          "phone": "t_B"
        },
        {
          "duration": 0.06,
          "phone": "uw_E"
        }
      ],
      "start": 8.05,
      "startOffset": 117,
      "word": "TO"
    },
    {
      "alignedWord": "<unk>",
      "case": "success",
      "end": 8.450000000000001,
      "endOffset": 124,
      "phones": [
        {
          "duration": 0.24,
          "phone": "oov_S"
        }
      ],
      "start": 8.21,
      "startOffset": 120,
      "word": "SHEW"
    },
    {
      "alignedWord": "himself",
      "case": "success",
      "end": 8.91,
      "endOffset": 132,
      "phones": [
        {
          "duration": 0.06,
          "phone": "hh_B"
        },
        {
          "duration": 0.06,
          "phone": "ih_I"
        },
        {
          "duration": 0.06,
          "phone": "m_I"
        },
        {
          "duration": 0.08,
          "phone": "s_I"
        },
        {
          "duration": 0.08,
          "phone": "eh_I"
        },
        {
          "duration": 0.05,
          "phone": "l_I"
        },
        {
          "duration": 0.07,
          "phone": "f_E"
        }
      ],
      "start": 8.45,
      "startOffset": 125,
      "word": "HIMSELF"
    },
    {
      "alignedWord": "a",
      "case": "success",
      "end": 9.049999999999999,
      "endOffset": 134,
      "phones": [
        {
          "duration": 0.11,
          "phone": "ah_S"
        }
      ],
      "start": 8.94,
      "startOffset": 133,
      "word": "A"
    },
    {
      "alignedWord": "man",
      "case": "success",
      "end": 9.430000000000001,
      "endOffset": 138,
      "phones": [
        {
          "duration": 0.16,
          "phone": "m_B"
        },
        {
          "duration": 0.13,
          "phone": "ae_I"
        },
        {
          "duration": 0.09,
          "phone": "n_E"
        }
      ],
      "start": 9.05,
      "startOffset": 135,
      "word": "MAN"
    },
    {
      "alignedWord": "of",
      "case": "success",
      "end": 9.57,
      "endOffset": 141,
      "phones": [
        {
          "duration": 0.07,
          "phone": "ah_B"
        },
        {
          "duration": 0.06,
          "phone": "v_E"
        }
      ],
      "start": 9.44,
      "startOffset": 139,
      "word": "OF"
    },
    {
      "alignedWord": "<unk>",
      "case": "success",
      "end": 9.999999,
      "endOffset": 150,
      "phones": [
        {
          "duration": 0.4,
          "phone": "oov_S"
        }
      ],
      "start": 9.599999,
      "startOffset": 142,
      "word": "PROWESSE"
    }
  ]
}