{
  "transcript": "SO THAT THE WHIMSICALITY OF MY FATHER'S BRAIN WAS FAR FROM HAVING THE WHOLE HONOUR OF THIS AS IT HAD OF ALMOST ALL HIS OTHER STRANGE NOTIONS FOR IN A GREAT MEASURE HE MIGHT BE SAID TO HAVE SUCK'D THIS IN WITH HIS MOTHER'S MILK",
  "words": [
    {
      "alignedWord": "so",
      "case": "success",
      "end": 0.62,
      "endOffset": 2,
      "phones": [
        {
          "duration": 0.23,
          "phone": "s_B"
        },
        {
          "duration": 0.1,
          "phone": "ow_E"
        }
      ],
      "start": 0.29,
      "startOffset": 0,
      "word": "SO"
    },
    {
      "alignedWord": "that",
      "case": "success",
      "end": 1.02,
      "endOffset": 7,
      "phones": [
        {
          "duration": 0.09,
          "phone": "dh_B"
        },
        {
          "duration": 0.12,
          "phone": "ae_I"
        },
        {
          "duration": 0.19,
          "phone": "t_E"
        }
      ],
      "start": 0.62,
      "startOffset": 3,
      "word": "THAT"
    },
    {
      "alignedWord": "the",
      "case": "success",
      "end": 1.22,
      "endOffset": 11,
      "phones": [
        {
          "duration": 0.11,
          "phone": "dh_B"
        },
        {
          "duration": 0.08,
          "phone": "ah_E"
        }
      ],
      "start": 1.03,
      "startOffset": 8,
      "word": "THE"
    },
    {
      "alignedWord": "<unk>",
      "case": "success",
      "end": 2.24,
      "endOffset": 24,
      "phones": [
        {
          "duration": 1.02,
          "phone": "oov_S"
        }
      ],
      "start": 1.22,
      "startOffset": 12,
      "word": "WHIMSICALITY"
    },
    {
      "alignedWord": "of",
      "case": "success",
      "end": 2.4000000000000004,
      "endOffset": 27,
      "phones": [
        {
          "duration": 0.08,
          "phone": "ah_B"
        },
        {
          "duration": 0.08,
          "phone": "v_E"
        }
      ],
      "start": 2.24,
      "startOffset": 25,
      "word": "OF"
    },
    {
      "alignedWord": "my",
      "case": "success",
      "end": 2.56,
      "endOffset": 30,
      "phones": [
        {
          "duration": 0.05,
          "phone": "m_B"
        },
        {
          "duration": 0.11,
          "phone": "ay_E"
        }
      ],
      "start": 2.4,
      "startOffset": 28,
      "word": "MY"
    },
    {
      "alignedWord": "father's",
      "case": "success",
      "end": 3.0300000000000002,
      "endOffset": 39,
      "phones": [
        {
          "duration": 0.11,
          "phone": "f_B"
        },
        {
          "duration": 0.13,
          "phone": "aa_I"
        },
        {
          "duration": 0.07,
          "phone": "dh_I"
        },
        {
          "duration": 0.08,
          "phone": "er_I"
        },
        {
          "duration": 0.08,
          "phone": "z_E"
        }
      ],
      "start": 2.56,
      "startOffset": 31,
      "word": "FATHER'S"
    },
    {
      "alignedWord": "brain",
      "case": "success",
      "end": 3.5300000000000002,
      "endOffset": 45,
      "phones": [
        {
          "duration": 0.09,
          "phone": "b_B"
        },
        {
          "duration": 0.08,
          "phone": "r_I"
        },
        {
          "duration": 0.18,
          "phone": "ey_I"
        },
        {
          "duration": 0.14,
          "phone": "n_E"
        }
      ],
      "start": 3.04,
      "startOffset": 40,
      "word": "BRAIN"
    },
    {
      "alignedWord": "was",
      "case": "success",
      "end": 3.85,
      "endOffset": 49,
      "phones": [
        {
          "duration": 0.11,
          "phone": "w_B"
        },
        {
          "duration": 0.07,
          "phone": "ah_I"
        },
        {
          "duration": 0.13,
          "phone": "z_E"
        }
      ],
      "start": 3.54,
      "startOffset": 46,
      "word": "WAS"
    },
    {
      "alignedWord": "far",
      "case": "success",
      "end": 4.16,
      "endOffset": 53,
      "phones": [
        {
          "duration": 0.1,
          "phone": "f_B"
        },
        {
          "duration": 0.1,
          "phone": "aa_I"
        },
        {
          "duration": 0.09,
          "phone": "r_E"
        }
      ],
      "start": 3.87,
      "startOffset": 50,
      "word": "FAR"
    },
    {
      "alignedWord": "from",
      "case": "success",
      "end": 4.37,
      "endOffset": 58,
      "phones": [
        {
          "duration": 0.08,
          "phone": "f_B"
        },
        {
          "duration": 0.05,
          "phone": "er_I"
        },
        {
          "duration": 0.08,
          "phone": "m_E"
        }
      ],
      "start": 4.16,
      "startOffset": 54,
      "word": "FROM"
    },
    {
      "alignedWord": "having",
      "case": "success",
      "end": 4.71,
      "endOffset": 65,
      "phones": [
        {
          "duration": 0.08,
          "phone": "hh_B"
        },
        {
          "duration": 0.06,
          "phone": "ae_I"
        },
        {
          "duration": 0.05,
          "phone": "v_I"
        },
        {
          "duration": 0.06,
          "phone": "ih_I"
        },
        {
          "duration": 0.08,
          "phone": "ng_E"
        }
      ],
      "start": 4.38,
      "startOffset": 59,
      "word": "HAVING"
    },
    {
      "alignedWord": "the",
      "case": "success",
      "end": 4.81,
      "endOffset": 69,
      "phones": [
        {
          "duration": 0.05,
          "phone": "dh_B"
        },
        {
          "duration": 0.04,
          "phone": "ah_E"
        }
      ],
      "start": 4.72,
      "startOffset": 66,
      "word": "THE"
    },
    {
      "alignedWord": "whole",
      "case": "success",
      "end": 5.17,
      "endOffset": 75,
      "phones": [
        {
          "duration": 0.1,
          "phone": "hh_B"
        },
        {
          "duration": 0.05,
          "phone": "ow_I"
        },
        {
          "duration": 0.2,
          "phone": "l_E"
        }
      ],
      "start": 4.82,
      "startOffset": 70,
      "word": "WHOLE"
    },
    {
      "alignedWord": "<unk>",
      "case": "success",
      "end": 5.43,
      "endOffset": 82,
      "phones": [
        {
          "duration": 0.25,
          "phone": "oov_S"
        }
      ],
      "start": 5.18,
      "startOffset": 76,
      "word": "HONOUR"
    },
    {
      "alignedWord": "of",
      "case": "success",
      "end": 5.65,
      "endOffset": 85,
      "phones": [
        {
          "duration": 0.08,
          "phone": "ah_B"
        },
        {
          "duration": 0.13,
          "phone": "v_E"
        }
      ],
      "start": 5.44,
      "startOffset": 83,
      "word": "OF"
    },
    {
      "alignedWord": "this",
      "case": "success",
      "end": 6.15,
      "endOffset": 90,
      "phones": [
        {
          "duration": 0.01,
          "phone": "dh_B"
        },
        {
          "duration": 0.24,
          "phone": "ih_I"
        },
        {
          "duration": 0.25,
          "phone": "s_E"
        }
      ],
      "start": 5.65,
      "startOffset": 86,
      "word": "THIS"
    },
    {
      "alignedWord": "as",
      "case": "success",
      "end": 6.69,
      "endOffset": 93,
      "phones": [
        {
          "duration": 0.14,
          "phone": "ae_B"
        },
        {
          "duration": 0.06,
          "phone": "z_E"
        }
      ],
      "start": 6.49,
      "startOffset": 91,
      "word": "AS"
    },
    {
      "alignedWord": "it",
      "case": "success",
      "end": 6.82,
      "endOffset": 96,
      "phones": [
        {
          "duration": 0.07,
          "phone": "ih_B"
        },
        {
          "duration": 0.06,
          "phone": "t_E"
        }
      ],
      "start": 6.69,
      "startOffset": 94,
      "word": "IT"
    },
    {
      "alignedWord": "had",
      "case": "success",
      "end": 7.03,
      "endOffset": 100,
      "phones": [
        {
          "duration": 0.09,
          "phone": "hh_B"
        },
        {
          "duration": 0.06,
          "phone": "ae_I"
        },
        {
          "duration": 0.05,
          "phone": "d_E"
        }
      ],
      "start": 6.83,
      "startOffset": 97,
      "word": "HAD"
    },
    {
      "alignedWord": "of",
      "case": "success",
      "end": 7.16,
      "endOffset": 103,
      "phones": [
        {
          "duration": 0.05,
          "phone": "ah_B"
        },
        {
          "duration": 0.08,
          "phone": "v_E"
        }
      ],
      "start": 7.03,
      "startOffset": 101,
      "word": "OF"
    },
    {
      "alignedWord": "almost",
      "case": "success",
      "end": 7.53,
      "endOffset": 110,
      "phones": [
        {
          "duration": 0.05,
          "phone": "ao_B"
        },
        {
          "duration": 0.08,
          "phone": "l_I"
        },
        {
          "duration": 0.05,
          "phone": "m_I"
        },
        {
          "duration": 0.04,
          "phone": "ow_I"
        },
        {
          "duration": 0.07,
          "phone": "s_I"
        },
        {
          "duration": 0.08,
          "phone": "t_E"
        }
      ],
      "start": 7.16,
      "startOffset": 104,
      "word": "ALMOST"
    },
    {
      "alignedWord": "all",
      "case": "success",
      "end": 7.680000000000001,
      "endOffset": 114,
      "phones": [
        {
          "duration": 0.06,
          "phone": "ao_B"
        },
        {
          "duration": 0.09,
          "phone": "l_E"
        }
      ],
      "start": 7.53,
      "startOffset": 111,
      "word": "ALL"
    },
    {
      "alignedWord": "his",
      "case": "success",
      "end": 7.87,
      "endOffset": 118,
      "phones": [
        {
          "duration": 0.07,
          "phone": "hh_B"
        },
        {
          "duration": 0.05,
          "phone": "ih_I"
        },
        {
          "duration": 0.07,
          "phone": "z_E"
        }
      ],
      "start": 7.68,
      "startOffset": 115,
      "word": "HIS"
    },
    {
      "alignedWord": "other",
      "case": "success",
      "end": 8.15,
      "endOffset": 124,
      "phones": [
        {
          "duration": 0.08,
          "phone": "ah_B"
        },
        {
          "duration": 0.08,
          "phone": "dh_I"
        },
        {
          "duration": 0.12,
          "phone": "er_E"
        }
      ],
      "start": 7.87,
      "startOffset": 119,
      "word": "OTHER"
    },
    {
      "alignedWord": "strange",
      "case": "success",
      "end": 8.64,
      "endOffset": 132,
      "phones": [
        {
          "duration": 0.07,
          "phone": "s_B"
        },
        {
          "duration": 0.08,
          "phone": "t_I"
        },
        {
          "duration": 0.06,
          "phone": "r_I"
        },
        {
          "duration": 0.1,
          "phone": "ey_I"
        },
        {
          "duration": 0.08,
          "phone": "n_I"
        },
        {
          "duration": 0.09,
          "phone": "jh_E"
        }
      ],
      "start": 8.16,
      "startOffset": 125,
      "word": "STRANGE"
    },
    {
      "alignedWord": "notions",
      "case": "success",
      "end": 9.329998999999999,
      "endOffset": 140,
      "phones": [
        {
          "duration": 0.07,
          "phone": "n_B"
        },
        {
          "duration": 0.1,
          "phone": "ow_I"
        },
        {
          "duration": 0.13,
          "phone": "sh_I"
        },
        {
          "duration": 0.06,
          "phone": "ah_I"
        },
        {
          "duration": 0.11,
          "phone": "n_I"
        },
        {
          "duration": 0.22,
          "phone": "z_E"
        }
      ],
      "start": 8.639999,
      "startOffset": 133,
      "word": "NOTIONS"
    },
    {
      "alignedWord": "for",
      "case": "success",
      "end": 10.17,
      "endOffset": 144,
      "phones": [
        {
          "duration": 0.15,
          "phone": "f_B"
        },
        {
          "duration": 0.12,
          "phone": "ao_I"
        },
        {
          "duration": 0.1,
          "phone": "r_E"
        }
      ],
      "start": 9.8,
      "startOffset": 141,
      "word": "FOR"
    },
    {
      "alignedWord": "in",
      "case": "success",
      "end": 10.349999,
      "endOffset": 147,
      "phones": [
        {
          "duration": 0.1,
          "phone": "ih_B"
        },
        {
          "duration": 0.07,
          "phone": "n_E"
        }
      ],
      "start": 10.179999,
      "startOffset": 145,
      "word": "IN"
    },
    {
      "alignedWord": "a",
      "case": "success",
      "end": 10.399999000000001,
      "endOffset": 149,
      "phones": [
        {
          "duration": 0.05,
          "phone": "ah_S"
        }
      ],
      "start": 10.349999,
      "startOffset": 148,
      "word": "A"
    },
    {
      "alignedWord": "great",
      "case": "success",
      "end": 10.69,
      "endOffset": 155,
      "phones": [
        {
          "duration": 0.07,
          "phone": "g_B"
        },
        {
          "duration": 0.08,
          "phone": "r_I"
        },
        {
          "duration": 0.06,
          "phone": "ey_I"
        },
        {
          "duration": 0.08,
          "phone": "t_E"
        }
      ],
      "start": 10.4,
      "startOffset": 150,
      "word": "GREAT"
    },
    {
      "alignedWord": "measure",
      "case": "success",
      "end": 11.129999,
      "endOffset": 163,
      "phones": [
        {
          "duration": 0.07,
          "phone": "m_B"
        },
        {
          "duration": 0.07,
          "phone": "eh_I"
        },
        {
          "duration": 0.12,
          "phone": "zh_I"
        },
        {
          "duration": 0.15,
          "phone": "er_E"
        }
      ],
      "start": 10.719999,
      "startOffset": 156,
      "word": "MEASURE"
    },
    {
      "alignedWord": "he",
      "case": "success",
      "end": 11.279999,
      "endOffset": 166,
      "phones": [
        {
          "duration": 0.08,
          "phone": "hh_B"
        },
        {
          "duration": 0.06,
          "phone": "iy_E"
        }
      ],
      "start": 11.139999,
      "startOffset": 164,
      "word": "HE"
    },
    {
      "alignedWord": "might",
      "case": "success",
      "end": 11.51,
      "endOffset": 172,
      "phones": [
        {
          "duration": 0.04,
          "phone": "m_B"
        },
        {
          "duration": 0.12,
          "phone": "ay_I"
        },
        {
          "duration": 0.07,
          "phone": "t_E"
        }
      ],
      "start": 11.28,
      "startOffset": 167,
      "word": "MIGHT"
    },
    {
      "alignedWord": "be",
      "case": "success",
      "end": 11.69,
      "endOffset": 175,
      "phones": [
        {
          "duration": 0.07,
          "phone": "b_B"
        },
        {
          "duration": 0.08,
          "phone": "iy_E"
        }
      ],
      "start": 11.54,
      "startOffset": 173,
      "word": "BE"
    },
    {
      "alignedWord": "said",
      "case": "success",
      "end": 11.950000000000001,
      "endOffset": 180,
      "phones": [
        {
          "duration": 0.1,
          "phone": "s_B"
        },
        {
          "duration": 0.06,
          "phone": "eh_I"
        },
        {
          "duration": 0.08,
          "phone": "d_E"
        }
      ],
      "start": 11.71,
      "startOffset": 176,
      "word": "SAID"
    },
    {
      "alignedWord": "to",
      "case": "success",
      "end": 12.09,
      "endOffset": 183,
      "phones": [
        {
          "duration": 0.05,
          "phone": "t_B"
        },
        {
          "duration": 0.09,
          "phone": "uw_E"
        }
      ],
      "start": 11.95,
      "startOffset": 181,
      "word": "TO"
    },
    {
      "alignedWord": "have",
      "case": "success",
      "end": 12.259999,
      "endOffset": 188,
      "phones": [
        {
          "duration": 0.06,
          "phone": "hh_B"
        },
        {
          "duration": 0.05,
          "phone": "ae_I"
        },
        {
          "duration": 0.05,
          "phone": "v_E"
        }
      ],
      "start": 12.099999,
      "startOffset": 184,
      "word": "HAVE"
    },
    {
      "alignedWord": "<unk>",
      "case": "success",
      "end": 12.719999000000001,
      "endOffset": 195,
      "phones": [
        {
          "duration": 0.46,
          "phone": "oov_S"
        }
      ],
      "start": 12.259999,
      "startOffset": 189,
      "word": "SUCK'D"
    },
    {
      "alignedWord": "this",
      "case": "success",
      "end": 13.06,
      "endOffset": 200,
      "phones": [
        {
          "duration": 0.1,
          "phone": "dh_B"
        },
        {
          "duration": 0.1,
          "phone": "ih_I"
        },
        {
          "duration": 0.13,
          "phone": "s_E"
        }
      ],
      "start": 12.73,
      "startOffset": 196,
      "word": "THIS"
    },
    {
      "alignedWord": "in",
      "case": "success",
      "end": 13.38,
      "endOffset": 203,
      "phones": [
        {
          "duration": 0.19,
          "phone": "ih_B"
        },
        {
          "duration": 0.12,
          "phone": "n_E"
        }
      ],
      "start": 13.07,
      "startOffset": 201,
      "word": "IN"
    },
    {
      "alignedWord": "with",
      "case": "success",
      "end": 13.589998999999999,
      "endOffset": 208,
      "phones": [
        {
          "duration": 0.09,
          "phone": "w_B"
        },
        {
          "duration": 0.05,
          "phone": "ih_I"
        },
        {
          "duration": 0.06,
          "phone": "th_E"
        }
      ],
      "start": 13.389999,
      "startOffset": 204,
      "word": "WITH"
    },
    {
      "alignedWord": "his",
      "case": "success",
      "end": 13.79,
      "endOffset": 212,
      "phones": [
        {
          "duration": 0.04,
          "phone": "hh_B"
        },
        {
          "duration": 0.07,
          "phone": "ih_I"
        },
        {
          "duration": 0.09,
          "phone": "z_E"
        }
      ],
      "start": 13.59,
      "startOffset": 209,
      "word": "HIS"
    },
    {
      "alignedWord": "mother's",
      "case": "success",
      "end": 14.17,
      "endOffset": 221,
      "phones": [
        {
          "duration": 0.06,
          "phone": "m_B"
        },
        {
          "duration": 0.09,
          "phone": "ah_I"
        },
        {
          "duration": 0.06,
          "phone": "dh_I"
        },
        {
          "duration": 0.08,
          "phone": "er_I"
        },
        {
          "duration": 0.09,
          "phone": "z_E"
        }
      ],
      "start": 13.79,
      "startOffset": 213,
      "word": "MOTHER'S"
    },
    {
      "alignedWord": "milk",
      "case": "success",
      "end": 14.63,
      "endOffset": 226,
      "phones": [
        {
          "duration": 0.08,
          "phone": "m_B"
        },
        {
          "duration": 0.08,
          "phone": "ih_I"
        },
        {
          "duration": 0.09,
          "phone": "l_I"
        },
        {
          "duration": 0.21,
          "phone": "k_E"
        }
      ],
      "start": 14.17,
      "startOffset": 222,
      "word": "MILK"
    }
  ]
}