{
  "transcript": "BUT IT STOOD FOR A HIGH WATER MARK IN THE EBB AND FLOW OF CONFIDENCE MADAME MERLE HAD ONCE DECLARED HER BELIEF THAT WHEN A FRIENDSHIP CEASES TO GROW IT IMMEDIATELY BEGINS TO DECLINE THERE BEING NO POINT OF EQUILIBRIUM BETWEEN LIKING MORE AND LIKING LESS",
  "words": [
    {
      "alignedWord": "but",
      "case": "success",
      "end": 0.45,
      "endOffset": 3,
      "phones": [
        {
          "duration": 0.07,
          "phone": "b_B"
        },
        {
          "duration": 0.08,
          "phone": "ah_I"
        },
        {
          "duration": 0.03,
          "phone": "t_E"
        }
      ],
      "start": 0.27,
      "startOffset": 0,
      "word": "BUT"
    },
    {
      "alignedWord": "it",
      "case": "success",
      "end": 0.6,
      "endOffset": 6,
      "phones": [
        {
          "duration": 0.06,
          "phone": "ih_B"
        },
        {
          "duration": 0.09,
          "phone": "t_E"
        }
      ],
      "start": 0.45,
      "startOffset": 4,
      "word": "IT"
    },
    {
      "alignedWord": "stood",
      "case": "success",
      "end": 1.1,
      "endOffset": 12,
      "phones": [
        {
          "duration": 0.15,
          "phone": "s_B"
        },
        {
          "duration": 0.07,
          "phone": "t_I"
        },
        {
          "duration": 0.15,
          "phone": "uh_I"
        },
        {
          "duration": 0.11,
          "phone": "d_E"
        }
      ],
      "start": 0.62,
      "startOffset": 7,
      "word": "STOOD"
    },
    {
      "alignedWord": "for",
      "case": "success",
      "end": 1.3900000000000001,
      "endOffset": 16,
      "phones": [
        {
          "duration": 0.12,
          "phone": "f_B"
        },
        {
          "duration": 0.08,
          "phone": "ao_I"
        },
        {
          "duration": 0.09,
          "phone": "r_E"
        }
      ],
      "start": 1.1,
      "startOffset": 13,
      "word": "FOR"
    },
    {
      "alignedWord": "a",
      "case": "success",
      "end": 1.5799999999999998,
      "endOffset": 18,
      "phones": [
        {
          "duration": 0.18,
          "phone": "ey_S"
        }
      ],
      "start": 1.4,
      "startOffset": 17,
      "word": "A"
    },
    {
      "alignedWord": "high",
      "case": "success",
      "end": 1.82,
      "endOffset": 23,
      "phones": [
        {
          "duration": 0.11,
          "phone": "hh_B"
        },
        {
          "duration": 0.12,
          "phone": "ay_E"
        }
      ],
      "start": 1.59,
      "startOffset": 19,
      "word": "HIGH"
    },
    {
      "alignedWord": "water",
      "case": "success",
      "end": 2.17,
      "endOffset": 29,
      "phones": [
        {
          "duration": 0.1,
          "phone": "w_B"
        },
        {
          "duration": 0.1,
          "phone": "ao_I"
        },
        {
          "duration": 0.07,
          "phone": "t_I"
        },
        {
          "duration": 0.08,
          "phone": "er_E"
        }
      ],
      "start": 1.82,
      "startOffset": 24,
      "word": "WATER"
    },
    {
      "alignedWord": "mark",
      "case": "success",
      "end": 2.5,
      "endOffset": 34,
      "phones": [
        {
          "duration": 0.05,
          "phone": "m_B"
        },
        {
          "duration": 0.08,
          "phone": "aa_I"
        },
        {
          "duration": 0.11,
          "phone": "r_I"
        },
        {
          "duration": 0.09,
          "phone": "k_E"
        }
      ],
      "start": 2.17,
      "startOffset": 30,
      "word": "MARK"
    },
    {
      "alignedWord": "in",
      "case": "success",
      "end": 2.65,
      "endOffset": 37,
      "phones": [
        {
          "duration": 0.08,
          "phone": "ih_B"
        },
        {
          "duration": 0.06,
          "phone": "n_E"
        }
      ],
      "start": 2.51,
      "startOffset": 35,
      "word": "IN"
    },
    {
      "alignedWord": "the",
      "case": "success",
      "end": 2.75,
      "endOffset": 41,
      "phones": [
        {
          "duration": 0.04,
          "phone": "dh_B"
        },
        {
          "duration": 0.06,
          "phone": "ah_E"
        }
      ],
      "start": 2.65,
      "startOffset": 38,
      "word": "THE"
    },
    {
      "alignedWord": "ebb",
      "case": "success",
      "end": 3.0199999999999996,
      "endOffset": 45,
      "phones": [
        {
          "duration": 0.19,
          "phone": "eh_B"
        },
        {
          "duration": 0.07,
          "phone": "b_E"
        }
      ],
      "start": 2.76,
      "startOffset": 42,
      "word": "EBB"
    },
    {
      "alignedWord": "and",
      "case": "success",
      "end": 3.18,
      "endOffset": 49,
      "phones": [
        {
          "duration": 0.07,
          "phone": "ah_B"
        },
        {
          "duration": 0.01,
          "phone": "n_I"
        },
        {
          "duration": 0.08,
          "phone": "d_E"
        }
      ],
      "start": 3.02,
      "startOffset": 46,
      "word": "AND"
    },
    {
      "alignedWord": "flow",
      "case": "success",
      "end": 3.46,
      "endOffset": 54,
      "phones": [
        {
          "duration": 0.08,
          "phone": "f_B"
        },
        {
          "duration": 0.08,
          "phone": "l_I"
        },
        {
          "duration": 0.12,
          "phone": "ow_E"
        }
      ],
      "start": 3.18,
      "startOffset": 50,
      "word": "FLOW"
    },
    {
      "alignedWord": "of",
      "case": "success",
      "end": 3.58,
      "endOffset": 57,
      "phones": [
        {
          "duration": 0.07,
          "phone": "ah_B"
        },
        {
          "duration": 0.05,
          "phone": "v_E"
        }
      ],
      "start": 3.46,
      "startOffset": 55,
      "word": "OF"
    },
    {
      "alignedWord": "confidence",
      "case": "success",
      "end": 4.47,
      "endOffset": 68,
      "phones": [
        {
          "duration": 0.08,
          "phone": "k_B"
        },
        {
          "duration": 0.06,
          "phone": "aa_I"
        },
        {
          "duration": 0.08,
          "phone": "n_I"
        },
        {
          "duration": 0.1,
          "phone": "f_I"
        },
        {
          "duration": 0.06,
          "phone": "ah_I"
        },
        {
          "duration": 0.02,
          "phone": "d_I"
        },
        {
          "duration": 0.07,
          "phone": "ah_I"
        },
        {
          "duration": 0.09,
          "phone": "n_I"
        },
        {
          "duration": 0.33,
          "phone": "s_E"
        }
      ],
      "start": 3.58,
      "startOffset": 58,
      "word": "CONFIDENCE"
    },
    {
      "alignedWord": "madame",
      "case": "success",
      "end": 5.800000000000001,
      "endOffset": 75,
      "phones": [
        {
          "duration": 0.09,
          "phone": "m_B"
        },
        {
          "duration": 0.06,
          "phone": "ah_I"
        },
        {
          "duration": 0.1,
          "phone": "d_I"
        },
        {
          "duration": 0.09,
          "phone": "ae_I"
        },
        {
          "duration": 0.1,
          "phone": "m_E"
        }
      ],
      "start": 5.36,
      "startOffset": 69,
      "word": "MADAME"
    },
    {
      "alignedWord": "merle",
      "case": "success",
      "end": 6.18,
      "endOffset": 81,
      "phones": [
        {
          "duration": 0.09,
          "phone": "m_B"
        },
        {
          "duration": 0.15,
          "phone": "er_I"
        },
        {
          "duration": 0.14,
          "phone": "l_E"
        }
      ],
      "start": 5.8,
      "startOffset": 76,
      "word": "MERLE"
    },
    {
      "alignedWord": "had",
      "case": "success",
      "end": 6.390000000000001,
      "endOffset": 85,
      "phones": [
        {
          "duration": 0.07,
          "phone": "hh_B"
        },
        {
          "duration": 0.04,
          "phone": "ae_I"
        },
        {
          "duration": 0.09,
          "phone": "d_E"
        }
      ],
      "start": 6.19,
      "startOffset": 82,
      "word": "HAD"
    },
    {
      "alignedWord": "once",
      "case": "success",
      "end": 6.67,
      "endOffset": 90,
      "phones": [
        {
          "duration": 0.07,
          "phone": "w_B"
        },
        {
          "duration": 0.08,
          "phone": "ah_I"
        },
        {
          "duration": 0.05,
          "phone": "n_I"
        },
        {
          "duration": 0.08,
          "phone": "s_E"
        }
      ],
      "start": 6.39,
      "startOffset": 86,
      "word": "ONCE"
    },
    {
      "alignedWord": "declared",
      "case": "success",
      "end": 7.15,
      "endOffset": 99,
      "phones": [
        {
          "duration": 0.06,
          "phone": "d_B"
        },
        {
          "duration": 0.06,
          "phone": "ih_I"
        },
        {
          "duration": 0.09,
          "phone": "k_I"
        },
        {
          "duration": 0.06,
          "phone": "l_I"
        },
        {
          "duration": 0.1,
          "phone": "eh_I"
        },
        {
          "duration": 0.06,
          "phone": "r_I"
        },
        {
          "duration": 0.05,
          "phone": "d_E"
        }
      ],
      "start": 6.67,
      "startOffset": 91,
      "word": "DECLARED"
    },
    {
      "alignedWord": "her",
      "case": "success",
      "end": 7.28,
      "endOffset": 103,
      "phones": [
        {
          "duration": 0.06,
          "phone": "hh_B"
        },
        {
          "duration": 0.07,
          "phone": "er_E"
        }
      ],
      "start": 7.15,
      "startOffset": 100,
      "word": "HER"
    },
    {
      "alignedWord": "belief",
      "case": "success",
      "end": 7.800000000000001,
      "endOffset": 110,
      "phones": [
        {
          "duration": 0.05,
          "phone": "b_B"
        },
        {
          "duration": 0.04,
          "phone": "ih_I"
        },
        {
          "duration": 0.11,
          "phone": "l_I"
        },
        {
          "duration": 0.15,
          "phone": "iy_I"
        },
        {
          "duration": 0.17,
          "phone": "f_E"
        }
      ],
      "start": 7.28,
      "startOffset": 104,
      "word": "BELIEF"
    },
    {
      "alignedWord": "that",
      "case": "success",
      "end": 8.05,
      "endOffset": 115,
      "phones": [
        {
          "duration": 0.09,
          "phone": "dh_B"
        },
        {
          "duration": 0.06,
          "phone": "ae_I"
        },
        {
          "duration": 0.08,
          "phone": "t_E"
        }
      ],
      "start": 7.82,
      "startOffset": 111,
      "word": "THAT"
    },
    {
      "alignedWord": "when",
      "case": "success",
      "end": 8.21,
      "endOffset": 120,
      "phones": [
        {
          "duration": 0.05,
          "phone": "w_B"
        },
        {
          "duration": 0.06,
          "phone": "ih_I"
        },
        {
          "duration": 0.05,
          "phone": "n_E"
        }
      ],
      "start": 8.05,
      "startOffset": 116,
      "word": "WHEN"
    },
    {
      "alignedWord": "a",
      "case": "success",
      "end": 8.270000000000001,
      "endOffset": 122,
      "phones": [
        {
          "duration": 0.06,
          "phone": "ah_S"
        }
      ],
      "start": 8.21,
      "startOffset": 121,
      "word": "A"
    },
    {
      "alignedWord": "friendship",
      "case": "success",
      "end": 8.719999999999999,
      "endOffset": 133,
      "phones": [
        {
          "duration": 0.07,
          "phone": "f_B"
        },
        {
          "duration": 0.05,
          "phone": "r_I"
        },
        {
          "duration": 0.04,
          "phone": "eh_I"
        },
        {
          "duration": 0.07,
          "phone": "n_I"
        },
        {
          "duration": 0.09,
          "phone": "sh_I"
        },
        {
          "duration": 0.05,
          "phone": "ih_I"
        },
        {
          "duration": 0.08,
          "phone": "p_E"
        }
      ],
      "start": 8.27,
      "startOffset": 123,
      "word": "FRIENDSHIP"
    },
    {
      "alignedWord": "ceases",
      "case": "success",
      "end": 9.13,
      "endOffset": 140,
      "phones": [
        {
          "duration": 0.11,
          "phone": "s_B"
        },
        {
          "duration": 0.09,
          "phone": "iy_I"
        },
        {
          "duration": 0.06,
          "phone": "s_I"
        },
        {
          "duration": 0.06,
          "phone": "ih_I"
        },
        {
          "duration": 0.09,
          "phone": "z_E"
        }
      ],
      "start": 8.72,
      "startOffset": 134,
      "word": "CEASES"
    },
    {
      "alignedWord": "to",
      "case": "success",
      "end": 9.280000000000001,
      "endOffset": 143,
      "phones": [
        {
          "duration": 0.07,
          "phone": "t_B"
        },
        {
          "duration": 0.08,
          "phone": "ih_E"
        }
      ],
      "start": 9.13,
      "startOffset": 141,
      "word": "TO"
    },
    {
      "alignedWord": "grow",
      "case": "success",
      "end": 9.549999999999999,
      "endOffset": 148,
      "phones": [
        {
          "duration": 0.07,
          "phone": "g_B"
        },
        {
          "duration": 0.08,
          "phone": "r_I"
        },
        {
          "duration": 0.12,
          "phone": "ow_E"
        }
      ],
      "start": 9.28,
      "startOffset": 144,
      "word": "GROW"
    },
    {
      "alignedWord": "it",
      "case": "success",
      "end": 9.700000000000001,
      "endOffset": 151,
      "phones": [
        {
          "duration": 0.1,
          "phone": "ih_B"
        },
        {
          "duration": 0.05,
          "phone": "t_E"
        }
      ],
      "start": 9.55,
      "startOffset": 149,
      "word": "IT"
    },
    {
      "alignedWord": "immediately",
      "case": "success",
      "end": 10.28,
      "endOffset": 163,
      "phones": [
        {
          "duration": 0.06,
          "phone": "ih_B"
        },
        {
          "duration": 0.1,
          "phone": "m_I"
        },
        {
          "duration": 0.07,
          "phone": "iy_I"
        },
        {
          "duration": 0.06,
          "phone": "d_I"
        },
        {
          "duration": 0.07,
          "phone": "iy_I"
        },
        {
          "duration": 0.05,
          "phone": "ah_I"
        },
        {
          "duration": 0.01,
          "phone": "t_I"
        },
        {
          "duration": 0.07,
          "phone": "l_I"
        },
        {
          "duration": 0.09,
          "phone": "iy_E"
        }
      ],
      "start": 9.7,
      "startOffset": 152,
      "word": "IMMEDIATELY"
    },
    {
      "alignedWord": "begins",
      "case": "success",
      "end": 10.67,
      "endOffset": 170,
      "phones": [
        {
          "duration": 0.05,
          "phone": "b_B"
        },
        {
          "duration": 0.09,
          "phone": "ih_I"
        },
        {
          "duration": 0.03,
          "phone": "g_I"
        },
        {
          "duration": 0.07,
          "phone": "ih_I"
        },
        {
          "duration": 0.08,
          "phone": "n_I"
        },
        {
          "duration": 0.07,
          "phone": "z_E"
        }
      ],
      "start": 10.28,
      "startOffset": 164,
      "word": "BEGINS"
    },
    {
      "alignedWord": "to",
      "case": "success",
      "end": 10.85,
      "endOffset": 173,
      "phones": [
        {
          "duration": 0.11,
          "phone": "t_B"
        },
        {
          "duration": 0.07,
          "phone": "uw_E"
        }
      ],
      "start": 10.67,
      "startOffset": 171,
      "word": "TO"
    },
    {
      "alignedWord": "decline",
      "case": "success",
      "end": 11.439999,
      "endOffset": 181,
      "phones": [
        {
          "duration": 0.04,
          "phone": "d_B"
        },
        {
          "duration": 0.07,
          "phone": "ih_I"
        },
        {
          "duration": 0.1,
          "phone": "k_I"
        },
        {
          "duration": 0.07,
          "phone": "l_I"
        },
        {
          "duration": 0.11,
          "phone": "ay_I"
        },
        {
          "duration": 0.2,
          "phone": "n_E"
        }
      ],
      "start": 10.849999,
      "startOffset": 174,
      "word": "DECLINE"
    },
    {
      "alignedWord": "there",
      "case": "success",
      "end": 11.679999,
      "endOffset": 187,
      "phones": [
        {
          "duration": 0.09,
          "phone": "dh_B"
        },
        {
          "duration": 0.06,
          "phone": "eh_I"
        },
        {
          "duration": 0.06,
          "phone": "r_E"
        }
      ],
      "start": 11.469999,
      "startOffset": 182,
      "word": "THERE"
    },
    {
      "alignedWord": "being",
      "case": "success",
      "end": 11.939999,
      "endOffset": 193,
      "phones": [
        {
          "duration": 0.06,
          "phone": "b_B"
        },
        {
          "duration": 0.05,
          "phone": "iy_I"
        },
        {
          "duration": 0.04,
          "phone": "ih_I"
        },
        {
          "duration": 0.11,
          "phone": "ng_E"
        }
      ],
      "start": 11.679999,
      "startOffset": 188,
      "word": "BEING"
    },
    {
      "alignedWord": "no",
      "case": "success",
      "end": 12.12,
      "endOffset": 196,
      "phones": [
        {
          "duration": 0.07,
          "phone": "n_B"
        },
        {
          "duration": 0.11,
          "phone": "ow_E"
        }
      ],
      "start": 11.94,
      "startOffset": 194,
      "word": "NO"
    },
    {
      "alignedWord": "point",
      "case": "success",
      "end": 12.479999999999999,
      "endOffset": 202,
      "phones": [
        {
          "duration": 0.13,
          "phone": "p_B"
        },
        {
          "duration": 0.11,
          "phone": "oy_I"
        },
        {
          "duration": 0.06,
          "phone": "n_I"
        },
        {
          "duration": 0.06,
          "phone": "t_E"
        }
      ],
      "start": 12.12,
      "startOffset": 197,
      "word": "POINT"
    },
    {
      "alignedWord": "of",
      "case": "success",
      "end": 12.64,
      "endOffset": 205,
      "phones": [
        {
          "duration": 0.07,
          "phone": "ah_B"
        },
        {
          "duration": 0.08,
          "phone": "v_E"
        }
      ],
      "start": 12.49,
      "startOffset": 203,
      "word": "OF"
    },
    {
      "alignedWord": "equilibrium",
      "case": "success",
      "end": 13.299999,
      "endOffset": 217,
      "phones": [
        {
          "duration": 0.06,
          "phone": "iy_B"
        },
        {
          "duration": 0.09,
          "phone": "k_I"
        },
        {
          "duration": 0.05,
          "phone": "w_I"
        },
        {
          "duration": 0.05,
          "phone": "ah_I"
        },
        {
          "duration": 0.04,
          "phone": "l_I"
        },
        {
          "duration": 0.07,
          "phone": "ih_I"
        },
        {
          "duration": 0.07,
          "phone": "b_I"
        },
        {
          "duration": 0.05,
          "phone": "r_I"
        },
        {
          "duration": 0.07,
          "phone": "iy_I"
        },
        {
          "duration": 0.05,
          "phone": "ah_I"
        },
        {
          "duration": 0.06,
          "phone": "m_E"
        }
      ],
      "start": 12.639999,
      "startOffset": 206,
      "word": "EQUILIBRIUM"
    },
    {
      "alignedWord": "between",
      "case": "success",
      "end": 13.669998999999999,
      "endOffset": 225,
      "phones": [
        {
          "duration": 0.05,
          "phone": "b_B"
        },
        {
          "duration": 0.05,
          "phone": "ih_I"
        },
        {
          "duration": 0.08,
          "phone": "t_I"
        },
        {
          "duration": 0.05,
          "phone": "w_I"
        },
        {
          "duration": 0.06,
          "phone": "iy_I"
        },
        {
          "duration": 0.08,
          "phone": "n_E"
        }
      ],
      "start": 13.299999,
      "startOffset": 218,
      "word": "BETWEEN"
    },
    {
      "alignedWord": "liking",
      "case": "success",
      "end": 14.01,
      "endOffset": 232,
      "phones": [
        {
          "duration": 0.04,
          "phone": "l_B"
        },
        {
          "duration": 0.11,
          "phone": "ay_I"
        },
        {
          "duration": 0.06,
          "phone": "k_I"
        },
        {
          "duration": 0.07,
          "phone": "ih_I"
        },
        {
          "duration": 0.06,
          "phone": "ng_E"
        }
      ],
      "start": 13.67,
      "startOffset": 226,
      "word": "LIKING"
    },
    {
      "alignedWord": "more",
      "case": "success",
      "end": 14.409999000000001,
      "endOffset": 237,
      "phones": [
        {
          "duration": 0.07,
          "phone": "m_B"
        },
        {
          "duration": 0.13,
          "phone": "ao_I"
        },
        {
          "duration": 0.2,
          "phone": "r_E"
        }
      ],
      "start": 14.009999,
      "startOffset": 233,
      "word": "MORE"
    },
    {
      "alignedWord": "and",
      "case": "success",
      "end": 14.639999999999999,
      "endOffset": 241,
      "phones": [
        {
          "duration": 0.08,
          "phone": "ae_B"
        },
        {
          "duration": 0.06,
          "phone": "n_I"
        },
        {
          "duration": 0.06,
          "phone": "d_E"
        }
      ],
      "start": 14.44,
      "startOffset": 238,
      "word": "AND"
    },
    {
      "alignedWord": "liking",
      "case": "success",
      "end": 15.019999,
      "endOffset": 248,
      "phones": [
        {
          "duration": 0.04,
          "phone": "l_B"
        },
        {
          "duration": 0.07,
          "phone": "ay_I"
        },
        {
          "duration": 0.07,
          "phone": "k_I"
        },
        {
          "duration": 0.09,
          "phone": "ih_I"
        },
        {
          "duration": 0.11,
          "phone": "ng_E"
        }
      ],
      "start": 14.639999,
      "startOffset": 242,
      "word": "LIKING"
    },
    {
      "alignedWord": "less",
      "case": "success",
      "end": 15.42,
      "endOffset": 253,
      "phones": [
        {
          "duration": 0.05,
          "phone": "l_B"
        },
        {
          "duration": 0.16,
          "phone": "eh_I"
        },
        {
          "duration": 0.19,
          "phone": "s_E"
        }
      ],
      "start": 15.02,
      "startOffset": 249,
      "word": "LESS"
    }
  ]
}