{
  "transcript": "SUCH AS POPLARS WILLOWS AND BOX ELDERS THEY HAD DECIDED THAT IT WAS A GOOD PLACE TO LIVE THERE WAS A SMALL STREAM TOO WHICH WAS REALLY THE BEGINNING OF SWIFT RIVER",
  "words": [
    {
      "alignedWord": "such",
      "case": "success",
      "end": 0.36,
      "endOffset": 4,
      "phones": [
        {
          "duration": 0.07,
          "phone": "s_B"
        },
        {
          "duration": 0.07,
          "phone": "ah_I"
        },
        {
          "duration": 0.07,
          "phone": "ch_E"
        }
      ],
      "start": 0.15,
      "startOffset": 0,
      "word": "SUCH"
    },
    {
      "alignedWord": "as",
      "case": "success",
      "end": 0.52,
      "endOffset": 7,
      "phones": [
        {
          "duration": 0.07,
          "phone": "eh_B"
        },
        {
          "duration": 0.09,
          "phone": "z_E"
        }
      ],
      "start": 0.36,
      "startOffset": 5,
      "word": "AS"
    },
    {
      "case": "not-found-in-audio",
      "endOffset": 15,
      "startOffset": 8,
      "word": "POPLARS"
    },
    {
      "alignedWord": "<unk>",
      "case": "success",
      "end": 1.68,
      "endOffset": 23,
      "phones": [
        {
          "duration": 1.16,
          "phone": "oov_S"
        }
      ],
      "start": 0.52,
      "startOffset": 16,
      "word": "WILLOWS"
    },
    {
      "alignedWord": "and",
      "case": "success",
      "end": 1.8299999999999998,
      "endOffset": 27,
      "phones": [
        {
          "duration": 0.03,
          "phone": "ah_B"
        },
        {
          "duration": 0.04,
          "phone": "n_I"
        },
        {
          "duration": 0.08,
          "phone": "d_E"
        }
      ],
      "start": 1.68,
      "startOffset": 24,
      "word": "AND"
    },
    {
      "alignedWord": "box",
      "case": "success",
      "end": 2.18,
      "endOffset": 31,
      "phones": [
        {
          "duration": 0.08,
          "phone": "b_B"
        },
        {
          "duration": 0.1,
          "phone": "aa_I"
        },
        {
          "duration": 0.1,
          "phone": "k_I"
        },
        {
          "duration": 0.07,
          "phone": "s_E"
        }
      ],
      "start": 1.83,
      "startOffset": 28,
      "word": "BOX"
    },
    {
      "alignedWord": "elders",
      "case": "success",
      "end": 2.7300000000000004,
      "endOffset": 38,
      "phones": [
        {
          "duration": 0.09,
          "phone": "eh_B"
        },
        {
          "duration": 0.08,
          "phone": "l_I"
        },
        {
          "duration": 0.08,
          "phone": "d_I"
        },
        {
          "duration": 0.11,
          "phone": "er_I"
        },
        {
          "duration": 0.19,
          "phone": "z_E"
        }
      ],
      "start": 2.18,
      "startOffset": 32,
      "word": "ELDERS"
    },
    {
      "alignedWord": "they",
      "case": "success",
      "end": 3.2399999999999998,
      "endOffset": 43,
      "phones": [
        {
          "duration": 0.11,
          "phone": "dh_B"
        },
        {
          "duration": 0.1,
          "phone": "ey_E"
        }
      ],
      "start": 3.03,
      "startOffset": 39,
      "word": "THEY"
    },
    {
      "alignedWord": "had",
      "case": "success",
      "end": 3.41,
      "endOffset": 47,
      "phones": [
        {
          "duration": 0.07,
          "phone": "hh_B"
        },
        {
          "duration": 0.05,
          "phone": "ae_I"
        },
        {
          "duration": 0.05,
          "phone": "d_E"
        }
      ],
      "start": 3.24,
      "startOffset": 44,
      "word": "HAD"
    },
    {
      "alignedWord": "decided",
      "case": "success",
      "end": 4.09,
      "endOffset": 55,
      "phones": [
        {
          "duration": 0.04,
          "phone": "d_B"
        },
        {
          "duration": 0.07,
          "phone": "ih_I"
        },
        {
          "duration": 0.13,
          "phone": "s_I"
        },
        {
          "duration": 0.12,
          "phone": "ay_I"
        },
        {
          "duration": 0.07,
          "phone": "d_I"
        },
        {
          "duration": 0.07,
          "phone": "ih_I"
        },
        {
          "duration": 0.18,
          "phone": "d_E"
        }
      ],
      "start": 3.41,
      "startOffset": 48,
      "word": "DECIDED"
    },
    {
      "alignedWord": "that",
      "case": "success",
      "end": 4.29,
      "endOffset": 60,
      "phones": [
        {
          "duration": 0.09,
          "phone": "dh_B"
        },
        {
          "duration": 0.05,
          "phone": "ah_I"
        },
        {
          "duration": 0.05,
          "phone": "t_E"
        }
      ],
      "start": 4.1,
      "startOffset": 56,
      "word": "THAT"
    },
    {
      "alignedWord": "it",
      "case": "success",
      "end": 4.43,
      "endOffset": 63,
      "phones": [
        {
          "duration": 0.05,
          "phone": "ih_B"
        },
        {
          "duration": 0.09,
          "phone": "t_E"
        }
      ],
      "start": 4.29,
      "startOffset": 61,
      "word": "IT"
    },
    {
      "alignedWord": "was",
      "case": "success",
      "end": 4.58,
      "endOffset": 67,
      "phones": [
        {
          "duration": 0.03,
          "phone": "w_B"
        },
        {
          "duration": 0.06,
          "phone": "ah_I"
        },
        {
          "duration": 0.06,
          "phone": "z_E"
        }
      ],
      "start": 4.43,
      "startOffset": 64,
      "word": "WAS"
    },
    {
      "alignedWord": "a",
      "case": "success",
      "end": 4.63,
      "endOffset": 69,
      "phones": [
        {
          "duration": 0.05,
          "phone": "ah_S"
        }
      ],
      "start": 4.58,
      "startOffset": 68,
      "word": "A"
    },
    {
      "alignedWord": "good",
      "case": "success",
      "end": 4.87,
      "endOffset": 74,
      "phones": [
        {
          "duration": 0.09,
          "phone": "g_B"
        },
        {
          "duration": 0.08,
          "phone": "uh_I"
        },
        {
          "duration": 0.07,
          "phone": "d_E"
        }
      ],
      "start": 4.63,
      "startOffset": 70,
      "word": "GOOD"
    },
    {
      "alignedWord": "place",
      "case": "success",
      "end": 5.16,
      "endOffset": 80,
      "phones": [
        {
          "duration": 0.08,
          "phone": "p_B"
        },
        {
          "duration": 0.08,
          "phone": "l_I"
        },
        {
          "duration": 0.06,
          "phone": "ey_I"
        },
        {
          "duration": 0.07,
          "phone": "s_E"
        }
      ],
      "start": 4.87,
      "startOffset": 75,
      "word": "PLACE"
    },
    {
      "alignedWord": "to",
      "case": "success",
      "end": 5.29,
      "endOffset": 83,
      "phones": [
        {
          "duration": 0.06,
          "phone": "t_B"
        },
        {
          "duration": 0.05,
          "phone": "ah_E"
        }
      ],
      "start": 5.18,
      "startOffset": 81,
      "word": "TO"
    },
    {
      "alignedWord": "live",
      "case": "success",
      "end": 5.86,
      "endOffset": 88,
      "phones": [
        {
          "duration": 0.08,
          "phone": "l_B"
        },
        {
          "duration": 0.22,
          "phone": "ih_I"
        },
        {
          "duration": 0.27,
          "phone": "v_E"
        }
      ],
      "start": 5.29,
      "startOffset": 84,
      "word": "LIVE"
    },
    {
      "alignedWord": "there",
      "case": "success",
      "end": 6.69,
      "endOffset": 94,
      "phones": [
        {
          "duration": 0.09,
          "phone": "dh_B"
        },
        {
          "duration": 0.06,
          "phone": "eh_I"
        },
        {
          "duration": 0.05,
          "phone": "r_E"
        }
      ],
      "start": 6.49,
      "startOffset": 89,
      "word": "THERE"
    },
    {
      "alignedWord": "was",
      "case": "success",
      "end": 6.87,
      "endOffset": 98,
      "phones": [
        {
          "duration": 0.06,
          "phone": "w_B"
        },
        {
          "duration": 0.06,
          "phone": "ah_I"
        },
        {
          "duration": 0.06,
          "phone": "z_E"
        }
      ],
      "start": 6.69,
      "startOffset": 95,
      "word": "WAS"
    },
    {
      "alignedWord": "a",
      "case": "success",
      "end": 6.93,
      "endOffset": 100,
      "phones": [
        {
          "duration": 0.06,
          "phone": "ah_S"
        }
      ],
      "start": 6.87,
      "startOffset": 99,
      "word": "A"
    },
    {
      "alignedWord": "small",
      "case": "success",
      "end": 7.34,
      "endOffset": 106,
      "phones": [
        {
          "duration": 0.13,
          "phone": "s_B"
        },
        {
          "duration": 0.07,
          "phone": "m_I"
        },
        {
          "duration": 0.11,
          "phone": "ao_I"
        },
        {
          "duration": 0.1,
          "phone": "l_E"
        }
      ],
      "start": 6.93,
      "startOffset": 101,
      "word": "SMALL"
    },
    {
      "alignedWord": "stream",
      "case": "success",
      "end": 7.9399999999999995,
      "endOffset": 113,
      "phones": [
        {
          "duration": 0.11,
          "phone": "s_B"
        },
        {
          "duration": 0.08,
          "phone": "t_I"
        },
        {
          "duration": 0.1,
          "phone": "r_I"
        },
        {
          "duration": 0.2,
          "phone": "iy_I"
        },
        {
          "duration": 0.1,
          "phone": "m_E"
        }
      ],
      "start": 7.35,
      "startOffset": 107,
      "word": "STREAM"
    },
    {
      "alignedWord": "too",
      "case": "success",
      "end": 8.48,
      "endOffset": 117,
      "phones": [
        {
          "duration": 0.12,
          "phone": "t_B"
        },
        {
          "duration": 0.42,
          "phone": "uw_E"
        }
      ],
      "start": 7.94,
      "startOffset": 114,
      "word": "TOO"
    },
    {
      "alignedWord": "which",
      "case": "success",
      "end": 8.959999999999999,
      "endOffset": 123,
      "phones": [
        {
          "duration": 0.04,
          "phone": "hh_B"
        },
        {
          "duration": 0.06,
          "phone": "w_I"
        },
        {
          "duration": 0.04,
          "phone": "ih_I"
        },
        {
          "duration": 0.06,
          "phone": "ch_E"
        }
      ],
      "start": 8.76,
      "startOffset": 118,
      "word": "WHICH"
    },
    {
      "alignedWord": "was",
      "case": "success",
      "end": 9.16,
      "endOffset": 127,
      "phones": [
        {
          "duration": 0.06,
          "phone": "w_B"
        },
        {
          "duration": 0.06,
          "phone": "ah_I"
        },
        {
          "duration": 0.08,
          "phone": "z_E"
        }
      ],
      "start": 8.96,
      "startOffset": 124,
      "word": "WAS"
    },
    {
      "alignedWord": "really",
      "case": "success",
      "end": 9.44,
      "endOffset": 134,
      "phones": [
        {
          "duration": 0.06,
          "phone": "r_B"
        },
        {
          "duration": 0.07,
          "phone": "ih_I"
        },
        {
          "duration": 0.09,
          "phone": "l_I"
        },
        {
          "duration": 0.06,
          "phone": "iy_E"
        }
      ],
      "start": 9.16,
      "startOffset": 128,
      "word": "REALLY"
    },
    {
      "alignedWord": "the",
      "case": "success",
      "end": 9.54,
      "endOffset": 138,
      "phones": [
        {
          "duration": 0.05,
          "phone": "dh_B"
        },
        {
          "duration": 0.05,
          "phone": "ah_E"
        }
      ],
      "start": 9.44,
      "startOffset": 135,
      "word": "THE"
    },
    {
      "alignedWord": "beginning",
      "case": "success",
      "end": 10.059999999999999,
      "endOffset": 148,
      "phones": [
        {
          "duration": 0.05,
          "phone": "b_B"
        },
        {
          "duration": 0.07,
          "phone": "ih_I"
        },
        {
          "duration": 0.09,
          "phone": "g_I"
        },
        {
          "duration": 0.09,
          "phone": "ih_I"
        },
        {
          "duration": 0.01,
          "phone": "n_I"
        },
        {
          "duration": 0.11,
          "phone": "ih_I"
        },
        {
          "duration": 0.1,
          "phone": "ng_E"
        }
      ],
      "start": 9.54,
      "startOffset": 139,
      "word": "BEGINNING"
    },
    {
      "alignedWord": "of",
      "case": "success",
      "end": 10.209999,
      "endOffset": 151,
      "phones": [
        {
          "duration": 0.07,
          "phone": "ah_B"
        },
        {
          "duration": 0.08,
          "phone": "v_E"
        }
      ],
      "start": 10.059999,
      "startOffset": 149,
      "word": "OF"
    },
    {
      "alignedWord": "swift",
      "case": "success",
      "end": 10.66,
      "endOffset": 157,
      "phones": [
        {
          "duration": 0.11,
          "phone": "s_B"
        },
        {
          "duration": 0.07,
          "phone": "w_I"
        },
        {
          "duration": 0.07,
          "phone": "ih_I"
        },
        {
          "duration": 0.09,
          "phone": "f_I"
        },
        {
          "duration": 0.11,
          "phone": "t_E"
        }
      ],
      "start": 10.21,
      "startOffset": 152,
      "word": "SWIFT"
    },
    {
      "alignedWord": "river",
      "case": "success",
      "end": 11.2,
      "endOffset": 163,
      "phones": [
        {
          "duration": 0.07,
          "phone": "r_B"
        },
        {
          "duration": 0.09,
          "phone": "ih_I"
        },
        {
          "duration": 0.1,
          "phone": "v_I"
        },
        {
          "duration": 0.28,
          "phone": "er_E"
        }
      ],
      "start": 10.66,
      "startOffset": 158,
      "word": "RIVER"
    }
  ]
}