{
  "transcript": "SURE AND CERTAIN RESPONDED THE GRATIFIED JUSTICE FIRE AND WATER SHOULDN'T KEEP ME AWAY SOON AFTER MISTER CARLYLE WAS LEFT ALONE ANOTHER CLERK ENTERED MISS CARLYLE IS ASKING TO SEE YOU SIR AND COLONEL BETHEL'S COME AGAIN",
  "words": [
    {
      "alignedWord": "sure",
      "case": "success",
      "end": 0.6799999999999999,
      "endOffset": 4,
      "phones": [
        {
          "duration": 0.14,
          "phone": "sh_B"
        },
        {
          "duration": 0.07,
          "phone": "uh_I"
        },
        {
          "duration": 0.11,
          "phone": "r_E"
        }
      ],
      "start": 0.36,
      "startOffset": 0,
      "word": "SURE"
    },
    {
      "alignedWord": "and",
      "case": "success",
      "end": 0.8300000000000001,
      "endOffset": 8,
      "phones": [
        {
          "duration": 0.08,
          "phone": "ah_B"
        },
        {
          "duration": 0.01,
          "phone": "n_I"
        },
        {
          "duration": 0.06,
          "phone": "d_E"
        }
      ],
      "start": 0.68,
      "startOffset": 5,
      "word": "AND"
    },
    {
      "alignedWord": "certain",
      "case": "success",
      "end": 1.31,
      "endOffset": 16,
      "phones": [
        {
          "duration": 0.12,
          "phone": "s_B"
        },
        {
          "duration": 0.09,
          "phone": "er_I"
        },
        {
          "duration": 0.03,
          "phone": "t_I"
        },
        {
          "duration": 0.11,
          "phone": "ah_I"
        },
        {
          "duration": 0.13,
          "phone": "n_E"
        }
      ],
      "start": 0.83,
      "startOffset": 9,
      "word": "CERTAIN"
    },
    {
      "alignedWord": "responded",
      "case": "success",
      "end": 1.87,
      "endOffset": 26,
      "phones": [
        {
          "duration": 0.06,
          "phone": "r_B"
        },
        {
          "duration": 0.06,
          "phone": "iy_I"
        },
        {
          "duration": 0.06,
          "phone": "s_I"
        },
        {
          "duration": 0.07,
          "phone": "p_I"
        },
        {
          "duration": 0.08,
          "phone": "aa_I"
        },
        {
          "duration": 0.06,
          "phone": "n_I"
        },
        {
          "duration": 0.02,
          "phone": "d_I"
        },
        {
          "duration": 0.07,
          "phone": "ih_I"
        },
        {
          "duration": 0.05,
          "phone": "d_E"
        }
      ],
      "start": 1.34,
      "startOffset": 17,
      "word": "RESPONDED"
    },
    {
      "alignedWord": "the",
      "case": "success",
      "end": 1.9400000000000002,
      "endOffset": 30,
      "phones": [
        {
          "duration": 0.01,
          "phone": "dh_B"
        },
        {
          "duration": 0.06,
          "phone": "ah_E"
        }
      ],
      "start": 1.87,
      "startOffset": 27,
      "word": "THE"
    },
    {
      "alignedWord": "gratified",
      "case": "success",
      "end": 2.49,
      "endOffset": 40,
      "phones": [
        {
          "duration": 0.05,
          "phone": "g_B"
        },
        {
          "duration": 0.06,
          "phone": "r_I"
        },
        {
          "duration": 0.06,
          "phone": "ae_I"
        },
        {
          "duration": 0.06,
          "phone": "t_I"
        },
        {
          "duration": 0.04,
          "phone": "ah_I"
        },
        {
          "duration": 0.1,
          "phone": "f_I"
        },
        {
          "duration": 0.09,
          "phone": "ay_I"
        },
        {
          "duration": 0.09,
          "phone": "d_E"
        }
      ],
      "start": 1.94,
      "startOffset": 31,
      "word": "GRATIFIED"
    },
    {
      "alignedWord": "justice",
      "case": "success",
      "end": 2.9400000000000004,
      "endOffset": 48,
      "phones": [
        {
          "duration": 0.05,
          "phone": "jh_B"
        },
        {
          "duration": 0.07,
          "phone": "ah_I"
        },
        {
          "duration": 0.08,
          "phone": "s_I"
        },
        {
          "duration": 0.05,
          "phone": "t_I"
        },
        {
          "duration": 0.08,
          "phone": "ah_I"
        },
        {
          "duration": 0.12,
          "phone": "s_E"
        }
      ],
      "start": 2.49,
      "startOffset": 41,
      "word": "JUSTICE"
    },
    {
      "alignedWord": "fire",
      "case": "success",
      "end": 3.5,
      "endOffset": 53,
      "phones": [
        {
          "duration": 0.13,
          "phone": "f_B"
        },
        {
          "duration": 0.15,
          "phone": "ay_I"
        },
        {
          "duration": 0.06,
          "phone": "r_E"
        }
      ],
      "start": 3.16,
      "startOffset": 49,
      "word": "FIRE"
    },
    {
      "alignedWord": "and",
      "case": "success",
      "end": 3.64,
      "endOffset": 57,
      "phones": [
        {
          "duration": 0.06,
          "phone": "ah_B"
        },
        {
          "duration": 0.01,
          "phone": "n_I"
        },
        {
          "duration": 0.07,
          "phone": "d_E"
        }
      ],
      "start": 3.5,
      "startOffset": 54,
      "word": "AND"
    },
    {
      "alignedWord": "water",
      "case": "success",
      "end": 4.0200000000000005,
      "endOffset": 63,
      "phones": [
        {
          "duration": 0.06,
          "phone": "w_B"
        },
        {
          "duration": 0.1,
          "phone": "ao_I"
        },
        {
          "duration": 0.07,
          "phone": "t_I"
        },
        {
          "duration": 0.15,
          "phone": "er_E"
        }
      ],
      "start": 3.64,
      "startOffset": 58,
      "word": "WATER"
    },
    {
      "alignedWord": "shouldn't",
      "case": "success",
      "end": 4.3100000000000005,
      "endOffset": 73,
      "phones": [
        {
          "duration": 0.08,
          "phone": "sh_B"
        },
        {
          "duration": 0.05,
          "phone": "uh_I"
        },
        {
          "duration": 0.01,
          "phone": "d_I"
        },
        {
          "duration": 0.05,
          "phone": "ah_I"
        },
        {
          "duration": 0.03,
          "phone": "n_I"
        },
        {
          "duration": 0.06,
          "phone": "t_E"
        }
      ],
      "start": 4.03,
      "startOffset": 64,
      "word": "SHOULDN'T"
    },
    {
      "alignedWord": "keep",
      "case": "success",
      "end": 4.51,
      "endOffset": 78,
      "phones": [
        {
          "duration": 0.09,
          "phone": "k_B"
        },
        {
          "duration": 0.06,
          "phone": "iy_I"
        },
        {
          "duration": 0.05,
          "phone": "p_E"
        }
      ],
      "start": 4.31,
      "startOffset": 74,
      "word": "KEEP"
    },
    {
      "alignedWord": "me",
      "case": "success",
      "end": 4.67,
      "endOffset": 81,
      "phones": [
        {
          "duration": 0.09,
          "phone": "m_B"
        },
        {
          "duration": 0.06,
          "phone": "iy_E"
        }
      ],
      "start": 4.52,
      "startOffset": 79,
      "word": "ME"
    },
    {
      "alignedWord": "away",
      "case": "success",
      "end": 5.14,
      "endOffset": 86,
      "phones": [
        {
          "duration": 0.06,
          "phone": "ah_B"
        },
        {
          "duration": 0.12,
          "phone": "w_I"
        },
        {
          "duration": 0.29,
          "phone": "ey_E"
        }
      ],
      "start": 4.67,
      "startOffset": 82,
      "word": "AWAY"
    },
    {
      "alignedWord": "soon",
      "case": "success",
      "end": 6.170000000000001,
      "endOffset": 91,
      "phones": [
        {
          "duration": 0.18,
          "phone": "s_B"
        },
        {
          "duration": 0.21,
          "phone": "uw_I"
        },
        {
          "duration": 0.05,
          "phone": "n_E"
        }
      ],
      "start": 5.73,
      "startOffset": 87,
      "word": "SOON"
    },
    {
      "alignedWord": "after",
      "case": "success",
      "end": 6.42,
      "endOffset": 97,
      "phones": [
        {
          "duration": 0.08,
          "phone": "ae_B"
        },
        {
          "duration": 0.06,
          "phone": "f_I"
        },
        {
          "duration": 0.07,
          "phone": "t_I"
        },
        {
          "duration": 0.04,
          "phone": "er_E"
        }
      ],
      "start": 6.17,
      "startOffset": 92,
      "word": "AFTER"
    },
    {
      "alignedWord": "mister",
      "case": "success",
      "end": 6.65,
      "endOffset": 104,
      "phones": [
        {
          "duration": 0.04,
          "phone": "m_B"
        },
        {
          "duration": 0.05,
          "phone": "ih_I"
        },
        {
          "duration": 0.02,
          "phone": "s_I"
        },
        {
          "duration": 0.06,
          "phone": "t_I"
        },
        {
          "duration": 0.06,
          "phone": "er_E"
        }
      ],
      "start": 6.42,
      "startOffset": 98,
      "word": "MISTER"
    },
    {
      "alignedWord": "carlyle",
      "case": "success",
      "end": 7.15,
      "endOffset": 112,
      "phones": [
        {
          "duration": 0.06,
          "phone": "k_B"
        },
        {
          "duration": 0.08,
          "phone": "aa_I"
        },
        {
          "duration": 0.09,
          "phone": "r_I"
        },
        {
          "duration": 0.07,
          "phone": "l_I"
        },
        {
          "duration": 0.13,
          "phone": "ay_I"
        },
        {
          "duration": 0.07,
          "phone": "l_E"
        }
      ],
      "start": 6.65,
      "startOffset": 105,
      "word": "CARLYLE"
    },
    {
      "alignedWord": "was",
      "case": "success",
      "end": 7.340000000000001,
      "endOffset": 116,
      "phones": [
        {
          "duration": 0.05,
          "phone": "w_B"
        },
        {
          "duration": 0.06,
          "phone": "ah_I"
        },
        {
          "duration": 0.08,
          "phone": "z_E"
        }
      ],
      "start": 7.15,
      "startOffset": 113,
      "word": "WAS"
    },
    {
      "alignedWord": "left",
      "case": "success",
      "end": 7.56,
      "endOffset": 121,
      "phones": [
        {
          "duration": 0.05,
          "phone": "l_B"
        },
        {
          "duration": 0.05,
          "phone": "eh_I"
        },
        {
          "duration": 0.07,
          "phone": "f_I"
        },
        {
          "duration": 0.05,
          "phone": "t_E"
        }
      ],
      "start": 7.34,
      "startOffset": 117,
      "word": "LEFT"
    },
    {
      "alignedWord": "alone",
      "case": "success",
      "end": 7.97,
      "endOffset": 127,
      "phones": [
        {
          "duration": 0.07,
          "phone": "ah_B"
        },
        {
          "duration": 0.09,
          "phone": "l_I"
        },
        {
          "duration": 0.13,
          "phone": "ow_I"
        },
        {
          "duration": 0.12,
          "phone": "n_E"
        }
      ],
      "start": 7.56,
      "startOffset": 122,
      "word": "ALONE"
    },
    {
      "alignedWord": "another",
      "case": "success",
      "end": 8.44,
      "endOffset": 135,
      "phones": [
        {
          "duration": 0.12,
          "phone": "ah_B"
        },
        {
          "duration": 0.1,
          "phone": "n_I"
        },
        {
          "duration": 0.05,
          "phone": "ah_I"
        },
        {
          "duration": 0.06,
          "phone": "dh_I"
        },
        {
          "duration": 0.08,
          "phone": "er_E"
        }
      ],
      "start": 8.03,
      "startOffset": 128,
      "word": "ANOTHER"
    },
    {
      "alignedWord": "clerk",
      "case": "success",
      "end": 8.74,
      "endOffset": 141,
      "phones": [
        {
          "duration": 0.09,
          "phone": "k_B"
        },
        {
          "duration": 0.07,
          "phone": "l_I"
        },
        {
          "duration": 0.07,
          "phone": "er_I"
        },
        {
          "duration": 0.07,
          "phone": "k_E"
        }
      ],
      "start": 8.44,
      "startOffset": 136,
      "word": "CLERK"
    },
    {
      "alignedWord": "entered",
      "case": "success",
      "end": 9.18,
      "endOffset": 149,
      "phones": [
        {
          "duration": 0.08,
          "phone": "eh_B"
        },
        {
          "duration": 0.07,
          "phone": "n_I"
        },
        {
          "duration": 0.06,
          "phone": "t_I"
        },
        {
          "duration": 0.07,
          "phone": "er_I"
        },
        {
          "duration": 0.15,
          "phone": "d_E"
        }
      ],
      "start": 8.75,
      "startOffset": 142,
      "word": "ENTERED"
    },
    {
      "alignedWord": "miss",
      "case": "success",
      "end": 9.959999,
      "endOffset": 154,
      "phones": [
        {
          "duration": 0.1,
          "phone": "m_B"
        },
        {
          "duration": 0.06,
          "phone": "ih_I"
        },
        {
          "duration": 0.08,
          "phone": "s_E"
        }
      ],
      "start": 9.719999,
      "startOffset": 150,
      "word": "MISS"
    },
    {
      "alignedWord": "carlyle",
      "case": "success",
      "end": 10.48,
      "endOffset": 162,
      "phones": [
        {
          "duration": 0.08,
          "phone": "k_B"
        },
        {
          "duration": 0.08,
          "phone": "aa_I"
        },
        {
          "duration": 0.08,
          "phone": "r_I"
        },
        {
          "duration": 0.07,
          "phone": "l_I"
        },
        {
          "duration": 0.14,
          "phone": "ay_I"
        },
        {
          "duration": 0.07,
          "phone": "l_E"
        }
      ],
      "start": 9.96,
      "startOffset": 155,
      "word": "CARLYLE"
    },
    {
      "alignedWord": "is",
      "case": "success",
      "end": 10.63,
      "endOffset": 165,
      "phones": [
        {
          "duration": 0.07,
          "phone": "ih_B"
        },
        {
          "duration": 0.08,
          "phone": "z_E"
        }
      ],
      "start": 10.48,
      "startOffset": 163,
      "word": "IS"
    },
    {
      "alignedWord": "asking",
      "case": "success",
      "end": 11.0,
      "endOffset": 172,
      "phones": [
        {
          "duration": 0.09,
          "phone": "ae_B"
        },
        {
          "duration": 0.08,
          "phone": "s_I"
        },
        {
          "duration": 0.06,
          "phone": "k_I"
        },
        {
          "duration": 0.06,
          "phone": "ih_I"
        },
        {
          "duration": 0.08,
          "phone": "ng_E"
        }
      ],
      "start": 10.63,
      "startOffset": 166,
      "word": "ASKING"
    },
    {
      "alignedWord": "to",
      "case": "success",
      "end": 11.1,
      "endOffset": 175,
      "phones": [
        {
          "duration": 0.04,
          "phone": "t_B"
        },
        {
          "duration": 0.06,
          "phone": "ih_E"
        }
      ],
      "start": 11.0,
      "startOffset": 173,
      "word": "TO"
    },
    {
      "alignedWord": "see",
      "case": "success",
      "end": 11.269999,
      "endOffset": 179,
      "phones": [
        {
          "duration": 0.09,
          "phone": "s_B"
        },
        {
          "duration": 0.08,
          "phone": "iy_E"
        }
      ],
      "start": 11.099999,
      "startOffset": 176,
      "word": "SEE"
    },
    {
      "alignedWord": "you",
      "case": "success",
      "end": 11.42,
      "endOffset": 183,
      "phones": [
        {
          "duration": 0.06,
          "phone": "y_B"
        },
        {
          "duration": 0.09,
          "phone": "uw_E"
        }
      ],
      "start": 11.27,
      "startOffset": 180,
      "word": "YOU"
    },
    {
      "alignedWord": "sir",
      "case": "success",
      "end": 11.79,
      "endOffset": 187,
      "phones": [
        {
          "duration": 0.15,
          "phone": "s_B"
        },
        {
          "duration": 0.22,
          "phone": "er_E"
        }
      ],
      "start": 11.42,
      "startOffset": 184,
      "word": "SIR"
    },
    {
      "alignedWord": "and",
      "case": "success",
      "end": 12.25,
      "endOffset": 191,
      "phones": [
        {
          "duration": 0.07,
          "phone": "ae_B"
        },
        {
          "duration": 0.04,
          "phone": "n_I"
        },
        {
          "duration": 0.06,
          "phone": "d_E"
        }
      ],
      "start": 12.08,
      "startOffset": 188,
      "word": "AND"
    },
    {
      "alignedWord": "colonel",
      "case": "success",
      "end": 12.64,
      "endOffset": 199,
      "phones": [
        {
          "duration": 0.12,
          "phone": "k_B"
        },
        {
          "duration": 0.08,
          "phone": "er_I"
        },
        {
          "duration": 0.05,
          "phone": "n_I"
        },
        {
          "duration": 0.07,
          "phone": "ah_I"
        },
        {
          "duration": 0.07,
          "phone": "l_E"
        }
      ],
      "start": 12.25,
      "startOffset": 192,
      "word": "COLONEL"
    },
    {
      "alignedWord": "<unk>",
      "case": "success",
      "end": 13.07,
      "endOffset": 208,
      "phones": [
        {
          "duration": 0.42,
          "phone": "oov_S"
        }
      ],
      "start": 12.65,
      "startOffset": 200,
      "word": "BETHEL'S"
    },
    {
      "alignedWord": "come",
      "case": "success",
      "end": 13.34,
      "endOffset": 213,
      "phones": [
        {
          "duration": 0.08,
          "phone": "k_B"
        },
        {
          "duration": 0.1,
          "phone": "ah_I"
        },
        {
          "duration": 0.05,
          "phone": "m_E"
        }
      ],
      "start": 13.11,
      "startOffset": 209,
      "word": "COME"
    },
    {
      "alignedWord": "again",
      "case": "success",
      "end": 13.8,
      "endOffset": 219,
      "phones": [
        {
          "duration": 0.06,
          "phone": "ah_B"
        },
        {
          "duration": 0.09,
          "phone": "g_I"
        },
        {
          "duration": 0.11,
          "phone": "eh_I"
        },
        {
          "duration": 0.2,
          "phone": "n_E"
        }
      ],
      "start": 13.34,
      "startOffset": 214,
      "word": "AGAIN"
    }
  ]
}