{
  "transcript": "PSYCHE ENCOURAGED BY THIS ADVICE OBEYED IT IN ALL THINGS AND TAKING HEED TO HER WAYS TRAVELLED SAFELY TO THE KINGDOM OF PLUTO SHE WAS ADMITTED TO THE PALACE OF PROSERPINE",
  "words": [
    {
      "alignedWord": "psyche",
      "case": "success",
      "end": 0.9099999999999999,
      "endOffset": 6,
      "phones": [
        {
          "duration": 0.16,
          "phone": "s_B"
        },
        {
          "duration": 0.12,
          "phone": "ay_I"
        },
        {
          "duration": 0.12,
          "phone": "k_I"
        },
        {
          "duration": 0.08,
          "phone": "iy_E"
        }
      ],
      "start": 0.43,
      "startOffset": 0,
      "word": "PSYCHE"
    },
    {
      "alignedWord": "encouraged",
      "case": "success",
      "end": 1.4700000000000002,
      "endOffset": 17,
      "phones": [
        {
          "duration": 0.07,
          "phone": "ih_B"
        },
        {
          "duration": 0.07,
          "phone": "n_I"
        },
        {
          "duration": 0.12,
          "phone": "k_I"
        },
        {
          "duration": 0.09,
          "phone": "er_I"
        },
        {
          "duration": 0.06,
          "phone": "ah_I"
        },
        {
          "duration": 0.08,
          "phone": "jh_I"
        },
        {
          "duration": 0.07,
          "phone": "d_E"
        }
      ],
      "start": 0.91,
      "startOffset": 7,
      "word": "ENCOURAGED"
    },
    {
      "alignedWord": "by",
      "case": "success",
      "end": 1.6199999999999999,
      "endOffset": 20,
      "phones": [
        {
          "duration": 0.08,
          "phone": "b_B"
        },
        {
          "duration": 0.07,
          "phone": "ay_E"
        }
      ],
      "start": 1.47,
      "startOffset": 18,
      "word": "BY"
    },
    {
      "alignedWord": "this",
      "case": "success",
      "end": 1.85,
      "endOffset": 25,
      "phones": [
        {
          "duration": 0.07,
          "phone": "dh_B"
        },
        {
          "duration": 0.07,
          "phone": "ih_I"
        },
        {
          "duration": 0.09,
          "phone": "s_E"
        }
      ],
      "start": 1.62,
      "startOffset": 21,
      "word": "THIS"
    },
    {
      "alignedWord": "advice",
      "case": "success",
      "end": 2.41,
      "endOffset": 32,
      "phones": [
        {
          "duration": 0.05,
          "phone": "ah_B"
        },
        {
          "duration": 0.04,
          "phone": "d_I"
        },
        {
          "duration": 0.13,
          "phone": "v_I"
        },
        {
          "duration": 0.19,
          "phone": "ay_I"
        },
        {
          "duration": 0.15,
          "phone": "s_E"
        }
      ],
      "start": 1.85,
      "startOffset": 26,
      "word": "ADVICE"
    },
    {
      "alignedWord": "obeyed",
      "case": "success",
      "end": 3.12,
      "endOffset": 39,
      "phones": [
        {
          "duration": 0.14,
          "phone": "ow_B"
        },
        {
          "duration": 0.1,
          "phone": "b_I"
        },
        {
          "duration": 0.12,
          "phone": "ey_I"
        },
        {
          "duration": 0.04,
          "phone": "d_E"
        }
      ],
      "start": 2.72,
      "startOffset": 33,
      "word": "OBEYED"
    },
    {
      "alignedWord": "it",
      "case": "success",
      "end": 3.2600000000000002,
      "endOffset": 42,
      "phones": [
        {
          "duration": 0.08,
          "phone": "ih_B"
        },
        {
          "duration": 0.06,
          "phone": "t_E"
        }
      ],
      "start": 3.12,
      "startOffset": 40,
      "word": "IT"
    },
    {
      "alignedWord": "in",
      "case": "success",
      "end": 3.45,
      "endOffset": 45,
      "phones": [
        {
          "duration": 0.09,
          "phone": "ih_B"
        },
        {
          "duration": 0.09,
          "phone": "n_E"
        }
      ],
      "start": 3.27,
      "startOffset": 43,
      "word": "IN"
    },
    {
      "alignedWord": "all",
      "case": "success",
      "end": 3.73,
      "endOffset": 49,
      "phones": [
        {
          "duration": 0.13,
          "phone": "ao_B"
        },
        {
          "duration": 0.12,
          "phone": "l_E"
        }
      ],
      "start": 3.48,
      "startOffset": 46,
      "word": "ALL"
    },
    {
      "alignedWord": "things",
      "case": "success",
      "end": 4.220000000000001,
      "endOffset": 56,
      "phones": [
        {
          "duration": 0.09,
          "phone": "th_B"
        },
        {
          "duration": 0.13,
          "phone": "ih_I"
        },
        {
          "duration": 0.14,
          "phone": "ng_I"
        },
        {
          "duration": 0.12,
          "phone": "z_E"
        }
      ],
      "start": 3.74,
      "startOffset": 50,
      "word": "THINGS"
    },
    {
      "alignedWord": "and",
      "case": "success",
      "end": 4.5600000000000005,
      "endOffset": 60,
      "phones": [
        {
          "duration": 0.14,
          "phone": "ae_B"
        },
        {
          "duration": 0.06,
          "phone": "n_I"
        },
        {
          "duration": 0.07,
          "phone": "d_E"
        }
      ],
      "start": 4.29,
      "startOffset": 57,
      "word": "AND"
    },
    {
      "alignedWord": "taking",
      "case": "success",
      "end": 4.97,
      "endOffset": 67,
      "phones": [
        {
          "duration": 0.07,
          "phone": "t_B"
        },
        {
          "duration": 0.12,
          "phone": "ey_I"
        },
        {
          "duration": 0.06,
          "phone": "k_I"
        },
        {
          "duration": 0.06,
          "phone": "ih_I"
        },
        {
          "duration": 0.1,
          "phone": "ng_E"
        }
      ],
      "start": 4.56,
      "startOffset": 61,
      "word": "TAKING"
    },
    {
      "alignedWord": "heed",
      "case": "success",
      "end": 5.32,
      "endOffset": 72,
      "phones": [
        {
          "duration": 0.16,
          "phone": "hh_B"
        },
        {
          "duration": 0.12,
          "phone": "iy_I"
        },
        {
          "duration": 0.06,
          "phone": "d_E"
        }
      ],
      "start": 4.98,
      "startOffset": 68,
      "word": "HEED"
    },
    {
      "alignedWord": "to",
      "case": "success",
      "end": 5.44,
      "endOffset": 75,
      "phones": [
        {
          "duration": 0.03,
          "phone": "t_B"
        },
        {
          "duration": 0.09,
          "phone": "ih_E"
        }
      ],
      "start": 5.32,
      "startOffset": 73,
      "word": "TO"
    },
    {
      "alignedWord": "her",
      "case": "success",
      "end": 5.640000000000001,
      "endOffset": 79,
      "phones": [
        {
          "duration": 0.1,
          "phone": "hh_B"
        },
        {
          "duration": 0.1,
          "phone": "er_E"
        }
      ],
      "start": 5.44,
      "startOffset": 76,
      "word": "HER"
    },
    {
      "alignedWord": "ways",
      "case": "success",
      "end": 6.14,
      "endOffset": 84,
      "phones": [
        {
          "duration": 0.16,
          "phone": "w_B"
        },
        {
          "duration": 0.18,
          "phone": "ey_I"
        },
        {
          "duration": 0.16,
          "phone": "z_E"
        }
      ],
      "start": 5.64,
      "startOffset": 80,
      "word": "WAYS"
    },
    {
      "alignedWord": "travelled",
      "case": "success",
      "end": 7.0200000000000005,
      "endOffset": 94,
      "phones": [
        {
          "duration": 0.09,
          "phone": "t_B"
        },
        {
          "duration": 0.09,
          "phone": "r_I"
        },
        {
          "duration": 0.11,
          "phone": "ae_I"
        },
        {
          "duration": 0.06,
          "phone": "v_I"
        },
        {
          "duration": 0.07,
          "phone": "ah_I"
        },
        {
          "duration": 0.09,
          "phone": "l_I"
        },
        {
          "duration": 0.07,
          "phone": "d_E"
        }
      ],
      "start": 6.44,
      "startOffset": 85,
      "word": "TRAVELLED"
    },
    {
      "alignedWord": "safely",
      "case": "success",
      "end": 7.47,
      "endOffset": 101,
      "phones": [
        {
          "duration": 0.12,
          "phone": "s_B"
        },
        {
          "duration": 0.1,
          "phone": "ey_I"
        },
        {
          "duration": 0.11,
          "phone": "f_I"
        },
        {
          "duration": 0.05,
          "phone": "l_I"
        },
        {
          "duration": 0.07,
          "phone": "iy_E"
        }
      ],
      "start": 7.02,
      "startOffset": 95,
      "word": "SAFELY"
    },
    {
      "alignedWord": "to",
      "case": "success",
      "end": 7.609999999999999,
      "endOffset": 104,
      "phones": [
        {
          "duration": 0.08,
          "phone": "t_B"
        },
        {
          "duration": 0.06,
          "phone": "uw_E"
        }
      ],
      "start": 7.47,
      "startOffset": 102,
      "word": "TO"
    },
    {
      "alignedWord": "the",
      "case": "success",
      "end": 7.73,
      "endOffset": 108,
      "phones": [
        {
          "duration": 0.05,
          "phone": "dh_B"
        },
        {
          "duration": 0.07,
          "phone": "ah_E"
        }
      ],
      "start": 7.61,
      "startOffset": 105,
      "word": "THE"
    },
    {
      "alignedWord": "kingdom",
      "case": "success",
      "end": 8.15,
      "endOffset": 116,
      "phones": [
        {
          "duration": 0.11,
          "phone": "k_B"
        },
        {
          "duration": 0.08,
          "phone": "ih_I"
        },
        {
          "duration": 0.07,
          "phone": "ng_I"
        },
        {
          "duration": 0.04,
          "phone": "d_I"
        },
        {
          "duration": 0.07,
          "phone": "ah_I"
        },
        {
          "duration": 0.05,
          "phone": "m_E"
        }
      ],
      "start": 7.73,
      "startOffset": 109,
      "word": "KINGDOM"
    },
    {
      "alignedWord": "of",
      "case": "success",
      "end": 8.3,
      "endOffset": 119,
      "phones": [
        {
          "duration": 0.06,
          "phone": "ah_B"
        },
        {
          "duration": 0.09,
          "phone": "v_E"
        }
      ],
      "start": 8.15,
      "startOffset": 117,
      "word": "OF"
    },
    {
      "alignedWord": "pluto",
      "case": "success",
      "end": 8.950000000000001,
      "endOffset": 125,
      "phones": [
        {
          "duration": 0.08,
          "phone": "p_B"
        },
        {
          "duration": 0.1,
          "phone": "l_I"
        },
        {
          "duration": 0.1,
          "phone": "uw_I"
        },
        {
          "duration": 0.11,
          "phone": "t_I"
        },
        {
          "duration": 0.24,
          "phone": "ow_E"
        }
      ],
      "start": 8.32,
      "startOffset": 120,
      "word": "PLUTO"
    },
    {
      "alignedWord": "she",
      "case": "success",
      "end": 9.450000000000001,
      "endOffset": 129,
      "phones": [
        {
          "duration": 0.15,
          "phone": "sh_B"
        },
        {
          "duration": 0.06,
          "phone": "iy_E"
        }
      ],
      "start": 9.24,
      "startOffset": 126,
      "word": "SHE"
    },
    {
      "alignedWord": "was",
      "case": "success",
      "end": 9.62,
      "endOffset": 133,
      "phones": [
        {
          "duration": 0.05,
          "phone": "w_B"
        },
        {
          "duration": 0.05,
          "phone": "ah_I"
        },
        {
          "duration": 0.07,
          "phone": "z_E"
        }
      ],
      "start": 9.45,
      "startOffset": 130,
      "word": "WAS"
    },
    {
      "alignedWord": "admitted",
      "case": "success",
      "end": 10.1,
      "endOffset": 142,
      "phones": [
        {
          "duration": 0.07,
          "phone": "ah_B"
        },
        {
          "duration": 0.07,
          "phone": "d_I"
        },
        {
          "duration": 0.08,
          "phone": "m_I"
        },
        {
          "duration": 0.08,
          "phone": "ih_I"
        },
        {
          "duration": 0.04,
          "phone": "t_I"
        },
        {
          "duration": 0.07,
          "phone": "ah_I"
        },
        {
          "duration": 0.07,
          "phone": "d_E"
        }
      ],
      "start": 9.62,
      "startOffset": 134,
      "word": "ADMITTED"
    },
    {
      "alignedWord": "to",
      "case": "success",
      "end": 10.199999,
      "endOffset": 145,
      "phones": [
        {
          "duration": 0.04,
          "phone": "t_B"
        },
        {
          "duration": 0.06,
          "phone": "ih_E"
        }
      ],
      "start": 10.099999,
      "startOffset": 143,
      "word": "TO"
    },
    {
      "alignedWord": "the",
      "case": "success",
      "end": 10.319999999999999,
      "endOffset": 149,
      "phones": [
        {
          "duration": 0.06,
          "phone": "dh_B"
        },
        {
          "duration": 0.06,
          "phone": "ah_E"
        }
      ],
      "start": 10.2,
      "startOffset": 146,
      "word": "THE"
    },
    {
      "alignedWord": "palace",
      "case": "success",
      "end": 10.72,
      "endOffset": 156,
      "phones": [
        {
          "duration": 0.09,
          "phone": "p_B"
        },
        {
          "duration": 0.11,
          "phone": "ae_I"
        },
        {
          "duration": 0.06,
          "phone": "l_I"
        },
        {
          "duration": 0.09,
          "phone": "ah_I"
        },
        {
          "duration": 0.05,
          "phone": "s_E"
        }
      ],
      "start": 10.32,
      "startOffset": 150,
      "word": "PALACE"
    },
    {
      "alignedWord": "of",
      "case": "success",
      "end": 10.879999,
      "endOffset": 159,
      "phones": [
        {
          "duration": 0.07,
          "phone": "ah_B"
        },
        {
          "duration": 0.09,
          "phone": "v_E"
        }
      ],
      "start": 10.719999,
      "startOffset": 157,
      "word": "OF"
    },
    {
      "alignedWord": "<unk>",
      "case": "success",
      "end": 11.689999,
      "endOffset": 170,
      "phones": [
        {
          "duration": 0.8,
          "phone": "oov_S"
        }
      ],
      "start": 10.889999,
      "startOffset": 160,
      "word": "PROSERPINE"
    }
  ]
}