{
  "transcript": "FOR IT WAS HIS PLEASURE FOR THE BEST OF REASONS TO KEEP CONCEALED WHY SHOULD YOU WISH TO BEHOLD ME HE SAID HAVE YOU ANY DOUBT OF MY LOVE HAVE YOU ANY WISH UNGRATIFIED IF YOU SAW ME PERHAPS YOU WOULD FEAR ME PERHAPS ADORE ME",
  "words": [
    {
      "alignedWord": "for",
      "case": "success",
      "end": 0.28,
      "endOffset": 3,
      "phones": [
        {
          "duration": 0.11,
          "phone": "f_B"
        },
        {
          "duration": 0.03,
          "phone": "er_E"
        }
      ],
      "start": 0.14,
      "startOffset": 0,
      "word": "FOR"
    },
    {
      "alignedWord": "it",
      "case": "success",
      "end": 0.35000000000000003,
      "endOffset": 6,
      "phones": [
        {
          "duration": 0.06,
          "phone": "ih_B"
        },
        {
          "duration": 0.01,
          "phone": "t_E"
        }
      ],
      "start": 0.28,
      "startOffset": 4,
      "word": "IT"
    },
    {
      "alignedWord": "was",
      "case": "success",
      "end": 0.5800000000000001,
      "endOffset": 10,
      "phones": [
        {
          "duration": 0.08,
          "phone": "w_B"
        },
        {
          "duration": 0.06,
          "phone": "ah_I"
        },
        {
          "duration": 0.05,
          "phone": "z_E"
        }
      ],
      "start": 0.39,
      "startOffset": 7,
      "word": "WAS"
    },
    {
      "alignedWord": "his",
      "case": "success",
      "end": 0.77,
      "endOffset": 14,
      "phones": [
        {
          "duration": 0.05,
          "phone": "hh_B"
        },
        {
          "duration": 0.05,
          "phone": "ih_I"
        },
        {
          "duration": 0.09,
          "phone": "z_E"
        }
      ],
      "start": 0.58,
      "startOffset": 11,
      "word": "HIS"
    },
    {
      "alignedWord": "pleasure",
      "case": "success",
      "end": 1.31,
      "endOffset": 23,
      "phones": [
        {
          "duration": 0.08,
          "phone": "p_B"
        },
        {
          "duration": 0.09,
          "phone": "l_I"
        },
        {
          "duration": 0.1,
          "phone": "eh_I"
        },
        {
          "duration": 0.15,
          "phone": "zh_I"
        },
        {
          "duration": 0.12,
          "phone": "er_E"
        }
      ],
      "start": 0.77,
      "startOffset": 15,
      "word": "PLEASURE"
    },
    {
      "alignedWord": "for",
      "case": "success",
      "end": 1.48,
      "endOffset": 27,
      "phones": [
        {
          "duration": 0.05,
          "phone": "f_B"
        },
        {
          "duration": 0.05,
          "phone": "ao_I"
        },
        {
          "duration": 0.07,
          "phone": "r_E"
        }
      ],
      "start": 1.31,
      "startOffset": 24,
      "word": "FOR"
    },
    {
      "alignedWord": "the",
      "case": "success",
      "end": 1.59,
      "endOffset": 31,
      "phones": [
        {
          "duration": 0.05,
          "phone": "dh_B"
        },
        {
          "duration": 0.06,
          "phone": "ah_E"
        }
      ],
      "start": 1.48,
      "startOffset": 28,
      "word": "THE"
    },
    {
      "alignedWord": "best",
      "case": "success",
      "end": 1.9000000000000001,
      "endOffset": 36,
      "phones": [
        {
          "duration": 0.09,
          "phone": "b_B"
        },
        {
          "duration": 0.1,
          "phone": "eh_I"
        },
        {
          "duration": 0.07,
          "phone": "s_I"
        },
        {
          "duration": 0.05,
          "phone": "t_E"
        }
      ],
      "start": 1.59,
      "startOffset": 32,
      "word": "BEST"
    },
    {
      "alignedWord": "of",
      "case": "success",
      "end": 2.05,
      "endOffset": 39,
      "phones": [
        {
          "duration": 0.06,
          "phone": "ah_B"
        },
        {
          "duration": 0.09,
          "phone": "v_E"
        }
      ],
      "start": 1.9,
      "startOffset": 37,
      "word": "OF"
    },
    {
      "alignedWord": "reasons",
      "case": "success",
      "end": 2.54,
      "endOffset": 47,
      "phones": [
        {
          "duration": 0.08,
          "phone": "r_B"
        },
        {
          "duration": 0.1,
          "phone": "iy_I"
        },
        {
          "duration": 0.06,
          "phone": "z_I"
        },
        {
          "duration": 0.06,
          "phone": "ah_I"
        },
        {
          "duration": 0.09,
          "phone": "n_I"
        },
        {
          "duration": 0.1,
          "phone": "z_E"
        }
      ],
      "start": 2.05,
      "startOffset": 40,
      "word": "REASONS"
    },
    {
      "alignedWord": "to",
      "case": "success",
      "end": 2.67,
      "endOffset": 50,
      "phones": [
        {
          "duration": 0.06,
          "phone": "t_B"
        },
        {
          "duration": 0.07,
          "phone": "ah_E"
        }
      ],
      "start": 2.54,
      "startOffset": 48,
      "word": "TO"
    },
    {
      "alignedWord": "keep",
      "case": "success",
      "end": 2.91,
      "endOffset": 55,
      "phones": [
        {
          "duration": 0.1,
          "phone": "k_B"
        },
        {
          "duration": 0.07,
          "phone": "iy_I"
        },
        {
          "duration": 0.07,
          "phone": "p_E"
        }
      ],
      "start": 2.67,
      "startOffset": 51,
      "word": "KEEP"
    },
    {
      "alignedWord": "concealed",
      "case": "success",
      "end": 3.54,
      "endOffset": 65,
      "phones": [
        {
          "duration": 0.04,
          "phone": "k_B"
        },
        {
          "duration": 0.06,
          "phone": "ah_I"
        },
        {
          "duration": 0.07,
          "phone": "n_I"
        },
        {
          "duration": 0.11,
          "phone": "s_I"
        },
        {
          "duration": 0.16,
          "phone": "iy_I"
        },
        {
          "duration": 0.1,
          "phone": "l_I"
        },
        {
          "duration": 0.09,
          "phone": "d_E"
        }
      ],
      "start": 2.91,
      "startOffset": 56,
      "word": "CONCEALED"
    },
    {
      "alignedWord": "why",
      "case": "success",
      "end": 4.3,
      "endOffset": 69,
      "phones": [
        {
          "duration": 0.05,
          "phone": "hh_B"
        },
        {
          "duration": 0.1,
          "phone": "w_I"
        },
        {
          "duration": 0.1,
          "phone": "ay_E"
        }
      ],
      "start": 4.05,
      "startOffset": 66,
      "word": "WHY"
    },
    {
      "alignedWord": "should",
      "case": "success",
      "end": 4.52,
      "endOffset": 76,
      "phones": [
        {
          "duration": 0.09,
          "phone": "sh_B"
        },
        {
          "duration": 0.07,
          "phone": "uh_I"
        },
        {
          "duration": 0.06,
          "phone": "d_E"
        }
      ],
      "start": 4.3,
      "startOffset": 70,
      "word": "SHOULD"
    },
    {
      "alignedWord": "you",
      "case": "success",
      "end": 4.659999999999999,
      "endOffset": 80,
      "phones": [
        {
          "duration": 0.05,
          "phone": "y_B"
        },
        {
          "duration": 0.09,
          "phone": "uw_E"
        }
      ],
      "start": 4.52,
      "startOffset": 77,
      "word": "YOU"
    },
    {
      "alignedWord": "wish",
      "case": "success",
      "end": 4.94,
      "endOffset": 85,
      "phones": [
        {
          "duration": 0.09,
          "phone": "w_B"
        },
        {
          "duration": 0.1,
          "phone": "ih_I"
        },
        {
          "duration": 0.09,
          "phone": "sh_E"
        }
      ],
      "start": 4.66,
      "startOffset": 81,
      "word": "WISH"
    },
    {
      "alignedWord": "to",
      "case": "success",
      "end": 5.0600000000000005,
      "endOffset": 88,
      "phones": [
        {
          "duration": 0.06,
          "phone": "t_B"
        },
        {
          "duration": 0.06,
          "phone": "ah_E"
        }
      ],
      "start": 4.94,
      "startOffset": 86,
      "word": "TO"
    },
    {
      "alignedWord": "behold",
      "case": "success",
      "end": 5.55,
      "endOffset": 95,
      "phones": [
        {
          "duration": 0.06,
          "phone": "b_B"
        },
        {
          "duration": 0.09,
          "phone": "ih_I"
        },
        {
          "duration": 0.08,
          "phone": "hh_I"
        },
        {
          "duration": 0.1,
          "phone": "ow_I"
        },
        {
          "duration": 0.08,
          "phone": "l_I"
        },
        {
          "duration": 0.08,
          "phone": "d_E"
        }
      ],
      "start": 5.06,
      "startOffset": 89,
      "word": "BEHOLD"
    },
    {
      "alignedWord": "me",
      "case": "success",
      "end": 5.74,
      "endOffset": 98,
      "phones": [
        {
          "duration": 0.08,
          "phone": "m_B"
        },
        {
          "duration": 0.11,
          "phone": "iy_E"
        }
      ],
      "start": 5.55,
      "startOffset": 96,
      "word": "ME"
    },
    {
      "alignedWord": "he",
      "case": "success",
      "end": 5.8500000000000005,
      "endOffset": 101,
      "phones": [
        {
          "duration": 0.01,
          "phone": "hh_B"
        },
        {
          "duration": 0.1,
          "phone": "iy_E"
        }
      ],
      "start": 5.74,
      "startOffset": 99,
      "word": "HE"
    },
    {
      "alignedWord": "said",
      "case": "success",
      "end": 6.239999999999999,
      "endOffset": 106,
      "phones": [
        {
          "duration": 0.09,
          "phone": "s_B"
        },
        {
          "duration": 0.17,
          "phone": "eh_I"
        },
        {
          "duration": 0.13,
          "phone": "d_E"
        }
      ],
      "start": 5.85,
      "startOffset": 102,
      "word": "SAID"
    },
    {
      "alignedWord": "have",
      "case": "success",
      "end": 6.6899999999999995,
      "endOffset": 111,
      "phones": [
        {
          "duration": 0.09,
          "phone": "hh_B"
        },
        {
          "duration": 0.05,
          "phone": "ae_I"
        },
        {
          "duration": 0.04,
          "phone": "v_E"
        }
      ],
      "start": 6.51,
      "startOffset": 107,
      "word": "HAVE"
    },
    {
      "alignedWord": "you",
      "case": "success",
      "end": 6.840000000000001,
      "endOffset": 115,
      "phones": [
        {
          "duration": 0.06,
          "phone": "y_B"
        },
        {
          "duration": 0.09,
          "phone": "uw_E"
        }
      ],
      "start": 6.69,
      "startOffset": 112,
      "word": "YOU"
    },
    {
      "alignedWord": "any",
      "case": "success",
      "end": 7.08,
      "endOffset": 119,
      "phones": [
        {
          "duration": 0.07,
          "phone": "eh_B"
        },
        {
          "duration": 0.08,
          "phone": "n_I"
        },
        {
          "duration": 0.09,
          "phone": "iy_E"
        }
      ],
      "start": 6.84,
      "startOffset": 116,
      "word": "ANY"
    },
    {
      "alignedWord": "doubt",
      "case": "success",
      "end": 7.41,
      "endOffset": 125,
      "phones": [
        {
          "duration": 0.1,
          "phone": "d_B"
        },
        {
          "duration": 0.14,
          "phone": "aw_I"
        },
        {
          "duration": 0.09,
          "phone": "t_E"
        }
      ],
      "start": 7.08,
      "startOffset": 120,
      "word": "DOUBT"
    },
    {
      "alignedWord": "of",
      "case": "success",
      "end": 7.58,
      "endOffset": 128,
      "phones": [
        {
          "duration": 0.07,
          "phone": "ah_B"
        },
        {
          "duration": 0.09,
          "phone": "v_E"
        }
      ],
      "start": 7.42,
      "startOffset": 126,
      "word": "OF"
    },
    {
      "alignedWord": "my",
      "case": "success",
      "end": 7.75,
      "endOffset": 131,
      "phones": [
        {
          "duration": 0.06,
          "phone": "m_B"
        },
        {
          "duration": 0.11,
          "phone": "ay_E"
        }
      ],
      "start": 7.58,
      "startOffset": 129,
      "word": "MY"
    },
    {
      "alignedWord": "love",
      "case": "success",
      "end": 8.18,
      "endOffset": 136,
      "phones": [
        {
          "duration": 0.16,
          "phone": "l_B"
        },
        {
          "duration": 0.11,
          "phone": "ah_I"
        },
        {
          "duration": 0.16,
          "phone": "v_E"
        }
      ],
      "start": 7.75,
      "startOffset": 132,
      "word": "LOVE"
    },
    {
      "alignedWord": "have",
      "case": "success",
      "end": 8.680000000000001,
      "endOffset": 141,
      "phones": [
        {
          "duration": 0.1,
          "phone": "hh_B"
        },
        {
          "duration": 0.06,
          "phone": "ae_I"
        },
        {
          "duration": 0.05,
          "phone": "v_E"
        }
      ],
      "start": 8.47,
      "startOffset": 137,
      "word": "HAVE"
    },
    {
      "alignedWord": "you",
      "case": "success",
      "end": 8.819999000000001,
      "endOffset": 145,
      "phones": [
        {
          "duration": 0.07,
          "phone": "y_B"
        },
        {
          "duration": 0.07,
          "phone": "uw_E"
        }
      ],
      "start": 8.679999,
      "startOffset": 142,
      "word": "YOU"
    },
    {
      "alignedWord": "any",
      "case": "success",
      "end": 9.02,
      "endOffset": 149,
      "phones": [
        {
          "duration": 0.05,
          "phone": "eh_B"
        },
        {
          "duration": 0.07,
          "phone": "n_I"
        },
        {
          "duration": 0.08,
          "phone": "iy_E"
        }
      ],
      "start": 8.82,
      "startOffset": 146,
      "word": "ANY"
    },
    {
      "alignedWord": "wish",
      "case": "success",
      "end": 9.35,
      "endOffset": 154,
      "phones": [
        {
          "duration": 0.11,
          "phone": "w_B"
        },
        {
          "duration": 0.13,
          "phone": "ih_I"
        },
        {
          "duration": 0.09,
          "phone": "sh_E"
        }
      ],
      "start": 9.02,
      "startOffset": 150,
      "word": "WISH"
    },
    {
      "alignedWord": "<unk>",
      "case": "success",
      "end": 10.269999,
      "endOffset": 166,
      "phones": [
        {
          "duration": 0.92,
          "phone": "oov_S"
        }
      ],
      "start": 9.349999,
      "startOffset": 155,
      "word": "UNGRATIFIED"
    },
    {
      "alignedWord": "if",
      "case": "success",
      "end": 10.77,
      "endOffset": 169,
      "phones": [
        {
          "duration": 0.12,
          "phone": "ih_B"
        },
        {
          "duration": 0.07,
          "phone": "f_E"
        }
      ],
      "start": 10.58,
      "startOffset": 167,
      "word": "IF"
    },
    {
      "alignedWord": "you",
      "case": "success",
      "end": 10.93,
      "endOffset": 173,
      "phones": [
        {
          "duration": 0.07,
          "phone": "y_B"
        },
        {
          "duration": 0.09,
          "phone": "uw_E"
        }
      ],
      "start": 10.77,
      "startOffset": 170,
      "word": "YOU"
    },
    {
      "alignedWord": "saw",
      "case": "success",
      "end": 11.189999,
      "endOffset": 177,
      "phones": [
        {
          "duration": 0.13,
          "phone": "s_B"
        },
        {
          "duration": 0.13,
          "phone": "ao_E"
        }
      ],
      "start": 10.929999,
      "startOffset": 174,
      "word": "SAW"
    },
    {
      "alignedWord": "me",
      "case": "success",
      "end": 11.42,
      "endOffset": 180,
      "phones": [
        {
          "duration": 0.12,
          "phone": "m_B"
        },
        {
          "duration": 0.11,
          "phone": "iy_E"
        }
      ],
      "start": 11.19,
      "startOffset": 178,
      "word": "ME"
    },
    {
      "alignedWord": "perhaps",
      "case": "success",
      "end": 11.91,
      "endOffset": 188,
      "phones": [
        {
          "duration": 0.06,
          "phone": "p_B"
        },
        {
          "duration": 0.07,
          "phone": "er_I"
        },
        {
          "duration": 0.07,
          "phone": "hh_I"
        },
        {
          "duration": 0.11,
          "phone": "ae_I"
        },
        {
          "duration": 0.09,
          "phone": "p_I"
        },
        {
          "duration": 0.07,
          "phone": "s_E"
        }
      ],
      "start": 11.44,
      "startOffset": 181,
      "word": "PERHAPS"
    },
    {
      "alignedWord": "you",
      "case": "success",
      "end": 12.0,
      "endOffset": 192,
      "phones": [
        {
          "duration": 0.06,
          "phone": "y_B"
        },
        {
          "duration": 0.03,
          "phone": "uw_E"
        }
      ],
      "start": 11.91,
      "startOffset": 189,
      "word": "YOU"
    },
    {
      "alignedWord": "would",
      "case": "success",
      "end": 12.21,
      "endOffset": 198,
      "phones": [
        {
          "duration": 0.07,
          "phone": "w_B"
        },
        {
          "duration": 0.05,
          "phone": "uh_I"
        },
        {
          "duration": 0.09,
          "phone": "d_E"
        }
      ],
      "start": 12.0,
      "startOffset": 193,
      "word": "WOULD"
    },
    {
      "alignedWord": "fear",
      "case": "success",
      "end": 12.520000000000001,
      "endOffset": 203,
      "phones": [
        {
          "duration": 0.08,
          "phone": "f_B"
        },
        {
          "duration": 0.13,
          "phone": "ih_I"
        },
        {
          "duration": 0.1,
          "phone": "r_E"
        }
      ],
      "start": 12.21,
      "startOffset": 199,
      "word": "FEAR"
    },
    {
      "alignedWord": "me",
      "case": "success",
      "end": 12.82,
      "endOffset": 206,
      "phones": [
        {
          "duration": 0.09,
          "phone": "m_B"
        },
        {
          "duration": 0.21,
          "phone": "iy_E"
        }
      ],
      "start": 12.52,
      "startOffset": 204,
      "word": "ME"
    },
    {
      "alignedWord": "perhaps",
      "case": "success",
      "end": 13.450000000000001,
      "endOffset": 214,
      "phones": [
        {
          "duration": 0.08,
          "phone": "p_B"
        },
        {
          "duration": 0.08,
          "phone": "er_I"
        },
        {
          "duration": 0.05,
          "phone": "hh_I"
        },
        {
          "duration": 0.09,
          "phone": "ae_I"
        },
        {
          "duration": 0.09,
          "phone": "p_I"
        },
        {
          "duration": 0.07,
          "phone": "s_E"
        }
      ],
      "start": 12.99,
      "startOffset": 207,
      "word": "PERHAPS"
    },
    {
      "alignedWord": "adore",
      "case": "success",
      "end": 13.86,
      "endOffset": 220,
      "phones": [
        {
          "duration": 0.07,
          "phone": "ah_B"
        },
        {
          "duration": 0.09,
          "phone": "d_I"
        },
        {
          "duration": 0.15,
          "phone": "ao_I"
        },
        {
          "duration": 0.1,
          "phone": "r_E"
        }
      ],
      "start": 13.45,
      "startOffset": 215,
      "word": "ADORE"
    },
    {
      "alignedWord": "me",
      "case": "success",
      "end": 14.12,
      "endOffset": 223,
      "phones": [
        {
          "duration": 0.09,
          "phone": "m_B"
        },
        {
          "duration": 0.17,
          "phone": "iy_E"
        }
      ],
      "start": 13.86,
      "startOffset": 221,
      "word": "ME"
    }
  ]
}