{
  "transcript": "PERHAPS OF ALL TRADES IT IS THE ONE IN WHICH AN ACCURATE KNOWLEDGE OF WHAT THINGS SHOULD BE DONE AND THE BEST MANNER OF DOING THEM IS MOST NECESSARY AND IT IS ONE ALSO FOR SUCCESS IN WHICH A SUFFICIENT CAPITAL IS INDISPENSABLE",
  "words": [
    {
      "alignedWord": "perhaps",
      "case": "success",
      "end": 0.96,
      "endOffset": 7,
      "phones": [
        {
          "duration": 0.08,
          "phone": "p_B"
        },
        {
          "duration": 0.07,
          "phone": "er_I"
        },
        {
          "duration": 0.03,
          "phone": "hh_I"
        },
        {
          "duration": 0.11,
          "phone": "ae_I"
        },
        {
          "duration": 0.09,
          "phone": "p_I"
        },
        {
          "duration": 0.07,
          "phone": "s_E"
        }
      ],
      "start": 0.51,
      "startOffset": 0,
      "word": "PERHAPS"
    },
    {
      "alignedWord": "of",
      "case": "success",
      "end": 1.14,
      "endOffset": 10,
      "phones": [
        {
          "duration": 0.08,
          "phone": "ah_B"
        },
        {
          "duration": 0.08,
          "phone": "v_E"
        }
      ],
      "start": 0.98,
      "startOffset": 8,
      "word": "OF"
    },
    {
      "alignedWord": "all",
      "case": "success",
      "end": 1.41,
      "endOffset": 14,
      "phones": [
        {
          "duration": 0.15,
          "phone": "ao_B"
        },
        {
          "duration": 0.12,
          "phone": "l_E"
        }
      ],
      "start": 1.14,
      "startOffset": 11,
      "word": "ALL"
    },
    {
      "alignedWord": "trades",
      "case": "success",
      "end": 1.88,
      "endOffset": 21,
      "phones": [
        {
          "duration": 0.11,
          "phone": "t_B"
        },
        {
          "duration": 0.12,
          "phone": "r_I"
        },
        {
          "duration": 0.12,
          "phone": "ey_I"
        },
        {
          "duration": 0.06,
          "phone": "d_I"
        },
        {
          "duration": 0.06,
          "phone": "z_E"
        }
      ],
      "start": 1.41,
      "startOffset": 15,
      "word": "TRADES"
    },
    {
      "alignedWord": "it",
      "case": "success",
      "end": 2.01,
      "endOffset": 24,
      "phones": [
        {
          "duration": 0.05,
          "phone": "ih_B"
        },
        {
          "duration": 0.06,
          "phone": "t_E"
        }
      ],
      "start": 1.9,
      "startOffset": 22,
      "word": "IT"
    },
    {
      "alignedWord": "is",
      "case": "success",
      "end": 2.1599999999999997,
      "endOffset": 27,
      "phones": [
        {
          "duration": 0.07,
          "phone": "ih_B"
        },
        {
          "duration": 0.08,
          "phone": "z_E"
        }
      ],
      "start": 2.01,
      "startOffset": 25,
      "word": "IS"
    },
    {
      "alignedWord": "the",
      "case": "success",
      "end": 2.2800000000000002,
      "endOffset": 31,
      "phones": [
        {
          "duration": 0.05,
          "phone": "dh_B"
        },
        {
          "duration": 0.07,
          "phone": "ah_E"
        }
      ],
      "start": 2.16,
      "startOffset": 28,
      "word": "THE"
    },
    {
      "alignedWord": "one",
      "case": "success",
      "end": 2.5199999999999996,
      "endOffset": 35,
      "phones": [
        {
          "duration": 0.11,
          "phone": "w_B"
        },
        {
          "duration": 0.1,
          "phone": "ah_I"
        },
        {
          "duration": 0.03,
          "phone": "n_E"
        }
      ],
      "start": 2.28,
      "startOffset": 32,
      "word": "ONE"
    },
    {
      "alignedWord": "in",
      "case": "success",
      "end": 2.68,
      "endOffset": 38,
      "phones": [
        {
          "duration": 0.07,
          "phone": "ih_B"
        },
        {
          "duration": 0.09,
          "phone": "n_E"
        }
      ],
      "start": 2.52,
      "startOffset": 36,
      "word": "IN"
    },
    {
      "alignedWord": "which",
      "case": "success",
      "end": 2.87,
      "endOffset": 44,
      "phones": [
        {
          "duration": 0.06,
          "phone": "w_B"
        },
        {
          "duration": 0.06,
          "phone": "ih_I"
        },
        {
          "duration": 0.07,
          "phone": "ch_E"
        }
      ],
      "start": 2.68,
      "startOffset": 39,
      "word": "WHICH"
    },
    {
      "alignedWord": "an",
      "case": "success",
      "end": 3.0300000000000002,
      "endOffset": 47,
      "phones": [
        {
          "duration": 0.06,
          "phone": "ah_B"
        },
        {
          "duration": 0.1,
          "phone": "n_E"
        }
      ],
      "start": 2.87,
      "startOffset": 45,
      "word": "AN"
    },
    {
      "alignedWord": "accurate",
      "case": "success",
      "end": 3.62,
      "endOffset": 56,
      "phones": [
        {
          "duration": 0.15,
          "phone": "ae_B"
        },
        {
          "duration": 0.1,
          "phone": "k_I"
        },
        {
          "duration": 0.06,
          "phone": "y_I"
        },
        {
          "duration": 0.11,
          "phone": "er_I"
        },
        {
          "duration": 0.08,
          "phone": "ah_I"
        },
        {
          "duration": 0.08,
          "phone": "t_E"
        }
      ],
      "start": 3.04,
      "startOffset": 48,
      "word": "ACCURATE"
    },
    {
      "alignedWord": "knowledge",
      "case": "success",
      "end": 4.11,
      "endOffset": 66,
      "phones": [
        {
          "duration": 0.07,
          "phone": "n_B"
        },
        {
          "duration": 0.15,
          "phone": "aa_I"
        },
        {
          "duration": 0.1,
          "phone": "l_I"
        },
        {
          "duration": 0.1,
          "phone": "ih_I"
        },
        {
          "duration": 0.07,
          "phone": "jh_E"
        }
      ],
      "start": 3.62,
      "startOffset": 57,
      "word": "KNOWLEDGE"
    },
    {
      "alignedWord": "of",
      "case": "success",
      "end": 4.260000000000001,
      "endOffset": 69,
      "phones": [
        {
          "duration": 0.06,
          "phone": "ah_B"
        },
        {
          "duration": 0.09,
          "phone": "v_E"
        }
      ],
      "start": 4.11,
      "startOffset": 67,
      "word": "OF"
    },
    {
      "alignedWord": "what",
      "case": "success",
      "end": 4.4799999999999995,
      "endOffset": 74,
      "phones": [
        {
          "duration": 0.07,
          "phone": "w_B"
        },
        {
          "duration": 0.06,
          "phone": "ah_I"
        },
        {
          "duration": 0.09,
          "phone": "t_E"
        }
      ],
      "start": 4.26,
      "startOffset": 70,
      "word": "WHAT"
    },
    {
      "alignedWord": "things",
      "case": "success",
      "end": 4.79,
      "endOffset": 81,
      "phones": [
        {
          "duration": 0.08,
          "phone": "th_B"
        },
        {
          "duration": 0.06,
          "phone": "ih_I"
        },
        {
          "duration": 0.09,
          "phone": "ng_I"
        },
        {
          "duration": 0.07,
          "phone": "z_E"
        }
      ],
      "start": 4.49,
      "startOffset": 75,
      "word": "THINGS"
    },
    {
      "alignedWord": "should",
      "case": "success",
      "end": 4.99,
      "endOffset": 88,
      "phones": [
        {
          "duration": 0.07,
          "phone": "sh_B"
        },
        {
          "duration": 0.07,
          "phone": "uh_I"
        },
        {
          "duration": 0.06,
          "phone": "d_E"
        }
      ],
      "start": 4.79,
      "startOffset": 82,
      "word": "SHOULD"
    },
    {
      "alignedWord": "be",
      "case": "success",
      "end": 5.14,
      "endOffset": 91,
      "phones": [
        {
          "duration": 0.07,
          "phone": "b_B"
        },
        {
          "duration": 0.07,
          "phone": "iy_E"
        }
      ],
      "start": 5.0,
      "startOffset": 89,
      "word": "BE"
    },
    {
      "alignedWord": "done",
      "case": "success",
      "end": 5.569999999999999,
      "endOffset": 96,
      "phones": [
        {
          "duration": 0.1,
          "phone": "d_B"
        },
        {
          "duration": 0.14,
          "phone": "ah_I"
        },
        {
          "duration": 0.19,
          "phone": "n_E"
        }
      ],
      "start": 5.14,
      "startOffset": 92,
      "word": "DONE"
    },
    {
      "alignedWord": "and",
      "case": "success",
      "end": 5.96,
      "endOffset": 100,
      "phones": [
        {
          "duration": 0.07,
          "phone": "ae_B"
        },
        {
          "duration": 0.04,
          "phone": "n_I"
        },
        {
          "duration": 0.05,
          "phone": "d_E"
        }
      ],
      "start": 5.8,
      "startOffset": 97,
      "word": "AND"
    },
    {
      "alignedWord": "the",
      "case": "success",
      "end": 6.03,
      "endOffset": 104,
      "phones": [
        {
          "duration": 0.01,
          "phone": "dh_B"
        },
        {
          "duration": 0.06,
          "phone": "ah_E"
        }
      ],
      "start": 5.96,
      "startOffset": 101,
      "word": "THE"
    },
    {
      "alignedWord": "best",
      "case": "success",
      "end": 6.41,
      "endOffset": 109,
      "phones": [
        {
          "duration": 0.08,
          "phone": "b_B"
        },
        {
          "duration": 0.1,
          "phone": "eh_I"
        },
        {
          "duration": 0.1,
          "phone": "s_I"
        },
        {
          "duration": 0.1,
          "phone": "t_E"
        }
      ],
      "start": 6.03,
      "startOffset": 105,
      "word": "BEST"
    },
    {
      "alignedWord": "manner",
      "case": "success",
      "end": 6.7,
      "endOffset": 116,
      "phones": [
        {
          "duration": 0.04,
          "phone": "m_B"
        },
        {
          "duration": 0.09,
          "phone": "ae_I"
        },
        {
          "duration": 0.08,
          "phone": "n_I"
        },
        {
          "duration": 0.08,
          "phone": "er_E"
        }
      ],
      "start": 6.41,
      "startOffset": 110,
      "word": "MANNER"
    },
    {
      "alignedWord": "of",
      "case": "success",
      "end": 6.8500000000000005,
      "endOffset": 119,
      "phones": [
        {
          "duration": 0.06,
          "phone": "ah_B"
        },
        {
          "duration": 0.09,
          "phone": "v_E"
        }
      ],
      "start": 6.7,
      "startOffset": 117,
      "word": "OF"
    },
    {
      "alignedWord": "doing",
      "case": "success",
      "end": 7.159999999999999,
      "endOffset": 125,
      "phones": [
        {
          "duration": 0.06,
          "phone": "d_B"
        },
        {
          "duration": 0.08,
          "phone": "uw_I"
        },
        {
          "duration": 0.09,
          "phone": "ih_I"
        },
        {
          "duration": 0.08,
          "phone": "ng_E"
        }
      ],
      "start": 6.85,
      "startOffset": 120,
      "word": "DOING"
    },
    {
      "alignedWord": "them",
      "case": "success",
      "end": 7.37,
      "endOffset": 130,
      "phones": [
        {
          "duration": 0.03,
          "phone": "dh_B"
        },
        {
          "duration": 0.08,
          "phone": "eh_I"
        },
        {
          "duration": 0.1,
          "phone": "m_E"
        }
      ],
      "start": 7.16,
      "startOffset": 126,
      "word": "THEM"
    },
    {
      "alignedWord": "is",
      "case": "success",
      "end": 7.59,
      "endOffset": 133,
      "phones": [
        {
          "duration": 0.12,
          "phone": "ih_B"
        },
        {
          "duration": 0.08,
          "phone": "z_E"
        }
      ],
      "start": 7.39,
      "startOffset": 131,
      "word": "IS"
    },
    {
      "alignedWord": "most",
      "case": "success",
      "end": 8.02,
      "endOffset": 138,
      "phones": [
        {
          "duration": 0.09,
          "phone": "m_B"
        },
        {
          "duration": 0.11,
          "phone": "ow_I"
        },
        {
          "duration": 0.1,
          "phone": "s_I"
        },
        {
          "duration": 0.13,
          "phone": "t_E"
        }
      ],
      "start": 7.59,
      "startOffset": 134,
      "word": "MOST"
    },
    {
      "alignedWord": "necessary",
      "case": "success",
      "end": 8.879999999999999,
      "endOffset": 148,
      "phones": [
        {
          "duration": 0.1,
          "phone": "n_B"
        },
        {
          "duration": 0.09,
          "phone": "eh_I"
        },
        {
          "duration": 0.1,
          "phone": "s_I"
        },
        {
          "duration": 0.08,
          "phone": "ah_I"
        },
        {
          "duration": 0.11,
          "phone": "s_I"
        },
        {
          "duration": 0.1,
          "phone": "eh_I"
        },
        {
          "duration": 0.11,
          "phone": "r_I"
        },
        {
          "duration": 0.16,
          "phone": "iy_E"
        }
      ],
      "start": 8.03,
      "startOffset": 139,
      "word": "NECESSARY"
    },
    {
      "alignedWord": "and",
      "case": "success",
      "end": 10.139999999999999,
      "endOffset": 152,
      "phones": [
        {
          "duration": 0.09,
          "phone": "ae_B"
        },
        {
          "duration": 0.05,
          "phone": "n_I"
        },
        {
          "duration": 0.05,
          "phone": "d_E"
        }
      ],
      "start": 9.95,
      "startOffset": 149,
      "word": "AND"
    },
    {
      "alignedWord": "it",
      "case": "success",
      "end": 10.239999,
      "endOffset": 155,
      "phones": [
        {
          "duration": 0.05,
          "phone": "ih_B"
        },
        {
          "duration": 0.05,
          "phone": "t_E"
        }
      ],
      "start": 10.139999,
      "startOffset": 153,
      "word": "IT"
    },
    {
      "alignedWord": "is",
      "case": "success",
      "end": 10.4,
      "endOffset": 158,
      "phones": [
        {
          "duration": 0.08,
          "phone": "ih_B"
        },
        {
          "duration": 0.08,
          "phone": "z_E"
        }
      ],
      "start": 10.24,
      "startOffset": 156,
      "word": "IS"
    },
    {
      "alignedWord": "one",
      "case": "success",
      "end": 10.67,
      "endOffset": 162,
      "phones": [
        {
          "duration": 0.08,
          "phone": "w_B"
        },
        {
          "duration": 0.09,
          "phone": "ah_I"
        },
        {
          "duration": 0.1,
          "phone": "n_E"
        }
      ],
      "start": 10.4,
      "startOffset": 159,
      "word": "ONE"
    },
    {
      "alignedWord": "also",
      "case": "success",
      "end": 11.079999,
      "endOffset": 167,
      "phones": [
        {
          "duration": 0.11,
          "phone": "ao_B"
        },
        {
          "duration": 0.1,
          "phone": "l_I"
        },
        {
          "duration": 0.1,
          "phone": "s_I"
        },
        {
          "duration": 0.09,
          "phone": "ow_E"
        }
      ],
      "start": 10.679999,
      "startOffset": 163,
      "word": "ALSO"
    },
    {
      "alignedWord": "for",
      "case": "success",
      "end": 11.25,
      "endOffset": 171,
      "phones": [
        {
          "duration": 0.09,
          "phone": "f_B"
        },
        {
          "duration": 0.08,
          "phone": "er_E"
        }
      ],
      "start": 11.08,
      "startOffset": 168,
      "word": "FOR"
    },
    {
      "alignedWord": "success",
      "case": "success",
      "end": 11.77,
      "endOffset": 179,
      "phones": [
        {
          "duration": 0.06,
          "phone": "s_B"
        },
        {
          "duration": 0.07,
          "phone": "ah_I"
        },
        {
          "duration": 0.09,
          "phone": "k_I"
        },
        {
          "duration": 0.1,
          "phone": "s_I"
        },
        {
          "duration": 0.11,
          "phone": "eh_I"
        },
        {
          "duration": 0.09,
          "phone": "s_E"
        }
      ],
      "start": 11.25,
      "startOffset": 172,
      "word": "SUCCESS"
    },
    {
      "alignedWord": "in",
      "case": "success",
      "end": 11.92,
      "endOffset": 182,
      "phones": [
        {
          "duration": 0.06,
          "phone": "ih_B"
        },
        {
          "duration": 0.09,
          "phone": "n_E"
        }
      ],
      "start": 11.77,
      "startOffset": 180,
      "word": "IN"
    },
    {
      "alignedWord": "which",
      "case": "success",
      "end": 12.13,
      "endOffset": 188,
      "phones": [
        {
          "duration": 0.06,
          "phone": "w_B"
        },
        {
          "duration": 0.07,
          "phone": "ih_I"
        },
        {
          "duration": 0.08,
          "phone": "ch_E"
        }
      ],
      "start": 11.92,
      "startOffset": 183,
      "word": "WHICH"
    },
    {
      "alignedWord": "a",
      "case": "success",
      "end": 12.22,
      "endOffset": 190,
      "phones": [
        {
          "duration": 0.09,
          "phone": "ah_S"
        }
      ],
      "start": 12.13,
      "startOffset": 189,
      "word": "A"
    },
    {
      "alignedWord": "sufficient",
      "case": "success",
      "end": 12.849999,
      "endOffset": 201,
      "phones": [
        {
          "duration": 0.09,
          "phone": "s_B"
        },
        {
          "duration": 0.08,
          "phone": "ah_I"
        },
        {
          "duration": 0.12,
          "phone": "f_I"
        },
        {
          "duration": 0.08,
          "phone": "ih_I"
        },
        {
          "duration": 0.1,
          "phone": "sh_I"
        },
        {
          "duration": 0.05,
          "phone": "ah_I"
        },
        {
          "duration": 0.03,
          "phone": "n_I"
        },
        {
          "duration": 0.08,
          "phone": "t_E"
        }
      ],
      "start": 12.219999,
      "startOffset": 191,
      "word": "SUFFICIENT"
    },
    {
      "alignedWord": "capital",
      "case": "success",
      "end": 13.449999,
      "endOffset": 209,
      "phones": [
        {
          "duration": 0.13,
          "phone": "k_B"
        },
        {
          "duration": 0.11,
          "phone": "ae_I"
        },
        {
          "duration": 0.08,
          "phone": "p_I"
        },
        {
          "duration": 0.05,
          "phone": "ih_I"
        },
        {
          "duration": 0.07,
          "phone": "t_I"
        },
        {
          "duration": 0.05,
          "phone": "ah_I"
        },
        {
          "duration": 0.11,
          "phone": "l_E"
        }
      ],
      "start": 12.849999,
      "startOffset": 202,
      "word": "CAPITAL"
    },
    {
      "alignedWord": "is",
      "case": "success",
      "end": 13.689999,
      "endOffset": 212,
      "phones": [
        {
          "duration": 0.11,
          "phone": "ih_B"
        },
        {
          "duration": 0.11,
          "phone": "z_E"
        }
      ],
      "start": 13.469999,
      "startOffset": 210,
      "word": "IS"
    },
    {
      "alignedWord": "indispensable",
      "case": "success",
      "end": 14.709999999999999,
      "endOffset": 226,
      "phones": [
        {
          "duration": 0.11,
          "phone": "ih_B"
        },
        {
          "duration": 0.11,
          "phone": "n_I"
        },
        {
          "duration": 0.01,
          "phone": "d_I"
        },
        {
          "duration": 0.08,
          "phone": "ih_I"
        },
        {
          "duration": 0.07,
          "phone": "s_I"
        },
        {
          "duration": 0.06,
          "phone": "p_I"
        },
        {
          "duration": 0.09,
          "phone": "eh_I"
        },
        {
          "duration": 0.08,
          "phone": "n_I"
        },
        {
          "duration": 0.05,
          "phone": "s_I"
        },
        {
          "duration": 0.08,
          "phone": "ah_I"
        },
        {
          "duration": 0.05,
          "phone": "b_I"
        },
        {
          "duration": 0.05,
          "phone": "ah_I"
        },
        {
          "duration": 0.17,
          "phone": "l_E"
        }
      ],
      "start": 13.7,
      "startOffset": 213,
      "word": "INDISPENSABLE"
    }
  ]
}