{
  "transcript": "WE DO NOT KNOW THE MECHANICS OF THIS METAMORPHOSIS OF AN ORDINARY BRAIN INTO AN ORGAN OF CONCENTRATED POWER ACCORDING TO JANET THIS IS ACCOMPLISHED THROUGH THE FORMATION OF A GROUP OF UNCONSCIOUS MEMORIES AND ACTIVITIES",
  "words": [
    {
      "alignedWord": "we",
      "case": "success",
      "end": 0.5700000000000001,
      "endOffset": 2,
      "phones": [
        {
          "duration": 0.11,
          "phone": "w_B"
        },
        {
          "duration": 0.07,
          "phone": "iy_E"
        }
      ],
      "start": 0.39,
      "startOffset": 0,
      "word": "WE"
    },
    {
      "alignedWord": "do",
      "case": "success",
      "end": 0.71,
      "endOffset": 5,
      "phones": [
        {
          "duration": 0.06,
          "phone": "d_B"
        },
        {
          "duration": 0.08,
          "phone": "uw_E"
        }
      ],
      "start": 0.57,
      "startOffset": 3,
      "word": "DO"
    },
    {
      "alignedWord": "not",
      "case": "success",
      "end": 0.98,
      "endOffset": 9,
      "phones": [
        {
          "duration": 0.04,
          "phone": "n_B"
        },
        {
          "duration": 0.15,
          "phone": "aa_I"
        },
        {
          "duration": 0.08,
          "phone": "t_E"
        }
      ],
      "start": 0.71,
      "startOffset": 6,
      "word": "NOT"
    },
    {
      "alignedWord": "know",
      "case": "success",
      "end": 1.14,
      "endOffset": 14,
      "phones": [
        {
          "duration": 0.06,
          "phone": "n_B"
        },
        {
          "duration": 0.1,
          "phone": "ow_E"
        }
      ],
      "start": 0.98,
      "startOffset": 10,
      "word": "KNOW"
    },
    {
      "alignedWord": "the",
      "case": "success",
      "end": 1.25,
      "endOffset": 18,
      "phones": [
        {
          "duration": 0.06,
          "phone": "dh_B"
        },
        {
          "duration": 0.05,
          "phone": "ah_E"
        }
      ],
      "start": 1.14,
      "startOffset": 15,
      "word": "THE"
    },
    {
      "alignedWord": "mechanics",
      "case": "success",
      "end": 1.8900000000000001,
      "endOffset": 28,
      "phones": [
        {
          "duration": 0.07,
          "phone": "m_B"
        },
        {
          "duration": 0.06,
          "phone": "ah_I"
        },
        {
          "duration": 0.12,
          "phone": "k_I"
        },
        {
          "duration": 0.13,
          "phone": "ae_I"
        },
        {
          "duration": 0.07,
          "phone": "n_I"
        },
        {
          "duration": 0.06,
          "phone": "ih_I"
        },
        {
          "duration": 0.08,
          "phone": "k_I"
        },
        {
          "duration": 0.05,
          "phone": "s_E"
        }
      ],
      "start": 1.25,
      "startOffset": 19,
      "word": "MECHANICS"
    },
    {
      "alignedWord": "of",
      "case": "success",
      "end": 2.06,
      "endOffset": 31,
      "phones": [
        {
          "duration": 0.08,
          "phone": "ah_B"
        },
        {
          "duration": 0.09,
          "phone": "v_E"
        }
      ],
      "start": 1.89,
      "startOffset": 29,
      "word": "OF"
    },
    {
      "alignedWord": "this",
      "case": "success",
      "end": 2.23,
      "endOffset": 36,
      "phones": [
        {
          "duration": 0.01,
          "phone": "dh_B"
        },
        {
          "duration": 0.08,
          "phone": "ih_I"
        },
        {
          "duration": 0.08,
          "phone": "s_E"
        }
      ],
      "start": 2.06,
      "startOffset": 32,
      "word": "THIS"
    },
    {
      "alignedWord": "metamorphosis",
      "case": "success",
      "end": 3.06,
      "endOffset": 50,
      "phones": [
        {
          "duration": 0.08,
          "phone": "m_B"
        },
        {
          "duration": 0.08,
          "phone": "eh_I"
        },
        {
          "duration": 0.04,
          "phone": "t_I"
        },
        {
          "duration": 0.05,
          "phone": "ah_I"
        },
        {
          "duration": 0.08,
          "phone": "m_I"
        },
        {
          "duration": 0.1,
          "phone": "ao_I"
        },
        {
          "duration": 0.09,
          "phone": "r_I"
        },
        {
          "duration": 0.09,
          "phone": "f_I"
        },
        {
          "duration": 0.09,
          "phone": "ah_I"
        },
        {
          "duration": 0.01,
          "phone": "s_I"
        },
        {
          "duration": 0.01,
          "phone": "ah_I"
        },
        {
          "duration": 0.11,
          "phone": "s_E"
        }
      ],
      "start": 2.23,
      "startOffset": 37,
      "word": "METAMORPHOSIS"
    },
    {
      "alignedWord": "of",
      "case": "success",
      "end": 3.24,
      "endOffset": 53,
      "phones": [
        {
          "duration": 0.1,
          "phone": "ah_B"
        },
        {
          "duration": 0.06,
          "phone": "v_E"
        }
      ],
      "start": 3.08,
      "startOffset": 51,
      "word": "OF"
    },
    {
      "alignedWord": "an",
      "case": "success",
      "end": 3.3600000000000003,
      "endOffset": 56,
      "phones": [
        {
          "duration": 0.03,
          "phone": "ah_B"
        },
        {
          "duration": 0.09,
          "phone": "n_E"
        }
      ],
      "start": 3.24,
      "startOffset": 54,
      "word": "AN"
    },
    {
      "alignedWord": "ordinary",
      "case": "success",
      "end": 3.91,
      "endOffset": 65,
      "phones": [
        {
          "duration": 0.13,
          "phone": "ao_B"
        },
        {
          "duration": 0.04,
          "phone": "r_I"
        },
        {
          "duration": 0.04,
          "phone": "d_I"
        },
        {
          "duration": 0.04,
          "phone": "ah_I"
        },
        {
          "duration": 0.04,
          "phone": "n_I"
        },
        {
          "duration": 0.08,
          "phone": "eh_I"
        },
        {
          "duration": 0.09,
          "phone": "r_I"
        },
        {
          "duration": 0.08,
          "phone": "iy_E"
        }
      ],
      "start": 3.37,
      "startOffset": 57,
      "word": "ORDINARY"
    },
    {
      "alignedWord": "brain",
      "case": "success",
      "end": 4.38,
      "endOffset": 71,
      "phones": [
        {
          "duration": 0.09,
          "phone": "b_B"
        },
        {
          "duration": 0.07,
          "phone": "r_I"
        },
        {
          "duration": 0.17,
          "phone": "ey_I"
        },
        {
          "duration": 0.13,
          "phone": "n_E"
        }
      ],
      "start": 3.92,
      "startOffset": 66,
      "word": "BRAIN"
    },
    {
      "alignedWord": "into",
      "case": "success",
      "end": 4.74,
      "endOffset": 76,
      "phones": [
        {
          "duration": 0.1,
          "phone": "ih_B"
        },
        {
          "duration": 0.05,
          "phone": "n_I"
        },
        {
          "duration": 0.08,
          "phone": "t_I"
        },
        {
          "duration": 0.07,
          "phone": "uw_E"
        }
      ],
      "start": 4.44,
      "startOffset": 72,
      "word": "INTO"
    },
    {
      "alignedWord": "an",
      "case": "success",
      "end": 4.87,
      "endOffset": 79,
      "phones": [
        {
          "duration": 0.06,
          "phone": "ah_B"
        },
        {
          "duration": 0.07,
          "phone": "n_E"
        }
      ],
      "start": 4.74,
      "startOffset": 77,
      "word": "AN"
    },
    {
      "alignedWord": "organ",
      "case": "success",
      "end": 5.28,
      "endOffset": 85,
      "phones": [
        {
          "duration": 0.16,
          "phone": "ao_B"
        },
        {
          "duration": 0.07,
          "phone": "r_I"
        },
        {
          "duration": 0.05,
          "phone": "g_I"
        },
        {
          "duration": 0.06,
          "phone": "ah_I"
        },
        {
          "duration": 0.06,
          "phone": "n_E"
        }
      ],
      "start": 4.88,
      "startOffset": 80,
      "word": "ORGAN"
    },
    {
      "alignedWord": "of",
      "case": "success",
      "end": 5.4,
      "endOffset": 88,
      "phones": [
        {
          "duration": 0.04,
          "phone": "ah_B"
        },
        {
          "duration": 0.08,
          "phone": "v_E"
        }
      ],
      "start": 5.28,
      "startOffset": 86,
      "word": "OF"
    },
    {
      "alignedWord": "concentrated",
      "case": "success",
      "end": 6.16,
      "endOffset": 101,
      "phones": [
        {
          "duration": 0.09,
          "phone": "k_B"
        },
        {
          "duration": 0.09,
          "phone": "aa_I"
        },
        {
          "duration": 0.07,
          "phone": "n_I"
        },
        {
          "duration": 0.05,
          "phone": "s_I"
        },
        {
          "duration": 0.07,
          "phone": "ah_I"
        },
        {
          "duration": 0.04,
          "phone": "n_I"
        },
        {
          "duration": 0.05,
          "phone": "t_I"
        },
        {
          "duration": 0.09,
          "phone": "r_I"
        },
        {
          "duration": 0.04,
          "phone": "ey_I"
        },
        {
          "duration": 0.05,
          "phone": "t_I"
        },
        {
          "duration": 0.06,
          "phone": "ah_I"
        },
        {
          "duration": 0.06,
          "phone": "d_E"
        }
      ],
      "start": 5.4,
      "startOffset": 89,
      "word": "CONCENTRATED"
    },
    {
      "alignedWord": "power",
      "case": "success",
      "end": 6.7,
      "endOffset": 107,
      "phones": [
        {
          "duration": 0.1,
          "phone": "p_B"
        },
        {
          "duration": 0.23,
          "phone": "aw_I"
        },
        {
          "duration": 0.21,
          "phone": "er_E"
        }
      ],
      "start": 6.16,
      "startOffset": 102,
      "word": "POWER"
    },
    {
      "alignedWord": "according",
      "case": "success",
      "end": 7.58,
      "endOffset": 117,
      "phones": [
        {
          "duration": 0.1,
          "phone": "ah_B"
        },
        {
          "duration": 0.09,
          "phone": "k_I"
        },
        {
          "duration": 0.09,
          "phone": "ao_I"
        },
        {
          "duration": 0.01,
          "phone": "r_I"
        },
        {
          "duration": 0.06,
          "phone": "d_I"
        },
        {
          "duration": 0.06,
          "phone": "ih_I"
        },
        {
          "duration": 0.06,
          "phone": "ng_E"
        }
      ],
      "start": 7.11,
      "startOffset": 108,
      "word": "ACCORDING"
    },
    {
      "alignedWord": "to",
      "case": "success",
      "end": 7.7700000000000005,
      "endOffset": 120,
      "phones": [
        {
          "duration": 0.08,
          "phone": "t_B"
        },
        {
          "duration": 0.11,
          "phone": "uw_E"
        }
      ],
      "start": 7.58,
      "startOffset": 118,
      "word": "TO"
    },
    {
      "alignedWord": "janet",
      "case": "success",
      "end": 8.049999999999999,
      "endOffset": 126,
      "phones": [
        {
          "duration": 0.1,
          "phone": "jh_B"
        },
        {
          "duration": 0.01,
          "phone": "ae_I"
        },
        {
          "duration": 0.01,
          "phone": "n_I"
        },
        {
          "duration": 0.15,
          "phone": "ah_I"
        },
        {
          "duration": 0.01,
          "phone": "t_E"
        }
      ],
      "start": 7.77,
      "startOffset": 121,
      "word": "JANET"
    },
    {
      "alignedWord": "this",
      "case": "success",
      "end": 8.81,
      "endOffset": 131,
      "phones": [
        {
          "duration": 0.06,
          "phone": "dh_B"
        },
        {
          "duration": 0.07,
          "phone": "ih_I"
        },
        {
          "duration": 0.05,
          "phone": "s_E"
        }
      ],
      "start": 8.63,
      "startOffset": 127,
      "word": "THIS"
    },
    {
      "alignedWord": "is",
      "case": "success",
      "end": 8.949999,
      "endOffset": 134,
      "phones": [
        {
          "duration": 0.08,
          "phone": "ih_B"
        },
        {
          "duration": 0.06,
          "phone": "z_E"
        }
      ],
      "start": 8.809999,
      "startOffset": 132,
      "word": "IS"
    },
    {
      "alignedWord": "accomplished",
      "case": "success",
      "end": 9.569999999999999,
      "endOffset": 147,
      "phones": [
        {
          "duration": 0.07,
          "phone": "ah_B"
        },
        {
          "duration": 0.13,
          "phone": "k_I"
        },
        {
          "duration": 0.11,
          "phone": "aa_I"
        },
        {
          "duration": 0.07,
          "phone": "m_I"
        },
        {
          "duration": 0.03,
          "phone": "p_I"
        },
        {
          "duration": 0.05,
          "phone": "l_I"
        },
        {
          "duration": 0.06,
          "phone": "ih_I"
        },
        {
          "duration": 0.09,
          "phone": "sh_I"
        },
        {
          "duration": 0.01,
          "phone": "t_E"
        }
      ],
      "start": 8.95,
      "startOffset": 135,
      "word": "ACCOMPLISHED"
    },
    {
      "alignedWord": "through",
      "case": "success",
      "end": 9.700000000000001,
      "endOffset": 155,
      "phones": [
        {
          "duration": 0.02,
          "phone": "th_B"
        },
        {
          "duration": 0.05,
          "phone": "r_I"
        },
        {
          "duration": 0.06,
          "phone": "uw_E"
        }
      ],
      "start": 9.57,
      "startOffset": 148,
      "word": "THROUGH"
    },
    {
      "alignedWord": "the",
      "case": "success",
      "end": 9.809999999999999,
      "endOffset": 159,
      "phones": [
        {
          "duration": 0.06,
          "phone": "dh_B"
        },
        {
          "duration": 0.05,
          "phone": "ah_E"
        }
      ],
      "start": 9.7,
      "startOffset": 156,
      "word": "THE"
    },
    {
      "alignedWord": "formation",
      "case": "success",
      "end": 10.659999,
      "endOffset": 169,
      "phones": [
        {
          "duration": 0.1,
          "phone": "f_B"
        },
        {
          "duration": 0.1,
          "phone": "ao_I"
        },
        {
          "duration": 0.08,
          "phone": "r_I"
        },
        {
          "duration": 0.09,
          "phone": "m_I"
        },
        {
          "duration": 0.13,
          "phone": "ey_I"
        },
        {
          "duration": 0.13,
          "phone": "sh_I"
        },
        {
          "duration": 0.08,
          "phone": "ah_I"
        },
        {
          "duration": 0.14,
          "phone": "n_E"
        }
      ],
      "start": 9.809999,
      "startOffset": 160,
      "word": "FORMATION"
    },
    {
      "alignedWord": "of",
      "case": "success",
      "end": 11.119999,
      "endOffset": 172,
      "phones": [
        {
          "duration": 0.11,
          "phone": "ah_B"
        },
        {
          "duration": 0.08,
          "phone": "v_E"
        }
      ],
      "start": 10.929999,
      "startOffset": 170,
      "word": "OF"
    },
    {
      "alignedWord": "a",
      "case": "success",
      "end": 11.17,
      "endOffset": 174,
      "phones": [
        {
          "duration": 0.05,
          "phone": "ah_S"
        }
      ],
      "start": 11.12,
      "startOffset": 173,
      "word": "A"
    },
    {
      "alignedWord": "group",
      "case": "success",
      "end": 11.48,
      "endOffset": 180,
      "phones": [
        {
          "duration": 0.09,
          "phone": "g_B"
        },
        {
          "duration": 0.08,
          "phone": "r_I"
        },
        {
          "duration": 0.07,
          "phone": "uw_I"
        },
        {
          "duration": 0.07,
          "phone": "p_E"
        }
      ],
      "start": 11.17,
      "startOffset": 175,
      "word": "GROUP"
    },
    {
      "alignedWord": "of",
      "case": "success",
      "end": 11.6,
      "endOffset": 183,
      "phones": [
        {
          "duration": 0.05,
          "phone": "ah_B"
        },
        {
          "duration": 0.07,
          "phone": "v_E"
        }
      ],
      "start": 11.48,
      "startOffset": 181,
      "word": "OF"
    },
    {
      "alignedWord": "unconscious",
      "case": "success",
      "end": 12.319999,
      "endOffset": 195,
      "phones": [
        {
          "duration": 0.05,
          "phone": "ah_B"
        },
        {
          "duration": 0.11,
          "phone": "n_I"
        },
        {
          "duration": 0.1,
          "phone": "k_I"
        },
        {
          "duration": 0.12,
          "phone": "aa_I"
        },
        {
          "duration": 0.04,
          "phone": "n_I"
        },
        {
          "duration": 0.09,
          "phone": "sh_I"
        },
        {
          "duration": 0.07,
          "phone": "ah_I"
        },
        {
          "duration": 0.1,
          "phone": "s_E"
        }
      ],
      "start": 11.639999,
      "startOffset": 184,
      "word": "UNCONSCIOUS"
    },
    {
      "alignedWord": "memories",
      "case": "success",
      "end": 12.77,
      "endOffset": 204,
      "phones": [
        {
          "duration": 0.06,
          "phone": "m_B"
        },
        {
          "duration": 0.1,
          "phone": "eh_I"
        },
        {
          "duration": 0.07,
          "phone": "m_I"
        },
        {
          "duration": 0.07,
          "phone": "er_I"
        },
        {
          "duration": 0.07,
          "phone": "iy_I"
        },
        {
          "duration": 0.08,
          "phone": "z_E"
        }
      ],
      "start": 12.32,
      "startOffset": 196,
      "word": "MEMORIES"
    },
    {
      "alignedWord": "and",
      "case": "success",
      "end": 12.889999999999999,
      "endOffset": 208,
      "phones": [
        {
          "duration": 0.05,
          "phone": "ah_B"
        },
        {
          "duration": 0.06,
          "phone": "n_I"
        },
        {
          "duration": 0.01,
          "phone": "d_E"
        }
      ],
      "start": 12.77,
      "startOffset": 205,
      "word": "AND"
    },
    {
      "alignedWord": "activities",
      "case": "success",
      "end": 13.639999,
      "endOffset": 219,
      "phones": [
        {
          "duration": 0.08,
          "phone": "ae_B"
        },
        {
          "duration": 0.11,
          "phone": "k_I"
        },
        {
          "duration": 0.05,
          "phone": "t_I"
        },
        {
          "duration": 0.08,
          "phone": "ih_I"
        },
        {
          "duration": 0.06,
          "phone": "v_I"
        },
        {
          "duration": 0.07,
          "phone": "ah_I"
        },
        {
          "duration": 0.05,
          "phone": "t_I"
        },
        {
          "duration": 0.12,
          "phone": "iy_I"
        },
        {
          "duration": 0.13,
          "phone": "z_E"
        }
      ],
      "start": 12.889999,
      "startOffset": 209,
      "word": "ACTIVITIES"
    }
  ]
}