{
  "transcript": "THE TOP OF A BANNER PASSED AND ONCE SOME BRIGHTLY COLOURED OBJECT A PALE BLUE CAP OR GARMENT THROWN UP INTO THE AIR PERHAPS FLASHED ATHWART THE SPACE AND FELL THE SHOUTS SOUNDED LIKE ENGLISH",
  "words": [
    {
      "alignedWord": "the",
      "case": "success",
      "end": 0.31,
      "endOffset": 3,
      "phones": [
        {
          "duration": 0.09,
          "phone": "dh_B"
        },
        {
          "duration": 0.06,
          "phone": "ah_E"
        }
      ],
      "start": 0.16,
      "startOffset": 0,
      "word": "THE"
    },
    {
      "alignedWord": "top",
      "case": "success",
      "end": 0.69,
      "endOffset": 7,
      "phones": [
        {
          "duration": 0.1,
          "phone": "t_B"
        },
        {
          "duration": 0.17,
          "phone": "aa_I"
        },
        {
          "duration": 0.11,
          "phone": "p_E"
        }
      ],
      "start": 0.31,
      "startOffset": 4,
      "word": "TOP"
    },
    {
      "alignedWord": "of",
      "case": "success",
      "end": 0.9099999999999999,
      "endOffset": 10,
      "phones": [
        {
          "duration": 0.12,
          "phone": "ah_B"
        },
        {
          "duration": 0.08,
          "phone": "v_E"
        }
      ],
      "start": 0.71,
      "startOffset": 8,
      "word": "OF"
    },
    {
      "alignedWord": "a",
      "case": "success",
      "end": 1.03,
      "endOffset": 12,
      "phones": [
        {
          "duration": 0.12,
          "phone": "ey_S"
        }
      ],
      "start": 0.91,
      "startOffset": 11,
      "word": "A"
    },
    {
      "alignedWord": "banner",
      "case": "success",
      "end": 1.44,
      "endOffset": 19,
      "phones": [
        {
          "duration": 0.1,
          "phone": "b_B"
        },
        {
          "duration": 0.13,
          "phone": "ae_I"
        },
        {
          "duration": 0.09,
          "phone": "n_I"
        },
        {
          "duration": 0.08,
          "phone": "er_E"
        }
      ],
      "start": 1.04,
      "startOffset": 13,
      "word": "BANNER"
    },
    {
      "alignedWord": "passed",
      "case": "success",
      "end": 2.13,
      "endOffset": 26,
      "phones": [
        {
          "duration": 0.1,
          "phone": "p_B"
        },
        {
          "duration": 0.25,
          "phone": "ae_I"
        },
        {
          "duration": 0.2,
          "phone": "s_I"
        },
        {
          "duration": 0.14,
          "phone": "t_E"
        }
      ],
      "start": 1.44,
      "startOffset": 20,
      "word": "PASSED"
    },
    {
      "alignedWord": "and",
      "case": "success",
      "end": 2.7199999999999998,
      "endOffset": 30,
      "phones": [
        {
          "duration": 0.1,
          "phone": "ae_B"
        },
        {
          "duration": 0.07,
          "phone": "n_I"
        },
        {
          "duration": 0.07,
          "phone": "d_E"
        }
      ],
      "start": 2.48,
      "startOffset": 27,
      "word": "AND"
    },
    {
      "alignedWord": "once",
      "case": "success",
      "end": 3.06,
      "endOffset": 35,
      "phones": [
        {
          "duration": 0.09,
          "phone": "w_B"
        },
        {
          "duration": 0.14,
          "phone": "ah_I"
        },
        {
          "duration": 0.1,
          "phone": "n_I"
        },
        {
          "duration": 0.01,
          "phone": "s_E"
        }
      ],
      "start": 2.72,
      "startOffset": 31,
      "word": "ONCE"
    },
    {
      "alignedWord": "some",
      "case": "success",
      "end": 3.38,
      "endOffset": 40,
      "phones": [
        {
          "duration": 0.16,
          "phone": "s_B"
        },
        {
          "duration": 0.06,
          "phone": "ah_I"
        },
        {
          "duration": 0.09,
          "phone": "m_E"
        }
      ],
      "start": 3.07,
      "startOffset": 36,
      "word": "SOME"
    },
    {
      "alignedWord": "brightly",
      "case": "success",
      "end": 3.8499999999999996,
      "endOffset": 49,
      "phones": [
        {
          "duration": 0.06,
          "phone": "b_B"
        },
        {
          "duration": 0.07,
          "phone": "r_I"
        },
        {
          "duration": 0.1,
          "phone": "ay_I"
        },
        {
          "duration": 0.08,
          "phone": "t_I"
        },
        {
          "duration": 0.08,
          "phone": "l_I"
        },
        {
          "duration": 0.08,
          "phone": "iy_E"
        }
      ],
      "start": 3.38,
      "startOffset": 41,
      "word": "BRIGHTLY"
    },
    {
      "alignedWord": "<unk>",
      "case": "success",
      "end": 4.24,
      "endOffset": 58,
      "phones": [
        {
          "duration": 0.39,
          "phone": "oov_S"
        }
      ],
      "start": 3.85,
      "startOffset": 50,
      "word": "COLOURED"
    },
    {
      "alignedWord": "object",
      "case": "success",
      "end": 4.8999999999999995,
      "endOffset": 65,
      "phones": [
        {
          "duration": 0.17,
          "phone": "aa_B"
        },
        {
          "duration": 0.1,
          "phone": "b_I"
        },
        {
          "duration": 0.08,
          "phone": "jh_I"
        },
        {
          "duration": 0.09,
          "phone": "eh_I"
        },
        {
          "duration": 0.07,
          "phone": "k_I"
        },
        {
          "duration": 0.13,
          "phone": "t_E"
        }
      ],
      "start": 4.26,
      "startOffset": 59,
      "word": "OBJECT"
    },
    {
      "alignedWord": "a",
      "case": "success",
      "end": 5.23,
      "endOffset": 67,
      "phones": [
        {
          "duration": 0.12,
          "phone": "ah_S"
        }
      ],
      "start": 5.11,
      "startOffset": 66,
      "word": "A"
    },
    {
      "alignedWord": "pale",
      "case": "success",
      "end": 5.6000000000000005,
      "endOffset": 72,
      "phones": [
        {
          "duration": 0.14,
          "phone": "p_B"
        },
        {
          "duration": 0.13,
          "phone": "ey_I"
        },
        {
          "duration": 0.1,
          "phone": "l_E"
        }
      ],
      "start": 5.23,
      "startOffset": 68,
      "word": "PALE"
    },
    {
      "alignedWord": "blue",
      "case": "success",
      "end": 5.869999999999999,
      "endOffset": 77,
      "phones": [
        {
          "duration": 0.1,
          "phone": "b_B"
        },
        {
          "duration": 0.07,
          "phone": "l_I"
        },
        {
          "duration": 0.1,
          "phone": "uw_E"
        }
      ],
      "start": 5.6,
      "startOffset": 73,
      "word": "BLUE"
    },
    {
      "alignedWord": "cap",
      "case": "success",
      "end": 6.3100000000000005,
      "endOffset": 81,
      "phones": [
        {
          "duration": 0.12,
          "phone": "k_B"
        },
        {
          "duration": 0.19,
          "phone": "ae_I"
        },
        {
          "duration": 0.09,
          "phone": "p_E"
        }
      ],
      "start": 5.91,
      "startOffset": 78,
      "word": "CAP"
    },
    {
      "alignedWord": "or",
      "case": "success",
      "end": 6.4399999999999995,
      "endOffset": 84,
      "phones": [
        {
          "duration": 0.06,
          "phone": "ao_B"
        },
        {
          "duration": 0.07,
          "phone": "r_E"
        }
      ],
      "start": 6.31,
      "startOffset": 82,
      "word": "OR"
    },
    {
      "alignedWord": "garment",
      "case": "success",
      "end": 7.0200000000000005,
      "endOffset": 92,
      "phones": [
        {
          "duration": 0.11,
          "phone": "g_B"
        },
        {
          "duration": 0.09,
          "phone": "aa_I"
        },
        {
          "duration": 0.12,
          "phone": "r_I"
        },
        {
          "duration": 0.05,
          "phone": "m_I"
        },
        {
          "duration": 0.09,
          "phone": "ah_I"
        },
        {
          "duration": 0.06,
          "phone": "n_I"
        },
        {
          "duration": 0.06,
          "phone": "t_E"
        }
      ],
      "start": 6.44,
      "startOffset": 85,
      "word": "GARMENT"
    },
    {
      "alignedWord": "thrown",
      "case": "success",
      "end": 7.36,
      "endOffset": 99,
      "phones": [
        {
          "duration": 0.08,
          "phone": "th_B"
        },
        {
          "duration": 0.07,
          "phone": "r_I"
        },
        {
          "duration": 0.11,
          "phone": "ow_I"
        },
        {
          "duration": 0.07,
          "phone": "n_E"
        }
      ],
      "start": 7.03,
      "startOffset": 93,
      "word": "THROWN"
    },
    {
      "alignedWord": "up",
      "case": "success",
      "end": 7.57,
      "endOffset": 102,
      "phones": [
        {
          "duration": 0.12,
          "phone": "ah_B"
        },
        {
          "duration": 0.08,
          "phone": "p_E"
        }
      ],
      "start": 7.37,
      "startOffset": 100,
      "word": "UP"
    },
    {
      "alignedWord": "into",
      "case": "success",
      "end": 7.82,
      "endOffset": 107,
      "phones": [
        {
          "duration": 0.06,
          "phone": "ih_B"
        },
        {
          "duration": 0.07,
          "phone": "n_I"
        },
        {
          "duration": 0.06,
          "phone": "t_I"
        },
        {
          "duration": 0.06,
          "phone": "ah_E"
        }
      ],
      "start": 7.57,
      "startOffset": 103,
      "word": "INTO"
    },
    {
      "alignedWord": "the",
      "case": "success",
      "end": 7.970000000000001,
      "endOffset": 111,
      "phones": [
        {
          "duration": 0.05,
          "phone": "dh_B"
        },
        {
          "duration": 0.1,
          "phone": "iy_E"
        }
      ],
      "start": 7.82,
      "startOffset": 108,
      "word": "THE"
    },
    {
      "alignedWord": "air",
      "case": "success",
      "end": 8.2,
      "endOffset": 115,
      "phones": [
        {
          "duration": 0.16,
          "phone": "eh_B"
        },
        {
          "duration": 0.07,
          "phone": "r_E"
        }
      ],
      "start": 7.97,
      "startOffset": 112,
      "word": "AIR"
    },
    {
      "alignedWord": "perhaps",
      "case": "success",
      "end": 8.93,
      "endOffset": 123,
      "phones": [
        {
          "duration": 0.08,
          "phone": "p_B"
        },
        {
          "duration": 0.07,
          "phone": "er_I"
        },
        {
          "duration": 0.08,
          "phone": "hh_I"
        },
        {
          "duration": 0.21,
          "phone": "ae_I"
        },
        {
          "duration": 0.12,
          "phone": "p_I"
        },
        {
          "duration": 0.17,
          "phone": "s_E"
        }
      ],
      "start": 8.2,
      "startOffset": 116,
      "word": "PERHAPS"
    },
    {
      "alignedWord": "flashed",
      "case": "success",
      "end": 9.74,
      "endOffset": 131,
      "phones": [
        {
          "duration": 0.1,
          "phone": "f_B"
        },
        {
          "duration": 0.08,
          "phone": "l_I"
        },
        {
          "duration": 0.13,
          "phone": "ae_I"
        },
        {
          "duration": 0.11,
          "phone": "sh_I"
        },
        {
          "duration": 0.06,
          "phone": "t_E"
        }
      ],
      "start": 9.26,
      "startOffset": 124,
      "word": "FLASHED"
    },
    {
      "alignedWord": "<unk>",
      "case": "success",
      "end": 10.16,
      "endOffset": 139,
      "phones": [
        {
          "duration": 0.42,
          "phone": "oov_S"
        }
      ],
      "start": 9.74,
      "startOffset": 132,
      "word": "ATHWART"
    },
    {
      "alignedWord": "the",
      "case": "success",
      "end": 10.32,
      "endOffset": 143,
      "phones": [
        {
          "duration": 0.06,
          "phone": "dh_B"
        },
        {
          "duration": 0.07,
          "phone": "ah_E"
        }
      ],
      "start": 10.19,
      "startOffset": 140,
      "word": "THE"
    },
    {
      "alignedWord": "space",
      "case": "success",
      "end": 10.780000000000001,
      "endOffset": 149,
      "phones": [
        {
          "duration": 0.08,
          "phone": "s_B"
        },
        {
          "duration": 0.09,
          "phone": "p_I"
        },
        {
          "duration": 0.2,
          "phone": "ey_I"
        },
        {
          "duration": 0.09,
          "phone": "s_E"
        }
      ],
      "start": 10.32,
      "startOffset": 144,
      "word": "SPACE"
    },
    {
      "alignedWord": "and",
      "case": "success",
      "end": 10.959999999999999,
      "endOffset": 153,
      "phones": [
        {
          "duration": 0.08,
          "phone": "ah_B"
        },
        {
          "duration": 0.04,
          "phone": "n_I"
        },
        {
          "duration": 0.06,
          "phone": "d_E"
        }
      ],
      "start": 10.78,
      "startOffset": 150,
      "word": "AND"
    },
    {
      "alignedWord": "fell",
      "case": "success",
      "end": 11.440000000000001,
      "endOffset": 158,
      "phones": [
        {
          "duration": 0.09,
          "phone": "f_B"
        },
        {
          "duration": 0.18,
          "phone": "eh_I"
        },
        {
          "duration": 0.21,
          "phone": "l_E"
        }
      ],
      "start": 10.96,
      "startOffset": 154,
      "word": "FELL"
    },
    {
      "alignedWord": "the",
      "case": "success",
      "end": 12.399999000000001,
      "endOffset": 162,
      "phones": [
        {
          "duration": 0.07,
          "phone": "dh_B"
        },
        {
          "duration": 0.07,
          "phone": "ah_E"
        }
      ],
      "start": 12.259999,
      "startOffset": 159,
      "word": "THE"
    },
    {
      "alignedWord": "<unk>",
      "case": "success",
      "end": 12.83,
      "endOffset": 169,
      "phones": [
        {
          "duration": 0.43,
          "phone": "oov_S"
        }
      ],
      "start": 12.4,
      "startOffset": 163,
      "word": "SHOUTS"
    },
    {
      "alignedWord": "sounded",
      "case": "success",
      "end": 13.38,
      "endOffset": 177,
      "phones": [
        {
          "duration": 0.16,
          "phone": "s_B"
        },
        {
          "duration": 0.11,
          "phone": "aw_I"
        },
        {
          "duration": 0.08,
          "phone": "n_I"
        },
        {
          "duration": 0.03,
          "phone": "d_I"
        },
        {
          "duration": 0.08,
          "phone": "ih_I"
        },
        {
          "duration": 0.09,
          "phone": "d_E"
        }
      ],
      "start": 12.83,
      "startOffset": 170,
      "word": "SOUNDED"
    },
    {
      "alignedWord": "like",
      "case": "success",
      "end": 13.64,
      "endOffset": 182,
      "phones": [
        {
          "duration": 0.08,
          "phone": "l_B"
        },
        {
          "duration": 0.09,
          "phone": "ay_I"
        },
        {
          "duration": 0.09,
          "phone": "k_E"
        }
      ],
      "start": 13.38,
      "startOffset": 178,
      "word": "LIKE"
    },
    {
      "alignedWord": "english",
      "case": "success",
      "end": 14.34,
      "endOffset": 190,
      "phones": [
        {
          "duration": 0.12,
          "phone": "ih_B"
        },
        {
          "duration": 0.11,
          "phone": "ng_I"
        },
        {
          "duration": 0.04,
          "phone": "g_I"
        },
        {
          "duration": 0.09,
          "phone": "l_I"
        },
        {
          "duration": 0.09,
          "phone": "ih_I"
        },
        {
          "duration": 0.24,
          "phone": "sh_E"
        }
      ],
      "start": 13.65,
      "startOffset": 183,
      "word": "ENGLISH"
    }
  ]
}