{
  "transcript": "BUT NONE WERE FOUND ON ROOFS OR ANY OTHER ELEVATION ABOVE GROUND AND NONE WERE SEEN TO FALL IF YOU PREFER TO BELIEVE THAT THE SNAKES HAD ALWAYS BEEN THERE OR HAD BEEN UPON THE GROUND IN THE FIRST PLACE AND THAT IT WAS ONLY THAT SOMETHING OCCURRED TO CALL SPECIAL ATTENTION TO THEM",
  "words": [
    {
      "alignedWord": "but",
      "case": "success",
      "end": 0.39,
      "endOffset": 3,
      "phones": [
        {
          "duration": 0.06,
          "phone": "b_B"
        },
        {
          "duration": 0.06,
          "phone": "ah_I"
        },
        {
          "duration": 0.08,
          "phone": "t_E"
        }
      ],
      "start": 0.19,
      "startOffset": 0,
      "word": "BUT"
    },
    {
      "alignedWord": "none",
      "case": "success",
      "end": 0.62,
      "endOffset": 8,
      "phones": [
        {
          "duration": 0.04,
          "phone": "n_B"
        },
        {
          "duration": 0.12,
          "phone": "ah_I"
        },
        {
          "duration": 0.07,
          "phone": "n_E"
        }
      ],
      "start": 0.39,
      "startOffset": 4,
      "word": "NONE"
    },
    {
      "alignedWord": "were",
      "case": "success",
      "end": 0.77,
      "endOffset": 13,
      "phones": [
        {
          "duration": 0.07,
          "phone": "w_B"
        },
        {
          "duration": 0.08,
          "phone": "er_E"
        }
      ],
      "start": 0.62,
      "startOffset": 9,
      "word": "WERE"
    },
    {
      "alignedWord": "found",
      "case": "success",
      "end": 1.1400000000000001,
      "endOffset": 19,
      "phones": [
        {
          "duration": 0.13,
          "phone": "f_B"
        },
        {
          "duration": 0.12,
          "phone": "aw_I"
        },
        {
          "duration": 0.06,
          "phone": "n_I"
        },
        {
          "duration": 0.06,
          "phone": "d_E"
        }
      ],
      "start": 0.77,
      "startOffset": 14,
      "word": "FOUND"
    },
    {
      "alignedWord": "on",
      "case": "success",
      "end": 1.3299999999999998,
      "endOffset": 22,
      "phones": [
        {
          "duration": 0.09,
          "phone": "aa_B"
        },
        {
          "duration": 0.1,
          "phone": "n_E"
        }
      ],
      "start": 1.14,
      "startOffset": 20,
      "word": "ON"
    },
    {
      "alignedWord": "roofs",
      "case": "success",
      "end": 1.6800000000000002,
      "endOffset": 28,
      "phones": [
        {
          "duration": 0.1,
          "phone": "r_B"
        },
        {
          "duration": 0.12,
          "phone": "uw_I"
        },
        {
          "duration": 0.01,
          "phone": "f_I"
        },
        {
          "duration": 0.12,
          "phone": "s_E"
        }
      ],
      "start": 1.33,
      "startOffset": 23,
      "word": "ROOFS"
    },
    {
      "alignedWord": "or",
      "case": "success",
      "end": 1.8699999999999999,
      "endOffset": 31,
      "phones": [
        {
          "duration": 0.1,
          "phone": "ao_B"
        },
        {
          "duration": 0.09,
          "phone": "r_E"
        }
      ],
      "start": 1.68,
      "startOffset": 29,
      "word": "OR"
    },
    {
      "alignedWord": "any",
      "case": "success",
      "end": 2.08,
      "endOffset": 35,
      "phones": [
        {
          "duration": 0.07,
          "phone": "eh_B"
        },
        {
          "duration": 0.07,
          "phone": "n_I"
        },
        {
          "duration": 0.07,
          "phone": "iy_E"
        }
      ],
      "start": 1.87,
      "startOffset": 32,
      "word": "ANY"
    },
    {
      "alignedWord": "other",
      "case": "success",
      "end": 2.3000000000000003,
      "endOffset": 41,
      "phones": [
        {
          "duration": 0.07,
          "phone": "ah_B"
        },
        {
          "duration": 0.08,
          "phone": "dh_I"
        },
        {
          "duration": 0.07,
          "phone": "er_E"
        }
      ],
      "start": 2.08,
      "startOffset": 36,
      "word": "OTHER"
    },
    {
      "alignedWord": "elevation",
      "case": "success",
      "end": 2.82,
      "endOffset": 51,
      "phones": [
        {
          "duration": 0.06,
          "phone": "eh_B"
        },
        {
          "duration": 0.08,
          "phone": "l_I"
        },
        {
          "duration": 0.05,
          "phone": "ah_I"
        },
        {
          "duration": 0.07,
          "phone": "v_I"
        },
        {
          "duration": 0.08,
          "phone": "ey_I"
        },
        {
          "duration": 0.07,
          "phone": "sh_I"
        },
        {
          "duration": 0.04,
          "phone": "ah_I"
        },
        {
          "duration": 0.07,
          "phone": "n_E"
        }
      ],
      "start": 2.3,
      "startOffset": 42,
      "word": "ELEVATION"
    },
    {
      "alignedWord": "above",
      "case": "success",
      "end": 3.13,
      "endOffset": 57,
      "phones": [
        {
          "duration": 0.06,
          "phone": "ah_B"
        },
        {
          "duration": 0.07,
          "phone": "b_I"
        },
        {
          "duration": 0.11,
          "phone": "ah_I"
        },
        {
          "duration": 0.06,
          "phone": "v_E"
        }
      ],
      "start": 2.83,
      "startOffset": 52,
      "word": "ABOVE"
    },
    {
      "alignedWord": "ground",
      "case": "success",
      "end": 3.56,
      "endOffset": 64,
      "phones": [
        {
          "duration": 0.06,
          "phone": "g_B"
        },
        {
          "duration": 0.09,
          "phone": "r_I"
        },
        {
          "duration": 0.13,
          "phone": "aw_I"
        },
        {
          "duration": 0.07,
          "phone": "n_I"
        },
        {
          "duration": 0.08,
          "phone": "d_E"
        }
      ],
      "start": 3.13,
      "startOffset": 58,
      "word": "GROUND"
    },
    {
      "alignedWord": "and",
      "case": "success",
      "end": 4.17,
      "endOffset": 68,
      "phones": [
        {
          "duration": 0.34,
          "phone": "ae_B"
        },
        {
          "duration": 0.08,
          "phone": "n_I"
        },
        {
          "duration": 0.13,
          "phone": "d_E"
        }
      ],
      "start": 3.62,
      "startOffset": 65,
      "word": "AND"
    },
    {
      "alignedWord": "none",
      "case": "success",
      "end": 4.87,
      "endOffset": 73,
      "phones": [
        {
          "duration": 0.12,
          "phone": "n_B"
        },
        {
          "duration": 0.1,
          "phone": "ah_I"
        },
        {
          "duration": 0.08,
          "phone": "n_E"
        }
      ],
      "start": 4.57,
      "startOffset": 69,
      "word": "NONE"
    },
    {
      "alignedWord": "were",
      "case": "success",
      "end": 5.01,
      "endOffset": 78,
      "phones": [
        {
          "duration": 0.06,
          "phone": "w_B"
        },
        {
          "duration": 0.08,
          "phone": "er_E"
        }
      ],
      "start": 4.87,
      "startOffset": 74,
      "word": "WERE"
    },
    {
      "alignedWord": "seen",
      "case": "success",
      "end": 5.26,
      "endOffset": 83,
      "phones": [
        {
          "duration": 0.09,
          "phone": "s_B"
        },
        {
          "duration": 0.09,
          "phone": "iy_I"
        },
        {
          "duration": 0.07,
          "phone": "n_E"
        }
      ],
      "start": 5.01,
      "startOffset": 79,
      "word": "SEEN"
    },
    {
      "alignedWord": "to",
      "case": "success",
      "end": 5.38,
      "endOffset": 86,
      "phones": [
        {
          "duration": 0.07,
          "phone": "t_B"
        },
        {
          "duration": 0.05,
          "phone": "ah_E"
        }
      ],
      "start": 5.26,
      "startOffset": 84,
      "word": "TO"
    },
    {
      "alignedWord": "fall",
      "case": "success",
      "end": 5.75,
      "endOffset": 91,
      "phones": [
        {
          "duration": 0.08,
          "phone": "f_B"
        },
        {
          "duration": 0.11,
          "phone": "ao_I"
        },
        {
          "duration": 0.18,
          "phone": "l_E"
        }
      ],
      "start": 5.38,
      "startOffset": 87,
      "word": "FALL"
    },
    {
      "alignedWord": "if",
      "case": "success",
      "end": 6.91,
      "endOffset": 94,
      "phones": [
        {
          "duration": 0.12,
          "phone": "ih_B"
        },
        {
          "duration": 0.07,
          "phone": "f_E"
        }
      ],
      "start": 6.72,
      "startOffset": 92,
      "word": "IF"
    },
    {
      "alignedWord": "you",
      "case": "success",
      "end": 7.01,
      "endOffset": 98,
      "phones": [
        {
          "duration": 0.05,
          "phone": "y_B"
        },
        {
          "duration": 0.05,
          "phone": "uw_E"
        }
      ],
      "start": 6.91,
      "startOffset": 95,
      "word": "YOU"
    },
    {
      "alignedWord": "prefer",
      "case": "success",
      "end": 7.35,
      "endOffset": 105,
      "phones": [
        {
          "duration": 0.06,
          "phone": "p_B"
        },
        {
          "duration": 0.04,
          "phone": "r_I"
        },
        {
          "duration": 0.05,
          "phone": "ah_I"
        },
        {
          "duration": 0.11,
          "phone": "f_I"
        },
        {
          "duration": 0.08,
          "phone": "er_E"
        }
      ],
      "start": 7.01,
      "startOffset": 99,
      "word": "PREFER"
    },
    {
      "alignedWord": "to",
      "case": "success",
      "end": 7.46,
      "endOffset": 108,
      "phones": [
        {
          "duration": 0.05,
          "phone": "t_B"
        },
        {
          "duration": 0.06,
          "phone": "ah_E"
        }
      ],
      "start": 7.35,
      "startOffset": 106,
      "word": "TO"
    },
    {
      "alignedWord": "believe",
      "case": "success",
      "end": 7.82,
      "endOffset": 116,
      "phones": [
        {
          "duration": 0.01,
          "phone": "b_B"
        },
        {
          "duration": 0.06,
          "phone": "ih_I"
        },
        {
          "duration": 0.14,
          "phone": "l_I"
        },
        {
          "duration": 0.09,
          "phone": "iy_I"
        },
        {
          "duration": 0.06,
          "phone": "v_E"
        }
      ],
      "start": 7.46,
      "startOffset": 109,
      "word": "BELIEVE"
    },
    {
      "alignedWord": "that",
      "case": "success",
      "end": 7.96,
      "endOffset": 121,
      "phones": [
        {
          "duration": 0.01,
          "phone": "dh_B"
        },
        {
          "duration": 0.07,
          "phone": "ah_I"
        },
        {
          "duration": 0.06,
          "phone": "t_E"
        }
      ],
      "start": 7.82,
      "startOffset": 117,
      "word": "THAT"
    },
    {
      "alignedWord": "the",
      "case": "success",
      "end": 8.07,
      "endOffset": 125,
      "phones": [
        {
          "duration": 0.04,
          "phone": "dh_B"
        },
        {
          "duration": 0.07,
          "phone": "ah_E"
        }
      ],
      "start": 7.96,
      "startOffset": 122,
      "word": "THE"
    },
    {
      "alignedWord": "snakes",
      "case": "success",
      "end": 8.39,
      "endOffset": 132,
      "phones": [
        {
          "duration": 0.09,
          "phone": "s_B"
        },
        {
          "duration": 0.06,
          "phone": "n_I"
        },
        {
          "duration": 0.08,
          "phone": "ey_I"
        },
        {
          "duration": 0.05,
          "phone": "k_I"
        },
        {
          "duration": 0.04,
          "phone": "s_E"
        }
      ],
      "start": 8.07,
      "startOffset": 126,
      "word": "SNAKES"
    },
    {
      "alignedWord": "had",
      "case": "success",
      "end": 8.529999,
      "endOffset": 136,
      "phones": [
        {
          "duration": 0.05,
          "phone": "hh_B"
        },
        {
          "duration": 0.01,
          "phone": "ae_I"
        },
        {
          "duration": 0.08,
          "phone": "d_E"
        }
      ],
      "start": 8.389999,
      "startOffset": 133,
      "word": "HAD"
    },
    {
      "alignedWord": "always",
      "case": "success",
      "end": 8.77,
      "endOffset": 143,
      "phones": [
        {
          "duration": 0.02,
          "phone": "ao_B"
        },
        {
          "duration": 0.03,
          "phone": "l_I"
        },
        {
          "duration": 0.06,
          "phone": "w_I"
        },
        {
          "duration": 0.05,
          "phone": "iy_I"
        },
        {
          "duration": 0.08,
          "phone": "z_E"
        }
      ],
      "start": 8.53,
      "startOffset": 137,
      "word": "ALWAYS"
    },
    {
      "alignedWord": "been",
      "case": "success",
      "end": 8.98,
      "endOffset": 148,
      "phones": [
        {
          "duration": 0.06,
          "phone": "b_B"
        },
        {
          "duration": 0.08,
          "phone": "ih_I"
        },
        {
          "duration": 0.07,
          "phone": "n_E"
        }
      ],
      "start": 8.77,
      "startOffset": 144,
      "word": "BEEN"
    },
    {
      "alignedWord": "there",
      "case": "success",
      "end": 9.34,
      "endOffset": 154,
      "phones": [
        {
          "duration": 0.07,
          "phone": "dh_B"
        },
        {
          "duration": 0.09,
          "phone": "eh_I"
        },
        {
          "duration": 0.2,
          "phone": "r_E"
        }
      ],
      "start": 8.98,
      "startOffset": 149,
      "word": "THERE"
    },
    {
      "alignedWord": "or",
      "case": "success",
      "end": 9.76,
      "endOffset": 157,
      "phones": [
        {
          "duration": 0.09,
          "phone": "ao_B"
        },
        {
          "duration": 0.06,
          "phone": "r_E"
        }
      ],
      "start": 9.61,
      "startOffset": 155,
      "word": "OR"
    },
    {
      "alignedWord": "had",
      "case": "success",
      "end": 9.92,
      "endOffset": 161,
      "phones": [
        {
          "duration": 0.04,
          "phone": "hh_B"
        },
        {
          "duration": 0.04,
          "phone": "ae_I"
        },
        {
          "duration": 0.08,
          "phone": "d_E"
        }
      ],
      "start": 9.76,
      "startOffset": 158,
      "word": "HAD"
    },
    {
      "alignedWord": "been",
      "case": "success",
      "end": 10.08,
      "endOffset": 166,
      "phones": [
        {
          "duration": 0.04,
          "phone": "b_B"
        },
        {
          "duration": 0.06,
          "phone": "ih_I"
        },
        {
          "duration": 0.06,
          "phone": "n_E"
        }
      ],
      "start": 9.92,
      "startOffset": 162,
      "word": "BEEN"
    },
    {
      "alignedWord": "upon",
      "case": "success",
      "end": 10.32,
      "endOffset": 171,
      "phones": [
        {
          "duration": 0.05,
          "phone": "ah_B"
        },
        {
          "duration": 0.07,
          "phone": "p_I"
        },
        {
          "duration": 0.07,
          "phone": "aa_I"
        },
        {
          "duration": 0.05,
          "phone": "n_E"
        }
      ],
      "start": 10.08,
      "startOffset": 167,
      "word": "UPON"
    },
    {
      "alignedWord": "the",
      "case": "success",
      "end": 10.41,
      "endOffset": 175,
      "phones": [
        {
          "duration": 0.04,
          "phone": "dh_B"
        },
        {
          "duration": 0.05,
          "phone": "ah_E"
        }
      ],
      "start": 10.32,
      "startOffset": 172,
      "word": "THE"
    },
    {
      "alignedWord": "ground",
      "case": "success",
      "end": 10.77,
      "endOffset": 182,
      "phones": [
        {
          "duration": 0.06,
          "phone": "g_B"
        },
        {
          "duration": 0.08,
          "phone": "r_I"
        },
        {
          "duration": 0.13,
          "phone": "aw_I"
        },
        {
          "duration": 0.05,
          "phone": "n_I"
        },
        {
          "duration": 0.04,
          "phone": "d_E"
        }
      ],
      "start": 10.41,
      "startOffset": 176,
      "word": "GROUND"
    },
    {
      "alignedWord": "in",
      "case": "success",
      "end": 10.85,
      "endOffset": 185,
      "phones": [
        {
          "duration": 0.04,
          "phone": "ih_B"
        },
        {
          "duration": 0.04,
          "phone": "n_E"
        }
      ],
      "start": 10.77,
      "startOffset": 183,
      "word": "IN"
    },
    {
      "alignedWord": "the",
      "case": "success",
      "end": 10.939999,
      "endOffset": 189,
      "phones": [
        {
          "duration": 0.04,
          "phone": "dh_B"
        },
        {
          "duration": 0.05,
          "phone": "ah_E"
        }
      ],
      "start": 10.849999,
      "startOffset": 186,
      "word": "THE"
    },
    {
      "alignedWord": "first",
      "case": "success",
      "end": 11.24,
      "endOffset": 195,
      "phones": [
        {
          "duration": 0.09,
          "phone": "f_B"
        },
        {
          "duration": 0.11,
          "phone": "er_I"
        },
        {
          "duration": 0.06,
          "phone": "s_I"
        },
        {
          "duration": 0.04,
          "phone": "t_E"
        }
      ],
      "start": 10.94,
      "startOffset": 190,
      "word": "FIRST"
    },
    {
      "alignedWord": "place",
      "case": "success",
      "end": 11.64,
      "endOffset": 201,
      "phones": [
        {
          "duration": 0.06,
          "phone": "p_B"
        },
        {
          "duration": 0.08,
          "phone": "l_I"
        },
        {
          "duration": 0.09,
          "phone": "ey_I"
        },
        {
          "duration": 0.17,
          "phone": "s_E"
        }
      ],
      "start": 11.24,
      "startOffset": 196,
      "word": "PLACE"
    },
    {
      "alignedWord": "and",
      "case": "success",
      "end": 12.05,
      "endOffset": 205,
      "phones": [
        {
          "duration": 0.05,
          "phone": "ae_B"
        },
        {
          "duration": 0.04,
          "phone": "n_I"
        },
        {
          "duration": 0.04,
          "phone": "d_E"
        }
      ],
      "start": 11.92,
      "startOffset": 202,
      "word": "AND"
    },
    {
      "alignedWord": "that",
      "case": "success",
      "end": 12.16,
      "endOffset": 210,
      "phones": [
        {
          "duration": 0.01,
          "phone": "dh_B"
        },
        {
          "duration": 0.06,
          "phone": "ae_I"
        },
        {
          "duration": 0.04,
          "phone": "t_E"
        }
      ],
      "start": 12.05,
      "startOffset": 206,
      "word": "THAT"
    },
    {
      "alignedWord": "it",
      "case": "success",
      "end": 12.22,
      "endOffset": 213,
      "phones": [
        {
          "duration": 0.01,
          "phone": "ih_B"
        },
        {
          "duration": 0.05,
          "phone": "t_E"
        }
      ],
      "start": 12.16,
      "startOffset": 211,
      "word": "IT"
    },
    {
      "alignedWord": "was",
      "case": "success",
      "end": 12.349999,
      "endOffset": 217,
      "phones": [
        {
          "duration": 0.01,
          "phone": "w_B"
        },
        {
          "duration": 0.05,
          "phone": "ah_I"
        },
        {
          "duration": 0.07,
          "phone": "z_E"
        }
      ],
      "start": 12.219999,
      "startOffset": 214,
      "word": "WAS"
    },
    {
      "alignedWord": "only",
      "case": "success",
      "end": 12.569999000000001,
      "endOffset": 222,
      "phones": [
        {
          "duration": 0.08,
          "phone": "ow_B"
        },
        {
          "duration": 0.05,
          "phone": "n_I"
        },
        {
          "duration": 0.04,
          "phone": "l_I"
        },
        {
          "duration": 0.05,
          "phone": "iy_E"
        }
      ],
      "start": 12.349999,
      "startOffset": 218,
      "word": "ONLY"
    },
    {
      "alignedWord": "that",
      "case": "success",
      "end": 12.74,
      "endOffset": 227,
      "phones": [
        {
          "duration": 0.05,
          "phone": "dh_B"
        },
        {
          "duration": 0.05,
          "phone": "ah_I"
        },
        {
          "duration": 0.07,
          "phone": "t_E"
        }
      ],
      "start": 12.57,
      "startOffset": 223,
      "word": "THAT"
    },
    {
      "alignedWord": "something",
      "case": "success",
      "end": 13.09,
      "endOffset": 237,
      "phones": [
        {
          "duration": 0.06,
          "phone": "s_B"
        },
        {
          "duration": 0.06,
          "phone": "ah_I"
        },
        {
          "duration": 0.05,
          "phone": "m_I"
        },
        {
          "duration": 0.06,
          "phone": "th_I"
        },
        {
          "duration": 0.04,
          "phone": "ih_I"
        },
        {
          "duration": 0.08,
          "phone": "ng_E"
        }
      ],
      "start": 12.74,
      "startOffset": 228,
      "word": "SOMETHING"
    },
    {
      "alignedWord": "occurred",
      "case": "success",
      "end": 13.4,
      "endOffset": 246,
      "phones": [
        {
          "duration": 0.07,
          "phone": "ah_B"
        },
        {
          "duration": 0.09,
          "phone": "k_I"
        },
        {
          "duration": 0.08,
          "phone": "er_I"
        },
        {
          "duration": 0.07,
          "phone": "d_E"
        }
      ],
      "start": 13.09,
      "startOffset": 238,
      "word": "OCCURRED"
    },
    {
      "alignedWord": "to",
      "case": "success",
      "end": 13.49,
      "endOffset": 249,
      "phones": [
        {
          "duration": 0.03,
          "phone": "t_B"
        },
        {
          "duration": 0.06,
          "phone": "ih_E"
        }
      ],
      "start": 13.4,
      "startOffset": 247,
      "word": "TO"
    },
    {
      "alignedWord": "call",
      "case": "success",
      "end": 13.700000000000001,
      "endOffset": 254,
      "phones": [
        {
          "duration": 0.07,
          "phone": "k_B"
        },
        {
          "duration": 0.07,
          "phone": "ao_I"
        },
        {
          "duration": 0.07,
          "phone": "l_E"
        }
      ],
      "start": 13.49,
      "startOffset": 250,
      "word": "CALL"
    },
    {
      "alignedWord": "special",
      "case": "success",
      "end": 14.1,
      "endOffset": 262,
      "phones": [
        {
          "duration": 0.12,
          "phone": "s_B"
        },
        {
          "duration": 0.05,
          "phone": "p_I"
        },
        {
          "duration": 0.05,
          "phone": "eh_I"
        },
        {
          "duration": 0.08,
          "phone": "sh_I"
        },
        {
          "duration": 0.05,
          "phone": "ah_I"
        },
        {
          "duration": 0.05,
          "phone": "l_E"
        }
      ],
      "start": 13.7,
      "startOffset": 255,
      "word": "SPECIAL"
    },
    {
      "alignedWord": "attention",
      "case": "success",
      "end": 14.579999,
      "endOffset": 272,
      "phones": [
        {
          "duration": 0.08,
          "phone": "ah_B"
        },
        {
          "duration": 0.1,
          "phone": "t_I"
        },
        {
          "duration": 0.07,
          "phone": "eh_I"
        },
        {
          "duration": 0.05,
          "phone": "n_I"
        },
        {
          "duration": 0.06,
          "phone": "sh_I"
        },
        {
          "duration": 0.06,
          "phone": "ah_I"
        },
        {
          "duration": 0.06,
          "phone": "n_E"
        }
      ],
      "start": 14.099999,
      "startOffset": 263,
      "word": "ATTENTION"
    },
    {
      "alignedWord": "to",
      "case": "success",
      "end": 14.78,
      "endOffset": 275,
      "phones": [
        {
          "duration": 0.1,
          "phone": "t_B"
        },
        {
          "duration": 0.1,
          "phone": "uw_E"
        }
      ],
      "start": 14.58,
      "startOffset": 273,
      "word": "TO"
    },
    {
      "alignedWord": "them",
      "case": "success",
      "end": 14.969999999999999,
      "endOffset": 280,
      "phones": [
        {
          "duration": 0.04,
          "phone": "dh_B"
        },
        {
          "duration": 0.06,
          "phone": "ah_I"
        },
        {
          "duration": 0.09,
          "phone": "m_E"
        }
      ],
      "start": 14.78,
      "startOffset": 276,
      "word": "THEM"
    }
  ]
}