{
  "transcript": "AGAIN OURS IS THE OBJECTION AGAINST SUCH SELECTIVENESS BY A WHIRLWIND CONCEIVABLY A WHIRLWIND COULD SCOOP OUT A DEN OF HIBERNATING SNAKES WITH STONES AND EARTH AND AN INFINITUDE OF OTHER DEBRIS SNATCHING UP DOZENS OF SNAKES",
  "words": [
    {
      "alignedWord": "again",
      "case": "success",
      "end": 0.93,
      "endOffset": 5,
      "phones": [
        {
          "duration": 0.1,
          "phone": "ah_B"
        },
        {
          "duration": 0.12,
          "phone": "g_I"
        },
        {
          "duration": 0.1,
          "phone": "eh_I"
        },
        {
          "duration": 0.22,
          "phone": "n_E"
        }
      ],
      "start": 0.39,
      "startOffset": 0,
      "word": "AGAIN"
    },
    {
      "alignedWord": "ours",
      "case": "success",
      "end": 1.58,
      "endOffset": 10,
      "phones": [
        {
          "duration": 0.17,
          "phone": "aw_B"
        },
        {
          "duration": 0.08,
          "phone": "r_I"
        },
        {
          "duration": 0.05,
          "phone": "z_E"
        }
      ],
      "start": 1.28,
      "startOffset": 6,
      "word": "OURS"
    },
    {
      "alignedWord": "is",
      "case": "success",
      "end": 1.7200000000000002,
      "endOffset": 13,
      "phones": [
        {
          "duration": 0.08,
          "phone": "ih_B"
        },
        {
          "duration": 0.06,
          "phone": "z_E"
        }
      ],
      "start": 1.58,
      "startOffset": 11,
      "word": "IS"
    },
    {
      "alignedWord": "the",
      "case": "success",
      "end": 1.8599999999999999,
      "endOffset": 17,
      "phones": [
        {
          "duration": 0.08,
          "phone": "dh_B"
        },
        {
          "duration": 0.06,
          "phone": "iy_E"
        }
      ],
      "start": 1.72,
      "startOffset": 14,
      "word": "THE"
    },
    {
      "alignedWord": "objection",
      "case": "success",
      "end": 2.34,
      "endOffset": 27,
      "phones": [
        {
          "duration": 0.03,
          "phone": "ah_B"
        },
        {
          "duration": 0.06,
          "phone": "b_I"
        },
        {
          "duration": 0.1,
          "phone": "jh_I"
        },
        {
          "duration": 0.07,
          "phone": "eh_I"
        },
        {
          "duration": 0.06,
          "phone": "k_I"
        },
        {
          "duration": 0.05,
          "phone": "sh_I"
        },
        {
          "duration": 0.05,
          "phone": "ah_I"
        },
        {
          "duration": 0.06,
          "phone": "n_E"
        }
      ],
      "start": 1.86,
      "startOffset": 18,
      "word": "OBJECTION"
    },
    {
      "alignedWord": "against",
      "case": "success",
      "end": 2.6399999999999997,
      "endOffset": 35,
      "phones": [
        {
          "duration": 0.04,
          "phone": "ah_B"
        },
        {
          "duration": 0.1,
          "phone": "g_I"
        },
        {
          "duration": 0.07,
          "phone": "eh_I"
        },
        {
          "duration": 0.04,
          "phone": "n_I"
        },
        {
          "duration": 0.04,
          "phone": "s_I"
        },
        {
          "duration": 0.01,
          "phone": "t_E"
        }
      ],
      "start": 2.34,
      "startOffset": 28,
      "word": "AGAINST"
    },
    {
      "alignedWord": "such",
      "case": "success",
      "end": 2.9499999999999997,
      "endOffset": 40,
      "phones": [
        {
          "duration": 0.09,
          "phone": "s_B"
        },
        {
          "duration": 0.1,
          "phone": "ah_I"
        },
        {
          "duration": 0.11,
          "phone": "ch_E"
        }
      ],
      "start": 2.65,
      "startOffset": 36,
      "word": "SUCH"
    },
    {
      "alignedWord": "<unk>",
      "case": "success",
      "end": 3.7,
      "endOffset": 54,
      "phones": [
        {
          "duration": 0.23,
          "phone": "oov_S"
        }
      ],
      "start": 3.47,
      "startOffset": 41,
      "word": "SELECTIVENESS"
    },
    {
      "alignedWord": "by",
      "case": "success",
      "end": 3.89,
      "endOffset": 57,
      "phones": [
        {
          "duration": 0.09,
          "phone": "b_B"
        },
        {
          "duration": 0.08,
          "phone": "ay_E"
        }
      ],
      "start": 3.72,
      "startOffset": 55,
      "word": "BY"
    },
    {
      "alignedWord": "a",
      "case": "success",
      "end": 3.97,
      "endOffset": 59,
      "phones": [
        {
          "duration": 0.08,
          "phone": "ah_S"
        }
      ],
      "start": 3.89,
      "startOffset": 58,
      "word": "A"
    },
    {
      "alignedWord": "whirlwind",
      "case": "success",
      "end": 4.6000000000000005,
      "endOffset": 69,
      "phones": [
        {
          "duration": 0.13,
          "phone": "w_B"
        },
        {
          "duration": 0.12,
          "phone": "er_I"
        },
        {
          "duration": 0.04,
          "phone": "l_I"
        },
        {
          "duration": 0.08,
          "phone": "w_I"
        },
        {
          "duration": 0.08,
          "phone": "ih_I"
        },
        {
          "duration": 0.06,
          "phone": "n_I"
        },
        {
          "duration": 0.12,
          "phone": "d_E"
        }
      ],
      "start": 3.97,
      "startOffset": 60,
      "word": "WHIRLWIND"
    },
    {
      "alignedWord": "conceivably",
      "case": "success",
      "end": 5.95,
      "endOffset": 81,
      "phones": [
        {
          "duration": 0.04,
          "phone": "k_B"
        },
        {
          "duration": 0.03,
          "phone": "ah_I"
        },
        {
          "duration": 0.08,
          "phone": "n_I"
        },
        {
          "duration": 0.11,
          "phone": "s_I"
        },
        {
          "duration": 0.07,
          "phone": "iy_I"
        },
        {
          "duration": 0.07,
          "phone": "v_I"
        },
        {
          "duration": 0.07,
          "phone": "ah_I"
        },
        {
          "duration": 0.06,
          "phone": "b_I"
        },
        {
          "duration": 0.08,
          "phone": "l_I"
        },
        {
          "duration": 0.21,
          "phone": "iy_E"
        }
      ],
      "start": 5.13,
      "startOffset": 70,
      "word": "CONCEIVABLY"
    },
    {
      "alignedWord": "a",
      "case": "success",
      "end": 6.31,
      "endOffset": 83,
      "phones": [
        {
          "duration": 0.09,
          "phone": "ah_S"
        }
      ],
      "start": 6.22,
      "startOffset": 82,
      "word": "A"
    },
    {
      "alignedWord": "whirlwind",
      "case": "success",
      "end": 6.83,
      "endOffset": 93,
      "phones": [
        {
          "duration": 0.12,
          "phone": "w_B"
        },
        {
          "duration": 0.1,
          "phone": "er_I"
        },
        {
          "duration": 0.04,
          "phone": "l_I"
        },
        {
          "duration": 0.06,
          "phone": "w_I"
        },
        {
          "duration": 0.08,
          "phone": "ih_I"
        },
        {
          "duration": 0.08,
          "phone": "n_I"
        },
        {
          "duration": 0.04,
          "phone": "d_E"
        }
      ],
      "start": 6.31,
      "startOffset": 84,
      "word": "WHIRLWIND"
    },
    {
      "alignedWord": "could",
      "case": "success",
      "end": 7.01,
      "endOffset": 99,
      "phones": [
        {
          "duration": 0.06,
          "phone": "k_B"
        },
        {
          "duration": 0.04,
          "phone": "uh_I"
        },
        {
          "duration": 0.08,
          "phone": "d_E"
        }
      ],
      "start": 6.83,
      "startOffset": 94,
      "word": "COULD"
    },
    {
      "alignedWord": "scoop",
      "case": "success",
      "end": 7.33,
      "endOffset": 105,
      "phones": [
        {
          "duration": 0.09,
          "phone": "s_B"
        },
        {
          "duration": 0.08,
          "phone": "k_I"
        },
        {
          "duration": 0.07,
          "phone": "uw_I"
        },
        {
          "duration": 0.08,
          "phone": "p_E"
        }
      ],
      "start": 7.01,
      "startOffset": 100,
      "word": "SCOOP"
    },
    {
      "alignedWord": "out",
      "case": "success",
      "end": 7.48,
      "endOffset": 109,
      "phones": [
        {
          "duration": 0.07,
          "phone": "aw_B"
        },
        {
          "duration": 0.08,
          "phone": "t_E"
        }
      ],
      "start": 7.33,
      "startOffset": 106,
      "word": "OUT"
    },
    {
      "alignedWord": "a",
      "case": "success",
      "end": 7.54,
      "endOffset": 111,
      "phones": [
        {
          "duration": 0.06,
          "phone": "ah_S"
        }
      ],
      "start": 7.48,
      "startOffset": 110,
      "word": "A"
    },
    {
      "alignedWord": "den",
      "case": "success",
      "end": 7.76,
      "endOffset": 115,
      "phones": [
        {
          "duration": 0.1,
          "phone": "d_B"
        },
        {
          "duration": 0.08,
          "phone": "eh_I"
        },
        {
          "duration": 0.04,
          "phone": "n_E"
        }
      ],
      "start": 7.54,
      "startOffset": 112,
      "word": "DEN"
    },
    {
      "alignedWord": "of",
      "case": "success",
      "end": 7.89,
      "endOffset": 118,
      "phones": [
        {
          "duration": 0.06,
          "phone": "ah_B"
        },
        {
          "duration": 0.07,
          "phone": "v_E"
        }
      ],
      "start": 7.76,
      "startOffset": 116,
      "word": "OF"
    },
    {
      "alignedWord": "<unk>",
      "case": "success",
      "end": 8.49,
      "endOffset": 130,
      "phones": [
        {
          "duration": 0.59,
          "phone": "oov_S"
        }
      ],
      "start": 7.9,
      "startOffset": 119,
      "word": "HIBERNATING"
    },
    {
      "alignedWord": "snakes",
      "case": "success",
      "end": 9.08,
      "endOffset": 137,
      "phones": [
        {
          "duration": 0.1,
          "phone": "s_B"
        },
        {
          "duration": 0.07,
          "phone": "n_I"
        },
        {
          "duration": 0.15,
          "phone": "ey_I"
        },
        {
          "duration": 0.1,
          "phone": "k_I"
        },
        {
          "duration": 0.15,
          "phone": "s_E"
        }
      ],
      "start": 8.51,
      "startOffset": 131,
      "word": "SNAKES"
    },
    {
      "alignedWord": "with",
      "case": "success",
      "end": 9.69,
      "endOffset": 142,
      "phones": [
        {
          "duration": 0.07,
          "phone": "w_B"
        },
        {
          "duration": 0.03,
          "phone": "ih_I"
        },
        {
          "duration": 0.05,
          "phone": "th_E"
        }
      ],
      "start": 9.54,
      "startOffset": 138,
      "word": "WITH"
    },
    {
      "alignedWord": "stones",
      "case": "success",
      "end": 10.15,
      "endOffset": 149,
      "phones": [
        {
          "duration": 0.05,
          "phone": "s_B"
        },
        {
          "duration": 0.08,
          "phone": "t_I"
        },
        {
          "duration": 0.18,
          "phone": "ow_I"
        },
        {
          "duration": 0.08,
          "phone": "n_I"
        },
        {
          "duration": 0.07,
          "phone": "z_E"
        }
      ],
      "start": 9.69,
      "startOffset": 143,
      "word": "STONES"
    },
    {
      "alignedWord": "and",
      "case": "success",
      "end": 10.3,
      "endOffset": 153,
      "phones": [
        {
          "duration": 0.05,
          "phone": "ae_B"
        },
        {
          "duration": 0.05,
          "phone": "n_I"
        },
        {
          "duration": 0.05,
          "phone": "d_E"
        }
      ],
      "start": 10.15,
      "startOffset": 150,
      "word": "AND"
    },
    {
      "alignedWord": "earth",
      "case": "success",
      "end": 10.529999,
      "endOffset": 159,
      "phones": [
        {
          "duration": 0.14,
          "phone": "er_B"
        },
        {
          "duration": 0.08,
          "phone": "th_E"
        }
      ],
      "start": 10.309999,
      "startOffset": 154,
      "word": "EARTH"
    },
    {
      "alignedWord": "and",
      "case": "success",
      "end": 10.58,
      "endOffset": 163,
      "phones": [
        {
          "duration": 0.03,
          "phone": "ae_B"
        },
        {
          "duration": 0.01,
          "phone": "n_I"
        },
        {
          "duration": 0.01,
          "phone": "d_E"
        }
      ],
      "start": 10.53,
      "startOffset": 160,
      "word": "AND"
    },
    {
      "alignedWord": "an",
      "case": "success",
      "end": 10.65,
      "endOffset": 166,
      "phones": [
        {
          "duration": 0.01,
          "phone": "ae_B"
        },
        {
          "duration": 0.06,
          "phone": "n_E"
        }
      ],
      "start": 10.58,
      "startOffset": 164,
      "word": "AN"
    },
    {
      "alignedWord": "<unk>",
      "case": "success",
      "end": 10.89,
      "endOffset": 177,
      "phones": [
        {
          "duration": 0.24,
          "phone": "oov_S"
        }
      ],
      "start": 10.65,
      "startOffset": 167,
      "word": "INFINITUDE"
    },
    {
      "alignedWord": "of",
      "case": "success",
      "end": 11.530000000000001,
      "endOffset": 180,
      "phones": [
        {
          "duration": 0.01,
          "phone": "ah_B"
        },
        {
          "duration": 0.06,
          "phone": "v_E"
        }
      ],
      "start": 11.46,
      "startOffset": 178,
      "word": "OF"
    },
    {
      "alignedWord": "other",
      "case": "success",
      "end": 11.719999999999999,
      "endOffset": 186,
      "phones": [
        {
          "duration": 0.06,
          "phone": "ah_B"
        },
        {
          "duration": 0.07,
          "phone": "dh_I"
        },
        {
          "duration": 0.06,
          "phone": "er_E"
        }
      ],
      "start": 11.53,
      "startOffset": 181,
      "word": "OTHER"
    },
    {
      "alignedWord": "debris",
      "case": "success",
      "end": 12.249998999999999,
      "endOffset": 193,
      "phones": [
        {
          "duration": 0.04,
          "phone": "d_B"
        },
        {
          "duration": 0.07,
          "phone": "ah_I"
        },
        {
          "duration": 0.06,
          "phone": "b_I"
        },
        {
          "duration": 0.1,
          "phone": "r_I"
        },
        {
          "duration": 0.26,
          "phone": "iy_E"
        }
      ],
      "start": 11.719999,
      "startOffset": 187,
      "word": "DEBRIS"
    },
    {
      "alignedWord": "snatching",
      "case": "success",
      "end": 13.07,
      "endOffset": 203,
      "phones": [
        {
          "duration": 0.13,
          "phone": "s_B"
        },
        {
          "duration": 0.07,
          "phone": "n_I"
        },
        {
          "duration": 0.07,
          "phone": "ae_I"
        },
        {
          "duration": 0.09,
          "phone": "ch_I"
        },
        {
          "duration": 0.06,
          "phone": "ih_I"
        },
        {
          "duration": 0.08,
          "phone": "ng_E"
        }
      ],
      "start": 12.57,
      "startOffset": 194,
      "word": "SNATCHING"
    },
    {
      "alignedWord": "up",
      "case": "success",
      "end": 13.200000000000001,
      "endOffset": 206,
      "phones": [
        {
          "duration": 0.05,
          "phone": "ah_B"
        },
        {
          "duration": 0.08,
          "phone": "p_E"
        }
      ],
      "start": 13.07,
      "startOffset": 204,
      "word": "UP"
    },
    {
      "alignedWord": "dozens",
      "case": "success",
      "end": 13.569999999999999,
      "endOffset": 213,
      "phones": [
        {
          "duration": 0.07,
          "phone": "d_B"
        },
        {
          "duration": 0.08,
          "phone": "ah_I"
        },
        {
          "duration": 0.04,
          "phone": "z_I"
        },
        {
          "duration": 0.06,
          "phone": "ah_I"
        },
        {
          "duration": 0.06,
          "phone": "n_I"
        },
        {
          "duration": 0.06,
          "phone": "z_E"
        }
      ],
      "start": 13.2,
      "startOffset": 207,
      "word": "DOZENS"
    },
    {
      "alignedWord": "of",
      "case": "success",
      "end": 13.68,
      "endOffset": 216,
      "phones": [
        {
          "duration": 0.06,
          "phone": "ah_B"
        },
        {
          "duration": 0.05,
          "phone": "v_E"
        }
      ],
      "start": 13.57,
      "startOffset": 214,
      "word": "OF"
    },
    {
      "alignedWord": "snakes",
      "case": "success",
      "end": 14.159999000000001,
      "endOffset": 223,
      "phones": [
        {
          "duration": 0.07,
          "phone": "s_B"
        },
        {
          "duration": 0.07,
          "phone": "n_I"
        },
        {
          "duration": 0.12,
          "phone": "ey_I"
        },
        {
          "duration": 0.08,
          "phone": "k_I"
        },
        {
          "duration": 0.14,
          "phone": "s_E"
        }
      ],
      "start": 13.679999,
      "startOffset": 217,
      "word": "SNAKES"
    }
  ]
}