{
  "transcript": "AND THE FIRST THING HE DID WAS TO BRING SOME WRITING MATERIALS TO ROC WHO THEREUPON BEGAN THE COMPOSITION OF A LETTER",
  "words": [
    {
      "alignedWord": "and",
      "case": "success",
      "end": 0.36,
      "endOffset": 3,
      "phones": [
        {
          "duration": 0.08,
          "phone": "ae_B"
        },
        {
          "duration": 0.04,
          "phone": "n_I"
        },
        {
          "duration": 0.04,
          "phone": "d_E"
        }
      ],
      "start": 0.2,
      "startOffset": 0,
      "word": "AND"
    },
    {
      "alignedWord": "the",
      "case": "success",
      "end": 0.43,
      "endOffset": 7,
      "phones": [
        {
          "duration": 0.01,
          "phone": "dh_B"
        },
        {
          "duration": 0.06,
          "phone": "ah_E"
        }
      ],
      "start": 0.36,
      "startOffset": 4,
      "word": "THE"
    },
    {
      "alignedWord": "first",
      "case": "success",
      "end": 0.69,
      "endOffset": 13,
      "phones": [
        {
          "duration": 0.07,
          "phone": "f_B"
        },
        {
          "duration": 0.1,
          "phone": "er_I"
        },
        {
          "duration": 0.05,
          "phone": "s_I"
        },
        {
          "duration": 0.04,
          "phone": "t_E"
        }
      ],
      "start": 0.43,
      "startOffset": 8,
      "word": "FIRST"
    },
    {
      "alignedWord": "thing",
      "case": "success",
      "end": 0.86,
      "endOffset": 19,
      "phones": [
        {
          "duration": 0.04,
          "phone": "th_B"
        },
        {
          "duration": 0.06,
          "phone": "ih_I"
        },
        {
          "duration": 0.07,
          "phone": "ng_E"
        }
      ],
      "start": 0.69,
      "startOffset": 14,
      "word": "THING"
    },
    {
      "alignedWord": "he",
      "case": "success",
      "end": 1.0,
      "endOffset": 22,
      "phones": [
        {
          "duration": 0.06,
          "phone": "hh_B"
        },
        {
          "duration": 0.08,
          "phone": "iy_E"
        }
      ],
      "start": 0.86,
      "startOffset": 20,
      "word": "HE"
    },
    {
      "alignedWord": "did",
      "case": "success",
      "end": 1.24,
      "endOffset": 26,
      "phones": [
        {
          "duration": 0.04,
          "phone": "d_B"
        },
        {
          "duration": 0.1,
          "phone": "ih_I"
        },
        {
          "duration": 0.1,
          "phone": "d_E"
        }
      ],
      "start": 1.0,
      "startOffset": 23,
      "word": "DID"
    },
    {
      "alignedWord": "was",
      "case": "success",
      "end": 1.46,
      "endOffset": 30,
      "phones": [
        {
          "duration": 0.1,
          "phone": "w_B"
        },
        {
          "duration": 0.06,
          "phone": "ah_I"
        },
        {
          "duration": 0.05,
          "phone": "z_E"
        }
      ],
      "start": 1.25,
      "startOffset": 27,
      "word": "WAS"
    },
    {
      "alignedWord": "to",
      "case": "success",
      "end": 1.55,
      "endOffset": 33,
      "phones": [
        {
          "duration": 0.05,
          "phone": "t_B"
        },
        {
          "duration": 0.04,
          "phone": "ah_E"
        }
      ],
      "start": 1.46,
      "startOffset": 31,
      "word": "TO"
    },
    {
      "alignedWord": "bring",
      "case": "success",
      "end": 1.79,
      "endOffset": 39,
      "phones": [
        {
          "duration": 0.07,
          "phone": "b_B"
        },
        {
          "duration": 0.01,
          "phone": "r_I"
        },
        {
          "duration": 0.08,
          "phone": "ih_I"
        },
        {
          "duration": 0.08,
          "phone": "ng_E"
        }
      ],
      "start": 1.55,
      "startOffset": 34,
      "word": "BRING"
    },
    {
      "alignedWord": "some",
      "case": "success",
      "end": 2.0300000000000002,
      "endOffset": 44,
      "phones": [
        {
          "duration": 0.07,
          "phone": "s_B"
        },
        {
          "duration": 0.07,
          "phone": "ah_I"
        },
        {
          "duration": 0.1,
          "phone": "m_E"
        }
      ],
      "start": 1.79,
      "startOffset": 40,
      "word": "SOME"
    },
    {
      "alignedWord": "writing",
      "case": "success",
      "end": 2.36,
      "endOffset": 52,
      "phones": [
        {
          "duration": 0.09,
          "phone": "r_B"
        },
        {
          "duration": 0.07,
          "phone": "ay_I"
        },
        {
          "duration": 0.03,
          "phone": "t_I"
        },
        {
          "duration": 0.07,
          "phone": "ih_I"
        },
        {
          "duration": 0.07,
          "phone": "ng_E"
        }
      ],
      "start": 2.03,
      "startOffset": 45,
      "word": "WRITING"
    },
    {
      "alignedWord": "materials",
      "case": "success",
      "end": 2.84,
      "endOffset": 62,
      "phones": [
        {
          "duration": 0.03,
          "phone": "m_B"
        },
        {
          "duration": 0.04,
          "phone": "ah_I"
        },
        {
          "duration": 0.07,
          "phone": "t_I"
        },
        {
          "duration": 0.08,
          "phone": "ih_I"
        },
        {
          "duration": 0.06,
          "phone": "r_I"
        },
        {
          "duration": 0.04,
          "phone": "iy_I"
        },
        {
          "duration": 0.06,
          "phone": "ah_I"
        },
        {
          "duration": 0.03,
          "phone": "l_I"
        },
        {
          "duration": 0.07,
          "phone": "z_E"
        }
      ],
      "start": 2.36,
      "startOffset": 53,
      "word": "MATERIALS"
    },
    {
      "alignedWord": "to",
      "case": "success",
      "end": 2.96,
      "endOffset": 65,
      "phones": [
        {
          "duration": 0.07,
          "phone": "t_B"
        },
        {
          "duration": 0.05,
          "phone": "ah_E"
        }
      ],
      "start": 2.84,
      "startOffset": 63,
      "word": "TO"
    },
    {
      "alignedWord": "<unk>",
      "case": "success",
      "end": 3.2199999999999998,
      "endOffset": 69,
      "phones": [
        {
          "duration": 0.26,
          "phone": "oov_S"
        }
      ],
      "start": 2.96,
      "startOffset": 66,
      "word": "ROC"
    },
    {
      "alignedWord": "who",
      "case": "success",
      "end": 3.8600000000000003,
      "endOffset": 73,
      "phones": [
        {
          "duration": 0.09,
          "phone": "hh_B"
        },
        {
          "duration": 0.07,
          "phone": "uw_E"
        }
      ],
      "start": 3.7,
      "startOffset": 70,
      "word": "WHO"
    },
    {
      "alignedWord": "<unk>",
      "case": "success",
      "end": 4.6,
      "endOffset": 83,
      "phones": [
        {
          "duration": 0.7,
          "phone": "oov_S"
        }
      ],
      "start": 3.9,
      "startOffset": 74,
      "word": "THEREUPON"
    },
    {
      "alignedWord": "began",
      "case": "success",
      "end": 5.0200000000000005,
      "endOffset": 89,
      "phones": [
        {
          "duration": 0.1,
          "phone": "b_B"
        },
        {
          "duration": 0.06,
          "phone": "ih_I"
        },
        {
          "duration": 0.1,
          "phone": "g_I"
        },
        {
          "duration": 0.07,
          "phone": "ae_I"
        },
        {
          "duration": 0.08,
          "phone": "n_E"
        }
      ],
      "start": 4.61,
      "startOffset": 84,
      "word": "BEGAN"
    },
    {
      "alignedWord": "the",
      "case": "success",
      "end": 5.109999999999999,
      "endOffset": 93,
      "phones": [
        {
          "duration": 0.03,
          "phone": "dh_B"
        },
        {
          "duration": 0.06,
          "phone": "ah_E"
        }
      ],
      "start": 5.02,
      "startOffset": 90,
      "word": "THE"
    },
    {
      "alignedWord": "composition",
      "case": "success",
      "end": 5.8100000000000005,
      "endOffset": 105,
      "phones": [
        {
          "duration": 0.1,
          "phone": "k_B"
        },
        {
          "duration": 0.06,
          "phone": "aa_I"
        },
        {
          "duration": 0.08,
          "phone": "m_I"
        },
        {
          "duration": 0.01,
          "phone": "p_I"
        },
        {
          "duration": 0.07,
          "phone": "ah_I"
        },
        {
          "duration": 0.08,
          "phone": "z_I"
        },
        {
          "duration": 0.08,
          "phone": "ih_I"
        },
        {
          "duration": 0.09,
          "phone": "sh_I"
        },
        {
          "duration": 0.06,
          "phone": "ah_I"
        },
        {
          "duration": 0.07,
          "phone": "n_E"
        }
      ],
      "start": 5.11,
      "startOffset": 94,
      "word": "COMPOSITION"
    },
    {
      "alignedWord": "of",
      "case": "success",
      "end": 5.99,
      "endOffset": 108,
      "phones": [
        {
          "duration": 0.08,
          "phone": "ah_B"
        },
        {
          "duration": 0.07,
          "phone": "v_E"
        }
      ],
      "start": 5.84,
      "startOffset": 106,
      "word": "OF"
    },
    {
      "alignedWord": "a",
      "case": "success",
      "end": 6.04,
      "endOffset": 110,
      "phones": [
        {
          "duration": 0.05,
          "phone": "ah_S"
        }
      ],
      "start": 5.99,
      "startOffset": 109,
      "word": "A"
    },
    {
      "alignedWord": "letter",
      "case": "success",
      "end": 6.47,
      "endOffset": 117,
      "phones": [
        {
          "duration": 0.1,
          "phone": "l_B"
        },
        {
          "duration": 0.08,
          "phone": "eh_I"
        },
        {
          "duration": 0.05,
          "phone": "t_I"
        },
        {
          "duration": 0.2,
          "phone": "er_E"
        }
      ],
      "start": 6.04,
      "startOffset": 111,
      "word": "LETTER"
    }
  ]
}