{
  "transcript": "THERE IS NO DOUBT THAT OUR BUCCANEERS WOULD HAVE MUCH PREFERRED TO HAVE BEEN PUT ON BOARD THE FRENCH VESSEL BUT AS THE SPANISH GOVERNOR HAD STARTED HIS PRISONERS ON THE ROAD TO REFORM HE DID NOT WISH TO THROW THEM INTO THE WAY OF TEMPTATION",
  "words": [
    {
      "alignedWord": "there",
      "case": "success",
      "end": 0.75,
      "endOffset": 5,
      "phones": [
        {
          "duration": 0.1,
          "phone": "dh_B"
        },
        {
          "duration": 0.05,
          "phone": "eh_I"
        },
        {
          "duration": 0.04,
          "phone": "r_E"
        }
      ],
      "start": 0.56,
      "startOffset": 0,
      "word": "THERE"
    },
    {
      "alignedWord": "is",
      "case": "success",
      "end": 0.87,
      "endOffset": 8,
      "phones": [
        {
          "duration": 0.05,
          "phone": "ih_B"
        },
        {
          "duration": 0.07,
          "phone": "z_E"
        }
      ],
      "start": 0.75,
      "startOffset": 6,
      "word": "IS"
    },
    {
      "alignedWord": "no",
      "case": "success",
      "end": 1.03,
      "endOffset": 11,
      "phones": [
        {
          "duration": 0.07,
          "phone": "n_B"
        },
        {
          "duration": 0.09,
          "phone": "ow_E"
        }
      ],
      "start": 0.87,
      "startOffset": 9,
      "word": "NO"
    },
    {
      "alignedWord": "doubt",
      "case": "success",
      "end": 1.3,
      "endOffset": 17,
      "phones": [
        {
          "duration": 0.09,
          "phone": "d_B"
        },
        {
          "duration": 0.1,
          "phone": "aw_I"
        },
        {
          "duration": 0.08,
          "phone": "t_E"
        }
      ],
      "start": 1.03,
      "startOffset": 12,
      "word": "DOUBT"
    },
    {
      "alignedWord": "that",
      "case": "success",
      "end": 1.44,
      "endOffset": 22,
      "phones": [
        {
          "duration": 0.05,
          "phone": "dh_B"
        },
        {
          "duration": 0.05,
          "phone": "ah_I"
        },
        {
          "duration": 0.03,
          "phone": "t_E"
        }
      ],
      "start": 1.31,
      "startOffset": 18,
      "word": "THAT"
    },
    {
      "alignedWord": "our",
      "case": "success",
      "end": 1.55,
      "endOffset": 26,
      "phones": [
        {
          "duration": 0.06,
          "phone": "aa_B"
        },
        {
          "duration": 0.05,
          "phone": "r_E"
        }
      ],
      "start": 1.44,
      "startOffset": 23,
      "word": "OUR"
    },
    {
      "alignedWord": "buccaneers",
      "case": "success",
      "end": 2.14,
      "endOffset": 37,
      "phones": [
        {
          "duration": 0.08,
          "phone": "b_B"
        },
        {
          "duration": 0.11,
          "phone": "ah_I"
        },
        {
          "duration": 0.01,
          "phone": "k_I"
        },
        {
          "duration": 0.07,
          "phone": "ah_I"
        },
        {
          "duration": 0.06,
          "phone": "n_I"
        },
        {
          "duration": 0.1,
          "phone": "iy_I"
        },
        {
          "duration": 0.07,
          "phone": "r_I"
        },
        {
          "duration": 0.09,
          "phone": "z_E"
        }
      ],
      "start": 1.55,
      "startOffset": 27,
      "word": "BUCCANEERS"
    },
    {
      "alignedWord": "would",
      "case": "success",
      "end": 2.2600000000000002,
      "endOffset": 43,
      "phones": [
        {
          "duration": 0.05,
          "phone": "w_B"
        },
        {
          "duration": 0.06,
          "phone": "uh_I"
        },
        {
          "duration": 0.01,
          "phone": "d_E"
        }
      ],
      "start": 2.14,
      "startOffset": 38,
      "word": "WOULD"
    },
    {
      "alignedWord": "have",
      "case": "success",
      "end": 2.4,
      "endOffset": 48,
      "phones": [
        {
          "duration": 0.07,
          "phone": "hh_B"
        },
        {
          "duration": 0.01,
          "phone": "ae_I"
        },
        {
          "duration": 0.06,
          "phone": "v_E"
        }
      ],
      "start": 2.26,
      "startOffset": 44,
      "word": "HAVE"
    },
    {
      "alignedWord": "much",
      "case": "success",
      "end": 2.64,
      "endOffset": 53,
      "phones": [
        {
          "duration": 0.08,
          "phone": "m_B"
        },
        {
          "duration": 0.06,
          "phone": "ah_I"
        },
        {
          "duration": 0.08,
          "phone": "ch_E"
        }
      ],
      "start": 2.42,
      "startOffset": 49,
      "word": "MUCH"
    },
    {
      "alignedWord": "preferred",
      "case": "success",
      "end": 3.1,
      "endOffset": 63,
      "phones": [
        {
          "duration": 0.04,
          "phone": "p_B"
        },
        {
          "duration": 0.03,
          "phone": "r_I"
        },
        {
          "duration": 0.05,
          "phone": "ah_I"
        },
        {
          "duration": 0.12,
          "phone": "f_I"
        },
        {
          "duration": 0.14,
          "phone": "er_I"
        },
        {
          "duration": 0.06,
          "phone": "d_E"
        }
      ],
      "start": 2.66,
      "startOffset": 54,
      "word": "PREFERRED"
    },
    {
      "alignedWord": "to",
      "case": "success",
      "end": 3.27,
      "endOffset": 66,
      "phones": [
        {
          "duration": 0.07,
          "phone": "t_B"
        },
        {
          "duration": 0.1,
          "phone": "uw_E"
        }
      ],
      "start": 3.1,
      "startOffset": 64,
      "word": "TO"
    },
    {
      "alignedWord": "have",
      "case": "success",
      "end": 3.41,
      "endOffset": 71,
      "phones": [
        {
          "duration": 0.05,
          "phone": "hh_B"
        },
        {
          "duration": 0.05,
          "phone": "ae_I"
        },
        {
          "duration": 0.04,
          "phone": "v_E"
        }
      ],
      "start": 3.27,
      "startOffset": 67,
      "word": "HAVE"
    },
    {
      "alignedWord": "been",
      "case": "success",
      "end": 3.5500000000000003,
      "endOffset": 76,
      "phones": [
        {
          "duration": 0.04,
          "phone": "b_B"
        },
        {
          "duration": 0.05,
          "phone": "ih_I"
        },
        {
          "duration": 0.05,
          "phone": "n_E"
        }
      ],
      "start": 3.41,
      "startOffset": 72,
      "word": "BEEN"
    },
    {
      "alignedWord": "put",
      "case": "success",
      "end": 3.7399999999999998,
      "endOffset": 80,
      "phones": [
        {
          "duration": 0.06,
          "phone": "p_B"
        },
        {
          "duration": 0.08,
          "phone": "uh_I"
        },
        {
          "duration": 0.05,
          "phone": "t_E"
        }
      ],
      "start": 3.55,
      "startOffset": 77,
      "word": "PUT"
    },
    {
      "alignedWord": "on",
      "case": "success",
      "end": 3.89,
      "endOffset": 83,
      "phones": [
        {
          "duration": 0.07,
          "phone": "aa_B"
        },
        {
          "duration": 0.08,
          "phone": "n_E"
        }
      ],
      "start": 3.74,
      "startOffset": 81,
      "word": "ON"
    },
    {
      "alignedWord": "board",
      "case": "success",
      "end": 4.13,
      "endOffset": 89,
      "phones": [
        {
          "duration": 0.05,
          "phone": "b_B"
        },
        {
          "duration": 0.08,
          "phone": "ao_I"
        },
        {
          "duration": 0.05,
          "phone": "r_I"
        },
        {
          "duration": 0.06,
          "phone": "d_E"
        }
      ],
      "start": 3.89,
      "startOffset": 84,
      "word": "BOARD"
    },
    {
      "alignedWord": "the",
      "case": "success",
      "end": 4.2,
      "endOffset": 93,
      "phones": [
        {
          "duration": 0.01,
          "phone": "dh_B"
        },
        {
          "duration": 0.06,
          "phone": "ah_E"
        }
      ],
      "start": 4.13,
      "startOffset": 90,
      "word": "THE"
    },
    {
      "alignedWord": "french",
      "case": "success",
      "end": 4.48,
      "endOffset": 100,
      "phones": [
        {
          "duration": 0.06,
          "phone": "f_B"
        },
        {
          "duration": 0.05,
          "phone": "r_I"
        },
        {
          "duration": 0.04,
          "phone": "eh_I"
        },
        {
          "duration": 0.06,
          "phone": "n_I"
        },
        {
          "duration": 0.07,
          "phone": "ch_E"
        }
      ],
      "start": 4.2,
      "startOffset": 94,
      "word": "FRENCH"
    },
    {
      "alignedWord": "vessel",
      "case": "success",
      "end": 4.930000000000001,
      "endOffset": 107,
      "phones": [
        {
          "duration": 0.08,
          "phone": "v_B"
        },
        {
          "duration": 0.08,
          "phone": "eh_I"
        },
        {
          "duration": 0.06,
          "phone": "s_I"
        },
        {
          "duration": 0.07,
          "phone": "ah_I"
        },
        {
          "duration": 0.16,
          "phone": "l_E"
        }
      ],
      "start": 4.48,
      "startOffset": 101,
      "word": "VESSEL"
    },
    {
      "alignedWord": "but",
      "case": "success",
      "end": 5.58,
      "endOffset": 111,
      "phones": [
        {
          "duration": 0.09,
          "phone": "b_B"
        },
        {
          "duration": 0.07,
          "phone": "ah_I"
        },
        {
          "duration": 0.04,
          "phone": "t_E"
        }
      ],
      "start": 5.38,
      "startOffset": 108,
      "word": "BUT"
    },
    {
      "alignedWord": "as",
      "case": "success",
      "end": 5.72,
      "endOffset": 114,
      "phones": [
        {
          "duration": 0.06,
          "phone": "ae_B"
        },
        {
          "duration": 0.08,
          "phone": "z_E"
        }
      ],
      "start": 5.58,
      "startOffset": 112,
      "word": "AS"
    },
    {
      "alignedWord": "the",
      "case": "success",
      "end": 5.84,
      "endOffset": 118,
      "phones": [
        {
          "duration": 0.07,
          "phone": "dh_B"
        },
        {
          "duration": 0.05,
          "phone": "ah_E"
        }
      ],
      "start": 5.72,
      "startOffset": 115,
      "word": "THE"
    },
    {
      "alignedWord": "spanish",
      "case": "success",
      "end": 6.3,
      "endOffset": 126,
      "phones": [
        {
          "duration": 0.09,
          "phone": "s_B"
        },
        {
          "duration": 0.08,
          "phone": "p_I"
        },
        {
          "duration": 0.07,
          "phone": "ae_I"
        },
        {
          "duration": 0.04,
          "phone": "n_I"
        },
        {
          "duration": 0.06,
          "phone": "ih_I"
        },
        {
          "duration": 0.12,
          "phone": "sh_E"
        }
      ],
      "start": 5.84,
      "startOffset": 119,
      "word": "SPANISH"
    },
    {
      "alignedWord": "governor",
      "case": "success",
      "end": 6.81,
      "endOffset": 135,
      "phones": [
        {
          "duration": 0.07,
          "phone": "g_B"
        },
        {
          "duration": 0.08,
          "phone": "ah_I"
        },
        {
          "duration": 0.04,
          "phone": "v_I"
        },
        {
          "duration": 0.06,
          "phone": "er_I"
        },
        {
          "duration": 0.06,
          "phone": "n_I"
        },
        {
          "duration": 0.2,
          "phone": "er_E"
        }
      ],
      "start": 6.3,
      "startOffset": 127,
      "word": "GOVERNOR"
    },
    {
      "alignedWord": "had",
      "case": "success",
      "end": 7.3500000000000005,
      "endOffset": 139,
      "phones": [
        {
          "duration": 0.08,
          "phone": "hh_B"
        },
        {
          "duration": 0.04,
          "phone": "ae_I"
        },
        {
          "duration": 0.07,
          "phone": "d_E"
        }
      ],
      "start": 7.16,
      "startOffset": 136,
      "word": "HAD"
    },
    {
      "alignedWord": "started",
      "case": "success",
      "end": 7.739999999999999,
      "endOffset": 147,
      "phones": [
        {
          "duration": 0.08,
          "phone": "s_B"
        },
        {
          "duration": 0.07,
          "phone": "t_I"
        },
        {
          "duration": 0.07,
          "phone": "aa_I"
        },
        {
          "duration": 0.05,
          "phone": "r_I"
        },
        {
          "duration": 0.01,
          "phone": "t_I"
        },
        {
          "duration": 0.03,
          "phone": "ih_I"
        },
        {
          "duration": 0.08,
          "phone": "d_E"
        }
      ],
      "start": 7.35,
      "startOffset": 140,
      "word": "STARTED"
    },
    {
      "alignedWord": "his",
      "case": "success",
      "end": 7.96,
      "endOffset": 151,
      "phones": [
        {
          "duration": 0.06,
          "phone": "hh_B"
        },
        {
          "duration": 0.07,
          "phone": "ih_I"
        },
        {
          "duration": 0.09,
          "phone": "z_E"
        }
      ],
      "start": 7.74,
      "startOffset": 148,
      "word": "HIS"
    },
    {
      "alignedWord": "prisoners",
      "case": "success",
      "end": 8.47,
      "endOffset": 161,
      "phones": [
        {
          "duration": 0.04,
          "phone": "p_B"
        },
        {
          "duration": 0.04,
          "phone": "r_I"
        },
        {
          "duration": 0.11,
          "phone": "ih_I"
        },
        {
          "duration": 0.07,
          "phone": "z_I"
        },
        {
          "duration": 0.06,
          "phone": "n_I"
        },
        {
          "duration": 0.08,
          "phone": "er_I"
        },
        {
          "duration": 0.11,
          "phone": "z_E"
        }
      ],
      "start": 7.96,
      "startOffset": 152,
      "word": "PRISONERS"
    },
    {
      "alignedWord": "on",
      "case": "success",
      "end": 8.67,
      "endOffset": 164,
      "phones": [
        {
          "duration": 0.11,
          "phone": "aa_B"
        },
        {
          "duration": 0.05,
          "phone": "n_E"
        }
      ],
      "start": 8.51,
      "startOffset": 162,
      "word": "ON"
    },
    {
      "alignedWord": "the",
      "case": "success",
      "end": 8.79,
      "endOffset": 168,
      "phones": [
        {
          "duration": 0.05,
          "phone": "dh_B"
        },
        {
          "duration": 0.07,
          "phone": "ah_E"
        }
      ],
      "start": 8.67,
      "startOffset": 165,
      "word": "THE"
    },
    {
      "alignedWord": "road",
      "case": "success",
      "end": 9.04,
      "endOffset": 173,
      "phones": [
        {
          "duration": 0.08,
          "phone": "r_B"
        },
        {
          "duration": 0.09,
          "phone": "ow_I"
        },
        {
          "duration": 0.08,
          "phone": "d_E"
        }
      ],
      "start": 8.79,
      "startOffset": 169,
      "word": "ROAD"
    },
    {
      "alignedWord": "to",
      "case": "success",
      "end": 9.159999999999998,
      "endOffset": 176,
      "phones": [
        {
          "duration": 0.03,
          "phone": "t_B"
        },
        {
          "duration": 0.09,
          "phone": "ah_E"
        }
      ],
      "start": 9.04,
      "startOffset": 174,
      "word": "TO"
    },
    {
      "alignedWord": "reform",
      "case": "success",
      "end": 9.74,
      "endOffset": 183,
      "phones": [
        {
          "duration": 0.03,
          "phone": "r_B"
        },
        {
          "duration": 0.09,
          "phone": "ah_I"
        },
        {
          "duration": 0.1,
          "phone": "f_I"
        },
        {
          "duration": 0.13,
          "phone": "ao_I"
        },
        {
          "duration": 0.09,
          "phone": "r_I"
        },
        {
          "duration": 0.14,
          "phone": "m_E"
        }
      ],
      "start": 9.16,
      "startOffset": 177,
      "word": "REFORM"
    },
    {
      "alignedWord": "he",
      "case": "success",
      "end": 10.629999999999999,
      "endOffset": 186,
      "phones": [
        {
          "duration": 0.12,
          "phone": "hh_B"
        },
        {
          "duration": 0.07,
          "phone": "iy_E"
        }
      ],
      "start": 10.44,
      "startOffset": 184,
      "word": "HE"
    },
    {
      "alignedWord": "did",
      "case": "success",
      "end": 10.790000000000001,
      "endOffset": 190,
      "phones": [
        {
          "duration": 0.05,
          "phone": "d_B"
        },
        {
          "duration": 0.06,
          "phone": "ih_I"
        },
        {
          "duration": 0.05,
          "phone": "d_E"
        }
      ],
      "start": 10.63,
      "startOffset": 187,
      "word": "DID"
    },
    {
      "alignedWord": "not",
      "case": "success",
      "end": 11.0,
      "endOffset": 194,
      "phones": [
        {
          "duration": 0.03,
          "phone": "n_B"
        },
        {
          "duration": 0.1,
          "phone": "aa_I"
        },
        {
          "duration": 0.08,
          "phone": "t_E"
        }
      ],
      "start": 10.79,
      "startOffset": 191,
      "word": "NOT"
    },
    {
      "alignedWord": "wish",
      "case": "success",
      "end": 11.22,
      "endOffset": 199,
      "phones": [
        {
          "duration": 0.06,
          "phone": "w_B"
        },
        {
          "duration": 0.08,
          "phone": "ih_I"
        },
        {
          "duration": 0.08,
          "phone": "sh_E"
        }
      ],
      "start": 11.0,
      "startOffset": 195,
      "word": "WISH"
    },
    {
      "alignedWord": "to",
      "case": "success",
      "end": 11.339998999999999,
      "endOffset": 202,
      "phones": [
        {
          "duration": 0.06,
          "phone": "t_B"
        },
        {
          "duration": 0.06,
          "phone": "ah_E"
        }
      ],
      "start": 11.219999,
      "startOffset": 200,
      "word": "TO"
    },
    {
      "alignedWord": "throw",
      "case": "success",
      "end": 11.66,
      "endOffset": 208,
      "phones": [
        {
          "duration": 0.12,
          "phone": "th_B"
        },
        {
          "duration": 0.07,
          "phone": "r_I"
        },
        {
          "duration": 0.13,
          "phone": "ow_E"
        }
      ],
      "start": 11.34,
      "startOffset": 203,
      "word": "THROW"
    },
    {
      "alignedWord": "them",
      "case": "success",
      "end": 11.86,
      "endOffset": 213,
      "phones": [
        {
          "duration": 0.05,
          "phone": "dh_B"
        },
        {
          "duration": 0.07,
          "phone": "ah_I"
        },
        {
          "duration": 0.08,
          "phone": "m_E"
        }
      ],
      "start": 11.66,
      "startOffset": 209,
      "word": "THEM"
    },
    {
      "alignedWord": "into",
      "case": "success",
      "end": 12.15,
      "endOffset": 218,
      "phones": [
        {
          "duration": 0.12,
          "phone": "ih_B"
        },
        {
          "duration": 0.06,
          "phone": "n_I"
        },
        {
          "duration": 0.03,
          "phone": "t_I"
        },
        {
          "duration": 0.06,
          "phone": "uw_E"
        }
      ],
      "start": 11.88,
      "startOffset": 214,
      "word": "INTO"
    },
    {
      "alignedWord": "the",
      "case": "success",
      "end": 12.25,
      "endOffset": 222,
      "phones": [
        {
          "duration": 0.05,
          "phone": "dh_B"
        },
        {
          "duration": 0.05,
          "phone": "ah_E"
        }
      ],
      "start": 12.15,
      "startOffset": 219,
      "word": "THE"
    },
    {
      "alignedWord": "way",
      "case": "success",
      "end": 12.46,
      "endOffset": 226,
      "phones": [
        {
          "duration": 0.12,
          "phone": "w_B"
        },
        {
          "duration": 0.09,
          "phone": "ey_E"
        }
      ],
      "start": 12.25,
      "startOffset": 223,
      "word": "WAY"
    },
    {
      "alignedWord": "of",
      "case": "success",
      "end": 12.58,
      "endOffset": 229,
      "phones": [
        {
          "duration": 0.04,
          "phone": "ah_B"
        },
        {
          "duration": 0.08,
          "phone": "v_E"
        }
      ],
      "start": 12.46,
      "startOffset": 227,
      "word": "OF"
    },
    {
      "alignedWord": "temptation",
      "case": "success",
      "end": 13.28,
      "endOffset": 240,
      "phones": [
        {
          "duration": 0.06,
          "phone": "t_B"
        },
        {
          "duration": 0.08,
          "phone": "eh_I"
        },
        {
          "duration": 0.07,
          "phone": "m_I"
        },
        {
          "duration": 0.09,
          "phone": "t_I"
        },
        {
          "duration": 0.11,
          "phone": "ey_I"
        },
        {
          "duration": 0.09,
          "phone": "sh_I"
        },
        {
          "duration": 0.06,
          "phone": "ah_I"
        },
        {
          "duration": 0.14,
          "phone": "n_E"
        }
      ],
      "start": 12.58,
      "startOffset": 230,
      "word": "TEMPTATION"
    }
  ]
}