{
  "transcript": "AND WITH A GOOD MANY MORE BROAD BACKED HAIRY MARINERS THAN WERE NECESSARY PULLING AT THE OARS THAN THEY GAVE THE ALARM",
  "words": [
    {
      "alignedWord": "and",
      "case": "success",
      "end": 0.47,
      "endOffset": 3,
      "phones": [
        {
          "duration": 0.1,
          "phone": "ae_B"
        },
        {
          "duration": 0.05,
          "phone": "n_I"
        },
        {
          "duration": 0.06,
          "phone": "d_E"
        }
      ],
      "start": 0.26,
      "startOffset": 0,
      "word": "AND"
    },
    {
      "alignedWord": "with",
      "case": "success",
      "end": 0.63,
      "endOffset": 8,
      "phones": [
        {
          "duration": 0.03,
          "phone": "w_B"
        },
        {
          "duration": 0.05,
          "phone": "ih_I"
        },
        {
          "duration": 0.08,
          "phone": "th_E"
        }
      ],
      "start": 0.47,
      "startOffset": 4,
      "word": "WITH"
    },
    {
      "alignedWord": "a",
      "case": "success",
      "end": 0.76,
      "endOffset": 10,
      "phones": [
        {
          "duration": 0.13,
          "phone": "ah_S"
        }
      ],
      "start": 0.63,
      "startOffset": 9,
      "word": "A"
    },
    {
      "alignedWord": "good",
      "case": "success",
      "end": 1.04,
      "endOffset": 15,
      "phones": [
        {
          "duration": 0.11,
          "phone": "g_B"
        },
        {
          "duration": 0.07,
          "phone": "uh_I"
        },
        {
          "duration": 0.09,
          "phone": "d_E"
        }
      ],
      "start": 0.77,
      "startOffset": 11,
      "word": "GOOD"
    },
    {
      "alignedWord": "many",
      "case": "success",
      "end": 1.3,
      "endOffset": 20,
      "phones": [
        {
          "duration": 0.05,
          "phone": "m_B"
        },
        {
          "duration": 0.08,
          "phone": "eh_I"
        },
        {
          "duration": 0.05,
          "phone": "n_I"
        },
        {
          "duration": 0.08,
          "phone": "iy_E"
        }
      ],
      "start": 1.04,
      "startOffset": 16,
      "word": "MANY"
    },
    {
      "alignedWord": "more",
      "case": "success",
      "end": 1.6800000000000002,
      "endOffset": 25,
      "phones": [
        {
          "duration": 0.1,
          "phone": "m_B"
        },
        {
          "duration": 0.15,
          "phone": "ao_I"
        },
        {
          "duration": 0.13,
          "phone": "r_E"
        }
      ],
      "start": 1.3,
      "startOffset": 21,
      "word": "MORE"
    },
    {
      "alignedWord": "broad",
      "case": "success",
      "end": 2.1,
      "endOffset": 31,
      "phones": [
        {
          "duration": 0.12,
          "phone": "b_B"
        },
        {
          "duration": 0.09,
          "phone": "r_I"
        },
        {
          "duration": 0.13,
          "phone": "ao_I"
        },
        {
          "duration": 0.07,
          "phone": "d_E"
        }
      ],
      "start": 1.69,
      "startOffset": 26,
      "word": "BROAD"
    },
    {
      "alignedWord": "backed",
      "case": "success",
      "end": 2.53,
      "endOffset": 38,
      "phones": [
        {
          "duration": 0.08,
          "phone": "b_B"
        },
        {
          "duration": 0.11,
          "phone": "ae_I"
        },
        {
          "duration": 0.07,
          "phone": "k_I"
        },
        {
          "duration": 0.16,
          "phone": "t_E"
        }
      ],
      "start": 2.11,
      "startOffset": 32,
      "word": "BACKED"
    },
    {
      "alignedWord": "hairy",
      "case": "success",
      "end": 3.11,
      "endOffset": 44,
      "phones": [
        {
          "duration": 0.12,
          "phone": "hh_B"
        },
        {
          "duration": 0.06,
          "phone": "eh_I"
        },
        {
          "duration": 0.1,
          "phone": "r_I"
        },
        {
          "duration": 0.08,
          "phone": "iy_E"
        }
      ],
      "start": 2.75,
      "startOffset": 39,
      "word": "HAIRY"
    },
    {
      "alignedWord": "mariners",
      "case": "success",
      "end": 3.66,
      "endOffset": 53,
      "phones": [
        {
          "duration": 0.05,
          "phone": "m_B"
        },
        {
          "duration": 0.12,
          "phone": "eh_I"
        },
        {
          "duration": 0.04,
          "phone": "r_I"
        },
        {
          "duration": 0.06,
          "phone": "ah_I"
        },
        {
          "duration": 0.07,
          "phone": "n_I"
        },
        {
          "duration": 0.1,
          "phone": "er_I"
        },
        {
          "duration": 0.11,
          "phone": "z_E"
        }
      ],
      "start": 3.11,
      "startOffset": 45,
      "word": "MARINERS"
    },
    {
      "alignedWord": "than",
      "case": "success",
      "end": 3.8000000000000003,
      "endOffset": 58,
      "phones": [
        {
          "duration": 0.02,
          "phone": "dh_B"
        },
        {
          "duration": 0.06,
          "phone": "ah_I"
        },
        {
          "duration": 0.06,
          "phone": "n_E"
        }
      ],
      "start": 3.66,
      "startOffset": 54,
      "word": "THAN"
    },
    {
      "alignedWord": "were",
      "case": "success",
      "end": 3.96,
      "endOffset": 63,
      "phones": [
        {
          "duration": 0.07,
          "phone": "w_B"
        },
        {
          "duration": 0.09,
          "phone": "er_E"
        }
      ],
      "start": 3.8,
      "startOffset": 59,
      "word": "WERE"
    },
    {
      "alignedWord": "necessary",
      "case": "success",
      "end": 4.65,
      "endOffset": 73,
      "phones": [
        {
          "duration": 0.08,
          "phone": "n_B"
        },
        {
          "duration": 0.06,
          "phone": "eh_I"
        },
        {
          "duration": 0.09,
          "phone": "s_I"
        },
        {
          "duration": 0.06,
          "phone": "ah_I"
        },
        {
          "duration": 0.08,
          "phone": "s_I"
        },
        {
          "duration": 0.08,
          "phone": "eh_I"
        },
        {
          "duration": 0.1,
          "phone": "r_I"
        },
        {
          "duration": 0.14,
          "phone": "iy_E"
        }
      ],
      "start": 3.96,
      "startOffset": 64,
      "word": "NECESSARY"
    },
    {
      "alignedWord": "pulling",
      "case": "success",
      "end": 5.069999999999999,
      "endOffset": 81,
      "phones": [
        {
          "duration": 0.05,
          "phone": "p_B"
        },
        {
          "duration": 0.09,
          "phone": "uh_I"
        },
        {
          "duration": 0.05,
          "phone": "l_I"
        },
        {
          "duration": 0.07,
          "phone": "ih_I"
        },
        {
          "duration": 0.05,
          "phone": "ng_E"
        }
      ],
      "start": 4.76,
      "startOffset": 74,
      "word": "PULLING"
    },
    {
      "alignedWord": "at",
      "case": "success",
      "end": 5.180000000000001,
      "endOffset": 84,
      "phones": [
        {
          "duration": 0.04,
          "phone": "ae_B"
        },
        {
          "duration": 0.07,
          "phone": "t_E"
        }
      ],
      "start": 5.07,
      "startOffset": 82,
      "word": "AT"
    },
    {
      "alignedWord": "the",
      "case": "success",
      "end": 5.3,
      "endOffset": 88,
      "phones": [
        {
          "duration": 0.04,
          "phone": "dh_B"
        },
        {
          "duration": 0.08,
          "phone": "iy_E"
        }
      ],
      "start": 5.18,
      "startOffset": 85,
      "word": "THE"
    },
    {
      "alignedWord": "oars",
      "case": "success",
      "end": 5.77,
      "endOffset": 93,
      "phones": [
        {
          "duration": 0.15,
          "phone": "ao_B"
        },
        {
          "duration": 0.11,
          "phone": "r_I"
        },
        {
          "duration": 0.21,
          "phone": "z_E"
        }
      ],
      "start": 5.3,
      "startOffset": 89,
      "word": "OARS"
    },
    {
      "alignedWord": "than",
      "case": "success",
      "end": 6.34,
      "endOffset": 98,
      "phones": [
        {
          "duration": 0.07,
          "phone": "dh_B"
        },
        {
          "duration": 0.07,
          "phone": "ah_I"
        },
        {
          "duration": 0.08,
          "phone": "n_E"
        }
      ],
      "start": 6.12,
      "startOffset": 94,
      "word": "THAN"
    },
    {
      "alignedWord": "they",
      "case": "success",
      "end": 6.4399999999999995,
      "endOffset": 103,
      "phones": [
        {
          "duration": 0.04,
          "phone": "dh_B"
        },
        {
          "duration": 0.06,
          "phone": "ey_E"
        }
      ],
      "start": 6.34,
      "startOffset": 99,
      "word": "THEY"
    },
    {
      "alignedWord": "gave",
      "case": "success",
      "end": 6.7,
      "endOffset": 108,
      "phones": [
        {
          "duration": 0.1,
          "phone": "g_B"
        },
        {
          "duration": 0.08,
          "phone": "ey_I"
        },
        {
          "duration": 0.08,
          "phone": "v_E"
        }
      ],
      "start": 6.44,
      "startOffset": 104,
      "word": "GAVE"
    },
    {
      "alignedWord": "the",
      "case": "success",
      "end": 6.8,
      "endOffset": 112,
      "phones": [
        {
          "duration": 0.04,
          "phone": "dh_B"
        },
        {
          "duration": 0.06,
          "phone": "iy_E"
        }
      ],
      "start": 6.7,
      "startOffset": 109,
      "word": "THE"
    },
    {
      "alignedWord": "alarm",
      "case": "success",
      "end": 7.279999999999999,
      "endOffset": 118,
      "phones": [
        {
          "duration": 0.07,
          "phone": "ah_B"
        },
        {
          "duration": 0.09,
          "phone": "l_I"
        },
        {
          "duration": 0.14,
          "phone": "aa_I"
        },
        {
          "duration": 0.08,
          "phone": "r_I"
        },
        {
          "duration": 0.1,
          "phone": "m_E"
        }
      ],
      "start": 6.8,
      "startOffset": 113,
      "word": "ALARM"
    }
  ]
}