{
  "transcript": "THE STATES THOUGH MUCH PERPLEXED TO FIND A SUCCESSOR TO MARTIN TROMP WERE SO FAR FROM BEING DISCOURAGED THAT GREAT ENERGY WAS SHOWN IN REORGANISING THE FLEET",
  "words": [
    {
      "alignedWord": "the",
      "case": "success",
      "end": 0.43000000000000005,
      "endOffset": 3,
      "phones": [
        {
          "duration": 0.08,
          "phone": "dh_B"
        },
        {
          "duration": 0.07,
          "phone": "ah_E"
        }
      ],
      "start": 0.28,
      "startOffset": 0,
      "word": "THE"
    },
    {
      "alignedWord": "states",
      "case": "success",
      "end": 0.96,
      "endOffset": 10,
      "phones": [
        {
          "duration": 0.09,
          "phone": "s_B"
        },
        {
          "duration": 0.09,
          "phone": "t_I"
        },
        {
          "duration": 0.14,
          "phone": "ey_I"
        },
        {
          "duration": 0.08,
          "phone": "t_I"
        },
        {
          "duration": 0.13,
          "phone": "s_E"
        }
      ],
      "start": 0.43,
      "startOffset": 4,
      "word": "STATES"
    },
    {
      "alignedWord": "though",
      "case": "success",
      "end": 1.18,
      "endOffset": 17,
      "phones": [
        {
          "duration": 0.09,
          "phone": "dh_B"
        },
        {
          "duration": 0.09,
          "phone": "ow_E"
        }
      ],
      "start": 1.0,
      "startOffset": 11,
      "word": "THOUGH"
    },
    {
      "alignedWord": "much",
      "case": "success",
      "end": 1.44,
      "endOffset": 22,
      "phones": [
        {
          "duration": 0.08,
          "phone": "m_B"
        },
        {
          "duration": 0.08,
          "phone": "ah_I"
        },
        {
          "duration": 0.1,
          "phone": "ch_E"
        }
      ],
      "start": 1.18,
      "startOffset": 18,
      "word": "MUCH"
    },
    {
      "alignedWord": "perplexed",
      "case": "success",
      "end": 2.13,
      "endOffset": 32,
      "phones": [
        {
          "duration": 0.07,
          "phone": "p_B"
        },
        {
          "duration": 0.08,
          "phone": "er_I"
        },
        {
          "duration": 0.1,
          "phone": "p_I"
        },
        {
          "duration": 0.08,
          "phone": "l_I"
        },
        {
          "duration": 0.08,
          "phone": "eh_I"
        },
        {
          "duration": 0.08,
          "phone": "k_I"
        },
        {
          "duration": 0.07,
          "phone": "s_I"
        },
        {
          "duration": 0.12,
          "phone": "t_E"
        }
      ],
      "start": 1.45,
      "startOffset": 23,
      "word": "PERPLEXED"
    },
    {
      "alignedWord": "to",
      "case": "success",
      "end": 2.3200000000000003,
      "endOffset": 35,
      "phones": [
        {
          "duration": 0.08,
          "phone": "t_B"
        },
        {
          "duration": 0.04,
          "phone": "ah_E"
        }
      ],
      "start": 2.2,
      "startOffset": 33,
      "word": "TO"
    },
    {
      "alignedWord": "find",
      "case": "success",
      "end": 2.6199999999999997,
      "endOffset": 40,
      "phones": [
        {
          "duration": 0.1,
          "phone": "f_B"
        },
        {
          "duration": 0.09,
          "phone": "ay_I"
        },
        {
          "duration": 0.04,
          "phone": "n_I"
        },
        {
          "duration": 0.07,
          "phone": "d_E"
        }
      ],
      "start": 2.32,
      "startOffset": 36,
      "word": "FIND"
    },
    {
      "alignedWord": "a",
      "case": "success",
      "end": 2.69,
      "endOffset": 42,
      "phones": [
        {
          "duration": 0.07,
          "phone": "ey_S"
        }
      ],
      "start": 2.62,
      "startOffset": 41,
      "word": "A"
    },
    {
      "alignedWord": "successor",
      "case": "success",
      "end": 3.25,
      "endOffset": 52,
      "phones": [
        {
          "duration": 0.06,
          "phone": "s_B"
        },
        {
          "duration": 0.07,
          "phone": "ah_I"
        },
        {
          "duration": 0.06,
          "phone": "k_I"
        },
        {
          "duration": 0.08,
          "phone": "s_I"
        },
        {
          "duration": 0.1,
          "phone": "eh_I"
        },
        {
          "duration": 0.1,
          "phone": "s_I"
        },
        {
          "duration": 0.07,
          "phone": "er_E"
        }
      ],
      "start": 2.71,
      "startOffset": 43,
      "word": "SUCCESSOR"
    },
    {
      "alignedWord": "to",
      "case": "success",
      "end": 3.38,
      "endOffset": 55,
      "phones": [
        {
          "duration": 0.07,
          "phone": "t_B"
        },
        {
          "duration": 0.06,
          "phone": "ah_E"
        }
      ],
      "start": 3.25,
      "startOffset": 53,
      "word": "TO"
    },
    {
      "alignedWord": "martin",
      "case": "success",
      "end": 3.7399999999999998,
      "endOffset": 62,
      "phones": [
        {
          "duration": 0.06,
          "phone": "m_B"
        },
        {
          "duration": 0.06,
          "phone": "aa_I"
        },
        {
          "duration": 0.04,
          "phone": "r_I"
        },
        {
          "duration": 0.07,
          "phone": "t_I"
        },
        {
          "duration": 0.06,
          "phone": "ah_I"
        },
        {
          "duration": 0.07,
          "phone": "n_E"
        }
      ],
      "start": 3.38,
      "startOffset": 56,
      "word": "MARTIN"
    },
    {
      "alignedWord": "tromp",
      "case": "success",
      "end": 4.16,
      "endOffset": 68,
      "phones": [
        {
          "duration": 0.08,
          "phone": "t_B"
        },
        {
          "duration": 0.07,
          "phone": "r_I"
        },
        {
          "duration": 0.11,
          "phone": "aa_I"
        },
        {
          "duration": 0.02,
          "phone": "m_I"
        },
        {
          "duration": 0.14,
          "phone": "p_E"
        }
      ],
      "start": 3.74,
      "startOffset": 63,
      "word": "TROMP"
    },
    {
      "alignedWord": "were",
      "case": "success",
      "end": 4.51,
      "endOffset": 73,
      "phones": [
        {
          "duration": 0.1,
          "phone": "w_B"
        },
        {
          "duration": 0.07,
          "phone": "er_E"
        }
      ],
      "start": 4.34,
      "startOffset": 69,
      "word": "WERE"
    },
    {
      "alignedWord": "so",
      "case": "success",
      "end": 4.76,
      "endOffset": 76,
      "phones": [
        {
          "duration": 0.12,
          "phone": "s_B"
        },
        {
          "duration": 0.13,
          "phone": "ow_E"
        }
      ],
      "start": 4.51,
      "startOffset": 74,
      "word": "SO"
    },
    {
      "alignedWord": "far",
      "case": "success",
      "end": 5.04,
      "endOffset": 80,
      "phones": [
        {
          "duration": 0.1,
          "phone": "f_B"
        },
        {
          "duration": 0.08,
          "phone": "aa_I"
        },
        {
          "duration": 0.1,
          "phone": "r_E"
        }
      ],
      "start": 4.76,
      "startOffset": 77,
      "word": "FAR"
    },
    {
      "alignedWord": "from",
      "case": "success",
      "end": 5.22,
      "endOffset": 85,
      "phones": [
        {
          "duration": 0.05,
          "phone": "f_B"
        },
        {
          "duration": 0.07,
          "phone": "er_I"
        },
        {
          "duration": 0.06,
          "phone": "m_E"
        }
      ],
      "start": 5.04,
      "startOffset": 81,
      "word": "FROM"
    },
    {
      "alignedWord": "being",
      "case": "success",
      "end": 5.42,
      "endOffset": 91,
      "phones": [
        {
          "duration": 0.06,
          "phone": "b_B"
        },
        {
          "duration": 0.04,
          "phone": "iy_I"
        },
        {
          "duration": 0.05,
          "phone": "ih_I"
        },
        {
          "duration": 0.05,
          "phone": "ng_E"
        }
      ],
      "start": 5.22,
      "startOffset": 86,
      "word": "BEING"
    },
    {
      "alignedWord": "discouraged",
      "case": "success",
      "end": 6.03,
      "endOffset": 103,
      "phones": [
        {
          "duration": 0.05,
          "phone": "d_B"
        },
        {
          "duration": 0.06,
          "phone": "ih_I"
        },
        {
          "duration": 0.07,
          "phone": "s_I"
        },
        {
          "duration": 0.08,
          "phone": "k_I"
        },
        {
          "duration": 0.11,
          "phone": "er_I"
        },
        {
          "duration": 0.06,
          "phone": "ah_I"
        },
        {
          "duration": 0.12,
          "phone": "jh_I"
        },
        {
          "duration": 0.06,
          "phone": "d_E"
        }
      ],
      "start": 5.42,
      "startOffset": 92,
      "word": "DISCOURAGED"
    },
    {
      "alignedWord": "that",
      "case": "success",
      "end": 6.140000000000001,
      "endOffset": 108,
      "phones": [
        {
          "duration": 0.01,
          "phone": "dh_B"
        },
        {
          "duration": 0.03,
          "phone": "ae_I"
        },
        {
          "duration": 0.07,
          "phone": "t_E"
        }
      ],
      "start": 6.03,
      "startOffset": 104,
      "word": "THAT"
    },
    {
      "alignedWord": "great",
      "case": "success",
      "end": 6.39,
      "endOffset": 114,
      "phones": [
        {
          "duration": 0.06,
          "phone": "g_B"
        },
        {
          "duration": 0.08,
          "phone": "r_I"
        },
        {
          "duration": 0.04,
          "phone": "ey_I"
        },
        {
          "duration": 0.07,
          "phone": "t_E"
        }
      ],
      "start": 6.14,
      "startOffset": 109,
      "word": "GREAT"
    },
    {
      "alignedWord": "energy",
      "case": "success",
      "end": 6.78,
      "endOffset": 121,
      "phones": [
        {
          "duration": 0.08,
          "phone": "eh_B"
        },
        {
          "duration": 0.05,
          "phone": "n_I"
        },
        {
          "duration": 0.06,
          "phone": "er_I"
        },
        {
          "duration": 0.12,
          "phone": "jh_I"
        },
        {
          "duration": 0.07,
          "phone": "iy_E"
        }
      ],
      "start": 6.4,
      "startOffset": 115,
      "word": "ENERGY"
    },
    {
      "alignedWord": "was",
      "case": "success",
      "end": 6.92,
      "endOffset": 125,
      "phones": [
        {
          "duration": 0.04,
          "phone": "w_B"
        },
        {
          "duration": 0.05,
          "phone": "ah_I"
        },
        {
          "duration": 0.05,
          "phone": "z_E"
        }
      ],
      "start": 6.78,
      "startOffset": 122,
      "word": "WAS"
    },
    {
      "alignedWord": "shown",
      "case": "success",
      "end": 7.21,
      "endOffset": 131,
      "phones": [
        {
          "duration": 0.13,
          "phone": "sh_B"
        },
        {
          "duration": 0.09,
          "phone": "ow_I"
        },
        {
          "duration": 0.07,
          "phone": "n_E"
        }
      ],
      "start": 6.92,
      "startOffset": 126,
      "word": "SHOWN"
    },
    {
      "alignedWord": "in",
      "case": "success",
      "end": 7.34,
      "endOffset": 134,
      "phones": [
        {
          "duration": 0.06,
          "phone": "ih_B"
        },
        {
          "duration": 0.07,
          "phone": "n_E"
        }
      ],
      "start": 7.21,
      "startOffset": 132,
      "word": "IN"
    },
    {
      "alignedWord": "<unk>",
      "case": "success",
      "end": 8.11,
      "endOffset": 147,
      "phones": [
        {
          "duration": 0.77,
          "phone": "oov_S"
        }
      ],
      "start": 7.34,
      "startOffset": 135,
      "word": "REORGANISING"
    },
    {
      "alignedWord": "the",
      "case": "success",
      "end": 8.229999999999999,
      "endOffset": 151,
      "phones": [
        {
          "duration": 0.06,
          "phone": "dh_B"
        },
        {
          "duration": 0.05,
          "phone": "ah_E"
        }
      ],
      "start": 8.12,
      "startOffset": 148,
      "word": "THE"
    },
    {
      "alignedWord": "fleet",
      "case": "success",
      "end": 8.620000000000001,
      "endOffset": 157,
      "phones": [
        {
          "duration": 0.09,
          "phone": "f_B"
        },
        {
          "duration": 0.08,
          "phone": "l_I"
        },
        {
          "duration": 0.07,
          "phone": "iy_I"
        },
        {
          "duration": 0.15,
          "phone": "t_E"
        }
      ],
      "start": 8.23,
      "startOffset": 152,
      "word": "FLEET"
    }
  ]
}