{
  "transcript": "THE RIGHT OF SEARCH AND THE STRIKING OF THE FLAG THAT WERE TO BE THE REAL CAUSES OF THE OUTBREAK OF A WAR THAT WAS DESIRED BY NEITHER OF THE TWO GOVERNMENTS BUT POPULAR FEELING AND THE COURSE OF EVENTS WAS TOO STRONG FOR THEM THE NEWS OF THE SEIZURE OF THEIR VESSELS",
  "words": [
    {
      "alignedWord": "the",
      "case": "success",
      "end": 0.3,
      "endOffset": 3,
      "phones": [
        {
          "duration": 0.08,
          "phone": "dh_B"
        },
        {
          "duration": 0.04,
          "phone": "ah_E"
        }
      ],
      "start": 0.18,
      "startOffset": 0,
      "word": "THE"
    },
    {
      "alignedWord": "right",
      "case": "success",
      "end": 0.53,
      "endOffset": 9,
      "phones": [
        {
          "duration": 0.11,
          "phone": "r_B"
        },
        {
          "duration": 0.06,
          "phone": "ay_I"
        },
        {
          "duration": 0.06,
          "phone": "t_E"
        }
      ],
      "start": 0.3,
      "startOffset": 4,
      "word": "RIGHT"
    },
    {
      "alignedWord": "of",
      "case": "success",
      "end": 0.64,
      "endOffset": 12,
      "phones": [
        {
          "duration": 0.03,
          "phone": "ah_B"
        },
        {
          "duration": 0.08,
          "phone": "v_E"
        }
      ],
      "start": 0.53,
      "startOffset": 10,
      "word": "OF"
    },
    {
      "alignedWord": "search",
      "case": "success",
      "end": 1.1400000000000001,
      "endOffset": 19,
      "phones": [
        {
          "duration": 0.12,
          "phone": "s_B"
        },
        {
          "duration": 0.17,
          "phone": "er_I"
        },
        {
          "duration": 0.21,
          "phone": "ch_E"
        }
      ],
      "start": 0.64,
      "startOffset": 13,
      "word": "SEARCH"
    },
    {
      "alignedWord": "and",
      "case": "success",
      "end": 1.3599999999999999,
      "endOffset": 23,
      "phones": [
        {
          "duration": 0.09,
          "phone": "ae_B"
        },
        {
          "duration": 0.05,
          "phone": "n_I"
        },
        {
          "duration": 0.03,
          "phone": "d_E"
        }
      ],
      "start": 1.19,
      "startOffset": 20,
      "word": "AND"
    },
    {
      "alignedWord": "the",
      "case": "success",
      "end": 1.4500000000000002,
      "endOffset": 27,
      "phones": [
        {
          "duration": 0.02,
          "phone": "dh_B"
        },
        {
          "duration": 0.07,
          "phone": "ah_E"
        }
      ],
      "start": 1.36,
      "startOffset": 24,
      "word": "THE"
    },
    {
      "alignedWord": "striking",
      "case": "success",
      "end": 1.89,
      "endOffset": 36,
      "phones": [
        {
          "duration": 0.04,
          "phone": "s_B"
        },
        {
          "duration": 0.09,
          "phone": "t_I"
        },
        {
          "duration": 0.07,
          "phone": "r_I"
        },
        {
          "duration": 0.07,
          "phone": "ay_I"
        },
        {
          "duration": 0.06,
          "phone": "k_I"
        },
        {
          "duration": 0.06,
          "phone": "ih_I"
        },
        {
          "duration": 0.05,
          "phone": "ng_E"
        }
      ],
      "start": 1.45,
      "startOffset": 28,
      "word": "STRIKING"
    },
    {
      "alignedWord": "of",
      "case": "success",
      "end": 2.01,
      "endOffset": 39,
      "phones": [
        {
          "duration": 0.04,
          "phone": "ah_B"
        },
        {
          "duration": 0.08,
          "phone": "v_E"
        }
      ],
      "start": 1.89,
      "startOffset": 37,
      "word": "OF"
    },
    {
      "alignedWord": "the",
      "case": "success",
      "end": 2.0799999999999996,
      "endOffset": 43,
      "phones": [
        {
          "duration": 0.01,
          "phone": "dh_B"
        },
        {
          "duration": 0.06,
          "phone": "ah_E"
        }
      ],
      "start": 2.01,
      "startOffset": 40,
      "word": "THE"
    },
    {
      "alignedWord": "flag",
      "case": "success",
      "end": 2.59,
      "endOffset": 48,
      "phones": [
        {
          "duration": 0.09,
          "phone": "f_B"
        },
        {
          "duration": 0.09,
          "phone": "l_I"
        },
        {
          "duration": 0.16,
          "phone": "ae_I"
        },
        {
          "duration": 0.17,
          "phone": "g_E"
        }
      ],
      "start": 2.08,
      "startOffset": 44,
      "word": "FLAG"
    },
    {
      "alignedWord": "that",
      "case": "success",
      "end": 2.87,
      "endOffset": 53,
      "phones": [
        {
          "duration": 0.08,
          "phone": "dh_B"
        },
        {
          "duration": 0.02,
          "phone": "ae_I"
        },
        {
          "duration": 0.06,
          "phone": "t_E"
        }
      ],
      "start": 2.71,
      "startOffset": 49,
      "word": "THAT"
    },
    {
      "alignedWord": "were",
      "case": "success",
      "end": 3.02,
      "endOffset": 58,
      "phones": [
        {
          "duration": 0.08,
          "phone": "w_B"
        },
        {
          "duration": 0.07,
          "phone": "er_E"
        }
      ],
      "start": 2.87,
      "startOffset": 54,
      "word": "WERE"
    },
    {
      "alignedWord": "to",
      "case": "success",
      "end": 3.13,
      "endOffset": 61,
      "phones": [
        {
          "duration": 0.06,
          "phone": "t_B"
        },
        {
          "duration": 0.05,
          "phone": "ih_E"
        }
      ],
      "start": 3.02,
      "startOffset": 59,
      "word": "TO"
    },
    {
      "alignedWord": "be",
      "case": "success",
      "end": 3.2600000000000002,
      "endOffset": 64,
      "phones": [
        {
          "duration": 0.06,
          "phone": "b_B"
        },
        {
          "duration": 0.06,
          "phone": "iy_E"
        }
      ],
      "start": 3.14,
      "startOffset": 62,
      "word": "BE"
    },
    {
      "alignedWord": "the",
      "case": "success",
      "end": 3.36,
      "endOffset": 68,
      "phones": [
        {
          "duration": 0.04,
          "phone": "dh_B"
        },
        {
          "duration": 0.06,
          "phone": "ah_E"
        }
      ],
      "start": 3.26,
      "startOffset": 65,
      "word": "THE"
    },
    {
      "alignedWord": "real",
      "case": "success",
      "end": 3.62,
      "endOffset": 73,
      "phones": [
        {
          "duration": 0.1,
          "phone": "r_B"
        },
        {
          "duration": 0.08,
          "phone": "iy_I"
        },
        {
          "duration": 0.08,
          "phone": "l_E"
        }
      ],
      "start": 3.36,
      "startOffset": 69,
      "word": "REAL"
    },
    {
      "alignedWord": "causes",
      "case": "success",
      "end": 4.07,
      "endOffset": 80,
      "phones": [
        {
          "duration": 0.08,
          "phone": "k_B"
        },
        {
          "duration": 0.09,
          "phone": "ao_I"
        },
        {
          "duration": 0.06,
          "phone": "z_I"
        },
        {
          "duration": 0.08,
          "phone": "ih_I"
        },
        {
          "duration": 0.12,
          "phone": "z_E"
        }
      ],
      "start": 3.64,
      "startOffset": 74,
      "word": "CAUSES"
    },
    {
      "alignedWord": "of",
      "case": "success",
      "end": 4.3,
      "endOffset": 83,
      "phones": [
        {
          "duration": 0.11,
          "phone": "ah_B"
        },
        {
          "duration": 0.1,
          "phone": "v_E"
        }
      ],
      "start": 4.09,
      "startOffset": 81,
      "word": "OF"
    },
    {
      "alignedWord": "the",
      "case": "success",
      "end": 4.42,
      "endOffset": 87,
      "phones": [
        {
          "duration": 0.04,
          "phone": "dh_B"
        },
        {
          "duration": 0.08,
          "phone": "iy_E"
        }
      ],
      "start": 4.3,
      "startOffset": 84,
      "word": "THE"
    },
    {
      "alignedWord": "outbreak",
      "case": "success",
      "end": 4.85,
      "endOffset": 96,
      "phones": [
        {
          "duration": 0.09,
          "phone": "aw_B"
        },
        {
          "duration": 0.07,
          "phone": "t_I"
        },
        {
          "duration": 0.06,
          "phone": "b_I"
        },
        {
          "duration": 0.06,
          "phone": "r_I"
        },
        {
          "duration": 0.07,
          "phone": "ey_I"
        },
        {
          "duration": 0.08,
          "phone": "k_E"
        }
      ],
      "start": 4.42,
      "startOffset": 88,
      "word": "OUTBREAK"
    },
    {
      "alignedWord": "of",
      "case": "success",
      "end": 5.010000000000001,
      "endOffset": 99,
      "phones": [
        {
          "duration": 0.09,
          "phone": "ah_B"
        },
        {
          "duration": 0.06,
          "phone": "v_E"
        }
      ],
      "start": 4.86,
      "startOffset": 97,
      "word": "OF"
    },
    {
      "alignedWord": "a",
      "case": "success",
      "end": 5.06,
      "endOffset": 101,
      "phones": [
        {
          "duration": 0.05,
          "phone": "ah_S"
        }
      ],
      "start": 5.01,
      "startOffset": 100,
      "word": "A"
    },
    {
      "alignedWord": "war",
      "case": "success",
      "end": 5.529999999999999,
      "endOffset": 105,
      "phones": [
        {
          "duration": 0.09,
          "phone": "w_B"
        },
        {
          "duration": 0.19,
          "phone": "ao_I"
        },
        {
          "duration": 0.19,
          "phone": "r_E"
        }
      ],
      "start": 5.06,
      "startOffset": 102,
      "word": "WAR"
    },
    {
      "alignedWord": "that",
      "case": "success",
      "end": 5.76,
      "endOffset": 110,
      "phones": [
        {
          "duration": 0.06,
          "phone": "dh_B"
        },
        {
          "duration": 0.02,
          "phone": "ae_I"
        },
        {
          "duration": 0.04,
          "phone": "t_E"
        }
      ],
      "start": 5.64,
      "startOffset": 106,
      "word": "THAT"
    },
    {
      "alignedWord": "was",
      "case": "success",
      "end": 5.9399999999999995,
      "endOffset": 114,
      "phones": [
        {
          "duration": 0.04,
          "phone": "w_B"
        },
        {
          "duration": 0.07,
          "phone": "ah_I"
        },
        {
          "duration": 0.07,
          "phone": "z_E"
        }
      ],
      "start": 5.76,
      "startOffset": 111,
      "word": "WAS"
    },
    {
      "alignedWord": "desired",
      "case": "success",
      "end": 6.380000000000001,
      "endOffset": 122,
      "phones": [
        {
          "duration": 0.07,
          "phone": "d_B"
        },
        {
          "duration": 0.06,
          "phone": "ih_I"
        },
        {
          "duration": 0.11,
          "phone": "z_I"
        },
        {
          "duration": 0.11,
          "phone": "ay_I"
        },
        {
          "duration": 0.02,
          "phone": "er_I"
        },
        {
          "duration": 0.07,
          "phone": "d_E"
        }
      ],
      "start": 5.94,
      "startOffset": 115,
      "word": "DESIRED"
    },
    {
      "alignedWord": "by",
      "case": "success",
      "end": 6.54,
      "endOffset": 125,
      "phones": [
        {
          "duration": 0.07,
          "phone": "b_B"
        },
        {
          "duration": 0.08,
          "phone": "ay_E"
        }
      ],
      "start": 6.39,
      "startOffset": 123,
      "word": "BY"
    },
    {
      "alignedWord": "neither",
      "case": "success",
      "end": 6.84,
      "endOffset": 133,
      "phones": [
        {
          "duration": 0.07,
          "phone": "n_B"
        },
        {
          "duration": 0.07,
          "phone": "iy_I"
        },
        {
          "duration": 0.08,
          "phone": "dh_I"
        },
        {
          "duration": 0.08,
          "phone": "er_E"
        }
      ],
      "start": 6.54,
      "startOffset": 126,
      "word": "NEITHER"
    },
    {
      "alignedWord": "of",
      "case": "success",
      "end": 6.99,
      "endOffset": 136,
      "phones": [
        {
          "duration": 0.07,
          "phone": "ah_B"
        },
        {
          "duration": 0.08,
          "phone": "v_E"
        }
      ],
      "start": 6.84,
      "startOffset": 134,
      "word": "OF"
    },
    {
      "alignedWord": "the",
      "case": "success",
      "end": 7.07,
      "endOffset": 140,
      "phones": [
        {
          "duration": 0.02,
          "phone": "dh_B"
        },
        {
          "duration": 0.06,
          "phone": "ah_E"
        }
      ],
      "start": 6.99,
      "startOffset": 137,
      "word": "THE"
    },
    {
      "alignedWord": "two",
      "case": "success",
      "end": 7.260000000000001,
      "endOffset": 144,
      "phones": [
        {
          "duration": 0.1,
          "phone": "t_B"
        },
        {
          "duration": 0.09,
          "phone": "uw_E"
        }
      ],
      "start": 7.07,
      "startOffset": 141,
      "word": "TWO"
    },
    {
      "alignedWord": "governments",
      "case": "success",
      "end": 7.89,
      "endOffset": 156,
      "phones": [
        {
          "duration": 0.05,
          "phone": "g_B"
        },
        {
          "duration": 0.08,
          "phone": "ah_I"
        },
        {
          "duration": 0.06,
          "phone": "v_I"
        },
        {
          "duration": 0.05,
          "phone": "er_I"
        },
        {
          "duration": 0.05,
          "phone": "m_I"
        },
        {
          "duration": 0.07,
          "phone": "ah_I"
        },
        {
          "duration": 0.04,
          "phone": "n_I"
        },
        {
          "duration": 0.05,
          "phone": "t_I"
        },
        {
          "duration": 0.18,
          "phone": "s_E"
        }
      ],
      "start": 7.26,
      "startOffset": 145,
      "word": "GOVERNMENTS"
    },
    {
      "alignedWord": "but",
      "case": "success",
      "end": 8.879999,
      "endOffset": 160,
      "phones": [
        {
          "duration": 0.08,
          "phone": "b_B"
        },
        {
          "duration": 0.06,
          "phone": "ah_I"
        },
        {
          "duration": 0.06,
          "phone": "t_E"
        }
      ],
      "start": 8.679999,
      "startOffset": 157,
      "word": "BUT"
    },
    {
      "alignedWord": "popular",
      "case": "success",
      "end": 9.340000000000002,
      "endOffset": 168,
      "phones": [
        {
          "duration": 0.06,
          "phone": "p_B"
        },
        {
          "duration": 0.07,
          "phone": "aa_I"
        },
        {
          "duration": 0.1,
          "phone": "p_I"
        },
        {
          "duration": 0.02,
          "phone": "y_I"
        },
        {
          "duration": 0.05,
          "phone": "ah_I"
        },
        {
          "duration": 0.07,
          "phone": "l_I"
        },
        {
          "duration": 0.09,
          "phone": "er_E"
        }
      ],
      "start": 8.88,
      "startOffset": 161,
      "word": "POPULAR"
    },
    {
      "alignedWord": "feeling",
      "case": "success",
      "end": 9.79,
      "endOffset": 176,
      "phones": [
        {
          "duration": 0.1,
          "phone": "f_B"
        },
        {
          "duration": 0.1,
          "phone": "iy_I"
        },
        {
          "duration": 0.03,
          "phone": "l_I"
        },
        {
          "duration": 0.08,
          "phone": "ih_I"
        },
        {
          "duration": 0.14,
          "phone": "ng_E"
        }
      ],
      "start": 9.34,
      "startOffset": 169,
      "word": "FEELING"
    },
    {
      "alignedWord": "and",
      "case": "success",
      "end": 10.0,
      "endOffset": 180,
      "phones": [
        {
          "duration": 0.09,
          "phone": "ae_B"
        },
        {
          "duration": 0.06,
          "phone": "n_I"
        },
        {
          "duration": 0.03,
          "phone": "d_E"
        }
      ],
      "start": 9.82,
      "startOffset": 177,
      "word": "AND"
    },
    {
      "alignedWord": "the",
      "case": "success",
      "end": 10.08,
      "endOffset": 184,
      "phones": [
        {
          "duration": 0.01,
          "phone": "dh_B"
        },
        {
          "duration": 0.07,
          "phone": "ah_E"
        }
      ],
      "start": 10.0,
      "startOffset": 181,
      "word": "THE"
    },
    {
      "alignedWord": "course",
      "case": "success",
      "end": 10.33,
      "endOffset": 191,
      "phones": [
        {
          "duration": 0.08,
          "phone": "k_B"
        },
        {
          "duration": 0.05,
          "phone": "ao_I"
        },
        {
          "duration": 0.07,
          "phone": "r_I"
        },
        {
          "duration": 0.05,
          "phone": "s_E"
        }
      ],
      "start": 10.08,
      "startOffset": 185,
      "word": "COURSE"
    },
    {
      "alignedWord": "of",
      "case": "success",
      "end": 10.47,
      "endOffset": 194,
      "phones": [
        {
          "duration": 0.06,
          "phone": "ah_B"
        },
        {
          "duration": 0.08,
          "phone": "v_E"
        }
      ],
      "start": 10.33,
      "startOffset": 192,
      "word": "OF"
    },
    {
      "alignedWord": "events",
      "case": "success",
      "end": 10.829998999999999,
      "endOffset": 201,
      "phones": [
        {
          "duration": 0.04,
          "phone": "ih_B"
        },
        {
          "duration": 0.08,
          "phone": "v_I"
        },
        {
          "duration": 0.07,
          "phone": "eh_I"
        },
        {
          "duration": 0.04,
          "phone": "n_I"
        },
        {
          "duration": 0.05,
          "phone": "t_I"
        },
        {
          "duration": 0.08,
          "phone": "s_E"
        }
      ],
      "start": 10.469999,
      "startOffset": 195,
      "word": "EVENTS"
    },
    {
      "alignedWord": "was",
      "case": "success",
      "end": 10.99,
      "endOffset": 205,
      "phones": [
        {
          "duration": 0.02,
          "phone": "w_B"
        },
        {
          "duration": 0.06,
          "phone": "ah_I"
        },
        {
          "duration": 0.08,
          "phone": "z_E"
        }
      ],
      "start": 10.83,
      "startOffset": 202,
      "word": "WAS"
    },
    {
      "alignedWord": "too",
      "case": "success",
      "end": 11.18,
      "endOffset": 209,
      "phones": [
        {
          "duration": 0.1,
          "phone": "t_B"
        },
        {
          "duration": 0.09,
          "phone": "uw_E"
        }
      ],
      "start": 10.99,
      "startOffset": 206,
      "word": "TOO"
    },
    {
      "alignedWord": "strong",
      "case": "success",
      "end": 11.509999,
      "endOffset": 216,
      "phones": [
        {
          "duration": 0.04,
          "phone": "s_B"
        },
        {
          "duration": 0.06,
          "phone": "t_I"
        },
        {
          "duration": 0.07,
          "phone": "r_I"
        },
        {
          "duration": 0.08,
          "phone": "ao_I"
        },
        {
          "duration": 0.08,
          "phone": "ng_E"
        }
      ],
      "start": 11.179999,
      "startOffset": 210,
      "word": "STRONG"
    },
    {
      "alignedWord": "for",
      "case": "success",
      "end": 11.689999,
      "endOffset": 220,
      "phones": [
        {
          "duration": 0.06,
          "phone": "f_B"
        },
        {
          "duration": 0.04,
          "phone": "ao_I"
        },
        {
          "duration": 0.08,
          "phone": "r_E"
        }
      ],
      "start": 11.509999,
      "startOffset": 217,
      "word": "FOR"
    },
    {
      "alignedWord": "them",
      "case": "success",
      "end": 11.92,
      "endOffset": 225,
      "phones": [
        {
          "duration": 0.03,
          "phone": "dh_B"
        },
        {
          "duration": 0.07,
          "phone": "ah_I"
        },
        {
          "duration": 0.13,
          "phone": "m_E"
        }
      ],
      "start": 11.69,
      "startOffset": 221,
      "word": "THEM"
    },
    {
      "alignedWord": "the",
      "case": "success",
      "end": 12.729999000000001,
      "endOffset": 229,
      "phones": [
        {
          "duration": 0.08,
          "phone": "dh_B"
        },
        {
          "duration": 0.05,
          "phone": "ah_E"
        }
      ],
      "start": 12.599999,
      "startOffset": 226,
      "word": "THE"
    },
    {
      "alignedWord": "news",
      "case": "success",
      "end": 12.97,
      "endOffset": 234,
      "phones": [
        {
          "duration": 0.07,
          "phone": "n_B"
        },
        {
          "duration": 0.12,
          "phone": "uw_I"
        },
        {
          "duration": 0.05,
          "phone": "z_E"
        }
      ],
      "start": 12.73,
      "startOffset": 230,
      "word": "NEWS"
    },
    {
      "alignedWord": "of",
      "case": "success",
      "end": 13.099999,
      "endOffset": 237,
      "phones": [
        {
          "duration": 0.05,
          "phone": "ah_B"
        },
        {
          "duration": 0.08,
          "phone": "v_E"
        }
      ],
      "start": 12.969999,
      "startOffset": 235,
      "word": "OF"
    },
    {
      "alignedWord": "the",
      "case": "success",
      "end": 13.189999,
      "endOffset": 241,
      "phones": [
        {
          "duration": 0.01,
          "phone": "dh_B"
        },
        {
          "duration": 0.08,
          "phone": "ah_E"
        }
      ],
      "start": 13.099999,
      "startOffset": 238,
      "word": "THE"
    },
    {
      "alignedWord": "seizure",
      "case": "success",
      "end": 13.61,
      "endOffset": 249,
      "phones": [
        {
          "duration": 0.12,
          "phone": "s_B"
        },
        {
          "duration": 0.09,
          "phone": "iy_I"
        },
        {
          "duration": 0.12,
          "phone": "zh_I"
        },
        {
          "duration": 0.09,
          "phone": "er_E"
        }
      ],
      "start": 13.19,
      "startOffset": 242,
      "word": "SEIZURE"
    },
    {
      "alignedWord": "of",
      "case": "success",
      "end": 13.74,
      "endOffset": 252,
      "phones": [
        {
          "duration": 0.05,
          "phone": "ah_B"
        },
        {
          "duration": 0.08,
          "phone": "v_E"
        }
      ],
      "start": 13.61,
      "startOffset": 250,
      "word": "OF"
    },
    {
      "alignedWord": "their",
      "case": "success",
      "end": 13.870000000000001,
      "endOffset": 258,
      "phones": [
        {
          "duration": 0.01,
          "phone": "dh_B"
        },
        {
          "duration": 0.08,
          "phone": "eh_I"
        },
        {
          "duration": 0.04,
          "phone": "r_E"
        }
      ],
      "start": 13.74,
      "startOffset": 253,
      "word": "THEIR"
    },
    {
      "alignedWord": "vessels",
      "case": "success",
      "end": 14.34,
      "endOffset": 266,
      "phones": [
        {
          "duration": 0.08,
          "phone": "v_B"
        },
        {
          "duration": 0.1,
          "phone": "eh_I"
        },
        {
          "duration": 0.08,
          "phone": "s_I"
        },
        {
          "duration": 0.07,
          "phone": "ah_I"
        },
        {
          "duration": 0.1,
          "phone": "l_I"
        },
        {
          "duration": 0.04,
          "phone": "z_E"
        }
      ],
      "start": 13.87,
      "startOffset": 259,
      "word": "VESSELS"
    }
  ]
}