{
  "transcript": "HE INDUCED THE STATES GENERAL BY A BARE MAJORITY FOUR PROVINCES TO THREE TO SEND A CONCILIATORY LETTER THE DATE OF WHICH APRIL THIRTIETH SIXTEEN FIFTY THREE COINCIDED WITH CROMWELL'S FORCIBLE DISSOLUTION OF THE RUMP PARLIAMENT AND THE ASSUMPTION BY HIM",
  "words": [
    {
      "alignedWord": "he",
      "case": "success",
      "end": 0.43000000000000005,
      "endOffset": 2,
      "phones": [
        {
          "duration": 0.16,
          "phone": "hh_B"
        },
        {
          "duration": 0.11,
          "phone": "iy_E"
        }
      ],
      "start": 0.16,
      "startOffset": 0,
      "word": "HE"
    },
    {
      "alignedWord": "induced",
      "case": "success",
      "end": 0.89,
      "endOffset": 10,
      "phones": [
        {
          "duration": 0.05,
          "phone": "ih_B"
        },
        {
          "duration": 0.06,
          "phone": "n_I"
        },
        {
          "duration": 0.08,
          "phone": "d_I"
        },
        {
          "duration": 0.11,
          "phone": "uw_I"
        },
        {
          "duration": 0.11,
          "phone": "s_I"
        },
        {
          "duration": 0.05,
          "phone": "t_E"
        }
      ],
      "start": 0.43,
      "startOffset": 3,
      "word": "INDUCED"
    },
    {
      "alignedWord": "the",
      "case": "success",
      "end": 1.04,
      "endOffset": 14,
      "phones": [
        {
          "duration": 0.07,
          "phone": "dh_B"
        },
        {
          "duration": 0.07,
          "phone": "ah_E"
        }
      ],
      "start": 0.9,
      "startOffset": 11,
      "word": "THE"
    },
    {
      "alignedWord": "states",
      "case": "success",
      "end": 1.4,
      "endOffset": 21,
      "phones": [
        {
          "duration": 0.08,
          "phone": "s_B"
        },
        {
          "duration": 0.09,
          "phone": "t_I"
        },
        {
          "duration": 0.06,
          "phone": "ey_I"
        },
        {
          "duration": 0.06,
          "phone": "t_I"
        },
        {
          "duration": 0.07,
          "phone": "s_E"
        }
      ],
      "start": 1.04,
      "startOffset": 15,
      "word": "STATES"
    },
    {
      "alignedWord": "general",
      "case": "success",
      "end": 1.77,
      "endOffset": 29,
      "phones": [
        {
          "duration": 0.1,
          "phone": "jh_B"
        },
        {
          "duration": 0.07,
          "phone": "eh_I"
        },
        {
          "duration": 0.04,
          "phone": "n_I"
        },
        {
          "duration": 0.06,
          "phone": "er_I"
        },
        {
          "duration": 0.06,
          "phone": "ah_I"
        },
        {
          "duration": 0.03,
          "phone": "l_E"
        }
      ],
      "start": 1.41,
      "startOffset": 22,
      "word": "GENERAL"
    },
    {
      "alignedWord": "by",
      "case": "success",
      "end": 1.98,
      "endOffset": 32,
      "phones": [
        {
          "duration": 0.1,
          "phone": "b_B"
        },
        {
          "duration": 0.11,
          "phone": "ay_E"
        }
      ],
      "start": 1.77,
      "startOffset": 30,
      "word": "BY"
    },
    {
      "alignedWord": "a",
      "case": "success",
      "end": 2.05,
      "endOffset": 34,
      "phones": [
        {
          "duration": 0.07,
          "phone": "ah_S"
        }
      ],
      "start": 1.98,
      "startOffset": 33,
      "word": "A"
    },
    {
      "alignedWord": "bare",
      "case": "success",
      "end": 2.32,
      "endOffset": 39,
      "phones": [
        {
          "duration": 0.08,
          "phone": "b_B"
        },
        {
          "duration": 0.09,
          "phone": "eh_I"
        },
        {
          "duration": 0.1,
          "phone": "r_E"
        }
      ],
      "start": 2.05,
      "startOffset": 35,
      "word": "BARE"
    },
    {
      "alignedWord": "majority",
      "case": "success",
      "end": 3.03,
      "endOffset": 48,
      "phones": [
        {
          "duration": 0.09,
          "phone": "m_B"
        },
        {
          "duration": 0.05,
          "phone": "ah_I"
        },
        {
          "duration": 0.1,
          "phone": "jh_I"
        },
        {
          "duration": 0.06,
          "phone": "ao_I"
        },
        {
          "duration": 0.11,
          "phone": "r_I"
        },
        {
          "duration": 0.04,
          "phone": "ah_I"
        },
        {
          "duration": 0.06,
          "phone": "t_I"
        },
        {
          "duration": 0.2,
          "phone": "iy_E"
        }
      ],
      "start": 2.32,
      "startOffset": 40,
      "word": "MAJORITY"
    },
    {
      "alignedWord": "four",
      "case": "success",
      "end": 3.35,
      "endOffset": 53,
      "phones": [
        {
          "duration": 0.14,
          "phone": "f_B"
        },
        {
          "duration": 0.07,
          "phone": "ao_I"
        },
        {
          "duration": 0.08,
          "phone": "r_E"
        }
      ],
      "start": 3.06,
      "startOffset": 49,
      "word": "FOUR"
    },
    {
      "alignedWord": "provinces",
      "case": "success",
      "end": 3.86,
      "endOffset": 63,
      "phones": [
        {
          "duration": 0.05,
          "phone": "p_B"
        },
        {
          "duration": 0.04,
          "phone": "r_I"
        },
        {
          "duration": 0.07,
          "phone": "aa_I"
        },
        {
          "duration": 0.06,
          "phone": "v_I"
        },
        {
          "duration": 0.03,
          "phone": "ah_I"
        },
        {
          "duration": 0.04,
          "phone": "n_I"
        },
        {
          "duration": 0.05,
          "phone": "s_I"
        },
        {
          "duration": 0.08,
          "phone": "ah_I"
        },
        {
          "duration": 0.08,
          "phone": "z_E"
        }
      ],
      "start": 3.36,
      "startOffset": 54,
      "word": "PROVINCES"
    },
    {
      "alignedWord": "to",
      "case": "success",
      "end": 3.9699999999999998,
      "endOffset": 66,
      "phones": [
        {
          "duration": 0.06,
          "phone": "t_B"
        },
        {
          "duration": 0.05,
          "phone": "ah_E"
        }
      ],
      "start": 3.86,
      "startOffset": 64,
      "word": "TO"
    },
    {
      "alignedWord": "three",
      "case": "success",
      "end": 4.4,
      "endOffset": 72,
      "phones": [
        {
          "duration": 0.09,
          "phone": "th_B"
        },
        {
          "duration": 0.14,
          "phone": "r_I"
        },
        {
          "duration": 0.2,
          "phone": "iy_E"
        }
      ],
      "start": 3.97,
      "startOffset": 67,
      "word": "THREE"
    },
    {
      "alignedWord": "to",
      "case": "success",
      "end": 4.880000000000001,
      "endOffset": 75,
      "phones": [
        {
          "duration": 0.09,
          "phone": "t_B"
        },
        {
          "duration": 0.06,
          "phone": "uw_E"
        }
      ],
      "start": 4.73,
      "startOffset": 73,
      "word": "TO"
    },
    {
      "alignedWord": "send",
      "case": "success",
      "end": 5.13,
      "endOffset": 80,
      "phones": [
        {
          "duration": 0.07,
          "phone": "s_B"
        },
        {
          "duration": 0.07,
          "phone": "eh_I"
        },
        {
          "duration": 0.05,
          "phone": "n_I"
        },
        {
          "duration": 0.06,
          "phone": "d_E"
        }
      ],
      "start": 4.88,
      "startOffset": 76,
      "word": "SEND"
    },
    {
      "alignedWord": "a",
      "case": "success",
      "end": 5.18,
      "endOffset": 82,
      "phones": [
        {
          "duration": 0.05,
          "phone": "ah_S"
        }
      ],
      "start": 5.13,
      "startOffset": 81,
      "word": "A"
    },
    {
      "alignedWord": "conciliatory",
      "case": "success",
      "end": 5.99,
      "endOffset": 95,
      "phones": [
        {
          "duration": 0.05,
          "phone": "k_B"
        },
        {
          "duration": 0.06,
          "phone": "ah_I"
        },
        {
          "duration": 0.06,
          "phone": "n_I"
        },
        {
          "duration": 0.07,
          "phone": "s_I"
        },
        {
          "duration": 0.09,
          "phone": "ih_I"
        },
        {
          "duration": 0.07,
          "phone": "l_I"
        },
        {
          "duration": 0.06,
          "phone": "iy_I"
        },
        {
          "duration": 0.04,
          "phone": "ah_I"
        },
        {
          "duration": 0.07,
          "phone": "t_I"
        },
        {
          "duration": 0.07,
          "phone": "ao_I"
        },
        {
          "duration": 0.09,
          "phone": "r_I"
        },
        {
          "duration": 0.08,
          "phone": "iy_E"
        }
      ],
      "start": 5.18,
      "startOffset": 83,
      "word": "CONCILIATORY"
    },
    {
      "alignedWord": "letter",
      "case": "success",
      "end": 6.44,
      "endOffset": 102,
      "phones": [
        {
          "duration": 0.06,
          "phone": "l_B"
        },
        {
          "duration": 0.09,
          "phone": "eh_I"
        },
        {
          "duration": 0.08,
          "phone": "t_I"
        },
        {
          "duration": 0.22,
          "phone": "er_E"
        }
      ],
      "start": 5.99,
      "startOffset": 96,
      "word": "LETTER"
    },
    {
      "alignedWord": "the",
      "case": "success",
      "end": 6.62,
      "endOffset": 106,
      "phones": [
        {
          "duration": 0.06,
          "phone": "dh_B"
        },
        {
          "duration": 0.05,
          "phone": "ah_E"
        }
      ],
      "start": 6.51,
      "startOffset": 103,
      "word": "THE"
    },
    {
      "alignedWord": "date",
      "case": "success",
      "end": 6.8,
      "endOffset": 111,
      "phones": [
        {
          "duration": 0.07,
          "phone": "d_B"
        },
        {
          "duration": 0.07,
          "phone": "ey_I"
        },
        {
          "duration": 0.04,
          "phone": "t_E"
        }
      ],
      "start": 6.62,
      "startOffset": 107,
      "word": "DATE"
    },
    {
      "alignedWord": "of",
      "case": "success",
      "end": 6.9399999999999995,
      "endOffset": 114,
      "phones": [
        {
          "duration": 0.05,
          "phone": "ah_B"
        },
        {
          "duration": 0.09,
          "phone": "v_E"
        }
      ],
      "start": 6.8,
      "startOffset": 112,
      "word": "OF"
    },
    {
      "alignedWord": "which",
      "case": "success",
      "end": 7.29,
      "endOffset": 120,
      "phones": [
        {
          "duration": 0.08,
          "phone": "w_B"
        },
        {
          "duration": 0.11,
          "phone": "ih_I"
        },
        {
          "duration": 0.16,
          "phone": "ch_E"
        }
      ],
      "start": 6.94,
      "startOffset": 115,
      "word": "WHICH"
    },
    {
      "alignedWord": "april",
      "case": "success",
      "end": 7.65,
      "endOffset": 126,
      "phones": [
        {
          "duration": 0.1,
          "phone": "ey_B"
        },
        {
          "duration": 0.08,
          "phone": "p_I"
        },
        {
          "duration": 0.05,
          "phone": "r_I"
        },
        {
          "duration": 0.04,
          "phone": "ah_I"
        },
        {
          "duration": 0.06,
          "phone": "l_E"
        }
      ],
      "start": 7.32,
      "startOffset": 121,
      "word": "APRIL"
    },
    {
      "alignedWord": "thirtieth",
      "case": "success",
      "end": 8.1,
      "endOffset": 136,
      "phones": [
        {
          "duration": 0.08,
          "phone": "th_B"
        },
        {
          "duration": 0.08,
          "phone": "er_I"
        },
        {
          "duration": 0.07,
          "phone": "t_I"
        },
        {
          "duration": 0.08,
          "phone": "iy_I"
        },
        {
          "duration": 0.05,
          "phone": "ah_I"
        },
        {
          "duration": 0.08,
          "phone": "th_E"
        }
      ],
      "start": 7.66,
      "startOffset": 127,
      "word": "THIRTIETH"
    },
    {
      "alignedWord": "sixteen",
      "case": "success",
      "end": 8.559999000000001,
      "endOffset": 144,
      "phones": [
        {
          "duration": 0.12,
          "phone": "s_B"
        },
        {
          "duration": 0.07,
          "phone": "ih_I"
        },
        {
          "duration": 0.05,
          "phone": "k_I"
        },
        {
          "duration": 0.02,
          "phone": "s_I"
        },
        {
          "duration": 0.07,
          "phone": "t_I"
        },
        {
          "duration": 0.06,
          "phone": "iy_I"
        },
        {
          "duration": 0.07,
          "phone": "n_E"
        }
      ],
      "start": 8.099999,
      "startOffset": 137,
      "word": "SIXTEEN"
    },
    {
      "alignedWord": "fifty",
      "case": "success",
      "end": 8.839998999999999,
      "endOffset": 150,
      "phones": [
        {
          "duration": 0.06,
          "phone": "f_B"
        },
        {
          "duration": 0.05,
          "phone": "ih_I"
        },
        {
          "duration": 0.05,
          "phone": "f_I"
        },
        {
          "duration": 0.07,
          "phone": "t_I"
        },
        {
          "duration": 0.05,
          "phone": "iy_E"
        }
      ],
      "start": 8.559999,
      "startOffset": 145,
      "word": "FIFTY"
    },
    {
      "alignedWord": "three",
      "case": "success",
      "end": 9.29,
      "endOffset": 156,
      "phones": [
        {
          "duration": 0.1,
          "phone": "th_B"
        },
        {
          "duration": 0.12,
          "phone": "r_I"
        },
        {
          "duration": 0.23,
          "phone": "iy_E"
        }
      ],
      "start": 8.84,
      "startOffset": 151,
      "word": "THREE"
    },
    {
      "alignedWord": "coincided",
      "case": "success",
      "end": 10.27,
      "endOffset": 166,
      "phones": [
        {
          "duration": 0.07,
          "phone": "k_B"
        },
        {
          "duration": 0.04,
          "phone": "ow_I"
        },
        {
          "duration": 0.06,
          "phone": "ah_I"
        },
        {
          "duration": 0.06,
          "phone": "n_I"
        },
        {
          "duration": 0.09,
          "phone": "s_I"
        },
        {
          "duration": 0.07,
          "phone": "ay_I"
        },
        {
          "duration": 0.04,
          "phone": "d_I"
        },
        {
          "duration": 0.06,
          "phone": "ah_I"
        },
        {
          "duration": 0.08,
          "phone": "d_E"
        }
      ],
      "start": 9.7,
      "startOffset": 157,
      "word": "COINCIDED"
    },
    {
      "alignedWord": "with",
      "case": "success",
      "end": 10.42,
      "endOffset": 171,
      "phones": [
        {
          "duration": 0.04,
          "phone": "w_B"
        },
        {
          "duration": 0.02,
          "phone": "ih_I"
        },
        {
          "duration": 0.09,
          "phone": "th_E"
        }
      ],
      "start": 10.27,
      "startOffset": 167,
      "word": "WITH"
    },
    {
      "alignedWord": "<unk>",
      "case": "success",
      "end": 10.93,
      "endOffset": 182,
      "phones": [
        {
          "duration": 0.51,
          "phone": "oov_S"
        }
      ],
      "start": 10.42,
      "startOffset": 172,
      "word": "CROMWELL'S"
    },
    {
      "alignedWord": "forcible",
      "case": "success",
      "end": 11.52,
      "endOffset": 191,
      "phones": [
        {
          "duration": 0.11,
          "phone": "f_B"
        },
        {
          "duration": 0.06,
          "phone": "ao_I"
        },
        {
          "duration": 0.06,
          "phone": "r_I"
        },
        {
          "duration": 0.06,
          "phone": "s_I"
        },
        {
          "duration": 0.08,
          "phone": "ah_I"
        },
        {
          "duration": 0.02,
          "phone": "b_I"
        },
        {
          "duration": 0.07,
          "phone": "ah_I"
        },
        {
          "duration": 0.12,
          "phone": "l_E"
        }
      ],
      "start": 10.94,
      "startOffset": 183,
      "word": "FORCIBLE"
    },
    {
      "alignedWord": "dissolution",
      "case": "success",
      "end": 12.19,
      "endOffset": 203,
      "phones": [
        {
          "duration": 0.06,
          "phone": "d_B"
        },
        {
          "duration": 0.08,
          "phone": "ih_I"
        },
        {
          "duration": 0.07,
          "phone": "s_I"
        },
        {
          "duration": 0.07,
          "phone": "ah_I"
        },
        {
          "duration": 0.08,
          "phone": "l_I"
        },
        {
          "duration": 0.09,
          "phone": "uw_I"
        },
        {
          "duration": 0.09,
          "phone": "sh_I"
        },
        {
          "duration": 0.06,
          "phone": "ah_I"
        },
        {
          "duration": 0.05,
          "phone": "n_E"
        }
      ],
      "start": 11.54,
      "startOffset": 192,
      "word": "DISSOLUTION"
    },
    {
      "alignedWord": "of",
      "case": "success",
      "end": 12.34,
      "endOffset": 206,
      "phones": [
        {
          "duration": 0.06,
          "phone": "ah_B"
        },
        {
          "duration": 0.09,
          "phone": "v_E"
        }
      ],
      "start": 12.19,
      "startOffset": 204,
      "word": "OF"
    },
    {
      "alignedWord": "the",
      "case": "success",
      "end": 12.44,
      "endOffset": 210,
      "phones": [
        {
          "duration": 0.01,
          "phone": "dh_B"
        },
        {
          "duration": 0.09,
          "phone": "ah_E"
        }
      ],
      "start": 12.34,
      "startOffset": 207,
      "word": "THE"
    },
    {
      "alignedWord": "rump",
      "case": "success",
      "end": 12.68,
      "endOffset": 215,
      "phones": [
        {
          "duration": 0.08,
          "phone": "r_B"
        },
        {
          "duration": 0.06,
          "phone": "ah_I"
        },
        {
          "duration": 0.03,
          "phone": "m_I"
        },
        {
          "duration": 0.07,
          "phone": "p_E"
        }
      ],
      "start": 12.44,
      "startOffset": 211,
      "word": "RUMP"
    },
    {
      "alignedWord": "parliament",
      "case": "success",
      "end": 13.24,
      "endOffset": 226,
      "phones": [
        {
          "duration": 0.07,
          "phone": "p_B"
        },
        {
          "duration": 0.07,
          "phone": "aa_I"
        },
        {
          "duration": 0.07,
          "phone": "r_I"
        },
        {
          "duration": 0.05,
          "phone": "l_I"
        },
        {
          "duration": 0.03,
          "phone": "ah_I"
        },
        {
          "duration": 0.04,
          "phone": "m_I"
        },
        {
          "duration": 0.05,
          "phone": "ah_I"
        },
        {
          "duration": 0.04,
          "phone": "n_I"
        },
        {
          "duration": 0.13,
          "phone": "t_E"
        }
      ],
      "start": 12.69,
      "startOffset": 216,
      "word": "PARLIAMENT"
    },
    {
      "alignedWord": "and",
      "case": "success",
      "end": 13.649999999999999,
      "endOffset": 230,
      "phones": [
        {
          "duration": 0.09,
          "phone": "ae_B"
        },
        {
          "duration": 0.06,
          "phone": "n_I"
        },
        {
          "duration": 0.05,
          "phone": "d_E"
        }
      ],
      "start": 13.45,
      "startOffset": 227,
      "word": "AND"
    },
    {
      "alignedWord": "the",
      "case": "success",
      "end": 13.73,
      "endOffset": 234,
      "phones": [
        {
          "duration": 0.02,
          "phone": "dh_B"
        },
        {
          "duration": 0.06,
          "phone": "iy_E"
        }
      ],
      "start": 13.65,
      "startOffset": 231,
      "word": "THE"
    },
    {
      "alignedWord": "assumption",
      "case": "success",
      "end": 14.200000000000001,
      "endOffset": 245,
      "phones": [
        {
          "duration": 0.05,
          "phone": "ah_B"
        },
        {
          "duration": 0.07,
          "phone": "s_I"
        },
        {
          "duration": 0.09,
          "phone": "ah_I"
        },
        {
          "duration": 0.02,
          "phone": "m_I"
        },
        {
          "duration": 0.08,
          "phone": "p_I"
        },
        {
          "duration": 0.05,
          "phone": "sh_I"
        },
        {
          "duration": 0.04,
          "phone": "ah_I"
        },
        {
          "duration": 0.07,
          "phone": "n_E"
        }
      ],
      "start": 13.73,
      "startOffset": 235,
      "word": "ASSUMPTION"
    },
    {
      "alignedWord": "by",
      "case": "success",
      "end": 14.389999999999999,
      "endOffset": 248,
      "phones": [
        {
          "duration": 0.08,
          "phone": "b_B"
        },
        {
          "duration": 0.11,
          "phone": "ay_E"
        }
      ],
      "start": 14.2,
      "startOffset": 246,
      "word": "BY"
    },
    {
      "alignedWord": "him",
      "case": "success",
      "end": 14.659999,
      "endOffset": 252,
      "phones": [
        {
          "duration": 0.07,
          "phone": "hh_B"
        },
        {
          "duration": 0.13,
          "phone": "ih_I"
        },
        {
          "duration": 0.07,
          "phone": "m_E"
        }
      ],
      "start": 14.389999,
      "startOffset": 249,
      "word": "HIM"
    }
  ]
}