{
  "transcript": "APPEARS TO SUMMON SIGMUND TO VALHALLA",
  "words": [
    {
      "alignedWord": "appears",
      "case": "success",
      "end": 0.72,
      "endOffset": 7,
      "phones": [
        {
          "duration": 0.09,
          "phone": "ah_B"
        },
        {
          "duration": 0.1,
          "phone": "p_I"
        },
        {
          "duration": 0.16,
          "phone": "ih_I"
        },
        {
          "duration": 0.13,
          "phone": "r_I"
        },
        {
          "duration": 0.1,
          "phone": "z_E"
        }
      ],
      "start": 0.14,
      "startOffset": 0,
      "word": "APPEARS"
    },
    {
      "alignedWord": "to",
      "case": "success",
      "end": 0.89,
      "endOffset": 10,
      "phones": [
        {
          "duration": 0.08,
          "phone": "t_B"
        },
        {
          "duration": 0.09,
          "phone": "uw_E"
        }
      ],
      "start": 0.72,
      "startOffset": 8,
      "word": "TO"
    },
    {
      "alignedWord": "summon",
      "case": "success",
      "end": 1.38,
      "endOffset": 17,
      "phones": [
        {
          "duration": 0.13,
          "phone": "s_B"
        },
        {
          "duration": 0.09,
          "phone": "ah_I"
        },
        {
          "duration": 0.05,
          "phone": "m_I"
        },
        {
          "duration": 0.05,
          "phone": "ah_I"
        },
        {
          "duration": 0.17,
          "phone": "n_E"
        }
      ],
      "start": 0.89,
      "startOffset": 11,
      "word": "SUMMON"
    },
    {
      "alignedWord": "sigmund",
      "case": "success",
      "end": 2.02,
      "endOffset": 25,
      "phones": [
        {
          "duration": 0.15,
          "phone": "s_B"
        },
        {
          "duration": 0.07,
          "phone": "ih_I"
        },
        {
          "duration": 0.1,
          "phone": "g_I"
        },
        {
          "duration": 0.04,
          "phone": "m_I"
        },
        {
          "duration": 0.07,
          "phone": "ah_I"
        },
        {
          "duration": 0.1,
          "phone": "n_I"
        },
        {
          "duration": 0.1,
          "phone": "d_E"
        }
      ],
      "start": 1.39,
      "startOffset": 18,
      "word": "SIGMUND"
    },
    {
      "alignedWord": "to",
      "case": "success",
      "end": 2.24,
      "endOffset": 28,
      "phones": [
        {
          "duration": 0.08,
          "phone": "t_B"
        },
        {
          "duration": 0.08,
          "phone": "uw_E"
        }
      ],
      "start": 2.08,
      "startOffset": 26,
      "word": "TO"
    },
    {
      "alignedWord": "<unk>",
      "case": "success",
      "end": 2.8400000000000003,
      "endOffset": 37,
      "phones": [
        {
          "duration": 0.6,
          "phone": "oov_S"
        }
      ],
      "start": 2.24,
      "startOffset": 29,
      "word": "VALHALLA"
    }
  ]
}