{
  "transcript": "OF THE SAME WEIGHT FOR EACH OF YOU BECAME FOR IN THE SUN WHICH LIGHTED YOU AND BURNED WITH HEAT AND RADIANCE THEY SO EQUAL ARE THAT ALL SIMILITUDES ARE INSUFFICIENT BUT AMONG MORTALS WILL AND ARGUMENT FOR REASON THAT TO YOU IS MANIFEST",
  "words": [
    {
      "alignedWord": "of",
      "case": "success",
      "end": 0.32,
      "endOffset": 2,
      "phones": [
        {
          "duration": 0.08,
          "phone": "ah_B"
        },
        {
          "duration": 0.09,
          "phone": "v_E"
        }
      ],
      "start": 0.15,
      "startOffset": 0,
      "word": "OF"
    },
    {
      "alignedWord": "the",
      "case": "success",
      "end": 0.42000000000000004,
      "endOffset": 6,
      "phones": [
        {
          "duration": 0.01,
          "phone": "dh_B"
        },
        {
          "duration": 0.09,
          "phone": "ah_E"
        }
      ],
      "start": 0.32,
      "startOffset": 3,
      "word": "THE"
    },
    {
      "alignedWord": "same",
      "case": "success",
      "end": 0.79,
      "endOffset": 11,
      "phones": [
        {
          "duration": 0.14,
          "phone": "s_B"
        },
        {
          "duration": 0.12,
          "phone": "ey_I"
        },
        {
          "duration": 0.11,
          "phone": "m_E"
        }
      ],
      "start": 0.42,
      "startOffset": 7,
      "word": "SAME"
    },
    {
      "alignedWord": "weight",
      "case": "success",
      "end": 1.08,
      "endOffset": 18,
      "phones": [
        {
          "duration": 0.1,
          "phone": "w_B"
        },
        {
          "duration": 0.11,
          "phone": "ey_I"
        },
        {
          "duration": 0.08,
          "phone": "t_E"
        }
      ],
      "start": 0.79,
      "startOffset": 12,
      "word": "WEIGHT"
    },
    {
      "alignedWord": "for",
      "case": "success",
      "end": 1.25,
      "endOffset": 22,
      "phones": [
        {
          "duration": 0.08,
          "phone": "f_B"
        },
        {
          "duration": 0.08,
          "phone": "er_E"
        }
      ],
      "start": 1.09,
      "startOffset": 19,
      "word": "FOR"
    },
    {
      "alignedWord": "each",
      "case": "success",
      "end": 1.43,
      "endOffset": 27,
      "phones": [
        {
          "duration": 0.11,
          "phone": "iy_B"
        },
        {
          "duration": 0.07,
          "phone": "ch_E"
        }
      ],
      "start": 1.25,
      "startOffset": 23,
      "word": "EACH"
    },
    {
      "alignedWord": "of",
      "case": "success",
      "end": 1.5899999999999999,
      "endOffset": 30,
      "phones": [
        {
          "duration": 0.09,
          "phone": "ah_B"
        },
        {
          "duration": 0.07,
          "phone": "v_E"
        }
      ],
      "start": 1.43,
      "startOffset": 28,
      "word": "OF"
    },
    {
      "alignedWord": "you",
      "case": "success",
      "end": 1.7200000000000002,
      "endOffset": 34,
      "phones": [
        {
          "duration": 0.06,
          "phone": "y_B"
        },
        {
          "duration": 0.07,
          "phone": "uw_E"
        }
      ],
      "start": 1.59,
      "startOffset": 31,
      "word": "YOU"
    },
    {
      "alignedWord": "became",
      "case": "success",
      "end": 2.29,
      "endOffset": 41,
      "phones": [
        {
          "duration": 0.05,
          "phone": "b_B"
        },
        {
          "duration": 0.05,
          "phone": "ih_I"
        },
        {
          "duration": 0.14,
          "phone": "k_I"
        },
        {
          "duration": 0.19,
          "phone": "ey_I"
        },
        {
          "duration": 0.14,
          "phone": "m_E"
        }
      ],
      "start": 1.72,
      "startOffset": 35,
      "word": "BECAME"
    },
    {
      "alignedWord": "for",
      "case": "success",
      "end": 2.96,
      "endOffset": 45,
      "phones": [
        {
          "duration": 0.11,
          "phone": "f_B"
        },
        {
          "duration": 0.06,
          "phone": "er_E"
        }
      ],
      "start": 2.79,
      "startOffset": 42,
      "word": "FOR"
    },
    {
      "alignedWord": "in",
      "case": "success",
      "end": 3.07,
      "endOffset": 48,
      "phones": [
        {
          "duration": 0.06,
          "phone": "ih_B"
        },
        {
          "duration": 0.05,
          "phone": "n_E"
        }
      ],
      "start": 2.96,
      "startOffset": 46,
      "word": "IN"
    },
    {
      "alignedWord": "the",
      "case": "success",
      "end": 3.23,
      "endOffset": 52,
      "phones": [
        {
          "duration": 0.07,
          "phone": "dh_B"
        },
        {
          "duration": 0.08,
          "phone": "ah_E"
        }
      ],
      "start": 3.08,
      "startOffset": 49,
      "word": "THE"
    },
    {
      "alignedWord": "sun",
      "case": "success",
      "end": 3.58,
      "endOffset": 56,
      "phones": [
        {
          "duration": 0.12,
          "phone": "s_B"
        },
        {
          "duration": 0.15,
          "phone": "ah_I"
        },
        {
          "duration": 0.08,
          "phone": "n_E"
        }
      ],
      "start": 3.23,
      "startOffset": 53,
      "word": "SUN"
    },
    {
      "alignedWord": "which",
      "case": "success",
      "end": 3.83,
      "endOffset": 62,
      "phones": [
        {
          "duration": 0.08,
          "phone": "w_B"
        },
        {
          "duration": 0.05,
          "phone": "ih_I"
        },
        {
          "duration": 0.1,
          "phone": "ch_E"
        }
      ],
      "start": 3.6,
      "startOffset": 57,
      "word": "WHICH"
    },
    {
      "alignedWord": "lighted",
      "case": "success",
      "end": 4.22,
      "endOffset": 70,
      "phones": [
        {
          "duration": 0.09,
          "phone": "l_B"
        },
        {
          "duration": 0.1,
          "phone": "ay_I"
        },
        {
          "duration": 0.05,
          "phone": "t_I"
        },
        {
          "duration": 0.08,
          "phone": "ah_I"
        },
        {
          "duration": 0.07,
          "phone": "d_E"
        }
      ],
      "start": 3.83,
      "startOffset": 63,
      "word": "LIGHTED"
    },
    {
      "alignedWord": "you",
      "case": "success",
      "end": 4.38,
      "endOffset": 74,
      "phones": [
        {
          "duration": 0.06,
          "phone": "y_B"
        },
        {
          "duration": 0.1,
          "phone": "uw_E"
        }
      ],
      "start": 4.22,
      "startOffset": 71,
      "word": "YOU"
    },
    {
      "alignedWord": "and",
      "case": "success",
      "end": 4.54,
      "endOffset": 78,
      "phones": [
        {
          "duration": 0.06,
          "phone": "ah_B"
        },
        {
          "duration": 0.08,
          "phone": "n_I"
        },
        {
          "duration": 0.02,
          "phone": "d_E"
        }
      ],
      "start": 4.38,
      "startOffset": 75,
      "word": "AND"
    },
    {
      "alignedWord": "burned",
      "case": "success",
      "end": 4.9799999999999995,
      "endOffset": 85,
      "phones": [
        {
          "duration": 0.11,
          "phone": "b_B"
        },
        {
          "duration": 0.21,
          "phone": "er_I"
        },
        {
          "duration": 0.05,
          "phone": "n_I"
        },
        {
          "duration": 0.06,
          "phone": "d_E"
        }
      ],
      "start": 4.55,
      "startOffset": 79,
      "word": "BURNED"
    },
    {
      "alignedWord": "with",
      "case": "success",
      "end": 5.130000000000001,
      "endOffset": 90,
      "phones": [
        {
          "duration": 0.04,
          "phone": "w_B"
        },
        {
          "duration": 0.04,
          "phone": "ih_I"
        },
        {
          "duration": 0.07,
          "phone": "th_E"
        }
      ],
      "start": 4.98,
      "startOffset": 86,
      "word": "WITH"
    },
    {
      "alignedWord": "heat",
      "case": "success",
      "end": 5.43,
      "endOffset": 95,
      "phones": [
        {
          "duration": 0.1,
          "phone": "hh_B"
        },
        {
          "duration": 0.12,
          "phone": "iy_I"
        },
        {
          "duration": 0.07,
          "phone": "t_E"
        }
      ],
      "start": 5.14,
      "startOffset": 91,
      "word": "HEAT"
    },
    {
      "alignedWord": "and",
      "case": "success",
      "end": 5.6,
      "endOffset": 99,
      "phones": [
        {
          "duration": 0.05,
          "phone": "ah_B"
        },
        {
          "duration": 0.03,
          "phone": "n_I"
        },
        {
          "duration": 0.09,
          "phone": "d_E"
        }
      ],
      "start": 5.43,
      "startOffset": 96,
      "word": "AND"
    },
    {
      "alignedWord": "radiance",
      "case": "success",
      "end": 6.21,
      "endOffset": 108,
      "phones": [
        {
          "duration": 0.09,
          "phone": "r_B"
        },
        {
          "duration": 0.08,
          "phone": "ey_I"
        },
        {
          "duration": 0.06,
          "phone": "d_I"
        },
        {
          "duration": 0.08,
          "phone": "iy_I"
        },
        {
          "duration": 0.06,
          "phone": "ah_I"
        },
        {
          "duration": 0.09,
          "phone": "n_I"
        },
        {
          "duration": 0.15,
          "phone": "s_E"
        }
      ],
      "start": 5.6,
      "startOffset": 100,
      "word": "RADIANCE"
    },
    {
      "alignedWord": "they",
      "case": "success",
      "end": 6.7,
      "endOffset": 113,
      "phones": [
        {
          "duration": 0.09,
          "phone": "dh_B"
        },
        {
          "duration": 0.13,
          "phone": "ey_E"
        }
      ],
      "start": 6.48,
      "startOffset": 109,
      "word": "THEY"
    },
    {
      "alignedWord": "so",
      "case": "success",
      "end": 6.99,
      "endOffset": 116,
      "phones": [
        {
          "duration": 0.11,
          "phone": "s_B"
        },
        {
          "duration": 0.18,
          "phone": "ow_E"
        }
      ],
      "start": 6.7,
      "startOffset": 114,
      "word": "SO"
    },
    {
      "alignedWord": "equal",
      "case": "success",
      "end": 7.390000000000001,
      "endOffset": 122,
      "phones": [
        {
          "duration": 0.12,
          "phone": "iy_B"
        },
        {
          "duration": 0.09,
          "phone": "k_I"
        },
        {
          "duration": 0.06,
          "phone": "w_I"
        },
        {
          "duration": 0.03,
          "phone": "ah_I"
        },
        {
          "duration": 0.1,
          "phone": "l_E"
        }
      ],
      "start": 6.99,
      "startOffset": 117,
      "word": "EQUAL"
    },
    {
      "alignedWord": "are",
      "case": "success",
      "end": 7.6,
      "endOffset": 126,
      "phones": [
        {
          "duration": 0.12,
          "phone": "aa_B"
        },
        {
          "duration": 0.09,
          "phone": "r_E"
        }
      ],
      "start": 7.39,
      "startOffset": 123,
      "word": "ARE"
    },
    {
      "alignedWord": "that",
      "case": "success",
      "end": 7.7299999999999995,
      "endOffset": 131,
      "phones": [
        {
          "duration": 0.03,
          "phone": "dh_B"
        },
        {
          "duration": 0.05,
          "phone": "ah_I"
        },
        {
          "duration": 0.05,
          "phone": "t_E"
        }
      ],
      "start": 7.6,
      "startOffset": 127,
      "word": "THAT"
    },
    {
      "alignedWord": "all",
      "case": "success",
      "end": 8.01,
      "endOffset": 135,
      "phones": [
        {
          "duration": 0.17,
          "phone": "ao_B"
        },
        {
          "duration": 0.1,
          "phone": "l_E"
        }
      ],
      "start": 7.74,
      "startOffset": 132,
      "word": "ALL"
    },
    {
      "alignedWord": "<unk>",
      "case": "success",
      "end": 8.73,
      "endOffset": 147,
      "phones": [
        {
          "duration": 0.71,
          "phone": "oov_S"
        }
      ],
      "start": 8.02,
      "startOffset": 136,
      "word": "SIMILITUDES"
    },
    {
      "alignedWord": "are",
      "case": "success",
      "end": 8.8,
      "endOffset": 151,
      "phones": [
        {
          "duration": 0.07,
          "phone": "er_S"
        }
      ],
      "start": 8.73,
      "startOffset": 148,
      "word": "ARE"
    },
    {
      "alignedWord": "insufficient",
      "case": "success",
      "end": 9.57,
      "endOffset": 164,
      "phones": [
        {
          "duration": 0.09,
          "phone": "ih_B"
        },
        {
          "duration": 0.09,
          "phone": "n_I"
        },
        {
          "duration": 0.07,
          "phone": "s_I"
        },
        {
          "duration": 0.04,
          "phone": "ah_I"
        },
        {
          "duration": 0.09,
          "phone": "f_I"
        },
        {
          "duration": 0.07,
          "phone": "ih_I"
        },
        {
          "duration": 0.1,
          "phone": "sh_I"
        },
        {
          "duration": 0.07,
          "phone": "ah_I"
        },
        {
          "duration": 0.07,
          "phone": "n_I"
        },
        {
          "duration": 0.08,
          "phone": "t_E"
        }
      ],
      "start": 8.8,
      "startOffset": 152,
      "word": "INSUFFICIENT"
    },
    {
      "alignedWord": "but",
      "case": "success",
      "end": 10.52,
      "endOffset": 168,
      "phones": [
        {
          "duration": 0.06,
          "phone": "b_B"
        },
        {
          "duration": 0.06,
          "phone": "ah_I"
        },
        {
          "duration": 0.03,
          "phone": "t_E"
        }
      ],
      "start": 10.37,
      "startOffset": 165,
      "word": "BUT"
    },
    {
      "alignedWord": "among",
      "case": "success",
      "end": 10.84,
      "endOffset": 174,
      "phones": [
        {
          "duration": 0.06,
          "phone": "ah_B"
        },
        {
          "duration": 0.09,
          "phone": "m_I"
        },
        {
          "duration": 0.12,
          "phone": "ah_I"
        },
        {
          "duration": 0.05,
          "phone": "ng_E"
        }
      ],
      "start": 10.52,
      "startOffset": 169,
      "word": "AMONG"
    },
    {
      "alignedWord": "mortals",
      "case": "success",
      "end": 11.42,
      "endOffset": 182,
      "phones": [
        {
          "duration": 0.12,
          "phone": "m_B"
        },
        {
          "duration": 0.12,
          "phone": "ao_I"
        },
        {
          "duration": 0.01,
          "phone": "r_I"
        },
        {
          "duration": 0.09,
          "phone": "t_I"
        },
        {
          "duration": 0.04,
          "phone": "ah_I"
        },
        {
          "duration": 0.1,
          "phone": "l_I"
        },
        {
          "duration": 0.1,
          "phone": "z_E"
        }
      ],
      "start": 10.84,
      "startOffset": 175,
      "word": "MORTALS"
    },
    {
      "alignedWord": "will",
      "case": "success",
      "end": 11.74,
      "endOffset": 187,
      "phones": [
        {
          "duration": 0.11,
          "phone": "w_B"
        },
        {
          "duration": 0.1,
          "phone": "ih_I"
        },
        {
          "duration": 0.11,
          "phone": "l_E"
        }
      ],
      "start": 11.42,
      "startOffset": 183,
      "word": "WILL"
    },
    {
      "alignedWord": "and",
      "case": "success",
      "end": 11.86,
      "endOffset": 191,
      "phones": [
        {
          "duration": 0.06,
          "phone": "ah_B"
        },
        {
          "duration": 0.04,
          "phone": "n_I"
        },
        {
          "duration": 0.02,
          "phone": "d_E"
        }
      ],
      "start": 11.74,
      "startOffset": 188,
      "word": "AND"
    },
    {
      "alignedWord": "argument",
      "case": "success",
      "end": 12.41,
      "endOffset": 200,
      "phones": [
        {
          "duration": 0.11,
          "phone": "aa_B"
        },
        {
          "duration": 0.07,
          "phone": "r_I"
        },
        {
          "duration": 0.05,
          "phone": "g_I"
        },
        {
          "duration": 0.01,
          "phone": "y_I"
        },
        {
          "duration": 0.06,
          "phone": "ah_I"
        },
        {
          "duration": 0.06,
          "phone": "m_I"
        },
        {
          "duration": 0.06,
          "phone": "ah_I"
        },
        {
          "duration": 0.04,
          "phone": "n_I"
        },
        {
          "duration": 0.09,
          "phone": "t_E"
        }
      ],
      "start": 11.86,
      "startOffset": 192,
      "word": "ARGUMENT"
    },
    {
      "alignedWord": "for",
      "case": "success",
      "end": 12.86,
      "endOffset": 204,
      "phones": [
        {
          "duration": 0.09,
          "phone": "f_B"
        },
        {
          "duration": 0.04,
          "phone": "ao_I"
        },
        {
          "duration": 0.07,
          "phone": "r_E"
        }
      ],
      "start": 12.66,
      "startOffset": 201,
      "word": "FOR"
    },
    {
      "alignedWord": "reason",
      "case": "success",
      "end": 13.26,
      "endOffset": 211,
      "phones": [
        {
          "duration": 0.08,
          "phone": "r_B"
        },
        {
          "duration": 0.11,
          "phone": "iy_I"
        },
        {
          "duration": 0.07,
          "phone": "z_I"
        },
        {
          "duration": 0.07,
          "phone": "ah_I"
        },
        {
          "duration": 0.07,
          "phone": "n_E"
        }
      ],
      "start": 12.86,
      "startOffset": 205,
      "word": "REASON"
    },
    {
      "alignedWord": "that",
      "case": "success",
      "end": 13.419999,
      "endOffset": 216,
      "phones": [
        {
          "duration": 0.04,
          "phone": "dh_B"
        },
        {
          "duration": 0.06,
          "phone": "ah_I"
        },
        {
          "duration": 0.06,
          "phone": "t_E"
        }
      ],
      "start": 13.259999,
      "startOffset": 212,
      "word": "THAT"
    },
    {
      "alignedWord": "to",
      "case": "success",
      "end": 13.52,
      "endOffset": 219,
      "phones": [
        {
          "duration": 0.01,
          "phone": "t_B"
        },
        {
          "duration": 0.09,
          "phone": "uw_E"
        }
      ],
      "start": 13.42,
      "startOffset": 217,
      "word": "TO"
    },
    {
      "alignedWord": "you",
      "case": "success",
      "end": 13.78,
      "endOffset": 223,
      "phones": [
        {
          "duration": 0.14,
          "phone": "y_B"
        },
        {
          "duration": 0.12,
          "phone": "uw_E"
        }
      ],
      "start": 13.52,
      "startOffset": 220,
      "word": "YOU"
    },
    {
      "alignedWord": "is",
      "case": "success",
      "end": 13.92,
      "endOffset": 226,
      "phones": [
        {
          "duration": 0.07,
          "phone": "ih_B"
        },
        {
          "duration": 0.07,
          "phone": "z_E"
        }
      ],
      "start": 13.78,
      "startOffset": 224,
      "word": "IS"
    },
    {
      "alignedWord": "manifest",
      "case": "success",
      "end": 14.549999,
      "endOffset": 235,
      "phones": [
        {
          "duration": 0.07,
          "phone": "m_B"
        },
        {
          "duration": 0.07,
          "phone": "ae_I"
        },
        {
          "duration": 0.08,
          "phone": "n_I"
        },
        {
          "duration": 0.05,
          "phone": "ah_I"
        },
        {
          "duration": 0.11,
          "phone": "f_I"
        },
        {
          "duration": 0.09,
          "phone": "eh_I"
        },
        {
          "duration": 0.1,
          "phone": "s_I"
        },
        {
          "duration": 0.05,
          "phone": "t_E"
        }
      ],
      "start": 13.929999,
      "startOffset": 227,
      "word": "MANIFEST"
    }
  ]
}