{
  "transcript": "THEY SAW ANOTHER OLD MAN COMING TOWARDS THEM FOLLOWED BY TWO BLACK DOGS",
  "words": [
    {
      "alignedWord": "they",
      "case": "success",
      "end": 0.33999999999999997,
      "endOffset": 4,
      "phones": [
        {
          "duration": 0.07,
          "phone": "dh_B"
        },
        {
          "duration": 0.08,
          "phone": "ey_E"
        }
      ],
      "start": 0.19,
      "startOffset": 0,
      "word": "THEY"
    },
    {
      "alignedWord": "saw",
      "case": "success",
      "end": 0.56,
      "endOffset": 8,
      "phones": [
        {
          "duration": 0.08,
          "phone": "s_B"
        },
        {
          "duration": 0.14,
          "phone": "ao_E"
        }
      ],
      "start": 0.34,
      "startOffset": 5,
      "word": "SAW"
    },
    {
      "alignedWord": "another",
      "case": "success",
      "end": 0.9600000000000001,
      "endOffset": 16,
      "phones": [
        {
          "duration": 0.02,
          "phone": "ah_B"
        },
        {
          "duration": 0.12,
          "phone": "n_I"
        },
        {
          "duration": 0.08,
          "phone": "ah_I"
        },
        {
          "duration": 0.09,
          "phone": "dh_I"
        },
        {
          "duration": 0.09,
          "phone": "er_E"
        }
      ],
      "start": 0.56,
      "startOffset": 9,
      "word": "ANOTHER"
    },
    {
      "alignedWord": "old",
      "case": "success",
      "end": 1.16,
      "endOffset": 20,
      "phones": [
        {
          "duration": 0.06,
          "phone": "ow_B"
        },
        {
          "duration": 0.06,
          "phone": "l_I"
        },
        {
          "duration": 0.08,
          "phone": "d_E"
        }
      ],
      "start": 0.96,
      "startOffset": 17,
      "word": "OLD"
    },
    {
      "alignedWord": "man",
      "case": "success",
      "end": 1.45,
      "endOffset": 24,
      "phones": [
        {
          "duration": 0.06,
          "phone": "m_B"
        },
        {
          "duration": 0.13,
          "phone": "ae_I"
        },
        {
          "duration": 0.1,
          "phone": "n_E"
        }
      ],
      "start": 1.16,
      "startOffset": 21,
      "word": "MAN"
    },
    {
      "alignedWord": "coming",
      "case": "success",
      "end": 1.74,
      "endOffset": 31,
      "phones": [
        {
          "duration": 0.05,
          "phone": "k_B"
        },
        {
          "duration": 0.06,
          "phone": "ah_I"
        },
        {
          "duration": 0.06,
          "phone": "m_I"
        },
        {
          "duration": 0.05,
          "phone": "ih_I"
        },
        {
          "duration": 0.07,
          "phone": "ng_E"
        }
      ],
      "start": 1.45,
      "startOffset": 25,
      "word": "COMING"
    },
    {
      "alignedWord": "towards",
      "case": "success",
      "end": 2.06,
      "endOffset": 39,
      "phones": [
        {
          "duration": 0.07,
          "phone": "t_B"
        },
        {
          "duration": 0.12,
          "phone": "ao_I"
        },
        {
          "duration": 0.03,
          "phone": "r_I"
        },
        {
          "duration": 0.07,
          "phone": "d_I"
        },
        {
          "duration": 0.03,
          "phone": "z_E"
        }
      ],
      "start": 1.74,
      "startOffset": 32,
      "word": "TOWARDS"
    },
    {
      "alignedWord": "them",
      "case": "success",
      "end": 2.24,
      "endOffset": 44,
      "phones": [
        {
          "duration": 0.02,
          "phone": "dh_B"
        },
        {
          "duration": 0.07,
          "phone": "ah_I"
        },
        {
          "duration": 0.09,
          "phone": "m_E"
        }
      ],
      "start": 2.06,
      "startOffset": 40,
      "word": "THEM"
    },
    {
      "alignedWord": "followed",
      "case": "success",
      "end": 2.58,
      "endOffset": 53,
      "phones": [
        {
          "duration": 0.1,
          "phone": "f_B"
        },
        {
          "duration": 0.06,
          "phone": "aa_I"
        },
        {
          "duration": 0.08,
          "phone": "l_I"
        },
        {
          "duration": 0.04,
          "phone": "ow_I"
        },
        {
          "duration": 0.06,
          "phone": "d_E"
        }
      ],
      "start": 2.24,
      "startOffset": 45,
      "word": "FOLLOWED"
    },
    {
      "alignedWord": "by",
      "case": "success",
      "end": 2.73,
      "endOffset": 56,
      "phones": [
        {
          "duration": 0.05,
          "phone": "b_B"
        },
        {
          "duration": 0.1,
          "phone": "ay_E"
        }
      ],
      "start": 2.58,
      "startOffset": 54,
      "word": "BY"
    },
    {
      "alignedWord": "two",
      "case": "success",
      "end": 3.02,
      "endOffset": 60,
      "phones": [
        {
          "duration": 0.16,
          "phone": "t_B"
        },
        {
          "duration": 0.13,
          "phone": "uw_E"
        }
      ],
      "start": 2.73,
      "startOffset": 57,
      "word": "TWO"
    },
    {
      "alignedWord": "black",
      "case": "success",
      "end": 3.4,
      "endOffset": 66,
      "phones": [
        {
          "duration": 0.09,
          "phone": "b_B"
        },
        {
          "duration": 0.07,
          "phone": "l_I"
        },
        {
          "duration": 0.12,
          "phone": "ae_I"
        },
        {
          "duration": 0.1,
          "phone": "k_E"
        }
      ],
      "start": 3.02,
      "startOffset": 61,
      "word": "BLACK"
    },
    {
      "alignedWord": "dogs",
      "case": "success",
      "end": 3.9899999999999998,
      "endOffset": 71,
      "phones": [
        {
          "duration": 0.07,
          "phone": "d_B"
        },
        {
          "duration": 0.25,
          "phone": "ao_I"
        },
        {
          "duration": 0.1,
          "phone": "g_I"
        },
        {
          "duration": 0.17,
          "phone": "z_E"
        }
      ],
      "start": 3.4,
      "startOffset": 67,
      "word": "DOGS"
    }
  ]
}