{
  "transcript": "AND PRINCIPLES OF CONSTRUCTION TO DISASTER UNSHAKEN BY THIS ADVERSE CRITICISM GERMANY RESTS ASSURED THAT BY MEANS OF ITS ZEPPELINS IT WILL ACHIEVE THAT UNIVERSAL SUPREMACY WHICH IT IS CONVINCED IS ITS DESTINY",
  "words": [
    {
      "alignedWord": "and",
      "case": "success",
      "end": 0.42000000000000004,
      "endOffset": 3,
      "phones": [
        {
          "duration": 0.15,
          "phone": "ae_B"
        },
        {
          "duration": 0.05,
          "phone": "n_I"
        },
        {
          "duration": 0.06,
          "phone": "d_E"
        }
      ],
      "start": 0.16,
      "startOffset": 0,
      "word": "AND"
    },
    {
      "alignedWord": "principles",
      "case": "success",
      "end": 0.9,
      "endOffset": 14,
      "phones": [
        {
          "duration": 0.05,
          "phone": "p_B"
        },
        {
          "duration": 0.01,
          "phone": "r_I"
        },
        {
          "duration": 0.08,
          "phone": "ih_I"
        },
        {
          "duration": 0.01,
          "phone": "n_I"
        },
        {
          "duration": 0.04,
          "phone": "s_I"
        },
        {
          "duration": 0.09,
          "phone": "ah_I"
        },
        {
          "duration": 0.04,
          "phone": "p_I"
        },
        {
          "duration": 0.01,
          "phone": "ah_I"
        },
        {
          "duration": 0.07,
          "phone": "l_I"
        },
        {
          "duration": 0.06,
          "phone": "z_E"
        }
      ],
      "start": 0.44,
      "startOffset": 4,
      "word": "PRINCIPLES"
    },
    {
      "alignedWord": "of",
      "case": "success",
      "end": 1.08,
      "endOffset": 17,
      "phones": [
        {
          "duration": 0.08,
          "phone": "ah_B"
        },
        {
          "duration": 0.09,
          "phone": "v_E"
        }
      ],
      "start": 0.91,
      "startOffset": 15,
      "word": "OF"
    },
    {
      "alignedWord": "construction",
      "case": "success",
      "end": 1.77,
      "endOffset": 30,
      "phones": [
        {
          "duration": 0.03,
          "phone": "k_B"
        },
        {
          "duration": 0.05,
          "phone": "ah_I"
        },
        {
          "duration": 0.03,
          "phone": "n_I"
        },
        {
          "duration": 0.03,
          "phone": "s_I"
        },
        {
          "duration": 0.07,
          "phone": "t_I"
        },
        {
          "duration": 0.07,
          "phone": "r_I"
        },
        {
          "duration": 0.06,
          "phone": "ah_I"
        },
        {
          "duration": 0.07,
          "phone": "k_I"
        },
        {
          "duration": 0.05,
          "phone": "sh_I"
        },
        {
          "duration": 0.07,
          "phone": "ah_I"
        },
        {
          "duration": 0.16,
          "phone": "n_E"
        }
      ],
      "start": 1.08,
      "startOffset": 18,
      "word": "CONSTRUCTION"
    },
    {
      "alignedWord": "to",
      "case": "success",
      "end": 2.06,
      "endOffset": 33,
      "phones": [
        {
          "duration": 0.08,
          "phone": "t_B"
        },
        {
          "duration": 0.08,
          "phone": "uw_E"
        }
      ],
      "start": 1.9,
      "startOffset": 31,
      "word": "TO"
    },
    {
      "alignedWord": "disaster",
      "case": "success",
      "end": 2.7800000000000002,
      "endOffset": 42,
      "phones": [
        {
          "duration": 0.06,
          "phone": "d_B"
        },
        {
          "duration": 0.05,
          "phone": "ih_I"
        },
        {
          "duration": 0.1,
          "phone": "z_I"
        },
        {
          "duration": 0.16,
          "phone": "ae_I"
        },
        {
          "duration": 0.09,
          "phone": "s_I"
        },
        {
          "duration": 0.07,
          "phone": "t_I"
        },
        {
          "duration": 0.19,
          "phone": "er_E"
        }
      ],
      "start": 2.06,
      "startOffset": 34,
      "word": "DISASTER"
    },
    {
      "alignedWord": "<unk>",
      "case": "success",
      "end": 4.35,
      "endOffset": 51,
      "phones": [
        {
          "duration": 0.79,
          "phone": "oov_S"
        }
      ],
      "start": 3.56,
      "startOffset": 43,
      "word": "UNSHAKEN"
    },
    {
      "alignedWord": "by",
      "case": "success",
      "end": 4.569999999999999,
      "endOffset": 54,
      "phones": [
        {
          "duration": 0.11,
          "phone": "b_B"
        },
        {
          "duration": 0.07,
          "phone": "ay_E"
        }
      ],
      "start": 4.39,
      "startOffset": 52,
      "word": "BY"
    },
    {
      "alignedWord": "this",
      "case": "success",
      "end": 4.760000000000001,
      "endOffset": 59,
      "phones": [
        {
          "duration": 0.07,
          "phone": "dh_B"
        },
        {
          "duration": 0.04,
          "phone": "ih_I"
        },
        {
          "duration": 0.08,
          "phone": "s_E"
        }
      ],
      "start": 4.57,
      "startOffset": 55,
      "word": "THIS"
    },
    {
      "alignedWord": "adverse",
      "case": "success",
      "end": 5.26,
      "endOffset": 67,
      "phones": [
        {
          "duration": 0.15,
          "phone": "ae_B"
        },
        {
          "duration": 0.07,
          "phone": "d_I"
        },
        {
          "duration": 0.09,
          "phone": "v_I"
        },
        {
          "duration": 0.07,
          "phone": "er_I"
        },
        {
          "duration": 0.08,
          "phone": "s_E"
        }
      ],
      "start": 4.8,
      "startOffset": 60,
      "word": "ADVERSE"
    },
    {
      "alignedWord": "criticism",
      "case": "success",
      "end": 5.9399999999999995,
      "endOffset": 77,
      "phones": [
        {
          "duration": 0.06,
          "phone": "k_B"
        },
        {
          "duration": 0.07,
          "phone": "r_I"
        },
        {
          "duration": 0.01,
          "phone": "ih_I"
        },
        {
          "duration": 0.03,
          "phone": "t_I"
        },
        {
          "duration": 0.1,
          "phone": "ih_I"
        },
        {
          "duration": 0.06,
          "phone": "s_I"
        },
        {
          "duration": 0.08,
          "phone": "ih_I"
        },
        {
          "duration": 0.07,
          "phone": "z_I"
        },
        {
          "duration": 0.08,
          "phone": "ah_I"
        },
        {
          "duration": 0.12,
          "phone": "m_E"
        }
      ],
      "start": 5.26,
      "startOffset": 68,
      "word": "CRITICISM"
    },
    {
      "alignedWord": "germany",
      "case": "success",
      "end": 6.6000000000000005,
      "endOffset": 85,
      "phones": [
        {
          "duration": 0.12,
          "phone": "jh_B"
        },
        {
          "duration": 0.08,
          "phone": "er_I"
        },
        {
          "duration": 0.03,
          "phone": "m_I"
        },
        {
          "duration": 0.04,
          "phone": "ah_I"
        },
        {
          "duration": 0.06,
          "phone": "n_I"
        },
        {
          "duration": 0.08,
          "phone": "iy_E"
        }
      ],
      "start": 6.19,
      "startOffset": 78,
      "word": "GERMANY"
    },
    {
      "alignedWord": "rests",
      "case": "success",
      "end": 6.989999999999999,
      "endOffset": 91,
      "phones": [
        {
          "duration": 0.08,
          "phone": "r_B"
        },
        {
          "duration": 0.1,
          "phone": "eh_I"
        },
        {
          "duration": 0.11,
          "phone": "s_I"
        },
        {
          "duration": 0.01,
          "phone": "t_I"
        },
        {
          "duration": 0.09,
          "phone": "s_E"
        }
      ],
      "start": 6.6,
      "startOffset": 86,
      "word": "RESTS"
    },
    {
      "alignedWord": "assured",
      "case": "success",
      "end": 7.53,
      "endOffset": 99,
      "phones": [
        {
          "duration": 0.08,
          "phone": "ah_B"
        },
        {
          "duration": 0.12,
          "phone": "sh_I"
        },
        {
          "duration": 0.16,
          "phone": "uh_I"
        },
        {
          "duration": 0.06,
          "phone": "r_I"
        },
        {
          "duration": 0.12,
          "phone": "d_E"
        }
      ],
      "start": 6.99,
      "startOffset": 92,
      "word": "ASSURED"
    },
    {
      "alignedWord": "that",
      "case": "success",
      "end": 7.91,
      "endOffset": 104,
      "phones": [
        {
          "duration": 0.09,
          "phone": "dh_B"
        },
        {
          "duration": 0.04,
          "phone": "ah_I"
        },
        {
          "duration": 0.07,
          "phone": "t_E"
        }
      ],
      "start": 7.71,
      "startOffset": 100,
      "word": "THAT"
    },
    {
      "alignedWord": "by",
      "case": "success",
      "end": 8.05,
      "endOffset": 107,
      "phones": [
        {
          "duration": 0.06,
          "phone": "b_B"
        },
        {
          "duration": 0.08,
          "phone": "ay_E"
        }
      ],
      "start": 7.91,
      "startOffset": 105,
      "word": "BY"
    },
    {
      "alignedWord": "means",
      "case": "success",
      "end": 8.36,
      "endOffset": 113,
      "phones": [
        {
          "duration": 0.08,
          "phone": "m_B"
        },
        {
          "duration": 0.08,
          "phone": "iy_I"
        },
        {
          "duration": 0.07,
          "phone": "n_I"
        },
        {
          "duration": 0.06,
          "phone": "z_E"
        }
      ],
      "start": 8.07,
      "startOffset": 108,
      "word": "MEANS"
    },
    {
      "alignedWord": "of",
      "case": "success",
      "end": 8.539999,
      "endOffset": 116,
      "phones": [
        {
          "duration": 0.08,
          "phone": "ah_B"
        },
        {
          "duration": 0.07,
          "phone": "v_E"
        }
      ],
      "start": 8.389999,
      "startOffset": 114,
      "word": "OF"
    },
    {
      "alignedWord": "its",
      "case": "success",
      "end": 8.719999999999999,
      "endOffset": 120,
      "phones": [
        {
          "duration": 0.06,
          "phone": "ih_B"
        },
        {
          "duration": 0.05,
          "phone": "t_I"
        },
        {
          "duration": 0.07,
          "phone": "s_E"
        }
      ],
      "start": 8.54,
      "startOffset": 117,
      "word": "ITS"
    },
    {
      "alignedWord": "<unk>",
      "case": "success",
      "end": 9.530000000000001,
      "endOffset": 130,
      "phones": [
        {
          "duration": 0.8,
          "phone": "oov_S"
        }
      ],
      "start": 8.73,
      "startOffset": 121,
      "word": "ZEPPELINS"
    },
    {
      "alignedWord": "it",
      "case": "success",
      "end": 9.76,
      "endOffset": 133,
      "phones": [
        {
          "duration": 0.09,
          "phone": "ih_B"
        },
        {
          "duration": 0.08,
          "phone": "t_E"
        }
      ],
      "start": 9.59,
      "startOffset": 131,
      "word": "IT"
    },
    {
      "alignedWord": "will",
      "case": "success",
      "end": 9.9,
      "endOffset": 138,
      "phones": [
        {
          "duration": 0.02,
          "phone": "w_B"
        },
        {
          "duration": 0.07,
          "phone": "ih_I"
        },
        {
          "duration": 0.05,
          "phone": "l_E"
        }
      ],
      "start": 9.76,
      "startOffset": 134,
      "word": "WILL"
    },
    {
      "alignedWord": "achieve",
      "case": "success",
      "end": 10.32,
      "endOffset": 146,
      "phones": [
        {
          "duration": 0.08,
          "phone": "ah_B"
        },
        {
          "duration": 0.16,
          "phone": "ch_I"
        },
        {
          "duration": 0.08,
          "phone": "iy_I"
        },
        {
          "duration": 0.1,
          "phone": "v_E"
        }
      ],
      "start": 9.9,
      "startOffset": 139,
      "word": "ACHIEVE"
    },
    {
      "alignedWord": "that",
      "case": "success",
      "end": 10.729999999999999,
      "endOffset": 151,
      "phones": [
        {
          "duration": 0.12,
          "phone": "dh_B"
        },
        {
          "duration": 0.09,
          "phone": "ae_I"
        },
        {
          "duration": 0.08,
          "phone": "t_E"
        }
      ],
      "start": 10.44,
      "startOffset": 147,
      "word": "THAT"
    },
    {
      "alignedWord": "universal",
      "case": "success",
      "end": 11.27,
      "endOffset": 161,
      "phones": [
        {
          "duration": 0.05,
          "phone": "y_B"
        },
        {
          "duration": 0.08,
          "phone": "uw_I"
        },
        {
          "duration": 0.03,
          "phone": "n_I"
        },
        {
          "duration": 0.06,
          "phone": "ah_I"
        },
        {
          "duration": 0.07,
          "phone": "v_I"
        },
        {
          "duration": 0.07,
          "phone": "er_I"
        },
        {
          "duration": 0.07,
          "phone": "s_I"
        },
        {
          "duration": 0.06,
          "phone": "ah_I"
        },
        {
          "duration": 0.05,
          "phone": "l_E"
        }
      ],
      "start": 10.73,
      "startOffset": 152,
      "word": "UNIVERSAL"
    },
    {
      "alignedWord": "supremacy",
      "case": "success",
      "end": 12.04,
      "endOffset": 171,
      "phones": [
        {
          "duration": 0.07,
          "phone": "s_B"
        },
        {
          "duration": 0.08,
          "phone": "ah_I"
        },
        {
          "duration": 0.06,
          "phone": "p_I"
        },
        {
          "duration": 0.03,
          "phone": "r_I"
        },
        {
          "duration": 0.07,
          "phone": "eh_I"
        },
        {
          "duration": 0.05,
          "phone": "m_I"
        },
        {
          "duration": 0.09,
          "phone": "ah_I"
        },
        {
          "duration": 0.12,
          "phone": "s_I"
        },
        {
          "duration": 0.2,
          "phone": "iy_E"
        }
      ],
      "start": 11.27,
      "startOffset": 162,
      "word": "SUPREMACY"
    },
    {
      "alignedWord": "which",
      "case": "success",
      "end": 12.489999,
      "endOffset": 177,
      "phones": [
        {
          "duration": 0.05,
          "phone": "hh_B"
        },
        {
          "duration": 0.07,
          "phone": "w_I"
        },
        {
          "duration": 0.05,
          "phone": "ih_I"
        },
        {
          "duration": 0.1,
          "phone": "ch_E"
        }
      ],
      "start": 12.219999,
      "startOffset": 172,
      "word": "WHICH"
    },
    {
      "alignedWord": "it",
      "case": "success",
      "end": 12.63,
      "endOffset": 180,
      "phones": [
        {
          "duration": 0.08,
          "phone": "ih_B"
        },
        {
          "duration": 0.05,
          "phone": "t_E"
        }
      ],
      "start": 12.5,
      "startOffset": 178,
      "word": "IT"
    },
    {
      "alignedWord": "is",
      "case": "success",
      "end": 12.82,
      "endOffset": 183,
      "phones": [
        {
          "duration": 0.06,
          "phone": "ih_B"
        },
        {
          "duration": 0.13,
          "phone": "z_E"
        }
      ],
      "start": 12.63,
      "startOffset": 181,
      "word": "IS"
    },
    {
      "alignedWord": "convinced",
      "case": "success",
      "end": 13.479999999999999,
      "endOffset": 193,
      "phones": [
        {
          "duration": 0.09,
          "phone": "k_B"
        },
        {
          "duration": 0.07,
          "phone": "ah_I"
        },
        {
          "duration": 0.04,
          "phone": "n_I"
        },
        {
          "duration": 0.09,
          "phone": "v_I"
        },
        {
          "duration": 0.07,
          "phone": "ih_I"
        },
        {
          "duration": 0.09,
          "phone": "n_I"
        },
        {
          "duration": 0.09,
          "phone": "s_I"
        },
        {
          "duration": 0.08,
          "phone": "t_E"
        }
      ],
      "start": 12.86,
      "startOffset": 184,
      "word": "CONVINCED"
    },
    {
      "alignedWord": "is",
      "case": "success",
      "end": 13.719999999999999,
      "endOffset": 196,
      "phones": [
        {
          "duration": 0.12,
          "phone": "ih_B"
        },
        {
          "duration": 0.07,
          "phone": "z_E"
        }
      ],
      "start": 13.53,
      "startOffset": 194,
      "word": "IS"
    },
    {
      "alignedWord": "its",
      "case": "success",
      "end": 13.959999,
      "endOffset": 200,
      "phones": [
        {
          "duration": 0.06,
          "phone": "ih_B"
        },
        {
          "duration": 0.08,
          "phone": "t_I"
        },
        {
          "duration": 0.1,
          "phone": "s_E"
        }
      ],
      "start": 13.719999,
      "startOffset": 197,
      "word": "ITS"
    },
    {
      "alignedWord": "destiny",
      "case": "success",
      "end": 14.65,
      "endOffset": 208,
      "phones": [
        {
          "duration": 0.07,
          "phone": "d_B"
        },
        {
          "duration": 0.1,
          "phone": "eh_I"
        },
        {
          "duration": 0.09,
          "phone": "s_I"
        },
        {
          "duration": 0.07,
          "phone": "t_I"
        },
        {
          "duration": 0.06,
          "phone": "ah_I"
        },
        {
          "duration": 0.09,
          "phone": "n_I"
        },
        {
          "duration": 0.21,
          "phone": "iy_E"
        }
      ],
      "start": 13.96,
      "startOffset": 201,
      "word": "DESTINY"
    }
  ]
}