{
  "transcript": "MANY VIVID PROPHECIES OF THE FORTHCOMING FLIGHTS BY ZEPPELIN HAVE BEEN UTTERED AND IT IS QUITE PROBABLE THAT MORE THAN ONE WILL BE FULFILLED BUT SUCCESS WILL BE ATTRIBUTABLE RATHER TO ACCIDENT THAN DESIGN",
  "words": [
    {
      "alignedWord": "many",
      "case": "success",
      "end": 0.73,
      "endOffset": 4,
      "phones": [
        {
          "duration": 0.08,
          "phone": "m_B"
        },
        {
          "duration": 0.07,
          "phone": "eh_I"
        },
        {
          "duration": 0.05,
          "phone": "n_I"
        },
        {
          "duration": 0.1,
          "phone": "iy_E"
        }
      ],
      "start": 0.43,
      "startOffset": 0,
      "word": "MANY"
    },
    {
      "alignedWord": "vivid",
      "case": "success",
      "end": 1.05,
      "endOffset": 10,
      "phones": [
        {
          "duration": 0.06,
          "phone": "v_B"
        },
        {
          "duration": 0.07,
          "phone": "ih_I"
        },
        {
          "duration": 0.05,
          "phone": "v_I"
        },
        {
          "duration": 0.06,
          "phone": "ih_I"
        },
        {
          "duration": 0.07,
          "phone": "d_E"
        }
      ],
      "start": 0.74,
      "startOffset": 5,
      "word": "VIVID"
    },
    {
      "alignedWord": "prophecies",
      "case": "success",
      "end": 1.71,
      "endOffset": 21,
      "phones": [
        {
          "duration": 0.05,
          "phone": "p_B"
        },
        {
          "duration": 0.06,
          "phone": "r_I"
        },
        {
          "duration": 0.09,
          "phone": "aa_I"
        },
        {
          "duration": 0.07,
          "phone": "f_I"
        },
        {
          "duration": 0.09,
          "phone": "ah_I"
        },
        {
          "duration": 0.1,
          "phone": "s_I"
        },
        {
          "duration": 0.13,
          "phone": "iy_I"
        },
        {
          "duration": 0.07,
          "phone": "z_E"
        }
      ],
      "start": 1.05,
      "startOffset": 11,
      "word": "PROPHECIES"
    },
    {
      "alignedWord": "of",
      "case": "success",
      "end": 1.85,
      "endOffset": 24,
      "phones": [
        {
          "duration": 0.06,
          "phone": "ah_B"
        },
        {
          "duration": 0.08,
          "phone": "v_E"
        }
      ],
      "start": 1.71,
      "startOffset": 22,
      "word": "OF"
    },
    {
      "alignedWord": "the",
      "case": "success",
      "end": 1.9300000000000002,
      "endOffset": 28,
      "phones": [
        {
          "duration": 0.01,
          "phone": "dh_B"
        },
        {
          "duration": 0.07,
          "phone": "ah_E"
        }
      ],
      "start": 1.85,
      "startOffset": 25,
      "word": "THE"
    },
    {
      "alignedWord": "forthcoming",
      "case": "success",
      "end": 2.5,
      "endOffset": 40,
      "phones": [
        {
          "duration": 0.07,
          "phone": "f_B"
        },
        {
          "duration": 0.08,
          "phone": "ao_I"
        },
        {
          "duration": 0.07,
          "phone": "r_I"
        },
        {
          "duration": 0.07,
          "phone": "th_I"
        },
        {
          "duration": 0.04,
          "phone": "k_I"
        },
        {
          "duration": 0.06,
          "phone": "ah_I"
        },
        {
          "duration": 0.05,
          "phone": "m_I"
        },
        {
          "duration": 0.06,
          "phone": "ih_I"
        },
        {
          "duration": 0.07,
          "phone": "ng_E"
        }
      ],
      "start": 1.93,
      "startOffset": 29,
      "word": "FORTHCOMING"
    },
    {
      "alignedWord": "flights",
      "case": "success",
      "end": 2.82,
      "endOffset": 48,
      "phones": [
        {
          "duration": 0.07,
          "phone": "f_B"
        },
        {
          "duration": 0.06,
          "phone": "l_I"
        },
        {
          "duration": 0.05,
          "phone": "ay_I"
        },
        {
          "duration": 0.08,
          "phone": "t_I"
        },
        {
          "duration": 0.06,
          "phone": "s_E"
        }
      ],
      "start": 2.5,
      "startOffset": 41,
      "word": "FLIGHTS"
    },
    {
      "alignedWord": "by",
      "case": "success",
      "end": 2.98,
      "endOffset": 51,
      "phones": [
        {
          "duration": 0.06,
          "phone": "b_B"
        },
        {
          "duration": 0.1,
          "phone": "ay_E"
        }
      ],
      "start": 2.82,
      "startOffset": 49,
      "word": "BY"
    },
    {
      "alignedWord": "zeppelin",
      "case": "success",
      "end": 3.4800000000000004,
      "endOffset": 60,
      "phones": [
        {
          "duration": 0.07,
          "phone": "z_B"
        },
        {
          "duration": 0.08,
          "phone": "eh_I"
        },
        {
          "duration": 0.08,
          "phone": "p_I"
        },
        {
          "duration": 0.01,
          "phone": "ih_I"
        },
        {
          "duration": 0.06,
          "phone": "l_I"
        },
        {
          "duration": 0.07,
          "phone": "ih_I"
        },
        {
          "duration": 0.12,
          "phone": "n_E"
        }
      ],
      "start": 2.99,
      "startOffset": 52,
      "word": "ZEPPELIN"
    },
    {
      "alignedWord": "have",
      "case": "success",
      "end": 3.9000000000000004,
      "endOffset": 65,
      "phones": [
        {
          "duration": 0.1,
          "phone": "hh_B"
        },
        {
          "duration": 0.07,
          "phone": "ae_I"
        },
        {
          "duration": 0.03,
          "phone": "v_E"
        }
      ],
      "start": 3.7,
      "startOffset": 61,
      "word": "HAVE"
    },
    {
      "alignedWord": "been",
      "case": "success",
      "end": 4.08,
      "endOffset": 70,
      "phones": [
        {
          "duration": 0.05,
          "phone": "b_B"
        },
        {
          "duration": 0.05,
          "phone": "ih_I"
        },
        {
          "duration": 0.08,
          "phone": "n_E"
        }
      ],
      "start": 3.9,
      "startOffset": 66,
      "word": "BEEN"
    },
    {
      "alignedWord": "uttered",
      "case": "success",
      "end": 4.5,
      "endOffset": 78,
      "phones": [
        {
          "duration": 0.14,
          "phone": "ah_B"
        },
        {
          "duration": 0.04,
          "phone": "t_I"
        },
        {
          "duration": 0.11,
          "phone": "er_I"
        },
        {
          "duration": 0.12,
          "phone": "d_E"
        }
      ],
      "start": 4.09,
      "startOffset": 71,
      "word": "UTTERED"
    },
    {
      "alignedWord": "and",
      "case": "success",
      "end": 5.16,
      "endOffset": 82,
      "phones": [
        {
          "duration": 0.16,
          "phone": "ae_B"
        },
        {
          "duration": 0.05,
          "phone": "n_I"
        },
        {
          "duration": 0.07,
          "phone": "d_E"
        }
      ],
      "start": 4.88,
      "startOffset": 79,
      "word": "AND"
    },
    {
      "alignedWord": "it",
      "case": "success",
      "end": 5.29,
      "endOffset": 85,
      "phones": [
        {
          "duration": 0.08,
          "phone": "ih_B"
        },
        {
          "duration": 0.04,
          "phone": "t_E"
        }
      ],
      "start": 5.17,
      "startOffset": 83,
      "word": "IT"
    },
    {
      "alignedWord": "is",
      "case": "success",
      "end": 5.43,
      "endOffset": 88,
      "phones": [
        {
          "duration": 0.07,
          "phone": "ih_B"
        },
        {
          "duration": 0.07,
          "phone": "z_E"
        }
      ],
      "start": 5.29,
      "startOffset": 86,
      "word": "IS"
    },
    {
      "alignedWord": "quite",
      "case": "success",
      "end": 5.67,
      "endOffset": 94,
      "phones": [
        {
          "duration": 0.07,
          "phone": "k_B"
        },
        {
          "duration": 0.01,
          "phone": "w_I"
        },
        {
          "duration": 0.1,
          "phone": "ay_I"
        },
        {
          "duration": 0.06,
          "phone": "t_E"
        }
      ],
      "start": 5.43,
      "startOffset": 89,
      "word": "QUITE"
    },
    {
      "alignedWord": "probable",
      "case": "success",
      "end": 6.22,
      "endOffset": 103,
      "phones": [
        {
          "duration": 0.06,
          "phone": "p_B"
        },
        {
          "duration": 0.05,
          "phone": "r_I"
        },
        {
          "duration": 0.07,
          "phone": "aa_I"
        },
        {
          "duration": 0.07,
          "phone": "b_I"
        },
        {
          "duration": 0.06,
          "phone": "ah_I"
        },
        {
          "duration": 0.05,
          "phone": "b_I"
        },
        {
          "duration": 0.04,
          "phone": "ah_I"
        },
        {
          "duration": 0.15,
          "phone": "l_E"
        }
      ],
      "start": 5.67,
      "startOffset": 95,
      "word": "PROBABLE"
    },
    {
      "alignedWord": "that",
      "case": "success",
      "end": 6.5600000000000005,
      "endOffset": 108,
      "phones": [
        {
          "duration": 0.08,
          "phone": "dh_B"
        },
        {
          "duration": 0.03,
          "phone": "ah_I"
        },
        {
          "duration": 0.04,
          "phone": "t_E"
        }
      ],
      "start": 6.41,
      "startOffset": 104,
      "word": "THAT"
    },
    {
      "alignedWord": "more",
      "case": "success",
      "end": 6.7700000000000005,
      "endOffset": 113,
      "phones": [
        {
          "duration": 0.07,
          "phone": "m_B"
        },
        {
          "duration": 0.07,
          "phone": "ao_I"
        },
        {
          "duration": 0.06,
          "phone": "r_E"
        }
      ],
      "start": 6.57,
      "startOffset": 109,
      "word": "MORE"
    },
    {
      "alignedWord": "than",
      "case": "success",
      "end": 6.9399999999999995,
      "endOffset": 118,
      "phones": [
        {
          "duration": 0.01,
          "phone": "dh_B"
        },
        {
          "duration": 0.08,
          "phone": "ah_I"
        },
        {
          "duration": 0.08,
          "phone": "n_E"
        }
      ],
      "start": 6.77,
      "startOffset": 114,
      "word": "THAN"
    },
    {
      "alignedWord": "one",
      "case": "success",
      "end": 7.23,
      "endOffset": 122,
      "phones": [
        {
          "duration": 0.08,
          "phone": "w_B"
        },
        {
          "duration": 0.1,
          "phone": "ah_I"
        },
        {
          "duration": 0.11,
          "phone": "n_E"
        }
      ],
      "start": 6.94,
      "startOffset": 119,
      "word": "ONE"
    },
    {
      "alignedWord": "will",
      "case": "success",
      "end": 7.4399999999999995,
      "endOffset": 127,
      "phones": [
        {
          "duration": 0.08,
          "phone": "w_B"
        },
        {
          "duration": 0.05,
          "phone": "ih_I"
        },
        {
          "duration": 0.05,
          "phone": "l_E"
        }
      ],
      "start": 7.26,
      "startOffset": 123,
      "word": "WILL"
    },
    {
      "alignedWord": "be",
      "case": "success",
      "end": 7.57,
      "endOffset": 130,
      "phones": [
        {
          "duration": 0.06,
          "phone": "b_B"
        },
        {
          "duration": 0.07,
          "phone": "iy_E"
        }
      ],
      "start": 7.44,
      "startOffset": 128,
      "word": "BE"
    },
    {
      "alignedWord": "fulfilled",
      "case": "success",
      "end": 8.18,
      "endOffset": 140,
      "phones": [
        {
          "duration": 0.08,
          "phone": "f_B"
        },
        {
          "duration": 0.01,
          "phone": "uh_I"
        },
        {
          "duration": 0.06,
          "phone": "l_I"
        },
        {
          "duration": 0.08,
          "phone": "f_I"
        },
        {
          "duration": 0.12,
          "phone": "ih_I"
        },
        {
          "duration": 0.15,
          "phone": "l_I"
        },
        {
          "duration": 0.11,
          "phone": "d_E"
        }
      ],
      "start": 7.57,
      "startOffset": 131,
      "word": "FULFILLED"
    },
    {
      "alignedWord": "but",
      "case": "success",
      "end": 8.69,
      "endOffset": 144,
      "phones": [
        {
          "duration": 0.08,
          "phone": "b_B"
        },
        {
          "duration": 0.05,
          "phone": "ah_I"
        },
        {
          "duration": 0.05,
          "phone": "t_E"
        }
      ],
      "start": 8.51,
      "startOffset": 141,
      "word": "BUT"
    },
    {
      "alignedWord": "success",
      "case": "success",
      "end": 9.139999999999999,
      "endOffset": 152,
      "phones": [
        {
          "duration": 0.04,
          "phone": "s_B"
        },
        {
          "duration": 0.07,
          "phone": "ah_I"
        },
        {
          "duration": 0.08,
          "phone": "k_I"
        },
        {
          "duration": 0.07,
          "phone": "s_I"
        },
        {
          "duration": 0.11,
          "phone": "eh_I"
        },
        {
          "duration": 0.08,
          "phone": "s_E"
        }
      ],
      "start": 8.69,
      "startOffset": 145,
      "word": "SUCCESS"
    },
    {
      "alignedWord": "will",
      "case": "success",
      "end": 9.269999,
      "endOffset": 157,
      "phones": [
        {
          "duration": 0.03,
          "phone": "w_B"
        },
        {
          "duration": 0.05,
          "phone": "ih_I"
        },
        {
          "duration": 0.05,
          "phone": "l_E"
        }
      ],
      "start": 9.139999,
      "startOffset": 153,
      "word": "WILL"
    },
    {
      "alignedWord": "be",
      "case": "success",
      "end": 9.389999999999999,
      "endOffset": 160,
      "phones": [
        {
          "duration": 0.04,
          "phone": "b_B"
        },
        {
          "duration": 0.08,
          "phone": "iy_E"
        }
      ],
      "start": 9.27,
      "startOffset": 158,
      "word": "BE"
    },
    {
      "alignedWord": "attributable",
      "case": "success",
      "end": 10.1,
      "endOffset": 173,
      "phones": [
        {
          "duration": 0.07,
          "phone": "ah_B"
        },
        {
          "duration": 0.09,
          "phone": "t_I"
        },
        {
          "duration": 0.03,
          "phone": "r_I"
        },
        {
          "duration": 0.07,
          "phone": "ih_I"
        },
        {
          "duration": 0.05,
          "phone": "b_I"
        },
        {
          "duration": 0.02,
          "phone": "y_I"
        },
        {
          "duration": 0.02,
          "phone": "ah_I"
        },
        {
          "duration": 0.04,
          "phone": "t_I"
        },
        {
          "duration": 0.06,
          "phone": "ah_I"
        },
        {
          "duration": 0.04,
          "phone": "b_I"
        },
        {
          "duration": 0.05,
          "phone": "ah_I"
        },
        {
          "duration": 0.16,
          "phone": "l_E"
        }
      ],
      "start": 9.4,
      "startOffset": 161,
      "word": "ATTRIBUTABLE"
    },
    {
      "alignedWord": "rather",
      "case": "success",
      "end": 10.55,
      "endOffset": 180,
      "phones": [
        {
          "duration": 0.14,
          "phone": "r_B"
        },
        {
          "duration": 0.08,
          "phone": "ae_I"
        },
        {
          "duration": 0.07,
          "phone": "dh_I"
        },
        {
          "duration": 0.13,
          "phone": "er_E"
        }
      ],
      "start": 10.13,
      "startOffset": 174,
      "word": "RATHER"
    },
    {
      "alignedWord": "to",
      "case": "success",
      "end": 10.83,
      "endOffset": 183,
      "phones": [
        {
          "duration": 0.12,
          "phone": "t_B"
        },
        {
          "duration": 0.13,
          "phone": "uw_E"
        }
      ],
      "start": 10.58,
      "startOffset": 181,
      "word": "TO"
    },
    {
      "alignedWord": "accident",
      "case": "success",
      "end": 11.54,
      "endOffset": 192,
      "phones": [
        {
          "duration": 0.18,
          "phone": "ae_B"
        },
        {
          "duration": 0.09,
          "phone": "k_I"
        },
        {
          "duration": 0.06,
          "phone": "s_I"
        },
        {
          "duration": 0.08,
          "phone": "ah_I"
        },
        {
          "duration": 0.01,
          "phone": "d_I"
        },
        {
          "duration": 0.07,
          "phone": "ah_I"
        },
        {
          "duration": 0.07,
          "phone": "n_I"
        },
        {
          "duration": 0.11,
          "phone": "t_E"
        }
      ],
      "start": 10.87,
      "startOffset": 184,
      "word": "ACCIDENT"
    },
    {
      "alignedWord": "than",
      "case": "success",
      "end": 11.969999,
      "endOffset": 197,
      "phones": [
        {
          "duration": 0.1,
          "phone": "dh_B"
        },
        {
          "duration": 0.09,
          "phone": "ah_I"
        },
        {
          "duration": 0.06,
          "phone": "n_E"
        }
      ],
      "start": 11.719999,
      "startOffset": 193,
      "word": "THAN"
    },
    {
      "alignedWord": "design",
      "case": "success",
      "end": 12.599999,
      "endOffset": 204,
      "phones": [
        {
          "duration": 0.05,
          "phone": "d_B"
        },
        {
          "duration": 0.08,
          "phone": "ih_I"
        },
        {
          "duration": 0.12,
          "phone": "z_I"
        },
        {
          "duration": 0.23,
          "phone": "ay_I"
        },
        {
          "duration": 0.15,
          "phone": "n_E"
        }
      ],
      "start": 11.969999,
      "startOffset": 198,
      "word": "DESIGN"
    }
  ]
}