{
  "transcript": "INTO THE LIFE I HOPE YOUR BROTHER WILL ENTER I AM SO GLAD YOU DON'T HATE HIM HATE HIM WHO BUT A DEMON COULD HATE HIM HELEN LIFTED A GRATEFUL LOOK FROM EYES THAT SWAM IN TEARS",
  "words": [
    {
      "alignedWord": "into",
      "case": "success",
      "end": 0.41000000000000003,
      "endOffset": 4,
      "phones": [
        {
          "duration": 0.1,
          "phone": "ih_B"
        },
        {
          "duration": 0.06,
          "phone": "n_I"
        },
        {
          "duration": 0.05,
          "phone": "t_I"
        },
        {
          "duration": 0.05,
          "phone": "uw_E"
        }
      ],
      "start": 0.15,
      "startOffset": 0,
      "word": "INTO"
    },
    {
      "alignedWord": "the",
      "case": "success",
      "end": 0.52,
      "endOffset": 8,
      "phones": [
        {
          "duration": 0.05,
          "phone": "dh_B"
        },
        {
          "duration": 0.06,
          "phone": "ah_E"
        }
      ],
      "start": 0.41,
      "startOffset": 5,
      "word": "THE"
    },
    {
      "alignedWord": "life",
      "case": "success",
      "end": 0.9,
      "endOffset": 13,
      "phones": [
        {
          "duration": 0.11,
          "phone": "l_B"
        },
        {
          "duration": 0.14,
          "phone": "ay_I"
        },
        {
          "duration": 0.13,
          "phone": "f_E"
        }
      ],
      "start": 0.52,
      "startOffset": 9,
      "word": "LIFE"
    },
    {
      "alignedWord": "i",
      "case": "success",
      "end": 1.07,
      "endOffset": 15,
      "phones": [
        {
          "duration": 0.14,
          "phone": "ay_S"
        }
      ],
      "start": 0.93,
      "startOffset": 14,
      "word": "I"
    },
    {
      "alignedWord": "hope",
      "case": "success",
      "end": 1.34,
      "endOffset": 20,
      "phones": [
        {
          "duration": 0.09,
          "phone": "hh_B"
        },
        {
          "duration": 0.07,
          "phone": "ow_I"
        },
        {
          "duration": 0.11,
          "phone": "p_E"
        }
      ],
      "start": 1.07,
      "startOffset": 16,
      "word": "HOPE"
    },
    {
      "alignedWord": "your",
      "case": "success",
      "end": 1.4400000000000002,
      "endOffset": 25,
      "phones": [
        {
          "duration": 0.01,
          "phone": "y_B"
        },
        {
          "duration": 0.05,
          "phone": "uh_I"
        },
        {
          "duration": 0.04,
          "phone": "r_E"
        }
      ],
      "start": 1.34,
      "startOffset": 21,
      "word": "YOUR"
    },
    {
      "alignedWord": "brother",
      "case": "success",
      "end": 1.73,
      "endOffset": 33,
      "phones": [
        {
          "duration": 0.05,
          "phone": "b_B"
        },
        {
          "duration": 0.04,
          "phone": "r_I"
        },
        {
          "duration": 0.05,
          "phone": "ah_I"
        },
        {
          "duration": 0.08,
          "phone": "dh_I"
        },
        {
          "duration": 0.07,
          "phone": "er_E"
        }
      ],
      "start": 1.44,
      "startOffset": 26,
      "word": "BROTHER"
    },
    {
      "alignedWord": "will",
      "case": "success",
      "end": 1.88,
      "endOffset": 38,
      "phones": [
        {
          "duration": 0.03,
          "phone": "w_B"
        },
        {
          "duration": 0.06,
          "phone": "ih_I"
        },
        {
          "duration": 0.06,
          "phone": "l_E"
        }
      ],
      "start": 1.73,
      "startOffset": 34,
      "word": "WILL"
    },
    {
      "alignedWord": "enter",
      "case": "success",
      "end": 2.36,
      "endOffset": 44,
      "phones": [
        {
          "duration": 0.07,
          "phone": "eh_B"
        },
        {
          "duration": 0.08,
          "phone": "n_I"
        },
        {
          "duration": 0.09,
          "phone": "t_I"
        },
        {
          "duration": 0.24,
          "phone": "er_E"
        }
      ],
      "start": 1.88,
      "startOffset": 39,
      "word": "ENTER"
    },
    {
      "alignedWord": "i",
      "case": "success",
      "end": 3.4699999999999998,
      "endOffset": 46,
      "phones": [
        {
          "duration": 0.13,
          "phone": "ay_S"
        }
      ],
      "start": 3.34,
      "startOffset": 45,
      "word": "I"
    },
    {
      "alignedWord": "am",
      "case": "success",
      "end": 3.64,
      "endOffset": 49,
      "phones": [
        {
          "duration": 0.08,
          "phone": "ae_B"
        },
        {
          "duration": 0.09,
          "phone": "m_E"
        }
      ],
      "start": 3.47,
      "startOffset": 47,
      "word": "AM"
    },
    {
      "alignedWord": "so",
      "case": "success",
      "end": 4.01,
      "endOffset": 52,
      "phones": [
        {
          "duration": 0.2,
          "phone": "s_B"
        },
        {
          "duration": 0.17,
          "phone": "ow_E"
        }
      ],
      "start": 3.64,
      "startOffset": 50,
      "word": "SO"
    },
    {
      "alignedWord": "glad",
      "case": "success",
      "end": 4.42,
      "endOffset": 57,
      "phones": [
        {
          "duration": 0.11,
          "phone": "g_B"
        },
        {
          "duration": 0.09,
          "phone": "l_I"
        },
        {
          "duration": 0.13,
          "phone": "ae_I"
        },
        {
          "duration": 0.08,
          "phone": "d_E"
        }
      ],
      "start": 4.01,
      "startOffset": 53,
      "word": "GLAD"
    },
    {
      "alignedWord": "you",
      "case": "success",
      "end": 4.53,
      "endOffset": 61,
      "phones": [
        {
          "duration": 0.03,
          "phone": "y_B"
        },
        {
          "duration": 0.08,
          "phone": "uw_E"
        }
      ],
      "start": 4.42,
      "startOffset": 58,
      "word": "YOU"
    },
    {
      "alignedWord": "don't",
      "case": "success",
      "end": 4.74,
      "endOffset": 67,
      "phones": [
        {
          "duration": 0.05,
          "phone": "d_B"
        },
        {
          "duration": 0.07,
          "phone": "ow_I"
        },
        {
          "duration": 0.09,
          "phone": "n_E"
        }
      ],
      "start": 4.53,
      "startOffset": 62,
      "word": "DON'T"
    },
    {
      "alignedWord": "hate",
      "case": "success",
      "end": 5.0600000000000005,
      "endOffset": 72,
      "phones": [
        {
          "duration": 0.13,
          "phone": "hh_B"
        },
        {
          "duration": 0.1,
          "phone": "ey_I"
        },
        {
          "duration": 0.09,
          "phone": "t_E"
        }
      ],
      "start": 4.74,
      "startOffset": 68,
      "word": "HATE"
    },
    {
      "alignedWord": "him",
      "case": "success",
      "end": 5.359999999999999,
      "endOffset": 76,
      "phones": [
        {
          "duration": 0.13,
          "phone": "ih_B"
        },
        {
          "duration": 0.17,
          "phone": "m_E"
        }
      ],
      "start": 5.06,
      "startOffset": 73,
      "word": "HIM"
    },
    {
      "alignedWord": "hate",
      "case": "success",
      "end": 6.67,
      "endOffset": 81,
      "phones": [
        {
          "duration": 0.16,
          "phone": "hh_B"
        },
        {
          "duration": 0.15,
          "phone": "ey_I"
        },
        {
          "duration": 0.1,
          "phone": "t_E"
        }
      ],
      "start": 6.26,
      "startOffset": 77,
      "word": "HATE"
    },
    {
      "alignedWord": "him",
      "case": "success",
      "end": 7.05,
      "endOffset": 85,
      "phones": [
        {
          "duration": 0.17,
          "phone": "ih_B"
        },
        {
          "duration": 0.21,
          "phone": "m_E"
        }
      ],
      "start": 6.67,
      "startOffset": 82,
      "word": "HIM"
    },
    {
      "alignedWord": "who",
      "case": "success",
      "end": 7.58,
      "endOffset": 89,
      "phones": [
        {
          "duration": 0.11,
          "phone": "hh_B"
        },
        {
          "duration": 0.08,
          "phone": "uw_E"
        }
      ],
      "start": 7.39,
      "startOffset": 86,
      "word": "WHO"
    },
    {
      "alignedWord": "but",
      "case": "success",
      "end": 7.71,
      "endOffset": 93,
      "phones": [
        {
          "duration": 0.04,
          "phone": "b_B"
        },
        {
          "duration": 0.07,
          "phone": "ah_I"
        },
        {
          "duration": 0.02,
          "phone": "t_E"
        }
      ],
      "start": 7.58,
      "startOffset": 90,
      "word": "BUT"
    },
    {
      "alignedWord": "a",
      "case": "success",
      "end": 7.84,
      "endOffset": 95,
      "phones": [
        {
          "duration": 0.13,
          "phone": "ey_S"
        }
      ],
      "start": 7.71,
      "startOffset": 94,
      "word": "A"
    },
    {
      "alignedWord": "demon",
      "case": "success",
      "end": 8.32,
      "endOffset": 101,
      "phones": [
        {
          "duration": 0.12,
          "phone": "d_B"
        },
        {
          "duration": 0.14,
          "phone": "iy_I"
        },
        {
          "duration": 0.05,
          "phone": "m_I"
        },
        {
          "duration": 0.08,
          "phone": "ah_I"
        },
        {
          "duration": 0.08,
          "phone": "n_E"
        }
      ],
      "start": 7.85,
      "startOffset": 96,
      "word": "DEMON"
    },
    {
      "alignedWord": "could",
      "case": "success",
      "end": 8.48,
      "endOffset": 107,
      "phones": [
        {
          "duration": 0.06,
          "phone": "k_B"
        },
        {
          "duration": 0.05,
          "phone": "uh_I"
        },
        {
          "duration": 0.05,
          "phone": "d_E"
        }
      ],
      "start": 8.32,
      "startOffset": 102,
      "word": "COULD"
    },
    {
      "alignedWord": "hate",
      "case": "success",
      "end": 8.81,
      "endOffset": 112,
      "phones": [
        {
          "duration": 0.1,
          "phone": "hh_B"
        },
        {
          "duration": 0.15,
          "phone": "ey_I"
        },
        {
          "duration": 0.08,
          "phone": "t_E"
        }
      ],
      "start": 8.48,
      "startOffset": 108,
      "word": "HATE"
    },
    {
      "alignedWord": "him",
      "case": "success",
      "end": 9.139999,
      "endOffset": 116,
      "phones": [
        {
          "duration": 0.05,
          "phone": "hh_B"
        },
        {
          "duration": 0.09,
          "phone": "ih_I"
        },
        {
          "duration": 0.19,
          "phone": "m_E"
        }
      ],
      "start": 8.809999,
      "startOffset": 113,
      "word": "HIM"
    },
    {
      "alignedWord": "helen",
      "case": "success",
      "end": 10.419998999999999,
      "endOffset": 122,
      "phones": [
        {
          "duration": 0.1,
          "phone": "hh_B"
        },
        {
          "duration": 0.05,
          "phone": "eh_I"
        },
        {
          "duration": 0.07,
          "phone": "l_I"
        },
        {
          "duration": 0.07,
          "phone": "ah_I"
        },
        {
          "duration": 0.07,
          "phone": "n_E"
        }
      ],
      "start": 10.059999,
      "startOffset": 117,
      "word": "HELEN"
    },
    {
      "alignedWord": "lifted",
      "case": "success",
      "end": 10.74,
      "endOffset": 129,
      "phones": [
        {
          "duration": 0.05,
          "phone": "l_B"
        },
        {
          "duration": 0.05,
          "phone": "ih_I"
        },
        {
          "duration": 0.07,
          "phone": "f_I"
        },
        {
          "duration": 0.04,
          "phone": "t_I"
        },
        {
          "duration": 0.04,
          "phone": "ih_I"
        },
        {
          "duration": 0.07,
          "phone": "d_E"
        }
      ],
      "start": 10.42,
      "startOffset": 123,
      "word": "LIFTED"
    },
    {
      "alignedWord": "a",
      "case": "success",
      "end": 10.81,
      "endOffset": 131,
      "phones": [
        {
          "duration": 0.07,
          "phone": "ah_S"
        }
      ],
      "start": 10.74,
      "startOffset": 130,
      "word": "A"
    },
    {
      "alignedWord": "grateful",
      "case": "success",
      "end": 11.349999,
      "endOffset": 140,
      "phones": [
        {
          "duration": 0.1,
          "phone": "g_B"
        },
        {
          "duration": 0.1,
          "phone": "r_I"
        },
        {
          "duration": 0.05,
          "phone": "ey_I"
        },
        {
          "duration": 0.08,
          "phone": "t_I"
        },
        {
          "duration": 0.07,
          "phone": "f_I"
        },
        {
          "duration": 0.06,
          "phone": "ah_I"
        },
        {
          "duration": 0.08,
          "phone": "l_E"
        }
      ],
      "start": 10.809999,
      "startOffset": 132,
      "word": "GRATEFUL"
    },
    {
      "alignedWord": "look",
      "case": "success",
      "end": 11.589999,
      "endOffset": 145,
      "phones": [
        {
          "duration": 0.08,
          "phone": "l_B"
        },
        {
          "duration": 0.06,
          "phone": "uh_I"
        },
        {
          "duration": 0.1,
          "phone": "k_E"
        }
      ],
      "start": 11.349999,
      "startOffset": 141,
      "word": "LOOK"
    },
    {
      "alignedWord": "from",
      "case": "success",
      "end": 11.81,
      "endOffset": 150,
      "phones": [
        {
          "duration": 0.06,
          "phone": "f_B"
        },
        {
          "duration": 0.08,
          "phone": "er_I"
        },
        {
          "duration": 0.08,
          "phone": "m_E"
        }
      ],
      "start": 11.59,
      "startOffset": 146,
      "word": "FROM"
    },
    {
      "alignedWord": "eyes",
      "case": "success",
      "end": 12.139999,
      "endOffset": 155,
      "phones": [
        {
          "duration": 0.2,
          "phone": "ay_B"
        },
        {
          "duration": 0.13,
          "phone": "z_E"
        }
      ],
      "start": 11.809999,
      "startOffset": 151,
      "word": "EYES"
    },
    {
      "alignedWord": "that",
      "case": "success",
      "end": 12.26,
      "endOffset": 160,
      "phones": [
        {
          "duration": 0.02,
          "phone": "dh_B"
        },
        {
          "duration": 0.03,
          "phone": "ah_I"
        },
        {
          "duration": 0.06,
          "phone": "t_E"
        }
      ],
      "start": 12.15,
      "startOffset": 156,
      "word": "THAT"
    },
    {
      "alignedWord": "swam",
      "case": "success",
      "end": 12.729999999999999,
      "endOffset": 165,
      "phones": [
        {
          "duration": 0.18,
          "phone": "s_B"
        },
        {
          "duration": 0.09,
          "phone": "w_I"
        },
        {
          "duration": 0.12,
          "phone": "ae_I"
        },
        {
          "duration": 0.06,
          "phone": "m_E"
        }
      ],
      "start": 12.28,
      "startOffset": 161,
      "word": "SWAM"
    },
    {
      "alignedWord": "in",
      "case": "success",
      "end": 12.860000000000001,
      "endOffset": 168,
      "phones": [
        {
          "duration": 0.06,
          "phone": "ih_B"
        },
        {
          "duration": 0.07,
          "phone": "n_E"
        }
      ],
      "start": 12.73,
      "startOffset": 166,
      "word": "IN"
    },
    {
      "alignedWord": "tears",
      "case": "success",
      "end": 13.5,
      "endOffset": 174,
      "phones": [
        {
          "duration": 0.07,
          "phone": "t_B"
        },
        {
          "duration": 0.17,
          "phone": "ih_I"
        },
        {
          "duration": 0.16,
          "phone": "r_I"
        },
        {
          "duration": 0.24,
          "phone": "z_E"
        }
      ],
      "start": 12.86,
      "startOffset": 169,
      "word": "TEARS"
    }
  ]
}