{
  "transcript": "YOU ARE A MAN VOID OF COMPASSION I'LL HAVE YOU TURNED OUT THIS MADE THE KEEPER TURN AROUND AND HE BURST INTO A LOUD LAUGH THE PRISONERS THEN APPROACHED AND FORMED A CIRCLE",
  "words": [
    {
      "alignedWord": "you",
      "case": "success",
      "end": 0.53,
      "endOffset": 3,
      "phones": [
        {
          "duration": 0.14,
          "phone": "y_B"
        },
        {
          "duration": 0.11,
          "phone": "uw_E"
        }
      ],
      "start": 0.28,
      "startOffset": 0,
      "word": "YOU"
    },
    {
      "alignedWord": "are",
      "case": "success",
      "end": 0.65,
      "endOffset": 7,
      "phones": [
        {
          "duration": 0.05,
          "phone": "aa_B"
        },
        {
          "duration": 0.07,
          "phone": "r_E"
        }
      ],
      "start": 0.53,
      "startOffset": 4,
      "word": "ARE"
    },
    {
      "alignedWord": "a",
      "case": "success",
      "end": 0.7100000000000001,
      "endOffset": 9,
      "phones": [
        {
          "duration": 0.05,
          "phone": "ah_S"
        }
      ],
      "start": 0.66,
      "startOffset": 8,
      "word": "A"
    },
    {
      "alignedWord": "man",
      "case": "success",
      "end": 1.02,
      "endOffset": 13,
      "phones": [
        {
          "duration": 0.1,
          "phone": "m_B"
        },
        {
          "duration": 0.13,
          "phone": "ae_I"
        },
        {
          "duration": 0.08,
          "phone": "n_E"
        }
      ],
      "start": 0.71,
      "startOffset": 10,
      "word": "MAN"
    },
    {
      "alignedWord": "void",
      "case": "success",
      "end": 1.38,
      "endOffset": 18,
      "phones": [
        {
          "duration": 0.14,
          "phone": "v_B"
        },
        {
          "duration": 0.17,
          "phone": "oy_I"
        },
        {
          "duration": 0.04,
          "phone": "d_E"
        }
      ],
      "start": 1.03,
      "startOffset": 14,
      "word": "VOID"
    },
    {
      "alignedWord": "of",
      "case": "success",
      "end": 1.5,
      "endOffset": 21,
      "phones": [
        {
          "duration": 0.04,
          "phone": "ah_B"
        },
        {
          "duration": 0.08,
          "phone": "v_E"
        }
      ],
      "start": 1.38,
      "startOffset": 19,
      "word": "OF"
    },
    {
      "alignedWord": "compassion",
      "case": "success",
      "end": 2.24,
      "endOffset": 32,
      "phones": [
        {
          "duration": 0.03,
          "phone": "k_B"
        },
        {
          "duration": 0.07,
          "phone": "ah_I"
        },
        {
          "duration": 0.05,
          "phone": "m_I"
        },
        {
          "duration": 0.09,
          "phone": "p_I"
        },
        {
          "duration": 0.15,
          "phone": "ae_I"
        },
        {
          "duration": 0.1,
          "phone": "sh_I"
        },
        {
          "duration": 0.08,
          "phone": "ah_I"
        },
        {
          "duration": 0.17,
          "phone": "n_E"
        }
      ],
      "start": 1.5,
      "startOffset": 22,
      "word": "COMPASSION"
    },
    {
      "alignedWord": "i'll",
      "case": "success",
      "end": 3.08,
      "endOffset": 37,
      "phones": [
        {
          "duration": 0.13,
          "phone": "ay_B"
        },
        {
          "duration": 0.07,
          "phone": "l_E"
        }
      ],
      "start": 2.88,
      "startOffset": 33,
      "word": "I'LL"
    },
    {
      "alignedWord": "have",
      "case": "success",
      "end": 3.28,
      "endOffset": 42,
      "phones": [
        {
          "duration": 0.08,
          "phone": "hh_B"
        },
        {
          "duration": 0.07,
          "phone": "ae_I"
        },
        {
          "duration": 0.04,
          "phone": "v_E"
        }
      ],
      "start": 3.09,
      "startOffset": 38,
      "word": "HAVE"
    },
    {
      "alignedWord": "you",
      "case": "success",
      "end": 3.42,
      "endOffset": 46,
      "phones": [
        {
          "duration": 0.06,
          "phone": "y_B"
        },
        {
          "duration": 0.08,
          "phone": "uw_E"
        }
      ],
      "start": 3.28,
      "startOffset": 43,
      "word": "YOU"
    },
    {
      "alignedWord": "turned",
      "case": "success",
      "end": 3.76,
      "endOffset": 53,
      "phones": [
        {
          "duration": 0.11,
          "phone": "t_B"
        },
        {
          "duration": 0.1,
          "phone": "er_I"
        },
        {
          "duration": 0.06,
          "phone": "n_I"
        },
        {
          "duration": 0.07,
          "phone": "d_E"
        }
      ],
      "start": 3.42,
      "startOffset": 47,
      "word": "TURNED"
    },
    {
      "alignedWord": "out",
      "case": "success",
      "end": 4.18,
      "endOffset": 57,
      "phones": [
        {
          "duration": 0.18,
          "phone": "aw_B"
        },
        {
          "duration": 0.24,
          "phone": "t_E"
        }
      ],
      "start": 3.76,
      "startOffset": 54,
      "word": "OUT"
    },
    {
      "alignedWord": "this",
      "case": "success",
      "end": 5.54,
      "endOffset": 62,
      "phones": [
        {
          "duration": 0.11,
          "phone": "dh_B"
        },
        {
          "duration": 0.11,
          "phone": "ih_I"
        },
        {
          "duration": 0.09,
          "phone": "s_E"
        }
      ],
      "start": 5.23,
      "startOffset": 58,
      "word": "THIS"
    },
    {
      "alignedWord": "made",
      "case": "success",
      "end": 5.78,
      "endOffset": 67,
      "phones": [
        {
          "duration": 0.08,
          "phone": "m_B"
        },
        {
          "duration": 0.09,
          "phone": "ey_I"
        },
        {
          "duration": 0.07,
          "phone": "d_E"
        }
      ],
      "start": 5.54,
      "startOffset": 63,
      "word": "MADE"
    },
    {
      "alignedWord": "the",
      "case": "success",
      "end": 5.86,
      "endOffset": 71,
      "phones": [
        {
          "duration": 0.01,
          "phone": "dh_B"
        },
        {
          "duration": 0.07,
          "phone": "iy_E"
        }
      ],
      "start": 5.78,
      "startOffset": 68,
      "word": "THE"
    },
    {
      "alignedWord": "keeper",
      "case": "success",
      "end": 6.19,
      "endOffset": 78,
      "phones": [
        {
          "duration": 0.09,
          "phone": "k_B"
        },
        {
          "duration": 0.09,
          "phone": "iy_I"
        },
        {
          "duration": 0.07,
          "phone": "p_I"
        },
        {
          "duration": 0.08,
          "phone": "er_E"
        }
      ],
      "start": 5.86,
      "startOffset": 72,
      "word": "KEEPER"
    },
    {
      "alignedWord": "turn",
      "case": "success",
      "end": 6.44,
      "endOffset": 83,
      "phones": [
        {
          "duration": 0.1,
          "phone": "t_B"
        },
        {
          "duration": 0.08,
          "phone": "er_I"
        },
        {
          "duration": 0.07,
          "phone": "n_E"
        }
      ],
      "start": 6.19,
      "startOffset": 79,
      "word": "TURN"
    },
    {
      "alignedWord": "around",
      "case": "success",
      "end": 7.0,
      "endOffset": 90,
      "phones": [
        {
          "duration": 0.12,
          "phone": "er_B"
        },
        {
          "duration": 0.26,
          "phone": "aw_I"
        },
        {
          "duration": 0.06,
          "phone": "n_I"
        },
        {
          "duration": 0.11,
          "phone": "d_E"
        }
      ],
      "start": 6.45,
      "startOffset": 84,
      "word": "AROUND"
    },
    {
      "alignedWord": "and",
      "case": "success",
      "end": 7.46,
      "endOffset": 94,
      "phones": [
        {
          "duration": 0.07,
          "phone": "ae_B"
        },
        {
          "duration": 0.04,
          "phone": "n_I"
        },
        {
          "duration": 0.02,
          "phone": "d_E"
        }
      ],
      "start": 7.33,
      "startOffset": 91,
      "word": "AND"
    },
    {
      "alignedWord": "he",
      "case": "success",
      "end": 7.6,
      "endOffset": 97,
      "phones": [
        {
          "duration": 0.03,
          "phone": "hh_B"
        },
        {
          "duration": 0.11,
          "phone": "iy_E"
        }
      ],
      "start": 7.46,
      "startOffset": 95,
      "word": "HE"
    },
    {
      "alignedWord": "burst",
      "case": "success",
      "end": 8.0,
      "endOffset": 103,
      "phones": [
        {
          "duration": 0.09,
          "phone": "b_B"
        },
        {
          "duration": 0.15,
          "phone": "er_I"
        },
        {
          "duration": 0.08,
          "phone": "s_I"
        },
        {
          "duration": 0.07,
          "phone": "t_E"
        }
      ],
      "start": 7.61,
      "startOffset": 98,
      "word": "BURST"
    },
    {
      "alignedWord": "into",
      "case": "success",
      "end": 8.24,
      "endOffset": 108,
      "phones": [
        {
          "duration": 0.08,
          "phone": "ih_B"
        },
        {
          "duration": 0.04,
          "phone": "n_I"
        },
        {
          "duration": 0.05,
          "phone": "t_I"
        },
        {
          "duration": 0.06,
          "phone": "uw_E"
        }
      ],
      "start": 8.01,
      "startOffset": 104,
      "word": "INTO"
    },
    {
      "alignedWord": "a",
      "case": "success",
      "end": 8.31,
      "endOffset": 110,
      "phones": [
        {
          "duration": 0.07,
          "phone": "ah_S"
        }
      ],
      "start": 8.24,
      "startOffset": 109,
      "word": "A"
    },
    {
      "alignedWord": "loud",
      "case": "success",
      "end": 8.749998999999999,
      "endOffset": 115,
      "phones": [
        {
          "duration": 0.15,
          "phone": "l_B"
        },
        {
          "duration": 0.18,
          "phone": "aw_I"
        },
        {
          "duration": 0.11,
          "phone": "d_E"
        }
      ],
      "start": 8.309999,
      "startOffset": 111,
      "word": "LOUD"
    },
    {
      "alignedWord": "laugh",
      "case": "success",
      "end": 9.21,
      "endOffset": 121,
      "phones": [
        {
          "duration": 0.09,
          "phone": "l_B"
        },
        {
          "duration": 0.19,
          "phone": "ae_I"
        },
        {
          "duration": 0.18,
          "phone": "f_E"
        }
      ],
      "start": 8.75,
      "startOffset": 116,
      "word": "LAUGH"
    },
    {
      "alignedWord": "the",
      "case": "success",
      "end": 9.95,
      "endOffset": 125,
      "phones": [
        {
          "duration": 0.07,
          "phone": "dh_B"
        },
        {
          "duration": 0.05,
          "phone": "ah_E"
        }
      ],
      "start": 9.83,
      "startOffset": 122,
      "word": "THE"
    },
    {
      "alignedWord": "prisoners",
      "case": "success",
      "end": 10.51,
      "endOffset": 135,
      "phones": [
        {
          "duration": 0.08,
          "phone": "p_B"
        },
        {
          "duration": 0.02,
          "phone": "r_I"
        },
        {
          "duration": 0.12,
          "phone": "ih_I"
        },
        {
          "duration": 0.07,
          "phone": "z_I"
        },
        {
          "duration": 0.07,
          "phone": "n_I"
        },
        {
          "duration": 0.09,
          "phone": "er_I"
        },
        {
          "duration": 0.11,
          "phone": "z_E"
        }
      ],
      "start": 9.95,
      "startOffset": 126,
      "word": "PRISONERS"
    },
    {
      "alignedWord": "then",
      "case": "success",
      "end": 10.67,
      "endOffset": 140,
      "phones": [
        {
          "duration": 0.05,
          "phone": "dh_B"
        },
        {
          "duration": 0.06,
          "phone": "eh_I"
        },
        {
          "duration": 0.05,
          "phone": "n_E"
        }
      ],
      "start": 10.51,
      "startOffset": 136,
      "word": "THEN"
    },
    {
      "alignedWord": "approached",
      "case": "success",
      "end": 11.32,
      "endOffset": 151,
      "phones": [
        {
          "duration": 0.06,
          "phone": "ah_B"
        },
        {
          "duration": 0.07,
          "phone": "p_I"
        },
        {
          "duration": 0.09,
          "phone": "r_I"
        },
        {
          "duration": 0.15,
          "phone": "ow_I"
        },
        {
          "duration": 0.13,
          "phone": "ch_I"
        },
        {
          "duration": 0.15,
          "phone": "t_E"
        }
      ],
      "start": 10.67,
      "startOffset": 141,
      "word": "APPROACHED"
    },
    {
      "alignedWord": "and",
      "case": "success",
      "end": 11.639999999999999,
      "endOffset": 155,
      "phones": [
        {
          "duration": 0.07,
          "phone": "ae_B"
        },
        {
          "duration": 0.06,
          "phone": "n_I"
        },
        {
          "duration": 0.07,
          "phone": "d_E"
        }
      ],
      "start": 11.44,
      "startOffset": 152,
      "word": "AND"
    },
    {
      "alignedWord": "formed",
      "case": "success",
      "end": 11.909999,
      "endOffset": 162,
      "phones": [
        {
          "duration": 0.05,
          "phone": "f_B"
        },
        {
          "duration": 0.07,
          "phone": "ao_I"
        },
        {
          "duration": 0.05,
          "phone": "r_I"
        },
        {
          "duration": 0.06,
          "phone": "m_I"
        },
        {
          "duration": 0.04,
          "phone": "d_E"
        }
      ],
      "start": 11.639999,
      "startOffset": 156,
      "word": "FORMED"
    },
    {
      "alignedWord": "a",
      "case": "success",
      "end": 11.97,
      "endOffset": 164,
      "phones": [
        {
          "duration": 0.06,
          "phone": "ah_S"
        }
      ],
      "start": 11.91,
      "startOffset": 163,
      "word": "A"
    },
    {
      "alignedWord": "circle",
      "case": "success",
      "end": 12.569999,
      "endOffset": 171,
      "phones": [
        {
          "duration": 0.15,
          "phone": "s_B"
        },
        {
          "duration": 0.11,
          "phone": "er_I"
        },
        {
          "duration": 0.04,
          "phone": "k_I"
        },
        {
          "duration": 0.08,
          "phone": "ah_I"
        },
        {
          "duration": 0.22,
          "phone": "l_E"
        }
      ],
      "start": 11.969999,
      "startOffset": 165,
      "word": "CIRCLE"
    }
  ]
}