{
  "transcript": "A WEEK LATER MARGUERITE WAS SETTLED IN HER COUNTRY HOUSE AND I WAS INSTALLED AT POINT DU JOUR THEN BEGAN AN EXISTENCE WHICH I SHALL HAVE SOME DIFFICULTY IN DESCRIBING TO YOU",
  "words": [
    {
      "alignedWord": "a",
      "case": "success",
      "end": 0.63,
      "endOffset": 1,
      "phones": [
        {
          "duration": 0.08,
          "phone": "ah_S"
        }
      ],
      "start": 0.55,
      "startOffset": 0,
      "word": "A"
    },
    {
      "alignedWord": "week",
      "case": "success",
      "end": 0.94,
      "endOffset": 6,
      "phones": [
        {
          "duration": 0.09,
          "phone": "w_B"
        },
        {
          "duration": 0.11,
          "phone": "iy_I"
        },
        {
          "duration": 0.11,
          "phone": "k_E"
        }
      ],
      "start": 0.63,
      "startOffset": 2,
      "word": "WEEK"
    },
    {
      "alignedWord": "later",
      "case": "success",
      "end": 1.27,
      "endOffset": 12,
      "phones": [
        {
          "duration": 0.08,
          "phone": "l_B"
        },
        {
          "duration": 0.06,
          "phone": "ey_I"
        },
        {
          "duration": 0.09,
          "phone": "t_I"
        },
        {
          "duration": 0.1,
          "phone": "er_E"
        }
      ],
      "start": 0.94,
      "startOffset": 7,
      "word": "LATER"
    },
    {
      "alignedWord": "marguerite",
      "case": "success",
      "end": 1.78,
      "endOffset": 23,
      "phones": [
        {
          "duration": 0.07,
          "phone": "m_B"
        },
        {
          "duration": 0.07,
          "phone": "aa_I"
        },
        {
          "duration": 0.07,
          "phone": "r_I"
        },
        {
          "duration": 0.09,
          "phone": "g_I"
        },
        {
          "duration": 0.09,
          "phone": "er_I"
        },
        {
          "duration": 0.06,
          "phone": "iy_I"
        },
        {
          "duration": 0.06,
          "phone": "t_E"
        }
      ],
      "start": 1.27,
      "startOffset": 13,
      "word": "MARGUERITE"
    },
    {
      "alignedWord": "was",
      "case": "success",
      "end": 1.99,
      "endOffset": 27,
      "phones": [
        {
          "duration": 0.07,
          "phone": "w_B"
        },
        {
          "duration": 0.06,
          "phone": "ah_I"
        },
        {
          "duration": 0.07,
          "phone": "z_E"
        }
      ],
      "start": 1.79,
      "startOffset": 24,
      "word": "WAS"
    },
    {
      "alignedWord": "settled",
      "case": "success",
      "end": 2.38,
      "endOffset": 35,
      "phones": [
        {
          "duration": 0.08,
          "phone": "s_B"
        },
        {
          "duration": 0.08,
          "phone": "eh_I"
        },
        {
          "duration": 0.02,
          "phone": "t_I"
        },
        {
          "duration": 0.06,
          "phone": "ah_I"
        },
        {
          "duration": 0.06,
          "phone": "l_I"
        },
        {
          "duration": 0.09,
          "phone": "d_E"
        }
      ],
      "start": 1.99,
      "startOffset": 28,
      "word": "SETTLED"
    },
    {
      "alignedWord": "in",
      "case": "success",
      "end": 2.51,
      "endOffset": 38,
      "phones": [
        {
          "duration": 0.05,
          "phone": "ih_B"
        },
        {
          "duration": 0.08,
          "phone": "n_E"
        }
      ],
      "start": 2.38,
      "startOffset": 36,
      "word": "IN"
    },
    {
      "alignedWord": "her",
      "case": "success",
      "end": 2.68,
      "endOffset": 42,
      "phones": [
        {
          "duration": 0.1,
          "phone": "hh_B"
        },
        {
          "duration": 0.06,
          "phone": "er_E"
        }
      ],
      "start": 2.52,
      "startOffset": 39,
      "word": "HER"
    },
    {
      "alignedWord": "country",
      "case": "success",
      "end": 3.1300000000000003,
      "endOffset": 50,
      "phones": [
        {
          "duration": 0.08,
          "phone": "k_B"
        },
        {
          "duration": 0.09,
          "phone": "ah_I"
        },
        {
          "duration": 0.05,
          "phone": "n_I"
        },
        {
          "duration": 0.08,
          "phone": "t_I"
        },
        {
          "duration": 0.07,
          "phone": "r_I"
        },
        {
          "duration": 0.08,
          "phone": "iy_E"
        }
      ],
      "start": 2.68,
      "startOffset": 43,
      "word": "COUNTRY"
    },
    {
      "alignedWord": "house",
      "case": "success",
      "end": 3.5999999999999996,
      "endOffset": 56,
      "phones": [
        {
          "duration": 0.06,
          "phone": "hh_B"
        },
        {
          "duration": 0.17,
          "phone": "aw_I"
        },
        {
          "duration": 0.24,
          "phone": "s_E"
        }
      ],
      "start": 3.13,
      "startOffset": 51,
      "word": "HOUSE"
    },
    {
      "alignedWord": "and",
      "case": "success",
      "end": 4.03,
      "endOffset": 60,
      "phones": [
        {
          "duration": 0.09,
          "phone": "ae_B"
        },
        {
          "duration": 0.06,
          "phone": "n_I"
        },
        {
          "duration": 0.06,
          "phone": "d_E"
        }
      ],
      "start": 3.82,
      "startOffset": 57,
      "word": "AND"
    },
    {
      "alignedWord": "i",
      "case": "success",
      "end": 4.140000000000001,
      "endOffset": 62,
      "phones": [
        {
          "duration": 0.11,
          "phone": "ay_S"
        }
      ],
      "start": 4.03,
      "startOffset": 61,
      "word": "I"
    },
    {
      "alignedWord": "was",
      "case": "success",
      "end": 4.319999999999999,
      "endOffset": 66,
      "phones": [
        {
          "duration": 0.06,
          "phone": "w_B"
        },
        {
          "duration": 0.07,
          "phone": "ah_I"
        },
        {
          "duration": 0.05,
          "phone": "z_E"
        }
      ],
      "start": 4.14,
      "startOffset": 63,
      "word": "WAS"
    },
    {
      "alignedWord": "installed",
      "case": "success",
      "end": 4.95,
      "endOffset": 76,
      "phones": [
        {
          "duration": 0.07,
          "phone": "ih_B"
        },
        {
          "duration": 0.11,
          "phone": "n_I"
        },
        {
          "duration": 0.09,
          "phone": "s_I"
        },
        {
          "duration": 0.09,
          "phone": "t_I"
        },
        {
          "duration": 0.11,
          "phone": "ao_I"
        },
        {
          "duration": 0.09,
          "phone": "l_I"
        },
        {
          "duration": 0.07,
          "phone": "d_E"
        }
      ],
      "start": 4.32,
      "startOffset": 67,
      "word": "INSTALLED"
    },
    {
      "alignedWord": "at",
      "case": "success",
      "end": 5.07,
      "endOffset": 79,
      "phones": [
        {
          "duration": 0.05,
          "phone": "ae_B"
        },
        {
          "duration": 0.07,
          "phone": "t_E"
        }
      ],
      "start": 4.95,
      "startOffset": 77,
      "word": "AT"
    },
    {
      "alignedWord": "point",
      "case": "success",
      "end": 5.37,
      "endOffset": 85,
      "phones": [
        {
          "duration": 0.1,
          "phone": "p_B"
        },
        {
          "duration": 0.09,
          "phone": "oy_I"
        },
        {
          "duration": 0.05,
          "phone": "n_I"
        },
        {
          "duration": 0.06,
          "phone": "t_E"
        }
      ],
      "start": 5.07,
      "startOffset": 80,
      "word": "POINT"
    },
    {
      "alignedWord": "du",
      "case": "success",
      "end": 5.39,
      "endOffset": 88,
      "phones": [
        {
          "duration": 0.01,
          "phone": "d_B"
        },
        {
          "duration": 0.01,
          "phone": "uw_E"
        }
      ],
      "start": 5.37,
      "startOffset": 86,
      "word": "DU"
    },
    {
      "alignedWord": "<unk>",
      "case": "success",
      "end": 5.949999999999999,
      "endOffset": 93,
      "phones": [
        {
          "duration": 0.56,
          "phone": "oov_S"
        }
      ],
      "start": 5.39,
      "startOffset": 89,
      "word": "JOUR"
    },
    {
      "alignedWord": "then",
      "case": "success",
      "end": 7.27,
      "endOffset": 98,
      "phones": [
        {
          "duration": 0.13,
          "phone": "dh_B"
        },
        {
          "duration": 0.09,
          "phone": "eh_I"
        },
        {
          "duration": 0.12,
          "phone": "n_E"
        }
      ],
      "start": 6.93,
      "startOffset": 94,
      "word": "THEN"
    },
    {
      "alignedWord": "began",
      "case": "success",
      "end": 7.71,
      "endOffset": 104,
      "phones": [
        {
          "duration": 0.05,
          "phone": "b_B"
        },
        {
          "duration": 0.09,
          "phone": "ih_I"
        },
        {
          "duration": 0.1,
          "phone": "g_I"
        },
        {
          "duration": 0.13,
          "phone": "ae_I"
        },
        {
          "duration": 0.07,
          "phone": "n_E"
        }
      ],
      "start": 7.27,
      "startOffset": 99,
      "word": "BEGAN"
    },
    {
      "alignedWord": "an",
      "case": "success",
      "end": 7.85,
      "endOffset": 107,
      "phones": [
        {
          "duration": 0.06,
          "phone": "ae_B"
        },
        {
          "duration": 0.08,
          "phone": "n_E"
        }
      ],
      "start": 7.71,
      "startOffset": 105,
      "word": "AN"
    },
    {
      "alignedWord": "existence",
      "case": "success",
      "end": 8.58,
      "endOffset": 117,
      "phones": [
        {
          "duration": 0.06,
          "phone": "ih_B"
        },
        {
          "duration": 0.06,
          "phone": "g_I"
        },
        {
          "duration": 0.1,
          "phone": "z_I"
        },
        {
          "duration": 0.09,
          "phone": "ih_I"
        },
        {
          "duration": 0.1,
          "phone": "s_I"
        },
        {
          "duration": 0.06,
          "phone": "t_I"
        },
        {
          "duration": 0.07,
          "phone": "ah_I"
        },
        {
          "duration": 0.1,
          "phone": "n_I"
        },
        {
          "duration": 0.09,
          "phone": "s_E"
        }
      ],
      "start": 7.85,
      "startOffset": 108,
      "word": "EXISTENCE"
    },
    {
      "alignedWord": "which",
      "case": "success",
      "end": 8.819999000000001,
      "endOffset": 123,
      "phones": [
        {
          "duration": 0.07,
          "phone": "w_B"
        },
        {
          "duration": 0.06,
          "phone": "ih_I"
        },
        {
          "duration": 0.09,
          "phone": "ch_E"
        }
      ],
      "start": 8.599999,
      "startOffset": 118,
      "word": "WHICH"
    },
    {
      "alignedWord": "i",
      "case": "success",
      "end": 8.93,
      "endOffset": 125,
      "phones": [
        {
          "duration": 0.11,
          "phone": "ay_S"
        }
      ],
      "start": 8.82,
      "startOffset": 124,
      "word": "I"
    },
    {
      "alignedWord": "shall",
      "case": "success",
      "end": 9.16,
      "endOffset": 131,
      "phones": [
        {
          "duration": 0.1,
          "phone": "sh_B"
        },
        {
          "duration": 0.03,
          "phone": "ae_I"
        },
        {
          "duration": 0.09,
          "phone": "l_E"
        }
      ],
      "start": 8.94,
      "startOffset": 126,
      "word": "SHALL"
    },
    {
      "alignedWord": "have",
      "case": "success",
      "end": 9.35,
      "endOffset": 136,
      "phones": [
        {
          "duration": 0.04,
          "phone": "hh_B"
        },
        {
          "duration": 0.07,
          "phone": "ae_I"
        },
        {
          "duration": 0.08,
          "phone": "v_E"
        }
      ],
      "start": 9.16,
      "startOffset": 132,
      "word": "HAVE"
    },
    {
      "alignedWord": "some",
      "case": "success",
      "end": 9.639999,
      "endOffset": 141,
      "phones": [
        {
          "duration": 0.09,
          "phone": "s_B"
        },
        {
          "duration": 0.1,
          "phone": "ah_I"
        },
        {
          "duration": 0.1,
          "phone": "m_E"
        }
      ],
      "start": 9.349999,
      "startOffset": 137,
      "word": "SOME"
    },
    {
      "alignedWord": "difficulty",
      "case": "success",
      "end": 10.279999,
      "endOffset": 152,
      "phones": [
        {
          "duration": 0.05,
          "phone": "d_B"
        },
        {
          "duration": 0.1,
          "phone": "ih_I"
        },
        {
          "duration": 0.06,
          "phone": "f_I"
        },
        {
          "duration": 0.08,
          "phone": "ah_I"
        },
        {
          "duration": 0.03,
          "phone": "k_I"
        },
        {
          "duration": 0.08,
          "phone": "ah_I"
        },
        {
          "duration": 0.08,
          "phone": "l_I"
        },
        {
          "duration": 0.09,
          "phone": "t_I"
        },
        {
          "duration": 0.07,
          "phone": "iy_E"
        }
      ],
      "start": 9.639999,
      "startOffset": 142,
      "word": "DIFFICULTY"
    },
    {
      "alignedWord": "in",
      "case": "success",
      "end": 10.42,
      "endOffset": 155,
      "phones": [
        {
          "duration": 0.06,
          "phone": "ih_B"
        },
        {
          "duration": 0.08,
          "phone": "n_E"
        }
      ],
      "start": 10.28,
      "startOffset": 153,
      "word": "IN"
    },
    {
      "alignedWord": "describing",
      "case": "success",
      "end": 11.08,
      "endOffset": 166,
      "phones": [
        {
          "duration": 0.02,
          "phone": "d_B"
        },
        {
          "duration": 0.07,
          "phone": "ih_I"
        },
        {
          "duration": 0.1,
          "phone": "s_I"
        },
        {
          "duration": 0.08,
          "phone": "k_I"
        },
        {
          "duration": 0.04,
          "phone": "r_I"
        },
        {
          "duration": 0.1,
          "phone": "ay_I"
        },
        {
          "duration": 0.09,
          "phone": "b_I"
        },
        {
          "duration": 0.05,
          "phone": "ih_I"
        },
        {
          "duration": 0.11,
          "phone": "ng_E"
        }
      ],
      "start": 10.42,
      "startOffset": 156,
      "word": "DESCRIBING"
    },
    {
      "alignedWord": "to",
      "case": "success",
      "end": 11.24,
      "endOffset": 169,
      "phones": [
        {
          "duration": 0.07,
          "phone": "t_B"
        },
        {
          "duration": 0.09,
          "phone": "uw_E"
        }
      ],
      "start": 11.08,
      "startOffset": 167,
      "word": "TO"
    },
    {
      "alignedWord": "you",
      "case": "success",
      "end": 11.55,
      "endOffset": 173,
      "phones": [
        {
          "duration": 0.11,
          "phone": "y_B"
        },
        {
          "duration": 0.2,
          "phone": "uw_E"
        }
      ],
      "start": 11.24,
      "startOffset": 170,
      "word": "YOU"
    }
  ]
}