{
  "transcript": "AND HENCE WE CAN FURTHER CLEARLY UNDERSTAND WHY THE MIND FROM THE THOUGHT OF ONE THING SHOULD STRAIGHTWAY ARRIVE AT THE THOUGHT OF ANOTHER THING WHICH HAS NO SIMILARITY WITH THE FIRST FOR INSTANCE FROM THE THOUGHT OF THE WORD POMUM AN APPLE",
  "words": [
    {
      "alignedWord": "and",
      "case": "success",
      "end": 0.44,
      "endOffset": 3,
      "phones": [
        {
          "duration": 0.08,
          "phone": "ae_B"
        },
        {
          "duration": 0.08,
          "phone": "n_I"
        },
        {
          "duration": 0.06,
          "phone": "d_E"
        }
      ],
      "start": 0.22,
      "startOffset": 0,
      "word": "AND"
    },
    {
      "alignedWord": "hence",
      "case": "success",
      "end": 0.87,
      "endOffset": 9,
      "phones": [
        {
          "duration": 0.07,
          "phone": "hh_B"
        },
        {
          "duration": 0.14,
          "phone": "eh_I"
        },
        {
          "duration": 0.09,
          "phone": "n_I"
        },
        {
          "duration": 0.13,
          "phone": "s_E"
        }
      ],
      "start": 0.44,
      "startOffset": 4,
      "word": "HENCE"
    },
    {
      "alignedWord": "we",
      "case": "success",
      "end": 1.08,
      "endOffset": 12,
      "phones": [
        {
          "duration": 0.11,
          "phone": "w_B"
        },
        {
          "duration": 0.08,
          "phone": "iy_E"
        }
      ],
      "start": 0.89,
      "startOffset": 10,
      "word": "WE"
    },
    {
      "alignedWord": "can",
      "case": "success",
      "end": 1.26,
      "endOffset": 16,
      "phones": [
        {
          "duration": 0.04,
          "phone": "k_B"
        },
        {
          "duration": 0.06,
          "phone": "ah_I"
        },
        {
          "duration": 0.08,
          "phone": "n_E"
        }
      ],
      "start": 1.08,
      "startOffset": 13,
      "word": "CAN"
    },
    {
      "alignedWord": "further",
      "case": "success",
      "end": 1.65,
      "endOffset": 24,
      "phones": [
        {
          "duration": 0.11,
          "phone": "f_B"
        },
        {
          "duration": 0.14,
          "phone": "er_I"
        },
        {
          "duration": 0.06,
          "phone": "dh_I"
        },
        {
          "duration": 0.07,
          "phone": "er_E"
        }
      ],
      "start": 1.27,
      "startOffset": 17,
      "word": "FURTHER"
    },
    {
      "alignedWord": "clearly",
      "case": "success",
      "end": 2.07,
      "endOffset": 32,
      "phones": [
        {
          "duration": 0.11,
          "phone": "k_B"
        },
        {
          "duration": 0.05,
          "phone": "l_I"
        },
        {
          "duration": 0.06,
          "phone": "ih_I"
        },
        {
          "duration": 0.07,
          "phone": "r_I"
        },
        {
          "duration": 0.06,
          "phone": "l_I"
        },
        {
          "duration": 0.07,
          "phone": "iy_E"
        }
      ],
      "start": 1.65,
      "startOffset": 25,
      "word": "CLEARLY"
    },
    {
      "alignedWord": "understand",
      "case": "success",
      "end": 2.86,
      "endOffset": 43,
      "phones": [
        {
          "duration": 0.05,
          "phone": "ah_B"
        },
        {
          "duration": 0.06,
          "phone": "n_I"
        },
        {
          "duration": 0.03,
          "phone": "d_I"
        },
        {
          "duration": 0.06,
          "phone": "er_I"
        },
        {
          "duration": 0.12,
          "phone": "s_I"
        },
        {
          "duration": 0.08,
          "phone": "t_I"
        },
        {
          "duration": 0.22,
          "phone": "ae_I"
        },
        {
          "duration": 0.07,
          "phone": "n_I"
        },
        {
          "duration": 0.1,
          "phone": "d_E"
        }
      ],
      "start": 2.07,
      "startOffset": 33,
      "word": "UNDERSTAND"
    },
    {
      "alignedWord": "why",
      "case": "success",
      "end": 3.4,
      "endOffset": 47,
      "phones": [
        {
          "duration": 0.16,
          "phone": "w_B"
        },
        {
          "duration": 0.09,
          "phone": "ay_E"
        }
      ],
      "start": 3.15,
      "startOffset": 44,
      "word": "WHY"
    },
    {
      "alignedWord": "the",
      "case": "success",
      "end": 3.51,
      "endOffset": 51,
      "phones": [
        {
          "duration": 0.06,
          "phone": "dh_B"
        },
        {
          "duration": 0.05,
          "phone": "ah_E"
        }
      ],
      "start": 3.4,
      "startOffset": 48,
      "word": "THE"
    },
    {
      "alignedWord": "mind",
      "case": "success",
      "end": 3.8499999999999996,
      "endOffset": 56,
      "phones": [
        {
          "duration": 0.1,
          "phone": "m_B"
        },
        {
          "duration": 0.15,
          "phone": "ay_I"
        },
        {
          "duration": 0.03,
          "phone": "n_I"
        },
        {
          "duration": 0.06,
          "phone": "d_E"
        }
      ],
      "start": 3.51,
      "startOffset": 52,
      "word": "MIND"
    },
    {
      "alignedWord": "from",
      "case": "success",
      "end": 3.97,
      "endOffset": 61,
      "phones": [
        {
          "duration": 0.03,
          "phone": "f_B"
        },
        {
          "duration": 0.04,
          "phone": "er_I"
        },
        {
          "duration": 0.05,
          "phone": "m_E"
        }
      ],
      "start": 3.85,
      "startOffset": 57,
      "word": "FROM"
    },
    {
      "alignedWord": "the",
      "case": "success",
      "end": 4.0600000000000005,
      "endOffset": 65,
      "phones": [
        {
          "duration": 0.04,
          "phone": "dh_B"
        },
        {
          "duration": 0.05,
          "phone": "ah_E"
        }
      ],
      "start": 3.97,
      "startOffset": 62,
      "word": "THE"
    },
    {
      "alignedWord": "thought",
      "case": "success",
      "end": 4.33,
      "endOffset": 73,
      "phones": [
        {
          "duration": 0.1,
          "phone": "th_B"
        },
        {
          "duration": 0.12,
          "phone": "ao_I"
        },
        {
          "duration": 0.05,
          "phone": "t_E"
        }
      ],
      "start": 4.06,
      "startOffset": 66,
      "word": "THOUGHT"
    },
    {
      "alignedWord": "of",
      "case": "success",
      "end": 4.44,
      "endOffset": 76,
      "phones": [
        {
          "duration": 0.04,
          "phone": "ah_B"
        },
        {
          "duration": 0.07,
          "phone": "v_E"
        }
      ],
      "start": 4.33,
      "startOffset": 74,
      "word": "OF"
    },
    {
      "alignedWord": "one",
      "case": "success",
      "end": 4.670000000000001,
      "endOffset": 80,
      "phones": [
        {
          "duration": 0.08,
          "phone": "w_B"
        },
        {
          "duration": 0.08,
          "phone": "ah_I"
        },
        {
          "duration": 0.07,
          "phone": "n_E"
        }
      ],
      "start": 4.44,
      "startOffset": 77,
      "word": "ONE"
    },
    {
      "alignedWord": "thing",
      "case": "success",
      "end": 5.010000000000001,
      "endOffset": 86,
      "phones": [
        {
          "duration": 0.08,
          "phone": "th_B"
        },
        {
          "duration": 0.14,
          "phone": "ih_I"
        },
        {
          "duration": 0.1,
          "phone": "ng_E"
        }
      ],
      "start": 4.69,
      "startOffset": 81,
      "word": "THING"
    },
    {
      "alignedWord": "should",
      "case": "success",
      "end": 5.17,
      "endOffset": 93,
      "phones": [
        {
          "duration": 0.07,
          "phone": "sh_B"
        },
        {
          "duration": 0.07,
          "phone": "uh_I"
        },
        {
          "duration": 0.01,
          "phone": "d_E"
        }
      ],
      "start": 5.02,
      "startOffset": 87,
      "word": "SHOULD"
    },
    {
      "alignedWord": "<unk>",
      "case": "success",
      "end": 5.81,
      "endOffset": 105,
      "phones": [
        {
          "duration": 0.64,
          "phone": "oov_S"
        }
      ],
      "start": 5.17,
      "startOffset": 94,
      "word": "STRAIGHTWAY"
    },
    {
      "alignedWord": "arrive",
      "case": "success",
      "end": 6.1499999999999995,
      "endOffset": 112,
      "phones": [
        {
          "duration": 0.15,
          "phone": "er_B"
        },
        {
          "duration": 0.12,
          "phone": "ay_I"
        },
        {
          "duration": 0.07,
          "phone": "v_E"
        }
      ],
      "start": 5.81,
      "startOffset": 106,
      "word": "ARRIVE"
    },
    {
      "alignedWord": "at",
      "case": "success",
      "end": 6.23,
      "endOffset": 115,
      "phones": [
        {
          "duration": 0.03,
          "phone": "ae_B"
        },
        {
          "duration": 0.05,
          "phone": "t_E"
        }
      ],
      "start": 6.15,
      "startOffset": 113,
      "word": "AT"
    },
    {
      "alignedWord": "the",
      "case": "success",
      "end": 6.32,
      "endOffset": 119,
      "phones": [
        {
          "duration": 0.03,
          "phone": "dh_B"
        },
        {
          "duration": 0.06,
          "phone": "ah_E"
        }
      ],
      "start": 6.23,
      "startOffset": 116,
      "word": "THE"
    },
    {
      "alignedWord": "thought",
      "case": "success",
      "end": 6.58,
      "endOffset": 127,
      "phones": [
        {
          "duration": 0.1,
          "phone": "th_B"
        },
        {
          "duration": 0.1,
          "phone": "ao_I"
        },
        {
          "duration": 0.06,
          "phone": "t_E"
        }
      ],
      "start": 6.32,
      "startOffset": 120,
      "word": "THOUGHT"
    },
    {
      "alignedWord": "of",
      "case": "success",
      "end": 6.68,
      "endOffset": 130,
      "phones": [
        {
          "duration": 0.01,
          "phone": "ah_B"
        },
        {
          "duration": 0.09,
          "phone": "v_E"
        }
      ],
      "start": 6.58,
      "startOffset": 128,
      "word": "OF"
    },
    {
      "alignedWord": "another",
      "case": "success",
      "end": 7.04,
      "endOffset": 138,
      "phones": [
        {
          "duration": 0.02,
          "phone": "ah_B"
        },
        {
          "duration": 0.1,
          "phone": "n_I"
        },
        {
          "duration": 0.06,
          "phone": "ah_I"
        },
        {
          "duration": 0.1,
          "phone": "dh_I"
        },
        {
          "duration": 0.08,
          "phone": "er_E"
        }
      ],
      "start": 6.68,
      "startOffset": 131,
      "word": "ANOTHER"
    },
    {
      "alignedWord": "thing",
      "case": "success",
      "end": 7.47,
      "endOffset": 144,
      "phones": [
        {
          "duration": 0.11,
          "phone": "th_B"
        },
        {
          "duration": 0.15,
          "phone": "ih_I"
        },
        {
          "duration": 0.17,
          "phone": "ng_E"
        }
      ],
      "start": 7.04,
      "startOffset": 139,
      "word": "THING"
    },
    {
      "alignedWord": "which",
      "case": "success",
      "end": 7.89,
      "endOffset": 150,
      "phones": [
        {
          "duration": 0.05,
          "phone": "hh_B"
        },
        {
          "duration": 0.07,
          "phone": "w_I"
        },
        {
          "duration": 0.03,
          "phone": "ih_I"
        },
        {
          "duration": 0.07,
          "phone": "ch_E"
        }
      ],
      "start": 7.67,
      "startOffset": 145,
      "word": "WHICH"
    },
    {
      "alignedWord": "has",
      "case": "success",
      "end": 8.1,
      "endOffset": 154,
      "phones": [
        {
          "duration": 0.05,
          "phone": "hh_B"
        },
        {
          "duration": 0.09,
          "phone": "ae_I"
        },
        {
          "duration": 0.07,
          "phone": "z_E"
        }
      ],
      "start": 7.89,
      "startOffset": 151,
      "word": "HAS"
    },
    {
      "alignedWord": "no",
      "case": "success",
      "end": 8.299999,
      "endOffset": 157,
      "phones": [
        {
          "duration": 0.09,
          "phone": "n_B"
        },
        {
          "duration": 0.11,
          "phone": "ow_E"
        }
      ],
      "start": 8.099999,
      "startOffset": 155,
      "word": "NO"
    },
    {
      "alignedWord": "similarity",
      "case": "success",
      "end": 8.89,
      "endOffset": 168,
      "phones": [
        {
          "duration": 0.08,
          "phone": "s_B"
        },
        {
          "duration": 0.08,
          "phone": "ih_I"
        },
        {
          "duration": 0.05,
          "phone": "m_I"
        },
        {
          "duration": 0.07,
          "phone": "ah_I"
        },
        {
          "duration": 0.06,
          "phone": "l_I"
        },
        {
          "duration": 0.08,
          "phone": "eh_I"
        },
        {
          "duration": 0.04,
          "phone": "r_I"
        },
        {
          "duration": 0.02,
          "phone": "ah_I"
        },
        {
          "duration": 0.05,
          "phone": "t_I"
        },
        {
          "duration": 0.06,
          "phone": "iy_E"
        }
      ],
      "start": 8.3,
      "startOffset": 158,
      "word": "SIMILARITY"
    },
    {
      "alignedWord": "with",
      "case": "success",
      "end": 9.029999,
      "endOffset": 173,
      "phones": [
        {
          "duration": 0.03,
          "phone": "w_B"
        },
        {
          "duration": 0.06,
          "phone": "ih_I"
        },
        {
          "duration": 0.05,
          "phone": "th_E"
        }
      ],
      "start": 8.889999,
      "startOffset": 169,
      "word": "WITH"
    },
    {
      "alignedWord": "the",
      "case": "success",
      "end": 9.12,
      "endOffset": 177,
      "phones": [
        {
          "duration": 0.03,
          "phone": "dh_B"
        },
        {
          "duration": 0.06,
          "phone": "ah_E"
        }
      ],
      "start": 9.03,
      "startOffset": 174,
      "word": "THE"
    },
    {
      "alignedWord": "first",
      "case": "success",
      "end": 9.66,
      "endOffset": 183,
      "phones": [
        {
          "duration": 0.1,
          "phone": "f_B"
        },
        {
          "duration": 0.22,
          "phone": "er_I"
        },
        {
          "duration": 0.15,
          "phone": "s_I"
        },
        {
          "duration": 0.06,
          "phone": "t_E"
        }
      ],
      "start": 9.13,
      "startOffset": 178,
      "word": "FIRST"
    },
    {
      "alignedWord": "for",
      "case": "success",
      "end": 10.139999999999999,
      "endOffset": 187,
      "phones": [
        {
          "duration": 0.09,
          "phone": "f_B"
        },
        {
          "duration": 0.1,
          "phone": "er_E"
        }
      ],
      "start": 9.95,
      "startOffset": 184,
      "word": "FOR"
    },
    {
      "alignedWord": "instance",
      "case": "success",
      "end": 10.729999,
      "endOffset": 196,
      "phones": [
        {
          "duration": 0.08,
          "phone": "ih_B"
        },
        {
          "duration": 0.06,
          "phone": "n_I"
        },
        {
          "duration": 0.08,
          "phone": "s_I"
        },
        {
          "duration": 0.07,
          "phone": "t_I"
        },
        {
          "duration": 0.09,
          "phone": "ah_I"
        },
        {
          "duration": 0.09,
          "phone": "n_I"
        },
        {
          "duration": 0.12,
          "phone": "s_E"
        }
      ],
      "start": 10.139999,
      "startOffset": 188,
      "word": "INSTANCE"
    },
    {
      "alignedWord": "from",
      "case": "success",
      "end": 11.22,
      "endOffset": 201,
      "phones": [
        {
          "duration": 0.08,
          "phone": "f_B"
        },
        {
          "duration": 0.06,
          "phone": "er_I"
        },
        {
          "duration": 0.07,
          "phone": "m_E"
        }
      ],
      "start": 11.01,
      "startOffset": 197,
      "word": "FROM"
    },
    {
      "alignedWord": "the",
      "case": "success",
      "end": 11.319999,
      "endOffset": 205,
      "phones": [
        {
          "duration": 0.05,
          "phone": "dh_B"
        },
        {
          "duration": 0.05,
          "phone": "ah_E"
        }
      ],
      "start": 11.219999,
      "startOffset": 202,
      "word": "THE"
    },
    {
      "alignedWord": "thought",
      "case": "success",
      "end": 11.58,
      "endOffset": 213,
      "phones": [
        {
          "duration": 0.1,
          "phone": "th_B"
        },
        {
          "duration": 0.11,
          "phone": "ao_I"
        },
        {
          "duration": 0.05,
          "phone": "t_E"
        }
      ],
      "start": 11.32,
      "startOffset": 206,
      "word": "THOUGHT"
    },
    {
      "alignedWord": "of",
      "case": "success",
      "end": 11.67,
      "endOffset": 216,
      "phones": [
        {
          "duration": 0.04,
          "phone": "ah_B"
        },
        {
          "duration": 0.05,
          "phone": "v_E"
        }
      ],
      "start": 11.58,
      "startOffset": 214,
      "word": "OF"
    },
    {
      "alignedWord": "the",
      "case": "success",
      "end": 11.74,
      "endOffset": 220,
      "phones": [
        {
          "duration": 0.01,
          "phone": "dh_B"
        },
        {
          "duration": 0.06,
          "phone": "ah_E"
        }
      ],
      "start": 11.67,
      "startOffset": 217,
      "word": "THE"
    },
    {
      "alignedWord": "word",
      "case": "success",
      "end": 11.96,
      "endOffset": 225,
      "phones": [
        {
          "duration": 0.13,
          "phone": "w_B"
        },
        {
          "duration": 0.07,
          "phone": "er_I"
        },
        {
          "duration": 0.02,
          "phone": "d_E"
        }
      ],
      "start": 11.74,
      "startOffset": 221,
      "word": "WORD"
    },
    {
      "alignedWord": "<unk>",
      "case": "success",
      "end": 12.589999,
      "endOffset": 231,
      "phones": [
        {
          "duration": 0.58,
          "phone": "oov_S"
        }
      ],
      "start": 12.009999,
      "startOffset": 226,
      "word": "POMUM"
    },
    {
      "alignedWord": "an",
      "case": "success",
      "end": 12.94,
      "endOffset": 234,
      "phones": [
        {
          "duration": 0.09,
          "phone": "ah_B"
        },
        {
          "duration": 0.08,
          "phone": "n_E"
        }
      ],
      "start": 12.77,
      "startOffset": 232,
      "word": "AN"
    },
    {
      "alignedWord": "apple",
      "case": "success",
      "end": 13.44,
      "endOffset": 240,
      "phones": [
        {
          "duration": 0.16,
          "phone": "ae_B"
        },
        {
          "duration": 0.09,
          "phone": "p_I"
        },
        {
          "duration": 0.05,
          "phone": "ah_I"
        },
        {
          "duration": 0.19,
          "phone": "l_E"
        }
      ],
      "start": 12.95,
      "startOffset": 235,
      "word": "APPLE"
    }
  ]
}