{
  "transcript": "THEY NEED NOT DISHEARTEN US THEY SHOULD PROVE SOURCES OF NEW STRENGTH THE ROCKY WAY MAY PROVE SAFER THAN THE SLIPPERY PATH OF SMOOTHNESS BIRDS CANNOT FLY BEST WITH THE WIND BUT AGAINST IT SHIPS DO NOT PROGRESS IN CALM",
  "words": [
    {
      "alignedWord": "they",
      "case": "success",
      "end": 0.38,
      "endOffset": 4,
      "phones": [
        {
          "duration": 0.09,
          "phone": "dh_B"
        },
        {
          "duration": 0.1,
          "phone": "ey_E"
        }
      ],
      "start": 0.19,
      "startOffset": 0,
      "word": "THEY"
    },
    {
      "alignedWord": "need",
      "case": "success",
      "end": 0.65,
      "endOffset": 9,
      "phones": [
        {
          "duration": 0.07,
          "phone": "n_B"
        },
        {
          "duration": 0.12,
          "phone": "iy_I"
        },
        {
          "duration": 0.08,
          "phone": "d_E"
        }
      ],
      "start": 0.38,
      "startOffset": 5,
      "word": "NEED"
    },
    {
      "alignedWord": "not",
      "case": "success",
      "end": 0.89,
      "endOffset": 13,
      "phones": [
        {
          "duration": 0.04,
          "phone": "n_B"
        },
        {
          "duration": 0.12,
          "phone": "aa_I"
        },
        {
          "duration": 0.08,
          "phone": "t_E"
        }
      ],
      "start": 0.65,
      "startOffset": 10,
      "word": "NOT"
    },
    {
      "alignedWord": "<unk>",
      "case": "success",
      "end": 1.52,
      "endOffset": 24,
      "phones": [
        {
          "duration": 0.61,
          "phone": "oov_S"
        }
      ],
      "start": 0.91,
      "startOffset": 14,
      "word": "DISHEARTEN"
    },
    {
      "alignedWord": "us",
      "case": "success",
      "end": 1.87,
      "endOffset": 27,
      "phones": [
        {
          "duration": 0.11,
          "phone": "ah_B"
        },
        {
          "duration": 0.24,
          "phone": "s_E"
        }
      ],
      "start": 1.52,
      "startOffset": 25,
      "word": "US"
    },
    {
      "alignedWord": "they",
      "case": "success",
      "end": 2.54,
      "endOffset": 32,
      "phones": [
        {
          "duration": 0.08,
          "phone": "dh_B"
        },
        {
          "duration": 0.09,
          "phone": "ey_E"
        }
      ],
      "start": 2.37,
      "startOffset": 28,
      "word": "THEY"
    },
    {
      "alignedWord": "should",
      "case": "success",
      "end": 2.77,
      "endOffset": 39,
      "phones": [
        {
          "duration": 0.09,
          "phone": "sh_B"
        },
        {
          "duration": 0.05,
          "phone": "uh_I"
        },
        {
          "duration": 0.08,
          "phone": "d_E"
        }
      ],
      "start": 2.55,
      "startOffset": 33,
      "word": "SHOULD"
    },
    {
      "alignedWord": "prove",
      "case": "success",
      "end": 3.11,
      "endOffset": 45,
      "phones": [
        {
          "duration": 0.09,
          "phone": "p_B"
        },
        {
          "duration": 0.09,
          "phone": "r_I"
        },
        {
          "duration": 0.08,
          "phone": "uw_I"
        },
        {
          "duration": 0.08,
          "phone": "v_E"
        }
      ],
      "start": 2.77,
      "startOffset": 40,
      "word": "PROVE"
    },
    {
      "alignedWord": "sources",
      "case": "success",
      "end": 3.6799999999999997,
      "endOffset": 53,
      "phones": [
        {
          "duration": 0.12,
          "phone": "s_B"
        },
        {
          "duration": 0.12,
          "phone": "ao_I"
        },
        {
          "duration": 0.08,
          "phone": "r_I"
        },
        {
          "duration": 0.09,
          "phone": "s_I"
        },
        {
          "duration": 0.09,
          "phone": "ah_I"
        },
        {
          "duration": 0.07,
          "phone": "z_E"
        }
      ],
      "start": 3.11,
      "startOffset": 46,
      "word": "SOURCES"
    },
    {
      "alignedWord": "of",
      "case": "success",
      "end": 3.87,
      "endOffset": 56,
      "phones": [
        {
          "duration": 0.09,
          "phone": "ah_B"
        },
        {
          "duration": 0.1,
          "phone": "v_E"
        }
      ],
      "start": 3.68,
      "startOffset": 54,
      "word": "OF"
    },
    {
      "alignedWord": "new",
      "case": "success",
      "end": 4.0600000000000005,
      "endOffset": 60,
      "phones": [
        {
          "duration": 0.03,
          "phone": "n_B"
        },
        {
          "duration": 0.07,
          "phone": "y_I"
        },
        {
          "duration": 0.09,
          "phone": "uw_E"
        }
      ],
      "start": 3.87,
      "startOffset": 57,
      "word": "NEW"
    },
    {
      "alignedWord": "strength",
      "case": "success",
      "end": 4.69,
      "endOffset": 69,
      "phones": [
        {
          "duration": 0.09,
          "phone": "s_B"
        },
        {
          "duration": 0.09,
          "phone": "t_I"
        },
        {
          "duration": 0.1,
          "phone": "r_I"
        },
        {
          "duration": 0.08,
          "phone": "eh_I"
        },
        {
          "duration": 0.1,
          "phone": "ng_I"
        },
        {
          "duration": 0.01,
          "phone": "k_I"
        },
        {
          "duration": 0.15,
          "phone": "th_E"
        }
      ],
      "start": 4.07,
      "startOffset": 61,
      "word": "STRENGTH"
    },
    {
      "alignedWord": "the",
      "case": "success",
      "end": 5.46,
      "endOffset": 73,
      "phones": [
        {
          "duration": 0.08,
          "phone": "dh_B"
        },
        {
          "duration": 0.08,
          "phone": "ah_E"
        }
      ],
      "start": 5.3,
      "startOffset": 70,
      "word": "THE"
    },
    {
      "alignedWord": "rocky",
      "case": "success",
      "end": 5.91,
      "endOffset": 79,
      "phones": [
        {
          "duration": 0.09,
          "phone": "r_B"
        },
        {
          "duration": 0.13,
          "phone": "aa_I"
        },
        {
          "duration": 0.12,
          "phone": "k_I"
        },
        {
          "duration": 0.11,
          "phone": "iy_E"
        }
      ],
      "start": 5.46,
      "startOffset": 74,
      "word": "ROCKY"
    },
    {
      "alignedWord": "way",
      "case": "success",
      "end": 6.18,
      "endOffset": 83,
      "phones": [
        {
          "duration": 0.12,
          "phone": "w_B"
        },
        {
          "duration": 0.15,
          "phone": "ey_E"
        }
      ],
      "start": 5.91,
      "startOffset": 80,
      "word": "WAY"
    },
    {
      "alignedWord": "may",
      "case": "success",
      "end": 6.3999999999999995,
      "endOffset": 87,
      "phones": [
        {
          "duration": 0.11,
          "phone": "m_B"
        },
        {
          "duration": 0.11,
          "phone": "ey_E"
        }
      ],
      "start": 6.18,
      "startOffset": 84,
      "word": "MAY"
    },
    {
      "alignedWord": "prove",
      "case": "success",
      "end": 6.71,
      "endOffset": 93,
      "phones": [
        {
          "duration": 0.07,
          "phone": "p_B"
        },
        {
          "duration": 0.09,
          "phone": "r_I"
        },
        {
          "duration": 0.05,
          "phone": "uw_I"
        },
        {
          "duration": 0.09,
          "phone": "v_E"
        }
      ],
      "start": 6.41,
      "startOffset": 88,
      "word": "PROVE"
    },
    {
      "alignedWord": "safer",
      "case": "success",
      "end": 7.2,
      "endOffset": 99,
      "phones": [
        {
          "duration": 0.17,
          "phone": "s_B"
        },
        {
          "duration": 0.12,
          "phone": "ey_I"
        },
        {
          "duration": 0.11,
          "phone": "f_I"
        },
        {
          "duration": 0.09,
          "phone": "er_E"
        }
      ],
      "start": 6.71,
      "startOffset": 94,
      "word": "SAFER"
    },
    {
      "alignedWord": "than",
      "case": "success",
      "end": 7.38,
      "endOffset": 104,
      "phones": [
        {
          "duration": 0.05,
          "phone": "dh_B"
        },
        {
          "duration": 0.07,
          "phone": "ae_I"
        },
        {
          "duration": 0.06,
          "phone": "n_E"
        }
      ],
      "start": 7.2,
      "startOffset": 100,
      "word": "THAN"
    },
    {
      "alignedWord": "the",
      "case": "success",
      "end": 7.49,
      "endOffset": 108,
      "phones": [
        {
          "duration": 0.03,
          "phone": "dh_B"
        },
        {
          "duration": 0.08,
          "phone": "ah_E"
        }
      ],
      "start": 7.38,
      "startOffset": 105,
      "word": "THE"
    },
    {
      "alignedWord": "slippery",
      "case": "success",
      "end": 7.98,
      "endOffset": 117,
      "phones": [
        {
          "duration": 0.12,
          "phone": "s_B"
        },
        {
          "duration": 0.06,
          "phone": "l_I"
        },
        {
          "duration": 0.06,
          "phone": "ih_I"
        },
        {
          "duration": 0.09,
          "phone": "p_I"
        },
        {
          "duration": 0.07,
          "phone": "er_I"
        },
        {
          "duration": 0.09,
          "phone": "iy_E"
        }
      ],
      "start": 7.49,
      "startOffset": 109,
      "word": "SLIPPERY"
    },
    {
      "alignedWord": "path",
      "case": "success",
      "end": 8.35,
      "endOffset": 122,
      "phones": [
        {
          "duration": 0.09,
          "phone": "p_B"
        },
        {
          "duration": 0.18,
          "phone": "ae_I"
        },
        {
          "duration": 0.08,
          "phone": "th_E"
        }
      ],
      "start": 8.0,
      "startOffset": 118,
      "word": "PATH"
    },
    {
      "alignedWord": "of",
      "case": "success",
      "end": 8.49,
      "endOffset": 125,
      "phones": [
        {
          "duration": 0.07,
          "phone": "ah_B"
        },
        {
          "duration": 0.06,
          "phone": "v_E"
        }
      ],
      "start": 8.36,
      "startOffset": 123,
      "word": "OF"
    },
    {
      "alignedWord": "smoothness",
      "case": "success",
      "end": 9.31,
      "endOffset": 136,
      "phones": [
        {
          "duration": 0.14,
          "phone": "s_B"
        },
        {
          "duration": 0.08,
          "phone": "m_I"
        },
        {
          "duration": 0.15,
          "phone": "uw_I"
        },
        {
          "duration": 0.07,
          "phone": "dh_I"
        },
        {
          "duration": 0.07,
          "phone": "n_I"
        },
        {
          "duration": 0.11,
          "phone": "ah_I"
        },
        {
          "duration": 0.2,
          "phone": "s_E"
        }
      ],
      "start": 8.49,
      "startOffset": 126,
      "word": "SMOOTHNESS"
    },
    {
      "alignedWord": "birds",
      "case": "success",
      "end": 10.33,
      "endOffset": 142,
      "phones": [
        {
          "duration": 0.11,
          "phone": "b_B"
        },
        {
          "duration": 0.12,
          "phone": "er_I"
        },
        {
          "duration": 0.09,
          "phone": "d_I"
        },
        {
          "duration": 0.07,
          "phone": "z_E"
        }
      ],
      "start": 9.94,
      "startOffset": 137,
      "word": "BIRDS"
    },
    {
      "alignedWord": "cannot",
      "case": "success",
      "end": 10.69,
      "endOffset": 149,
      "phones": [
        {
          "duration": 0.05,
          "phone": "k_B"
        },
        {
          "duration": 0.05,
          "phone": "ah_I"
        },
        {
          "duration": 0.08,
          "phone": "n_I"
        },
        {
          "duration": 0.11,
          "phone": "aa_I"
        },
        {
          "duration": 0.07,
          "phone": "t_E"
        }
      ],
      "start": 10.33,
      "startOffset": 143,
      "word": "CANNOT"
    },
    {
      "alignedWord": "fly",
      "case": "success",
      "end": 11.03,
      "endOffset": 153,
      "phones": [
        {
          "duration": 0.1,
          "phone": "f_B"
        },
        {
          "duration": 0.09,
          "phone": "l_I"
        },
        {
          "duration": 0.15,
          "phone": "ay_E"
        }
      ],
      "start": 10.69,
      "startOffset": 150,
      "word": "FLY"
    },
    {
      "alignedWord": "best",
      "case": "success",
      "end": 11.51,
      "endOffset": 158,
      "phones": [
        {
          "duration": 0.12,
          "phone": "b_B"
        },
        {
          "duration": 0.14,
          "phone": "eh_I"
        },
        {
          "duration": 0.1,
          "phone": "s_I"
        },
        {
          "duration": 0.11,
          "phone": "t_E"
        }
      ],
      "start": 11.04,
      "startOffset": 154,
      "word": "BEST"
    },
    {
      "alignedWord": "with",
      "case": "success",
      "end": 11.649999000000001,
      "endOffset": 163,
      "phones": [
        {
          "duration": 0.03,
          "phone": "w_B"
        },
        {
          "duration": 0.06,
          "phone": "ih_I"
        },
        {
          "duration": 0.05,
          "phone": "th_E"
        }
      ],
      "start": 11.509999,
      "startOffset": 159,
      "word": "WITH"
    },
    {
      "alignedWord": "the",
      "case": "success",
      "end": 11.76,
      "endOffset": 167,
      "phones": [
        {
          "duration": 0.04,
          "phone": "dh_B"
        },
        {
          "duration": 0.07,
          "phone": "ah_E"
        }
      ],
      "start": 11.65,
      "startOffset": 164,
      "word": "THE"
    },
    {
      "alignedWord": "wind",
      "case": "success",
      "end": 12.199999,
      "endOffset": 172,
      "phones": [
        {
          "duration": 0.11,
          "phone": "w_B"
        },
        {
          "duration": 0.15,
          "phone": "ih_I"
        },
        {
          "duration": 0.09,
          "phone": "n_I"
        },
        {
          "duration": 0.09,
          "phone": "d_E"
        }
      ],
      "start": 11.759999,
      "startOffset": 168,
      "word": "WIND"
    },
    {
      "alignedWord": "but",
      "case": "success",
      "end": 12.4,
      "endOffset": 176,
      "phones": [
        {
          "duration": 0.06,
          "phone": "b_B"
        },
        {
          "duration": 0.08,
          "phone": "ah_I"
        },
        {
          "duration": 0.03,
          "phone": "t_E"
        }
      ],
      "start": 12.23,
      "startOffset": 173,
      "word": "BUT"
    },
    {
      "alignedWord": "against",
      "case": "success",
      "end": 12.9,
      "endOffset": 184,
      "phones": [
        {
          "duration": 0.04,
          "phone": "ah_B"
        },
        {
          "duration": 0.12,
          "phone": "g_I"
        },
        {
          "duration": 0.08,
          "phone": "eh_I"
        },
        {
          "duration": 0.07,
          "phone": "n_I"
        },
        {
          "duration": 0.11,
          "phone": "s_I"
        },
        {
          "duration": 0.08,
          "phone": "t_E"
        }
      ],
      "start": 12.4,
      "startOffset": 177,
      "word": "AGAINST"
    },
    {
      "alignedWord": "it",
      "case": "success",
      "end": 13.15,
      "endOffset": 187,
      "phones": [
        {
          "duration": 0.08,
          "phone": "ih_B"
        },
        {
          "duration": 0.17,
          "phone": "t_E"
        }
      ],
      "start": 12.9,
      "startOffset": 185,
      "word": "IT"
    },
    {
      "alignedWord": "ships",
      "case": "success",
      "end": 14.11,
      "endOffset": 193,
      "phones": [
        {
          "duration": 0.19,
          "phone": "sh_B"
        },
        {
          "duration": 0.08,
          "phone": "ih_I"
        },
        {
          "duration": 0.1,
          "phone": "p_I"
        },
        {
          "duration": 0.07,
          "phone": "s_E"
        }
      ],
      "start": 13.67,
      "startOffset": 188,
      "word": "SHIPS"
    },
    {
      "alignedWord": "do",
      "case": "success",
      "end": 14.26,
      "endOffset": 196,
      "phones": [
        {
          "duration": 0.07,
          "phone": "d_B"
        },
        {
          "duration": 0.08,
          "phone": "uw_E"
        }
      ],
      "start": 14.11,
      "startOffset": 194,
      "word": "DO"
    },
    {
      "alignedWord": "not",
      "case": "success",
      "end": 14.479999000000001,
      "endOffset": 200,
      "phones": [
        {
          "duration": 0.05,
          "phone": "n_B"
        },
        {
          "duration": 0.09,
          "phone": "aa_I"
        },
        {
          "duration": 0.08,
          "phone": "t_E"
        }
      ],
      "start": 14.259999,
      "startOffset": 197,
      "word": "NOT"
    },
    {
      "alignedWord": "progress",
      "case": "success",
      "end": 14.96,
      "endOffset": 209,
      "phones": [
        {
          "duration": 0.05,
          "phone": "p_B"
        },
        {
          "duration": 0.05,
          "phone": "r_I"
        },
        {
          "duration": 0.02,
          "phone": "ah_I"
        },
        {
          "duration": 0.09,
          "phone": "g_I"
        },
        {
          "duration": 0.07,
          "phone": "r_I"
        },
        {
          "duration": 0.11,
          "phone": "eh_I"
        },
        {
          "duration": 0.09,
          "phone": "s_E"
        }
      ],
      "start": 14.48,
      "startOffset": 201,
      "word": "PROGRESS"
    },
    {
      "alignedWord": "in",
      "case": "success",
      "end": 15.120000000000001,
      "endOffset": 212,
      "phones": [
        {
          "duration": 0.07,
          "phone": "ih_B"
        },
        {
          "duration": 0.09,
          "phone": "n_E"
        }
      ],
      "start": 14.96,
      "startOffset": 210,
      "word": "IN"
    },
    {
      "alignedWord": "calm",
      "case": "success",
      "end": 15.639999999999999,
      "endOffset": 217,
      "phones": [
        {
          "duration": 0.12,
          "phone": "k_B"
        },
        {
          "duration": 0.26,
          "phone": "aa_I"
        },
        {
          "duration": 0.14,
          "phone": "m_E"
        }
      ],
      "start": 15.12,
      "startOffset": 213,
      "word": "CALM"
    }
  ]
}