{
  "transcript": "THAT THE PLAGUE WAS NOT WHAT IS COMMONLY CALLED CONTAGIOUS LIKE THE SCARLET FEVER OR EXTINCT SMALL POX WAS PROVED IT WAS CALLED AN EPIDEMIC BUT THE GRAND QUESTION",
  "words": [
    {
      "alignedWord": "that",
      "case": "success",
      "end": 0.6799999999999999,
      "endOffset": 4,
      "phones": [
        {
          "duration": 0.08,
          "phone": "dh_B"
        },
        {
          "duration": 0.04,
          "phone": "ae_I"
        },
        {
          "duration": 0.06,
          "phone": "t_E"
        }
      ],
      "start": 0.5,
      "startOffset": 0,
      "word": "THAT"
    },
    {
      "alignedWord": "the",
      "case": "success",
      "end": 0.77,
      "endOffset": 8,
      "phones": [
        {
          "duration": 0.04,
          "phone": "dh_B"
        },
        {
          "duration": 0.05,
          "phone": "ah_E"
        }
      ],
      "start": 0.68,
      "startOffset": 5,
      "word": "THE"
    },
    {
      "alignedWord": "plague",
      "case": "success",
      "end": 1.1400000000000001,
      "endOffset": 15,
      "phones": [
        {
          "duration": 0.1,
          "phone": "p_B"
        },
        {
          "duration": 0.11,
          "phone": "l_I"
        },
        {
          "duration": 0.09,
          "phone": "ey_I"
        },
        {
          "duration": 0.07,
          "phone": "g_E"
        }
      ],
      "start": 0.77,
      "startOffset": 9,
      "word": "PLAGUE"
    },
    {
      "alignedWord": "was",
      "case": "success",
      "end": 1.3399999999999999,
      "endOffset": 19,
      "phones": [
        {
          "duration": 0.07,
          "phone": "w_B"
        },
        {
          "duration": 0.05,
          "phone": "ah_I"
        },
        {
          "duration": 0.07,
          "phone": "z_E"
        }
      ],
      "start": 1.15,
      "startOffset": 16,
      "word": "WAS"
    },
    {
      "alignedWord": "not",
      "case": "success",
      "end": 1.6600000000000001,
      "endOffset": 23,
      "phones": [
        {
          "duration": 0.1,
          "phone": "n_B"
        },
        {
          "duration": 0.13,
          "phone": "aa_I"
        },
        {
          "duration": 0.08,
          "phone": "t_E"
        }
      ],
      "start": 1.35,
      "startOffset": 20,
      "word": "NOT"
    },
    {
      "alignedWord": "what",
      "case": "success",
      "end": 1.97,
      "endOffset": 28,
      "phones": [
        {
          "duration": 0.12,
          "phone": "w_B"
        },
        {
          "duration": 0.08,
          "phone": "ah_I"
        },
        {
          "duration": 0.1,
          "phone": "t_E"
        }
      ],
      "start": 1.67,
      "startOffset": 24,
      "word": "WHAT"
    },
    {
      "alignedWord": "is",
      "case": "success",
      "end": 2.2800000000000002,
      "endOffset": 31,
      "phones": [
        {
          "duration": 0.17,
          "phone": "ih_B"
        },
        {
          "duration": 0.09,
          "phone": "z_E"
        }
      ],
      "start": 2.02,
      "startOffset": 29,
      "word": "IS"
    },
    {
      "alignedWord": "commonly",
      "case": "success",
      "end": 2.7199999999999998,
      "endOffset": 40,
      "phones": [
        {
          "duration": 0.12,
          "phone": "k_B"
        },
        {
          "duration": 0.1,
          "phone": "aa_I"
        },
        {
          "duration": 0.06,
          "phone": "m_I"
        },
        {
          "duration": 0.01,
          "phone": "ah_I"
        },
        {
          "duration": 0.03,
          "phone": "n_I"
        },
        {
          "duration": 0.04,
          "phone": "l_I"
        },
        {
          "duration": 0.08,
          "phone": "iy_E"
        }
      ],
      "start": 2.28,
      "startOffset": 32,
      "word": "COMMONLY"
    },
    {
      "alignedWord": "called",
      "case": "success",
      "end": 3.1500000000000004,
      "endOffset": 47,
      "phones": [
        {
          "duration": 0.12,
          "phone": "k_B"
        },
        {
          "duration": 0.12,
          "phone": "ao_I"
        },
        {
          "duration": 0.09,
          "phone": "l_I"
        },
        {
          "duration": 0.1,
          "phone": "d_E"
        }
      ],
      "start": 2.72,
      "startOffset": 41,
      "word": "CALLED"
    },
    {
      "alignedWord": "contagious",
      "case": "success",
      "end": 4.17,
      "endOffset": 58,
      "phones": [
        {
          "duration": 0.05,
          "phone": "k_B"
        },
        {
          "duration": 0.07,
          "phone": "ah_I"
        },
        {
          "duration": 0.07,
          "phone": "n_I"
        },
        {
          "duration": 0.18,
          "phone": "t_I"
        },
        {
          "duration": 0.16,
          "phone": "ey_I"
        },
        {
          "duration": 0.09,
          "phone": "jh_I"
        },
        {
          "duration": 0.14,
          "phone": "ah_I"
        },
        {
          "duration": 0.26,
          "phone": "s_E"
        }
      ],
      "start": 3.15,
      "startOffset": 48,
      "word": "CONTAGIOUS"
    },
    {
      "alignedWord": "like",
      "case": "success",
      "end": 5.0,
      "endOffset": 63,
      "phones": [
        {
          "duration": 0.13,
          "phone": "l_B"
        },
        {
          "duration": 0.1,
          "phone": "ay_I"
        },
        {
          "duration": 0.1,
          "phone": "k_E"
        }
      ],
      "start": 4.67,
      "startOffset": 59,
      "word": "LIKE"
    },
    {
      "alignedWord": "the",
      "case": "success",
      "end": 5.13,
      "endOffset": 67,
      "phones": [
        {
          "duration": 0.06,
          "phone": "dh_B"
        },
        {
          "duration": 0.07,
          "phone": "ah_E"
        }
      ],
      "start": 5.0,
      "startOffset": 64,
      "word": "THE"
    },
    {
      "alignedWord": "scarlet",
      "case": "success",
      "end": 5.57,
      "endOffset": 75,
      "phones": [
        {
          "duration": 0.1,
          "phone": "s_B"
        },
        {
          "duration": 0.08,
          "phone": "k_I"
        },
        {
          "duration": 0.07,
          "phone": "aa_I"
        },
        {
          "duration": 0.04,
          "phone": "r_I"
        },
        {
          "duration": 0.03,
          "phone": "l_I"
        },
        {
          "duration": 0.07,
          "phone": "ah_I"
        },
        {
          "duration": 0.05,
          "phone": "t_E"
        }
      ],
      "start": 5.13,
      "startOffset": 68,
      "word": "SCARLET"
    },
    {
      "alignedWord": "fever",
      "case": "success",
      "end": 6.19,
      "endOffset": 81,
      "phones": [
        {
          "duration": 0.12,
          "phone": "f_B"
        },
        {
          "duration": 0.12,
          "phone": "iy_I"
        },
        {
          "duration": 0.1,
          "phone": "v_I"
        },
        {
          "duration": 0.28,
          "phone": "er_E"
        }
      ],
      "start": 5.57,
      "startOffset": 76,
      "word": "FEVER"
    },
    {
      "alignedWord": "or",
      "case": "success",
      "end": 6.609999999999999,
      "endOffset": 84,
      "phones": [
        {
          "duration": 0.12,
          "phone": "ao_B"
        },
        {
          "duration": 0.06,
          "phone": "r_E"
        }
      ],
      "start": 6.43,
      "startOffset": 82,
      "word": "OR"
    },
    {
      "alignedWord": "extinct",
      "case": "success",
      "end": 7.24,
      "endOffset": 92,
      "phones": [
        {
          "duration": 0.05,
          "phone": "ih_B"
        },
        {
          "duration": 0.1,
          "phone": "k_I"
        },
        {
          "duration": 0.15,
          "phone": "s_I"
        },
        {
          "duration": 0.07,
          "phone": "t_I"
        },
        {
          "duration": 0.08,
          "phone": "ih_I"
        },
        {
          "duration": 0.09,
          "phone": "ng_I"
        },
        {
          "duration": 0.04,
          "phone": "k_I"
        },
        {
          "duration": 0.05,
          "phone": "t_E"
        }
      ],
      "start": 6.61,
      "startOffset": 85,
      "word": "EXTINCT"
    },
    {
      "alignedWord": "small",
      "case": "success",
      "end": 7.7,
      "endOffset": 98,
      "phones": [
        {
          "duration": 0.19,
          "phone": "s_B"
        },
        {
          "duration": 0.07,
          "phone": "m_I"
        },
        {
          "duration": 0.11,
          "phone": "ao_I"
        },
        {
          "duration": 0.08,
          "phone": "l_E"
        }
      ],
      "start": 7.25,
      "startOffset": 93,
      "word": "SMALL"
    },
    {
      "alignedWord": "pox",
      "case": "success",
      "end": 8.21,
      "endOffset": 102,
      "phones": [
        {
          "duration": 0.13,
          "phone": "p_B"
        },
        {
          "duration": 0.19,
          "phone": "aa_I"
        },
        {
          "duration": 0.09,
          "phone": "k_I"
        },
        {
          "duration": 0.1,
          "phone": "s_E"
        }
      ],
      "start": 7.7,
      "startOffset": 99,
      "word": "POX"
    },
    {
      "alignedWord": "was",
      "case": "success",
      "end": 8.39,
      "endOffset": 106,
      "phones": [
        {
          "duration": 0.04,
          "phone": "w_B"
        },
        {
          "duration": 0.05,
          "phone": "ah_I"
        },
        {
          "duration": 0.09,
          "phone": "z_E"
        }
      ],
      "start": 8.21,
      "startOffset": 103,
      "word": "WAS"
    },
    {
      "alignedWord": "proved",
      "case": "success",
      "end": 8.950000000000001,
      "endOffset": 113,
      "phones": [
        {
          "duration": 0.09,
          "phone": "p_B"
        },
        {
          "duration": 0.1,
          "phone": "r_I"
        },
        {
          "duration": 0.14,
          "phone": "uw_I"
        },
        {
          "duration": 0.05,
          "phone": "v_I"
        },
        {
          "duration": 0.17,
          "phone": "d_E"
        }
      ],
      "start": 8.4,
      "startOffset": 107,
      "word": "PROVED"
    },
    {
      "alignedWord": "it",
      "case": "success",
      "end": 9.610000000000001,
      "endOffset": 116,
      "phones": [
        {
          "duration": 0.07,
          "phone": "ih_B"
        },
        {
          "duration": 0.06,
          "phone": "t_E"
        }
      ],
      "start": 9.48,
      "startOffset": 114,
      "word": "IT"
    },
    {
      "alignedWord": "was",
      "case": "success",
      "end": 9.799999999999999,
      "endOffset": 120,
      "phones": [
        {
          "duration": 0.03,
          "phone": "w_B"
        },
        {
          "duration": 0.07,
          "phone": "ah_I"
        },
        {
          "duration": 0.09,
          "phone": "z_E"
        }
      ],
      "start": 9.61,
      "startOffset": 117,
      "word": "WAS"
    },
    {
      "alignedWord": "called",
      "case": "success",
      "end": 10.34,
      "endOffset": 127,
      "phones": [
        {
          "duration": 0.13,
          "phone": "k_B"
        },
        {
          "duration": 0.11,
          "phone": "ao_I"
        },
        {
          "duration": 0.13,
          "phone": "l_I"
        },
        {
          "duration": 0.17,
          "phone": "d_E"
        }
      ],
      "start": 9.8,
      "startOffset": 121,
      "word": "CALLED"
    },
    {
      "alignedWord": "an",
      "case": "success",
      "end": 10.61,
      "endOffset": 130,
      "phones": [
        {
          "duration": 0.12,
          "phone": "ah_B"
        },
        {
          "duration": 0.07,
          "phone": "n_E"
        }
      ],
      "start": 10.42,
      "startOffset": 128,
      "word": "AN"
    },
    {
      "alignedWord": "epidemic",
      "case": "success",
      "end": 11.41,
      "endOffset": 139,
      "phones": [
        {
          "duration": 0.07,
          "phone": "eh_B"
        },
        {
          "duration": 0.07,
          "phone": "p_I"
        },
        {
          "duration": 0.07,
          "phone": "ah_I"
        },
        {
          "duration": 0.09,
          "phone": "d_I"
        },
        {
          "duration": 0.09,
          "phone": "eh_I"
        },
        {
          "duration": 0.04,
          "phone": "m_I"
        },
        {
          "duration": 0.11,
          "phone": "ih_I"
        },
        {
          "duration": 0.26,
          "phone": "k_E"
        }
      ],
      "start": 10.61,
      "startOffset": 131,
      "word": "EPIDEMIC"
    },
    {
      "alignedWord": "but",
      "case": "success",
      "end": 12.270000000000001,
      "endOffset": 143,
      "phones": [
        {
          "duration": 0.06,
          "phone": "b_B"
        },
        {
          "duration": 0.03,
          "phone": "ah_I"
        },
        {
          "duration": 0.05,
          "phone": "t_E"
        }
      ],
      "start": 12.13,
      "startOffset": 140,
      "word": "BUT"
    },
    {
      "alignedWord": "the",
      "case": "success",
      "end": 12.33,
      "endOffset": 147,
      "phones": [
        {
          "duration": 0.02,
          "phone": "dh_B"
        },
        {
          "duration": 0.04,
          "phone": "ah_E"
        }
      ],
      "start": 12.27,
      "startOffset": 144,
      "word": "THE"
    },
    {
      "alignedWord": "grand",
      "case": "success",
      "end": 12.68,
      "endOffset": 153,
      "phones": [
        {
          "duration": 0.07,
          "phone": "g_B"
        },
        {
          "duration": 0.07,
          "phone": "r_I"
        },
        {
          "duration": 0.11,
          "phone": "ae_I"
        },
        {
          "duration": 0.02,
          "phone": "n_I"
        },
        {
          "duration": 0.08,
          "phone": "d_E"
        }
      ],
      "start": 12.33,
      "startOffset": 148,
      "word": "GRAND"
    },
    {
      "alignedWord": "question",
      "case": "success",
      "end": 13.229999000000001,
      "endOffset": 162,
      "phones": [
        {
          "duration": 0.09,
          "phone": "k_B"
        },
        {
          "duration": 0.05,
          "phone": "w_I"
        },
        {
          "duration": 0.09,
          "phone": "eh_I"
        },
        {
          "duration": 0.07,
          "phone": "s_I"
        },
        {
          "duration": 0.08,
          "phone": "ch_I"
        },
        {
          "duration": 0.01,
          "phone": "ah_I"
        },
        {
          "duration": 0.16,
          "phone": "n_E"
        }
      ],
      "start": 12.679999,
      "startOffset": 154,
      "word": "QUESTION"
    }
  ]
}