{
  "transcript": "OR RUIN WOULD SWALLOW UP THE POULTRY FIRM RIGHTLY OR WRONGLY WE ATTRIBUTED THE MISCHIEF TO A CERTAIN SILVER GRAY THAT HAD SEVERAL TIMES BEEN SEEN IN THE NEIGHBORHOOD THAT AUTUMN",
  "words": [
    {
      "alignedWord": "or",
      "case": "success",
      "end": 0.44,
      "endOffset": 2,
      "phones": [
        {
          "duration": 0.14,
          "phone": "ao_B"
        },
        {
          "duration": 0.1,
          "phone": "r_E"
        }
      ],
      "start": 0.2,
      "startOffset": 0,
      "word": "OR"
    },
    {
      "alignedWord": "ruin",
      "case": "success",
      "end": 0.89,
      "endOffset": 7,
      "phones": [
        {
          "duration": 0.12,
          "phone": "r_B"
        },
        {
          "duration": 0.12,
          "phone": "uw_I"
        },
        {
          "duration": 0.1,
          "phone": "ih_I"
        },
        {
          "duration": 0.11,
          "phone": "n_E"
        }
      ],
      "start": 0.44,
      "startOffset": 3,
      "word": "RUIN"
    },
    {
      "alignedWord": "would",
      "case": "success",
      "end": 1.09,
      "endOffset": 13,
      "phones": [
        {
          "duration": 0.07,
          "phone": "w_B"
        },
        {
          "duration": 0.05,
          "phone": "uh_I"
        },
        {
          "duration": 0.08,
          "phone": "d_E"
        }
      ],
      "start": 0.89,
      "startOffset": 8,
      "word": "WOULD"
    },
    {
      "alignedWord": "swallow",
      "case": "success",
      "end": 1.62,
      "endOffset": 21,
      "phones": [
        {
          "duration": 0.12,
          "phone": "s_B"
        },
        {
          "duration": 0.1,
          "phone": "w_I"
        },
        {
          "duration": 0.09,
          "phone": "aa_I"
        },
        {
          "duration": 0.09,
          "phone": "l_I"
        },
        {
          "duration": 0.13,
          "phone": "ow_E"
        }
      ],
      "start": 1.09,
      "startOffset": 14,
      "word": "SWALLOW"
    },
    {
      "alignedWord": "up",
      "case": "success",
      "end": 1.7600000000000002,
      "endOffset": 24,
      "phones": [
        {
          "duration": 0.07,
          "phone": "ah_B"
        },
        {
          "duration": 0.07,
          "phone": "p_E"
        }
      ],
      "start": 1.62,
      "startOffset": 22,
      "word": "UP"
    },
    {
      "alignedWord": "the",
      "case": "success",
      "end": 1.8900000000000001,
      "endOffset": 28,
      "phones": [
        {
          "duration": 0.06,
          "phone": "dh_B"
        },
        {
          "duration": 0.07,
          "phone": "ah_E"
        }
      ],
      "start": 1.76,
      "startOffset": 25,
      "word": "THE"
    },
    {
      "alignedWord": "poultry",
      "case": "success",
      "end": 2.38,
      "endOffset": 36,
      "phones": [
        {
          "duration": 0.07,
          "phone": "p_B"
        },
        {
          "duration": 0.05,
          "phone": "ow_I"
        },
        {
          "duration": 0.08,
          "phone": "l_I"
        },
        {
          "duration": 0.11,
          "phone": "t_I"
        },
        {
          "duration": 0.08,
          "phone": "r_I"
        },
        {
          "duration": 0.09,
          "phone": "iy_E"
        }
      ],
      "start": 1.9,
      "startOffset": 29,
      "word": "POULTRY"
    },
    {
      "alignedWord": "firm",
      "case": "success",
      "end": 2.81,
      "endOffset": 41,
      "phones": [
        {
          "duration": 0.09,
          "phone": "f_B"
        },
        {
          "duration": 0.15,
          "phone": "er_I"
        },
        {
          "duration": 0.19,
          "phone": "m_E"
        }
      ],
      "start": 2.38,
      "startOffset": 37,
      "word": "FIRM"
    },
    {
      "alignedWord": "rightly",
      "case": "success",
      "end": 4.34,
      "endOffset": 49,
      "phones": [
        {
          "duration": 0.11,
          "phone": "r_B"
        },
        {
          "duration": 0.1,
          "phone": "ay_I"
        },
        {
          "duration": 0.08,
          "phone": "t_I"
        },
        {
          "duration": 0.09,
          "phone": "l_I"
        },
        {
          "duration": 0.09,
          "phone": "iy_E"
        }
      ],
      "start": 3.87,
      "startOffset": 42,
      "word": "RIGHTLY"
    },
    {
      "alignedWord": "or",
      "case": "success",
      "end": 4.6,
      "endOffset": 52,
      "phones": [
        {
          "duration": 0.15,
          "phone": "ao_B"
        },
        {
          "duration": 0.11,
          "phone": "r_E"
        }
      ],
      "start": 4.34,
      "startOffset": 50,
      "word": "OR"
    },
    {
      "alignedWord": "wrongly",
      "case": "success",
      "end": 5.16,
      "endOffset": 60,
      "phones": [
        {
          "duration": 0.13,
          "phone": "r_B"
        },
        {
          "duration": 0.11,
          "phone": "ao_I"
        },
        {
          "duration": 0.13,
          "phone": "ng_I"
        },
        {
          "duration": 0.06,
          "phone": "l_I"
        },
        {
          "duration": 0.13,
          "phone": "iy_E"
        }
      ],
      "start": 4.6,
      "startOffset": 53,
      "word": "WRONGLY"
    },
    {
      "alignedWord": "we",
      "case": "success",
      "end": 5.4,
      "endOffset": 63,
      "phones": [
        {
          "duration": 0.11,
          "phone": "w_B"
        },
        {
          "duration": 0.09,
          "phone": "iy_E"
        }
      ],
      "start": 5.2,
      "startOffset": 61,
      "word": "WE"
    },
    {
      "alignedWord": "attributed",
      "case": "success",
      "end": 6.04,
      "endOffset": 74,
      "phones": [
        {
          "duration": 0.06,
          "phone": "ah_B"
        },
        {
          "duration": 0.1,
          "phone": "t_I"
        },
        {
          "duration": 0.06,
          "phone": "r_I"
        },
        {
          "duration": 0.09,
          "phone": "ih_I"
        },
        {
          "duration": 0.07,
          "phone": "b_I"
        },
        {
          "duration": 0.01,
          "phone": "y_I"
        },
        {
          "duration": 0.07,
          "phone": "ah_I"
        },
        {
          "duration": 0.01,
          "phone": "t_I"
        },
        {
          "duration": 0.09,
          "phone": "ah_I"
        },
        {
          "duration": 0.08,
          "phone": "d_E"
        }
      ],
      "start": 5.4,
      "startOffset": 64,
      "word": "ATTRIBUTED"
    },
    {
      "alignedWord": "the",
      "case": "success",
      "end": 6.12,
      "endOffset": 78,
      "phones": [
        {
          "duration": 0.01,
          "phone": "dh_B"
        },
        {
          "duration": 0.07,
          "phone": "ah_E"
        }
      ],
      "start": 6.04,
      "startOffset": 75,
      "word": "THE"
    },
    {
      "alignedWord": "mischief",
      "case": "success",
      "end": 6.67,
      "endOffset": 87,
      "phones": [
        {
          "duration": 0.1,
          "phone": "m_B"
        },
        {
          "duration": 0.08,
          "phone": "ih_I"
        },
        {
          "duration": 0.08,
          "phone": "s_I"
        },
        {
          "duration": 0.1,
          "phone": "ch_I"
        },
        {
          "duration": 0.1,
          "phone": "ah_I"
        },
        {
          "duration": 0.09,
          "phone": "f_E"
        }
      ],
      "start": 6.12,
      "startOffset": 79,
      "word": "MISCHIEF"
    },
    {
      "alignedWord": "to",
      "case": "success",
      "end": 6.84,
      "endOffset": 90,
      "phones": [
        {
          "duration": 0.09,
          "phone": "t_B"
        },
        {
          "duration": 0.08,
          "phone": "uw_E"
        }
      ],
      "start": 6.67,
      "startOffset": 88,
      "word": "TO"
    },
    {
      "alignedWord": "a",
      "case": "success",
      "end": 6.95,
      "endOffset": 92,
      "phones": [
        {
          "duration": 0.11,
          "phone": "ah_S"
        }
      ],
      "start": 6.84,
      "startOffset": 91,
      "word": "A"
    },
    {
      "alignedWord": "certain",
      "case": "success",
      "end": 7.44,
      "endOffset": 100,
      "phones": [
        {
          "duration": 0.14,
          "phone": "s_B"
        },
        {
          "duration": 0.09,
          "phone": "er_I"
        },
        {
          "duration": 0.02,
          "phone": "t_I"
        },
        {
          "duration": 0.08,
          "phone": "ah_I"
        },
        {
          "duration": 0.16,
          "phone": "n_E"
        }
      ],
      "start": 6.95,
      "startOffset": 93,
      "word": "CERTAIN"
    },
    {
      "alignedWord": "silver",
      "case": "success",
      "end": 8.01,
      "endOffset": 107,
      "phones": [
        {
          "duration": 0.15,
          "phone": "s_B"
        },
        {
          "duration": 0.09,
          "phone": "ih_I"
        },
        {
          "duration": 0.08,
          "phone": "l_I"
        },
        {
          "duration": 0.09,
          "phone": "v_I"
        },
        {
          "duration": 0.09,
          "phone": "er_E"
        }
      ],
      "start": 7.51,
      "startOffset": 101,
      "word": "SILVER"
    },
    {
      "alignedWord": "gray",
      "case": "success",
      "end": 8.49,
      "endOffset": 112,
      "phones": [
        {
          "duration": 0.09,
          "phone": "g_B"
        },
        {
          "duration": 0.13,
          "phone": "r_I"
        },
        {
          "duration": 0.26,
          "phone": "ey_E"
        }
      ],
      "start": 8.01,
      "startOffset": 108,
      "word": "GRAY"
    },
    {
      "alignedWord": "that",
      "case": "success",
      "end": 8.7,
      "endOffset": 117,
      "phones": [
        {
          "duration": 0.08,
          "phone": "dh_B"
        },
        {
          "duration": 0.05,
          "phone": "ah_I"
        },
        {
          "duration": 0.05,
          "phone": "t_E"
        }
      ],
      "start": 8.52,
      "startOffset": 113,
      "word": "THAT"
    },
    {
      "alignedWord": "had",
      "case": "success",
      "end": 8.899999999999999,
      "endOffset": 121,
      "phones": [
        {
          "duration": 0.05,
          "phone": "hh_B"
        },
        {
          "duration": 0.06,
          "phone": "ae_I"
        },
        {
          "duration": 0.09,
          "phone": "d_E"
        }
      ],
      "start": 8.7,
      "startOffset": 118,
      "word": "HAD"
    },
    {
      "alignedWord": "several",
      "case": "success",
      "end": 9.3,
      "endOffset": 129,
      "phones": [
        {
          "duration": 0.09,
          "phone": "s_B"
        },
        {
          "duration": 0.1,
          "phone": "eh_I"
        },
        {
          "duration": 0.03,
          "phone": "v_I"
        },
        {
          "duration": 0.04,
          "phone": "er_I"
        },
        {
          "duration": 0.08,
          "phone": "ah_I"
        },
        {
          "duration": 0.06,
          "phone": "l_E"
        }
      ],
      "start": 8.9,
      "startOffset": 122,
      "word": "SEVERAL"
    },
    {
      "alignedWord": "times",
      "case": "success",
      "end": 9.82,
      "endOffset": 135,
      "phones": [
        {
          "duration": 0.11,
          "phone": "t_B"
        },
        {
          "duration": 0.22,
          "phone": "ay_I"
        },
        {
          "duration": 0.09,
          "phone": "m_I"
        },
        {
          "duration": 0.1,
          "phone": "z_E"
        }
      ],
      "start": 9.3,
      "startOffset": 130,
      "word": "TIMES"
    },
    {
      "alignedWord": "been",
      "case": "success",
      "end": 10.06,
      "endOffset": 140,
      "phones": [
        {
          "duration": 0.06,
          "phone": "b_B"
        },
        {
          "duration": 0.06,
          "phone": "ih_I"
        },
        {
          "duration": 0.12,
          "phone": "n_E"
        }
      ],
      "start": 9.82,
      "startOffset": 136,
      "word": "BEEN"
    },
    {
      "alignedWord": "seen",
      "case": "success",
      "end": 10.519999,
      "endOffset": 145,
      "phones": [
        {
          "duration": 0.15,
          "phone": "s_B"
        },
        {
          "duration": 0.2,
          "phone": "iy_I"
        },
        {
          "duration": 0.11,
          "phone": "n_E"
        }
      ],
      "start": 10.059999,
      "startOffset": 141,
      "word": "SEEN"
    },
    {
      "alignedWord": "in",
      "case": "success",
      "end": 10.739999999999998,
      "endOffset": 148,
      "phones": [
        {
          "duration": 0.13,
          "phone": "ih_B"
        },
        {
          "duration": 0.07,
          "phone": "n_E"
        }
      ],
      "start": 10.54,
      "startOffset": 146,
      "word": "IN"
    },
    {
      "alignedWord": "the",
      "case": "success",
      "end": 10.86,
      "endOffset": 152,
      "phones": [
        {
          "duration": 0.04,
          "phone": "dh_B"
        },
        {
          "duration": 0.08,
          "phone": "ah_E"
        }
      ],
      "start": 10.74,
      "startOffset": 149,
      "word": "THE"
    },
    {
      "alignedWord": "neighborhood",
      "case": "success",
      "end": 11.44,
      "endOffset": 165,
      "phones": [
        {
          "duration": 0.08,
          "phone": "n_B"
        },
        {
          "duration": 0.09,
          "phone": "ey_I"
        },
        {
          "duration": 0.08,
          "phone": "b_I"
        },
        {
          "duration": 0.06,
          "phone": "er_I"
        },
        {
          "duration": 0.07,
          "phone": "hh_I"
        },
        {
          "duration": 0.11,
          "phone": "uh_I"
        },
        {
          "duration": 0.09,
          "phone": "d_E"
        }
      ],
      "start": 10.86,
      "startOffset": 153,
      "word": "NEIGHBORHOOD"
    },
    {
      "alignedWord": "that",
      "case": "success",
      "end": 11.65,
      "endOffset": 170,
      "phones": [
        {
          "duration": 0.01,
          "phone": "dh_B"
        },
        {
          "duration": 0.12,
          "phone": "ae_I"
        },
        {
          "duration": 0.08,
          "phone": "t_E"
        }
      ],
      "start": 11.44,
      "startOffset": 166,
      "word": "THAT"
    },
    {
      "alignedWord": "autumn",
      "case": "success",
      "end": 11.9,
      "endOffset": 177,
      "phones": [
        {
          "duration": 0.15,
          "phone": "ao_B"
        },
        {
          "duration": 0.04,
          "phone": "t_I"
        },
        {
          "duration": 0.05,
          "phone": "ah_I"
        },
        {
          "duration": 0.01,
          "phone": "m_E"
        }
      ],
      "start": 11.65,
      "startOffset": 171,
      "word": "AUTUMN"
    }
  ]
}