{
  "transcript": "AND THEN THE SWORD OF MY SOLDIERS SHALL PASS THROUGH THY SIDES AND THOU SHALT BE STABBED AND FALL AMONG THE WOUNDED OF ISRAEL",
  "words": [
    {
      "alignedWord": "and",
      "case": "success",
      "end": 0.73,
      "endOffset": 3,
      "phones": [
        {
          "duration": 0.11,
          "phone": "ae_B"
        },
        {
          "duration": 0.06,
          "phone": "n_I"
        },
        {
          "duration": 0.1,
          "phone": "d_E"
        }
      ],
      "start": 0.46,
      "startOffset": 0,
      "word": "AND"
    },
    {
      "alignedWord": "then",
      "case": "success",
      "end": 1.0,
      "endOffset": 8,
      "phones": [
        {
          "duration": 0.01,
          "phone": "dh_B"
        },
        {
          "duration": 0.17,
          "phone": "eh_I"
        },
        {
          "duration": 0.09,
          "phone": "n_E"
        }
      ],
      "start": 0.73,
      "startOffset": 4,
      "word": "THEN"
    },
    {
      "alignedWord": "the",
      "case": "success",
      "end": 1.13,
      "endOffset": 12,
      "phones": [
        {
          "duration": 0.04,
          "phone": "dh_B"
        },
        {
          "duration": 0.09,
          "phone": "ah_E"
        }
      ],
      "start": 1.0,
      "startOffset": 9,
      "word": "THE"
    },
    {
      "alignedWord": "sword",
      "case": "success",
      "end": 1.5099999999999998,
      "endOffset": 18,
      "phones": [
        {
          "duration": 0.15,
          "phone": "s_B"
        },
        {
          "duration": 0.12,
          "phone": "ao_I"
        },
        {
          "duration": 0.05,
          "phone": "r_I"
        },
        {
          "duration": 0.06,
          "phone": "d_E"
        }
      ],
      "start": 1.13,
      "startOffset": 13,
      "word": "SWORD"
    },
    {
      "alignedWord": "of",
      "case": "success",
      "end": 1.65,
      "endOffset": 21,
      "phones": [
        {
          "duration": 0.05,
          "phone": "ah_B"
        },
        {
          "duration": 0.09,
          "phone": "v_E"
        }
      ],
      "start": 1.51,
      "startOffset": 19,
      "word": "OF"
    },
    {
      "alignedWord": "my",
      "case": "success",
      "end": 1.8399999999999999,
      "endOffset": 24,
      "phones": [
        {
          "duration": 0.05,
          "phone": "m_B"
        },
        {
          "duration": 0.14,
          "phone": "ay_E"
        }
      ],
      "start": 1.65,
      "startOffset": 22,
      "word": "MY"
    },
    {
      "alignedWord": "soldiers",
      "case": "success",
      "end": 2.55,
      "endOffset": 33,
      "phones": [
        {
          "duration": 0.16,
          "phone": "s_B"
        },
        {
          "duration": 0.09,
          "phone": "ow_I"
        },
        {
          "duration": 0.1,
          "phone": "l_I"
        },
        {
          "duration": 0.09,
          "phone": "jh_I"
        },
        {
          "duration": 0.11,
          "phone": "er_I"
        },
        {
          "duration": 0.16,
          "phone": "z_E"
        }
      ],
      "start": 1.84,
      "startOffset": 25,
      "word": "SOLDIERS"
    },
    {
      "alignedWord": "shall",
      "case": "success",
      "end": 3.0200000000000005,
      "endOffset": 39,
      "phones": [
        {
          "duration": 0.17,
          "phone": "sh_B"
        },
        {
          "duration": 0.02,
          "phone": "ae_I"
        },
        {
          "duration": 0.09,
          "phone": "l_E"
        }
      ],
      "start": 2.74,
      "startOffset": 34,
      "word": "SHALL"
    },
    {
      "alignedWord": "pass",
      "case": "success",
      "end": 3.41,
      "endOffset": 44,
      "phones": [
        {
          "duration": 0.14,
          "phone": "p_B"
        },
        {
          "duration": 0.15,
          "phone": "ae_I"
        },
        {
          "duration": 0.1,
          "phone": "s_E"
        }
      ],
      "start": 3.02,
      "startOffset": 40,
      "word": "PASS"
    },
    {
      "alignedWord": "through",
      "case": "success",
      "end": 3.62,
      "endOffset": 52,
      "phones": [
        {
          "duration": 0.09,
          "phone": "th_B"
        },
        {
          "duration": 0.07,
          "phone": "r_I"
        },
        {
          "duration": 0.05,
          "phone": "uw_E"
        }
      ],
      "start": 3.41,
      "startOffset": 45,
      "word": "THROUGH"
    },
    {
      "alignedWord": "thy",
      "case": "success",
      "end": 3.85,
      "endOffset": 56,
      "phones": [
        {
          "duration": 0.08,
          "phone": "dh_B"
        },
        {
          "duration": 0.15,
          "phone": "ay_E"
        }
      ],
      "start": 3.62,
      "startOffset": 53,
      "word": "THY"
    },
    {
      "alignedWord": "sides",
      "case": "success",
      "end": 4.43,
      "endOffset": 62,
      "phones": [
        {
          "duration": 0.17,
          "phone": "s_B"
        },
        {
          "duration": 0.22,
          "phone": "ay_I"
        },
        {
          "duration": 0.09,
          "phone": "d_I"
        },
        {
          "duration": 0.1,
          "phone": "z_E"
        }
      ],
      "start": 3.85,
      "startOffset": 57,
      "word": "SIDES"
    },
    {
      "alignedWord": "and",
      "case": "success",
      "end": 4.95,
      "endOffset": 66,
      "phones": [
        {
          "duration": 0.08,
          "phone": "ae_B"
        },
        {
          "duration": 0.07,
          "phone": "n_I"
        },
        {
          "duration": 0.05,
          "phone": "d_E"
        }
      ],
      "start": 4.75,
      "startOffset": 63,
      "word": "AND"
    },
    {
      "alignedWord": "thou",
      "case": "success",
      "end": 5.24,
      "endOffset": 71,
      "phones": [
        {
          "duration": 0.08,
          "phone": "dh_B"
        },
        {
          "duration": 0.18,
          "phone": "aw_E"
        }
      ],
      "start": 4.98,
      "startOffset": 67,
      "word": "THOU"
    },
    {
      "alignedWord": "shalt",
      "case": "success",
      "end": 5.61,
      "endOffset": 77,
      "phones": [
        {
          "duration": 0.17,
          "phone": "sh_B"
        },
        {
          "duration": 0.05,
          "phone": "ae_I"
        },
        {
          "duration": 0.05,
          "phone": "l_I"
        },
        {
          "duration": 0.1,
          "phone": "t_E"
        }
      ],
      "start": 5.24,
      "startOffset": 72,
      "word": "SHALT"
    },
    {
      "alignedWord": "be",
      "case": "success",
      "end": 5.819999999999999,
      "endOffset": 80,
      "phones": [
        {
          "duration": 0.09,
          "phone": "b_B"
        },
        {
          "duration": 0.09,
          "phone": "iy_E"
        }
      ],
      "start": 5.64,
      "startOffset": 78,
      "word": "BE"
    },
    {
      "alignedWord": "stabbed",
      "case": "success",
      "end": 6.36,
      "endOffset": 88,
      "phones": [
        {
          "duration": 0.11,
          "phone": "s_B"
        },
        {
          "duration": 0.11,
          "phone": "t_I"
        },
        {
          "duration": 0.18,
          "phone": "ae_I"
        },
        {
          "duration": 0.06,
          "phone": "b_I"
        },
        {
          "duration": 0.08,
          "phone": "d_E"
        }
      ],
      "start": 5.82,
      "startOffset": 81,
      "word": "STABBED"
    },
    {
      "alignedWord": "and",
      "case": "success",
      "end": 6.6,
      "endOffset": 92,
      "phones": [
        {
          "duration": 0.08,
          "phone": "ae_B"
        },
        {
          "duration": 0.06,
          "phone": "n_I"
        },
        {
          "duration": 0.08,
          "phone": "d_E"
        }
      ],
      "start": 6.38,
      "startOffset": 89,
      "word": "AND"
    },
    {
      "alignedWord": "fall",
      "case": "success",
      "end": 6.909999999999999,
      "endOffset": 97,
      "phones": [
        {
          "duration": 0.1,
          "phone": "f_B"
        },
        {
          "duration": 0.11,
          "phone": "aa_I"
        },
        {
          "duration": 0.1,
          "phone": "l_E"
        }
      ],
      "start": 6.6,
      "startOffset": 93,
      "word": "FALL"
    },
    {
      "alignedWord": "among",
      "case": "success",
      "end": 7.4,
      "endOffset": 103,
      "phones": [
        {
          "duration": 0.07,
          "phone": "ah_B"
        },
        {
          "duration": 0.12,
          "phone": "m_I"
        },
        {
          "duration": 0.16,
          "phone": "ah_I"
        },
        {
          "duration": 0.14,
          "phone": "ng_E"
        }
      ],
      "start": 6.91,
      "startOffset": 98,
      "word": "AMONG"
    },
    {
      "alignedWord": "the",
      "case": "success",
      "end": 7.62,
      "endOffset": 107,
      "phones": [
        {
          "duration": 0.08,
          "phone": "dh_B"
        },
        {
          "duration": 0.06,
          "phone": "ah_E"
        }
      ],
      "start": 7.48,
      "startOffset": 104,
      "word": "THE"
    },
    {
      "alignedWord": "wounded",
      "case": "success",
      "end": 8.03,
      "endOffset": 115,
      "phones": [
        {
          "duration": 0.08,
          "phone": "w_B"
        },
        {
          "duration": 0.12,
          "phone": "uw_I"
        },
        {
          "duration": 0.02,
          "phone": "n_I"
        },
        {
          "duration": 0.05,
          "phone": "d_I"
        },
        {
          "duration": 0.07,
          "phone": "ih_I"
        },
        {
          "duration": 0.07,
          "phone": "d_E"
        }
      ],
      "start": 7.62,
      "startOffset": 108,
      "word": "WOUNDED"
    },
    {
      "alignedWord": "of",
      "case": "success",
      "end": 8.200000000000001,
      "endOffset": 118,
      "phones": [
        {
          "duration": 0.07,
          "phone": "ah_B"
        },
        {
          "duration": 0.08,
          "phone": "v_E"
        }
      ],
      "start": 8.05,
      "startOffset": 116,
      "word": "OF"
    },
    {
      "alignedWord": "israel",
      "case": "success",
      "end": 8.729999999999999,
      "endOffset": 125,
      "phones": [
        {
          "duration": 0.11,
          "phone": "ih_B"
        },
        {
          "duration": 0.1,
          "phone": "z_I"
        },
        {
          "duration": 0.08,
          "phone": "r_I"
        },
        {
          "duration": 0.09,
          "phone": "ey_I"
        },
        {
          "duration": 0.15,
          "phone": "l_E"
        }
      ],
      "start": 8.2,
      "startOffset": 119,
      "word": "ISRAEL"
    }
  ]
}