{
  "transcript": "BEHOLD FROM THIS HOUR THOU SHALT BE ASSOCIATED TO THEIR PEOPLE THAT WHEN THEY SHALL RECEIVE THE PUNISHMENT THEY DESERVE FROM MY SWORD",
  "words": [
    {
      "alignedWord": "behold",
      "case": "success",
      "end": 1.0,
      "endOffset": 6,
      "phones": [
        {
          "duration": 0.1,
          "phone": "b_B"
        },
        {
          "duration": 0.11,
          "phone": "ih_I"
        },
        {
          "duration": 0.09,
          "phone": "hh_I"
        },
        {
          "duration": 0.07,
          "phone": "ow_I"
        },
        {
          "duration": 0.18,
          "phone": "l_I"
        },
        {
          "duration": 0.18,
          "phone": "d_E"
        }
      ],
      "start": 0.27,
      "startOffset": 0,
      "word": "BEHOLD"
    },
    {
      "alignedWord": "from",
      "case": "success",
      "end": 1.41,
      "endOffset": 11,
      "phones": [
        {
          "duration": 0.09,
          "phone": "f_B"
        },
        {
          "duration": 0.05,
          "phone": "r_I"
        },
        {
          "duration": 0.05,
          "phone": "ah_I"
        },
        {
          "duration": 0.08,
          "phone": "m_E"
        }
      ],
      "start": 1.14,
      "startOffset": 7,
      "word": "FROM"
    },
    {
      "alignedWord": "this",
      "case": "success",
      "end": 1.67,
      "endOffset": 16,
      "phones": [
        {
          "duration": 0.05,
          "phone": "dh_B"
        },
        {
          "duration": 0.1,
          "phone": "ih_I"
        },
        {
          "duration": 0.11,
          "phone": "s_E"
        }
      ],
      "start": 1.41,
      "startOffset": 12,
      "word": "THIS"
    },
    {
      "alignedWord": "hour",
      "case": "success",
      "end": 2.24,
      "endOffset": 21,
      "phones": [
        {
          "duration": 0.31,
          "phone": "aw_B"
        },
        {
          "duration": 0.23,
          "phone": "er_E"
        }
      ],
      "start": 1.7,
      "startOffset": 17,
      "word": "HOUR"
    },
    {
      "alignedWord": "thou",
      "case": "success",
      "end": 2.5300000000000002,
      "endOffset": 26,
      "phones": [
        {
          "duration": 0.07,
          "phone": "dh_B"
        },
        {
          "duration": 0.15,
          "phone": "aw_E"
        }
      ],
      "start": 2.31,
      "startOffset": 22,
      "word": "THOU"
    },
    {
      "alignedWord": "shalt",
      "case": "success",
      "end": 2.8099999999999996,
      "endOffset": 32,
      "phones": [
        {
          "duration": 0.13,
          "phone": "sh_B"
        },
        {
          "duration": 0.03,
          "phone": "ae_I"
        },
        {
          "duration": 0.05,
          "phone": "l_I"
        },
        {
          "duration": 0.07,
          "phone": "t_E"
        }
      ],
      "start": 2.53,
      "startOffset": 27,
      "word": "SHALT"
    },
    {
      "alignedWord": "be",
      "case": "success",
      "end": 2.9899999999999998,
      "endOffset": 35,
      "phones": [
        {
          "duration": 0.07,
          "phone": "b_B"
        },
        {
          "duration": 0.08,
          "phone": "iy_E"
        }
      ],
      "start": 2.84,
      "startOffset": 33,
      "word": "BE"
    },
    {
      "alignedWord": "associated",
      "case": "success",
      "end": 3.83,
      "endOffset": 46,
      "phones": [
        {
          "duration": 0.08,
          "phone": "ah_B"
        },
        {
          "duration": 0.1,
          "phone": "s_I"
        },
        {
          "duration": 0.13,
          "phone": "ow_I"
        },
        {
          "duration": 0.15,
          "phone": "sh_I"
        },
        {
          "duration": 0.09,
          "phone": "iy_I"
        },
        {
          "duration": 0.07,
          "phone": "ey_I"
        },
        {
          "duration": 0.05,
          "phone": "t_I"
        },
        {
          "duration": 0.07,
          "phone": "ah_I"
        },
        {
          "duration": 0.1,
          "phone": "d_E"
        }
      ],
      "start": 2.99,
      "startOffset": 36,
      "word": "ASSOCIATED"
    },
    {
      "alignedWord": "to",
      "case": "success",
      "end": 3.95,
      "endOffset": 49,
      "phones": [
        {
          "duration": 0.06,
          "phone": "t_B"
        },
        {
          "duration": 0.06,
          "phone": "uw_E"
        }
      ],
      "start": 3.83,
      "startOffset": 47,
      "word": "TO"
    },
    {
      "alignedWord": "their",
      "case": "success",
      "end": 4.17,
      "endOffset": 55,
      "phones": [
        {
          "duration": 0.07,
          "phone": "dh_B"
        },
        {
          "duration": 0.09,
          "phone": "eh_I"
        },
        {
          "duration": 0.06,
          "phone": "r_E"
        }
      ],
      "start": 3.95,
      "startOffset": 50,
      "word": "THEIR"
    },
    {
      "alignedWord": "people",
      "case": "success",
      "end": 4.9,
      "endOffset": 62,
      "phones": [
        {
          "duration": 0.09,
          "phone": "p_B"
        },
        {
          "duration": 0.12,
          "phone": "iy_I"
        },
        {
          "duration": 0.1,
          "phone": "p_I"
        },
        {
          "duration": 0.05,
          "phone": "ah_I"
        },
        {
          "duration": 0.37,
          "phone": "l_E"
        }
      ],
      "start": 4.17,
      "startOffset": 56,
      "word": "PEOPLE"
    },
    {
      "alignedWord": "that",
      "case": "success",
      "end": 5.3,
      "endOffset": 67,
      "phones": [
        {
          "duration": 0.08,
          "phone": "dh_B"
        },
        {
          "duration": 0.06,
          "phone": "ae_I"
        },
        {
          "duration": 0.1,
          "phone": "t_E"
        }
      ],
      "start": 5.06,
      "startOffset": 63,
      "word": "THAT"
    },
    {
      "alignedWord": "when",
      "case": "success",
      "end": 5.53,
      "endOffset": 72,
      "phones": [
        {
          "duration": 0.07,
          "phone": "w_B"
        },
        {
          "duration": 0.07,
          "phone": "eh_I"
        },
        {
          "duration": 0.07,
          "phone": "n_E"
        }
      ],
      "start": 5.32,
      "startOffset": 68,
      "word": "WHEN"
    },
    {
      "alignedWord": "they",
      "case": "success",
      "end": 5.7,
      "endOffset": 77,
      "phones": [
        {
          "duration": 0.05,
          "phone": "dh_B"
        },
        {
          "duration": 0.12,
          "phone": "ey_E"
        }
      ],
      "start": 5.53,
      "startOffset": 73,
      "word": "THEY"
    },
    {
      "alignedWord": "shall",
      "case": "success",
      "end": 5.95,
      "endOffset": 83,
      "phones": [
        {
          "duration": 0.12,
          "phone": "sh_B"
        },
        {
          "duration": 0.06,
          "phone": "ae_I"
        },
        {
          "duration": 0.07,
          "phone": "l_E"
        }
      ],
      "start": 5.7,
      "startOffset": 78,
      "word": "SHALL"
    },
    {
      "alignedWord": "receive",
      "case": "success",
      "end": 6.41,
      "endOffset": 91,
      "phones": [
        {
          "duration": 0.06,
          "phone": "r_B"
        },
        {
          "duration": 0.09,
          "phone": "iy_I"
        },
        {
          "duration": 0.13,
          "phone": "s_I"
        },
        {
          "duration": 0.09,
          "phone": "iy_I"
        },
        {
          "duration": 0.09,
          "phone": "v_E"
        }
      ],
      "start": 5.95,
      "startOffset": 84,
      "word": "RECEIVE"
    },
    {
      "alignedWord": "the",
      "case": "success",
      "end": 6.49,
      "endOffset": 95,
      "phones": [
        {
          "duration": 0.01,
          "phone": "dh_B"
        },
        {
          "duration": 0.07,
          "phone": "ah_E"
        }
      ],
      "start": 6.41,
      "startOffset": 92,
      "word": "THE"
    },
    {
      "alignedWord": "punishment",
      "case": "success",
      "end": 7.12,
      "endOffset": 106,
      "phones": [
        {
          "duration": 0.11,
          "phone": "p_B"
        },
        {
          "duration": 0.09,
          "phone": "ah_I"
        },
        {
          "duration": 0.05,
          "phone": "n_I"
        },
        {
          "duration": 0.07,
          "phone": "ih_I"
        },
        {
          "duration": 0.1,
          "phone": "sh_I"
        },
        {
          "duration": 0.04,
          "phone": "m_I"
        },
        {
          "duration": 0.05,
          "phone": "ah_I"
        },
        {
          "duration": 0.04,
          "phone": "n_I"
        },
        {
          "duration": 0.08,
          "phone": "t_E"
        }
      ],
      "start": 6.49,
      "startOffset": 96,
      "word": "PUNISHMENT"
    },
    {
      "alignedWord": "they",
      "case": "success",
      "end": 7.33,
      "endOffset": 111,
      "phones": [
        {
          "duration": 0.1,
          "phone": "dh_B"
        },
        {
          "duration": 0.1,
          "phone": "ey_E"
        }
      ],
      "start": 7.13,
      "startOffset": 107,
      "word": "THEY"
    },
    {
      "alignedWord": "deserve",
      "case": "success",
      "end": 7.88,
      "endOffset": 119,
      "phones": [
        {
          "duration": 0.05,
          "phone": "d_B"
        },
        {
          "duration": 0.08,
          "phone": "ih_I"
        },
        {
          "duration": 0.13,
          "phone": "z_I"
        },
        {
          "duration": 0.17,
          "phone": "er_I"
        },
        {
          "duration": 0.12,
          "phone": "v_E"
        }
      ],
      "start": 7.33,
      "startOffset": 112,
      "word": "DESERVE"
    },
    {
      "alignedWord": "from",
      "case": "success",
      "end": 8.14,
      "endOffset": 124,
      "phones": [
        {
          "duration": 0.09,
          "phone": "f_B"
        },
        {
          "duration": 0.06,
          "phone": "er_I"
        },
        {
          "duration": 0.05,
          "phone": "m_E"
        }
      ],
      "start": 7.94,
      "startOffset": 120,
      "word": "FROM"
    },
    {
      "alignedWord": "my",
      "case": "success",
      "end": 8.339998999999999,
      "endOffset": 127,
      "phones": [
        {
          "duration": 0.06,
          "phone": "m_B"
        },
        {
          "duration": 0.14,
          "phone": "ay_E"
        }
      ],
      "start": 8.139999,
      "startOffset": 125,
      "word": "MY"
    },
    {
      "alignedWord": "sword",
      "case": "success",
      "end": 8.85,
      "endOffset": 133,
      "phones": [
        {
          "duration": 0.15,
          "phone": "s_B"
        },
        {
          "duration": 0.14,
          "phone": "ao_I"
        },
        {
          "duration": 0.08,
          "phone": "r_I"
        },
        {
          "duration": 0.14,
          "phone": "d_E"
        }
      ],
      "start": 8.34,
      "startOffset": 128,
      "word": "SWORD"
    }
  ]
}