{
  "transcript": "HE STARTS AT THE INVITATION FALLING AS IT DOES LIKE A DEATH KNELL UPON HIS EAR HE LOOKS WILDLY AROUND DESPAIRINGLY",
  "words": [
    {
      "alignedWord": "he",
      "case": "success",
      "end": 0.79,
      "endOffset": 2,
      "phones": [
        {
          "duration": 0.13,
          "phone": "hh_B"
        },
        {
          "duration": 0.12,
          "phone": "iy_E"
        }
      ],
      "start": 0.54,
      "startOffset": 0,
      "word": "HE"
    },
    {
      "alignedWord": "starts",
      "case": "success",
      "end": 1.31,
      "endOffset": 9,
      "phones": [
        {
          "duration": 0.09,
          "phone": "s_B"
        },
        {
          "duration": 0.09,
          "phone": "t_I"
        },
        {
          "duration": 0.12,
          "phone": "aa_I"
        },
        {
          "duration": 0.06,
          "phone": "r_I"
        },
        {
          "duration": 0.07,
          "phone": "t_I"
        },
        {
          "duration": 0.09,
          "phone": "s_E"
        }
      ],
      "start": 0.79,
      "startOffset": 3,
      "word": "STARTS"
    },
    {
      "alignedWord": "at",
      "case": "success",
      "end": 1.49,
      "endOffset": 12,
      "phones": [
        {
          "duration": 0.09,
          "phone": "ae_B"
        },
        {
          "duration": 0.09,
          "phone": "t_E"
        }
      ],
      "start": 1.31,
      "startOffset": 10,
      "word": "AT"
    },
    {
      "alignedWord": "the",
      "case": "success",
      "end": 1.67,
      "endOffset": 16,
      "phones": [
        {
          "duration": 0.07,
          "phone": "dh_B"
        },
        {
          "duration": 0.11,
          "phone": "iy_E"
        }
      ],
      "start": 1.49,
      "startOffset": 13,
      "word": "THE"
    },
    {
      "alignedWord": "invitation",
      "case": "success",
      "end": 2.59,
      "endOffset": 27,
      "phones": [
        {
          "duration": 0.06,
          "phone": "ih_B"
        },
        {
          "duration": 0.06,
          "phone": "n_I"
        },
        {
          "duration": 0.06,
          "phone": "v_I"
        },
        {
          "duration": 0.06,
          "phone": "ih_I"
        },
        {
          "duration": 0.12,
          "phone": "t_I"
        },
        {
          "duration": 0.15,
          "phone": "ey_I"
        },
        {
          "duration": 0.11,
          "phone": "sh_I"
        },
        {
          "duration": 0.09,
          "phone": "ah_I"
        },
        {
          "duration": 0.21,
          "phone": "n_E"
        }
      ],
      "start": 1.67,
      "startOffset": 17,
      "word": "INVITATION"
    },
    {
      "alignedWord": "falling",
      "case": "success",
      "end": 3.59,
      "endOffset": 35,
      "phones": [
        {
          "duration": 0.18,
          "phone": "f_B"
        },
        {
          "duration": 0.06,
          "phone": "aa_I"
        },
        {
          "duration": 0.12,
          "phone": "l_I"
        },
        {
          "duration": 0.08,
          "phone": "ih_I"
        },
        {
          "duration": 0.06,
          "phone": "ng_E"
        }
      ],
      "start": 3.09,
      "startOffset": 28,
      "word": "FALLING"
    },
    {
      "alignedWord": "as",
      "case": "success",
      "end": 3.7199999999999998,
      "endOffset": 38,
      "phones": [
        {
          "duration": 0.08,
          "phone": "eh_B"
        },
        {
          "duration": 0.05,
          "phone": "z_E"
        }
      ],
      "start": 3.59,
      "startOffset": 36,
      "word": "AS"
    },
    {
      "alignedWord": "it",
      "case": "success",
      "end": 3.85,
      "endOffset": 41,
      "phones": [
        {
          "duration": 0.07,
          "phone": "ih_B"
        },
        {
          "duration": 0.06,
          "phone": "t_E"
        }
      ],
      "start": 3.72,
      "startOffset": 39,
      "word": "IT"
    },
    {
      "alignedWord": "does",
      "case": "success",
      "end": 4.22,
      "endOffset": 46,
      "phones": [
        {
          "duration": 0.07,
          "phone": "d_B"
        },
        {
          "duration": 0.18,
          "phone": "ah_I"
        },
        {
          "duration": 0.11,
          "phone": "z_E"
        }
      ],
      "start": 3.86,
      "startOffset": 42,
      "word": "DOES"
    },
    {
      "alignedWord": "like",
      "case": "success",
      "end": 4.46,
      "endOffset": 51,
      "phones": [
        {
          "duration": 0.08,
          "phone": "l_B"
        },
        {
          "duration": 0.08,
          "phone": "ay_I"
        },
        {
          "duration": 0.08,
          "phone": "k_E"
        }
      ],
      "start": 4.22,
      "startOffset": 47,
      "word": "LIKE"
    },
    {
      "alignedWord": "a",
      "case": "success",
      "end": 4.54,
      "endOffset": 53,
      "phones": [
        {
          "duration": 0.08,
          "phone": "ah_S"
        }
      ],
      "start": 4.46,
      "startOffset": 52,
      "word": "A"
    },
    {
      "alignedWord": "death",
      "case": "success",
      "end": 4.88,
      "endOffset": 59,
      "phones": [
        {
          "duration": 0.16,
          "phone": "d_B"
        },
        {
          "duration": 0.12,
          "phone": "eh_I"
        },
        {
          "duration": 0.06,
          "phone": "th_E"
        }
      ],
      "start": 4.54,
      "startOffset": 54,
      "word": "DEATH"
    },
    {
      "alignedWord": "<unk>",
      "case": "success",
      "end": 5.46,
      "endOffset": 65,
      "phones": [
        {
          "duration": 0.58,
          "phone": "oov_S"
        }
      ],
      "start": 4.88,
      "startOffset": 60,
      "word": "KNELL"
    },
    {
      "alignedWord": "upon",
      "case": "success",
      "end": 5.88,
      "endOffset": 70,
      "phones": [
        {
          "duration": 0.12,
          "phone": "ah_B"
        },
        {
          "duration": 0.1,
          "phone": "p_I"
        },
        {
          "duration": 0.11,
          "phone": "aa_I"
        },
        {
          "duration": 0.05,
          "phone": "n_E"
        }
      ],
      "start": 5.5,
      "startOffset": 66,
      "word": "UPON"
    },
    {
      "alignedWord": "his",
      "case": "success",
      "end": 6.11,
      "endOffset": 74,
      "phones": [
        {
          "duration": 0.05,
          "phone": "hh_B"
        },
        {
          "duration": 0.06,
          "phone": "ih_I"
        },
        {
          "duration": 0.12,
          "phone": "z_E"
        }
      ],
      "start": 5.88,
      "startOffset": 71,
      "word": "HIS"
    },
    {
      "alignedWord": "ear",
      "case": "success",
      "end": 6.630000000000001,
      "endOffset": 78,
      "phones": [
        {
          "duration": 0.19,
          "phone": "iy_B"
        },
        {
          "duration": 0.33,
          "phone": "r_E"
        }
      ],
      "start": 6.11,
      "startOffset": 75,
      "word": "EAR"
    },
    {
      "alignedWord": "he",
      "case": "success",
      "end": 7.84,
      "endOffset": 81,
      "phones": [
        {
          "duration": 0.22,
          "phone": "hh_B"
        },
        {
          "duration": 0.1,
          "phone": "iy_E"
        }
      ],
      "start": 7.52,
      "startOffset": 79,
      "word": "HE"
    },
    {
      "alignedWord": "looks",
      "case": "success",
      "end": 8.14,
      "endOffset": 87,
      "phones": [
        {
          "duration": 0.1,
          "phone": "l_B"
        },
        {
          "duration": 0.05,
          "phone": "uh_I"
        },
        {
          "duration": 0.07,
          "phone": "k_I"
        },
        {
          "duration": 0.08,
          "phone": "s_E"
        }
      ],
      "start": 7.84,
      "startOffset": 82,
      "word": "LOOKS"
    },
    {
      "alignedWord": "wildly",
      "case": "success",
      "end": 8.83,
      "endOffset": 94,
      "phones": [
        {
          "duration": 0.21,
          "phone": "w_B"
        },
        {
          "duration": 0.13,
          "phone": "ay_I"
        },
        {
          "duration": 0.1,
          "phone": "l_I"
        },
        {
          "duration": 0.04,
          "phone": "d_I"
        },
        {
          "duration": 0.1,
          "phone": "l_I"
        },
        {
          "duration": 0.1,
          "phone": "iy_E"
        }
      ],
      "start": 8.15,
      "startOffset": 88,
      "word": "WILDLY"
    },
    {
      "alignedWord": "around",
      "case": "success",
      "end": 9.46,
      "endOffset": 101,
      "phones": [
        {
          "duration": 0.19,
          "phone": "er_B"
        },
        {
          "duration": 0.19,
          "phone": "aw_I"
        },
        {
          "duration": 0.1,
          "phone": "n_I"
        },
        {
          "duration": 0.15,
          "phone": "d_E"
        }
      ],
      "start": 8.83,
      "startOffset": 95,
      "word": "AROUND"
    },
    {
      "alignedWord": "<unk>",
      "case": "success",
      "end": 10.569999999999999,
      "endOffset": 114,
      "phones": [
        {
          "duration": 0.62,
          "phone": "oov_S"
        }
      ],
      "start": 9.95,
      "startOffset": 102,
      "word": "DESPAIRINGLY"
    }
  ]
}