{
  "transcript": "THERE IS BUT ONE MISSING LINK IF LINK IT MAY BE CALLED THE MOTIVE THE MOTIVE BOTH FOR THE MURDER AND THE MUTILATION",
  "words": [
    {
      "alignedWord": "there",
      "case": "success",
      "end": 0.7000000000000001,
      "endOffset": 5,
      "phones": [
        {
          "duration": 0.05,
          "phone": "dh_B"
        },
        {
          "duration": 0.04,
          "phone": "eh_I"
        },
        {
          "duration": 0.06,
          "phone": "r_E"
        }
      ],
      "start": 0.55,
      "startOffset": 0,
      "word": "THERE"
    },
    {
      "alignedWord": "is",
      "case": "success",
      "end": 0.82,
      "endOffset": 8,
      "phones": [
        {
          "duration": 0.06,
          "phone": "ih_B"
        },
        {
          "duration": 0.06,
          "phone": "z_E"
        }
      ],
      "start": 0.7,
      "startOffset": 6,
      "word": "IS"
    },
    {
      "alignedWord": "but",
      "case": "success",
      "end": 1.01,
      "endOffset": 12,
      "phones": [
        {
          "duration": 0.07,
          "phone": "b_B"
        },
        {
          "duration": 0.04,
          "phone": "ah_I"
        },
        {
          "duration": 0.08,
          "phone": "t_E"
        }
      ],
      "start": 0.82,
      "startOffset": 9,
      "word": "BUT"
    },
    {
      "alignedWord": "one",
      "case": "success",
      "end": 1.35,
      "endOffset": 16,
      "phones": [
        {
          "duration": 0.13,
          "phone": "w_B"
        },
        {
          "duration": 0.1,
          "phone": "ah_I"
        },
        {
          "duration": 0.1,
          "phone": "n_E"
        }
      ],
      "start": 1.02,
      "startOffset": 13,
      "word": "ONE"
    },
    {
      "alignedWord": "missing",
      "case": "success",
      "end": 1.8900000000000001,
      "endOffset": 24,
      "phones": [
        {
          "duration": 0.08,
          "phone": "m_B"
        },
        {
          "duration": 0.08,
          "phone": "ih_I"
        },
        {
          "duration": 0.08,
          "phone": "s_I"
        },
        {
          "duration": 0.13,
          "phone": "ih_I"
        },
        {
          "duration": 0.16,
          "phone": "ng_E"
        }
      ],
      "start": 1.36,
      "startOffset": 17,
      "word": "MISSING"
    },
    {
      "alignedWord": "link",
      "case": "success",
      "end": 2.6799999999999997,
      "endOffset": 29,
      "phones": [
        {
          "duration": 0.09,
          "phone": "l_B"
        },
        {
          "duration": 0.1,
          "phone": "ih_I"
        },
        {
          "duration": 0.09,
          "phone": "ng_I"
        },
        {
          "duration": 0.51,
          "phone": "k_E"
        }
      ],
      "start": 1.89,
      "startOffset": 25,
      "word": "LINK"
    },
    {
      "alignedWord": "if",
      "case": "success",
      "end": 3.07,
      "endOffset": 32,
      "phones": [
        {
          "duration": 0.13,
          "phone": "ih_B"
        },
        {
          "duration": 0.19,
          "phone": "f_E"
        }
      ],
      "start": 2.75,
      "startOffset": 30,
      "word": "IF"
    },
    {
      "alignedWord": "link",
      "case": "success",
      "end": 3.7199999999999998,
      "endOffset": 37,
      "phones": [
        {
          "duration": 0.12,
          "phone": "l_B"
        },
        {
          "duration": 0.08,
          "phone": "ih_I"
        },
        {
          "duration": 0.07,
          "phone": "ng_I"
        },
        {
          "duration": 0.05,
          "phone": "k_E"
        }
      ],
      "start": 3.4,
      "startOffset": 33,
      "word": "LINK"
    },
    {
      "alignedWord": "it",
      "case": "success",
      "end": 3.83,
      "endOffset": 40,
      "phones": [
        {
          "duration": 0.05,
          "phone": "ih_B"
        },
        {
          "duration": 0.06,
          "phone": "t_E"
        }
      ],
      "start": 3.72,
      "startOffset": 38,
      "word": "IT"
    },
    {
      "alignedWord": "may",
      "case": "success",
      "end": 4.02,
      "endOffset": 44,
      "phones": [
        {
          "duration": 0.07,
          "phone": "m_B"
        },
        {
          "duration": 0.11,
          "phone": "ey_E"
        }
      ],
      "start": 3.84,
      "startOffset": 41,
      "word": "MAY"
    },
    {
      "alignedWord": "be",
      "case": "success",
      "end": 4.1899999999999995,
      "endOffset": 47,
      "phones": [
        {
          "duration": 0.07,
          "phone": "b_B"
        },
        {
          "duration": 0.1,
          "phone": "iy_E"
        }
      ],
      "start": 4.02,
      "startOffset": 45,
      "word": "BE"
    },
    {
      "alignedWord": "called",
      "case": "success",
      "end": 4.94,
      "endOffset": 54,
      "phones": [
        {
          "duration": 0.13,
          "phone": "k_B"
        },
        {
          "duration": 0.11,
          "phone": "ao_I"
        },
        {
          "duration": 0.27,
          "phone": "l_I"
        },
        {
          "duration": 0.24,
          "phone": "d_E"
        }
      ],
      "start": 4.19,
      "startOffset": 48,
      "word": "CALLED"
    },
    {
      "alignedWord": "the",
      "case": "success",
      "end": 5.550000000000001,
      "endOffset": 58,
      "phones": [
        {
          "duration": 0.15,
          "phone": "dh_B"
        },
        {
          "duration": 0.08,
          "phone": "ah_E"
        }
      ],
      "start": 5.32,
      "startOffset": 55,
      "word": "THE"
    },
    {
      "alignedWord": "motive",
      "case": "success",
      "end": 6.2299999999999995,
      "endOffset": 65,
      "phones": [
        {
          "duration": 0.11,
          "phone": "m_B"
        },
        {
          "duration": 0.11,
          "phone": "ow_I"
        },
        {
          "duration": 0.08,
          "phone": "t_I"
        },
        {
          "duration": 0.08,
          "phone": "ih_I"
        },
        {
          "duration": 0.29,
          "phone": "v_E"
        }
      ],
      "start": 5.56,
      "startOffset": 59,
      "word": "MOTIVE"
    },
    {
      "alignedWord": "the",
      "case": "success",
      "end": 7.5200000000000005,
      "endOffset": 69,
      "phones": [
        {
          "duration": 0.07,
          "phone": "dh_B"
        },
        {
          "duration": 0.05,
          "phone": "ah_E"
        }
      ],
      "start": 7.4,
      "startOffset": 66,
      "word": "THE"
    },
    {
      "alignedWord": "motive",
      "case": "success",
      "end": 7.949999999999999,
      "endOffset": 76,
      "phones": [
        {
          "duration": 0.07,
          "phone": "m_B"
        },
        {
          "duration": 0.1,
          "phone": "ow_I"
        },
        {
          "duration": 0.05,
          "phone": "t_I"
        },
        {
          "duration": 0.09,
          "phone": "ih_I"
        },
        {
          "duration": 0.12,
          "phone": "v_E"
        }
      ],
      "start": 7.52,
      "startOffset": 70,
      "word": "MOTIVE"
    },
    {
      "alignedWord": "both",
      "case": "success",
      "end": 8.290000000000001,
      "endOffset": 81,
      "phones": [
        {
          "duration": 0.09,
          "phone": "b_B"
        },
        {
          "duration": 0.15,
          "phone": "ow_I"
        },
        {
          "duration": 0.1,
          "phone": "th_E"
        }
      ],
      "start": 7.95,
      "startOffset": 77,
      "word": "BOTH"
    },
    {
      "alignedWord": "for",
      "case": "success",
      "end": 8.579999999999998,
      "endOffset": 85,
      "phones": [
        {
          "duration": 0.13,
          "phone": "f_B"
        },
        {
          "duration": 0.08,
          "phone": "ao_I"
        },
        {
          "duration": 0.08,
          "phone": "r_E"
        }
      ],
      "start": 8.29,
      "startOffset": 82,
      "word": "FOR"
    },
    {
      "alignedWord": "the",
      "case": "success",
      "end": 8.68,
      "endOffset": 89,
      "phones": [
        {
          "duration": 0.04,
          "phone": "dh_B"
        },
        {
          "duration": 0.06,
          "phone": "ah_E"
        }
      ],
      "start": 8.58,
      "startOffset": 86,
      "word": "THE"
    },
    {
      "alignedWord": "murder",
      "case": "success",
      "end": 9.239999000000001,
      "endOffset": 96,
      "phones": [
        {
          "duration": 0.1,
          "phone": "m_B"
        },
        {
          "duration": 0.1,
          "phone": "er_I"
        },
        {
          "duration": 0.1,
          "phone": "d_I"
        },
        {
          "duration": 0.26,
          "phone": "er_E"
        }
      ],
      "start": 8.679999,
      "startOffset": 90,
      "word": "MURDER"
    },
    {
      "alignedWord": "and",
      "case": "success",
      "end": 9.67,
      "endOffset": 100,
      "phones": [
        {
          "duration": 0.25,
          "phone": "ae_B"
        },
        {
          "duration": 0.09,
          "phone": "n_I"
        },
        {
          "duration": 0.05,
          "phone": "d_E"
        }
      ],
      "start": 9.28,
      "startOffset": 97,
      "word": "AND"
    },
    {
      "alignedWord": "the",
      "case": "success",
      "end": 9.819999000000001,
      "endOffset": 104,
      "phones": [
        {
          "duration": 0.07,
          "phone": "dh_B"
        },
        {
          "duration": 0.07,
          "phone": "ah_E"
        }
      ],
      "start": 9.679999,
      "startOffset": 101,
      "word": "THE"
    },
    {
      "alignedWord": "mutilation",
      "case": "success",
      "end": 10.72,
      "endOffset": 115,
      "phones": [
        {
          "duration": 0.04,
          "phone": "m_B"
        },
        {
          "duration": 0.07,
          "phone": "y_I"
        },
        {
          "duration": 0.08,
          "phone": "uw_I"
        },
        {
          "duration": 0.04,
          "phone": "t_I"
        },
        {
          "duration": 0.06,
          "phone": "ah_I"
        },
        {
          "duration": 0.11,
          "phone": "l_I"
        },
        {
          "duration": 0.09,
          "phone": "ey_I"
        },
        {
          "duration": 0.11,
          "phone": "sh_I"
        },
        {
          "duration": 0.06,
          "phone": "ah_I"
        },
        {
          "duration": 0.24,
          "phone": "n_E"
        }
      ],
      "start": 9.82,
      "startOffset": 105,
      "word": "MUTILATION"
    }
  ]
}