{
  "transcript": "ON THE EDGE OF AN ETERNITY TOO TERRIBLE TO CONTEMPLATE TO A CONSCIENCE LIKE HIS IT CANNOT BE OTHERWISE THAN APPALLING ALL AT ONCE A LIGHT IS SEEN TO FLASK INTO HIS EYES",
  "words": [
    {
      "alignedWord": "on",
      "case": "success",
      "end": 0.51,
      "endOffset": 2,
      "phones": [
        {
          "duration": 0.14,
          "phone": "aa_B"
        },
        {
          "duration": 0.05,
          "phone": "n_E"
        }
      ],
      "start": 0.32,
      "startOffset": 0,
      "word": "ON"
    },
    {
      "alignedWord": "the",
      "case": "success",
      "end": 0.73,
      "endOffset": 6,
      "phones": [
        {
          "duration": 0.07,
          "phone": "dh_B"
        },
        {
          "duration": 0.14,
          "phone": "iy_E"
        }
      ],
      "start": 0.52,
      "startOffset": 3,
      "word": "THE"
    },
    {
      "alignedWord": "edge",
      "case": "success",
      "end": 0.9199999999999999,
      "endOffset": 11,
      "phones": [
        {
          "duration": 0.1,
          "phone": "eh_B"
        },
        {
          "duration": 0.09,
          "phone": "jh_E"
        }
      ],
      "start": 0.73,
      "startOffset": 7,
      "word": "EDGE"
    },
    {
      "alignedWord": "of",
      "case": "success",
      "end": 1.08,
      "endOffset": 14,
      "phones": [
        {
          "duration": 0.09,
          "phone": "ah_B"
        },
        {
          "duration": 0.07,
          "phone": "v_E"
        }
      ],
      "start": 0.92,
      "startOffset": 12,
      "word": "OF"
    },
    {
      "alignedWord": "an",
      "case": "success",
      "end": 1.1500000000000001,
      "endOffset": 17,
      "phones": [
        {
          "duration": 0.02,
          "phone": "ae_B"
        },
        {
          "duration": 0.05,
          "phone": "n_E"
        }
      ],
      "start": 1.08,
      "startOffset": 15,
      "word": "AN"
    },
    {
      "alignedWord": "eternity",
      "case": "success",
      "end": 1.91,
      "endOffset": 26,
      "phones": [
        {
          "duration": 0.09,
          "phone": "iy_B"
        },
        {
          "duration": 0.14,
          "phone": "t_I"
        },
        {
          "duration": 0.11,
          "phone": "er_I"
        },
        {
          "duration": 0.01,
          "phone": "n_I"
        },
        {
          "duration": 0.14,
          "phone": "ah_I"
        },
        {
          "duration": 0.08,
          "phone": "t_I"
        },
        {
          "duration": 0.19,
          "phone": "iy_E"
        }
      ],
      "start": 1.15,
      "startOffset": 18,
      "word": "ETERNITY"
    },
    {
      "alignedWord": "too",
      "case": "success",
      "end": 2.24,
      "endOffset": 30,
      "phones": [
        {
          "duration": 0.12,
          "phone": "t_B"
        },
        {
          "duration": 0.16,
          "phone": "uw_E"
        }
      ],
      "start": 1.96,
      "startOffset": 27,
      "word": "TOO"
    },
    {
      "alignedWord": "terrible",
      "case": "success",
      "end": 2.8800000000000003,
      "endOffset": 39,
      "phones": [
        {
          "duration": 0.14,
          "phone": "t_B"
        },
        {
          "duration": 0.11,
          "phone": "eh_I"
        },
        {
          "duration": 0.08,
          "phone": "r_I"
        },
        {
          "duration": 0.07,
          "phone": "ah_I"
        },
        {
          "duration": 0.06,
          "phone": "b_I"
        },
        {
          "duration": 0.07,
          "phone": "ah_I"
        },
        {
          "duration": 0.11,
          "phone": "l_E"
        }
      ],
      "start": 2.24,
      "startOffset": 31,
      "word": "TERRIBLE"
    },
    {
      "alignedWord": "to",
      "case": "success",
      "end": 3.0,
      "endOffset": 42,
      "phones": [
        {
          "duration": 0.06,
          "phone": "t_B"
        },
        {
          "duration": 0.05,
          "phone": "ih_E"
        }
      ],
      "start": 2.89,
      "startOffset": 40,
      "word": "TO"
    },
    {
      "alignedWord": "contemplate",
      "case": "success",
      "end": 3.94,
      "endOffset": 54,
      "phones": [
        {
          "duration": 0.08,
          "phone": "k_B"
        },
        {
          "duration": 0.12,
          "phone": "aa_I"
        },
        {
          "duration": 0.07,
          "phone": "n_I"
        },
        {
          "duration": 0.05,
          "phone": "t_I"
        },
        {
          "duration": 0.06,
          "phone": "ah_I"
        },
        {
          "duration": 0.04,
          "phone": "m_I"
        },
        {
          "duration": 0.11,
          "phone": "p_I"
        },
        {
          "duration": 0.1,
          "phone": "l_I"
        },
        {
          "duration": 0.09,
          "phone": "ey_I"
        },
        {
          "duration": 0.21,
          "phone": "t_E"
        }
      ],
      "start": 3.01,
      "startOffset": 43,
      "word": "CONTEMPLATE"
    },
    {
      "alignedWord": "to",
      "case": "success",
      "end": 4.78,
      "endOffset": 57,
      "phones": [
        {
          "duration": 0.1,
          "phone": "t_B"
        },
        {
          "duration": 0.13,
          "phone": "uw_E"
        }
      ],
      "start": 4.55,
      "startOffset": 55,
      "word": "TO"
    },
    {
      "alignedWord": "a",
      "case": "success",
      "end": 4.9,
      "endOffset": 59,
      "phones": [
        {
          "duration": 0.12,
          "phone": "ah_S"
        }
      ],
      "start": 4.78,
      "startOffset": 58,
      "word": "A"
    },
    {
      "alignedWord": "conscience",
      "case": "success",
      "end": 5.54,
      "endOffset": 70,
      "phones": [
        {
          "duration": 0.09,
          "phone": "k_B"
        },
        {
          "duration": 0.12,
          "phone": "aa_I"
        },
        {
          "duration": 0.07,
          "phone": "n_I"
        },
        {
          "duration": 0.09,
          "phone": "sh_I"
        },
        {
          "duration": 0.07,
          "phone": "ah_I"
        },
        {
          "duration": 0.09,
          "phone": "n_I"
        },
        {
          "duration": 0.09,
          "phone": "s_E"
        }
      ],
      "start": 4.92,
      "startOffset": 60,
      "word": "CONSCIENCE"
    },
    {
      "alignedWord": "like",
      "case": "success",
      "end": 5.84,
      "endOffset": 75,
      "phones": [
        {
          "duration": 0.1,
          "phone": "l_B"
        },
        {
          "duration": 0.11,
          "phone": "ay_I"
        },
        {
          "duration": 0.09,
          "phone": "k_E"
        }
      ],
      "start": 5.54,
      "startOffset": 71,
      "word": "LIKE"
    },
    {
      "alignedWord": "his",
      "case": "success",
      "end": 6.38,
      "endOffset": 79,
      "phones": [
        {
          "duration": 0.08,
          "phone": "hh_B"
        },
        {
          "duration": 0.21,
          "phone": "ih_I"
        },
        {
          "duration": 0.25,
          "phone": "z_E"
        }
      ],
      "start": 5.84,
      "startOffset": 76,
      "word": "HIS"
    },
    {
      "alignedWord": "it",
      "case": "success",
      "end": 6.98,
      "endOffset": 82,
      "phones": [
        {
          "duration": 0.14,
          "phone": "ih_B"
        },
        {
          "duration": 0.1,
          "phone": "t_E"
        }
      ],
      "start": 6.74,
      "startOffset": 80,
      "word": "IT"
    },
    {
      "alignedWord": "cannot",
      "case": "success",
      "end": 7.5,
      "endOffset": 89,
      "phones": [
        {
          "duration": 0.09,
          "phone": "k_B"
        },
        {
          "duration": 0.08,
          "phone": "ae_I"
        },
        {
          "duration": 0.14,
          "phone": "n_I"
        },
        {
          "duration": 0.12,
          "phone": "aa_I"
        },
        {
          "duration": 0.09,
          "phone": "t_E"
        }
      ],
      "start": 6.98,
      "startOffset": 83,
      "word": "CANNOT"
    },
    {
      "alignedWord": "be",
      "case": "success",
      "end": 7.69,
      "endOffset": 92,
      "phones": [
        {
          "duration": 0.07,
          "phone": "b_B"
        },
        {
          "duration": 0.12,
          "phone": "iy_E"
        }
      ],
      "start": 7.5,
      "startOffset": 90,
      "word": "BE"
    },
    {
      "alignedWord": "otherwise",
      "case": "success",
      "end": 8.27,
      "endOffset": 102,
      "phones": [
        {
          "duration": 0.08,
          "phone": "ah_B"
        },
        {
          "duration": 0.08,
          "phone": "dh_I"
        },
        {
          "duration": 0.06,
          "phone": "er_I"
        },
        {
          "duration": 0.14,
          "phone": "w_I"
        },
        {
          "duration": 0.13,
          "phone": "ay_I"
        },
        {
          "duration": 0.09,
          "phone": "z_E"
        }
      ],
      "start": 7.69,
      "startOffset": 93,
      "word": "OTHERWISE"
    },
    {
      "alignedWord": "than",
      "case": "success",
      "end": 8.459999999999999,
      "endOffset": 107,
      "phones": [
        {
          "duration": 0.05,
          "phone": "dh_B"
        },
        {
          "duration": 0.08,
          "phone": "ah_I"
        },
        {
          "duration": 0.04,
          "phone": "n_E"
        }
      ],
      "start": 8.29,
      "startOffset": 103,
      "word": "THAN"
    },
    {
      "alignedWord": "appalling",
      "case": "success",
      "end": 9.24,
      "endOffset": 117,
      "phones": [
        {
          "duration": 0.08,
          "phone": "ah_B"
        },
        {
          "duration": 0.13,
          "phone": "p_I"
        },
        {
          "duration": 0.17,
          "phone": "ao_I"
        },
        {
          "duration": 0.07,
          "phone": "l_I"
        },
        {
          "duration": 0.1,
          "phone": "ih_I"
        },
        {
          "duration": 0.23,
          "phone": "ng_E"
        }
      ],
      "start": 8.46,
      "startOffset": 108,
      "word": "APPALLING"
    },
    {
      "alignedWord": "all",
      "case": "success",
      "end": 10.739999999999998,
      "endOffset": 121,
      "phones": [
        {
          "duration": 0.25,
          "phone": "ao_B"
        },
        {
          "duration": 0.12,
          "phone": "l_E"
        }
      ],
      "start": 10.37,
      "startOffset": 118,
      "word": "ALL"
    },
    {
      "alignedWord": "at",
      "case": "success",
      "end": 10.98,
      "endOffset": 124,
      "phones": [
        {
          "duration": 0.11,
          "phone": "ae_B"
        },
        {
          "duration": 0.1,
          "phone": "t_E"
        }
      ],
      "start": 10.77,
      "startOffset": 122,
      "word": "AT"
    },
    {
      "alignedWord": "once",
      "case": "success",
      "end": 11.41,
      "endOffset": 129,
      "phones": [
        {
          "duration": 0.1,
          "phone": "w_B"
        },
        {
          "duration": 0.11,
          "phone": "ah_I"
        },
        {
          "duration": 0.08,
          "phone": "n_I"
        },
        {
          "duration": 0.14,
          "phone": "s_E"
        }
      ],
      "start": 10.98,
      "startOffset": 125,
      "word": "ONCE"
    },
    {
      "alignedWord": "a",
      "case": "success",
      "end": 11.62,
      "endOffset": 131,
      "phones": [
        {
          "duration": 0.18,
          "phone": "ah_S"
        }
      ],
      "start": 11.44,
      "startOffset": 130,
      "word": "A"
    },
    {
      "alignedWord": "light",
      "case": "success",
      "end": 12.01,
      "endOffset": 137,
      "phones": [
        {
          "duration": 0.17,
          "phone": "l_B"
        },
        {
          "duration": 0.12,
          "phone": "ay_I"
        },
        {
          "duration": 0.1,
          "phone": "t_E"
        }
      ],
      "start": 11.62,
      "startOffset": 132,
      "word": "LIGHT"
    },
    {
      "alignedWord": "is",
      "case": "success",
      "end": 12.299999999999999,
      "endOffset": 140,
      "phones": [
        {
          "duration": 0.17,
          "phone": "ih_B"
        },
        {
          "duration": 0.09,
          "phone": "z_E"
        }
      ],
      "start": 12.04,
      "startOffset": 138,
      "word": "IS"
    },
    {
      "alignedWord": "seen",
      "case": "success",
      "end": 12.83,
      "endOffset": 145,
      "phones": [
        {
          "duration": 0.15,
          "phone": "s_B"
        },
        {
          "duration": 0.18,
          "phone": "iy_I"
        },
        {
          "duration": 0.2,
          "phone": "n_E"
        }
      ],
      "start": 12.3,
      "startOffset": 141,
      "word": "SEEN"
    },
    {
      "alignedWord": "to",
      "case": "success",
      "end": 13.17,
      "endOffset": 148,
      "phones": [
        {
          "duration": 0.08,
          "phone": "t_B"
        },
        {
          "duration": 0.07,
          "phone": "ah_E"
        }
      ],
      "start": 13.02,
      "startOffset": 146,
      "word": "TO"
    },
    {
      "alignedWord": "flask",
      "case": "success",
      "end": 13.76,
      "endOffset": 154,
      "phones": [
        {
          "duration": 0.15,
          "phone": "f_B"
        },
        {
          "duration": 0.11,
          "phone": "l_I"
        },
        {
          "duration": 0.14,
          "phone": "ae_I"
        },
        {
          "duration": 0.13,
          "phone": "s_I"
        },
        {
          "duration": 0.06,
          "phone": "k_E"
        }
      ],
      "start": 13.17,
      "startOffset": 149,
      "word": "FLASK"
    },
    {
      "alignedWord": "into",
      "case": "success",
      "end": 14.209999999999999,
      "endOffset": 159,
      "phones": [
        {
          "duration": 0.14,
          "phone": "ih_B"
        },
        {
          "duration": 0.07,
          "phone": "n_I"
        },
        {
          "duration": 0.09,
          "phone": "t_I"
        },
        {
          "duration": 0.14,
          "phone": "uw_E"
        }
      ],
      "start": 13.77,
      "startOffset": 155,
      "word": "INTO"
    },
    {
      "alignedWord": "his",
      "case": "success",
      "end": 14.5,
      "endOffset": 163,
      "phones": [
        {
          "duration": 0.07,
          "phone": "hh_B"
        },
        {
          "duration": 0.11,
          "phone": "ih_I"
        },
        {
          "duration": 0.11,
          "phone": "z_E"
        }
      ],
      "start": 14.21,
      "startOffset": 160,
      "word": "HIS"
    },
    {
      "alignedWord": "eyes",
      "case": "success",
      "end": 15.16,
      "endOffset": 168,
      "phones": [
        {
          "duration": 0.35,
          "phone": "ay_B"
        },
        {
          "duration": 0.31,
          "phone": "z_E"
        }
      ],
      "start": 14.5,
      "startOffset": 164,
      "word": "EYES"
    }
  ]
}