{
  "transcript": "IMPUTATION OF HAVING MURDERED MY OWN COUSIN I DID TAKE HIS LIFE AS I'VE TOLD YOU YOU ARE ALL ASKING WHY AND CONJECTURING ABOUT THE MOTIVE THERE WAS NONE",
  "words": [
    {
      "alignedWord": "<unk>",
      "case": "success",
      "end": 1.19,
      "endOffset": 10,
      "phones": [
        {
          "duration": 0.99,
          "phone": "oov_S"
        }
      ],
      "start": 0.2,
      "startOffset": 0,
      "word": "IMPUTATION"
    },
    {
      "alignedWord": "of",
      "case": "success",
      "end": 1.33,
      "endOffset": 13,
      "phones": [
        {
          "duration": 0.06,
          "phone": "ah_B"
        },
        {
          "duration": 0.07,
          "phone": "v_E"
        }
      ],
      "start": 1.2,
      "startOffset": 11,
      "word": "OF"
    },
    {
      "alignedWord": "having",
      "case": "success",
      "end": 1.7200000000000002,
      "endOffset": 20,
      "phones": [
        {
          "duration": 0.08,
          "phone": "hh_B"
        },
        {
          "duration": 0.1,
          "phone": "ae_I"
        },
        {
          "duration": 0.04,
          "phone": "v_I"
        },
        {
          "duration": 0.07,
          "phone": "ih_I"
        },
        {
          "duration": 0.1,
          "phone": "ng_E"
        }
      ],
      "start": 1.33,
      "startOffset": 14,
      "word": "HAVING"
    },
    {
      "alignedWord": "murdered",
      "case": "success",
      "end": 2.17,
      "endOffset": 29,
      "phones": [
        {
          "duration": 0.09,
          "phone": "m_B"
        },
        {
          "duration": 0.09,
          "phone": "er_I"
        },
        {
          "duration": 0.08,
          "phone": "d_I"
        },
        {
          "duration": 0.09,
          "phone": "er_I"
        },
        {
          "duration": 0.1,
          "phone": "d_E"
        }
      ],
      "start": 1.72,
      "startOffset": 21,
      "word": "MURDERED"
    },
    {
      "alignedWord": "my",
      "case": "success",
      "end": 2.4,
      "endOffset": 32,
      "phones": [
        {
          "duration": 0.08,
          "phone": "m_B"
        },
        {
          "duration": 0.15,
          "phone": "ay_E"
        }
      ],
      "start": 2.17,
      "startOffset": 30,
      "word": "MY"
    },
    {
      "alignedWord": "own",
      "case": "success",
      "end": 2.62,
      "endOffset": 36,
      "phones": [
        {
          "duration": 0.13,
          "phone": "ow_B"
        },
        {
          "duration": 0.09,
          "phone": "n_E"
        }
      ],
      "start": 2.4,
      "startOffset": 33,
      "word": "OWN"
    },
    {
      "alignedWord": "cousin",
      "case": "success",
      "end": 3.29,
      "endOffset": 43,
      "phones": [
        {
          "duration": 0.14,
          "phone": "k_B"
        },
        {
          "duration": 0.11,
          "phone": "ah_I"
        },
        {
          "duration": 0.05,
          "phone": "z_I"
        },
        {
          "duration": 0.08,
          "phone": "ah_I"
        },
        {
          "duration": 0.23,
          "phone": "n_E"
        }
      ],
      "start": 2.68,
      "startOffset": 37,
      "word": "COUSIN"
    },
    {
      "alignedWord": "i",
      "case": "success",
      "end": 4.67,
      "endOffset": 45,
      "phones": [
        {
          "duration": 0.11,
          "phone": "ay_S"
        }
      ],
      "start": 4.56,
      "startOffset": 44,
      "word": "I"
    },
    {
      "alignedWord": "did",
      "case": "success",
      "end": 4.95,
      "endOffset": 49,
      "phones": [
        {
          "duration": 0.09,
          "phone": "d_B"
        },
        {
          "duration": 0.1,
          "phone": "ih_I"
        },
        {
          "duration": 0.09,
          "phone": "d_E"
        }
      ],
      "start": 4.67,
      "startOffset": 46,
      "word": "DID"
    },
    {
      "alignedWord": "take",
      "case": "success",
      "end": 5.220000000000001,
      "endOffset": 54,
      "phones": [
        {
          "duration": 0.06,
          "phone": "t_B"
        },
        {
          "duration": 0.14,
          "phone": "ey_I"
        },
        {
          "duration": 0.07,
          "phone": "k_E"
        }
      ],
      "start": 4.95,
      "startOffset": 50,
      "word": "TAKE"
    },
    {
      "alignedWord": "his",
      "case": "success",
      "end": 5.41,
      "endOffset": 58,
      "phones": [
        {
          "duration": 0.02,
          "phone": "hh_B"
        },
        {
          "duration": 0.06,
          "phone": "ih_I"
        },
        {
          "duration": 0.11,
          "phone": "z_E"
        }
      ],
      "start": 5.22,
      "startOffset": 55,
      "word": "HIS"
    },
    {
      "alignedWord": "life",
      "case": "success",
      "end": 5.94,
      "endOffset": 63,
      "phones": [
        {
          "duration": 0.11,
          "phone": "l_B"
        },
        {
          "duration": 0.12,
          "phone": "ay_I"
        },
        {
          "duration": 0.3,
          "phone": "f_E"
        }
      ],
      "start": 5.41,
      "startOffset": 59,
      "word": "LIFE"
    },
    {
      "alignedWord": "as",
      "case": "success",
      "end": 6.56,
      "endOffset": 66,
      "phones": [
        {
          "duration": 0.11,
          "phone": "eh_B"
        },
        {
          "duration": 0.11,
          "phone": "z_E"
        }
      ],
      "start": 6.34,
      "startOffset": 64,
      "word": "AS"
    },
    {
      "alignedWord": "i've",
      "case": "success",
      "end": 6.77,
      "endOffset": 71,
      "phones": [
        {
          "duration": 0.12,
          "phone": "ay_B"
        },
        {
          "duration": 0.09,
          "phone": "v_E"
        }
      ],
      "start": 6.56,
      "startOffset": 67,
      "word": "I'VE"
    },
    {
      "alignedWord": "told",
      "case": "success",
      "end": 7.13,
      "endOffset": 76,
      "phones": [
        {
          "duration": 0.1,
          "phone": "t_B"
        },
        {
          "duration": 0.11,
          "phone": "ow_I"
        },
        {
          "duration": 0.06,
          "phone": "l_I"
        },
        {
          "duration": 0.09,
          "phone": "d_E"
        }
      ],
      "start": 6.77,
      "startOffset": 72,
      "word": "TOLD"
    },
    {
      "alignedWord": "you",
      "case": "success",
      "end": 7.37,
      "endOffset": 80,
      "phones": [
        {
          "duration": 0.06,
          "phone": "y_B"
        },
        {
          "duration": 0.18,
          "phone": "uw_E"
        }
      ],
      "start": 7.13,
      "startOffset": 77,
      "word": "YOU"
    },
    {
      "alignedWord": "you",
      "case": "success",
      "end": 8.279999,
      "endOffset": 84,
      "phones": [
        {
          "duration": 0.08,
          "phone": "y_B"
        },
        {
          "duration": 0.06,
          "phone": "uw_E"
        }
      ],
      "start": 8.139999,
      "startOffset": 81,
      "word": "YOU"
    },
    {
      "alignedWord": "are",
      "case": "success",
      "end": 8.33,
      "endOffset": 88,
      "phones": [
        {
          "duration": 0.05,
          "phone": "er_S"
        }
      ],
      "start": 8.28,
      "startOffset": 85,
      "word": "ARE"
    },
    {
      "alignedWord": "all",
      "case": "success",
      "end": 8.61,
      "endOffset": 92,
      "phones": [
        {
          "duration": 0.13,
          "phone": "ao_B"
        },
        {
          "duration": 0.15,
          "phone": "l_E"
        }
      ],
      "start": 8.33,
      "startOffset": 89,
      "word": "ALL"
    },
    {
      "alignedWord": "asking",
      "case": "success",
      "end": 9.08,
      "endOffset": 99,
      "phones": [
        {
          "duration": 0.12,
          "phone": "ae_B"
        },
        {
          "duration": 0.07,
          "phone": "s_I"
        },
        {
          "duration": 0.07,
          "phone": "k_I"
        },
        {
          "duration": 0.08,
          "phone": "ih_I"
        },
        {
          "duration": 0.13,
          "phone": "ng_E"
        }
      ],
      "start": 8.61,
      "startOffset": 93,
      "word": "ASKING"
    },
    {
      "alignedWord": "why",
      "case": "success",
      "end": 9.64,
      "endOffset": 103,
      "phones": [
        {
          "duration": 0.19,
          "phone": "w_B"
        },
        {
          "duration": 0.37,
          "phone": "ay_E"
        }
      ],
      "start": 9.08,
      "startOffset": 100,
      "word": "WHY"
    },
    {
      "alignedWord": "and",
      "case": "success",
      "end": 10.2,
      "endOffset": 107,
      "phones": [
        {
          "duration": 0.1,
          "phone": "ae_B"
        },
        {
          "duration": 0.06,
          "phone": "n_I"
        },
        {
          "duration": 0.04,
          "phone": "d_E"
        }
      ],
      "start": 10.0,
      "startOffset": 104,
      "word": "AND"
    },
    {
      "alignedWord": "<unk>",
      "case": "success",
      "end": 11.01,
      "endOffset": 120,
      "phones": [
        {
          "duration": 0.81,
          "phone": "oov_S"
        }
      ],
      "start": 10.2,
      "startOffset": 108,
      "word": "CONJECTURING"
    },
    {
      "alignedWord": "about",
      "case": "success",
      "end": 11.34,
      "endOffset": 126,
      "phones": [
        {
          "duration": 0.06,
          "phone": "ah_B"
        },
        {
          "duration": 0.11,
          "phone": "b_I"
        },
        {
          "duration": 0.09,
          "phone": "aw_I"
        },
        {
          "duration": 0.06,
          "phone": "t_E"
        }
      ],
      "start": 11.02,
      "startOffset": 121,
      "word": "ABOUT"
    },
    {
      "alignedWord": "the",
      "case": "success",
      "end": 11.47,
      "endOffset": 130,
      "phones": [
        {
          "duration": 0.05,
          "phone": "dh_B"
        },
        {
          "duration": 0.08,
          "phone": "ah_E"
        }
      ],
      "start": 11.34,
      "startOffset": 127,
      "word": "THE"
    },
    {
      "alignedWord": "motive",
      "case": "success",
      "end": 11.93,
      "endOffset": 137,
      "phones": [
        {
          "duration": 0.11,
          "phone": "m_B"
        },
        {
          "duration": 0.13,
          "phone": "ow_I"
        },
        {
          "duration": 0.07,
          "phone": "t_I"
        },
        {
          "duration": 0.04,
          "phone": "ih_I"
        },
        {
          "duration": 0.1,
          "phone": "v_E"
        }
      ],
      "start": 11.48,
      "startOffset": 131,
      "word": "MOTIVE"
    },
    {
      "alignedWord": "there",
      "case": "success",
      "end": 12.61,
      "endOffset": 143,
      "phones": [
        {
          "duration": 0.11,
          "phone": "dh_B"
        },
        {
          "duration": 0.06,
          "phone": "eh_I"
        },
        {
          "duration": 0.08,
          "phone": "r_E"
        }
      ],
      "start": 12.36,
      "startOffset": 138,
      "word": "THERE"
    },
    {
      "alignedWord": "was",
      "case": "success",
      "end": 13.0,
      "endOffset": 147,
      "phones": [
        {
          "duration": 0.16,
          "phone": "w_B"
        },
        {
          "duration": 0.1,
          "phone": "aa_I"
        },
        {
          "duration": 0.12,
          "phone": "z_E"
        }
      ],
      "start": 12.62,
      "startOffset": 144,
      "word": "WAS"
    },
    {
      "alignedWord": "none",
      "case": "success",
      "end": 13.48,
      "endOffset": 152,
      "phones": [
        {
          "duration": 0.13,
          "phone": "n_B"
        },
        {
          "duration": 0.13,
          "phone": "ah_I"
        },
        {
          "duration": 0.2,
          "phone": "n_E"
        }
      ],
      "start": 13.02,
      "startOffset": 148,
      "word": "NONE"
    }
  ]
}