{
  "transcript": "IN THIS ENTERPRISE I ENDEAVOURED TO PICK UP AS MANY FLOWERS AS I COULD BY THE WAY",
  "words": [
    {
      "alignedWord": "in",
      "case": "success",
      "end": 0.31,
      "endOffset": 2,
      "phones": [
        {
          "duration": 0.09,
          "phone": "ih_B"
        },
        {
          "duration": 0.07,
          "phone": "n_E"
        }
      ],
      "start": 0.15,
      "startOffset": 0,
      "word": "IN"
    },
    {
      "alignedWord": "this",
      "case": "success",
      "end": 0.51,
      "endOffset": 7,
      "phones": [
        {
          "duration": 0.05,
          "phone": "dh_B"
        },
        {
          "duration": 0.08,
          "phone": "ih_I"
        },
        {
          "duration": 0.07,
          "phone": "s_E"
        }
      ],
      "start": 0.31,
      "startOffset": 3,
      "word": "THIS"
    },
    {
      "alignedWord": "enterprise",
      "case": "success",
      "end": 1.36,
      "endOffset": 18,
      "phones": [
        {
          "duration": 0.11,
          "phone": "eh_B"
        },
        {
          "duration": 0.08,
          "phone": "n_I"
        },
        {
          "duration": 0.07,
          "phone": "er_I"
        },
        {
          "duration": 0.12,
          "phone": "p_I"
        },
        {
          "duration": 0.1,
          "phone": "r_I"
        },
        {
          "duration": 0.19,
          "phone": "ay_I"
        },
        {
          "duration": 0.14,
          "phone": "z_E"
        }
      ],
      "start": 0.55,
      "startOffset": 8,
      "word": "ENTERPRISE"
    },
    {
      "alignedWord": "i",
      "case": "success",
      "end": 2.3600000000000003,
      "endOffset": 20,
      "phones": [
        {
          "duration": 0.14,
          "phone": "ay_S"
        }
      ],
      "start": 2.22,
      "startOffset": 19,
      "word": "I"
    },
    {
      "alignedWord": "<unk>",
      "case": "success",
      "end": 2.91,
      "endOffset": 32,
      "phones": [
        {
          "duration": 0.55,
          "phone": "oov_S"
        }
      ],
      "start": 2.36,
      "startOffset": 21,
      "word": "ENDEAVOURED"
    },
    {
      "alignedWord": "to",
      "case": "success",
      "end": 3.08,
      "endOffset": 35,
      "phones": [
        {
          "duration": 0.08,
          "phone": "t_B"
        },
        {
          "duration": 0.07,
          "phone": "ih_E"
        }
      ],
      "start": 2.93,
      "startOffset": 33,
      "word": "TO"
    },
    {
      "alignedWord": "pick",
      "case": "success",
      "end": 3.36,
      "endOffset": 40,
      "phones": [
        {
          "duration": 0.1,
          "phone": "p_B"
        },
        {
          "duration": 0.1,
          "phone": "ih_I"
        },
        {
          "duration": 0.07,
          "phone": "k_E"
        }
      ],
      "start": 3.09,
      "startOffset": 36,
      "word": "PICK"
    },
    {
      "alignedWord": "up",
      "case": "success",
      "end": 3.57,
      "endOffset": 43,
      "phones": [
        {
          "duration": 0.1,
          "phone": "ah_B"
        },
        {
          "duration": 0.11,
          "phone": "p_E"
        }
      ],
      "start": 3.36,
      "startOffset": 41,
      "word": "UP"
    },
    {
      "alignedWord": "as",
      "case": "success",
      "end": 3.76,
      "endOffset": 46,
      "phones": [
        {
          "duration": 0.09,
          "phone": "eh_B"
        },
        {
          "duration": 0.1,
          "phone": "z_E"
        }
      ],
      "start": 3.57,
      "startOffset": 44,
      "word": "AS"
    },
    {
      "alignedWord": "many",
      "case": "success",
      "end": 4.09,
      "endOffset": 51,
      "phones": [
        {
          "duration": 0.09,
          "phone": "m_B"
        },
        {
          "duration": 0.07,
          "phone": "eh_I"
        },
        {
          "duration": 0.08,
          "phone": "n_I"
        },
        {
          "duration": 0.09,
          "phone": "iy_E"
        }
      ],
      "start": 3.76,
      "startOffset": 47,
      "word": "MANY"
    },
    {
      "alignedWord": "flowers",
      "case": "success",
      "end": 4.65,
      "endOffset": 59,
      "phones": [
        {
          "duration": 0.1,
          "phone": "f_B"
        },
        {
          "duration": 0.07,
          "phone": "l_I"
        },
        {
          "duration": 0.17,
          "phone": "aw_I"
        },
        {
          "duration": 0.11,
          "phone": "er_I"
        },
        {
          "duration": 0.11,
          "phone": "z_E"
        }
      ],
      "start": 4.09,
      "startOffset": 52,
      "word": "FLOWERS"
    },
    {
      "alignedWord": "as",
      "case": "success",
      "end": 4.8999999999999995,
      "endOffset": 62,
      "phones": [
        {
          "duration": 0.11,
          "phone": "eh_B"
        },
        {
          "duration": 0.11,
          "phone": "z_E"
        }
      ],
      "start": 4.68,
      "startOffset": 60,
      "word": "AS"
    },
    {
      "alignedWord": "i",
      "case": "success",
      "end": 5.03,
      "endOffset": 64,
      "phones": [
        {
          "duration": 0.13,
          "phone": "ay_S"
        }
      ],
      "start": 4.9,
      "startOffset": 63,
      "word": "I"
    },
    {
      "alignedWord": "could",
      "case": "success",
      "end": 5.430000000000001,
      "endOffset": 70,
      "phones": [
        {
          "duration": 0.13,
          "phone": "k_B"
        },
        {
          "duration": 0.18,
          "phone": "uh_I"
        },
        {
          "duration": 0.09,
          "phone": "d_E"
        }
      ],
      "start": 5.03,
      "startOffset": 65,
      "word": "COULD"
    },
    {
      "alignedWord": "by",
      "case": "success",
      "end": 5.65,
      "endOffset": 73,
      "phones": [
        {
          "duration": 0.11,
          "phone": "b_B"
        },
        {
          "duration": 0.1,
          "phone": "ay_E"
        }
      ],
      "start": 5.44,
      "startOffset": 71,
      "word": "BY"
    },
    {
      "alignedWord": "the",
      "case": "success",
      "end": 5.7700000000000005,
      "endOffset": 77,
      "phones": [
        {
          "duration": 0.07,
          "phone": "dh_B"
        },
        {
          "duration": 0.05,
          "phone": "ah_E"
        }
      ],
      "start": 5.65,
      "startOffset": 74,
      "word": "THE"
    },
    {
      "alignedWord": "way",
      "case": "success",
      "end": 6.18,
      "endOffset": 81,
      "phones": [
        {
          "duration": 0.16,
          "phone": "w_B"
        },
        {
          "duration": 0.25,
          "phone": "ey_E"
        }
      ],
      "start": 5.77,
      "startOffset": 78,
      "word": "WAY"
    }
  ]
}