{
  "transcript": "SHALL WE SEND BOBO IN SEARCH OF THE LOST HALF HOUR SAID THE PRINCESS TO THE COURTIERS YES YES CRIED THE COURTIERS BOBO SHALL LOOK FOR THE LOST HALF HOUR I'LL GIVE HIM A HORSE SAID ONE",
  "words": [
    {
      "alignedWord": "shall",
      "case": "success",
      "end": 0.8,
      "endOffset": 5,
      "phones": [
        {
          "duration": 0.15,
          "phone": "sh_B"
        },
        {
          "duration": 0.07,
          "phone": "ae_I"
        },
        {
          "duration": 0.03,
          "phone": "l_E"
        }
      ],
      "start": 0.55,
      "startOffset": 0,
      "word": "SHALL"
    },
    {
      "alignedWord": "we",
      "case": "success",
      "end": 0.9500000000000001,
      "endOffset": 8,
      "phones": [
        {
          "duration": 0.07,
          "phone": "w_B"
        },
        {
          "duration": 0.08,
          "phone": "iy_E"
        }
      ],
      "start": 0.8,
      "startOffset": 6,
      "word": "WE"
    },
    {
      "alignedWord": "send",
      "case": "success",
      "end": 1.18,
      "endOffset": 13,
      "phones": [
        {
          "duration": 0.06,
          "phone": "s_B"
        },
        {
          "duration": 0.05,
          "phone": "eh_I"
        },
        {
          "duration": 0.08,
          "phone": "n_I"
        },
        {
          "duration": 0.04,
          "phone": "d_E"
        }
      ],
      "start": 0.95,
      "startOffset": 9,
      "word": "SEND"
    },
    {
      "alignedWord": "<unk>",
      "case": "success",
      "end": 1.58,
      "endOffset": 18,
      "phones": [
        {
          "duration": 0.4,
          "phone": "oov_S"
        }
      ],
      "start": 1.18,
      "startOffset": 14,
      "word": "BOBO"
    },
    {
      "alignedWord": "in",
      "case": "success",
      "end": 1.73,
      "endOffset": 21,
      "phones": [
        {
          "duration": 0.05,
          "phone": "ih_B"
        },
        {
          "duration": 0.09,
          "phone": "n_E"
        }
      ],
      "start": 1.59,
      "startOffset": 19,
      "word": "IN"
    },
    {
      "alignedWord": "search",
      "case": "success",
      "end": 2.07,
      "endOffset": 28,
      "phones": [
        {
          "duration": 0.19,
          "phone": "s_B"
        },
        {
          "duration": 0.09,
          "phone": "er_I"
        },
        {
          "duration": 0.06,
          "phone": "ch_E"
        }
      ],
      "start": 1.73,
      "startOffset": 22,
      "word": "SEARCH"
    },
    {
      "alignedWord": "of",
      "case": "success",
      "end": 2.2199999999999998,
      "endOffset": 31,
      "phones": [
        {
          "duration": 0.07,
          "phone": "ah_B"
        },
        {
          "duration": 0.08,
          "phone": "v_E"
        }
      ],
      "start": 2.07,
      "startOffset": 29,
      "word": "OF"
    },
    {
      "alignedWord": "the",
      "case": "success",
      "end": 2.31,
      "endOffset": 35,
      "phones": [
        {
          "duration": 0.02,
          "phone": "dh_B"
        },
        {
          "duration": 0.07,
          "phone": "ah_E"
        }
      ],
      "start": 2.22,
      "startOffset": 32,
      "word": "THE"
    },
    {
      "alignedWord": "lost",
      "case": "success",
      "end": 2.73,
      "endOffset": 40,
      "phones": [
        {
          "duration": 0.11,
          "phone": "l_B"
        },
        {
          "duration": 0.15,
          "phone": "ao_I"
        },
        {
          "duration": 0.08,
          "phone": "s_I"
        },
        {
          "duration": 0.08,
          "phone": "t_E"
        }
      ],
      "start": 2.31,
      "startOffset": 36,
      "word": "LOST"
    },
    {
      "alignedWord": "half",
      "case": "success",
      "end": 3.12,
      "endOffset": 45,
      "phones": [
        {
          "duration": 0.14,
          "phone": "hh_B"
        },
        {
          "duration": 0.12,
          "phone": "ae_I"
        },
        {
          "duration": 0.12,
          "phone": "f_E"
        }
      ],
      "start": 2.74,
      "startOffset": 41,
      "word": "HALF"
    },
    {
      "alignedWord": "hour",
      "case": "success",
      "end": 3.5500000000000003,
      "endOffset": 50,
      "phones": [
        {
          "duration": 0.26,
          "phone": "aw_B"
        },
        {
          "duration": 0.17,
          "phone": "er_E"
        }
      ],
      "start": 3.12,
      "startOffset": 46,
      "word": "HOUR"
    },
    {
      "alignedWord": "said",
      "case": "success",
      "end": 3.84,
      "endOffset": 55,
      "phones": [
        {
          "duration": 0.13,
          "phone": "s_B"
        },
        {
          "duration": 0.07,
          "phone": "eh_I"
        },
        {
          "duration": 0.07,
          "phone": "d_E"
        }
      ],
      "start": 3.57,
      "startOffset": 51,
      "word": "SAID"
    },
    {
      "alignedWord": "the",
      "case": "success",
      "end": 3.9099999999999997,
      "endOffset": 59,
      "phones": [
        {
          "duration": 0.01,
          "phone": "dh_B"
        },
        {
          "duration": 0.06,
          "phone": "ah_E"
        }
      ],
      "start": 3.84,
      "startOffset": 56,
      "word": "THE"
    },
    {
      "alignedWord": "princess",
      "case": "success",
      "end": 4.32,
      "endOffset": 68,
      "phones": [
        {
          "duration": 0.07,
          "phone": "p_B"
        },
        {
          "duration": 0.03,
          "phone": "r_I"
        },
        {
          "duration": 0.07,
          "phone": "ih_I"
        },
        {
          "duration": 0.04,
          "phone": "n_I"
        },
        {
          "duration": 0.05,
          "phone": "s_I"
        },
        {
          "duration": 0.08,
          "phone": "eh_I"
        },
        {
          "duration": 0.07,
          "phone": "s_E"
        }
      ],
      "start": 3.91,
      "startOffset": 60,
      "word": "PRINCESS"
    },
    {
      "alignedWord": "to",
      "case": "success",
      "end": 4.48,
      "endOffset": 71,
      "phones": [
        {
          "duration": 0.06,
          "phone": "t_B"
        },
        {
          "duration": 0.06,
          "phone": "ih_E"
        }
      ],
      "start": 4.36,
      "startOffset": 69,
      "word": "TO"
    },
    {
      "alignedWord": "the",
      "case": "success",
      "end": 4.58,
      "endOffset": 75,
      "phones": [
        {
          "duration": 0.04,
          "phone": "dh_B"
        },
        {
          "duration": 0.06,
          "phone": "ah_E"
        }
      ],
      "start": 4.48,
      "startOffset": 72,
      "word": "THE"
    },
    {
      "alignedWord": "<unk>",
      "case": "success",
      "end": 5.17,
      "endOffset": 85,
      "phones": [
        {
          "duration": 0.59,
          "phone": "oov_S"
        }
      ],
      "start": 4.58,
      "startOffset": 76,
      "word": "COURTIERS"
    },
    {
      "alignedWord": "yes",
      "case": "success",
      "end": 6.77,
      "endOffset": 89,
      "phones": [
        {
          "duration": 0.21,
          "phone": "y_B"
        },
        {
          "duration": 0.23,
          "phone": "eh_I"
        },
        {
          "duration": 0.11,
          "phone": "s_E"
        }
      ],
      "start": 6.22,
      "startOffset": 86,
      "word": "YES"
    },
    {
      "alignedWord": "yes",
      "case": "success",
      "end": 7.36,
      "endOffset": 93,
      "phones": [
        {
          "duration": 0.19,
          "phone": "y_B"
        },
        {
          "duration": 0.26,
          "phone": "eh_I"
        },
        {
          "duration": 0.12,
          "phone": "s_E"
        }
      ],
      "start": 6.79,
      "startOffset": 90,
      "word": "YES"
    },
    {
      "alignedWord": "cried",
      "case": "success",
      "end": 7.7,
      "endOffset": 99,
      "phones": [
        {
          "duration": 0.1,
          "phone": "k_B"
        },
        {
          "duration": 0.07,
          "phone": "r_I"
        },
        {
          "duration": 0.08,
          "phone": "ay_I"
        },
        {
          "duration": 0.09,
          "phone": "d_E"
        }
      ],
      "start": 7.36,
      "startOffset": 94,
      "word": "CRIED"
    },
    {
      "alignedWord": "the",
      "case": "success",
      "end": 7.7700000000000005,
      "endOffset": 103,
      "phones": [
        {
          "duration": 0.01,
          "phone": "dh_B"
        },
        {
          "duration": 0.06,
          "phone": "ah_E"
        }
      ],
      "start": 7.7,
      "startOffset": 100,
      "word": "THE"
    },
    {
      "alignedWord": "<unk>",
      "case": "success",
      "end": 8.389999999999999,
      "endOffset": 113,
      "phones": [
        {
          "duration": 0.62,
          "phone": "oov_S"
        }
      ],
      "start": 7.77,
      "startOffset": 104,
      "word": "COURTIERS"
    },
    {
      "alignedWord": "<unk>",
      "case": "success",
      "end": 9.139999,
      "endOffset": 118,
      "phones": [
        {
          "duration": 0.5,
          "phone": "oov_S"
        }
      ],
      "start": 8.639999,
      "startOffset": 114,
      "word": "BOBO"
    },
    {
      "alignedWord": "shall",
      "case": "success",
      "end": 9.43,
      "endOffset": 124,
      "phones": [
        {
          "duration": 0.11,
          "phone": "sh_B"
        },
        {
          "duration": 0.1,
          "phone": "ae_I"
        },
        {
          "duration": 0.07,
          "phone": "l_E"
        }
      ],
      "start": 9.15,
      "startOffset": 119,
      "word": "SHALL"
    },
    {
      "alignedWord": "look",
      "case": "success",
      "end": 9.749999,
      "endOffset": 129,
      "phones": [
        {
          "duration": 0.14,
          "phone": "l_B"
        },
        {
          "duration": 0.07,
          "phone": "uh_I"
        },
        {
          "duration": 0.11,
          "phone": "k_E"
        }
      ],
      "start": 9.429999,
      "startOffset": 125,
      "word": "LOOK"
    },
    {
      "alignedWord": "for",
      "case": "success",
      "end": 9.93,
      "endOffset": 133,
      "phones": [
        {
          "duration": 0.1,
          "phone": "f_B"
        },
        {
          "duration": 0.07,
          "phone": "er_E"
        }
      ],
      "start": 9.76,
      "startOffset": 130,
      "word": "FOR"
    },
    {
      "alignedWord": "the",
      "case": "success",
      "end": 10.029999,
      "endOffset": 137,
      "phones": [
        {
          "duration": 0.04,
          "phone": "dh_B"
        },
        {
          "duration": 0.06,
          "phone": "ah_E"
        }
      ],
      "start": 9.929999,
      "startOffset": 134,
      "word": "THE"
    },
    {
      "alignedWord": "lost",
      "case": "success",
      "end": 10.43,
      "endOffset": 142,
      "phones": [
        {
          "duration": 0.1,
          "phone": "l_B"
        },
        {
          "duration": 0.13,
          "phone": "ao_I"
        },
        {
          "duration": 0.09,
          "phone": "s_I"
        },
        {
          "duration": 0.08,
          "phone": "t_E"
        }
      ],
      "start": 10.03,
      "startOffset": 138,
      "word": "LOST"
    },
    {
      "alignedWord": "half",
      "case": "success",
      "end": 10.749999,
      "endOffset": 147,
      "phones": [
        {
          "duration": 0.07,
          "phone": "hh_B"
        },
        {
          "duration": 0.13,
          "phone": "ae_I"
        },
        {
          "duration": 0.12,
          "phone": "f_E"
        }
      ],
      "start": 10.429999,
      "startOffset": 143,
      "word": "HALF"
    },
    {
      "alignedWord": "hour",
      "case": "success",
      "end": 11.2,
      "endOffset": 152,
      "phones": [
        {
          "duration": 0.25,
          "phone": "aw_B"
        },
        {
          "duration": 0.2,
          "phone": "er_E"
        }
      ],
      "start": 10.75,
      "startOffset": 148,
      "word": "HOUR"
    },
    {
      "alignedWord": "i'll",
      "case": "success",
      "end": 12.709999,
      "endOffset": 157,
      "phones": [
        {
          "duration": 0.13,
          "phone": "ay_B"
        },
        {
          "duration": 0.11,
          "phone": "l_E"
        }
      ],
      "start": 12.469999,
      "startOffset": 153,
      "word": "I'LL"
    },
    {
      "alignedWord": "give",
      "case": "success",
      "end": 12.89,
      "endOffset": 162,
      "phones": [
        {
          "duration": 0.09,
          "phone": "g_B"
        },
        {
          "duration": 0.08,
          "phone": "ih_I"
        },
        {
          "duration": 0.01,
          "phone": "v_E"
        }
      ],
      "start": 12.71,
      "startOffset": 158,
      "word": "GIVE"
    },
    {
      "alignedWord": "him",
      "case": "success",
      "end": 13.069999,
      "endOffset": 166,
      "phones": [
        {
          "duration": 0.07,
          "phone": "ih_B"
        },
        {
          "duration": 0.11,
          "phone": "m_E"
        }
      ],
      "start": 12.889999,
      "startOffset": 163,
      "word": "HIM"
    },
    {
      "alignedWord": "a",
      "case": "success",
      "end": 13.14,
      "endOffset": 168,
      "phones": [
        {
          "duration": 0.01,
          "phone": "ah_S"
        }
      ],
      "start": 13.13,
      "startOffset": 167,
      "word": "A"
    },
    {
      "alignedWord": "horse",
      "case": "success",
      "end": 13.73,
      "endOffset": 174,
      "phones": [
        {
          "duration": 0.1,
          "phone": "hh_B"
        },
        {
          "duration": 0.21,
          "phone": "ao_I"
        },
        {
          "duration": 0.09,
          "phone": "r_I"
        },
        {
          "duration": 0.18,
          "phone": "s_E"
        }
      ],
      "start": 13.15,
      "startOffset": 169,
      "word": "HORSE"
    },
    {
      "alignedWord": "said",
      "case": "success",
      "end": 14.139999000000001,
      "endOffset": 179,
      "phones": [
        {
          "duration": 0.2,
          "phone": "s_B"
        },
        {
          "duration": 0.09,
          "phone": "eh_I"
        },
        {
          "duration": 0.09,
          "phone": "d_E"
        }
      ],
      "start": 13.759999,
      "startOffset": 175,
      "word": "SAID"
    },
    {
      "alignedWord": "one",
      "case": "success",
      "end": 14.530000000000001,
      "endOffset": 183,
      "phones": [
        {
          "duration": 0.11,
          "phone": "w_B"
        },
        {
          "duration": 0.11,
          "phone": "ah_I"
        },
        {
          "duration": 0.16,
          "phone": "n_E"
        }
      ],
      "start": 14.15,
      "startOffset": 180,
      "word": "ONE"
    }
  ]
}