{
  "transcript": "THE WRITER SAYS THAT ALL OBSERVERS WERE MISTAKEN THAT THE FROGS OR TOADS MUST HAVE FALLEN FROM TREES OR OTHER PLACES OVERHEAD TREMENDOUS NUMBER OF LITTLE TOADS ONE OR TWO MONTHS OLD",
  "words": [
    {
      "alignedWord": "the",
      "case": "success",
      "end": 0.53,
      "endOffset": 3,
      "phones": [
        {
          "duration": 0.06,
          "phone": "dh_B"
        },
        {
          "duration": 0.06,
          "phone": "ah_E"
        }
      ],
      "start": 0.41,
      "startOffset": 0,
      "word": "THE"
    },
    {
      "alignedWord": "writer",
      "case": "success",
      "end": 0.81,
      "endOffset": 10,
      "phones": [
        {
          "duration": 0.07,
          "phone": "r_B"
        },
        {
          "duration": 0.08,
          "phone": "ay_I"
        },
        {
          "duration": 0.06,
          "phone": "t_I"
        },
        {
          "duration": 0.07,
          "phone": "er_E"
        }
      ],
      "start": 0.53,
      "startOffset": 4,
      "word": "WRITER"
    },
    {
      "alignedWord": "says",
      "case": "success",
      "end": 1.09,
      "endOffset": 15,
      "phones": [
        {
          "duration": 0.11,
          "phone": "s_B"
        },
        {
          "duration": 0.1,
          "phone": "eh_I"
        },
        {
          "duration": 0.07,
          "phone": "z_E"
        }
      ],
      "start": 0.81,
      "startOffset": 11,
      "word": "SAYS"
    },
    {
      "alignedWord": "that",
      "case": "success",
      "end": 1.23,
      "endOffset": 20,
      "phones": [
        {
          "duration": 0.03,
          "phone": "dh_B"
        },
        {
          "duration": 0.04,
          "phone": "ah_I"
        },
        {
          "duration": 0.06,
          "phone": "t_E"
        }
      ],
      "start": 1.1,
      "startOffset": 16,
      "word": "THAT"
    },
    {
      "alignedWord": "all",
      "case": "success",
      "end": 1.41,
      "endOffset": 24,
      "phones": [
        {
          "duration": 0.08,
          "phone": "ao_B"
        },
        {
          "duration": 0.09,
          "phone": "l_E"
        }
      ],
      "start": 1.24,
      "startOffset": 21,
      "word": "ALL"
    },
    {
      "alignedWord": "observers",
      "case": "success",
      "end": 1.9,
      "endOffset": 34,
      "phones": [
        {
          "duration": 0.03,
          "phone": "ah_B"
        },
        {
          "duration": 0.07,
          "phone": "b_I"
        },
        {
          "duration": 0.09,
          "phone": "z_I"
        },
        {
          "duration": 0.1,
          "phone": "er_I"
        },
        {
          "duration": 0.04,
          "phone": "v_I"
        },
        {
          "duration": 0.07,
          "phone": "er_I"
        },
        {
          "duration": 0.09,
          "phone": "z_E"
        }
      ],
      "start": 1.41,
      "startOffset": 25,
      "word": "OBSERVERS"
    },
    {
      "alignedWord": "were",
      "case": "success",
      "end": 2.03,
      "endOffset": 39,
      "phones": [
        {
          "duration": 0.08,
          "phone": "w_B"
        },
        {
          "duration": 0.05,
          "phone": "er_E"
        }
      ],
      "start": 1.9,
      "startOffset": 35,
      "word": "WERE"
    },
    {
      "alignedWord": "mistaken",
      "case": "success",
      "end": 2.61,
      "endOffset": 48,
      "phones": [
        {
          "duration": 0.05,
          "phone": "m_B"
        },
        {
          "duration": 0.05,
          "phone": "ih_I"
        },
        {
          "duration": 0.06,
          "phone": "s_I"
        },
        {
          "duration": 0.08,
          "phone": "t_I"
        },
        {
          "duration": 0.08,
          "phone": "ey_I"
        },
        {
          "duration": 0.06,
          "phone": "k_I"
        },
        {
          "duration": 0.06,
          "phone": "ah_I"
        },
        {
          "duration": 0.14,
          "phone": "n_E"
        }
      ],
      "start": 2.03,
      "startOffset": 40,
      "word": "MISTAKEN"
    },
    {
      "alignedWord": "that",
      "case": "success",
      "end": 3.2399999999999998,
      "endOffset": 53,
      "phones": [
        {
          "duration": 0.06,
          "phone": "dh_B"
        },
        {
          "duration": 0.02,
          "phone": "ae_I"
        },
        {
          "duration": 0.07,
          "phone": "t_E"
        }
      ],
      "start": 3.09,
      "startOffset": 49,
      "word": "THAT"
    },
    {
      "alignedWord": "the",
      "case": "success",
      "end": 3.3200000000000003,
      "endOffset": 57,
      "phones": [
        {
          "duration": 0.03,
          "phone": "dh_B"
        },
        {
          "duration": 0.05,
          "phone": "ah_E"
        }
      ],
      "start": 3.24,
      "startOffset": 54,
      "word": "THE"
    },
    {
      "alignedWord": "frogs",
      "case": "success",
      "end": 3.69,
      "endOffset": 63,
      "phones": [
        {
          "duration": 0.07,
          "phone": "f_B"
        },
        {
          "duration": 0.07,
          "phone": "r_I"
        },
        {
          "duration": 0.09,
          "phone": "aa_I"
        },
        {
          "duration": 0.07,
          "phone": "g_I"
        },
        {
          "duration": 0.07,
          "phone": "z_E"
        }
      ],
      "start": 3.32,
      "startOffset": 58,
      "word": "FROGS"
    },
    {
      "alignedWord": "or",
      "case": "success",
      "end": 3.78,
      "endOffset": 66,
      "phones": [
        {
          "duration": 0.09,
          "phone": "er_S"
        }
      ],
      "start": 3.69,
      "startOffset": 64,
      "word": "OR"
    },
    {
      "alignedWord": "toads",
      "case": "success",
      "end": 4.12,
      "endOffset": 72,
      "phones": [
        {
          "duration": 0.1,
          "phone": "t_B"
        },
        {
          "duration": 0.11,
          "phone": "ow_I"
        },
        {
          "duration": 0.08,
          "phone": "d_I"
        },
        {
          "duration": 0.05,
          "phone": "z_E"
        }
      ],
      "start": 3.78,
      "startOffset": 67,
      "word": "TOADS"
    },
    {
      "alignedWord": "must",
      "case": "success",
      "end": 4.3500000000000005,
      "endOffset": 77,
      "phones": [
        {
          "duration": 0.07,
          "phone": "m_B"
        },
        {
          "duration": 0.06,
          "phone": "ah_I"
        },
        {
          "duration": 0.03,
          "phone": "s_I"
        },
        {
          "duration": 0.07,
          "phone": "t_E"
        }
      ],
      "start": 4.12,
      "startOffset": 73,
      "word": "MUST"
    },
    {
      "alignedWord": "have",
      "case": "success",
      "end": 4.449999999999999,
      "endOffset": 82,
      "phones": [
        {
          "duration": 0.02,
          "phone": "hh_B"
        },
        {
          "duration": 0.01,
          "phone": "ae_I"
        },
        {
          "duration": 0.07,
          "phone": "v_E"
        }
      ],
      "start": 4.35,
      "startOffset": 78,
      "word": "HAVE"
    },
    {
      "alignedWord": "fallen",
      "case": "success",
      "end": 4.8100000000000005,
      "endOffset": 89,
      "phones": [
        {
          "duration": 0.1,
          "phone": "f_B"
        },
        {
          "duration": 0.06,
          "phone": "aa_I"
        },
        {
          "duration": 0.08,
          "phone": "l_I"
        },
        {
          "duration": 0.06,
          "phone": "ah_I"
        },
        {
          "duration": 0.06,
          "phone": "n_E"
        }
      ],
      "start": 4.45,
      "startOffset": 83,
      "word": "FALLEN"
    },
    {
      "alignedWord": "from",
      "case": "success",
      "end": 5.0,
      "endOffset": 94,
      "phones": [
        {
          "duration": 0.04,
          "phone": "f_B"
        },
        {
          "duration": 0.06,
          "phone": "er_I"
        },
        {
          "duration": 0.09,
          "phone": "m_E"
        }
      ],
      "start": 4.81,
      "startOffset": 90,
      "word": "FROM"
    },
    {
      "alignedWord": "trees",
      "case": "success",
      "end": 5.35,
      "endOffset": 100,
      "phones": [
        {
          "duration": 0.07,
          "phone": "t_B"
        },
        {
          "duration": 0.08,
          "phone": "r_I"
        },
        {
          "duration": 0.11,
          "phone": "iy_I"
        },
        {
          "duration": 0.09,
          "phone": "z_E"
        }
      ],
      "start": 5.0,
      "startOffset": 95,
      "word": "TREES"
    },
    {
      "alignedWord": "or",
      "case": "success",
      "end": 5.510000000000001,
      "endOffset": 103,
      "phones": [
        {
          "duration": 0.09,
          "phone": "ao_B"
        },
        {
          "duration": 0.06,
          "phone": "r_E"
        }
      ],
      "start": 5.36,
      "startOffset": 101,
      "word": "OR"
    },
    {
      "alignedWord": "other",
      "case": "success",
      "end": 5.7,
      "endOffset": 109,
      "phones": [
        {
          "duration": 0.06,
          "phone": "ah_B"
        },
        {
          "duration": 0.07,
          "phone": "dh_I"
        },
        {
          "duration": 0.06,
          "phone": "er_E"
        }
      ],
      "start": 5.51,
      "startOffset": 104,
      "word": "OTHER"
    },
    {
      "alignedWord": "places",
      "case": "success",
      "end": 6.16,
      "endOffset": 116,
      "phones": [
        {
          "duration": 0.07,
          "phone": "p_B"
        },
        {
          "duration": 0.09,
          "phone": "l_I"
        },
        {
          "duration": 0.06,
          "phone": "ey_I"
        },
        {
          "duration": 0.07,
          "phone": "s_I"
        },
        {
          "duration": 0.07,
          "phone": "ih_I"
        },
        {
          "duration": 0.1,
          "phone": "z_E"
        }
      ],
      "start": 5.7,
      "startOffset": 110,
      "word": "PLACES"
    },
    {
      "alignedWord": "overhead",
      "case": "success",
      "end": 6.75,
      "endOffset": 125,
      "phones": [
        {
          "duration": 0.07,
          "phone": "ow_B"
        },
        {
          "duration": 0.1,
          "phone": "v_I"
        },
        {
          "duration": 0.09,
          "phone": "er_I"
        },
        {
          "duration": 0.07,
          "phone": "hh_I"
        },
        {
          "duration": 0.13,
          "phone": "eh_I"
        },
        {
          "duration": 0.13,
          "phone": "d_E"
        }
      ],
      "start": 6.16,
      "startOffset": 117,
      "word": "OVERHEAD"
    },
    {
      "alignedWord": "tremendous",
      "case": "success",
      "end": 8.120000000000001,
      "endOffset": 136,
      "phones": [
        {
          "duration": 0.08,
          "phone": "t_B"
        },
        {
          "duration": 0.01,
          "phone": "r_I"
        },
        {
          "duration": 0.04,
          "phone": "ah_I"
        },
        {
          "duration": 0.05,
          "phone": "m_I"
        },
        {
          "duration": 0.05,
          "phone": "eh_I"
        },
        {
          "duration": 0.05,
          "phone": "n_I"
        },
        {
          "duration": 0.05,
          "phone": "d_I"
        },
        {
          "duration": 0.06,
          "phone": "ah_I"
        },
        {
          "duration": 0.08,
          "phone": "s_E"
        }
      ],
      "start": 7.65,
      "startOffset": 126,
      "word": "TREMENDOUS"
    },
    {
      "alignedWord": "number",
      "case": "success",
      "end": 8.35,
      "endOffset": 143,
      "phones": [
        {
          "duration": 0.04,
          "phone": "n_B"
        },
        {
          "duration": 0.06,
          "phone": "ah_I"
        },
        {
          "duration": 0.03,
          "phone": "m_I"
        },
        {
          "duration": 0.06,
          "phone": "b_I"
        },
        {
          "duration": 0.04,
          "phone": "er_E"
        }
      ],
      "start": 8.12,
      "startOffset": 137,
      "word": "NUMBER"
    },
    {
      "alignedWord": "of",
      "case": "success",
      "end": 8.469999,
      "endOffset": 146,
      "phones": [
        {
          "duration": 0.05,
          "phone": "ah_B"
        },
        {
          "duration": 0.07,
          "phone": "v_E"
        }
      ],
      "start": 8.349999,
      "startOffset": 144,
      "word": "OF"
    },
    {
      "alignedWord": "little",
      "case": "success",
      "end": 8.71,
      "endOffset": 153,
      "phones": [
        {
          "duration": 0.05,
          "phone": "l_B"
        },
        {
          "duration": 0.05,
          "phone": "ih_I"
        },
        {
          "duration": 0.02,
          "phone": "t_I"
        },
        {
          "duration": 0.05,
          "phone": "ah_I"
        },
        {
          "duration": 0.07,
          "phone": "l_E"
        }
      ],
      "start": 8.47,
      "startOffset": 147,
      "word": "LITTLE"
    },
    {
      "alignedWord": "toads",
      "case": "success",
      "end": 9.22,
      "endOffset": 159,
      "phones": [
        {
          "duration": 0.12,
          "phone": "t_B"
        },
        {
          "duration": 0.22,
          "phone": "ow_I"
        },
        {
          "duration": 0.1,
          "phone": "d_I"
        },
        {
          "duration": 0.07,
          "phone": "z_E"
        }
      ],
      "start": 8.71,
      "startOffset": 154,
      "word": "TOADS"
    },
    {
      "alignedWord": "one",
      "case": "success",
      "end": 9.49,
      "endOffset": 163,
      "phones": [
        {
          "duration": 0.14,
          "phone": "w_B"
        },
        {
          "duration": 0.07,
          "phone": "ah_I"
        },
        {
          "duration": 0.04,
          "phone": "n_E"
        }
      ],
      "start": 9.24,
      "startOffset": 160,
      "word": "ONE"
    },
    {
      "alignedWord": "or",
      "case": "success",
      "end": 9.56,
      "endOffset": 166,
      "phones": [
        {
          "duration": 0.07,
          "phone": "er_S"
        }
      ],
      "start": 9.49,
      "startOffset": 164,
      "word": "OR"
    },
    {
      "alignedWord": "two",
      "case": "success",
      "end": 9.709999,
      "endOffset": 170,
      "phones": [
        {
          "duration": 0.09,
          "phone": "t_B"
        },
        {
          "duration": 0.06,
          "phone": "uw_E"
        }
      ],
      "start": 9.559999,
      "startOffset": 167,
      "word": "TWO"
    },
    {
      "alignedWord": "months",
      "case": "success",
      "end": 9.99,
      "endOffset": 177,
      "phones": [
        {
          "duration": 0.07,
          "phone": "m_B"
        },
        {
          "duration": 0.07,
          "phone": "ah_I"
        },
        {
          "duration": 0.05,
          "phone": "n_I"
        },
        {
          "duration": 0.03,
          "phone": "th_I"
        },
        {
          "duration": 0.06,
          "phone": "s_E"
        }
      ],
      "start": 9.71,
      "startOffset": 171,
      "word": "MONTHS"
    },
    {
      "alignedWord": "old",
      "case": "success",
      "end": 10.290000000000001,
      "endOffset": 181,
      "phones": [
        {
          "duration": 0.09,
          "phone": "ow_B"
        },
        {
          "duration": 0.19,
          "phone": "l_I"
        },
        {
          "duration": 0.02,
          "phone": "d_E"
        }
      ],
      "start": 9.99,
      "startOffset": 178,
      "word": "OLD"
    }
  ]
}