{
  "transcript": "A FALL OF SMALL FROGS NEAR BIRMINGHAM ENGLAND JUNE THIRTIETH EIGHTEEN NINETY TWO IS ATTRIBUTED TO A SPECIFIC WHIRLWIND BUT NOT A WORD AS TO ANY SPECIAL POND THAT HAD CONTRIBUTED",
  "words": [
    {
      "alignedWord": "a",
      "case": "success",
      "end": 0.38,
      "endOffset": 1,
      "phones": [
        {
          "duration": 0.13,
          "phone": "ah_S"
        }
      ],
      "start": 0.25,
      "startOffset": 0,
      "word": "A"
    },
    {
      "alignedWord": "fall",
      "case": "success",
      "end": 0.81,
      "endOffset": 6,
      "phones": [
        {
          "duration": 0.22,
          "phone": "f_B"
        },
        {
          "duration": 0.13,
          "phone": "aa_I"
        },
        {
          "duration": 0.08,
          "phone": "l_E"
        }
      ],
      "start": 0.38,
      "startOffset": 2,
      "word": "FALL"
    },
    {
      "alignedWord": "of",
      "case": "success",
      "end": 0.9500000000000001,
      "endOffset": 9,
      "phones": [
        {
          "duration": 0.06,
          "phone": "ah_B"
        },
        {
          "duration": 0.08,
          "phone": "v_E"
        }
      ],
      "start": 0.81,
      "startOffset": 7,
      "word": "OF"
    },
    {
      "alignedWord": "small",
      "case": "success",
      "end": 1.3399999999999999,
      "endOffset": 15,
      "phones": [
        {
          "duration": 0.13,
          "phone": "s_B"
        },
        {
          "duration": 0.06,
          "phone": "m_I"
        },
        {
          "duration": 0.09,
          "phone": "ao_I"
        },
        {
          "duration": 0.11,
          "phone": "l_E"
        }
      ],
      "start": 0.95,
      "startOffset": 10,
      "word": "SMALL"
    },
    {
      "alignedWord": "frogs",
      "case": "success",
      "end": 1.84,
      "endOffset": 21,
      "phones": [
        {
          "duration": 0.11,
          "phone": "f_B"
        },
        {
          "duration": 0.08,
          "phone": "r_I"
        },
        {
          "duration": 0.15,
          "phone": "aa_I"
        },
        {
          "duration": 0.09,
          "phone": "g_I"
        },
        {
          "duration": 0.06,
          "phone": "z_E"
        }
      ],
      "start": 1.35,
      "startOffset": 16,
      "word": "FROGS"
    },
    {
      "alignedWord": "near",
      "case": "success",
      "end": 2.08,
      "endOffset": 26,
      "phones": [
        {
          "duration": 0.07,
          "phone": "n_B"
        },
        {
          "duration": 0.07,
          "phone": "ih_I"
        },
        {
          "duration": 0.08,
          "phone": "r_E"
        }
      ],
      "start": 1.86,
      "startOffset": 22,
      "word": "NEAR"
    },
    {
      "alignedWord": "birmingham",
      "case": "success",
      "end": 2.91,
      "endOffset": 37,
      "phones": [
        {
          "duration": 0.1,
          "phone": "b_B"
        },
        {
          "duration": 0.08,
          "phone": "er_I"
        },
        {
          "duration": 0.04,
          "phone": "m_I"
        },
        {
          "duration": 0.08,
          "phone": "ih_I"
        },
        {
          "duration": 0.11,
          "phone": "ng_I"
        },
        {
          "duration": 0.07,
          "phone": "hh_I"
        },
        {
          "duration": 0.12,
          "phone": "ae_I"
        },
        {
          "duration": 0.23,
          "phone": "m_E"
        }
      ],
      "start": 2.08,
      "startOffset": 27,
      "word": "BIRMINGHAM"
    },
    {
      "alignedWord": "england",
      "case": "success",
      "end": 3.7,
      "endOffset": 45,
      "phones": [
        {
          "duration": 0.09,
          "phone": "ih_B"
        },
        {
          "duration": 0.11,
          "phone": "ng_I"
        },
        {
          "duration": 0.01,
          "phone": "g_I"
        },
        {
          "duration": 0.06,
          "phone": "l_I"
        },
        {
          "duration": 0.06,
          "phone": "ah_I"
        },
        {
          "duration": 0.1,
          "phone": "n_I"
        },
        {
          "duration": 0.13,
          "phone": "d_E"
        }
      ],
      "start": 3.14,
      "startOffset": 38,
      "word": "ENGLAND"
    },
    {
      "alignedWord": "june",
      "case": "success",
      "end": 4.15,
      "endOffset": 50,
      "phones": [
        {
          "duration": 0.15,
          "phone": "jh_B"
        },
        {
          "duration": 0.13,
          "phone": "uw_I"
        },
        {
          "duration": 0.06,
          "phone": "n_E"
        }
      ],
      "start": 3.81,
      "startOffset": 46,
      "word": "JUNE"
    },
    {
      "alignedWord": "thirtieth",
      "case": "success",
      "end": 4.61,
      "endOffset": 60,
      "phones": [
        {
          "duration": 0.1,
          "phone": "th_B"
        },
        {
          "duration": 0.09,
          "phone": "er_I"
        },
        {
          "duration": 0.06,
          "phone": "t_I"
        },
        {
          "duration": 0.08,
          "phone": "iy_I"
        },
        {
          "duration": 0.05,
          "phone": "ah_I"
        },
        {
          "duration": 0.08,
          "phone": "th_E"
        }
      ],
      "start": 4.15,
      "startOffset": 51,
      "word": "THIRTIETH"
    },
    {
      "alignedWord": "eighteen",
      "case": "success",
      "end": 5.36,
      "endOffset": 69,
      "phones": [
        {
          "duration": 0.18,
          "phone": "ey_B"
        },
        {
          "duration": 0.11,
          "phone": "t_I"
        },
        {
          "duration": 0.09,
          "phone": "iy_I"
        },
        {
          "duration": 0.08,
          "phone": "n_E"
        }
      ],
      "start": 4.9,
      "startOffset": 61,
      "word": "EIGHTEEN"
    },
    {
      "alignedWord": "ninety",
      "case": "success",
      "end": 5.62,
      "endOffset": 76,
      "phones": [
        {
          "duration": 0.02,
          "phone": "n_B"
        },
        {
          "duration": 0.1,
          "phone": "ay_I"
        },
        {
          "duration": 0.01,
          "phone": "n_I"
        },
        {
          "duration": 0.07,
          "phone": "t_I"
        },
        {
          "duration": 0.06,
          "phone": "iy_E"
        }
      ],
      "start": 5.36,
      "startOffset": 70,
      "word": "NINETY"
    },
    {
      "alignedWord": "two",
      "case": "success",
      "end": 6.08,
      "endOffset": 80,
      "phones": [
        {
          "duration": 0.12,
          "phone": "t_B"
        },
        {
          "duration": 0.34,
          "phone": "uw_E"
        }
      ],
      "start": 5.62,
      "startOffset": 77,
      "word": "TWO"
    },
    {
      "alignedWord": "is",
      "case": "success",
      "end": 6.78,
      "endOffset": 83,
      "phones": [
        {
          "duration": 0.1,
          "phone": "ih_B"
        },
        {
          "duration": 0.07,
          "phone": "z_E"
        }
      ],
      "start": 6.61,
      "startOffset": 81,
      "word": "IS"
    },
    {
      "alignedWord": "attributed",
      "case": "success",
      "end": 7.33,
      "endOffset": 94,
      "phones": [
        {
          "duration": 0.07,
          "phone": "ah_B"
        },
        {
          "duration": 0.08,
          "phone": "t_I"
        },
        {
          "duration": 0.03,
          "phone": "r_I"
        },
        {
          "duration": 0.08,
          "phone": "ih_I"
        },
        {
          "duration": 0.04,
          "phone": "b_I"
        },
        {
          "duration": 0.02,
          "phone": "y_I"
        },
        {
          "duration": 0.05,
          "phone": "ah_I"
        },
        {
          "duration": 0.03,
          "phone": "t_I"
        },
        {
          "duration": 0.07,
          "phone": "ah_I"
        },
        {
          "duration": 0.08,
          "phone": "d_E"
        }
      ],
      "start": 6.78,
      "startOffset": 84,
      "word": "ATTRIBUTED"
    },
    {
      "alignedWord": "to",
      "case": "success",
      "end": 7.47,
      "endOffset": 97,
      "phones": [
        {
          "duration": 0.06,
          "phone": "t_B"
        },
        {
          "duration": 0.08,
          "phone": "uw_E"
        }
      ],
      "start": 7.33,
      "startOffset": 95,
      "word": "TO"
    },
    {
      "alignedWord": "a",
      "case": "success",
      "end": 7.55,
      "endOffset": 99,
      "phones": [
        {
          "duration": 0.08,
          "phone": "ah_S"
        }
      ],
      "start": 7.47,
      "startOffset": 98,
      "word": "A"
    },
    {
      "alignedWord": "specific",
      "case": "success",
      "end": 8.14,
      "endOffset": 108,
      "phones": [
        {
          "duration": 0.06,
          "phone": "s_B"
        },
        {
          "duration": 0.07,
          "phone": "p_I"
        },
        {
          "duration": 0.07,
          "phone": "ah_I"
        },
        {
          "duration": 0.11,
          "phone": "s_I"
        },
        {
          "duration": 0.07,
          "phone": "ih_I"
        },
        {
          "duration": 0.06,
          "phone": "f_I"
        },
        {
          "duration": 0.08,
          "phone": "ih_I"
        },
        {
          "duration": 0.07,
          "phone": "k_E"
        }
      ],
      "start": 7.55,
      "startOffset": 100,
      "word": "SPECIFIC"
    },
    {
      "alignedWord": "whirlwind",
      "case": "success",
      "end": 8.769999,
      "endOffset": 118,
      "phones": [
        {
          "duration": 0.12,
          "phone": "w_B"
        },
        {
          "duration": 0.09,
          "phone": "er_I"
        },
        {
          "duration": 0.07,
          "phone": "l_I"
        },
        {
          "duration": 0.08,
          "phone": "w_I"
        },
        {
          "duration": 0.09,
          "phone": "ih_I"
        },
        {
          "duration": 0.08,
          "phone": "n_I"
        },
        {
          "duration": 0.1,
          "phone": "d_E"
        }
      ],
      "start": 8.139999,
      "startOffset": 109,
      "word": "WHIRLWIND"
    },
    {
      "alignedWord": "but",
      "case": "success",
      "end": 9.5,
      "endOffset": 122,
      "phones": [
        {
          "duration": 0.06,
          "phone": "b_B"
        },
        {
          "duration": 0.05,
          "phone": "ah_I"
        },
        {
          "duration": 0.09,
          "phone": "t_E"
        }
      ],
      "start": 9.3,
      "startOffset": 119,
      "word": "BUT"
    },
    {
      "alignedWord": "not",
      "case": "success",
      "end": 9.77,
      "endOffset": 126,
      "phones": [
        {
          "duration": 0.06,
          "phone": "n_B"
        },
        {
          "duration": 0.15,
          "phone": "aa_I"
        },
        {
          "duration": 0.06,
          "phone": "t_E"
        }
      ],
      "start": 9.5,
      "startOffset": 123,
      "word": "NOT"
    },
    {
      "alignedWord": "a",
      "case": "success",
      "end": 9.84,
      "endOffset": 128,
      "phones": [
        {
          "duration": 0.07,
          "phone": "ah_S"
        }
      ],
      "start": 9.77,
      "startOffset": 127,
      "word": "A"
    },
    {
      "alignedWord": "word",
      "case": "success",
      "end": 10.39,
      "endOffset": 133,
      "phones": [
        {
          "duration": 0.22,
          "phone": "w_B"
        },
        {
          "duration": 0.22,
          "phone": "er_I"
        },
        {
          "duration": 0.11,
          "phone": "d_E"
        }
      ],
      "start": 9.84,
      "startOffset": 129,
      "word": "WORD"
    },
    {
      "alignedWord": "as",
      "case": "success",
      "end": 10.63,
      "endOffset": 136,
      "phones": [
        {
          "duration": 0.17,
          "phone": "ae_B"
        },
        {
          "duration": 0.06,
          "phone": "z_E"
        }
      ],
      "start": 10.4,
      "startOffset": 134,
      "word": "AS"
    },
    {
      "alignedWord": "to",
      "case": "success",
      "end": 10.8,
      "endOffset": 139,
      "phones": [
        {
          "duration": 0.08,
          "phone": "t_B"
        },
        {
          "duration": 0.09,
          "phone": "uw_E"
        }
      ],
      "start": 10.63,
      "startOffset": 137,
      "word": "TO"
    },
    {
      "alignedWord": "any",
      "case": "success",
      "end": 11.030000000000001,
      "endOffset": 143,
      "phones": [
        {
          "duration": 0.07,
          "phone": "eh_B"
        },
        {
          "duration": 0.08,
          "phone": "n_I"
        },
        {
          "duration": 0.08,
          "phone": "iy_E"
        }
      ],
      "start": 10.8,
      "startOffset": 140,
      "word": "ANY"
    },
    {
      "alignedWord": "special",
      "case": "success",
      "end": 11.479999999999999,
      "endOffset": 151,
      "phones": [
        {
          "duration": 0.09,
          "phone": "s_B"
        },
        {
          "duration": 0.07,
          "phone": "p_I"
        },
        {
          "duration": 0.07,
          "phone": "eh_I"
        },
        {
          "duration": 0.08,
          "phone": "sh_I"
        },
        {
          "duration": 0.07,
          "phone": "ah_I"
        },
        {
          "duration": 0.07,
          "phone": "l_E"
        }
      ],
      "start": 11.03,
      "startOffset": 144,
      "word": "SPECIAL"
    },
    {
      "alignedWord": "pond",
      "case": "success",
      "end": 11.89,
      "endOffset": 156,
      "phones": [
        {
          "duration": 0.12,
          "phone": "p_B"
        },
        {
          "duration": 0.17,
          "phone": "aa_I"
        },
        {
          "duration": 0.08,
          "phone": "n_I"
        },
        {
          "duration": 0.04,
          "phone": "d_E"
        }
      ],
      "start": 11.48,
      "startOffset": 152,
      "word": "POND"
    },
    {
      "alignedWord": "that",
      "case": "success",
      "end": 12.009998999999999,
      "endOffset": 161,
      "phones": [
        {
          "duration": 0.01,
          "phone": "dh_B"
        },
        {
          "duration": 0.06,
          "phone": "ah_I"
        },
        {
          "duration": 0.05,
          "phone": "t_E"
        }
      ],
      "start": 11.889999,
      "startOffset": 157,
      "word": "THAT"
    },
    {
      "alignedWord": "had",
      "case": "success",
      "end": 12.219999999999999,
      "endOffset": 165,
      "phones": [
        {
          "duration": 0.06,
          "phone": "hh_B"
        },
        {
          "duration": 0.05,
          "phone": "ae_I"
        },
        {
          "duration": 0.09,
          "phone": "d_E"
        }
      ],
      "start": 12.02,
      "startOffset": 162,
      "word": "HAD"
    },
    {
      "alignedWord": "contributed",
      "case": "success",
      "end": 12.829998999999999,
      "endOffset": 177,
      "phones": [
        {
          "duration": 0.04,
          "phone": "k_B"
        },
        {
          "duration": 0.06,
          "phone": "ah_I"
        },
        {
          "duration": 0.03,
          "phone": "n_I"
        },
        {
          "duration": 0.05,
          "phone": "t_I"
        },
        {
          "duration": 0.04,
          "phone": "r_I"
        },
        {
          "duration": 0.07,
          "phone": "ih_I"
        },
        {
          "duration": 0.04,
          "phone": "b_I"
        },
        {
          "duration": 0.03,
          "phone": "y_I"
        },
        {
          "duration": 0.07,
          "phone": "uw_I"
        },
        {
          "duration": 0.03,
          "phone": "t_I"
        },
        {
          "duration": 0.06,
          "phone": "ih_I"
        },
        {
          "duration": 0.09,
          "phone": "d_E"
        }
      ],
      "start": 12.219999,
      "startOffset": 166,
      "word": "CONTRIBUTED"
    }
  ]
}