{
  "transcript": "HAVING PUBLISHED A REPORT OF A FALL OF FISHES WRITES I AM CONTINUALLY RECEIVING SIMILAR ACCOUNTS OF FROGS AND FISHES BUT IN ALL THE VOLUMES OF THE ZOOLOGIST I CAN FIND ONLY TWO REPORTS OF SUCH FALLS THERE IS NOTHING TO CONCLUDE",
  "words": [
    {
      "alignedWord": "having",
      "case": "success",
      "end": 0.56,
      "endOffset": 6,
      "phones": [
        {
          "duration": 0.07,
          "phone": "hh_B"
        },
        {
          "duration": 0.03,
          "phone": "ae_I"
        },
        {
          "duration": 0.04,
          "phone": "v_I"
        },
        {
          "duration": 0.06,
          "phone": "ih_I"
        },
        {
          "duration": 0.09,
          "phone": "ng_E"
        }
      ],
      "start": 0.27,
      "startOffset": 0,
      "word": "HAVING"
    },
    {
      "alignedWord": "published",
      "case": "success",
      "end": 0.9400000000000001,
      "endOffset": 16,
      "phones": [
        {
          "duration": 0.06,
          "phone": "p_B"
        },
        {
          "duration": 0.07,
          "phone": "ah_I"
        },
        {
          "duration": 0.03,
          "phone": "b_I"
        },
        {
          "duration": 0.06,
          "phone": "l_I"
        },
        {
          "duration": 0.03,
          "phone": "ih_I"
        },
        {
          "duration": 0.07,
          "phone": "sh_I"
        },
        {
          "duration": 0.06,
          "phone": "t_E"
        }
      ],
      "start": 0.56,
      "startOffset": 7,
      "word": "PUBLISHED"
    },
    {
      "alignedWord": "a",
      "case": "success",
      "end": 1.01,
      "endOffset": 18,
      "phones": [
        {
          "duration": 0.07,
          "phone": "ah_S"
        }
      ],
      "start": 0.94,
      "startOffset": 17,
      "word": "A"
    },
    {
      "alignedWord": "report",
      "case": "success",
      "end": 1.4100000000000001,
      "endOffset": 25,
      "phones": [
        {
          "duration": 0.06,
          "phone": "r_B"
        },
        {
          "duration": 0.07,
          "phone": "iy_I"
        },
        {
          "duration": 0.08,
          "phone": "p_I"
        },
        {
          "duration": 0.09,
          "phone": "ao_I"
        },
        {
          "duration": 0.07,
          "phone": "r_I"
        },
        {
          "duration": 0.03,
          "phone": "t_E"
        }
      ],
      "start": 1.01,
      "startOffset": 19,
      "word": "REPORT"
    },
    {
      "alignedWord": "of",
      "case": "success",
      "end": 1.54,
      "endOffset": 28,
      "phones": [
        {
          "duration": 0.06,
          "phone": "ah_B"
        },
        {
          "duration": 0.07,
          "phone": "v_E"
        }
      ],
      "start": 1.41,
      "startOffset": 26,
      "word": "OF"
    },
    {
      "alignedWord": "a",
      "case": "success",
      "end": 1.62,
      "endOffset": 30,
      "phones": [
        {
          "duration": 0.08,
          "phone": "ah_S"
        }
      ],
      "start": 1.54,
      "startOffset": 29,
      "word": "A"
    },
    {
      "alignedWord": "fall",
      "case": "success",
      "end": 1.8900000000000001,
      "endOffset": 35,
      "phones": [
        {
          "duration": 0.12,
          "phone": "f_B"
        },
        {
          "duration": 0.09,
          "phone": "aa_I"
        },
        {
          "duration": 0.06,
          "phone": "l_E"
        }
      ],
      "start": 1.62,
      "startOffset": 31,
      "word": "FALL"
    },
    {
      "alignedWord": "of",
      "case": "success",
      "end": 1.97,
      "endOffset": 38,
      "phones": [
        {
          "duration": 0.05,
          "phone": "ah_B"
        },
        {
          "duration": 0.03,
          "phone": "v_E"
        }
      ],
      "start": 1.89,
      "startOffset": 36,
      "word": "OF"
    },
    {
      "alignedWord": "fishes",
      "case": "success",
      "end": 2.5,
      "endOffset": 45,
      "phones": [
        {
          "duration": 0.1,
          "phone": "f_B"
        },
        {
          "duration": 0.07,
          "phone": "ih_I"
        },
        {
          "duration": 0.11,
          "phone": "sh_I"
        },
        {
          "duration": 0.12,
          "phone": "ah_I"
        },
        {
          "duration": 0.13,
          "phone": "z_E"
        }
      ],
      "start": 1.97,
      "startOffset": 39,
      "word": "FISHES"
    },
    {
      "alignedWord": "writes",
      "case": "success",
      "end": 2.93,
      "endOffset": 52,
      "phones": [
        {
          "duration": 0.08,
          "phone": "r_B"
        },
        {
          "duration": 0.1,
          "phone": "ay_I"
        },
        {
          "duration": 0.1,
          "phone": "t_I"
        },
        {
          "duration": 0.15,
          "phone": "s_E"
        }
      ],
      "start": 2.5,
      "startOffset": 46,
      "word": "WRITES"
    },
    {
      "alignedWord": "i",
      "case": "success",
      "end": 3.52,
      "endOffset": 54,
      "phones": [
        {
          "duration": 0.12,
          "phone": "ay_S"
        }
      ],
      "start": 3.4,
      "startOffset": 53,
      "word": "I"
    },
    {
      "alignedWord": "am",
      "case": "success",
      "end": 3.67,
      "endOffset": 57,
      "phones": [
        {
          "duration": 0.07,
          "phone": "ae_B"
        },
        {
          "duration": 0.08,
          "phone": "m_E"
        }
      ],
      "start": 3.52,
      "startOffset": 55,
      "word": "AM"
    },
    {
      "alignedWord": "continually",
      "case": "success",
      "end": 4.29,
      "endOffset": 69,
      "phones": [
        {
          "duration": 0.05,
          "phone": "k_B"
        },
        {
          "duration": 0.05,
          "phone": "ah_I"
        },
        {
          "duration": 0.04,
          "phone": "n_I"
        },
        {
          "duration": 0.09,
          "phone": "t_I"
        },
        {
          "duration": 0.06,
          "phone": "ih_I"
        },
        {
          "duration": 0.04,
          "phone": "n_I"
        },
        {
          "duration": 0.05,
          "phone": "y_I"
        },
        {
          "duration": 0.05,
          "phone": "uw_I"
        },
        {
          "duration": 0.04,
          "phone": "ah_I"
        },
        {
          "duration": 0.09,
          "phone": "l_I"
        },
        {
          "duration": 0.06,
          "phone": "iy_E"
        }
      ],
      "start": 3.67,
      "startOffset": 58,
      "word": "CONTINUALLY"
    },
    {
      "alignedWord": "receiving",
      "case": "success",
      "end": 4.97,
      "endOffset": 79,
      "phones": [
        {
          "duration": 0.08,
          "phone": "r_B"
        },
        {
          "duration": 0.07,
          "phone": "iy_I"
        },
        {
          "duration": 0.16,
          "phone": "s_I"
        },
        {
          "duration": 0.11,
          "phone": "iy_I"
        },
        {
          "duration": 0.02,
          "phone": "v_I"
        },
        {
          "duration": 0.09,
          "phone": "ih_I"
        },
        {
          "duration": 0.15,
          "phone": "ng_E"
        }
      ],
      "start": 4.29,
      "startOffset": 70,
      "word": "RECEIVING"
    },
    {
      "alignedWord": "similar",
      "case": "success",
      "end": 5.37,
      "endOffset": 87,
      "phones": [
        {
          "duration": 0.08,
          "phone": "s_B"
        },
        {
          "duration": 0.06,
          "phone": "ih_I"
        },
        {
          "duration": 0.06,
          "phone": "m_I"
        },
        {
          "duration": 0.01,
          "phone": "ah_I"
        },
        {
          "duration": 0.09,
          "phone": "l_I"
        },
        {
          "duration": 0.09,
          "phone": "er_E"
        }
      ],
      "start": 4.98,
      "startOffset": 80,
      "word": "SIMILAR"
    },
    {
      "alignedWord": "accounts",
      "case": "success",
      "end": 5.83,
      "endOffset": 96,
      "phones": [
        {
          "duration": 0.09,
          "phone": "ah_B"
        },
        {
          "duration": 0.08,
          "phone": "k_I"
        },
        {
          "duration": 0.14,
          "phone": "aw_I"
        },
        {
          "duration": 0.04,
          "phone": "n_I"
        },
        {
          "duration": 0.06,
          "phone": "t_I"
        },
        {
          "duration": 0.05,
          "phone": "s_E"
        }
      ],
      "start": 5.37,
      "startOffset": 88,
      "word": "ACCOUNTS"
    },
    {
      "alignedWord": "of",
      "case": "success",
      "end": 5.99,
      "endOffset": 99,
      "phones": [
        {
          "duration": 0.08,
          "phone": "ah_B"
        },
        {
          "duration": 0.08,
          "phone": "v_E"
        }
      ],
      "start": 5.83,
      "startOffset": 97,
      "word": "OF"
    },
    {
      "alignedWord": "frogs",
      "case": "success",
      "end": 6.38,
      "endOffset": 105,
      "phones": [
        {
          "duration": 0.06,
          "phone": "f_B"
        },
        {
          "duration": 0.07,
          "phone": "r_I"
        },
        {
          "duration": 0.11,
          "phone": "aa_I"
        },
        {
          "duration": 0.11,
          "phone": "g_I"
        },
        {
          "duration": 0.04,
          "phone": "z_E"
        }
      ],
      "start": 5.99,
      "startOffset": 100,
      "word": "FROGS"
    },
    {
      "alignedWord": "and",
      "case": "success",
      "end": 6.54,
      "endOffset": 109,
      "phones": [
        {
          "duration": 0.06,
          "phone": "ah_B"
        },
        {
          "duration": 0.05,
          "phone": "n_I"
        },
        {
          "duration": 0.05,
          "phone": "d_E"
        }
      ],
      "start": 6.38,
      "startOffset": 106,
      "word": "AND"
    },
    {
      "alignedWord": "fishes",
      "case": "success",
      "end": 6.99,
      "endOffset": 116,
      "phones": [
        {
          "duration": 0.06,
          "phone": "f_B"
        },
        {
          "duration": 0.07,
          "phone": "ih_I"
        },
        {
          "duration": 0.1,
          "phone": "sh_I"
        },
        {
          "duration": 0.06,
          "phone": "ih_I"
        },
        {
          "duration": 0.16,
          "phone": "z_E"
        }
      ],
      "start": 6.54,
      "startOffset": 110,
      "word": "FISHES"
    },
    {
      "alignedWord": "but",
      "case": "success",
      "end": 8.14,
      "endOffset": 120,
      "phones": [
        {
          "duration": 0.11,
          "phone": "b_B"
        },
        {
          "duration": 0.15,
          "phone": "ah_I"
        },
        {
          "duration": 0.19,
          "phone": "t_E"
        }
      ],
      "start": 7.69,
      "startOffset": 117,
      "word": "BUT"
    },
    {
      "alignedWord": "in",
      "case": "success",
      "end": 8.63,
      "endOffset": 123,
      "phones": [
        {
          "duration": 0.14,
          "phone": "ih_B"
        },
        {
          "duration": 0.08,
          "phone": "n_E"
        }
      ],
      "start": 8.41,
      "startOffset": 121,
      "word": "IN"
    },
    {
      "alignedWord": "all",
      "case": "success",
      "end": 8.770000000000001,
      "endOffset": 127,
      "phones": [
        {
          "duration": 0.07,
          "phone": "ao_B"
        },
        {
          "duration": 0.07,
          "phone": "l_E"
        }
      ],
      "start": 8.63,
      "startOffset": 124,
      "word": "ALL"
    },
    {
      "alignedWord": "the",
      "case": "success",
      "end": 8.85,
      "endOffset": 131,
      "phones": [
        {
          "duration": 0.04,
          "phone": "dh_B"
        },
        {
          "duration": 0.04,
          "phone": "ah_E"
        }
      ],
      "start": 8.77,
      "startOffset": 128,
      "word": "THE"
    },
    {
      "alignedWord": "volumes",
      "case": "success",
      "end": 9.229999000000001,
      "endOffset": 139,
      "phones": [
        {
          "duration": 0.05,
          "phone": "v_B"
        },
        {
          "duration": 0.08,
          "phone": "aa_I"
        },
        {
          "duration": 0.05,
          "phone": "l_I"
        },
        {
          "duration": 0.07,
          "phone": "y_I"
        },
        {
          "duration": 0.03,
          "phone": "uw_I"
        },
        {
          "duration": 0.05,
          "phone": "m_I"
        },
        {
          "duration": 0.05,
          "phone": "z_E"
        }
      ],
      "start": 8.849999,
      "startOffset": 132,
      "word": "VOLUMES"
    },
    {
      "alignedWord": "of",
      "case": "success",
      "end": 9.31,
      "endOffset": 142,
      "phones": [
        {
          "duration": 0.05,
          "phone": "ah_B"
        },
        {
          "duration": 0.03,
          "phone": "v_E"
        }
      ],
      "start": 9.23,
      "startOffset": 140,
      "word": "OF"
    },
    {
      "alignedWord": "the",
      "case": "success",
      "end": 9.43,
      "endOffset": 146,
      "phones": [
        {
          "duration": 0.07,
          "phone": "dh_B"
        },
        {
          "duration": 0.04,
          "phone": "ah_E"
        }
      ],
      "start": 9.32,
      "startOffset": 143,
      "word": "THE"
    },
    {
      "alignedWord": "zoologist",
      "case": "success",
      "end": 10.139999,
      "endOffset": 156,
      "phones": [
        {
          "duration": 0.1,
          "phone": "z_B"
        },
        {
          "duration": 0.07,
          "phone": "ow_I"
        },
        {
          "duration": 0.06,
          "phone": "aa_I"
        },
        {
          "duration": 0.08,
          "phone": "l_I"
        },
        {
          "duration": 0.06,
          "phone": "ah_I"
        },
        {
          "duration": 0.08,
          "phone": "jh_I"
        },
        {
          "duration": 0.07,
          "phone": "ah_I"
        },
        {
          "duration": 0.11,
          "phone": "s_I"
        },
        {
          "duration": 0.08,
          "phone": "t_E"
        }
      ],
      "start": 9.429999,
      "startOffset": 147,
      "word": "ZOOLOGIST"
    },
    {
      "alignedWord": "i",
      "case": "success",
      "end": 10.489999000000001,
      "endOffset": 158,
      "phones": [
        {
          "duration": 0.14,
          "phone": "ay_S"
        }
      ],
      "start": 10.349999,
      "startOffset": 157,
      "word": "I"
    },
    {
      "alignedWord": "can",
      "case": "success",
      "end": 10.66,
      "endOffset": 162,
      "phones": [
        {
          "duration": 0.06,
          "phone": "k_B"
        },
        {
          "duration": 0.06,
          "phone": "ah_I"
        },
        {
          "duration": 0.05,
          "phone": "n_E"
        }
      ],
      "start": 10.49,
      "startOffset": 159,
      "word": "CAN"
    },
    {
      "alignedWord": "find",
      "case": "success",
      "end": 10.95,
      "endOffset": 167,
      "phones": [
        {
          "duration": 0.09,
          "phone": "f_B"
        },
        {
          "duration": 0.11,
          "phone": "ay_I"
        },
        {
          "duration": 0.03,
          "phone": "n_I"
        },
        {
          "duration": 0.06,
          "phone": "d_E"
        }
      ],
      "start": 10.66,
      "startOffset": 163,
      "word": "FIND"
    },
    {
      "alignedWord": "only",
      "case": "success",
      "end": 11.2,
      "endOffset": 172,
      "phones": [
        {
          "duration": 0.06,
          "phone": "ow_B"
        },
        {
          "duration": 0.05,
          "phone": "n_I"
        },
        {
          "duration": 0.04,
          "phone": "l_I"
        },
        {
          "duration": 0.1,
          "phone": "iy_E"
        }
      ],
      "start": 10.95,
      "startOffset": 168,
      "word": "ONLY"
    },
    {
      "alignedWord": "two",
      "case": "success",
      "end": 11.429999,
      "endOffset": 176,
      "phones": [
        {
          "duration": 0.11,
          "phone": "t_B"
        },
        {
          "duration": 0.1,
          "phone": "uw_E"
        }
      ],
      "start": 11.219999,
      "startOffset": 173,
      "word": "TWO"
    },
    {
      "alignedWord": "reports",
      "case": "success",
      "end": 11.919999,
      "endOffset": 184,
      "phones": [
        {
          "duration": 0.07,
          "phone": "r_B"
        },
        {
          "duration": 0.07,
          "phone": "iy_I"
        },
        {
          "duration": 0.08,
          "phone": "p_I"
        },
        {
          "duration": 0.08,
          "phone": "ao_I"
        },
        {
          "duration": 0.05,
          "phone": "r_I"
        },
        {
          "duration": 0.08,
          "phone": "t_I"
        },
        {
          "duration": 0.06,
          "phone": "s_E"
        }
      ],
      "start": 11.429999,
      "startOffset": 177,
      "word": "REPORTS"
    },
    {
      "alignedWord": "of",
      "case": "success",
      "end": 12.07,
      "endOffset": 187,
      "phones": [
        {
          "duration": 0.07,
          "phone": "ah_B"
        },
        {
          "duration": 0.08,
          "phone": "v_E"
        }
      ],
      "start": 11.92,
      "startOffset": 185,
      "word": "OF"
    },
    {
      "alignedWord": "such",
      "case": "success",
      "end": 12.35,
      "endOffset": 192,
      "phones": [
        {
          "duration": 0.07,
          "phone": "s_B"
        },
        {
          "duration": 0.1,
          "phone": "ah_I"
        },
        {
          "duration": 0.11,
          "phone": "ch_E"
        }
      ],
      "start": 12.07,
      "startOffset": 188,
      "word": "SUCH"
    },
    {
      "alignedWord": "falls",
      "case": "success",
      "end": 12.829999,
      "endOffset": 198,
      "phones": [
        {
          "duration": 0.08,
          "phone": "f_B"
        },
        {
          "duration": 0.09,
          "phone": "ao_I"
        },
        {
          "duration": 0.13,
          "phone": "l_I"
        },
        {
          "duration": 0.18,
          "phone": "z_E"
        }
      ],
      "start": 12.349999,
      "startOffset": 193,
      "word": "FALLS"
    },
    {
      "alignedWord": "there",
      "case": "success",
      "end": 13.88,
      "endOffset": 204,
      "phones": [
        {
          "duration": 0.09,
          "phone": "dh_B"
        },
        {
          "duration": 0.07,
          "phone": "eh_I"
        },
        {
          "duration": 0.06,
          "phone": "r_E"
        }
      ],
      "start": 13.66,
      "startOffset": 199,
      "word": "THERE"
    },
    {
      "alignedWord": "is",
      "case": "success",
      "end": 14.020000000000001,
      "endOffset": 207,
      "phones": [
        {
          "duration": 0.06,
          "phone": "ih_B"
        },
        {
          "duration": 0.08,
          "phone": "z_E"
        }
      ],
      "start": 13.88,
      "startOffset": 205,
      "word": "IS"
    },
    {
      "alignedWord": "nothing",
      "case": "success",
      "end": 14.299999999999999,
      "endOffset": 215,
      "phones": [
        {
          "duration": 0.04,
          "phone": "n_B"
        },
        {
          "duration": 0.06,
          "phone": "ah_I"
        },
        {
          "duration": 0.08,
          "phone": "th_I"
        },
        {
          "duration": 0.02,
          "phone": "ih_I"
        },
        {
          "duration": 0.08,
          "phone": "ng_E"
        }
      ],
      "start": 14.02,
      "startOffset": 208,
      "word": "NOTHING"
    },
    {
      "alignedWord": "to",
      "case": "success",
      "end": 14.399999,
      "endOffset": 218,
      "phones": [
        {
          "duration": 0.05,
          "phone": "t_B"
        },
        {
          "duration": 0.05,
          "phone": "ah_E"
        }
      ],
      "start": 14.299999,
      "startOffset": 216,
      "word": "TO"
    },
    {
      "alignedWord": "conclude",
      "case": "success",
      "end": 15.02,
      "endOffset": 227,
      "phones": [
        {
          "duration": 0.06,
          "phone": "k_B"
        },
        {
          "duration": 0.04,
          "phone": "ah_I"
        },
        {
          "duration": 0.06,
          "phone": "n_I"
        },
        {
          "duration": 0.08,
          "phone": "k_I"
        },
        {
          "duration": 0.08,
          "phone": "l_I"
        },
        {
          "duration": 0.17,
          "phone": "uw_I"
        },
        {
          "duration": 0.13,
          "phone": "d_E"
        }
      ],
      "start": 14.4,
      "startOffset": 219,
      "word": "CONCLUDE"
    }
  ]
}