{
  "transcript": "BY DEPRIVING THEM OF THE INCOME DERIVED BY SELLING SPACES FOR ADVERTISING SIGNS HE IS ROBBING THE FARMERS WHILE CLAIMING HE WANTS TO BEAUTIFY THEIR HOMES",
  "words": [
    {
      "alignedWord": "by",
      "case": "success",
      "end": 0.38,
      "endOffset": 2,
      "phones": [
        {
          "duration": 0.11,
          "phone": "b_B"
        },
        {
          "duration": 0.09,
          "phone": "ay_E"
        }
      ],
      "start": 0.18,
      "startOffset": 0,
      "word": "BY"
    },
    {
      "alignedWord": "depriving",
      "case": "success",
      "end": 0.96,
      "endOffset": 12,
      "phones": [
        {
          "duration": 0.05,
          "phone": "d_B"
        },
        {
          "duration": 0.05,
          "phone": "ih_I"
        },
        {
          "duration": 0.1,
          "phone": "p_I"
        },
        {
          "duration": 0.09,
          "phone": "r_I"
        },
        {
          "duration": 0.08,
          "phone": "ay_I"
        },
        {
          "duration": 0.05,
          "phone": "v_I"
        },
        {
          "duration": 0.08,
          "phone": "ih_I"
        },
        {
          "duration": 0.08,
          "phone": "ng_E"
        }
      ],
      "start": 0.38,
      "startOffset": 3,
      "word": "DEPRIVING"
    },
    {
      "alignedWord": "them",
      "case": "success",
      "end": 1.18,
      "endOffset": 17,
      "phones": [
        {
          "duration": 0.03,
          "phone": "dh_B"
        },
        {
          "duration": 0.11,
          "phone": "eh_I"
        },
        {
          "duration": 0.08,
          "phone": "m_E"
        }
      ],
      "start": 0.96,
      "startOffset": 13,
      "word": "THEM"
    },
    {
      "alignedWord": "of",
      "case": "success",
      "end": 1.31,
      "endOffset": 20,
      "phones": [
        {
          "duration": 0.05,
          "phone": "ah_B"
        },
        {
          "duration": 0.08,
          "phone": "v_E"
        }
      ],
      "start": 1.18,
      "startOffset": 18,
      "word": "OF"
    },
    {
      "alignedWord": "the",
      "case": "success",
      "end": 1.44,
      "endOffset": 24,
      "phones": [
        {
          "duration": 0.04,
          "phone": "dh_B"
        },
        {
          "duration": 0.09,
          "phone": "iy_E"
        }
      ],
      "start": 1.31,
      "startOffset": 21,
      "word": "THE"
    },
    {
      "alignedWord": "income",
      "case": "success",
      "end": 1.8499999999999999,
      "endOffset": 31,
      "phones": [
        {
          "duration": 0.08,
          "phone": "ih_B"
        },
        {
          "duration": 0.09,
          "phone": "n_I"
        },
        {
          "duration": 0.06,
          "phone": "k_I"
        },
        {
          "duration": 0.1,
          "phone": "ah_I"
        },
        {
          "duration": 0.08,
          "phone": "m_E"
        }
      ],
      "start": 1.44,
      "startOffset": 25,
      "word": "INCOME"
    },
    {
      "alignedWord": "derived",
      "case": "success",
      "end": 2.21,
      "endOffset": 39,
      "phones": [
        {
          "duration": 0.07,
          "phone": "d_B"
        },
        {
          "duration": 0.14,
          "phone": "er_I"
        },
        {
          "duration": 0.13,
          "phone": "ay_I"
        },
        {
          "duration": 0.01,
          "phone": "v_I"
        },
        {
          "duration": 0.01,
          "phone": "d_E"
        }
      ],
      "start": 1.85,
      "startOffset": 32,
      "word": "DERIVED"
    },
    {
      "alignedWord": "by",
      "case": "success",
      "end": 2.48,
      "endOffset": 42,
      "phones": [
        {
          "duration": 0.09,
          "phone": "b_B"
        },
        {
          "duration": 0.16,
          "phone": "ay_E"
        }
      ],
      "start": 2.23,
      "startOffset": 40,
      "word": "BY"
    },
    {
      "alignedWord": "selling",
      "case": "success",
      "end": 2.8600000000000003,
      "endOffset": 50,
      "phones": [
        {
          "duration": 0.09,
          "phone": "s_B"
        },
        {
          "duration": 0.08,
          "phone": "eh_I"
        },
        {
          "duration": 0.07,
          "phone": "l_I"
        },
        {
          "duration": 0.05,
          "phone": "ih_I"
        },
        {
          "duration": 0.08,
          "phone": "ng_E"
        }
      ],
      "start": 2.49,
      "startOffset": 43,
      "word": "SELLING"
    },
    {
      "alignedWord": "spaces",
      "case": "success",
      "end": 3.44,
      "endOffset": 57,
      "phones": [
        {
          "duration": 0.08,
          "phone": "s_B"
        },
        {
          "duration": 0.1,
          "phone": "p_I"
        },
        {
          "duration": 0.12,
          "phone": "ey_I"
        },
        {
          "duration": 0.11,
          "phone": "s_I"
        },
        {
          "duration": 0.08,
          "phone": "ih_I"
        },
        {
          "duration": 0.09,
          "phone": "z_E"
        }
      ],
      "start": 2.86,
      "startOffset": 51,
      "word": "SPACES"
    },
    {
      "alignedWord": "for",
      "case": "success",
      "end": 3.6,
      "endOffset": 61,
      "phones": [
        {
          "duration": 0.06,
          "phone": "f_B"
        },
        {
          "duration": 0.09,
          "phone": "er_E"
        }
      ],
      "start": 3.45,
      "startOffset": 58,
      "word": "FOR"
    },
    {
      "alignedWord": "advertising",
      "case": "success",
      "end": 4.28,
      "endOffset": 73,
      "phones": [
        {
          "duration": 0.09,
          "phone": "ae_B"
        },
        {
          "duration": 0.06,
          "phone": "d_I"
        },
        {
          "duration": 0.05,
          "phone": "v_I"
        },
        {
          "duration": 0.06,
          "phone": "er_I"
        },
        {
          "duration": 0.08,
          "phone": "t_I"
        },
        {
          "duration": 0.11,
          "phone": "ay_I"
        },
        {
          "duration": 0.06,
          "phone": "z_I"
        },
        {
          "duration": 0.07,
          "phone": "ih_I"
        },
        {
          "duration": 0.1,
          "phone": "ng_E"
        }
      ],
      "start": 3.6,
      "startOffset": 62,
      "word": "ADVERTISING"
    },
    {
      "alignedWord": "signs",
      "case": "success",
      "end": 4.87,
      "endOffset": 79,
      "phones": [
        {
          "duration": 0.12,
          "phone": "s_B"
        },
        {
          "duration": 0.21,
          "phone": "ay_I"
        },
        {
          "duration": 0.1,
          "phone": "n_I"
        },
        {
          "duration": 0.16,
          "phone": "z_E"
        }
      ],
      "start": 4.28,
      "startOffset": 74,
      "word": "SIGNS"
    },
    {
      "alignedWord": "he",
      "case": "success",
      "end": 5.54,
      "endOffset": 82,
      "phones": [
        {
          "duration": 0.22,
          "phone": "hh_B"
        },
        {
          "duration": 0.09,
          "phone": "iy_E"
        }
      ],
      "start": 5.23,
      "startOffset": 80,
      "word": "HE"
    },
    {
      "alignedWord": "is",
      "case": "success",
      "end": 5.71,
      "endOffset": 85,
      "phones": [
        {
          "duration": 0.08,
          "phone": "ih_B"
        },
        {
          "duration": 0.09,
          "phone": "z_E"
        }
      ],
      "start": 5.54,
      "startOffset": 83,
      "word": "IS"
    },
    {
      "alignedWord": "robbing",
      "case": "success",
      "end": 6.13,
      "endOffset": 93,
      "phones": [
        {
          "duration": 0.08,
          "phone": "r_B"
        },
        {
          "duration": 0.09,
          "phone": "aa_I"
        },
        {
          "duration": 0.09,
          "phone": "b_I"
        },
        {
          "duration": 0.07,
          "phone": "ih_I"
        },
        {
          "duration": 0.09,
          "phone": "ng_E"
        }
      ],
      "start": 5.71,
      "startOffset": 86,
      "word": "ROBBING"
    },
    {
      "alignedWord": "the",
      "case": "success",
      "end": 6.24,
      "endOffset": 97,
      "phones": [
        {
          "duration": 0.05,
          "phone": "dh_B"
        },
        {
          "duration": 0.06,
          "phone": "ah_E"
        }
      ],
      "start": 6.13,
      "startOffset": 94,
      "word": "THE"
    },
    {
      "alignedWord": "farmers",
      "case": "success",
      "end": 6.86,
      "endOffset": 105,
      "phones": [
        {
          "duration": 0.1,
          "phone": "f_B"
        },
        {
          "duration": 0.06,
          "phone": "aa_I"
        },
        {
          "duration": 0.05,
          "phone": "r_I"
        },
        {
          "duration": 0.09,
          "phone": "m_I"
        },
        {
          "duration": 0.23,
          "phone": "er_I"
        },
        {
          "duration": 0.09,
          "phone": "z_E"
        }
      ],
      "start": 6.24,
      "startOffset": 98,
      "word": "FARMERS"
    },
    {
      "alignedWord": "while",
      "case": "success",
      "end": 7.15,
      "endOffset": 111,
      "phones": [
        {
          "duration": 0.09,
          "phone": "w_B"
        },
        {
          "duration": 0.07,
          "phone": "ay_I"
        },
        {
          "duration": 0.13,
          "phone": "l_E"
        }
      ],
      "start": 6.86,
      "startOffset": 106,
      "word": "WHILE"
    },
    {
      "alignedWord": "claiming",
      "case": "success",
      "end": 7.58,
      "endOffset": 120,
      "phones": [
        {
          "duration": 0.09,
          "phone": "k_B"
        },
        {
          "duration": 0.07,
          "phone": "l_I"
        },
        {
          "duration": 0.06,
          "phone": "ey_I"
        },
        {
          "duration": 0.04,
          "phone": "m_I"
        },
        {
          "duration": 0.08,
          "phone": "ih_I"
        },
        {
          "duration": 0.09,
          "phone": "ng_E"
        }
      ],
      "start": 7.15,
      "startOffset": 112,
      "word": "CLAIMING"
    },
    {
      "alignedWord": "he",
      "case": "success",
      "end": 7.69,
      "endOffset": 123,
      "phones": [
        {
          "duration": 0.05,
          "phone": "hh_B"
        },
        {
          "duration": 0.06,
          "phone": "iy_E"
        }
      ],
      "start": 7.58,
      "startOffset": 121,
      "word": "HE"
    },
    {
      "alignedWord": "wants",
      "case": "success",
      "end": 7.960000000000001,
      "endOffset": 129,
      "phones": [
        {
          "duration": 0.08,
          "phone": "w_B"
        },
        {
          "duration": 0.06,
          "phone": "aa_I"
        },
        {
          "duration": 0.02,
          "phone": "n_I"
        },
        {
          "duration": 0.02,
          "phone": "t_I"
        },
        {
          "duration": 0.09,
          "phone": "s_E"
        }
      ],
      "start": 7.69,
      "startOffset": 124,
      "word": "WANTS"
    },
    {
      "alignedWord": "to",
      "case": "success",
      "end": 8.09,
      "endOffset": 132,
      "phones": [
        {
          "duration": 0.05,
          "phone": "t_B"
        },
        {
          "duration": 0.08,
          "phone": "ah_E"
        }
      ],
      "start": 7.96,
      "startOffset": 130,
      "word": "TO"
    },
    {
      "alignedWord": "beautify",
      "case": "success",
      "end": 8.56,
      "endOffset": 141,
      "phones": [
        {
          "duration": 0.05,
          "phone": "b_B"
        },
        {
          "duration": 0.06,
          "phone": "y_I"
        },
        {
          "duration": 0.08,
          "phone": "uw_I"
        },
        {
          "duration": 0.03,
          "phone": "t_I"
        },
        {
          "duration": 0.04,
          "phone": "ih_I"
        },
        {
          "duration": 0.12,
          "phone": "f_I"
        },
        {
          "duration": 0.09,
          "phone": "ay_E"
        }
      ],
      "start": 8.09,
      "startOffset": 133,
      "word": "BEAUTIFY"
    },
    {
      "alignedWord": "their",
      "case": "success",
      "end": 8.769999,
      "endOffset": 147,
      "phones": [
        {
          "duration": 0.06,
          "phone": "dh_B"
        },
        {
          "duration": 0.06,
          "phone": "eh_I"
        },
        {
          "duration": 0.09,
          "phone": "r_E"
        }
      ],
      "start": 8.559999,
      "startOffset": 142,
      "word": "THEIR"
    },
    {
      "alignedWord": "homes",
      "case": "success",
      "end": 9.35,
      "endOffset": 153,
      "phones": [
        {
          "duration": 0.08,
          "phone": "hh_B"
        },
        {
          "duration": 0.25,
          "phone": "ow_I"
        },
        {
          "duration": 0.14,
          "phone": "m_I"
        },
        {
          "duration": 0.11,
          "phone": "z_E"
        }
      ],
      "start": 8.77,
      "startOffset": 148,
      "word": "HOMES"
    }
  ]
}