{
  "transcript": "AS SHE STALKED OFF TOWARD THE POND SHE PASSED HIM AND SHE SAID OVER HER SHOULDER I SHOULD THINK YOU WOULD BE HUNGRY I AM ALMOST STARVED AFTER SHE HAD GONE HE WONDERED WHY SHE HAD SAID THAT",
  "words": [
    {
      "alignedWord": "as",
      "case": "success",
      "end": 0.74,
      "endOffset": 2,
      "phones": [
        {
          "duration": 0.15,
          "phone": "ae_B"
        },
        {
          "duration": 0.05,
          "phone": "z_E"
        }
      ],
      "start": 0.54,
      "startOffset": 0,
      "word": "AS"
    },
    {
      "alignedWord": "she",
      "case": "success",
      "end": 0.9199999999999999,
      "endOffset": 6,
      "phones": [
        {
          "duration": 0.1,
          "phone": "sh_B"
        },
        {
          "duration": 0.08,
          "phone": "iy_E"
        }
      ],
      "start": 0.74,
      "startOffset": 3,
      "word": "SHE"
    },
    {
      "alignedWord": "stalked",
      "case": "success",
      "end": 1.32,
      "endOffset": 14,
      "phones": [
        {
          "duration": 0.06,
          "phone": "s_B"
        },
        {
          "duration": 0.08,
          "phone": "t_I"
        },
        {
          "duration": 0.12,
          "phone": "ao_I"
        },
        {
          "duration": 0.06,
          "phone": "k_I"
        },
        {
          "duration": 0.08,
          "phone": "t_E"
        }
      ],
      "start": 0.92,
      "startOffset": 7,
      "word": "STALKED"
    },
    {
      "alignedWord": "off",
      "case": "success",
      "end": 1.49,
      "endOffset": 18,
      "phones": [
        {
          "duration": 0.09,
          "phone": "ao_B"
        },
        {
          "duration": 0.08,
          "phone": "f_E"
        }
      ],
      "start": 1.32,
      "startOffset": 15,
      "word": "OFF"
    },
    {
      "alignedWord": "toward",
      "case": "success",
      "end": 1.74,
      "endOffset": 25,
      "phones": [
        {
          "duration": 0.06,
          "phone": "t_B"
        },
        {
          "duration": 0.08,
          "phone": "ao_I"
        },
        {
          "duration": 0.04,
          "phone": "r_I"
        },
        {
          "duration": 0.07,
          "phone": "d_E"
        }
      ],
      "start": 1.49,
      "startOffset": 19,
      "word": "TOWARD"
    },
    {
      "alignedWord": "the",
      "case": "success",
      "end": 1.81,
      "endOffset": 29,
      "phones": [
        {
          "duration": 0.01,
          "phone": "dh_B"
        },
        {
          "duration": 0.06,
          "phone": "ah_E"
        }
      ],
      "start": 1.74,
      "startOffset": 26,
      "word": "THE"
    },
    {
      "alignedWord": "pond",
      "case": "success",
      "end": 2.19,
      "endOffset": 34,
      "phones": [
        {
          "duration": 0.09,
          "phone": "p_B"
        },
        {
          "duration": 0.18,
          "phone": "aa_I"
        },
        {
          "duration": 0.07,
          "phone": "n_I"
        },
        {
          "duration": 0.04,
          "phone": "d_E"
        }
      ],
      "start": 1.81,
      "startOffset": 30,
      "word": "POND"
    },
    {
      "alignedWord": "she",
      "case": "success",
      "end": 2.35,
      "endOffset": 38,
      "phones": [
        {
          "duration": 0.08,
          "phone": "sh_B"
        },
        {
          "duration": 0.07,
          "phone": "iy_E"
        }
      ],
      "start": 2.2,
      "startOffset": 35,
      "word": "SHE"
    },
    {
      "alignedWord": "passed",
      "case": "success",
      "end": 2.72,
      "endOffset": 45,
      "phones": [
        {
          "duration": 0.09,
          "phone": "p_B"
        },
        {
          "duration": 0.13,
          "phone": "ae_I"
        },
        {
          "duration": 0.06,
          "phone": "s_I"
        },
        {
          "duration": 0.09,
          "phone": "t_E"
        }
      ],
      "start": 2.35,
      "startOffset": 39,
      "word": "PASSED"
    },
    {
      "alignedWord": "him",
      "case": "success",
      "end": 2.9800000000000004,
      "endOffset": 49,
      "phones": [
        {
          "duration": 0.04,
          "phone": "hh_B"
        },
        {
          "duration": 0.09,
          "phone": "ih_I"
        },
        {
          "duration": 0.13,
          "phone": "m_E"
        }
      ],
      "start": 2.72,
      "startOffset": 46,
      "word": "HIM"
    },
    {
      "alignedWord": "and",
      "case": "success",
      "end": 3.45,
      "endOffset": 53,
      "phones": [
        {
          "duration": 0.08,
          "phone": "ae_B"
        },
        {
          "duration": 0.03,
          "phone": "n_I"
        },
        {
          "duration": 0.05,
          "phone": "d_E"
        }
      ],
      "start": 3.29,
      "startOffset": 50,
      "word": "AND"
    },
    {
      "alignedWord": "she",
      "case": "success",
      "end": 3.6100000000000003,
      "endOffset": 57,
      "phones": [
        {
          "duration": 0.07,
          "phone": "sh_B"
        },
        {
          "duration": 0.09,
          "phone": "iy_E"
        }
      ],
      "start": 3.45,
      "startOffset": 54,
      "word": "SHE"
    },
    {
      "alignedWord": "said",
      "case": "success",
      "end": 3.79,
      "endOffset": 62,
      "phones": [
        {
          "duration": 0.05,
          "phone": "s_B"
        },
        {
          "duration": 0.07,
          "phone": "eh_I"
        },
        {
          "duration": 0.06,
          "phone": "d_E"
        }
      ],
      "start": 3.61,
      "startOffset": 58,
      "word": "SAID"
    },
    {
      "alignedWord": "over",
      "case": "success",
      "end": 3.99,
      "endOffset": 67,
      "phones": [
        {
          "duration": 0.05,
          "phone": "ow_B"
        },
        {
          "duration": 0.09,
          "phone": "v_I"
        },
        {
          "duration": 0.06,
          "phone": "er_E"
        }
      ],
      "start": 3.79,
      "startOffset": 63,
      "word": "OVER"
    },
    {
      "alignedWord": "her",
      "case": "success",
      "end": 4.12,
      "endOffset": 71,
      "phones": [
        {
          "duration": 0.07,
          "phone": "hh_B"
        },
        {
          "duration": 0.06,
          "phone": "er_E"
        }
      ],
      "start": 3.99,
      "startOffset": 68,
      "word": "HER"
    },
    {
      "alignedWord": "shoulder",
      "case": "success",
      "end": 4.58,
      "endOffset": 80,
      "phones": [
        {
          "duration": 0.1,
          "phone": "sh_B"
        },
        {
          "duration": 0.05,
          "phone": "ow_I"
        },
        {
          "duration": 0.08,
          "phone": "l_I"
        },
        {
          "duration": 0.07,
          "phone": "d_I"
        },
        {
          "duration": 0.16,
          "phone": "er_E"
        }
      ],
      "start": 4.12,
      "startOffset": 72,
      "word": "SHOULDER"
    },
    {
      "alignedWord": "i",
      "case": "success",
      "end": 5.45,
      "endOffset": 82,
      "phones": [
        {
          "duration": 0.15,
          "phone": "ay_S"
        }
      ],
      "start": 5.3,
      "startOffset": 81,
      "word": "I"
    },
    {
      "alignedWord": "should",
      "case": "success",
      "end": 5.640000000000001,
      "endOffset": 89,
      "phones": [
        {
          "duration": 0.08,
          "phone": "sh_B"
        },
        {
          "duration": 0.06,
          "phone": "uh_I"
        },
        {
          "duration": 0.05,
          "phone": "d_E"
        }
      ],
      "start": 5.45,
      "startOffset": 83,
      "word": "SHOULD"
    },
    {
      "alignedWord": "think",
      "case": "success",
      "end": 5.88,
      "endOffset": 95,
      "phones": [
        {
          "duration": 0.07,
          "phone": "th_B"
        },
        {
          "duration": 0.04,
          "phone": "ih_I"
        },
        {
          "duration": 0.07,
          "phone": "ng_I"
        },
        {
          "duration": 0.06,
          "phone": "k_E"
        }
      ],
      "start": 5.64,
      "startOffset": 90,
      "word": "THINK"
    },
    {
      "alignedWord": "you",
      "case": "success",
      "end": 5.9799999999999995,
      "endOffset": 99,
      "phones": [
        {
          "duration": 0.04,
          "phone": "y_B"
        },
        {
          "duration": 0.06,
          "phone": "uw_E"
        }
      ],
      "start": 5.88,
      "startOffset": 96,
      "word": "YOU"
    },
    {
      "alignedWord": "would",
      "case": "success",
      "end": 6.090000000000001,
      "endOffset": 105,
      "phones": [
        {
          "duration": 0.03,
          "phone": "w_B"
        },
        {
          "duration": 0.04,
          "phone": "uh_I"
        },
        {
          "duration": 0.04,
          "phone": "d_E"
        }
      ],
      "start": 5.98,
      "startOffset": 100,
      "word": "WOULD"
    },
    {
      "alignedWord": "be",
      "case": "success",
      "end": 6.239999999999999,
      "endOffset": 108,
      "phones": [
        {
          "duration": 0.07,
          "phone": "b_B"
        },
        {
          "duration": 0.07,
          "phone": "iy_E"
        }
      ],
      "start": 6.1,
      "startOffset": 106,
      "word": "BE"
    },
    {
      "alignedWord": "hungry",
      "case": "success",
      "end": 6.720000000000001,
      "endOffset": 115,
      "phones": [
        {
          "duration": 0.05,
          "phone": "hh_B"
        },
        {
          "duration": 0.06,
          "phone": "ah_I"
        },
        {
          "duration": 0.06,
          "phone": "ng_I"
        },
        {
          "duration": 0.05,
          "phone": "g_I"
        },
        {
          "duration": 0.06,
          "phone": "r_I"
        },
        {
          "duration": 0.2,
          "phone": "iy_E"
        }
      ],
      "start": 6.24,
      "startOffset": 109,
      "word": "HUNGRY"
    },
    {
      "alignedWord": "i",
      "case": "success",
      "end": 7.25,
      "endOffset": 117,
      "phones": [
        {
          "duration": 0.15,
          "phone": "ay_S"
        }
      ],
      "start": 7.1,
      "startOffset": 116,
      "word": "I"
    },
    {
      "alignedWord": "am",
      "case": "success",
      "end": 7.4,
      "endOffset": 120,
      "phones": [
        {
          "duration": 0.07,
          "phone": "ae_B"
        },
        {
          "duration": 0.08,
          "phone": "m_E"
        }
      ],
      "start": 7.25,
      "startOffset": 118,
      "word": "AM"
    },
    {
      "alignedWord": "almost",
      "case": "success",
      "end": 7.65,
      "endOffset": 127,
      "phones": [
        {
          "duration": 0.04,
          "phone": "ao_B"
        },
        {
          "duration": 0.05,
          "phone": "l_I"
        },
        {
          "duration": 0.05,
          "phone": "m_I"
        },
        {
          "duration": 0.04,
          "phone": "ow_I"
        },
        {
          "duration": 0.06,
          "phone": "s_I"
        },
        {
          "duration": 0.01,
          "phone": "t_E"
        }
      ],
      "start": 7.4,
      "startOffset": 121,
      "word": "ALMOST"
    },
    {
      "alignedWord": "starved",
      "case": "success",
      "end": 8.33,
      "endOffset": 135,
      "phones": [
        {
          "duration": 0.1,
          "phone": "s_B"
        },
        {
          "duration": 0.08,
          "phone": "t_I"
        },
        {
          "duration": 0.14,
          "phone": "aa_I"
        },
        {
          "duration": 0.13,
          "phone": "r_I"
        },
        {
          "duration": 0.07,
          "phone": "v_I"
        },
        {
          "duration": 0.15,
          "phone": "d_E"
        }
      ],
      "start": 7.66,
      "startOffset": 128,
      "word": "STARVED"
    },
    {
      "alignedWord": "after",
      "case": "success",
      "end": 9.930000000000001,
      "endOffset": 141,
      "phones": [
        {
          "duration": 0.12,
          "phone": "ae_B"
        },
        {
          "duration": 0.07,
          "phone": "f_I"
        },
        {
          "duration": 0.07,
          "phone": "t_I"
        },
        {
          "duration": 0.04,
          "phone": "er_E"
        }
      ],
      "start": 9.63,
      "startOffset": 136,
      "word": "AFTER"
    },
    {
      "alignedWord": "she",
      "case": "success",
      "end": 10.109999,
      "endOffset": 145,
      "phones": [
        {
          "duration": 0.11,
          "phone": "sh_B"
        },
        {
          "duration": 0.07,
          "phone": "iy_E"
        }
      ],
      "start": 9.929999,
      "startOffset": 142,
      "word": "SHE"
    },
    {
      "alignedWord": "had",
      "case": "success",
      "end": 10.25,
      "endOffset": 149,
      "phones": [
        {
          "duration": 0.01,
          "phone": "hh_B"
        },
        {
          "duration": 0.04,
          "phone": "ae_I"
        },
        {
          "duration": 0.09,
          "phone": "d_E"
        }
      ],
      "start": 10.11,
      "startOffset": 146,
      "word": "HAD"
    },
    {
      "alignedWord": "gone",
      "case": "success",
      "end": 10.69,
      "endOffset": 154,
      "phones": [
        {
          "duration": 0.06,
          "phone": "g_B"
        },
        {
          "duration": 0.19,
          "phone": "ao_I"
        },
        {
          "duration": 0.19,
          "phone": "n_E"
        }
      ],
      "start": 10.25,
      "startOffset": 150,
      "word": "GONE"
    },
    {
      "alignedWord": "he",
      "case": "success",
      "end": 10.959999999999999,
      "endOffset": 157,
      "phones": [
        {
          "duration": 0.18,
          "phone": "hh_B"
        },
        {
          "duration": 0.08,
          "phone": "iy_E"
        }
      ],
      "start": 10.7,
      "startOffset": 155,
      "word": "HE"
    },
    {
      "alignedWord": "wondered",
      "case": "success",
      "end": 11.290000000000001,
      "endOffset": 166,
      "phones": [
        {
          "duration": 0.07,
          "phone": "w_B"
        },
        {
          "duration": 0.07,
          "phone": "ah_I"
        },
        {
          "duration": 0.02,
          "phone": "n_I"
        },
        {
          "duration": 0.04,
          "phone": "d_I"
        },
        {
          "duration": 0.07,
          "phone": "er_I"
        },
        {
          "duration": 0.06,
          "phone": "d_E"
        }
      ],
      "start": 10.96,
      "startOffset": 158,
      "word": "WONDERED"
    },
    {
      "alignedWord": "why",
      "case": "success",
      "end": 11.469999999999999,
      "endOffset": 170,
      "phones": [
        {
          "duration": 0.08,
          "phone": "w_B"
        },
        {
          "duration": 0.1,
          "phone": "ay_E"
        }
      ],
      "start": 11.29,
      "startOffset": 167,
      "word": "WHY"
    },
    {
      "alignedWord": "she",
      "case": "success",
      "end": 11.619999,
      "endOffset": 174,
      "phones": [
        {
          "duration": 0.11,
          "phone": "sh_B"
        },
        {
          "duration": 0.04,
          "phone": "iy_E"
        }
      ],
      "start": 11.469999,
      "startOffset": 171,
      "word": "SHE"
    },
    {
      "alignedWord": "had",
      "case": "success",
      "end": 11.739999999999998,
      "endOffset": 178,
      "phones": [
        {
          "duration": 0.01,
          "phone": "hh_B"
        },
        {
          "duration": 0.03,
          "phone": "ae_I"
        },
        {
          "duration": 0.08,
          "phone": "d_E"
        }
      ],
      "start": 11.62,
      "startOffset": 175,
      "word": "HAD"
    },
    {
      "alignedWord": "said",
      "case": "success",
      "end": 12.01,
      "endOffset": 183,
      "phones": [
        {
          "duration": 0.09,
          "phone": "s_B"
        },
        {
          "duration": 0.07,
          "phone": "eh_I"
        },
        {
          "duration": 0.11,
          "phone": "d_E"
        }
      ],
      "start": 11.74,
      "startOffset": 179,
      "word": "SAID"
    },
    {
      "alignedWord": "that",
      "case": "success",
      "end": 12.309999000000001,
      "endOffset": 188,
      "phones": [
        {
          "duration": 0.03,
          "phone": "dh_B"
        },
        {
          "duration": 0.1,
          "phone": "ae_I"
        },
        {
          "duration": 0.17,
          "phone": "t_E"
        }
      ],
      "start": 12.009999,
      "startOffset": 184,
      "word": "THAT"
    }
  ]
}