{
  "transcript": "WHICH IT GAVE TO EDWARD TO FIND HIS SISTERS GROWN SUCH ACCOMPLISHED AND ELEGANT YOUNG WOMEN THAT HIS TWO FRIENDS WHO WERE AS THE READER WILL RECOLLECT OLD ACQUAINTANCES OF ALICE AND EDITH WERE WARMLY RECEIVED WE HARDLY NEED SAY",
  "words": [
    {
      "alignedWord": "which",
      "case": "success",
      "end": 0.37,
      "endOffset": 5,
      "phones": [
        {
          "duration": 0.03,
          "phone": "hh_B"
        },
        {
          "duration": 0.06,
          "phone": "w_I"
        },
        {
          "duration": 0.04,
          "phone": "ih_I"
        },
        {
          "duration": 0.08,
          "phone": "ch_E"
        }
      ],
      "start": 0.16,
      "startOffset": 0,
      "word": "WHICH"
    },
    {
      "alignedWord": "it",
      "case": "success",
      "end": 0.47,
      "endOffset": 8,
      "phones": [
        {
          "duration": 0.04,
          "phone": "ih_B"
        },
        {
          "duration": 0.05,
          "phone": "t_E"
        }
      ],
      "start": 0.38,
      "startOffset": 6,
      "word": "IT"
    },
    {
      "alignedWord": "gave",
      "case": "success",
      "end": 0.8,
      "endOffset": 13,
      "phones": [
        {
          "duration": 0.1,
          "phone": "g_B"
        },
        {
          "duration": 0.11,
          "phone": "ey_I"
        },
        {
          "duration": 0.1,
          "phone": "v_E"
        }
      ],
      "start": 0.49,
      "startOffset": 9,
      "word": "GAVE"
    },
    {
      "alignedWord": "to",
      "case": "success",
      "end": 0.92,
      "endOffset": 16,
      "phones": [
        {
          "duration": 0.02,
          "phone": "t_B"
        },
        {
          "duration": 0.1,
          "phone": "ih_E"
        }
      ],
      "start": 0.8,
      "startOffset": 14,
      "word": "TO"
    },
    {
      "alignedWord": "edward",
      "case": "success",
      "end": 1.33,
      "endOffset": 23,
      "phones": [
        {
          "duration": 0.1,
          "phone": "eh_B"
        },
        {
          "duration": 0.05,
          "phone": "d_I"
        },
        {
          "duration": 0.09,
          "phone": "w_I"
        },
        {
          "duration": 0.08,
          "phone": "er_I"
        },
        {
          "duration": 0.09,
          "phone": "d_E"
        }
      ],
      "start": 0.92,
      "startOffset": 17,
      "word": "EDWARD"
    },
    {
      "alignedWord": "to",
      "case": "success",
      "end": 1.4400000000000002,
      "endOffset": 26,
      "phones": [
        {
          "duration": 0.04,
          "phone": "t_B"
        },
        {
          "duration": 0.07,
          "phone": "uw_E"
        }
      ],
      "start": 1.33,
      "startOffset": 24,
      "word": "TO"
    },
    {
      "alignedWord": "find",
      "case": "success",
      "end": 1.83,
      "endOffset": 31,
      "phones": [
        {
          "duration": 0.14,
          "phone": "f_B"
        },
        {
          "duration": 0.15,
          "phone": "ay_I"
        },
        {
          "duration": 0.05,
          "phone": "n_I"
        },
        {
          "duration": 0.05,
          "phone": "d_E"
        }
      ],
      "start": 1.44,
      "startOffset": 27,
      "word": "FIND"
    },
    {
      "alignedWord": "his",
      "case": "success",
      "end": 1.9700000000000002,
      "endOffset": 35,
      "phones": [
        {
          "duration": 0.02,
          "phone": "hh_B"
        },
        {
          "duration": 0.04,
          "phone": "ih_I"
        },
        {
          "duration": 0.08,
          "phone": "z_E"
        }
      ],
      "start": 1.83,
      "startOffset": 32,
      "word": "HIS"
    },
    {
      "alignedWord": "sisters",
      "case": "success",
      "end": 2.4,
      "endOffset": 43,
      "phones": [
        {
          "duration": 0.07,
          "phone": "s_B"
        },
        {
          "duration": 0.07,
          "phone": "ih_I"
        },
        {
          "duration": 0.06,
          "phone": "s_I"
        },
        {
          "duration": 0.08,
          "phone": "t_I"
        },
        {
          "duration": 0.07,
          "phone": "er_I"
        },
        {
          "duration": 0.08,
          "phone": "z_E"
        }
      ],
      "start": 1.97,
      "startOffset": 36,
      "word": "SISTERS"
    },
    {
      "alignedWord": "grown",
      "case": "success",
      "end": 2.88,
      "endOffset": 49,
      "phones": [
        {
          "duration": 0.09,
          "phone": "g_B"
        },
        {
          "duration": 0.07,
          "phone": "r_I"
        },
        {
          "duration": 0.16,
          "phone": "ow_I"
        },
        {
          "duration": 0.16,
          "phone": "n_E"
        }
      ],
      "start": 2.4,
      "startOffset": 44,
      "word": "GROWN"
    },
    {
      "alignedWord": "such",
      "case": "success",
      "end": 3.2600000000000002,
      "endOffset": 54,
      "phones": [
        {
          "duration": 0.13,
          "phone": "s_B"
        },
        {
          "duration": 0.08,
          "phone": "ah_I"
        },
        {
          "duration": 0.06,
          "phone": "ch_E"
        }
      ],
      "start": 2.99,
      "startOffset": 50,
      "word": "SUCH"
    },
    {
      "alignedWord": "accomplished",
      "case": "success",
      "end": 4.08,
      "endOffset": 67,
      "phones": [
        {
          "duration": 0.08,
          "phone": "ah_B"
        },
        {
          "duration": 0.16,
          "phone": "k_I"
        },
        {
          "duration": 0.09,
          "phone": "aa_I"
        },
        {
          "duration": 0.07,
          "phone": "m_I"
        },
        {
          "duration": 0.01,
          "phone": "p_I"
        },
        {
          "duration": 0.1,
          "phone": "l_I"
        },
        {
          "duration": 0.09,
          "phone": "ih_I"
        },
        {
          "duration": 0.11,
          "phone": "sh_I"
        },
        {
          "duration": 0.11,
          "phone": "t_E"
        }
      ],
      "start": 3.26,
      "startOffset": 55,
      "word": "ACCOMPLISHED"
    },
    {
      "alignedWord": "and",
      "case": "success",
      "end": 4.32,
      "endOffset": 71,
      "phones": [
        {
          "duration": 0.09,
          "phone": "ae_B"
        },
        {
          "duration": 0.06,
          "phone": "n_I"
        },
        {
          "duration": 0.06,
          "phone": "d_E"
        }
      ],
      "start": 4.11,
      "startOffset": 68,
      "word": "AND"
    },
    {
      "alignedWord": "elegant",
      "case": "success",
      "end": 4.86,
      "endOffset": 79,
      "phones": [
        {
          "duration": 0.09,
          "phone": "eh_B"
        },
        {
          "duration": 0.07,
          "phone": "l_I"
        },
        {
          "duration": 0.08,
          "phone": "ah_I"
        },
        {
          "duration": 0.05,
          "phone": "g_I"
        },
        {
          "duration": 0.07,
          "phone": "ah_I"
        },
        {
          "duration": 0.06,
          "phone": "n_I"
        },
        {
          "duration": 0.11,
          "phone": "t_E"
        }
      ],
      "start": 4.33,
      "startOffset": 72,
      "word": "ELEGANT"
    },
    {
      "alignedWord": "young",
      "case": "success",
      "end": 5.15,
      "endOffset": 85,
      "phones": [
        {
          "duration": 0.1,
          "phone": "y_B"
        },
        {
          "duration": 0.08,
          "phone": "ah_I"
        },
        {
          "duration": 0.06,
          "phone": "ng_E"
        }
      ],
      "start": 4.91,
      "startOffset": 80,
      "word": "YOUNG"
    },
    {
      "alignedWord": "women",
      "case": "success",
      "end": 5.53,
      "endOffset": 91,
      "phones": [
        {
          "duration": 0.06,
          "phone": "w_B"
        },
        {
          "duration": 0.07,
          "phone": "ih_I"
        },
        {
          "duration": 0.03,
          "phone": "m_I"
        },
        {
          "duration": 0.09,
          "phone": "ah_I"
        },
        {
          "duration": 0.12,
          "phone": "n_E"
        }
      ],
      "start": 5.16,
      "startOffset": 86,
      "word": "WOMEN"
    },
    {
      "alignedWord": "that",
      "case": "success",
      "end": 6.550000000000001,
      "endOffset": 96,
      "phones": [
        {
          "duration": 0.08,
          "phone": "dh_B"
        },
        {
          "duration": 0.06,
          "phone": "ae_I"
        },
        {
          "duration": 0.05,
          "phone": "t_E"
        }
      ],
      "start": 6.36,
      "startOffset": 92,
      "word": "THAT"
    },
    {
      "alignedWord": "his",
      "case": "success",
      "end": 6.6899999999999995,
      "endOffset": 100,
      "phones": [
        {
          "duration": 0.02,
          "phone": "hh_B"
        },
        {
          "duration": 0.05,
          "phone": "ih_I"
        },
        {
          "duration": 0.07,
          "phone": "z_E"
        }
      ],
      "start": 6.55,
      "startOffset": 97,
      "word": "HIS"
    },
    {
      "alignedWord": "two",
      "case": "success",
      "end": 6.890000000000001,
      "endOffset": 104,
      "phones": [
        {
          "duration": 0.1,
          "phone": "t_B"
        },
        {
          "duration": 0.1,
          "phone": "uw_E"
        }
      ],
      "start": 6.69,
      "startOffset": 101,
      "word": "TWO"
    },
    {
      "alignedWord": "friends",
      "case": "success",
      "end": 7.33,
      "endOffset": 112,
      "phones": [
        {
          "duration": 0.11,
          "phone": "f_B"
        },
        {
          "duration": 0.08,
          "phone": "r_I"
        },
        {
          "duration": 0.1,
          "phone": "eh_I"
        },
        {
          "duration": 0.1,
          "phone": "n_I"
        },
        {
          "duration": 0.05,
          "phone": "z_E"
        }
      ],
      "start": 6.89,
      "startOffset": 105,
      "word": "FRIENDS"
    },
    {
      "alignedWord": "who",
      "case": "success",
      "end": 7.48,
      "endOffset": 116,
      "phones": [
        {
          "duration": 0.08,
          "phone": "hh_B"
        },
        {
          "duration": 0.07,
          "phone": "uw_E"
        }
      ],
      "start": 7.33,
      "startOffset": 113,
      "word": "WHO"
    },
    {
      "alignedWord": "were",
      "case": "success",
      "end": 7.87,
      "endOffset": 121,
      "phones": [
        {
          "duration": 0.12,
          "phone": "w_B"
        },
        {
          "duration": 0.27,
          "phone": "er_E"
        }
      ],
      "start": 7.48,
      "startOffset": 117,
      "word": "WERE"
    },
    {
      "alignedWord": "as",
      "case": "success",
      "end": 8.43,
      "endOffset": 124,
      "phones": [
        {
          "duration": 0.09,
          "phone": "eh_B"
        },
        {
          "duration": 0.06,
          "phone": "z_E"
        }
      ],
      "start": 8.28,
      "startOffset": 122,
      "word": "AS"
    },
    {
      "alignedWord": "the",
      "case": "success",
      "end": 8.539999,
      "endOffset": 128,
      "phones": [
        {
          "duration": 0.04,
          "phone": "dh_B"
        },
        {
          "duration": 0.07,
          "phone": "ah_E"
        }
      ],
      "start": 8.429999,
      "startOffset": 125,
      "word": "THE"
    },
    {
      "alignedWord": "reader",
      "case": "success",
      "end": 8.959999999999999,
      "endOffset": 135,
      "phones": [
        {
          "duration": 0.09,
          "phone": "r_B"
        },
        {
          "duration": 0.04,
          "phone": "iy_I"
        },
        {
          "duration": 0.08,
          "phone": "d_I"
        },
        {
          "duration": 0.21,
          "phone": "er_E"
        }
      ],
      "start": 8.54,
      "startOffset": 129,
      "word": "READER"
    },
    {
      "alignedWord": "will",
      "case": "success",
      "end": 9.22,
      "endOffset": 140,
      "phones": [
        {
          "duration": 0.08,
          "phone": "w_B"
        },
        {
          "duration": 0.07,
          "phone": "ih_I"
        },
        {
          "duration": 0.07,
          "phone": "l_E"
        }
      ],
      "start": 9.0,
      "startOffset": 136,
      "word": "WILL"
    },
    {
      "alignedWord": "recollect",
      "case": "success",
      "end": 9.870000000000001,
      "endOffset": 150,
      "phones": [
        {
          "duration": 0.07,
          "phone": "r_B"
        },
        {
          "duration": 0.06,
          "phone": "eh_I"
        },
        {
          "duration": 0.05,
          "phone": "k_I"
        },
        {
          "duration": 0.06,
          "phone": "ah_I"
        },
        {
          "duration": 0.09,
          "phone": "l_I"
        },
        {
          "duration": 0.14,
          "phone": "eh_I"
        },
        {
          "duration": 0.07,
          "phone": "k_I"
        },
        {
          "duration": 0.11,
          "phone": "t_E"
        }
      ],
      "start": 9.22,
      "startOffset": 141,
      "word": "RECOLLECT"
    },
    {
      "alignedWord": "old",
      "case": "success",
      "end": 10.479999999999999,
      "endOffset": 154,
      "phones": [
        {
          "duration": 0.1,
          "phone": "ow_B"
        },
        {
          "duration": 0.21,
          "phone": "l_I"
        },
        {
          "duration": 0.06,
          "phone": "d_E"
        }
      ],
      "start": 10.11,
      "startOffset": 151,
      "word": "OLD"
    },
    {
      "alignedWord": "acquaintances",
      "case": "success",
      "end": 11.22,
      "endOffset": 168,
      "phones": [
        {
          "duration": 0.06,
          "phone": "ah_B"
        },
        {
          "duration": 0.07,
          "phone": "k_I"
        },
        {
          "duration": 0.08,
          "phone": "w_I"
        },
        {
          "duration": 0.03,
          "phone": "ey_I"
        },
        {
          "duration": 0.05,
          "phone": "n_I"
        },
        {
          "duration": 0.01,
          "phone": "t_I"
        },
        {
          "duration": 0.03,
          "phone": "ah_I"
        },
        {
          "duration": 0.09,
          "phone": "n_I"
        },
        {
          "duration": 0.1,
          "phone": "s_I"
        },
        {
          "duration": 0.14,
          "phone": "ih_I"
        },
        {
          "duration": 0.08,
          "phone": "z_E"
        }
      ],
      "start": 10.48,
      "startOffset": 155,
      "word": "ACQUAINTANCES"
    },
    {
      "alignedWord": "of",
      "case": "success",
      "end": 11.379999,
      "endOffset": 171,
      "phones": [
        {
          "duration": 0.06,
          "phone": "ah_B"
        },
        {
          "duration": 0.1,
          "phone": "v_E"
        }
      ],
      "start": 11.219999,
      "startOffset": 169,
      "word": "OF"
    },
    {
      "alignedWord": "alice",
      "case": "success",
      "end": 11.700000000000001,
      "endOffset": 177,
      "phones": [
        {
          "duration": 0.09,
          "phone": "ae_B"
        },
        {
          "duration": 0.09,
          "phone": "l_I"
        },
        {
          "duration": 0.07,
          "phone": "ah_I"
        },
        {
          "duration": 0.07,
          "phone": "s_E"
        }
      ],
      "start": 11.38,
      "startOffset": 172,
      "word": "ALICE"
    },
    {
      "alignedWord": "and",
      "case": "success",
      "end": 11.85,
      "endOffset": 181,
      "phones": [
        {
          "duration": 0.05,
          "phone": "ah_B"
        },
        {
          "duration": 0.04,
          "phone": "n_I"
        },
        {
          "duration": 0.06,
          "phone": "d_E"
        }
      ],
      "start": 11.7,
      "startOffset": 178,
      "word": "AND"
    },
    {
      "alignedWord": "edith",
      "case": "success",
      "end": 12.179999,
      "endOffset": 187,
      "phones": [
        {
          "duration": 0.07,
          "phone": "iy_B"
        },
        {
          "duration": 0.04,
          "phone": "d_I"
        },
        {
          "duration": 0.1,
          "phone": "ih_I"
        },
        {
          "duration": 0.12,
          "phone": "th_E"
        }
      ],
      "start": 11.849999,
      "startOffset": 182,
      "word": "EDITH"
    },
    {
      "alignedWord": "were",
      "case": "success",
      "end": 12.609999,
      "endOffset": 192,
      "phones": [
        {
          "duration": 0.12,
          "phone": "w_B"
        },
        {
          "duration": 0.06,
          "phone": "er_E"
        }
      ],
      "start": 12.429999,
      "startOffset": 188,
      "word": "WERE"
    },
    {
      "alignedWord": "warmly",
      "case": "success",
      "end": 13.129999999999999,
      "endOffset": 199,
      "phones": [
        {
          "duration": 0.11,
          "phone": "w_B"
        },
        {
          "duration": 0.1,
          "phone": "ao_I"
        },
        {
          "duration": 0.09,
          "phone": "r_I"
        },
        {
          "duration": 0.08,
          "phone": "m_I"
        },
        {
          "duration": 0.06,
          "phone": "l_I"
        },
        {
          "duration": 0.08,
          "phone": "iy_E"
        }
      ],
      "start": 12.61,
      "startOffset": 193,
      "word": "WARMLY"
    },
    {
      "alignedWord": "received",
      "case": "success",
      "end": 13.82,
      "endOffset": 208,
      "phones": [
        {
          "duration": 0.05,
          "phone": "r_B"
        },
        {
          "duration": 0.08,
          "phone": "ih_I"
        },
        {
          "duration": 0.14,
          "phone": "s_I"
        },
        {
          "duration": 0.19,
          "phone": "iy_I"
        },
        {
          "duration": 0.08,
          "phone": "v_I"
        },
        {
          "duration": 0.15,
          "phone": "d_E"
        }
      ],
      "start": 13.13,
      "startOffset": 200,
      "word": "RECEIVED"
    },
    {
      "alignedWord": "we",
      "case": "success",
      "end": 14.57,
      "endOffset": 211,
      "phones": [
        {
          "duration": 0.09,
          "phone": "w_B"
        },
        {
          "duration": 0.06,
          "phone": "iy_E"
        }
      ],
      "start": 14.42,
      "startOffset": 209,
      "word": "WE"
    },
    {
      "alignedWord": "hardly",
      "case": "success",
      "end": 15.02,
      "endOffset": 218,
      "phones": [
        {
          "duration": 0.09,
          "phone": "hh_B"
        },
        {
          "duration": 0.06,
          "phone": "aa_I"
        },
        {
          "duration": 0.06,
          "phone": "r_I"
        },
        {
          "duration": 0.09,
          "phone": "d_I"
        },
        {
          "duration": 0.06,
          "phone": "l_I"
        },
        {
          "duration": 0.09,
          "phone": "iy_E"
        }
      ],
      "start": 14.57,
      "startOffset": 212,
      "word": "HARDLY"
    },
    {
      "alignedWord": "need",
      "case": "success",
      "end": 15.27,
      "endOffset": 223,
      "phones": [
        {
          "duration": 0.04,
          "phone": "n_B"
        },
        {
          "duration": 0.12,
          "phone": "iy_I"
        },
        {
          "duration": 0.09,
          "phone": "d_E"
        }
      ],
      "start": 15.02,
      "startOffset": 219,
      "word": "NEED"
    },
    {
      "alignedWord": "say",
      "case": "success",
      "end": 15.68,
      "endOffset": 227,
      "phones": [
        {
          "duration": 0.14,
          "phone": "s_B"
        },
        {
          "duration": 0.27,
          "phone": "ey_E"
        }
      ],
      "start": 15.27,
      "startOffset": 224,
      "word": "SAY"
    }
  ]
}