{
  "transcript": "AND THE PURPOSES THEY SUBSERVE BY THEIR AFFECTIVE VALUES IN SHORT THAT THEIR CONSECUTION IN OUR SEVERAL CONSCIOUS STREAMS AS THOUGHTS OF OURS IS MAINLY RULED DESIRE INTRODUCES THEM INTEREST HOLDS THEM",
  "words": [
    {
      "alignedWord": "and",
      "case": "success",
      "end": 0.43,
      "endOffset": 3,
      "phones": [
        {
          "duration": 0.09,
          "phone": "ae_B"
        },
        {
          "duration": 0.05,
          "phone": "n_I"
        },
        {
          "duration": 0.07,
          "phone": "d_E"
        }
      ],
      "start": 0.22,
      "startOffset": 0,
      "word": "AND"
    },
    {
      "alignedWord": "the",
      "case": "success",
      "end": 0.51,
      "endOffset": 7,
      "phones": [
        {
          "duration": 0.01,
          "phone": "dh_B"
        },
        {
          "duration": 0.07,
          "phone": "ah_E"
        }
      ],
      "start": 0.43,
      "startOffset": 4,
      "word": "THE"
    },
    {
      "alignedWord": "purposes",
      "case": "success",
      "end": 1.05,
      "endOffset": 16,
      "phones": [
        {
          "duration": 0.11,
          "phone": "p_B"
        },
        {
          "duration": 0.08,
          "phone": "er_I"
        },
        {
          "duration": 0.07,
          "phone": "p_I"
        },
        {
          "duration": 0.06,
          "phone": "ah_I"
        },
        {
          "duration": 0.06,
          "phone": "s_I"
        },
        {
          "duration": 0.07,
          "phone": "ah_I"
        },
        {
          "duration": 0.09,
          "phone": "z_E"
        }
      ],
      "start": 0.51,
      "startOffset": 8,
      "word": "PURPOSES"
    },
    {
      "alignedWord": "they",
      "case": "success",
      "end": 1.24,
      "endOffset": 21,
      "phones": [
        {
          "duration": 0.07,
          "phone": "dh_B"
        },
        {
          "duration": 0.12,
          "phone": "ey_E"
        }
      ],
      "start": 1.05,
      "startOffset": 17,
      "word": "THEY"
    },
    {
      "alignedWord": "<unk>",
      "case": "success",
      "end": 3.3000000000000003,
      "endOffset": 30,
      "phones": [
        {
          "duration": 0.18,
          "phone": "oov_S"
        }
      ],
      "start": 3.12,
      "startOffset": 22,
      "word": "SUBSERVE"
    },
    {
      "alignedWord": "by",
      "case": "success",
      "end": 3.32,
      "endOffset": 33,
      "phones": [
        {
          "duration": 0.01,
          "phone": "b_B"
        },
        {
          "duration": 0.01,
          "phone": "ay_E"
        }
      ],
      "start": 3.3,
      "startOffset": 31,
      "word": "BY"
    },
    {
      "alignedWord": "their",
      "case": "success",
      "end": 3.3499999999999996,
      "endOffset": 39,
      "phones": [
        {
          "duration": 0.01,
          "phone": "dh_B"
        },
        {
          "duration": 0.01,
          "phone": "eh_I"
        },
        {
          "duration": 0.01,
          "phone": "r_E"
        }
      ],
      "start": 3.32,
      "startOffset": 34,
      "word": "THEIR"
    },
    {
      "alignedWord": "affective",
      "case": "success",
      "end": 3.74,
      "endOffset": 49,
      "phones": [
        {
          "duration": 0.01,
          "phone": "ah_B"
        },
        {
          "duration": 0.04,
          "phone": "f_I"
        },
        {
          "duration": 0.08,
          "phone": "eh_I"
        },
        {
          "duration": 0.08,
          "phone": "k_I"
        },
        {
          "duration": 0.05,
          "phone": "t_I"
        },
        {
          "duration": 0.07,
          "phone": "ih_I"
        },
        {
          "duration": 0.06,
          "phone": "v_E"
        }
      ],
      "start": 3.35,
      "startOffset": 40,
      "word": "AFFECTIVE"
    },
    {
      "alignedWord": "values",
      "case": "success",
      "end": 4.22,
      "endOffset": 56,
      "phones": [
        {
          "duration": 0.05,
          "phone": "v_B"
        },
        {
          "duration": 0.12,
          "phone": "ae_I"
        },
        {
          "duration": 0.06,
          "phone": "l_I"
        },
        {
          "duration": 0.08,
          "phone": "y_I"
        },
        {
          "duration": 0.1,
          "phone": "uw_I"
        },
        {
          "duration": 0.06,
          "phone": "z_E"
        }
      ],
      "start": 3.75,
      "startOffset": 50,
      "word": "VALUES"
    },
    {
      "alignedWord": "in",
      "case": "success",
      "end": 4.35,
      "endOffset": 59,
      "phones": [
        {
          "duration": 0.05,
          "phone": "ih_B"
        },
        {
          "duration": 0.08,
          "phone": "n_E"
        }
      ],
      "start": 4.22,
      "startOffset": 57,
      "word": "IN"
    },
    {
      "alignedWord": "short",
      "case": "success",
      "end": 4.699999999999999,
      "endOffset": 65,
      "phones": [
        {
          "duration": 0.1,
          "phone": "sh_B"
        },
        {
          "duration": 0.09,
          "phone": "ao_I"
        },
        {
          "duration": 0.06,
          "phone": "r_I"
        },
        {
          "duration": 0.1,
          "phone": "t_E"
        }
      ],
      "start": 4.35,
      "startOffset": 60,
      "word": "SHORT"
    },
    {
      "alignedWord": "that",
      "case": "success",
      "end": 5.5600000000000005,
      "endOffset": 70,
      "phones": [
        {
          "duration": 0.08,
          "phone": "dh_B"
        },
        {
          "duration": 0.07,
          "phone": "ae_I"
        },
        {
          "duration": 0.08,
          "phone": "t_E"
        }
      ],
      "start": 5.33,
      "startOffset": 66,
      "word": "THAT"
    },
    {
      "alignedWord": "their",
      "case": "success",
      "end": 5.77,
      "endOffset": 76,
      "phones": [
        {
          "duration": 0.04,
          "phone": "dh_B"
        },
        {
          "duration": 0.08,
          "phone": "eh_I"
        },
        {
          "duration": 0.09,
          "phone": "r_E"
        }
      ],
      "start": 5.56,
      "startOffset": 71,
      "word": "THEIR"
    },
    {
      "alignedWord": "<unk>",
      "case": "success",
      "end": 6.71,
      "endOffset": 88,
      "phones": [
        {
          "duration": 0.92,
          "phone": "oov_S"
        }
      ],
      "start": 5.79,
      "startOffset": 77,
      "word": "CONSECUTION"
    },
    {
      "alignedWord": "in",
      "case": "success",
      "end": 6.930000000000001,
      "endOffset": 91,
      "phones": [
        {
          "duration": 0.11,
          "phone": "ih_B"
        },
        {
          "duration": 0.08,
          "phone": "n_E"
        }
      ],
      "start": 6.74,
      "startOffset": 89,
      "word": "IN"
    },
    {
      "alignedWord": "our",
      "case": "success",
      "end": 7.13,
      "endOffset": 95,
      "phones": [
        {
          "duration": 0.1,
          "phone": "aw_B"
        },
        {
          "duration": 0.1,
          "phone": "r_E"
        }
      ],
      "start": 6.93,
      "startOffset": 92,
      "word": "OUR"
    },
    {
      "alignedWord": "several",
      "case": "success",
      "end": 7.57,
      "endOffset": 103,
      "phones": [
        {
          "duration": 0.14,
          "phone": "s_B"
        },
        {
          "duration": 0.09,
          "phone": "eh_I"
        },
        {
          "duration": 0.02,
          "phone": "v_I"
        },
        {
          "duration": 0.06,
          "phone": "er_I"
        },
        {
          "duration": 0.06,
          "phone": "ah_I"
        },
        {
          "duration": 0.07,
          "phone": "l_E"
        }
      ],
      "start": 7.13,
      "startOffset": 96,
      "word": "SEVERAL"
    },
    {
      "alignedWord": "conscious",
      "case": "success",
      "end": 7.95,
      "endOffset": 113,
      "phones": [
        {
          "duration": 0.1,
          "phone": "k_B"
        },
        {
          "duration": 0.09,
          "phone": "aa_I"
        },
        {
          "duration": 0.04,
          "phone": "n_I"
        },
        {
          "duration": 0.08,
          "phone": "sh_I"
        },
        {
          "duration": 0.06,
          "phone": "ah_I"
        },
        {
          "duration": 0.01,
          "phone": "s_E"
        }
      ],
      "start": 7.57,
      "startOffset": 104,
      "word": "CONSCIOUS"
    },
    {
      "alignedWord": "streams",
      "case": "success",
      "end": 8.54,
      "endOffset": 121,
      "phones": [
        {
          "duration": 0.08,
          "phone": "s_B"
        },
        {
          "duration": 0.09,
          "phone": "t_I"
        },
        {
          "duration": 0.09,
          "phone": "r_I"
        },
        {
          "duration": 0.12,
          "phone": "iy_I"
        },
        {
          "duration": 0.08,
          "phone": "m_I"
        },
        {
          "duration": 0.12,
          "phone": "z_E"
        }
      ],
      "start": 7.96,
      "startOffset": 114,
      "word": "STREAMS"
    },
    {
      "alignedWord": "as",
      "case": "success",
      "end": 8.91,
      "endOffset": 124,
      "phones": [
        {
          "duration": 0.21,
          "phone": "ae_B"
        },
        {
          "duration": 0.11,
          "phone": "z_E"
        }
      ],
      "start": 8.59,
      "startOffset": 122,
      "word": "AS"
    },
    {
      "alignedWord": "thoughts",
      "case": "success",
      "end": 9.24,
      "endOffset": 133,
      "phones": [
        {
          "duration": 0.13,
          "phone": "th_B"
        },
        {
          "duration": 0.1,
          "phone": "ao_I"
        },
        {
          "duration": 0.07,
          "phone": "t_I"
        },
        {
          "duration": 0.03,
          "phone": "s_E"
        }
      ],
      "start": 8.91,
      "startOffset": 125,
      "word": "THOUGHTS"
    },
    {
      "alignedWord": "of",
      "case": "success",
      "end": 9.41,
      "endOffset": 136,
      "phones": [
        {
          "duration": 0.07,
          "phone": "ah_B"
        },
        {
          "duration": 0.1,
          "phone": "v_E"
        }
      ],
      "start": 9.24,
      "startOffset": 134,
      "word": "OF"
    },
    {
      "alignedWord": "ours",
      "case": "success",
      "end": 9.790000000000001,
      "endOffset": 141,
      "phones": [
        {
          "duration": 0.13,
          "phone": "aa_B"
        },
        {
          "duration": 0.1,
          "phone": "r_I"
        },
        {
          "duration": 0.15,
          "phone": "z_E"
        }
      ],
      "start": 9.41,
      "startOffset": 137,
      "word": "OURS"
    },
    {
      "alignedWord": "is",
      "case": "success",
      "end": 10.05,
      "endOffset": 144,
      "phones": [
        {
          "duration": 0.13,
          "phone": "ih_B"
        },
        {
          "duration": 0.09,
          "phone": "z_E"
        }
      ],
      "start": 9.83,
      "startOffset": 142,
      "word": "IS"
    },
    {
      "alignedWord": "mainly",
      "case": "success",
      "end": 10.45,
      "endOffset": 151,
      "phones": [
        {
          "duration": 0.09,
          "phone": "m_B"
        },
        {
          "duration": 0.07,
          "phone": "ey_I"
        },
        {
          "duration": 0.07,
          "phone": "n_I"
        },
        {
          "duration": 0.06,
          "phone": "l_I"
        },
        {
          "duration": 0.08,
          "phone": "iy_E"
        }
      ],
      "start": 10.08,
      "startOffset": 145,
      "word": "MAINLY"
    },
    {
      "alignedWord": "ruled",
      "case": "success",
      "end": 10.899999999999999,
      "endOffset": 157,
      "phones": [
        {
          "duration": 0.1,
          "phone": "r_B"
        },
        {
          "duration": 0.13,
          "phone": "uw_I"
        },
        {
          "duration": 0.07,
          "phone": "l_I"
        },
        {
          "duration": 0.15,
          "phone": "d_E"
        }
      ],
      "start": 10.45,
      "startOffset": 152,
      "word": "RULED"
    },
    {
      "alignedWord": "desire",
      "case": "success",
      "end": 12.829999999999998,
      "endOffset": 164,
      "phones": [
        {
          "duration": 0.08,
          "phone": "d_B"
        },
        {
          "duration": 0.07,
          "phone": "ih_I"
        },
        {
          "duration": 0.11,
          "phone": "z_I"
        },
        {
          "duration": 0.17,
          "phone": "ay_I"
        },
        {
          "duration": 0.11,
          "phone": "er_E"
        }
      ],
      "start": 12.29,
      "startOffset": 158,
      "word": "DESIRE"
    },
    {
      "alignedWord": "introduces",
      "case": "success",
      "end": 13.419999,
      "endOffset": 175,
      "phones": [
        {
          "duration": 0.06,
          "phone": "ih_B"
        },
        {
          "duration": 0.04,
          "phone": "n_I"
        },
        {
          "duration": 0.05,
          "phone": "t_I"
        },
        {
          "duration": 0.05,
          "phone": "r_I"
        },
        {
          "duration": 0.03,
          "phone": "ah_I"
        },
        {
          "duration": 0.07,
          "phone": "d_I"
        },
        {
          "duration": 0.08,
          "phone": "uw_I"
        },
        {
          "duration": 0.06,
          "phone": "s_I"
        },
        {
          "duration": 0.06,
          "phone": "ih_I"
        },
        {
          "duration": 0.07,
          "phone": "z_E"
        }
      ],
      "start": 12.849999,
      "startOffset": 165,
      "word": "INTRODUCES"
    },
    {
      "alignedWord": "them",
      "case": "success",
      "end": 13.7,
      "endOffset": 180,
      "phones": [
        {
          "duration": 0.04,
          "phone": "dh_B"
        },
        {
          "duration": 0.09,
          "phone": "eh_I"
        },
        {
          "duration": 0.15,
          "phone": "m_E"
        }
      ],
      "start": 13.42,
      "startOffset": 176,
      "word": "THEM"
    },
    {
      "alignedWord": "interest",
      "case": "success",
      "end": 14.93,
      "endOffset": 189,
      "phones": [
        {
          "duration": 0.09,
          "phone": "ih_B"
        },
        {
          "duration": 0.07,
          "phone": "n_I"
        },
        {
          "duration": 0.09,
          "phone": "t_I"
        },
        {
          "duration": 0.08,
          "phone": "er_I"
        },
        {
          "duration": 0.06,
          "phone": "ih_I"
        },
        {
          "duration": 0.05,
          "phone": "s_I"
        },
        {
          "duration": 0.08,
          "phone": "t_E"
        }
      ],
      "start": 14.41,
      "startOffset": 181,
      "word": "INTEREST"
    },
    {
      "alignedWord": "holds",
      "case": "success",
      "end": 15.199999,
      "endOffset": 195,
      "phones": [
        {
          "duration": 0.06,
          "phone": "hh_B"
        },
        {
          "duration": 0.05,
          "phone": "ow_I"
        },
        {
          "duration": 0.06,
          "phone": "l_I"
        },
        {
          "duration": 0.05,
          "phone": "d_I"
        },
        {
          "duration": 0.05,
          "phone": "z_E"
        }
      ],
      "start": 14.929999,
      "startOffset": 190,
      "word": "HOLDS"
    },
    {
      "alignedWord": "them",
      "case": "success",
      "end": 15.469999999999999,
      "endOffset": 200,
      "phones": [
        {
          "duration": 0.03,
          "phone": "dh_B"
        },
        {
          "duration": 0.09,
          "phone": "eh_I"
        },
        {
          "duration": 0.15,
          "phone": "m_E"
        }
      ],
      "start": 15.2,
      "startOffset": 196,
      "word": "THEM"
    }
  ]
}