{
  "transcript": "I HAD EXPOUNDED ALL THESE MATTERS WITH SUFFICIENT MINUTENESS IN THE TREATISE WHICH I FORMERLY THOUGHT OF PUBLISHING AND AFTER THESE I HAD SHOWN WHAT MUST BE THE FABRIC OF THE NERVES AND MUSCLES OF THE HUMAN BODY",
  "words": [
    {
      "alignedWord": "i",
      "case": "success",
      "end": 0.48,
      "endOffset": 1,
      "phones": [
        {
          "duration": 0.21,
          "phone": "ay_S"
        }
      ],
      "start": 0.27,
      "startOffset": 0,
      "word": "I"
    },
    {
      "alignedWord": "had",
      "case": "success",
      "end": 0.64,
      "endOffset": 5,
      "phones": [
        {
          "duration": 0.07,
          "phone": "hh_B"
        },
        {
          "duration": 0.04,
          "phone": "ae_I"
        },
        {
          "duration": 0.04,
          "phone": "d_E"
        }
      ],
      "start": 0.49,
      "startOffset": 2,
      "word": "HAD"
    },
    {
      "alignedWord": "expounded",
      "case": "success",
      "end": 1.27,
      "endOffset": 15,
      "phones": [
        {
          "duration": 0.04,
          "phone": "ih_B"
        },
        {
          "duration": 0.07,
          "phone": "k_I"
        },
        {
          "duration": 0.08,
          "phone": "s_I"
        },
        {
          "duration": 0.08,
          "phone": "p_I"
        },
        {
          "duration": 0.09,
          "phone": "aw_I"
        },
        {
          "duration": 0.05,
          "phone": "n_I"
        },
        {
          "duration": 0.05,
          "phone": "d_I"
        },
        {
          "duration": 0.05,
          "phone": "ah_I"
        },
        {
          "duration": 0.12,
          "phone": "d_E"
        }
      ],
      "start": 0.64,
      "startOffset": 6,
      "word": "EXPOUNDED"
    },
    {
      "alignedWord": "all",
      "case": "success",
      "end": 1.57,
      "endOffset": 19,
      "phones": [
        {
          "duration": 0.16,
          "phone": "ao_B"
        },
        {
          "duration": 0.09,
          "phone": "l_E"
        }
      ],
      "start": 1.32,
      "startOffset": 16,
      "word": "ALL"
    },
    {
      "alignedWord": "these",
      "case": "success",
      "end": 1.81,
      "endOffset": 25,
      "phones": [
        {
          "duration": 0.08,
          "phone": "dh_B"
        },
        {
          "duration": 0.08,
          "phone": "iy_I"
        },
        {
          "duration": 0.08,
          "phone": "z_E"
        }
      ],
      "start": 1.57,
      "startOffset": 20,
      "word": "THESE"
    },
    {
      "alignedWord": "matters",
      "case": "success",
      "end": 2.2,
      "endOffset": 33,
      "phones": [
        {
          "duration": 0.06,
          "phone": "m_B"
        },
        {
          "duration": 0.09,
          "phone": "ae_I"
        },
        {
          "duration": 0.07,
          "phone": "t_I"
        },
        {
          "duration": 0.07,
          "phone": "er_I"
        },
        {
          "duration": 0.09,
          "phone": "z_E"
        }
      ],
      "start": 1.82,
      "startOffset": 26,
      "word": "MATTERS"
    },
    {
      "alignedWord": "with",
      "case": "success",
      "end": 2.35,
      "endOffset": 38,
      "phones": [
        {
          "duration": 0.05,
          "phone": "w_B"
        },
        {
          "duration": 0.02,
          "phone": "ih_I"
        },
        {
          "duration": 0.07,
          "phone": "th_E"
        }
      ],
      "start": 2.21,
      "startOffset": 34,
      "word": "WITH"
    },
    {
      "alignedWord": "sufficient",
      "case": "success",
      "end": 2.85,
      "endOffset": 49,
      "phones": [
        {
          "duration": 0.08,
          "phone": "s_B"
        },
        {
          "duration": 0.05,
          "phone": "ah_I"
        },
        {
          "duration": 0.08,
          "phone": "f_I"
        },
        {
          "duration": 0.06,
          "phone": "ih_I"
        },
        {
          "duration": 0.08,
          "phone": "sh_I"
        },
        {
          "duration": 0.06,
          "phone": "ah_I"
        },
        {
          "duration": 0.02,
          "phone": "n_I"
        },
        {
          "duration": 0.07,
          "phone": "t_E"
        }
      ],
      "start": 2.35,
      "startOffset": 39,
      "word": "SUFFICIENT"
    },
    {
      "alignedWord": "<unk>",
      "case": "success",
      "end": 3.52,
      "endOffset": 60,
      "phones": [
        {
          "duration": 0.29,
          "phone": "oov_S"
        }
      ],
      "start": 3.23,
      "startOffset": 50,
      "word": "MINUTENESS"
    },
    {
      "alignedWord": "in",
      "case": "success",
      "end": 3.69,
      "endOffset": 63,
      "phones": [
        {
          "duration": 0.09,
          "phone": "ih_B"
        },
        {
          "duration": 0.04,
          "phone": "n_E"
        }
      ],
      "start": 3.56,
      "startOffset": 61,
      "word": "IN"
    },
    {
      "alignedWord": "the",
      "case": "success",
      "end": 3.8,
      "endOffset": 67,
      "phones": [
        {
          "duration": 0.04,
          "phone": "dh_B"
        },
        {
          "duration": 0.07,
          "phone": "ah_E"
        }
      ],
      "start": 3.69,
      "startOffset": 64,
      "word": "THE"
    },
    {
      "alignedWord": "<unk>",
      "case": "success",
      "end": 4.37,
      "endOffset": 76,
      "phones": [
        {
          "duration": 0.57,
          "phone": "oov_S"
        }
      ],
      "start": 3.8,
      "startOffset": 68,
      "word": "TREATISE"
    },
    {
      "alignedWord": "which",
      "case": "success",
      "end": 4.61,
      "endOffset": 82,
      "phones": [
        {
          "duration": 0.07,
          "phone": "w_B"
        },
        {
          "duration": 0.05,
          "phone": "ih_I"
        },
        {
          "duration": 0.07,
          "phone": "ch_E"
        }
      ],
      "start": 4.42,
      "startOffset": 77,
      "word": "WHICH"
    },
    {
      "alignedWord": "i",
      "case": "success",
      "end": 4.73,
      "endOffset": 84,
      "phones": [
        {
          "duration": 0.12,
          "phone": "ay_S"
        }
      ],
      "start": 4.61,
      "startOffset": 83,
      "word": "I"
    },
    {
      "alignedWord": "formerly",
      "case": "success",
      "end": 5.17,
      "endOffset": 93,
      "phones": [
        {
          "duration": 0.09,
          "phone": "f_B"
        },
        {
          "duration": 0.06,
          "phone": "ao_I"
        },
        {
          "duration": 0.06,
          "phone": "r_I"
        },
        {
          "duration": 0.03,
          "phone": "m_I"
        },
        {
          "duration": 0.05,
          "phone": "er_I"
        },
        {
          "duration": 0.04,
          "phone": "l_I"
        },
        {
          "duration": 0.1,
          "phone": "iy_E"
        }
      ],
      "start": 4.74,
      "startOffset": 85,
      "word": "FORMERLY"
    },
    {
      "alignedWord": "thought",
      "case": "success",
      "end": 5.489999999999999,
      "endOffset": 101,
      "phones": [
        {
          "duration": 0.09,
          "phone": "th_B"
        },
        {
          "duration": 0.09,
          "phone": "ao_I"
        },
        {
          "duration": 0.13,
          "phone": "t_E"
        }
      ],
      "start": 5.18,
      "startOffset": 94,
      "word": "THOUGHT"
    },
    {
      "alignedWord": "of",
      "case": "success",
      "end": 5.71,
      "endOffset": 104,
      "phones": [
        {
          "duration": 0.13,
          "phone": "ah_B"
        },
        {
          "duration": 0.07,
          "phone": "v_E"
        }
      ],
      "start": 5.51,
      "startOffset": 102,
      "word": "OF"
    },
    {
      "alignedWord": "publishing",
      "case": "success",
      "end": 6.34,
      "endOffset": 115,
      "phones": [
        {
          "duration": 0.07,
          "phone": "p_B"
        },
        {
          "duration": 0.08,
          "phone": "ah_I"
        },
        {
          "duration": 0.03,
          "phone": "b_I"
        },
        {
          "duration": 0.07,
          "phone": "l_I"
        },
        {
          "duration": 0.06,
          "phone": "ih_I"
        },
        {
          "duration": 0.06,
          "phone": "sh_I"
        },
        {
          "duration": 0.06,
          "phone": "ih_I"
        },
        {
          "duration": 0.2,
          "phone": "ng_E"
        }
      ],
      "start": 5.71,
      "startOffset": 105,
      "word": "PUBLISHING"
    },
    {
      "alignedWord": "and",
      "case": "success",
      "end": 7.58,
      "endOffset": 119,
      "phones": [
        {
          "duration": 0.07,
          "phone": "ae_B"
        },
        {
          "duration": 0.05,
          "phone": "n_I"
        },
        {
          "duration": 0.02,
          "phone": "d_E"
        }
      ],
      "start": 7.44,
      "startOffset": 116,
      "word": "AND"
    },
    {
      "alignedWord": "after",
      "case": "success",
      "end": 7.87,
      "endOffset": 125,
      "phones": [
        {
          "duration": 0.08,
          "phone": "ae_B"
        },
        {
          "duration": 0.07,
          "phone": "f_I"
        },
        {
          "duration": 0.07,
          "phone": "t_I"
        },
        {
          "duration": 0.07,
          "phone": "er_E"
        }
      ],
      "start": 7.58,
      "startOffset": 120,
      "word": "AFTER"
    },
    {
      "alignedWord": "these",
      "case": "success",
      "end": 8.27,
      "endOffset": 131,
      "phones": [
        {
          "duration": 0.07,
          "phone": "dh_B"
        },
        {
          "duration": 0.14,
          "phone": "iy_I"
        },
        {
          "duration": 0.19,
          "phone": "z_E"
        }
      ],
      "start": 7.87,
      "startOffset": 126,
      "word": "THESE"
    },
    {
      "alignedWord": "i",
      "case": "success",
      "end": 8.49,
      "endOffset": 133,
      "phones": [
        {
          "duration": 0.16,
          "phone": "ay_S"
        }
      ],
      "start": 8.33,
      "startOffset": 132,
      "word": "I"
    },
    {
      "alignedWord": "had",
      "case": "success",
      "end": 8.67,
      "endOffset": 137,
      "phones": [
        {
          "duration": 0.05,
          "phone": "hh_B"
        },
        {
          "duration": 0.05,
          "phone": "ae_I"
        },
        {
          "duration": 0.08,
          "phone": "d_E"
        }
      ],
      "start": 8.49,
      "startOffset": 134,
      "word": "HAD"
    },
    {
      "alignedWord": "shown",
      "case": "success",
      "end": 8.97,
      "endOffset": 143,
      "phones": [
        {
          "duration": 0.11,
          "phone": "sh_B"
        },
        {
          "duration": 0.1,
          "phone": "ow_I"
        },
        {
          "duration": 0.09,
          "phone": "n_E"
        }
      ],
      "start": 8.67,
      "startOffset": 138,
      "word": "SHOWN"
    },
    {
      "alignedWord": "what",
      "case": "success",
      "end": 9.22,
      "endOffset": 148,
      "phones": [
        {
          "duration": 0.02,
          "phone": "hh_B"
        },
        {
          "duration": 0.09,
          "phone": "w_I"
        },
        {
          "duration": 0.06,
          "phone": "ah_I"
        },
        {
          "duration": 0.07,
          "phone": "t_E"
        }
      ],
      "start": 8.98,
      "startOffset": 144,
      "word": "WHAT"
    },
    {
      "alignedWord": "must",
      "case": "success",
      "end": 9.440000000000001,
      "endOffset": 153,
      "phones": [
        {
          "duration": 0.07,
          "phone": "m_B"
        },
        {
          "duration": 0.06,
          "phone": "ah_I"
        },
        {
          "duration": 0.05,
          "phone": "s_I"
        },
        {
          "duration": 0.03,
          "phone": "t_E"
        }
      ],
      "start": 9.23,
      "startOffset": 149,
      "word": "MUST"
    },
    {
      "alignedWord": "be",
      "case": "success",
      "end": 9.54,
      "endOffset": 156,
      "phones": [
        {
          "duration": 0.05,
          "phone": "b_B"
        },
        {
          "duration": 0.05,
          "phone": "iy_E"
        }
      ],
      "start": 9.44,
      "startOffset": 154,
      "word": "BE"
    },
    {
      "alignedWord": "the",
      "case": "success",
      "end": 9.649999999999999,
      "endOffset": 160,
      "phones": [
        {
          "duration": 0.05,
          "phone": "dh_B"
        },
        {
          "duration": 0.06,
          "phone": "ah_E"
        }
      ],
      "start": 9.54,
      "startOffset": 157,
      "word": "THE"
    },
    {
      "alignedWord": "fabric",
      "case": "success",
      "end": 10.16,
      "endOffset": 167,
      "phones": [
        {
          "duration": 0.14,
          "phone": "f_B"
        },
        {
          "duration": 0.12,
          "phone": "ae_I"
        },
        {
          "duration": 0.1,
          "phone": "b_I"
        },
        {
          "duration": 0.01,
          "phone": "r_I"
        },
        {
          "duration": 0.06,
          "phone": "ih_I"
        },
        {
          "duration": 0.08,
          "phone": "k_E"
        }
      ],
      "start": 9.65,
      "startOffset": 161,
      "word": "FABRIC"
    },
    {
      "alignedWord": "of",
      "case": "success",
      "end": 10.37,
      "endOffset": 170,
      "phones": [
        {
          "duration": 0.09,
          "phone": "ah_B"
        },
        {
          "duration": 0.08,
          "phone": "v_E"
        }
      ],
      "start": 10.2,
      "startOffset": 168,
      "word": "OF"
    },
    {
      "alignedWord": "the",
      "case": "success",
      "end": 10.44,
      "endOffset": 174,
      "phones": [
        {
          "duration": 0.01,
          "phone": "dh_B"
        },
        {
          "duration": 0.06,
          "phone": "ah_E"
        }
      ],
      "start": 10.37,
      "startOffset": 171,
      "word": "THE"
    },
    {
      "alignedWord": "nerves",
      "case": "success",
      "end": 10.99,
      "endOffset": 181,
      "phones": [
        {
          "duration": 0.11,
          "phone": "n_B"
        },
        {
          "duration": 0.22,
          "phone": "er_I"
        },
        {
          "duration": 0.08,
          "phone": "v_I"
        },
        {
          "duration": 0.14,
          "phone": "z_E"
        }
      ],
      "start": 10.44,
      "startOffset": 175,
      "word": "NERVES"
    },
    {
      "alignedWord": "and",
      "case": "success",
      "end": 11.19,
      "endOffset": 185,
      "phones": [
        {
          "duration": 0.07,
          "phone": "ah_B"
        },
        {
          "duration": 0.05,
          "phone": "n_I"
        },
        {
          "duration": 0.03,
          "phone": "d_E"
        }
      ],
      "start": 11.04,
      "startOffset": 182,
      "word": "AND"
    },
    {
      "alignedWord": "muscles",
      "case": "success",
      "end": 11.5,
      "endOffset": 193,
      "phones": [
        {
          "duration": 0.06,
          "phone": "m_B"
        },
        {
          "duration": 0.09,
          "phone": "ah_I"
        },
        {
          "duration": 0.07,
          "phone": "s_I"
        },
        {
          "duration": 0.07,
          "phone": "ah_I"
        },
        {
          "duration": 0.01,
          "phone": "l_I"
        },
        {
          "duration": 0.01,
          "phone": "z_E"
        }
      ],
      "start": 11.19,
      "startOffset": 186,
      "word": "MUSCLES"
    },
    {
      "alignedWord": "of",
      "case": "success",
      "end": 11.659999000000001,
      "endOffset": 196,
      "phones": [
        {
          "duration": 0.07,
          "phone": "ah_B"
        },
        {
          "duration": 0.08,
          "phone": "v_E"
        }
      ],
      "start": 11.509999,
      "startOffset": 194,
      "word": "OF"
    },
    {
      "alignedWord": "the",
      "case": "success",
      "end": 11.73,
      "endOffset": 200,
      "phones": [
        {
          "duration": 0.01,
          "phone": "dh_B"
        },
        {
          "duration": 0.06,
          "phone": "ah_E"
        }
      ],
      "start": 11.66,
      "startOffset": 197,
      "word": "THE"
    },
    {
      "alignedWord": "human",
      "case": "success",
      "end": 12.09,
      "endOffset": 206,
      "phones": [
        {
          "duration": 0.08,
          "phone": "hh_B"
        },
        {
          "duration": 0.05,
          "phone": "y_I"
        },
        {
          "duration": 0.05,
          "phone": "uw_I"
        },
        {
          "duration": 0.02,
          "phone": "m_I"
        },
        {
          "duration": 0.07,
          "phone": "ah_I"
        },
        {
          "duration": 0.09,
          "phone": "n_E"
        }
      ],
      "start": 11.73,
      "startOffset": 201,
      "word": "HUMAN"
    },
    {
      "alignedWord": "body",
      "case": "success",
      "end": 12.47,
      "endOffset": 211,
      "phones": [
        {
          "duration": 0.07,
          "phone": "b_B"
        },
        {
          "duration": 0.11,
          "phone": "aa_I"
        },
        {
          "duration": 0.06,
          "phone": "d_I"
        },
        {
          "duration": 0.14,
          "phone": "iy_E"
        }
      ],
      "start": 12.09,
      "startOffset": 207,
      "word": "BODY"
    }
  ]
}