{
  "transcript": "FOR AFTER THESE THINGS IT IS NOT NECESSARY FOR ME TO SAY ANYTHING MORE WITH A VIEW TO EXPLAIN THE MOTION OF THE HEART EXCEPT THAT WHEN ITS CAVITIES ARE NOT FULL OF BLOOD",
  "words": [
    {
      "alignedWord": "for",
      "case": "success",
      "end": 1.06,
      "endOffset": 3,
      "phones": [
        {
          "duration": 0.24,
          "phone": "f_B"
        },
        {
          "duration": 0.15,
          "phone": "ao_I"
        },
        {
          "duration": 0.13,
          "phone": "r_E"
        }
      ],
      "start": 0.54,
      "startOffset": 0,
      "word": "FOR"
    },
    {
      "alignedWord": "after",
      "case": "success",
      "end": 1.6400000000000001,
      "endOffset": 9,
      "phones": [
        {
          "duration": 0.15,
          "phone": "ae_B"
        },
        {
          "duration": 0.08,
          "phone": "f_I"
        },
        {
          "duration": 0.07,
          "phone": "t_I"
        },
        {
          "duration": 0.07,
          "phone": "er_E"
        }
      ],
      "start": 1.27,
      "startOffset": 4,
      "word": "AFTER"
    },
    {
      "alignedWord": "these",
      "case": "success",
      "end": 1.9,
      "endOffset": 15,
      "phones": [
        {
          "duration": 0.07,
          "phone": "dh_B"
        },
        {
          "duration": 0.09,
          "phone": "iy_I"
        },
        {
          "duration": 0.1,
          "phone": "z_E"
        }
      ],
      "start": 1.64,
      "startOffset": 10,
      "word": "THESE"
    },
    {
      "alignedWord": "things",
      "case": "success",
      "end": 2.33,
      "endOffset": 22,
      "phones": [
        {
          "duration": 0.09,
          "phone": "th_B"
        },
        {
          "duration": 0.09,
          "phone": "ih_I"
        },
        {
          "duration": 0.1,
          "phone": "ng_I"
        },
        {
          "duration": 0.14,
          "phone": "z_E"
        }
      ],
      "start": 1.91,
      "startOffset": 16,
      "word": "THINGS"
    },
    {
      "alignedWord": "it",
      "case": "success",
      "end": 2.81,
      "endOffset": 25,
      "phones": [
        {
          "duration": 0.08,
          "phone": "ih_B"
        },
        {
          "duration": 0.05,
          "phone": "t_E"
        }
      ],
      "start": 2.68,
      "startOffset": 23,
      "word": "IT"
    },
    {
      "alignedWord": "is",
      "case": "success",
      "end": 2.96,
      "endOffset": 28,
      "phones": [
        {
          "duration": 0.07,
          "phone": "ih_B"
        },
        {
          "duration": 0.08,
          "phone": "z_E"
        }
      ],
      "start": 2.81,
      "startOffset": 26,
      "word": "IS"
    },
    {
      "alignedWord": "not",
      "case": "success",
      "end": 3.2,
      "endOffset": 32,
      "phones": [
        {
          "duration": 0.05,
          "phone": "n_B"
        },
        {
          "duration": 0.12,
          "phone": "aa_I"
        },
        {
          "duration": 0.07,
          "phone": "t_E"
        }
      ],
      "start": 2.96,
      "startOffset": 29,
      "word": "NOT"
    },
    {
      "alignedWord": "necessary",
      "case": "success",
      "end": 3.81,
      "endOffset": 42,
      "phones": [
        {
          "duration": 0.06,
          "phone": "n_B"
        },
        {
          "duration": 0.06,
          "phone": "eh_I"
        },
        {
          "duration": 0.09,
          "phone": "s_I"
        },
        {
          "duration": 0.07,
          "phone": "ah_I"
        },
        {
          "duration": 0.09,
          "phone": "s_I"
        },
        {
          "duration": 0.07,
          "phone": "eh_I"
        },
        {
          "duration": 0.08,
          "phone": "r_I"
        },
        {
          "duration": 0.09,
          "phone": "iy_E"
        }
      ],
      "start": 3.2,
      "startOffset": 33,
      "word": "NECESSARY"
    },
    {
      "alignedWord": "for",
      "case": "success",
      "end": 4.02,
      "endOffset": 46,
      "phones": [
        {
          "duration": 0.09,
          "phone": "f_B"
        },
        {
          "duration": 0.05,
          "phone": "ao_I"
        },
        {
          "duration": 0.06,
          "phone": "r_E"
        }
      ],
      "start": 3.82,
      "startOffset": 43,
      "word": "FOR"
    },
    {
      "alignedWord": "me",
      "case": "success",
      "end": 4.14,
      "endOffset": 49,
      "phones": [
        {
          "duration": 0.06,
          "phone": "m_B"
        },
        {
          "duration": 0.06,
          "phone": "iy_E"
        }
      ],
      "start": 4.02,
      "startOffset": 47,
      "word": "ME"
    },
    {
      "alignedWord": "to",
      "case": "success",
      "end": 4.279999999999999,
      "endOffset": 52,
      "phones": [
        {
          "duration": 0.07,
          "phone": "t_B"
        },
        {
          "duration": 0.07,
          "phone": "ih_E"
        }
      ],
      "start": 4.14,
      "startOffset": 50,
      "word": "TO"
    },
    {
      "alignedWord": "say",
      "case": "success",
      "end": 4.5,
      "endOffset": 56,
      "phones": [
        {
          "duration": 0.1,
          "phone": "s_B"
        },
        {
          "duration": 0.12,
          "phone": "ey_E"
        }
      ],
      "start": 4.28,
      "startOffset": 53,
      "word": "SAY"
    },
    {
      "alignedWord": "anything",
      "case": "success",
      "end": 4.99,
      "endOffset": 65,
      "phones": [
        {
          "duration": 0.09,
          "phone": "eh_B"
        },
        {
          "duration": 0.07,
          "phone": "n_I"
        },
        {
          "duration": 0.07,
          "phone": "iy_I"
        },
        {
          "duration": 0.06,
          "phone": "th_I"
        },
        {
          "duration": 0.08,
          "phone": "ih_I"
        },
        {
          "duration": 0.09,
          "phone": "ng_E"
        }
      ],
      "start": 4.53,
      "startOffset": 57,
      "word": "ANYTHING"
    },
    {
      "alignedWord": "more",
      "case": "success",
      "end": 5.32,
      "endOffset": 70,
      "phones": [
        {
          "duration": 0.06,
          "phone": "m_B"
        },
        {
          "duration": 0.12,
          "phone": "ao_I"
        },
        {
          "duration": 0.15,
          "phone": "r_E"
        }
      ],
      "start": 4.99,
      "startOffset": 66,
      "word": "MORE"
    },
    {
      "alignedWord": "with",
      "case": "success",
      "end": 5.53,
      "endOffset": 75,
      "phones": [
        {
          "duration": 0.09,
          "phone": "w_B"
        },
        {
          "duration": 0.03,
          "phone": "ih_I"
        },
        {
          "duration": 0.08,
          "phone": "th_E"
        }
      ],
      "start": 5.33,
      "startOffset": 71,
      "word": "WITH"
    },
    {
      "alignedWord": "a",
      "case": "success",
      "end": 5.61,
      "endOffset": 77,
      "phones": [
        {
          "duration": 0.07,
          "phone": "ah_S"
        }
      ],
      "start": 5.54,
      "startOffset": 76,
      "word": "A"
    },
    {
      "alignedWord": "view",
      "case": "success",
      "end": 5.840000000000001,
      "endOffset": 82,
      "phones": [
        {
          "duration": 0.06,
          "phone": "v_B"
        },
        {
          "duration": 0.08,
          "phone": "y_I"
        },
        {
          "duration": 0.09,
          "phone": "uw_E"
        }
      ],
      "start": 5.61,
      "startOffset": 78,
      "word": "VIEW"
    },
    {
      "alignedWord": "to",
      "case": "success",
      "end": 5.97,
      "endOffset": 85,
      "phones": [
        {
          "duration": 0.08,
          "phone": "t_B"
        },
        {
          "duration": 0.05,
          "phone": "uw_E"
        }
      ],
      "start": 5.84,
      "startOffset": 83,
      "word": "TO"
    },
    {
      "alignedWord": "explain",
      "case": "success",
      "end": 6.42,
      "endOffset": 93,
      "phones": [
        {
          "duration": 0.05,
          "phone": "ih_B"
        },
        {
          "duration": 0.05,
          "phone": "k_I"
        },
        {
          "duration": 0.06,
          "phone": "s_I"
        },
        {
          "duration": 0.09,
          "phone": "p_I"
        },
        {
          "duration": 0.06,
          "phone": "l_I"
        },
        {
          "duration": 0.09,
          "phone": "ey_I"
        },
        {
          "duration": 0.05,
          "phone": "n_E"
        }
      ],
      "start": 5.97,
      "startOffset": 86,
      "word": "EXPLAIN"
    },
    {
      "alignedWord": "the",
      "case": "success",
      "end": 6.51,
      "endOffset": 97,
      "phones": [
        {
          "duration": 0.04,
          "phone": "dh_B"
        },
        {
          "duration": 0.05,
          "phone": "ah_E"
        }
      ],
      "start": 6.42,
      "startOffset": 94,
      "word": "THE"
    },
    {
      "alignedWord": "motion",
      "case": "success",
      "end": 6.8999999999999995,
      "endOffset": 104,
      "phones": [
        {
          "duration": 0.08,
          "phone": "m_B"
        },
        {
          "duration": 0.13,
          "phone": "ow_I"
        },
        {
          "duration": 0.11,
          "phone": "sh_I"
        },
        {
          "duration": 0.04,
          "phone": "ah_I"
        },
        {
          "duration": 0.03,
          "phone": "n_E"
        }
      ],
      "start": 6.51,
      "startOffset": 98,
      "word": "MOTION"
    },
    {
      "alignedWord": "of",
      "case": "success",
      "end": 7.0200000000000005,
      "endOffset": 107,
      "phones": [
        {
          "duration": 0.05,
          "phone": "ah_B"
        },
        {
          "duration": 0.07,
          "phone": "v_E"
        }
      ],
      "start": 6.9,
      "startOffset": 105,
      "word": "OF"
    },
    {
      "alignedWord": "the",
      "case": "success",
      "end": 7.1,
      "endOffset": 111,
      "phones": [
        {
          "duration": 0.02,
          "phone": "dh_B"
        },
        {
          "duration": 0.06,
          "phone": "ah_E"
        }
      ],
      "start": 7.02,
      "startOffset": 108,
      "word": "THE"
    },
    {
      "alignedWord": "heart",
      "case": "success",
      "end": 7.46,
      "endOffset": 117,
      "phones": [
        {
          "duration": 0.07,
          "phone": "hh_B"
        },
        {
          "duration": 0.09,
          "phone": "aa_I"
        },
        {
          "duration": 0.06,
          "phone": "r_I"
        },
        {
          "duration": 0.14,
          "phone": "t_E"
        }
      ],
      "start": 7.1,
      "startOffset": 112,
      "word": "HEART"
    },
    {
      "alignedWord": "except",
      "case": "success",
      "end": 8.6,
      "endOffset": 124,
      "phones": [
        {
          "duration": 0.11,
          "phone": "ih_B"
        },
        {
          "duration": 0.09,
          "phone": "k_I"
        },
        {
          "duration": 0.11,
          "phone": "s_I"
        },
        {
          "duration": 0.09,
          "phone": "eh_I"
        },
        {
          "duration": 0.07,
          "phone": "p_I"
        },
        {
          "duration": 0.1,
          "phone": "t_E"
        }
      ],
      "start": 8.03,
      "startOffset": 118,
      "word": "EXCEPT"
    },
    {
      "alignedWord": "that",
      "case": "success",
      "end": 9.039999,
      "endOffset": 129,
      "phones": [
        {
          "duration": 0.1,
          "phone": "dh_B"
        },
        {
          "duration": 0.04,
          "phone": "ah_I"
        },
        {
          "duration": 0.05,
          "phone": "t_E"
        }
      ],
      "start": 8.849999,
      "startOffset": 125,
      "word": "THAT"
    },
    {
      "alignedWord": "when",
      "case": "success",
      "end": 9.370000000000001,
      "endOffset": 134,
      "phones": [
        {
          "duration": 0.13,
          "phone": "w_B"
        },
        {
          "duration": 0.08,
          "phone": "eh_I"
        },
        {
          "duration": 0.11,
          "phone": "n_E"
        }
      ],
      "start": 9.05,
      "startOffset": 130,
      "word": "WHEN"
    },
    {
      "alignedWord": "its",
      "case": "success",
      "end": 9.619999,
      "endOffset": 138,
      "phones": [
        {
          "duration": 0.09,
          "phone": "ih_B"
        },
        {
          "duration": 0.07,
          "phone": "t_I"
        },
        {
          "duration": 0.07,
          "phone": "s_E"
        }
      ],
      "start": 9.389999,
      "startOffset": 135,
      "word": "ITS"
    },
    {
      "alignedWord": "cavities",
      "case": "success",
      "end": 10.17,
      "endOffset": 147,
      "phones": [
        {
          "duration": 0.13,
          "phone": "k_B"
        },
        {
          "duration": 0.08,
          "phone": "ae_I"
        },
        {
          "duration": 0.06,
          "phone": "v_I"
        },
        {
          "duration": 0.05,
          "phone": "ih_I"
        },
        {
          "duration": 0.04,
          "phone": "t_I"
        },
        {
          "duration": 0.08,
          "phone": "iy_I"
        },
        {
          "duration": 0.11,
          "phone": "z_E"
        }
      ],
      "start": 9.62,
      "startOffset": 139,
      "word": "CAVITIES"
    },
    {
      "alignedWord": "are",
      "case": "success",
      "end": 10.35,
      "endOffset": 151,
      "phones": [
        {
          "duration": 0.11,
          "phone": "er_S"
        }
      ],
      "start": 10.24,
      "startOffset": 148,
      "word": "ARE"
    },
    {
      "alignedWord": "not",
      "case": "success",
      "end": 10.669999,
      "endOffset": 155,
      "phones": [
        {
          "duration": 0.11,
          "phone": "n_B"
        },
        {
          "duration": 0.13,
          "phone": "aa_I"
        },
        {
          "duration": 0.08,
          "phone": "t_E"
        }
      ],
      "start": 10.349999,
      "startOffset": 152,
      "word": "NOT"
    },
    {
      "alignedWord": "full",
      "case": "success",
      "end": 10.87,
      "endOffset": 160,
      "phones": [
        {
          "duration": 0.07,
          "phone": "f_B"
        },
        {
          "duration": 0.08,
          "phone": "uh_I"
        },
        {
          "duration": 0.05,
          "phone": "l_E"
        }
      ],
      "start": 10.67,
      "startOffset": 156,
      "word": "FULL"
    },
    {
      "alignedWord": "of",
      "case": "success",
      "end": 10.979999999999999,
      "endOffset": 163,
      "phones": [
        {
          "duration": 0.04,
          "phone": "ah_B"
        },
        {
          "duration": 0.07,
          "phone": "v_E"
        }
      ],
      "start": 10.87,
      "startOffset": 161,
      "word": "OF"
    },
    {
      "alignedWord": "blood",
      "case": "success",
      "end": 11.3,
      "endOffset": 169,
      "phones": [
        {
          "duration": 0.06,
          "phone": "b_B"
        },
        {
          "duration": 0.1,
          "phone": "l_I"
        },
        {
          "duration": 0.05,
          "phone": "ah_I"
        },
        {
          "duration": 0.11,
          "phone": "d_E"
        }
      ],
      "start": 10.98,
      "startOffset": 164,
      "word": "BLOOD"
    }
  ]
}