{
  "transcript": "AND OF HAVING BEEN THE FIRST TO TEACH THAT THERE ARE MANY SMALL PASSAGES AT THE EXTREMITIES OF THE ARTERIES THROUGH WHICH THE BLOOD RECEIVED BY THEM FROM THE HEART PASSES INTO THE SMALL BRANCHES OF THE VEINS",
  "words": [
    {
      "alignedWord": "and",
      "case": "success",
      "end": 0.34,
      "endOffset": 3,
      "phones": [
        {
          "duration": 0.05,
          "phone": "ae_B"
        },
        {
          "duration": 0.05,
          "phone": "n_I"
        },
        {
          "duration": 0.01,
          "phone": "d_E"
        }
      ],
      "start": 0.23,
      "startOffset": 0,
      "word": "AND"
    },
    {
      "alignedWord": "of",
      "case": "success",
      "end": 0.45,
      "endOffset": 6,
      "phones": [
        {
          "duration": 0.04,
          "phone": "ah_B"
        },
        {
          "duration": 0.07,
          "phone": "v_E"
        }
      ],
      "start": 0.34,
      "startOffset": 4,
      "word": "OF"
    },
    {
      "alignedWord": "having",
      "case": "success",
      "end": 0.71,
      "endOffset": 13,
      "phones": [
        {
          "duration": 0.04,
          "phone": "hh_B"
        },
        {
          "duration": 0.05,
          "phone": "ae_I"
        },
        {
          "duration": 0.04,
          "phone": "v_I"
        },
        {
          "duration": 0.06,
          "phone": "ih_I"
        },
        {
          "duration": 0.07,
          "phone": "ng_E"
        }
      ],
      "start": 0.45,
      "startOffset": 7,
      "word": "HAVING"
    },
    {
      "alignedWord": "been",
      "case": "success",
      "end": 0.85,
      "endOffset": 18,
      "phones": [
        {
          "duration": 0.04,
          "phone": "b_B"
        },
        {
          "duration": 0.06,
          "phone": "ih_I"
        },
        {
          "duration": 0.04,
          "phone": "n_E"
        }
      ],
      "start": 0.71,
      "startOffset": 14,
      "word": "BEEN"
    },
    {
      "alignedWord": "the",
      "case": "success",
      "end": 0.95,
      "endOffset": 22,
      "phones": [
        {
          "duration": 0.05,
          "phone": "dh_B"
        },
        {
          "duration": 0.05,
          "phone": "ah_E"
        }
      ],
      "start": 0.85,
      "startOffset": 19,
      "word": "THE"
    },
    {
      "alignedWord": "first",
      "case": "success",
      "end": 1.2999999999999998,
      "endOffset": 28,
      "phones": [
        {
          "duration": 0.12,
          "phone": "f_B"
        },
        {
          "duration": 0.11,
          "phone": "er_I"
        },
        {
          "duration": 0.09,
          "phone": "s_I"
        },
        {
          "duration": 0.03,
          "phone": "t_E"
        }
      ],
      "start": 0.95,
      "startOffset": 23,
      "word": "FIRST"
    },
    {
      "alignedWord": "to",
      "case": "success",
      "end": 1.44,
      "endOffset": 31,
      "phones": [
        {
          "duration": 0.06,
          "phone": "t_B"
        },
        {
          "duration": 0.07,
          "phone": "ih_E"
        }
      ],
      "start": 1.31,
      "startOffset": 29,
      "word": "TO"
    },
    {
      "alignedWord": "teach",
      "case": "success",
      "end": 1.89,
      "endOffset": 37,
      "phones": [
        {
          "duration": 0.14,
          "phone": "t_B"
        },
        {
          "duration": 0.11,
          "phone": "iy_I"
        },
        {
          "duration": 0.2,
          "phone": "ch_E"
        }
      ],
      "start": 1.44,
      "startOffset": 32,
      "word": "TEACH"
    },
    {
      "alignedWord": "that",
      "case": "success",
      "end": 2.27,
      "endOffset": 42,
      "phones": [
        {
          "duration": 0.08,
          "phone": "dh_B"
        },
        {
          "duration": 0.04,
          "phone": "ah_I"
        },
        {
          "duration": 0.06,
          "phone": "t_E"
        }
      ],
      "start": 2.09,
      "startOffset": 38,
      "word": "THAT"
    },
    {
      "alignedWord": "there",
      "case": "success",
      "end": 2.4,
      "endOffset": 48,
      "phones": [
        {
          "duration": 0.03,
          "phone": "dh_B"
        },
        {
          "duration": 0.05,
          "phone": "eh_I"
        },
        {
          "duration": 0.05,
          "phone": "r_E"
        }
      ],
      "start": 2.27,
      "startOffset": 43,
      "word": "THERE"
    },
    {
      "alignedWord": "are",
      "case": "success",
      "end": 2.54,
      "endOffset": 52,
      "phones": [
        {
          "duration": 0.07,
          "phone": "aa_B"
        },
        {
          "duration": 0.07,
          "phone": "r_E"
        }
      ],
      "start": 2.4,
      "startOffset": 49,
      "word": "ARE"
    },
    {
      "alignedWord": "many",
      "case": "success",
      "end": 2.85,
      "endOffset": 57,
      "phones": [
        {
          "duration": 0.09,
          "phone": "m_B"
        },
        {
          "duration": 0.06,
          "phone": "eh_I"
        },
        {
          "duration": 0.05,
          "phone": "n_I"
        },
        {
          "duration": 0.11,
          "phone": "iy_E"
        }
      ],
      "start": 2.54,
      "startOffset": 53,
      "word": "MANY"
    },
    {
      "alignedWord": "small",
      "case": "success",
      "end": 3.17,
      "endOffset": 63,
      "phones": [
        {
          "duration": 0.14,
          "phone": "s_B"
        },
        {
          "duration": 0.05,
          "phone": "m_I"
        },
        {
          "duration": 0.08,
          "phone": "ao_I"
        },
        {
          "duration": 0.05,
          "phone": "l_E"
        }
      ],
      "start": 2.85,
      "startOffset": 58,
      "word": "SMALL"
    },
    {
      "alignedWord": "passages",
      "case": "success",
      "end": 3.82,
      "endOffset": 72,
      "phones": [
        {
          "duration": 0.11,
          "phone": "p_B"
        },
        {
          "duration": 0.12,
          "phone": "ae_I"
        },
        {
          "duration": 0.08,
          "phone": "s_I"
        },
        {
          "duration": 0.08,
          "phone": "ih_I"
        },
        {
          "duration": 0.06,
          "phone": "jh_I"
        },
        {
          "duration": 0.07,
          "phone": "ih_I"
        },
        {
          "duration": 0.13,
          "phone": "z_E"
        }
      ],
      "start": 3.17,
      "startOffset": 64,
      "word": "PASSAGES"
    },
    {
      "alignedWord": "at",
      "case": "success",
      "end": 4.01,
      "endOffset": 75,
      "phones": [
        {
          "duration": 0.09,
          "phone": "ae_B"
        },
        {
          "duration": 0.07,
          "phone": "t_E"
        }
      ],
      "start": 3.85,
      "startOffset": 73,
      "word": "AT"
    },
    {
      "alignedWord": "the",
      "case": "success",
      "end": 4.109999999999999,
      "endOffset": 79,
      "phones": [
        {
          "duration": 0.06,
          "phone": "dh_B"
        },
        {
          "duration": 0.04,
          "phone": "iy_E"
        }
      ],
      "start": 4.01,
      "startOffset": 76,
      "word": "THE"
    },
    {
      "alignedWord": "extremities",
      "case": "success",
      "end": 4.79,
      "endOffset": 91,
      "phones": [
        {
          "duration": 0.05,
          "phone": "eh_B"
        },
        {
          "duration": 0.08,
          "phone": "k_I"
        },
        {
          "duration": 0.01,
          "phone": "s_I"
        },
        {
          "duration": 0.09,
          "phone": "t_I"
        },
        {
          "duration": 0.05,
          "phone": "r_I"
        },
        {
          "duration": 0.06,
          "phone": "eh_I"
        },
        {
          "duration": 0.04,
          "phone": "m_I"
        },
        {
          "duration": 0.05,
          "phone": "ah_I"
        },
        {
          "duration": 0.04,
          "phone": "t_I"
        },
        {
          "duration": 0.1,
          "phone": "iy_I"
        },
        {
          "duration": 0.11,
          "phone": "z_E"
        }
      ],
      "start": 4.11,
      "startOffset": 80,
      "word": "EXTREMITIES"
    },
    {
      "alignedWord": "of",
      "case": "success",
      "end": 4.970000000000001,
      "endOffset": 94,
      "phones": [
        {
          "duration": 0.08,
          "phone": "ah_B"
        },
        {
          "duration": 0.07,
          "phone": "v_E"
        }
      ],
      "start": 4.82,
      "startOffset": 92,
      "word": "OF"
    },
    {
      "alignedWord": "the",
      "case": "success",
      "end": 5.069999999999999,
      "endOffset": 98,
      "phones": [
        {
          "duration": 0.03,
          "phone": "dh_B"
        },
        {
          "duration": 0.07,
          "phone": "iy_E"
        }
      ],
      "start": 4.97,
      "startOffset": 95,
      "word": "THE"
    },
    {
      "alignedWord": "arteries",
      "case": "success",
      "end": 5.640000000000001,
      "endOffset": 107,
      "phones": [
        {
          "duration": 0.08,
          "phone": "aa_B"
        },
        {
          "duration": 0.06,
          "phone": "r_I"
        },
        {
          "duration": 0.06,
          "phone": "t_I"
        },
        {
          "duration": 0.11,
          "phone": "er_I"
        },
        {
          "duration": 0.08,
          "phone": "iy_I"
        },
        {
          "duration": 0.17,
          "phone": "z_E"
        }
      ],
      "start": 5.08,
      "startOffset": 99,
      "word": "ARTERIES"
    },
    {
      "alignedWord": "through",
      "case": "success",
      "end": 6.18,
      "endOffset": 115,
      "phones": [
        {
          "duration": 0.09,
          "phone": "th_B"
        },
        {
          "duration": 0.05,
          "phone": "r_I"
        },
        {
          "duration": 0.04,
          "phone": "uw_E"
        }
      ],
      "start": 6.0,
      "startOffset": 108,
      "word": "THROUGH"
    },
    {
      "alignedWord": "which",
      "case": "success",
      "end": 6.3999999999999995,
      "endOffset": 121,
      "phones": [
        {
          "duration": 0.05,
          "phone": "w_B"
        },
        {
          "duration": 0.06,
          "phone": "ih_I"
        },
        {
          "duration": 0.11,
          "phone": "ch_E"
        }
      ],
      "start": 6.18,
      "startOffset": 116,
      "word": "WHICH"
    },
    {
      "alignedWord": "the",
      "case": "success",
      "end": 6.5,
      "endOffset": 125,
      "phones": [
        {
          "duration": 0.05,
          "phone": "dh_B"
        },
        {
          "duration": 0.05,
          "phone": "ah_E"
        }
      ],
      "start": 6.4,
      "startOffset": 122,
      "word": "THE"
    },
    {
      "alignedWord": "blood",
      "case": "success",
      "end": 6.9,
      "endOffset": 131,
      "phones": [
        {
          "duration": 0.09,
          "phone": "b_B"
        },
        {
          "duration": 0.1,
          "phone": "l_I"
        },
        {
          "duration": 0.05,
          "phone": "ah_I"
        },
        {
          "duration": 0.16,
          "phone": "d_E"
        }
      ],
      "start": 6.5,
      "startOffset": 126,
      "word": "BLOOD"
    },
    {
      "alignedWord": "received",
      "case": "success",
      "end": 7.51,
      "endOffset": 140,
      "phones": [
        {
          "duration": 0.09,
          "phone": "r_B"
        },
        {
          "duration": 0.06,
          "phone": "iy_I"
        },
        {
          "duration": 0.12,
          "phone": "s_I"
        },
        {
          "duration": 0.08,
          "phone": "iy_I"
        },
        {
          "duration": 0.06,
          "phone": "v_I"
        },
        {
          "duration": 0.06,
          "phone": "d_E"
        }
      ],
      "start": 7.04,
      "startOffset": 132,
      "word": "RECEIVED"
    },
    {
      "alignedWord": "by",
      "case": "success",
      "end": 7.7,
      "endOffset": 143,
      "phones": [
        {
          "duration": 0.07,
          "phone": "b_B"
        },
        {
          "duration": 0.1,
          "phone": "ay_E"
        }
      ],
      "start": 7.53,
      "startOffset": 141,
      "word": "BY"
    },
    {
      "alignedWord": "them",
      "case": "success",
      "end": 7.970000000000001,
      "endOffset": 148,
      "phones": [
        {
          "duration": 0.06,
          "phone": "dh_B"
        },
        {
          "duration": 0.09,
          "phone": "eh_I"
        },
        {
          "duration": 0.12,
          "phone": "m_E"
        }
      ],
      "start": 7.7,
      "startOffset": 144,
      "word": "THEM"
    },
    {
      "alignedWord": "from",
      "case": "success",
      "end": 8.23,
      "endOffset": 153,
      "phones": [
        {
          "duration": 0.11,
          "phone": "f_B"
        },
        {
          "duration": 0.05,
          "phone": "r_I"
        },
        {
          "duration": 0.03,
          "phone": "ah_I"
        },
        {
          "duration": 0.06,
          "phone": "m_E"
        }
      ],
      "start": 7.98,
      "startOffset": 149,
      "word": "FROM"
    },
    {
      "alignedWord": "the",
      "case": "success",
      "end": 8.32,
      "endOffset": 157,
      "phones": [
        {
          "duration": 0.05,
          "phone": "dh_B"
        },
        {
          "duration": 0.04,
          "phone": "ah_E"
        }
      ],
      "start": 8.23,
      "startOffset": 154,
      "word": "THE"
    },
    {
      "alignedWord": "heart",
      "case": "success",
      "end": 8.620000000000001,
      "endOffset": 163,
      "phones": [
        {
          "duration": 0.05,
          "phone": "hh_B"
        },
        {
          "duration": 0.06,
          "phone": "aa_I"
        },
        {
          "duration": 0.05,
          "phone": "r_I"
        },
        {
          "duration": 0.14,
          "phone": "t_E"
        }
      ],
      "start": 8.32,
      "startOffset": 158,
      "word": "HEART"
    },
    {
      "alignedWord": "passes",
      "case": "success",
      "end": 9.26,
      "endOffset": 170,
      "phones": [
        {
          "duration": 0.11,
          "phone": "p_B"
        },
        {
          "duration": 0.14,
          "phone": "ae_I"
        },
        {
          "duration": 0.09,
          "phone": "s_I"
        },
        {
          "duration": 0.06,
          "phone": "ih_I"
        },
        {
          "duration": 0.1,
          "phone": "z_E"
        }
      ],
      "start": 8.76,
      "startOffset": 164,
      "word": "PASSES"
    },
    {
      "alignedWord": "into",
      "case": "success",
      "end": 9.5,
      "endOffset": 175,
      "phones": [
        {
          "duration": 0.09,
          "phone": "ih_B"
        },
        {
          "duration": 0.06,
          "phone": "n_I"
        },
        {
          "duration": 0.02,
          "phone": "t_I"
        },
        {
          "duration": 0.05,
          "phone": "uw_E"
        }
      ],
      "start": 9.28,
      "startOffset": 171,
      "word": "INTO"
    },
    {
      "alignedWord": "the",
      "case": "success",
      "end": 9.59,
      "endOffset": 179,
      "phones": [
        {
          "duration": 0.05,
          "phone": "dh_B"
        },
        {
          "duration": 0.04,
          "phone": "ah_E"
        }
      ],
      "start": 9.5,
      "startOffset": 176,
      "word": "THE"
    },
    {
      "alignedWord": "small",
      "case": "success",
      "end": 9.92,
      "endOffset": 185,
      "phones": [
        {
          "duration": 0.12,
          "phone": "s_B"
        },
        {
          "duration": 0.06,
          "phone": "m_I"
        },
        {
          "duration": 0.08,
          "phone": "ao_I"
        },
        {
          "duration": 0.07,
          "phone": "l_E"
        }
      ],
      "start": 9.59,
      "startOffset": 180,
      "word": "SMALL"
    },
    {
      "alignedWord": "branches",
      "case": "success",
      "end": 10.33,
      "endOffset": 194,
      "phones": [
        {
          "duration": 0.07,
          "phone": "b_B"
        },
        {
          "duration": 0.06,
          "phone": "r_I"
        },
        {
          "duration": 0.07,
          "phone": "ae_I"
        },
        {
          "duration": 0.06,
          "phone": "n_I"
        },
        {
          "duration": 0.06,
          "phone": "ch_I"
        },
        {
          "duration": 0.04,
          "phone": "ih_I"
        },
        {
          "duration": 0.05,
          "phone": "z_E"
        }
      ],
      "start": 9.92,
      "startOffset": 186,
      "word": "BRANCHES"
    },
    {
      "alignedWord": "of",
      "case": "success",
      "end": 10.46,
      "endOffset": 197,
      "phones": [
        {
          "duration": 0.05,
          "phone": "ah_B"
        },
        {
          "duration": 0.08,
          "phone": "v_E"
        }
      ],
      "start": 10.33,
      "startOffset": 195,
      "word": "OF"
    },
    {
      "alignedWord": "the",
      "case": "success",
      "end": 10.530000000000001,
      "endOffset": 201,
      "phones": [
        {
          "duration": 0.01,
          "phone": "dh_B"
        },
        {
          "duration": 0.06,
          "phone": "ah_E"
        }
      ],
      "start": 10.46,
      "startOffset": 198,
      "word": "THE"
    },
    {
      "alignedWord": "veins",
      "case": "success",
      "end": 10.94,
      "endOffset": 207,
      "phones": [
        {
          "duration": 0.08,
          "phone": "v_B"
        },
        {
          "duration": 0.11,
          "phone": "ey_I"
        },
        {
          "duration": 0.08,
          "phone": "n_I"
        },
        {
          "duration": 0.13,
          "phone": "z_E"
        }
      ],
      "start": 10.54,
      "startOffset": 202,
      "word": "VEINS"
    }
  ]
}