{
  "transcript": "AND OF WHICH HE HAS IMPRESSED ON OUR MINDS SUCH NOTIONS THAT AFTER WE HAVE REFLECTED SUFFICIENTLY UPON THESE WE CANNOT DOUBT THAT THEY ARE ACCURATELY OBSERVED IN ALL THAT EXISTS OR TAKES PLACE IN THE WORLD AND FARTHER BY CONSIDERING",
  "words": [
    {
      "alignedWord": "and",
      "case": "success",
      "end": 0.28,
      "endOffset": 3,
      "phones": [
        {
          "duration": 0.07,
          "phone": "ae_B"
        },
        {
          "duration": 0.04,
          "phone": "n_I"
        },
        {
          "duration": 0.01,
          "phone": "d_E"
        }
      ],
      "start": 0.16,
      "startOffset": 0,
      "word": "AND"
    },
    {
      "alignedWord": "of",
      "case": "success",
      "end": 0.41000000000000003,
      "endOffset": 6,
      "phones": [
        {
          "duration": 0.05,
          "phone": "ah_B"
        },
        {
          "duration": 0.08,
          "phone": "v_E"
        }
      ],
      "start": 0.28,
      "startOffset": 4,
      "word": "OF"
    },
    {
      "alignedWord": "which",
      "case": "success",
      "end": 0.61,
      "endOffset": 12,
      "phones": [
        {
          "duration": 0.03,
          "phone": "w_B"
        },
        {
          "duration": 0.06,
          "phone": "ih_I"
        },
        {
          "duration": 0.11,
          "phone": "ch_E"
        }
      ],
      "start": 0.41,
      "startOffset": 7,
      "word": "WHICH"
    },
    {
      "alignedWord": "he",
      "case": "success",
      "end": 0.73,
      "endOffset": 15,
      "phones": [
        {
          "duration": 0.05,
          "phone": "hh_B"
        },
        {
          "duration": 0.07,
          "phone": "iy_E"
        }
      ],
      "start": 0.61,
      "startOffset": 13,
      "word": "HE"
    },
    {
      "alignedWord": "has",
      "case": "success",
      "end": 0.94,
      "endOffset": 19,
      "phones": [
        {
          "duration": 0.05,
          "phone": "hh_B"
        },
        {
          "duration": 0.1,
          "phone": "ae_I"
        },
        {
          "duration": 0.06,
          "phone": "z_E"
        }
      ],
      "start": 0.73,
      "startOffset": 16,
      "word": "HAS"
    },
    {
      "alignedWord": "impressed",
      "case": "success",
      "end": 1.52,
      "endOffset": 29,
      "phones": [
        {
          "duration": 0.08,
          "phone": "ih_B"
        },
        {
          "duration": 0.06,
          "phone": "m_I"
        },
        {
          "duration": 0.11,
          "phone": "p_I"
        },
        {
          "duration": 0.07,
          "phone": "r_I"
        },
        {
          "duration": 0.08,
          "phone": "eh_I"
        },
        {
          "duration": 0.11,
          "phone": "s_I"
        },
        {
          "duration": 0.07,
          "phone": "t_E"
        }
      ],
      "start": 0.94,
      "startOffset": 20,
      "word": "IMPRESSED"
    },
    {
      "alignedWord": "on",
      "case": "success",
      "end": 1.79,
      "endOffset": 32,
      "phones": [
        {
          "duration": 0.14,
          "phone": "aa_B"
        },
        {
          "duration": 0.07,
          "phone": "n_E"
        }
      ],
      "start": 1.58,
      "startOffset": 30,
      "word": "ON"
    },
    {
      "alignedWord": "our",
      "case": "success",
      "end": 1.9000000000000001,
      "endOffset": 36,
      "phones": [
        {
          "duration": 0.05,
          "phone": "aa_B"
        },
        {
          "duration": 0.06,
          "phone": "r_E"
        }
      ],
      "start": 1.79,
      "startOffset": 33,
      "word": "OUR"
    },
    {
      "alignedWord": "minds",
      "case": "success",
      "end": 2.26,
      "endOffset": 42,
      "phones": [
        {
          "duration": 0.09,
          "phone": "m_B"
        },
        {
          "duration": 0.13,
          "phone": "ay_I"
        },
        {
          "duration": 0.06,
          "phone": "n_I"
        },
        {
          "duration": 0.02,
          "phone": "d_I"
        },
        {
          "duration": 0.06,
          "phone": "z_E"
        }
      ],
      "start": 1.9,
      "startOffset": 37,
      "word": "MINDS"
    },
    {
      "alignedWord": "such",
      "case": "success",
      "end": 2.6799999999999997,
      "endOffset": 47,
      "phones": [
        {
          "duration": 0.14,
          "phone": "s_B"
        },
        {
          "duration": 0.09,
          "phone": "ah_I"
        },
        {
          "duration": 0.11,
          "phone": "ch_E"
        }
      ],
      "start": 2.34,
      "startOffset": 43,
      "word": "SUCH"
    },
    {
      "alignedWord": "notions",
      "case": "success",
      "end": 3.27,
      "endOffset": 55,
      "phones": [
        {
          "duration": 0.09,
          "phone": "n_B"
        },
        {
          "duration": 0.11,
          "phone": "ow_I"
        },
        {
          "duration": 0.1,
          "phone": "sh_I"
        },
        {
          "duration": 0.06,
          "phone": "ah_I"
        },
        {
          "duration": 0.06,
          "phone": "n_I"
        },
        {
          "duration": 0.17,
          "phone": "z_E"
        }
      ],
      "start": 2.68,
      "startOffset": 48,
      "word": "NOTIONS"
    },
    {
      "alignedWord": "that",
      "case": "success",
      "end": 3.8,
      "endOffset": 60,
      "phones": [
        {
          "duration": 0.1,
          "phone": "dh_B"
        },
        {
          "duration": 0.05,
          "phone": "ah_I"
        },
        {
          "duration": 0.04,
          "phone": "t_E"
        }
      ],
      "start": 3.61,
      "startOffset": 56,
      "word": "THAT"
    },
    {
      "alignedWord": "after",
      "case": "success",
      "end": 4.16,
      "endOffset": 66,
      "phones": [
        {
          "duration": 0.1,
          "phone": "ae_B"
        },
        {
          "duration": 0.09,
          "phone": "f_I"
        },
        {
          "duration": 0.1,
          "phone": "t_I"
        },
        {
          "duration": 0.07,
          "phone": "er_E"
        }
      ],
      "start": 3.8,
      "startOffset": 61,
      "word": "AFTER"
    },
    {
      "alignedWord": "we",
      "case": "success",
      "end": 4.33,
      "endOffset": 69,
      "phones": [
        {
          "duration": 0.08,
          "phone": "w_B"
        },
        {
          "duration": 0.09,
          "phone": "iy_E"
        }
      ],
      "start": 4.16,
      "startOffset": 67,
      "word": "WE"
    },
    {
      "alignedWord": "have",
      "case": "success",
      "end": 4.54,
      "endOffset": 74,
      "phones": [
        {
          "duration": 0.05,
          "phone": "hh_B"
        },
        {
          "duration": 0.07,
          "phone": "ae_I"
        },
        {
          "duration": 0.09,
          "phone": "v_E"
        }
      ],
      "start": 4.33,
      "startOffset": 70,
      "word": "HAVE"
    },
    {
      "alignedWord": "reflected",
      "case": "success",
      "end": 5.07,
      "endOffset": 84,
      "phones": [
        {
          "duration": 0.01,
          "phone": "r_B"
        },
        {
          "duration": 0.07,
          "phone": "ih_I"
        },
        {
          "duration": 0.1,
          "phone": "f_I"
        },
        {
          "duration": 0.05,
          "phone": "l_I"
        },
        {
          "duration": 0.06,
          "phone": "eh_I"
        },
        {
          "duration": 0.07,
          "phone": "k_I"
        },
        {
          "duration": 0.03,
          "phone": "t_I"
        },
        {
          "duration": 0.06,
          "phone": "ih_I"
        },
        {
          "duration": 0.08,
          "phone": "d_E"
        }
      ],
      "start": 4.54,
      "startOffset": 75,
      "word": "REFLECTED"
    },
    {
      "alignedWord": "sufficiently",
      "case": "success",
      "end": 5.8100000000000005,
      "endOffset": 97,
      "phones": [
        {
          "duration": 0.11,
          "phone": "s_B"
        },
        {
          "duration": 0.06,
          "phone": "ah_I"
        },
        {
          "duration": 0.12,
          "phone": "f_I"
        },
        {
          "duration": 0.07,
          "phone": "ih_I"
        },
        {
          "duration": 0.11,
          "phone": "sh_I"
        },
        {
          "duration": 0.05,
          "phone": "ah_I"
        },
        {
          "duration": 0.04,
          "phone": "n_I"
        },
        {
          "duration": 0.04,
          "phone": "t_I"
        },
        {
          "duration": 0.08,
          "phone": "l_I"
        },
        {
          "duration": 0.06,
          "phone": "iy_E"
        }
      ],
      "start": 5.07,
      "startOffset": 85,
      "word": "SUFFICIENTLY"
    },
    {
      "alignedWord": "upon",
      "case": "success",
      "end": 6.159999999999999,
      "endOffset": 102,
      "phones": [
        {
          "duration": 0.06,
          "phone": "ah_B"
        },
        {
          "duration": 0.09,
          "phone": "p_I"
        },
        {
          "duration": 0.14,
          "phone": "aa_I"
        },
        {
          "duration": 0.06,
          "phone": "n_E"
        }
      ],
      "start": 5.81,
      "startOffset": 98,
      "word": "UPON"
    },
    {
      "alignedWord": "these",
      "case": "success",
      "end": 6.49,
      "endOffset": 108,
      "phones": [
        {
          "duration": 0.07,
          "phone": "dh_B"
        },
        {
          "duration": 0.11,
          "phone": "iy_I"
        },
        {
          "duration": 0.15,
          "phone": "z_E"
        }
      ],
      "start": 6.16,
      "startOffset": 103,
      "word": "THESE"
    },
    {
      "alignedWord": "we",
      "case": "success",
      "end": 7.239999999999999,
      "endOffset": 111,
      "phones": [
        {
          "duration": 0.12,
          "phone": "w_B"
        },
        {
          "duration": 0.1,
          "phone": "iy_E"
        }
      ],
      "start": 7.02,
      "startOffset": 109,
      "word": "WE"
    },
    {
      "alignedWord": "cannot",
      "case": "success",
      "end": 7.59,
      "endOffset": 118,
      "phones": [
        {
          "duration": 0.07,
          "phone": "k_B"
        },
        {
          "duration": 0.06,
          "phone": "ae_I"
        },
        {
          "duration": 0.07,
          "phone": "n_I"
        },
        {
          "duration": 0.08,
          "phone": "aa_I"
        },
        {
          "duration": 0.07,
          "phone": "t_E"
        }
      ],
      "start": 7.24,
      "startOffset": 112,
      "word": "CANNOT"
    },
    {
      "alignedWord": "doubt",
      "case": "success",
      "end": 7.85,
      "endOffset": 124,
      "phones": [
        {
          "duration": 0.06,
          "phone": "d_B"
        },
        {
          "duration": 0.1,
          "phone": "aw_I"
        },
        {
          "duration": 0.1,
          "phone": "t_E"
        }
      ],
      "start": 7.59,
      "startOffset": 119,
      "word": "DOUBT"
    },
    {
      "alignedWord": "that",
      "case": "success",
      "end": 8.29,
      "endOffset": 129,
      "phones": [
        {
          "duration": 0.07,
          "phone": "dh_B"
        },
        {
          "duration": 0.03,
          "phone": "ah_I"
        },
        {
          "duration": 0.07,
          "phone": "t_E"
        }
      ],
      "start": 8.12,
      "startOffset": 125,
      "word": "THAT"
    },
    {
      "alignedWord": "they",
      "case": "success",
      "end": 8.399999999999999,
      "endOffset": 134,
      "phones": [
        {
          "duration": 0.04,
          "phone": "dh_B"
        },
        {
          "duration": 0.07,
          "phone": "ey_E"
        }
      ],
      "start": 8.29,
      "startOffset": 130,
      "word": "THEY"
    },
    {
      "alignedWord": "are",
      "case": "success",
      "end": 8.540000000000001,
      "endOffset": 138,
      "phones": [
        {
          "duration": 0.06,
          "phone": "aa_B"
        },
        {
          "duration": 0.08,
          "phone": "r_E"
        }
      ],
      "start": 8.4,
      "startOffset": 135,
      "word": "ARE"
    },
    {
      "alignedWord": "accurately",
      "case": "success",
      "end": 9.120000000000001,
      "endOffset": 149,
      "phones": [
        {
          "duration": 0.18,
          "phone": "ae_B"
        },
        {
          "duration": 0.08,
          "phone": "k_I"
        },
        {
          "duration": 0.02,
          "phone": "y_I"
        },
        {
          "duration": 0.05,
          "phone": "er_I"
        },
        {
          "duration": 0.06,
          "phone": "ah_I"
        },
        {
          "duration": 0.02,
          "phone": "t_I"
        },
        {
          "duration": 0.06,
          "phone": "l_I"
        },
        {
          "duration": 0.08,
          "phone": "iy_E"
        }
      ],
      "start": 8.57,
      "startOffset": 139,
      "word": "ACCURATELY"
    },
    {
      "alignedWord": "observed",
      "case": "success",
      "end": 9.66,
      "endOffset": 158,
      "phones": [
        {
          "duration": 0.04,
          "phone": "ah_B"
        },
        {
          "duration": 0.08,
          "phone": "b_I"
        },
        {
          "duration": 0.14,
          "phone": "z_I"
        },
        {
          "duration": 0.15,
          "phone": "er_I"
        },
        {
          "duration": 0.06,
          "phone": "v_I"
        },
        {
          "duration": 0.07,
          "phone": "d_E"
        }
      ],
      "start": 9.12,
      "startOffset": 150,
      "word": "OBSERVED"
    },
    {
      "alignedWord": "in",
      "case": "success",
      "end": 9.86,
      "endOffset": 161,
      "phones": [
        {
          "duration": 0.11,
          "phone": "ih_B"
        },
        {
          "duration": 0.08,
          "phone": "n_E"
        }
      ],
      "start": 9.67,
      "startOffset": 159,
      "word": "IN"
    },
    {
      "alignedWord": "all",
      "case": "success",
      "end": 10.049999999999999,
      "endOffset": 165,
      "phones": [
        {
          "duration": 0.1,
          "phone": "ao_B"
        },
        {
          "duration": 0.09,
          "phone": "l_E"
        }
      ],
      "start": 9.86,
      "startOffset": 162,
      "word": "ALL"
    },
    {
      "alignedWord": "that",
      "case": "success",
      "end": 10.190000000000001,
      "endOffset": 170,
      "phones": [
        {
          "duration": 0.04,
          "phone": "dh_B"
        },
        {
          "duration": 0.06,
          "phone": "ah_I"
        },
        {
          "duration": 0.04,
          "phone": "t_E"
        }
      ],
      "start": 10.05,
      "startOffset": 166,
      "word": "THAT"
    },
    {
      "alignedWord": "exists",
      "case": "success",
      "end": 10.7,
      "endOffset": 177,
      "phones": [
        {
          "duration": 0.05,
          "phone": "ih_B"
        },
        {
          "duration": 0.06,
          "phone": "g_I"
        },
        {
          "duration": 0.1,
          "phone": "z_I"
        },
        {
          "duration": 0.1,
          "phone": "ih_I"
        },
        {
          "duration": 0.08,
          "phone": "s_I"
        },
        {
          "duration": 0.01,
          "phone": "t_I"
        },
        {
          "duration": 0.11,
          "phone": "s_E"
        }
      ],
      "start": 10.19,
      "startOffset": 171,
      "word": "EXISTS"
    },
    {
      "alignedWord": "or",
      "case": "success",
      "end": 10.879999,
      "endOffset": 180,
      "phones": [
        {
          "duration": 0.1,
          "phone": "ao_B"
        },
        {
          "duration": 0.06,
          "phone": "r_E"
        }
      ],
      "start": 10.719999,
      "startOffset": 178,
      "word": "OR"
    },
    {
      "alignedWord": "takes",
      "case": "success",
      "end": 11.200000000000001,
      "endOffset": 186,
      "phones": [
        {
          "duration": 0.11,
          "phone": "t_B"
        },
        {
          "duration": 0.07,
          "phone": "ey_I"
        },
        {
          "duration": 0.07,
          "phone": "k_I"
        },
        {
          "duration": 0.07,
          "phone": "s_E"
        }
      ],
      "start": 10.88,
      "startOffset": 181,
      "word": "TAKES"
    },
    {
      "alignedWord": "place",
      "case": "success",
      "end": 11.639999999999999,
      "endOffset": 192,
      "phones": [
        {
          "duration": 0.11,
          "phone": "p_B"
        },
        {
          "duration": 0.11,
          "phone": "l_I"
        },
        {
          "duration": 0.07,
          "phone": "ey_I"
        },
        {
          "duration": 0.15,
          "phone": "s_E"
        }
      ],
      "start": 11.2,
      "startOffset": 187,
      "word": "PLACE"
    },
    {
      "alignedWord": "in",
      "case": "success",
      "end": 11.819999000000001,
      "endOffset": 195,
      "phones": [
        {
          "duration": 0.09,
          "phone": "ih_B"
        },
        {
          "duration": 0.05,
          "phone": "n_E"
        }
      ],
      "start": 11.679999,
      "startOffset": 193,
      "word": "IN"
    },
    {
      "alignedWord": "the",
      "case": "success",
      "end": 11.9,
      "endOffset": 199,
      "phones": [
        {
          "duration": 0.04,
          "phone": "dh_B"
        },
        {
          "duration": 0.04,
          "phone": "ah_E"
        }
      ],
      "start": 11.82,
      "startOffset": 196,
      "word": "THE"
    },
    {
      "alignedWord": "world",
      "case": "success",
      "end": 12.290000000000001,
      "endOffset": 205,
      "phones": [
        {
          "duration": 0.11,
          "phone": "w_B"
        },
        {
          "duration": 0.09,
          "phone": "er_I"
        },
        {
          "duration": 0.07,
          "phone": "l_I"
        },
        {
          "duration": 0.12,
          "phone": "d_E"
        }
      ],
      "start": 11.9,
      "startOffset": 200,
      "word": "WORLD"
    },
    {
      "alignedWord": "and",
      "case": "success",
      "end": 12.81,
      "endOffset": 209,
      "phones": [
        {
          "duration": 0.08,
          "phone": "ae_B"
        },
        {
          "duration": 0.06,
          "phone": "n_I"
        },
        {
          "duration": 0.08,
          "phone": "d_E"
        }
      ],
      "start": 12.59,
      "startOffset": 206,
      "word": "AND"
    },
    {
      "alignedWord": "farther",
      "case": "success",
      "end": 13.309999,
      "endOffset": 217,
      "phones": [
        {
          "duration": 0.1,
          "phone": "f_B"
        },
        {
          "duration": 0.08,
          "phone": "aa_I"
        },
        {
          "duration": 0.07,
          "phone": "r_I"
        },
        {
          "duration": 0.08,
          "phone": "dh_I"
        },
        {
          "duration": 0.17,
          "phone": "er_E"
        }
      ],
      "start": 12.809999,
      "startOffset": 210,
      "word": "FARTHER"
    },
    {
      "alignedWord": "by",
      "case": "success",
      "end": 13.920000000000002,
      "endOffset": 220,
      "phones": [
        {
          "duration": 0.1,
          "phone": "b_B"
        },
        {
          "duration": 0.11,
          "phone": "ay_E"
        }
      ],
      "start": 13.71,
      "startOffset": 218,
      "word": "BY"
    },
    {
      "alignedWord": "considering",
      "case": "success",
      "end": 14.53,
      "endOffset": 232,
      "phones": [
        {
          "duration": 0.04,
          "phone": "k_B"
        },
        {
          "duration": 0.05,
          "phone": "ah_I"
        },
        {
          "duration": 0.06,
          "phone": "n_I"
        },
        {
          "duration": 0.12,
          "phone": "s_I"
        },
        {
          "duration": 0.06,
          "phone": "ih_I"
        },
        {
          "duration": 0.05,
          "phone": "d_I"
        },
        {
          "duration": 0.09,
          "phone": "er_I"
        },
        {
          "duration": 0.08,
          "phone": "ih_I"
        },
        {
          "duration": 0.06,
          "phone": "ng_E"
        }
      ],
      "start": 13.92,
      "startOffset": 221,
      "word": "CONSIDERING"
    }
  ]
}