{
  "transcript": "WHICH HE CONSIDERED A GOODLY SUM AND HIS FATHER IN LAW HAD OFFERED TO PURCHASE AN ESTABLISHED PLANT FOR HIM BUT THE YOUNG FELLOW SAID THAT FERRYING WAS A DOG'S LIFE AND KEPT A FELLER HOME LIKE BARN CHORES",
  "words": [
    {
      "alignedWord": "which",
      "case": "success",
      "end": 0.47,
      "endOffset": 5,
      "phones": [
        {
          "duration": 0.05,
          "phone": "w_B"
        },
        {
          "duration": 0.05,
          "phone": "ih_I"
        },
        {
          "duration": 0.06,
          "phone": "ch_E"
        }
      ],
      "start": 0.31,
      "startOffset": 0,
      "word": "WHICH"
    },
    {
      "alignedWord": "he",
      "case": "success",
      "end": 0.61,
      "endOffset": 8,
      "phones": [
        {
          "duration": 0.05,
          "phone": "hh_B"
        },
        {
          "duration": 0.09,
          "phone": "iy_E"
        }
      ],
      "start": 0.47,
      "startOffset": 6,
      "word": "HE"
    },
    {
      "alignedWord": "considered",
      "case": "success",
      "end": 1.1,
      "endOffset": 19,
      "phones": [
        {
          "duration": 0.05,
          "phone": "k_B"
        },
        {
          "duration": 0.05,
          "phone": "ah_I"
        },
        {
          "duration": 0.05,
          "phone": "n_I"
        },
        {
          "duration": 0.08,
          "phone": "s_I"
        },
        {
          "duration": 0.06,
          "phone": "ih_I"
        },
        {
          "duration": 0.04,
          "phone": "d_I"
        },
        {
          "duration": 0.08,
          "phone": "er_I"
        },
        {
          "duration": 0.08,
          "phone": "d_E"
        }
      ],
      "start": 0.61,
      "startOffset": 9,
      "word": "CONSIDERED"
    },
    {
      "alignedWord": "a",
      "case": "success",
      "end": 1.27,
      "endOffset": 21,
      "phones": [
        {
          "duration": 0.11,
          "phone": "ah_S"
        }
      ],
      "start": 1.16,
      "startOffset": 20,
      "word": "A"
    },
    {
      "alignedWord": "goodly",
      "case": "success",
      "end": 1.68,
      "endOffset": 28,
      "phones": [
        {
          "duration": 0.1,
          "phone": "g_B"
        },
        {
          "duration": 0.06,
          "phone": "uh_I"
        },
        {
          "duration": 0.1,
          "phone": "d_I"
        },
        {
          "duration": 0.06,
          "phone": "l_I"
        },
        {
          "duration": 0.09,
          "phone": "iy_E"
        }
      ],
      "start": 1.27,
      "startOffset": 22,
      "word": "GOODLY"
    },
    {
      "alignedWord": "sum",
      "case": "success",
      "end": 2.05,
      "endOffset": 32,
      "phones": [
        {
          "duration": 0.11,
          "phone": "s_B"
        },
        {
          "duration": 0.11,
          "phone": "ah_I"
        },
        {
          "duration": 0.15,
          "phone": "m_E"
        }
      ],
      "start": 1.68,
      "startOffset": 29,
      "word": "SUM"
    },
    {
      "alignedWord": "and",
      "case": "success",
      "end": 2.8,
      "endOffset": 36,
      "phones": [
        {
          "duration": 0.09,
          "phone": "ae_B"
        },
        {
          "duration": 0.04,
          "phone": "n_I"
        },
        {
          "duration": 0.04,
          "phone": "d_E"
        }
      ],
      "start": 2.63,
      "startOffset": 33,
      "word": "AND"
    },
    {
      "alignedWord": "his",
      "case": "success",
      "end": 2.92,
      "endOffset": 40,
      "phones": [
        {
          "duration": 0.01,
          "phone": "hh_B"
        },
        {
          "duration": 0.05,
          "phone": "ih_I"
        },
        {
          "duration": 0.06,
          "phone": "z_E"
        }
      ],
      "start": 2.8,
      "startOffset": 37,
      "word": "HIS"
    },
    {
      "alignedWord": "father",
      "case": "success",
      "end": 3.25,
      "endOffset": 47,
      "phones": [
        {
          "duration": 0.08,
          "phone": "f_B"
        },
        {
          "duration": 0.12,
          "phone": "aa_I"
        },
        {
          "duration": 0.07,
          "phone": "dh_I"
        },
        {
          "duration": 0.06,
          "phone": "er_E"
        }
      ],
      "start": 2.92,
      "startOffset": 41,
      "word": "FATHER"
    },
    {
      "alignedWord": "in",
      "case": "success",
      "end": 3.38,
      "endOffset": 50,
      "phones": [
        {
          "duration": 0.06,
          "phone": "ih_B"
        },
        {
          "duration": 0.07,
          "phone": "n_E"
        }
      ],
      "start": 3.25,
      "startOffset": 48,
      "word": "IN"
    },
    {
      "alignedWord": "law",
      "case": "success",
      "end": 3.62,
      "endOffset": 54,
      "phones": [
        {
          "duration": 0.07,
          "phone": "l_B"
        },
        {
          "duration": 0.17,
          "phone": "ao_E"
        }
      ],
      "start": 3.38,
      "startOffset": 51,
      "word": "LAW"
    },
    {
      "alignedWord": "had",
      "case": "success",
      "end": 3.8000000000000003,
      "endOffset": 58,
      "phones": [
        {
          "duration": 0.06,
          "phone": "hh_B"
        },
        {
          "duration": 0.03,
          "phone": "ae_I"
        },
        {
          "duration": 0.07,
          "phone": "d_E"
        }
      ],
      "start": 3.64,
      "startOffset": 55,
      "word": "HAD"
    },
    {
      "alignedWord": "offered",
      "case": "success",
      "end": 4.19,
      "endOffset": 66,
      "phones": [
        {
          "duration": 0.16,
          "phone": "ao_B"
        },
        {
          "duration": 0.09,
          "phone": "f_I"
        },
        {
          "duration": 0.07,
          "phone": "er_I"
        },
        {
          "duration": 0.06,
          "phone": "d_E"
        }
      ],
      "start": 3.81,
      "startOffset": 59,
      "word": "OFFERED"
    },
    {
      "alignedWord": "to",
      "case": "success",
      "end": 4.28,
      "endOffset": 69,
      "phones": [
        {
          "duration": 0.04,
          "phone": "t_B"
        },
        {
          "duration": 0.05,
          "phone": "ah_E"
        }
      ],
      "start": 4.19,
      "startOffset": 67,
      "word": "TO"
    },
    {
      "alignedWord": "purchase",
      "case": "success",
      "end": 4.73,
      "endOffset": 78,
      "phones": [
        {
          "duration": 0.12,
          "phone": "p_B"
        },
        {
          "duration": 0.09,
          "phone": "er_I"
        },
        {
          "duration": 0.1,
          "phone": "ch_I"
        },
        {
          "duration": 0.08,
          "phone": "ah_I"
        },
        {
          "duration": 0.06,
          "phone": "s_E"
        }
      ],
      "start": 4.28,
      "startOffset": 70,
      "word": "PURCHASE"
    },
    {
      "alignedWord": "an",
      "case": "success",
      "end": 4.880000000000001,
      "endOffset": 81,
      "phones": [
        {
          "duration": 0.08,
          "phone": "ah_B"
        },
        {
          "duration": 0.07,
          "phone": "n_E"
        }
      ],
      "start": 4.73,
      "startOffset": 79,
      "word": "AN"
    },
    {
      "alignedWord": "established",
      "case": "success",
      "end": 5.47,
      "endOffset": 93,
      "phones": [
        {
          "duration": 0.08,
          "phone": "ih_B"
        },
        {
          "duration": 0.04,
          "phone": "s_I"
        },
        {
          "duration": 0.09,
          "phone": "t_I"
        },
        {
          "duration": 0.09,
          "phone": "ae_I"
        },
        {
          "duration": 0.05,
          "phone": "b_I"
        },
        {
          "duration": 0.05,
          "phone": "l_I"
        },
        {
          "duration": 0.04,
          "phone": "ih_I"
        },
        {
          "duration": 0.07,
          "phone": "sh_I"
        },
        {
          "duration": 0.08,
          "phone": "t_E"
        }
      ],
      "start": 4.88,
      "startOffset": 82,
      "word": "ESTABLISHED"
    },
    {
      "alignedWord": "plant",
      "case": "success",
      "end": 5.84,
      "endOffset": 99,
      "phones": [
        {
          "duration": 0.07,
          "phone": "p_B"
        },
        {
          "duration": 0.05,
          "phone": "l_I"
        },
        {
          "duration": 0.09,
          "phone": "ae_I"
        },
        {
          "duration": 0.05,
          "phone": "n_I"
        },
        {
          "duration": 0.08,
          "phone": "t_E"
        }
      ],
      "start": 5.5,
      "startOffset": 94,
      "word": "PLANT"
    },
    {
      "alignedWord": "for",
      "case": "success",
      "end": 5.99,
      "endOffset": 103,
      "phones": [
        {
          "duration": 0.07,
          "phone": "f_B"
        },
        {
          "duration": 0.06,
          "phone": "er_E"
        }
      ],
      "start": 5.86,
      "startOffset": 100,
      "word": "FOR"
    },
    {
      "alignedWord": "him",
      "case": "success",
      "end": 6.25,
      "endOffset": 107,
      "phones": [
        {
          "duration": 0.06,
          "phone": "hh_B"
        },
        {
          "duration": 0.08,
          "phone": "ih_I"
        },
        {
          "duration": 0.12,
          "phone": "m_E"
        }
      ],
      "start": 5.99,
      "startOffset": 104,
      "word": "HIM"
    },
    {
      "alignedWord": "but",
      "case": "success",
      "end": 7.0600000000000005,
      "endOffset": 111,
      "phones": [
        {
          "duration": 0.06,
          "phone": "b_B"
        },
        {
          "duration": 0.04,
          "phone": "ah_I"
        },
        {
          "duration": 0.06,
          "phone": "t_E"
        }
      ],
      "start": 6.9,
      "startOffset": 108,
      "word": "BUT"
    },
    {
      "alignedWord": "the",
      "case": "success",
      "end": 7.119999999999999,
      "endOffset": 115,
      "phones": [
        {
          "duration": 0.05,
          "phone": "dh_B"
        },
        {
          "duration": 0.01,
          "phone": "iy_E"
        }
      ],
      "start": 7.06,
      "startOffset": 112,
      "word": "THE"
    },
    {
      "alignedWord": "young",
      "case": "success",
      "end": 7.390000000000001,
      "endOffset": 121,
      "phones": [
        {
          "duration": 0.07,
          "phone": "y_B"
        },
        {
          "duration": 0.1,
          "phone": "ah_I"
        },
        {
          "duration": 0.1,
          "phone": "ng_E"
        }
      ],
      "start": 7.12,
      "startOffset": 116,
      "word": "YOUNG"
    },
    {
      "alignedWord": "fellow",
      "case": "success",
      "end": 7.760000000000001,
      "endOffset": 128,
      "phones": [
        {
          "duration": 0.08,
          "phone": "f_B"
        },
        {
          "duration": 0.07,
          "phone": "eh_I"
        },
        {
          "duration": 0.09,
          "phone": "l_I"
        },
        {
          "duration": 0.12,
          "phone": "ow_E"
        }
      ],
      "start": 7.4,
      "startOffset": 122,
      "word": "FELLOW"
    },
    {
      "alignedWord": "said",
      "case": "success",
      "end": 7.97,
      "endOffset": 133,
      "phones": [
        {
          "duration": 0.08,
          "phone": "s_B"
        },
        {
          "duration": 0.06,
          "phone": "eh_I"
        },
        {
          "duration": 0.07,
          "phone": "d_E"
        }
      ],
      "start": 7.76,
      "startOffset": 129,
      "word": "SAID"
    },
    {
      "alignedWord": "that",
      "case": "success",
      "end": 8.11,
      "endOffset": 138,
      "phones": [
        {
          "duration": 0.01,
          "phone": "dh_B"
        },
        {
          "duration": 0.06,
          "phone": "ah_I"
        },
        {
          "duration": 0.07,
          "phone": "t_E"
        }
      ],
      "start": 7.97,
      "startOffset": 134,
      "word": "THAT"
    },
    {
      "alignedWord": "<unk>",
      "case": "success",
      "end": 8.67,
      "endOffset": 147,
      "phones": [
        {
          "duration": 0.52,
          "phone": "oov_S"
        }
      ],
      "start": 8.15,
      "startOffset": 139,
      "word": "FERRYING"
    },
    {
      "alignedWord": "was",
      "case": "success",
      "end": 8.849999,
      "endOffset": 151,
      "phones": [
        {
          "duration": 0.07,
          "phone": "w_B"
        },
        {
          "duration": 0.05,
          "phone": "ah_I"
        },
        {
          "duration": 0.05,
          "phone": "z_E"
        }
      ],
      "start": 8.679999,
      "startOffset": 148,
      "word": "WAS"
    },
    {
      "alignedWord": "a",
      "case": "success",
      "end": 8.939999,
      "endOffset": 153,
      "phones": [
        {
          "duration": 0.09,
          "phone": "ah_S"
        }
      ],
      "start": 8.849999,
      "startOffset": 152,
      "word": "A"
    },
    {
      "alignedWord": "dog's",
      "case": "success",
      "end": 9.42,
      "endOffset": 159,
      "phones": [
        {
          "duration": 0.09,
          "phone": "d_B"
        },
        {
          "duration": 0.18,
          "phone": "ao_I"
        },
        {
          "duration": 0.1,
          "phone": "g_I"
        },
        {
          "duration": 0.1,
          "phone": "z_E"
        }
      ],
      "start": 8.95,
      "startOffset": 154,
      "word": "DOG'S"
    },
    {
      "alignedWord": "life",
      "case": "success",
      "end": 9.79,
      "endOffset": 164,
      "phones": [
        {
          "duration": 0.1,
          "phone": "l_B"
        },
        {
          "duration": 0.12,
          "phone": "ay_I"
        },
        {
          "duration": 0.15,
          "phone": "f_E"
        }
      ],
      "start": 9.42,
      "startOffset": 160,
      "word": "LIFE"
    },
    {
      "alignedWord": "and",
      "case": "success",
      "end": 10.4,
      "endOffset": 168,
      "phones": [
        {
          "duration": 0.08,
          "phone": "ae_B"
        },
        {
          "duration": 0.01,
          "phone": "n_I"
        },
        {
          "duration": 0.1,
          "phone": "d_E"
        }
      ],
      "start": 10.21,
      "startOffset": 165,
      "word": "AND"
    },
    {
      "alignedWord": "kept",
      "case": "success",
      "end": 10.65,
      "endOffset": 173,
      "phones": [
        {
          "duration": 0.05,
          "phone": "k_B"
        },
        {
          "duration": 0.03,
          "phone": "eh_I"
        },
        {
          "duration": 0.1,
          "phone": "p_I"
        },
        {
          "duration": 0.07,
          "phone": "t_E"
        }
      ],
      "start": 10.4,
      "startOffset": 169,
      "word": "KEPT"
    },
    {
      "alignedWord": "a",
      "case": "success",
      "end": 10.73,
      "endOffset": 175,
      "phones": [
        {
          "duration": 0.08,
          "phone": "ah_S"
        }
      ],
      "start": 10.65,
      "startOffset": 174,
      "word": "A"
    },
    {
      "alignedWord": "feller",
      "case": "success",
      "end": 11.1,
      "endOffset": 182,
      "phones": [
        {
          "duration": 0.1,
          "phone": "f_B"
        },
        {
          "duration": 0.07,
          "phone": "eh_I"
        },
        {
          "duration": 0.1,
          "phone": "l_I"
        },
        {
          "duration": 0.1,
          "phone": "er_E"
        }
      ],
      "start": 10.73,
      "startOffset": 176,
      "word": "FELLER"
    },
    {
      "alignedWord": "home",
      "case": "success",
      "end": 11.459999,
      "endOffset": 187,
      "phones": [
        {
          "duration": 0.09,
          "phone": "hh_B"
        },
        {
          "duration": 0.17,
          "phone": "ow_I"
        },
        {
          "duration": 0.1,
          "phone": "m_E"
        }
      ],
      "start": 11.099999,
      "startOffset": 183,
      "word": "HOME"
    },
    {
      "alignedWord": "like",
      "case": "success",
      "end": 11.679999,
      "endOffset": 192,
      "phones": [
        {
          "duration": 0.08,
          "phone": "l_B"
        },
        {
          "duration": 0.05,
          "phone": "ay_I"
        },
        {
          "duration": 0.08,
          "phone": "k_E"
        }
      ],
      "start": 11.469999,
      "startOffset": 188,
      "word": "LIKE"
    },
    {
      "alignedWord": "barn",
      "case": "success",
      "end": 12.09,
      "endOffset": 197,
      "phones": [
        {
          "duration": 0.08,
          "phone": "b_B"
        },
        {
          "duration": 0.07,
          "phone": "aa_I"
        },
        {
          "duration": 0.11,
          "phone": "r_I"
        },
        {
          "duration": 0.13,
          "phone": "n_E"
        }
      ],
      "start": 11.7,
      "startOffset": 193,
      "word": "BARN"
    },
    {
      "alignedWord": "chores",
      "case": "success",
      "end": 12.62,
      "endOffset": 204,
      "phones": [
        {
          "duration": 0.11,
          "phone": "ch_B"
        },
        {
          "duration": 0.13,
          "phone": "ao_I"
        },
        {
          "duration": 0.12,
          "phone": "r_I"
        },
        {
          "duration": 0.17,
          "phone": "z_E"
        }
      ],
      "start": 12.09,
      "startOffset": 198,
      "word": "CHORES"
    }
  ]
}