{
  "transcript": "I HAVE NOT THE PLEASURE OF UNDERSTANDING YOU SAID HE",
  "words": [
    {
      "alignedWord": "i",
      "case": "success",
      "end": 0.72,
      "endOffset": 1,
      "phones": [
        {
          "duration": 0.21,
          "phone": "ay_S"
        }
      ],
      "start": 0.51,
      "startOffset": 0,
      "word": "I"
    },
    {
      "alignedWord": "have",
      "case": "success",
      "end": 0.9299999999999999,
      "endOffset": 6,
      "phones": [
        {
          "duration": 0.07,
          "phone": "hh_B"
        },
        {
          "duration": 0.06,
          "phone": "ae_I"
        },
        {
          "duration": 0.08,
          "phone": "v_E"
        }
      ],
      "start": 0.72,
      "startOffset": 2,
      "word": "HAVE"
    },
    {
      "alignedWord": "not",
      "case": "success",
      "end": 1.1,
      "endOffset": 10,
      "phones": [
        {
          "duration": 0.03,
          "phone": "n_B"
        },
        {
          "duration": 0.08,
          "phone": "aa_I"
        },
        {
          "duration": 0.06,
          "phone": "t_E"
        }
      ],
      "start": 0.93,
      "startOffset": 7,
      "word": "NOT"
    },
    {
      "alignedWord": "the",
      "case": "success",
      "end": 1.2000000000000002,
      "endOffset": 14,
      "phones": [
        {
          "duration": 0.05,
          "phone": "dh_B"
        },
        {
          "duration": 0.04,
          "phone": "ah_E"
        }
      ],
      "start": 1.11,
      "startOffset": 11,
      "word": "THE"
    },
    {
      "alignedWord": "pleasure",
      "case": "success",
      "end": 1.6,
      "endOffset": 23,
      "phones": [
        {
          "duration": 0.07,
          "phone": "p_B"
        },
        {
          "duration": 0.05,
          "phone": "l_I"
        },
        {
          "duration": 0.07,
          "phone": "eh_I"
        },
        {
          "duration": 0.14,
          "phone": "zh_I"
        },
        {
          "duration": 0.07,
          "phone": "er_E"
        }
      ],
      "start": 1.2,
      "startOffset": 15,
      "word": "PLEASURE"
    },
    {
      "alignedWord": "of",
      "case": "success",
      "end": 1.76,
      "endOffset": 26,
      "phones": [
        {
          "duration": 0.09,
          "phone": "ah_B"
        },
        {
          "duration": 0.07,
          "phone": "v_E"
        }
      ],
      "start": 1.6,
      "startOffset": 24,
      "word": "OF"
    },
    {
      "alignedWord": "understanding",
      "case": "success",
      "end": 2.48,
      "endOffset": 40,
      "phones": [
        {
          "duration": 0.04,
          "phone": "ah_B"
        },
        {
          "duration": 0.09,
          "phone": "n_I"
        },
        {
          "duration": 0.06,
          "phone": "d_I"
        },
        {
          "duration": 0.07,
          "phone": "er_I"
        },
        {
          "duration": 0.08,
          "phone": "s_I"
        },
        {
          "duration": 0.07,
          "phone": "t_I"
        },
        {
          "duration": 0.09,
          "phone": "ae_I"
        },
        {
          "duration": 0.01,
          "phone": "n_I"
        },
        {
          "duration": 0.1,
          "phone": "d_I"
        },
        {
          "duration": 0.05,
          "phone": "ih_I"
        },
        {
          "duration": 0.06,
          "phone": "ng_E"
        }
      ],
      "start": 1.76,
      "startOffset": 27,
      "word": "UNDERSTANDING"
    },
    {
      "alignedWord": "you",
      "case": "success",
      "end": 2.92,
      "endOffset": 44,
      "phones": [
        {
          "duration": 0.07,
          "phone": "y_B"
        },
        {
          "duration": 0.37,
          "phone": "uw_E"
        }
      ],
      "start": 2.48,
      "startOffset": 41,
      "word": "YOU"
    },
    {
      "alignedWord": "said",
      "case": "success",
      "end": 3.83,
      "endOffset": 49,
      "phones": [
        {
          "duration": 0.14,
          "phone": "s_B"
        },
        {
          "duration": 0.07,
          "phone": "eh_I"
        },
        {
          "duration": 0.07,
          "phone": "d_E"
        }
      ],
      "start": 3.55,
      "startOffset": 45,
      "word": "SAID"
    },
    {
      "alignedWord": "he",
      "case": "success",
      "end": 4.25,
      "endOffset": 52,
      "phones": [
        {
          "duration": 0.07,
          "phone": "hh_B"
        },
        {
          "duration": 0.35,
          "phone": "iy_E"
        }
      ],
      "start": 3.83,
      "startOffset": 50,
      "word": "HE"
    }
  ]
}