{
  "transcript": "DE WIND HOWL MO'NFUL ALL NIGHT LONG AN SEEM TER DE GAL AN HER MAMMY",
  "words": [
    {
      "alignedWord": "de",
      "case": "success",
      "end": 0.31,
      "endOffset": 2,
      "phones": [
        {
          "duration": 0.06,
          "phone": "d_B"
        },
        {
          "duration": 0.06,
          "phone": "ah_E"
        }
      ],
      "start": 0.19,
      "startOffset": 0,
      "word": "DE"
    },
    {
      "alignedWord": "wind",
      "case": "success",
      "end": 0.56,
      "endOffset": 7,
      "phones": [
        {
          "duration": 0.09,
          "phone": "w_B"
        },
        {
          "duration": 0.08,
          "phone": "ih_I"
        },
        {
          "duration": 0.04,
          "phone": "n_I"
        },
        {
          "duration": 0.04,
          "phone": "d_E"
        }
      ],
      "start": 0.31,
      "startOffset": 3,
      "word": "WIND"
    },
    {
      "alignedWord": "howl",
      "case": "success",
      "end": 0.79,
      "endOffset": 12,
      "phones": [
        {
          "duration": 0.09,
          "phone": "hh_B"
        },
        {
          "duration": 0.12,
          "phone": "aw_I"
        },
        {
          "duration": 0.02,
          "phone": "l_E"
        }
      ],
      "start": 0.56,
      "startOffset": 8,
      "word": "HOWL"
    },
    {
      "alignedWord": "<unk>",
      "case": "success",
      "end": 1.24,
      "endOffset": 20,
      "phones": [
        {
          "duration": 0.45,
          "phone": "oov_S"
        }
      ],
      "start": 0.79,
      "startOffset": 13,
      "word": "MO'NFUL"
    },
    {
      "alignedWord": "all",
      "case": "success",
      "end": 1.55,
      "endOffset": 24,
      "phones": [
        {
          "duration": 0.18,
          "phone": "ao_B"
        },
        {
          "duration": 0.09,
          "phone": "l_E"
        }
      ],
      "start": 1.28,
      "startOffset": 21,
      "word": "ALL"
    },
    {
      "alignedWord": "night",
      "case": "success",
      "end": 1.82,
      "endOffset": 30,
      "phones": [
        {
          "duration": 0.07,
          "phone": "n_B"
        },
        {
          "duration": 0.13,
          "phone": "ay_I"
        },
        {
          "duration": 0.07,
          "phone": "t_E"
        }
      ],
      "start": 1.55,
      "startOffset": 25,
      "word": "NIGHT"
    },
    {
      "alignedWord": "long",
      "case": "success",
      "end": 2.21,
      "endOffset": 35,
      "phones": [
        {
          "duration": 0.06,
          "phone": "l_B"
        },
        {
          "duration": 0.19,
          "phone": "ao_I"
        },
        {
          "duration": 0.14,
          "phone": "ng_E"
        }
      ],
      "start": 1.82,
      "startOffset": 31,
      "word": "LONG"
    },
    {
      "alignedWord": "an",
      "case": "success",
      "end": 2.6,
      "endOffset": 38,
      "phones": [
        {
          "duration": 0.06,
          "phone": "ah_B"
        },
        {
          "duration": 0.06,
          "phone": "n_E"
        }
      ],
      "start": 2.48,
      "startOffset": 36,
      "word": "AN"
    },
    {
      "alignedWord": "seem",
      "case": "success",
      "end": 2.9,
      "endOffset": 43,
      "phones": [
        {
          "duration": 0.13,
          "phone": "s_B"
        },
        {
          "duration": 0.09,
          "phone": "iy_I"
        },
        {
          "duration": 0.08,
          "phone": "m_E"
        }
      ],
      "start": 2.6,
      "startOffset": 39,
      "word": "SEEM"
    },
    {
      "alignedWord": "ter",
      "case": "success",
      "end": 3.03,
      "endOffset": 47,
      "phones": [
        {
          "duration": 0.07,
          "phone": "t_B"
        },
        {
          "duration": 0.06,
          "phone": "er_E"
        }
      ],
      "start": 2.9,
      "startOffset": 44,
      "word": "TER"
    },
    {
      "alignedWord": "de",
      "case": "success",
      "end": 3.13,
      "endOffset": 50,
      "phones": [
        {
          "duration": 0.05,
          "phone": "d_B"
        },
        {
          "duration": 0.05,
          "phone": "ah_E"
        }
      ],
      "start": 3.03,
      "startOffset": 48,
      "word": "DE"
    },
    {
      "alignedWord": "gal",
      "case": "success",
      "end": 3.48,
      "endOffset": 54,
      "phones": [
        {
          "duration": 0.1,
          "phone": "g_B"
        },
        {
          "duration": 0.18,
          "phone": "ae_I"
        },
        {
          "duration": 0.07,
          "phone": "l_E"
        }
      ],
      "start": 3.13,
      "startOffset": 51,
      "word": "GAL"
    },
    {
      "alignedWord": "an",
      "case": "success",
      "end": 3.58,
      "endOffset": 57,
      "phones": [
        {
          "duration": 0.05,
          "phone": "ah_B"
        },
        {
          "duration": 0.05,
          "phone": "n_E"
        }
      ],
      "start": 3.48,
      "startOffset": 55,
      "word": "AN"
    },
    {
      "alignedWord": "her",
      "case": "success",
      "end": 3.7,
      "endOffset": 61,
      "phones": [
        {
          "duration": 0.04,
          "phone": "hh_B"
        },
        {
          "duration": 0.08,
          "phone": "er_E"
        }
      ],
      "start": 3.58,
      "startOffset": 58,
      "word": "HER"
    },
    {
      "alignedWord": "<unk>",
      "case": "success",
      "end": 4.08,
      "endOffset": 67,
      "phones": [
        {
          "duration": 0.38,
          "phone": "oov_S"
        }
      ],
      "start": 3.7,
      "startOffset": 62,
      "word": "MAMMY"
    }
  ]
}