{
  "transcript": "I AM NOT HARD HEARTED SNAPPED BERYL I ALWAYS DO GOOD",
  "words": [
    {
      "alignedWord": "i",
      "case": "success",
      "end": 0.63,
      "endOffset": 1,
      "phones": [
        {
          "duration": 0.12,
          "phone": "ay_S"
        }
      ],
      "start": 0.51,
      "startOffset": 0,
      "word": "I"
    },
    {
      "alignedWord": "am",
      "case": "success",
      "end": 0.8300000000000001,
      "endOffset": 4,
      "phones": [
        {
          "duration": 0.07,
          "phone": "ae_B"
        },
        {
          "duration": 0.13,
          "phone": "m_E"
        }
      ],
      "start": 0.63,
      "startOffset": 2,
      "word": "AM"
    },
    {
      "alignedWord": "not",
      "case": "success",
      "end": 1.0699999999999998,
      "endOffset": 8,
      "phones": [
        {
          "duration": 0.01,
          "phone": "n_B"
        },
        {
          "duration": 0.16,
          "phone": "aa_I"
        },
        {
          "duration": 0.07,
          "phone": "t_E"
        }
      ],
      "start": 0.83,
      "startOffset": 5,
      "word": "NOT"
    },
    {
      "alignedWord": "hard",
      "case": "success",
      "end": 1.53,
      "endOffset": 13,
      "phones": [
        {
          "duration": 0.16,
          "phone": "hh_B"
        },
        {
          "duration": 0.12,
          "phone": "aa_I"
        },
        {
          "duration": 0.08,
          "phone": "r_I"
        },
        {
          "duration": 0.09,
          "phone": "d_E"
        }
      ],
      "start": 1.08,
      "startOffset": 9,
      "word": "HARD"
    },
    {
      "alignedWord": "hearted",
      "case": "success",
      "end": 1.98,
      "endOffset": 21,
      "phones": [
        {
          "duration": 0.1,
          "phone": "hh_B"
        },
        {
          "duration": 0.1,
          "phone": "aa_I"
        },
        {
          "duration": 0.06,
          "phone": "r_I"
        },
        {
          "duration": 0.04,
          "phone": "t_I"
        },
        {
          "duration": 0.06,
          "phone": "ih_I"
        },
        {
          "duration": 0.08,
          "phone": "d_E"
        }
      ],
      "start": 1.54,
      "startOffset": 14,
      "word": "HEARTED"
    },
    {
      "alignedWord": "snapped",
      "case": "success",
      "end": 2.31,
      "endOffset": 29,
      "phones": [
        {
          "duration": 0.09,
          "phone": "s_B"
        },
        {
          "duration": 0.07,
          "phone": "n_I"
        },
        {
          "duration": 0.07,
          "phone": "ae_I"
        },
        {
          "duration": 0.09,
          "phone": "p_I"
        },
        {
          "duration": 0.01,
          "phone": "t_E"
        }
      ],
      "start": 1.98,
      "startOffset": 22,
      "word": "SNAPPED"
    },
    {
      "alignedWord": "<unk>",
      "case": "success",
      "end": 2.7600000000000002,
      "endOffset": 35,
      "phones": [
        {
          "duration": 0.45,
          "phone": "oov_S"
        }
      ],
      "start": 2.31,
      "startOffset": 30,
      "word": "BERYL"
    },
    {
      "alignedWord": "i",
      "case": "success",
      "end": 3.4299999999999997,
      "endOffset": 37,
      "phones": [
        {
          "duration": 0.15,
          "phone": "ay_S"
        }
      ],
      "start": 3.28,
      "startOffset": 36,
      "word": "I"
    },
    {
      "alignedWord": "always",
      "case": "success",
      "end": 3.91,
      "endOffset": 44,
      "phones": [
        {
          "duration": 0.13,
          "phone": "ao_B"
        },
        {
          "duration": 0.06,
          "phone": "l_I"
        },
        {
          "duration": 0.09,
          "phone": "w_I"
        },
        {
          "duration": 0.08,
          "phone": "iy_I"
        },
        {
          "duration": 0.07,
          "phone": "z_E"
        }
      ],
      "start": 3.48,
      "startOffset": 38,
      "word": "ALWAYS"
    },
    {
      "alignedWord": "do",
      "case": "success",
      "end": 4.18,
      "endOffset": 47,
      "phones": [
        {
          "duration": 0.08,
          "phone": "d_B"
        },
        {
          "duration": 0.17,
          "phone": "uw_E"
        }
      ],
      "start": 3.93,
      "startOffset": 45,
      "word": "DO"
    },
    {
      "alignedWord": "good",
      "case": "success",
      "end": 4.510000000000001,
      "endOffset": 52,
      "phones": [
        {
          "duration": 0.17,
          "phone": "g_B"
        },
        {
          "duration": 0.15,
          "phone": "uh_I"
        }
      ],
      "start": 4.19,
      "startOffset": 48,
      "word": "GOOD"
    }
  ]
}