{
  "transcript": "GROW UP MODELS FOR ALL THE WORLD OF PLANT ARRANGEMENT AND TREE LUXURY OUR MECHANICAL EAST IS REPROVED OUR TENSION IS RELAXED OUR UGLINESS IS CHALLENGED EVERY TIME WE LOOK UPON THOSE GARDEN PATHS AND FORESTS",
  "words": [
    {
      "alignedWord": "grow",
      "case": "success",
      "end": 0.4,
      "endOffset": 4,
      "phones": [
        {
          "duration": 0.07,
          "phone": "g_B"
        },
        {
          "duration": 0.06,
          "phone": "r_I"
        },
        {
          "duration": 0.12,
          "phone": "ow_E"
        }
      ],
      "start": 0.15,
      "startOffset": 0,
      "word": "GROW"
    },
    {
      "alignedWord": "up",
      "case": "success",
      "end": 0.5700000000000001,
      "endOffset": 7,
      "phones": [
        {
          "duration": 0.1,
          "phone": "ah_B"
        },
        {
          "duration": 0.07,
          "phone": "p_E"
        }
      ],
      "start": 0.4,
      "startOffset": 5,
      "word": "UP"
    },
    {
      "alignedWord": "models",
      "case": "success",
      "end": 1.37,
      "endOffset": 14,
      "phones": [
        {
          "duration": 0.15,
          "phone": "m_B"
        },
        {
          "duration": 0.15,
          "phone": "aa_I"
        },
        {
          "duration": 0.02,
          "phone": "d_I"
        },
        {
          "duration": 0.09,
          "phone": "ah_I"
        },
        {
          "duration": 0.09,
          "phone": "l_I"
        },
        {
          "duration": 0.29,
          "phone": "z_E"
        }
      ],
      "start": 0.58,
      "startOffset": 8,
      "word": "MODELS"
    },
    {
      "alignedWord": "for",
      "case": "success",
      "end": 1.6199999999999999,
      "endOffset": 18,
      "phones": [
        {
          "duration": 0.14,
          "phone": "f_B"
        },
        {
          "duration": 0.1,
          "phone": "er_E"
        }
      ],
      "start": 1.38,
      "startOffset": 15,
      "word": "FOR"
    },
    {
      "alignedWord": "all",
      "case": "success",
      "end": 1.8499999999999999,
      "endOffset": 22,
      "phones": [
        {
          "duration": 0.12,
          "phone": "ao_B"
        },
        {
          "duration": 0.09,
          "phone": "l_E"
        }
      ],
      "start": 1.64,
      "startOffset": 19,
      "word": "ALL"
    },
    {
      "alignedWord": "the",
      "case": "success",
      "end": 1.98,
      "endOffset": 26,
      "phones": [
        {
          "duration": 0.07,
          "phone": "dh_B"
        },
        {
          "duration": 0.05,
          "phone": "ah_E"
        }
      ],
      "start": 1.86,
      "startOffset": 23,
      "word": "THE"
    },
    {
      "alignedWord": "world",
      "case": "success",
      "end": 2.36,
      "endOffset": 32,
      "phones": [
        {
          "duration": 0.13,
          "phone": "w_B"
        },
        {
          "duration": 0.09,
          "phone": "er_I"
        },
        {
          "duration": 0.08,
          "phone": "l_I"
        },
        {
          "duration": 0.08,
          "phone": "d_E"
        }
      ],
      "start": 1.98,
      "startOffset": 27,
      "word": "WORLD"
    },
    {
      "alignedWord": "of",
      "case": "success",
      "end": 2.51,
      "endOffset": 35,
      "phones": [
        {
          "duration": 0.06,
          "phone": "ah_B"
        },
        {
          "duration": 0.09,
          "phone": "v_E"
        }
      ],
      "start": 2.36,
      "startOffset": 33,
      "word": "OF"
    },
    {
      "alignedWord": "plant",
      "case": "success",
      "end": 2.94,
      "endOffset": 41,
      "phones": [
        {
          "duration": 0.09,
          "phone": "p_B"
        },
        {
          "duration": 0.06,
          "phone": "l_I"
        },
        {
          "duration": 0.11,
          "phone": "ae_I"
        },
        {
          "duration": 0.06,
          "phone": "n_I"
        },
        {
          "duration": 0.06,
          "phone": "t_E"
        }
      ],
      "start": 2.56,
      "startOffset": 36,
      "word": "PLANT"
    },
    {
      "alignedWord": "arrangement",
      "case": "success",
      "end": 3.67,
      "endOffset": 53,
      "phones": [
        {
          "duration": 0.18,
          "phone": "er_B"
        },
        {
          "duration": 0.14,
          "phone": "ey_I"
        },
        {
          "duration": 0.07,
          "phone": "n_I"
        },
        {
          "duration": 0.11,
          "phone": "jh_I"
        },
        {
          "duration": 0.06,
          "phone": "m_I"
        },
        {
          "duration": 0.07,
          "phone": "ah_I"
        },
        {
          "duration": 0.03,
          "phone": "n_I"
        },
        {
          "duration": 0.05,
          "phone": "t_E"
        }
      ],
      "start": 2.96,
      "startOffset": 42,
      "word": "ARRANGEMENT"
    },
    {
      "alignedWord": "and",
      "case": "success",
      "end": 3.92,
      "endOffset": 57,
      "phones": [
        {
          "duration": 0.1,
          "phone": "ae_B"
        },
        {
          "duration": 0.05,
          "phone": "n_I"
        },
        {
          "duration": 0.08,
          "phone": "d_E"
        }
      ],
      "start": 3.69,
      "startOffset": 54,
      "word": "AND"
    },
    {
      "alignedWord": "tree",
      "case": "success",
      "end": 4.21,
      "endOffset": 62,
      "phones": [
        {
          "duration": 0.1,
          "phone": "t_B"
        },
        {
          "duration": 0.09,
          "phone": "r_I"
        },
        {
          "duration": 0.1,
          "phone": "iy_E"
        }
      ],
      "start": 3.92,
      "startOffset": 58,
      "word": "TREE"
    },
    {
      "alignedWord": "luxury",
      "case": "success",
      "end": 4.9,
      "endOffset": 69,
      "phones": [
        {
          "duration": 0.14,
          "phone": "l_B"
        },
        {
          "duration": 0.06,
          "phone": "ah_I"
        },
        {
          "duration": 0.08,
          "phone": "g_I"
        },
        {
          "duration": 0.13,
          "phone": "zh_I"
        },
        {
          "duration": 0.1,
          "phone": "er_I"
        },
        {
          "duration": 0.18,
          "phone": "iy_E"
        }
      ],
      "start": 4.21,
      "startOffset": 63,
      "word": "LUXURY"
    },
    {
      "alignedWord": "our",
      "case": "success",
      "end": 5.72,
      "endOffset": 73,
      "phones": [
        {
          "duration": 0.11,
          "phone": "aa_B"
        },
        {
          "duration": 0.07,
          "phone": "r_E"
        }
      ],
      "start": 5.54,
      "startOffset": 70,
      "word": "OUR"
    },
    {
      "alignedWord": "mechanical",
      "case": "success",
      "end": 6.41,
      "endOffset": 84,
      "phones": [
        {
          "duration": 0.07,
          "phone": "m_B"
        },
        {
          "duration": 0.09,
          "phone": "ah_I"
        },
        {
          "duration": 0.07,
          "phone": "k_I"
        },
        {
          "duration": 0.1,
          "phone": "ae_I"
        },
        {
          "duration": 0.06,
          "phone": "n_I"
        },
        {
          "duration": 0.09,
          "phone": "ih_I"
        },
        {
          "duration": 0.03,
          "phone": "k_I"
        },
        {
          "duration": 0.09,
          "phone": "ah_I"
        },
        {
          "duration": 0.08,
          "phone": "l_E"
        }
      ],
      "start": 5.73,
      "startOffset": 74,
      "word": "MECHANICAL"
    },
    {
      "alignedWord": "east",
      "case": "success",
      "end": 6.779999999999999,
      "endOffset": 89,
      "phones": [
        {
          "duration": 0.2,
          "phone": "iy_B"
        },
        {
          "duration": 0.11,
          "phone": "s_I"
        },
        {
          "duration": 0.04,
          "phone": "t_E"
        }
      ],
      "start": 6.43,
      "startOffset": 85,
      "word": "EAST"
    },
    {
      "alignedWord": "is",
      "case": "success",
      "end": 7.07,
      "endOffset": 92,
      "phones": [
        {
          "duration": 0.11,
          "phone": "ih_B"
        },
        {
          "duration": 0.14,
          "phone": "z_E"
        }
      ],
      "start": 6.82,
      "startOffset": 90,
      "word": "IS"
    },
    {
      "alignedWord": "<unk>",
      "case": "success",
      "end": 7.66,
      "endOffset": 101,
      "phones": [
        {
          "duration": 0.56,
          "phone": "oov_S"
        }
      ],
      "start": 7.1,
      "startOffset": 93,
      "word": "REPROVED"
    },
    {
      "alignedWord": "our",
      "case": "success",
      "end": 8.219999,
      "endOffset": 105,
      "phones": [
        {
          "duration": 0.09,
          "phone": "aa_B"
        },
        {
          "duration": 0.07,
          "phone": "r_E"
        }
      ],
      "start": 8.059999,
      "startOffset": 102,
      "word": "OUR"
    },
    {
      "alignedWord": "tension",
      "case": "success",
      "end": 8.770000000000001,
      "endOffset": 113,
      "phones": [
        {
          "duration": 0.12,
          "phone": "t_B"
        },
        {
          "duration": 0.09,
          "phone": "eh_I"
        },
        {
          "duration": 0.1,
          "phone": "n_I"
        },
        {
          "duration": 0.11,
          "phone": "sh_I"
        },
        {
          "duration": 0.07,
          "phone": "ah_I"
        },
        {
          "duration": 0.06,
          "phone": "n_E"
        }
      ],
      "start": 8.22,
      "startOffset": 106,
      "word": "TENSION"
    },
    {
      "alignedWord": "is",
      "case": "success",
      "end": 8.99,
      "endOffset": 116,
      "phones": [
        {
          "duration": 0.09,
          "phone": "ih_B"
        },
        {
          "duration": 0.13,
          "phone": "z_E"
        }
      ],
      "start": 8.77,
      "startOffset": 114,
      "word": "IS"
    },
    {
      "alignedWord": "relaxed",
      "case": "success",
      "end": 9.68,
      "endOffset": 124,
      "phones": [
        {
          "duration": 0.05,
          "phone": "r_B"
        },
        {
          "duration": 0.07,
          "phone": "iy_I"
        },
        {
          "duration": 0.08,
          "phone": "l_I"
        },
        {
          "duration": 0.14,
          "phone": "ae_I"
        },
        {
          "duration": 0.17,
          "phone": "k_I"
        },
        {
          "duration": 0.1,
          "phone": "s_I"
        },
        {
          "duration": 0.08,
          "phone": "t_E"
        }
      ],
      "start": 8.99,
      "startOffset": 117,
      "word": "RELAXED"
    },
    {
      "alignedWord": "our",
      "case": "success",
      "end": 10.18,
      "endOffset": 128,
      "phones": [
        {
          "duration": 0.09,
          "phone": "aa_B"
        },
        {
          "duration": 0.08,
          "phone": "r_E"
        }
      ],
      "start": 10.01,
      "startOffset": 125,
      "word": "OUR"
    },
    {
      "alignedWord": "ugliness",
      "case": "success",
      "end": 10.799999,
      "endOffset": 137,
      "phones": [
        {
          "duration": 0.12,
          "phone": "ah_B"
        },
        {
          "duration": 0.1,
          "phone": "g_I"
        },
        {
          "duration": 0.05,
          "phone": "l_I"
        },
        {
          "duration": 0.06,
          "phone": "iy_I"
        },
        {
          "duration": 0.08,
          "phone": "n_I"
        },
        {
          "duration": 0.1,
          "phone": "ah_I"
        },
        {
          "duration": 0.07,
          "phone": "s_E"
        }
      ],
      "start": 10.219999,
      "startOffset": 129,
      "word": "UGLINESS"
    },
    {
      "alignedWord": "is",
      "case": "success",
      "end": 10.979999,
      "endOffset": 140,
      "phones": [
        {
          "duration": 0.08,
          "phone": "ih_B"
        },
        {
          "duration": 0.09,
          "phone": "z_E"
        }
      ],
      "start": 10.809999,
      "startOffset": 138,
      "word": "IS"
    },
    {
      "alignedWord": "challenged",
      "case": "success",
      "end": 11.57,
      "endOffset": 151,
      "phones": [
        {
          "duration": 0.14,
          "phone": "ch_B"
        },
        {
          "duration": 0.09,
          "phone": "ae_I"
        },
        {
          "duration": 0.06,
          "phone": "l_I"
        },
        {
          "duration": 0.07,
          "phone": "ah_I"
        },
        {
          "duration": 0.06,
          "phone": "n_I"
        },
        {
          "duration": 0.09,
          "phone": "jh_I"
        },
        {
          "duration": 0.08,
          "phone": "d_E"
        }
      ],
      "start": 10.98,
      "startOffset": 141,
      "word": "CHALLENGED"
    },
    {
      "alignedWord": "every",
      "case": "success",
      "end": 11.81,
      "endOffset": 157,
      "phones": [
        {
          "duration": 0.06,
          "phone": "eh_B"
        },
        {
          "duration": 0.08,
          "phone": "v_I"
        },
        {
          "duration": 0.04,
          "phone": "r_I"
        },
        {
          "duration": 0.06,
          "phone": "iy_E"
        }
      ],
      "start": 11.57,
      "startOffset": 152,
      "word": "EVERY"
    },
    {
      "alignedWord": "time",
      "case": "success",
      "end": 12.119999,
      "endOffset": 162,
      "phones": [
        {
          "duration": 0.09,
          "phone": "t_B"
        },
        {
          "duration": 0.14,
          "phone": "ay_I"
        },
        {
          "duration": 0.08,
          "phone": "m_E"
        }
      ],
      "start": 11.809999,
      "startOffset": 158,
      "word": "TIME"
    },
    {
      "alignedWord": "we",
      "case": "success",
      "end": 12.239999999999998,
      "endOffset": 165,
      "phones": [
        {
          "duration": 0.04,
          "phone": "w_B"
        },
        {
          "duration": 0.08,
          "phone": "iy_E"
        }
      ],
      "start": 12.12,
      "startOffset": 163,
      "word": "WE"
    },
    {
      "alignedWord": "look",
      "case": "success",
      "end": 12.47,
      "endOffset": 170,
      "phones": [
        {
          "duration": 0.07,
          "phone": "l_B"
        },
        {
          "duration": 0.07,
          "phone": "uh_I"
        },
        {
          "duration": 0.09,
          "phone": "k_E"
        }
      ],
      "start": 12.24,
      "startOffset": 166,
      "word": "LOOK"
    },
    {
      "alignedWord": "upon",
      "case": "success",
      "end": 12.819999,
      "endOffset": 175,
      "phones": [
        {
          "duration": 0.06,
          "phone": "ah_B"
        },
        {
          "duration": 0.09,
          "phone": "p_I"
        },
        {
          "duration": 0.1,
          "phone": "aa_I"
        },
        {
          "duration": 0.1,
          "phone": "n_E"
        }
      ],
      "start": 12.469999,
      "startOffset": 171,
      "word": "UPON"
    },
    {
      "alignedWord": "those",
      "case": "success",
      "end": 13.14,
      "endOffset": 181,
      "phones": [
        {
          "duration": 0.07,
          "phone": "dh_B"
        },
        {
          "duration": 0.12,
          "phone": "ow_I"
        },
        {
          "duration": 0.12,
          "phone": "z_E"
        }
      ],
      "start": 12.83,
      "startOffset": 176,
      "word": "THOSE"
    },
    {
      "alignedWord": "garden",
      "case": "success",
      "end": 13.530000000000001,
      "endOffset": 188,
      "phones": [
        {
          "duration": 0.09,
          "phone": "g_B"
        },
        {
          "duration": 0.07,
          "phone": "aa_I"
        },
        {
          "duration": 0.06,
          "phone": "r_I"
        },
        {
          "duration": 0.04,
          "phone": "d_I"
        },
        {
          "duration": 0.05,
          "phone": "ah_I"
        },
        {
          "duration": 0.07,
          "phone": "n_E"
        }
      ],
      "start": 13.15,
      "startOffset": 182,
      "word": "GARDEN"
    },
    {
      "alignedWord": "paths",
      "case": "success",
      "end": 14.0,
      "endOffset": 194,
      "phones": [
        {
          "duration": 0.07,
          "phone": "p_B"
        },
        {
          "duration": 0.17,
          "phone": "ae_I"
        },
        {
          "duration": 0.13,
          "phone": "th_I"
        },
        {
          "duration": 0.1,
          "phone": "s_E"
        }
      ],
      "start": 13.53,
      "startOffset": 189,
      "word": "PATHS"
    },
    {
      "alignedWord": "and",
      "case": "success",
      "end": 14.18,
      "endOffset": 198,
      "phones": [
        {
          "duration": 0.08,
          "phone": "ah_B"
        },
        {
          "duration": 0.03,
          "phone": "n_I"
        },
        {
          "duration": 0.07,
          "phone": "d_E"
        }
      ],
      "start": 14.0,
      "startOffset": 195,
      "word": "AND"
    },
    {
      "alignedWord": "forests",
      "case": "success",
      "end": 14.769999,
      "endOffset": 206,
      "phones": [
        {
          "duration": 0.09,
          "phone": "f_B"
        },
        {
          "duration": 0.09,
          "phone": "ao_I"
        },
        {
          "duration": 0.09,
          "phone": "r_I"
        },
        {
          "duration": 0.11,
          "phone": "ah_I"
        },
        {
          "duration": 0.02,
          "phone": "s_I"
        },
        {
          "duration": 0.01,
          "phone": "t_I"
        },
        {
          "duration": 0.18,
          "phone": "s_E"
        }
      ],
      "start": 14.179999,
      "startOffset": 199,
      "word": "FORESTS"
    }
  ]
}