{
  "transcript": "AND HER BIG BLACKISH BLUE EYES SPARKLED BUT SHE HADN'T BEEN LAUGHING BEFORE OR SPARKLING EITHER",
  "words": [
    {
      "alignedWord": "and",
      "case": "success",
      "end": 0.37,
      "endOffset": 3,
      "phones": [
        {
          "duration": 0.08,
          "phone": "ae_B"
        },
        {
          "duration": 0.05,
          "phone": "n_I"
        },
        {
          "duration": 0.06,
          "phone": "d_E"
        }
      ],
      "start": 0.18,
      "startOffset": 0,
      "word": "AND"
    },
    {
      "alignedWord": "her",
      "case": "success",
      "end": 0.53,
      "endOffset": 7,
      "phones": [
        {
          "duration": 0.07,
          "phone": "hh_B"
        },
        {
          "duration": 0.09,
          "phone": "er_E"
        }
      ],
      "start": 0.37,
      "startOffset": 4,
      "word": "HER"
    },
    {
      "alignedWord": "big",
      "case": "success",
      "end": 0.92,
      "endOffset": 11,
      "phones": [
        {
          "duration": 0.13,
          "phone": "b_B"
        },
        {
          "duration": 0.18,
          "phone": "ih_I"
        },
        {
          "duration": 0.07,
          "phone": "g_E"
        }
      ],
      "start": 0.54,
      "startOffset": 8,
      "word": "BIG"
    },
    {
      "alignedWord": "<unk>",
      "case": "success",
      "end": 1.4100000000000001,
      "endOffset": 20,
      "phones": [
        {
          "duration": 0.34,
          "phone": "oov_S"
        }
      ],
      "start": 1.07,
      "startOffset": 12,
      "word": "BLACKISH"
    },
    {
      "alignedWord": "blue",
      "case": "success",
      "end": 1.76,
      "endOffset": 25,
      "phones": [
        {
          "duration": 0.09,
          "phone": "b_B"
        },
        {
          "duration": 0.09,
          "phone": "l_I"
        },
        {
          "duration": 0.13,
          "phone": "uw_E"
        }
      ],
      "start": 1.45,
      "startOffset": 21,
      "word": "BLUE"
    },
    {
      "alignedWord": "eyes",
      "case": "success",
      "end": 2.14,
      "endOffset": 30,
      "phones": [
        {
          "duration": 0.21,
          "phone": "ay_B"
        },
        {
          "duration": 0.17,
          "phone": "z_E"
        }
      ],
      "start": 1.76,
      "startOffset": 26,
      "word": "EYES"
    },
    {
      "alignedWord": "<unk>",
      "case": "success",
      "end": 2.77,
      "endOffset": 39,
      "phones": [
        {
          "duration": 0.58,
          "phone": "oov_S"
        }
      ],
      "start": 2.19,
      "startOffset": 31,
      "word": "SPARKLED"
    },
    {
      "alignedWord": "but",
      "case": "success",
      "end": 3.4,
      "endOffset": 43,
      "phones": [
        {
          "duration": 0.07,
          "phone": "b_B"
        },
        {
          "duration": 0.06,
          "phone": "ah_I"
        },
        {
          "duration": 0.06,
          "phone": "t_E"
        }
      ],
      "start": 3.21,
      "startOffset": 40,
      "word": "BUT"
    },
    {
      "alignedWord": "she",
      "case": "success",
      "end": 3.56,
      "endOffset": 47,
      "phones": [
        {
          "duration": 0.06,
          "phone": "sh_B"
        },
        {
          "duration": 0.1,
          "phone": "iy_E"
        }
      ],
      "start": 3.4,
      "startOffset": 44,
      "word": "SHE"
    },
    {
      "alignedWord": "hadn't",
      "case": "success",
      "end": 3.79,
      "endOffset": 54,
      "phones": [
        {
          "duration": 0.04,
          "phone": "hh_B"
        },
        {
          "duration": 0.07,
          "phone": "ae_I"
        },
        {
          "duration": 0.03,
          "phone": "d_I"
        },
        {
          "duration": 0.04,
          "phone": "ah_I"
        },
        {
          "duration": 0.05,
          "phone": "n_E"
        }
      ],
      "start": 3.56,
      "startOffset": 48,
      "word": "HADN'T"
    },
    {
      "alignedWord": "been",
      "case": "success",
      "end": 3.99,
      "endOffset": 59,
      "phones": [
        {
          "duration": 0.05,
          "phone": "b_B"
        },
        {
          "duration": 0.07,
          "phone": "ih_I"
        },
        {
          "duration": 0.08,
          "phone": "n_E"
        }
      ],
      "start": 3.79,
      "startOffset": 55,
      "word": "BEEN"
    },
    {
      "alignedWord": "laughing",
      "case": "success",
      "end": 4.36,
      "endOffset": 68,
      "phones": [
        {
          "duration": 0.06,
          "phone": "l_B"
        },
        {
          "duration": 0.08,
          "phone": "ae_I"
        },
        {
          "duration": 0.08,
          "phone": "f_I"
        },
        {
          "duration": 0.05,
          "phone": "ih_I"
        },
        {
          "duration": 0.1,
          "phone": "ng_E"
        }
      ],
      "start": 3.99,
      "startOffset": 60,
      "word": "LAUGHING"
    },
    {
      "alignedWord": "before",
      "case": "success",
      "end": 4.890000000000001,
      "endOffset": 75,
      "phones": [
        {
          "duration": 0.03,
          "phone": "b_B"
        },
        {
          "duration": 0.09,
          "phone": "ih_I"
        },
        {
          "duration": 0.09,
          "phone": "f_I"
        },
        {
          "duration": 0.18,
          "phone": "ao_I"
        },
        {
          "duration": 0.14,
          "phone": "r_E"
        }
      ],
      "start": 4.36,
      "startOffset": 69,
      "word": "BEFORE"
    },
    {
      "alignedWord": "or",
      "case": "success",
      "end": 5.1,
      "endOffset": 78,
      "phones": [
        {
          "duration": 0.1,
          "phone": "ao_B"
        },
        {
          "duration": 0.07,
          "phone": "r_E"
        }
      ],
      "start": 4.93,
      "startOffset": 76,
      "word": "OR"
    },
    {
      "alignedWord": "sparkling",
      "case": "success",
      "end": 5.66,
      "endOffset": 88,
      "phones": [
        {
          "duration": 0.08,
          "phone": "s_B"
        },
        {
          "duration": 0.08,
          "phone": "p_I"
        },
        {
          "duration": 0.08,
          "phone": "aa_I"
        },
        {
          "duration": 0.06,
          "phone": "r_I"
        },
        {
          "duration": 0.08,
          "phone": "k_I"
        },
        {
          "duration": 0.04,
          "phone": "l_I"
        },
        {
          "duration": 0.08,
          "phone": "ih_I"
        },
        {
          "duration": 0.06,
          "phone": "ng_E"
        }
      ],
      "start": 5.1,
      "startOffset": 79,
      "word": "SPARKLING"
    },
    {
      "alignedWord": "either",
      "case": "success",
      "end": 6.0200000000000005,
      "endOffset": 95,
      "phones": [
        {
          "duration": 0.12,
          "phone": "ay_B"
        },
        {
          "duration": 0.09,
          "phone": "dh_I"
        },
        {
          "duration": 0.15,
          "phone": "er_E"
        }
      ],
      "start": 5.66,
      "startOffset": 89,
      "word": "EITHER"
    }
  ]
}