{
  "transcript": "NOTHING REMAINED NOW BUT TO MEET THE IMPENDING EXAMINATION WITH AS MUCH INDIFFERENCE AS THE FAMILY COULD ASSUME THE LEADER OF THE HORSE DISMOUNTED AND FOLLOWED BY A COUPLE OF HIS MEN HE APPROACHED THE OUTER DOOR OF THE BUILDING",
  "words": [
    {
      "alignedWord": "nothing",
      "case": "success",
      "end": 0.91,
      "endOffset": 7,
      "phones": [
        {
          "duration": 0.09,
          "phone": "n_B"
        },
        {
          "duration": 0.08,
          "phone": "ah_I"
        },
        {
          "duration": 0.07,
          "phone": "th_I"
        },
        {
          "duration": 0.04,
          "phone": "ih_I"
        },
        {
          "duration": 0.09,
          "phone": "ng_E"
        }
      ],
      "start": 0.54,
      "startOffset": 0,
      "word": "NOTHING"
    },
    {
      "alignedWord": "remained",
      "case": "success",
      "end": 1.3900000000000001,
      "endOffset": 16,
      "phones": [
        {
          "duration": 0.05,
          "phone": "r_B"
        },
        {
          "duration": 0.05,
          "phone": "ih_I"
        },
        {
          "duration": 0.1,
          "phone": "m_I"
        },
        {
          "duration": 0.13,
          "phone": "ey_I"
        },
        {
          "duration": 0.06,
          "phone": "n_I"
        },
        {
          "duration": 0.09,
          "phone": "d_E"
        }
      ],
      "start": 0.91,
      "startOffset": 8,
      "word": "REMAINED"
    },
    {
      "alignedWord": "now",
      "case": "success",
      "end": 1.73,
      "endOffset": 20,
      "phones": [
        {
          "duration": 0.1,
          "phone": "n_B"
        },
        {
          "duration": 0.24,
          "phone": "aw_E"
        }
      ],
      "start": 1.39,
      "startOffset": 17,
      "word": "NOW"
    },
    {
      "alignedWord": "but",
      "case": "success",
      "end": 1.92,
      "endOffset": 24,
      "phones": [
        {
          "duration": 0.09,
          "phone": "b_B"
        },
        {
          "duration": 0.04,
          "phone": "ah_I"
        },
        {
          "duration": 0.06,
          "phone": "t_E"
        }
      ],
      "start": 1.73,
      "startOffset": 21,
      "word": "BUT"
    },
    {
      "alignedWord": "to",
      "case": "success",
      "end": 2.05,
      "endOffset": 27,
      "phones": [
        {
          "duration": 0.06,
          "phone": "t_B"
        },
        {
          "duration": 0.06,
          "phone": "ih_E"
        }
      ],
      "start": 1.93,
      "startOffset": 25,
      "word": "TO"
    },
    {
      "alignedWord": "meet",
      "case": "success",
      "end": 2.3099999999999996,
      "endOffset": 32,
      "phones": [
        {
          "duration": 0.07,
          "phone": "m_B"
        },
        {
          "duration": 0.11,
          "phone": "iy_I"
        },
        {
          "duration": 0.08,
          "phone": "t_E"
        }
      ],
      "start": 2.05,
      "startOffset": 28,
      "word": "MEET"
    },
    {
      "alignedWord": "the",
      "case": "success",
      "end": 2.45,
      "endOffset": 36,
      "phones": [
        {
          "duration": 0.07,
          "phone": "dh_B"
        },
        {
          "duration": 0.07,
          "phone": "iy_E"
        }
      ],
      "start": 2.31,
      "startOffset": 33,
      "word": "THE"
    },
    {
      "alignedWord": "impending",
      "case": "success",
      "end": 3.0300000000000002,
      "endOffset": 46,
      "phones": [
        {
          "duration": 0.04,
          "phone": "ih_B"
        },
        {
          "duration": 0.09,
          "phone": "m_I"
        },
        {
          "duration": 0.08,
          "phone": "p_I"
        },
        {
          "duration": 0.08,
          "phone": "eh_I"
        },
        {
          "duration": 0.07,
          "phone": "n_I"
        },
        {
          "duration": 0.06,
          "phone": "d_I"
        },
        {
          "duration": 0.07,
          "phone": "ih_I"
        },
        {
          "duration": 0.09,
          "phone": "ng_E"
        }
      ],
      "start": 2.45,
      "startOffset": 37,
      "word": "IMPENDING"
    },
    {
      "alignedWord": "examination",
      "case": "success",
      "end": 3.96,
      "endOffset": 58,
      "phones": [
        {
          "duration": 0.07,
          "phone": "ih_B"
        },
        {
          "duration": 0.05,
          "phone": "g_I"
        },
        {
          "duration": 0.12,
          "phone": "z_I"
        },
        {
          "duration": 0.11,
          "phone": "ae_I"
        },
        {
          "duration": 0.05,
          "phone": "m_I"
        },
        {
          "duration": 0.06,
          "phone": "ah_I"
        },
        {
          "duration": 0.06,
          "phone": "n_I"
        },
        {
          "duration": 0.11,
          "phone": "ey_I"
        },
        {
          "duration": 0.12,
          "phone": "sh_I"
        },
        {
          "duration": 0.07,
          "phone": "ah_I"
        },
        {
          "duration": 0.11,
          "phone": "n_E"
        }
      ],
      "start": 3.03,
      "startOffset": 47,
      "word": "EXAMINATION"
    },
    {
      "alignedWord": "with",
      "case": "success",
      "end": 4.420000000000001,
      "endOffset": 63,
      "phones": [
        {
          "duration": 0.09,
          "phone": "w_B"
        },
        {
          "duration": 0.06,
          "phone": "ih_I"
        },
        {
          "duration": 0.04,
          "phone": "dh_E"
        }
      ],
      "start": 4.23,
      "startOffset": 59,
      "word": "WITH"
    },
    {
      "alignedWord": "as",
      "case": "success",
      "end": 4.56,
      "endOffset": 66,
      "phones": [
        {
          "duration": 0.06,
          "phone": "eh_B"
        },
        {
          "duration": 0.08,
          "phone": "z_E"
        }
      ],
      "start": 4.42,
      "startOffset": 64,
      "word": "AS"
    },
    {
      "alignedWord": "much",
      "case": "success",
      "end": 4.819999999999999,
      "endOffset": 71,
      "phones": [
        {
          "duration": 0.07,
          "phone": "m_B"
        },
        {
          "duration": 0.08,
          "phone": "ah_I"
        },
        {
          "duration": 0.11,
          "phone": "ch_E"
        }
      ],
      "start": 4.56,
      "startOffset": 67,
      "word": "MUCH"
    },
    {
      "alignedWord": "indifference",
      "case": "success",
      "end": 5.54,
      "endOffset": 84,
      "phones": [
        {
          "duration": 0.15,
          "phone": "ih_B"
        },
        {
          "duration": 0.12,
          "phone": "n_I"
        },
        {
          "duration": 0.01,
          "phone": "d_I"
        },
        {
          "duration": 0.12,
          "phone": "ih_I"
        },
        {
          "duration": 0.09,
          "phone": "f_I"
        },
        {
          "duration": 0.02,
          "phone": "r_I"
        },
        {
          "duration": 0.07,
          "phone": "ah_I"
        },
        {
          "duration": 0.07,
          "phone": "n_I"
        },
        {
          "duration": 0.06,
          "phone": "s_E"
        }
      ],
      "start": 4.83,
      "startOffset": 72,
      "word": "INDIFFERENCE"
    },
    {
      "alignedWord": "as",
      "case": "success",
      "end": 5.69,
      "endOffset": 87,
      "phones": [
        {
          "duration": 0.08,
          "phone": "eh_B"
        },
        {
          "duration": 0.07,
          "phone": "z_E"
        }
      ],
      "start": 5.54,
      "startOffset": 85,
      "word": "AS"
    },
    {
      "alignedWord": "the",
      "case": "success",
      "end": 5.79,
      "endOffset": 91,
      "phones": [
        {
          "duration": 0.05,
          "phone": "dh_B"
        },
        {
          "duration": 0.05,
          "phone": "ah_E"
        }
      ],
      "start": 5.69,
      "startOffset": 88,
      "word": "THE"
    },
    {
      "alignedWord": "family",
      "case": "success",
      "end": 6.19,
      "endOffset": 98,
      "phones": [
        {
          "duration": 0.09,
          "phone": "f_B"
        },
        {
          "duration": 0.13,
          "phone": "ae_I"
        },
        {
          "duration": 0.06,
          "phone": "m_I"
        },
        {
          "duration": 0.05,
          "phone": "l_I"
        },
        {
          "duration": 0.07,
          "phone": "iy_E"
        }
      ],
      "start": 5.79,
      "startOffset": 92,
      "word": "FAMILY"
    },
    {
      "alignedWord": "could",
      "case": "success",
      "end": 6.380000000000001,
      "endOffset": 104,
      "phones": [
        {
          "duration": 0.07,
          "phone": "k_B"
        },
        {
          "duration": 0.05,
          "phone": "uh_I"
        },
        {
          "duration": 0.07,
          "phone": "d_E"
        }
      ],
      "start": 6.19,
      "startOffset": 99,
      "word": "COULD"
    },
    {
      "alignedWord": "assume",
      "case": "success",
      "end": 6.9,
      "endOffset": 111,
      "phones": [
        {
          "duration": 0.05,
          "phone": "ah_B"
        },
        {
          "duration": 0.14,
          "phone": "s_I"
        },
        {
          "duration": 0.16,
          "phone": "uw_I"
        },
        {
          "duration": 0.17,
          "phone": "m_E"
        }
      ],
      "start": 6.38,
      "startOffset": 105,
      "word": "ASSUME"
    },
    {
      "alignedWord": "the",
      "case": "success",
      "end": 8.22,
      "endOffset": 115,
      "phones": [
        {
          "duration": 0.08,
          "phone": "dh_B"
        },
        {
          "duration": 0.07,
          "phone": "ah_E"
        }
      ],
      "start": 8.07,
      "startOffset": 112,
      "word": "THE"
    },
    {
      "alignedWord": "leader",
      "case": "success",
      "end": 8.530000000000001,
      "endOffset": 122,
      "phones": [
        {
          "duration": 0.09,
          "phone": "l_B"
        },
        {
          "duration": 0.08,
          "phone": "iy_I"
        },
        {
          "duration": 0.07,
          "phone": "d_I"
        },
        {
          "duration": 0.07,
          "phone": "er_E"
        }
      ],
      "start": 8.22,
      "startOffset": 116,
      "word": "LEADER"
    },
    {
      "alignedWord": "of",
      "case": "success",
      "end": 8.68,
      "endOffset": 125,
      "phones": [
        {
          "duration": 0.05,
          "phone": "ah_B"
        },
        {
          "duration": 0.1,
          "phone": "v_E"
        }
      ],
      "start": 8.53,
      "startOffset": 123,
      "word": "OF"
    },
    {
      "alignedWord": "the",
      "case": "success",
      "end": 8.749999,
      "endOffset": 129,
      "phones": [
        {
          "duration": 0.01,
          "phone": "dh_B"
        },
        {
          "duration": 0.06,
          "phone": "ah_E"
        }
      ],
      "start": 8.679999,
      "startOffset": 126,
      "word": "THE"
    },
    {
      "alignedWord": "horse",
      "case": "success",
      "end": 9.09,
      "endOffset": 135,
      "phones": [
        {
          "duration": 0.06,
          "phone": "hh_B"
        },
        {
          "duration": 0.12,
          "phone": "ao_I"
        },
        {
          "duration": 0.08,
          "phone": "r_I"
        },
        {
          "duration": 0.08,
          "phone": "s_E"
        }
      ],
      "start": 8.75,
      "startOffset": 130,
      "word": "HORSE"
    },
    {
      "alignedWord": "<unk>",
      "case": "success",
      "end": 9.86,
      "endOffset": 146,
      "phones": [
        {
          "duration": 0.74,
          "phone": "oov_S"
        }
      ],
      "start": 9.12,
      "startOffset": 136,
      "word": "DISMOUNTED"
    },
    {
      "alignedWord": "and",
      "case": "success",
      "end": 10.59,
      "endOffset": 150,
      "phones": [
        {
          "duration": 0.07,
          "phone": "ae_B"
        },
        {
          "duration": 0.05,
          "phone": "n_I"
        },
        {
          "duration": 0.07,
          "phone": "d_E"
        }
      ],
      "start": 10.4,
      "startOffset": 147,
      "word": "AND"
    },
    {
      "alignedWord": "followed",
      "case": "success",
      "end": 10.959999999999999,
      "endOffset": 159,
      "phones": [
        {
          "duration": 0.08,
          "phone": "f_B"
        },
        {
          "duration": 0.08,
          "phone": "aa_I"
        },
        {
          "duration": 0.07,
          "phone": "l_I"
        },
        {
          "duration": 0.07,
          "phone": "ow_I"
        },
        {
          "duration": 0.07,
          "phone": "d_E"
        }
      ],
      "start": 10.59,
      "startOffset": 151,
      "word": "FOLLOWED"
    },
    {
      "alignedWord": "by",
      "case": "success",
      "end": 11.14,
      "endOffset": 162,
      "phones": [
        {
          "duration": 0.08,
          "phone": "b_B"
        },
        {
          "duration": 0.1,
          "phone": "ay_E"
        }
      ],
      "start": 10.96,
      "startOffset": 160,
      "word": "BY"
    },
    {
      "alignedWord": "a",
      "case": "success",
      "end": 11.209999,
      "endOffset": 164,
      "phones": [
        {
          "duration": 0.07,
          "phone": "ah_S"
        }
      ],
      "start": 11.139999,
      "startOffset": 163,
      "word": "A"
    },
    {
      "alignedWord": "couple",
      "case": "success",
      "end": 11.55,
      "endOffset": 171,
      "phones": [
        {
          "duration": 0.08,
          "phone": "k_B"
        },
        {
          "duration": 0.08,
          "phone": "ah_I"
        },
        {
          "duration": 0.08,
          "phone": "p_I"
        },
        {
          "duration": 0.01,
          "phone": "ah_I"
        },
        {
          "duration": 0.09,
          "phone": "l_E"
        }
      ],
      "start": 11.21,
      "startOffset": 165,
      "word": "COUPLE"
    },
    {
      "alignedWord": "of",
      "case": "success",
      "end": 11.65,
      "endOffset": 174,
      "phones": [
        {
          "duration": 0.04,
          "phone": "ah_B"
        },
        {
          "duration": 0.06,
          "phone": "v_E"
        }
      ],
      "start": 11.55,
      "startOffset": 172,
      "word": "OF"
    },
    {
      "alignedWord": "his",
      "case": "success",
      "end": 11.81,
      "endOffset": 178,
      "phones": [
        {
          "duration": 0.04,
          "phone": "hh_B"
        },
        {
          "duration": 0.04,
          "phone": "ih_I"
        },
        {
          "duration": 0.08,
          "phone": "z_E"
        }
      ],
      "start": 11.65,
      "startOffset": 175,
      "word": "HIS"
    },
    {
      "alignedWord": "men",
      "case": "success",
      "end": 12.249998999999999,
      "endOffset": 182,
      "phones": [
        {
          "duration": 0.08,
          "phone": "m_B"
        },
        {
          "duration": 0.16,
          "phone": "eh_I"
        },
        {
          "duration": 0.2,
          "phone": "n_E"
        }
      ],
      "start": 11.809999,
      "startOffset": 179,
      "word": "MEN"
    },
    {
      "alignedWord": "he",
      "case": "success",
      "end": 12.99,
      "endOffset": 185,
      "phones": [
        {
          "duration": 0.14,
          "phone": "hh_B"
        },
        {
          "duration": 0.07,
          "phone": "iy_E"
        }
      ],
      "start": 12.78,
      "startOffset": 183,
      "word": "HE"
    },
    {
      "alignedWord": "approached",
      "case": "success",
      "end": 13.56,
      "endOffset": 196,
      "phones": [
        {
          "duration": 0.07,
          "phone": "ah_B"
        },
        {
          "duration": 0.1,
          "phone": "p_I"
        },
        {
          "duration": 0.07,
          "phone": "r_I"
        },
        {
          "duration": 0.12,
          "phone": "ow_I"
        },
        {
          "duration": 0.19,
          "phone": "ch_I"
        },
        {
          "duration": 0.02,
          "phone": "t_E"
        }
      ],
      "start": 12.99,
      "startOffset": 186,
      "word": "APPROACHED"
    },
    {
      "alignedWord": "the",
      "case": "success",
      "end": 13.789999,
      "endOffset": 200,
      "phones": [
        {
          "duration": 0.09,
          "phone": "dh_B"
        },
        {
          "duration": 0.1,
          "phone": "iy_E"
        }
      ],
      "start": 13.599999,
      "startOffset": 197,
      "word": "THE"
    },
    {
      "alignedWord": "outer",
      "case": "success",
      "end": 14.04,
      "endOffset": 206,
      "phones": [
        {
          "duration": 0.12,
          "phone": "aw_B"
        },
        {
          "duration": 0.06,
          "phone": "t_I"
        },
        {
          "duration": 0.07,
          "phone": "er_E"
        }
      ],
      "start": 13.79,
      "startOffset": 201,
      "word": "OUTER"
    },
    {
      "alignedWord": "door",
      "case": "success",
      "end": 14.26,
      "endOffset": 211,
      "phones": [
        {
          "duration": 0.07,
          "phone": "d_B"
        },
        {
          "duration": 0.11,
          "phone": "ao_I"
        },
        {
          "duration": 0.04,
          "phone": "r_E"
        }
      ],
      "start": 14.04,
      "startOffset": 207,
      "word": "DOOR"
    },
    {
      "alignedWord": "of",
      "case": "success",
      "end": 14.329999,
      "endOffset": 214,
      "phones": [
        {
          "duration": 0.06,
          "phone": "ah_B"
        },
        {
          "duration": 0.01,
          "phone": "v_E"
        }
      ],
      "start": 14.259999,
      "startOffset": 212,
      "word": "OF"
    },
    {
      "alignedWord": "the",
      "case": "success",
      "end": 14.45,
      "endOffset": 218,
      "phones": [
        {
          "duration": 0.08,
          "phone": "dh_B"
        },
        {
          "duration": 0.03,
          "phone": "ah_E"
        }
      ],
      "start": 14.34,
      "startOffset": 215,
      "word": "THE"
    },
    {
      "alignedWord": "building",
      "case": "success",
      "end": 14.879999999999999,
      "endOffset": 227,
      "phones": [
        {
          "duration": 0.07,
          "phone": "b_B"
        },
        {
          "duration": 0.08,
          "phone": "ih_I"
        },
        {
          "duration": 0.07,
          "phone": "l_I"
        },
        {
          "duration": 0.06,
          "phone": "d_I"
        },
        {
          "duration": 0.05,
          "phone": "ih_I"
        },
        {
          "duration": 0.1,
          "phone": "ng_E"
        }
      ],
      "start": 14.45,
      "startOffset": 219,
      "word": "BUILDING"
    }
  ]
}