{
  "transcript": "THE SUSPENSE OF THE PARTY WITHIN WHO WERE ALL HIGHLY INTERESTED WITNESSES OF THIS SCENE",
  "words": [
    {
      "alignedWord": "the",
      "case": "success",
      "end": 0.68,
      "endOffset": 3,
      "phones": [
        {
          "duration": 0.06,
          "phone": "dh_B"
        },
        {
          "duration": 0.07,
          "phone": "ah_E"
        }
      ],
      "start": 0.55,
      "startOffset": 0,
      "word": "THE"
    },
    {
      "alignedWord": "suspense",
      "case": "success",
      "end": 1.2000000000000002,
      "endOffset": 12,
      "phones": [
        {
          "duration": 0.07,
          "phone": "s_B"
        },
        {
          "duration": 0.09,
          "phone": "ah_I"
        },
        {
          "duration": 0.07,
          "phone": "s_I"
        },
        {
          "duration": 0.06,
          "phone": "p_I"
        },
        {
          "duration": 0.1,
          "phone": "eh_I"
        },
        {
          "duration": 0.09,
          "phone": "n_I"
        },
        {
          "duration": 0.04,
          "phone": "s_E"
        }
      ],
      "start": 0.68,
      "startOffset": 4,
      "word": "SUSPENSE"
    },
    {
      "alignedWord": "of",
      "case": "success",
      "end": 1.3199999999999998,
      "endOffset": 15,
      "phones": [
        {
          "duration": 0.06,
          "phone": "ah_B"
        },
        {
          "duration": 0.06,
          "phone": "v_E"
        }
      ],
      "start": 1.2,
      "startOffset": 13,
      "word": "OF"
    },
    {
      "alignedWord": "the",
      "case": "success",
      "end": 1.4000000000000001,
      "endOffset": 19,
      "phones": [
        {
          "duration": 0.01,
          "phone": "dh_B"
        },
        {
          "duration": 0.07,
          "phone": "ah_E"
        }
      ],
      "start": 1.32,
      "startOffset": 16,
      "word": "THE"
    },
    {
      "alignedWord": "party",
      "case": "success",
      "end": 1.73,
      "endOffset": 25,
      "phones": [
        {
          "duration": 0.08,
          "phone": "p_B"
        },
        {
          "duration": 0.08,
          "phone": "aa_I"
        },
        {
          "duration": 0.05,
          "phone": "r_I"
        },
        {
          "duration": 0.06,
          "phone": "t_I"
        },
        {
          "duration": 0.06,
          "phone": "iy_E"
        }
      ],
      "start": 1.4,
      "startOffset": 20,
      "word": "PARTY"
    },
    {
      "alignedWord": "within",
      "case": "success",
      "end": 2.29,
      "endOffset": 32,
      "phones": [
        {
          "duration": 0.05,
          "phone": "w_B"
        },
        {
          "duration": 0.05,
          "phone": "ih_I"
        },
        {
          "duration": 0.09,
          "phone": "th_I"
        },
        {
          "duration": 0.17,
          "phone": "ih_I"
        },
        {
          "duration": 0.2,
          "phone": "n_E"
        }
      ],
      "start": 1.73,
      "startOffset": 26,
      "word": "WITHIN"
    },
    {
      "alignedWord": "who",
      "case": "success",
      "end": 2.5900000000000003,
      "endOffset": 36,
      "phones": [
        {
          "duration": 0.1,
          "phone": "hh_B"
        },
        {
          "duration": 0.06,
          "phone": "uw_E"
        }
      ],
      "start": 2.43,
      "startOffset": 33,
      "word": "WHO"
    },
    {
      "alignedWord": "were",
      "case": "success",
      "end": 2.7399999999999998,
      "endOffset": 41,
      "phones": [
        {
          "duration": 0.07,
          "phone": "w_B"
        },
        {
          "duration": 0.08,
          "phone": "er_E"
        }
      ],
      "start": 2.59,
      "startOffset": 37,
      "word": "WERE"
    },
    {
      "alignedWord": "all",
      "case": "success",
      "end": 3.0100000000000002,
      "endOffset": 45,
      "phones": [
        {
          "duration": 0.19,
          "phone": "ao_B"
        },
        {
          "duration": 0.08,
          "phone": "l_E"
        }
      ],
      "start": 2.74,
      "startOffset": 42,
      "word": "ALL"
    },
    {
      "alignedWord": "highly",
      "case": "success",
      "end": 3.5799999999999996,
      "endOffset": 52,
      "phones": [
        {
          "duration": 0.21,
          "phone": "hh_B"
        },
        {
          "duration": 0.19,
          "phone": "ay_I"
        },
        {
          "duration": 0.08,
          "phone": "l_I"
        },
        {
          "duration": 0.09,
          "phone": "iy_E"
        }
      ],
      "start": 3.01,
      "startOffset": 46,
      "word": "HIGHLY"
    },
    {
      "alignedWord": "interested",
      "case": "success",
      "end": 4.24,
      "endOffset": 63,
      "phones": [
        {
          "duration": 0.11,
          "phone": "ih_B"
        },
        {
          "duration": 0.06,
          "phone": "n_I"
        },
        {
          "duration": 0.05,
          "phone": "t_I"
        },
        {
          "duration": 0.07,
          "phone": "r_I"
        },
        {
          "duration": 0.06,
          "phone": "ih_I"
        },
        {
          "duration": 0.07,
          "phone": "s_I"
        },
        {
          "duration": 0.07,
          "phone": "t_I"
        },
        {
          "duration": 0.07,
          "phone": "ih_I"
        },
        {
          "duration": 0.09,
          "phone": "d_E"
        }
      ],
      "start": 3.59,
      "startOffset": 53,
      "word": "INTERESTED"
    },
    {
      "alignedWord": "witnesses",
      "case": "success",
      "end": 4.84,
      "endOffset": 73,
      "phones": [
        {
          "duration": 0.11,
          "phone": "w_B"
        },
        {
          "duration": 0.09,
          "phone": "ih_I"
        },
        {
          "duration": 0.04,
          "phone": "t_I"
        },
        {
          "duration": 0.06,
          "phone": "n_I"
        },
        {
          "duration": 0.08,
          "phone": "ah_I"
        },
        {
          "duration": 0.07,
          "phone": "s_I"
        },
        {
          "duration": 0.07,
          "phone": "ih_I"
        },
        {
          "duration": 0.06,
          "phone": "z_E"
        }
      ],
      "start": 4.26,
      "startOffset": 64,
      "word": "WITNESSES"
    },
    {
      "alignedWord": "of",
      "case": "success",
      "end": 4.99,
      "endOffset": 76,
      "phones": [
        {
          "duration": 0.06,
          "phone": "ah_B"
        },
        {
          "duration": 0.09,
          "phone": "v_E"
        }
      ],
      "start": 4.84,
      "startOffset": 74,
      "word": "OF"
    },
    {
      "alignedWord": "this",
      "case": "success",
      "end": 5.15,
      "endOffset": 81,
      "phones": [
        {
          "duration": 0.01,
          "phone": "dh_B"
        },
        {
          "duration": 0.09,
          "phone": "ih_I"
        },
        {
          "duration": 0.06,
          "phone": "s_E"
        }
      ],
      "start": 4.99,
      "startOffset": 77,
      "word": "THIS"
    },
    {
      "alignedWord": "scene",
      "case": "success",
      "end": 5.62,
      "endOffset": 87,
      "phones": [
        {
          "duration": 0.13,
          "phone": "s_B"
        },
        {
          "duration": 0.2,
          "phone": "iy_I"
        },
        {
          "duration": 0.14,
          "phone": "n_E"
        }
      ],
      "start": 5.15,
      "startOffset": 82,
      "word": "SCENE"
    }
  ]
}