{
  "transcript": "YOUR REGARD FOR HIM CANNOT BE DOUBTED SAID EMILY SINCE YOU WISH TO SEE HIM A PRISONER WHY NO MA'AMSELLE NOT A PRISONER EITHER BUT ONE MUST BE GLAD TO SEE HIM YOU KNOW AND IT WAS ONLY THE OTHER NIGHT I DREAMT",
  "words": [
    {
      "alignedWord": "your",
      "case": "success",
      "end": 0.71,
      "endOffset": 4,
      "phones": [
        {
          "duration": 0.08,
          "phone": "y_B"
        },
        {
          "duration": 0.06,
          "phone": "uh_I"
        },
        {
          "duration": 0.06,
          "phone": "r_E"
        }
      ],
      "start": 0.51,
      "startOffset": 0,
      "word": "YOUR"
    },
    {
      "alignedWord": "regard",
      "case": "success",
      "end": 1.1199999999999999,
      "endOffset": 11,
      "phones": [
        {
          "duration": 0.03,
          "phone": "r_B"
        },
        {
          "duration": 0.07,
          "phone": "ah_I"
        },
        {
          "duration": 0.09,
          "phone": "g_I"
        },
        {
          "duration": 0.09,
          "phone": "aa_I"
        },
        {
          "duration": 0.06,
          "phone": "r_I"
        },
        {
          "duration": 0.07,
          "phone": "d_E"
        }
      ],
      "start": 0.71,
      "startOffset": 5,
      "word": "REGARD"
    },
    {
      "alignedWord": "for",
      "case": "success",
      "end": 1.2400000000000002,
      "endOffset": 15,
      "phones": [
        {
          "duration": 0.05,
          "phone": "f_B"
        },
        {
          "duration": 0.07,
          "phone": "er_E"
        }
      ],
      "start": 1.12,
      "startOffset": 12,
      "word": "FOR"
    },
    {
      "alignedWord": "him",
      "case": "success",
      "end": 1.44,
      "endOffset": 19,
      "phones": [
        {
          "duration": 0.06,
          "phone": "hh_B"
        },
        {
          "duration": 0.06,
          "phone": "ih_I"
        },
        {
          "duration": 0.08,
          "phone": "m_E"
        }
      ],
      "start": 1.24,
      "startOffset": 16,
      "word": "HIM"
    },
    {
      "alignedWord": "cannot",
      "case": "success",
      "end": 1.7999999999999998,
      "endOffset": 26,
      "phones": [
        {
          "duration": 0.12,
          "phone": "k_B"
        },
        {
          "duration": 0.06,
          "phone": "ae_I"
        },
        {
          "duration": 0.08,
          "phone": "n_I"
        },
        {
          "duration": 0.04,
          "phone": "aa_I"
        },
        {
          "duration": 0.06,
          "phone": "t_E"
        }
      ],
      "start": 1.44,
      "startOffset": 20,
      "word": "CANNOT"
    },
    {
      "alignedWord": "be",
      "case": "success",
      "end": 1.9300000000000002,
      "endOffset": 29,
      "phones": [
        {
          "duration": 0.04,
          "phone": "b_B"
        },
        {
          "duration": 0.09,
          "phone": "iy_E"
        }
      ],
      "start": 1.8,
      "startOffset": 27,
      "word": "BE"
    },
    {
      "alignedWord": "doubted",
      "case": "success",
      "end": 2.56,
      "endOffset": 37,
      "phones": [
        {
          "duration": 0.13,
          "phone": "d_B"
        },
        {
          "duration": 0.14,
          "phone": "aw_I"
        },
        {
          "duration": 0.07,
          "phone": "t_I"
        },
        {
          "duration": 0.13,
          "phone": "ih_I"
        },
        {
          "duration": 0.14,
          "phone": "d_E"
        }
      ],
      "start": 1.95,
      "startOffset": 30,
      "word": "DOUBTED"
    },
    {
      "alignedWord": "said",
      "case": "success",
      "end": 2.86,
      "endOffset": 42,
      "phones": [
        {
          "duration": 0.17,
          "phone": "s_B"
        },
        {
          "duration": 0.05,
          "phone": "eh_I"
        },
        {
          "duration": 0.07,
          "phone": "d_E"
        }
      ],
      "start": 2.57,
      "startOffset": 38,
      "word": "SAID"
    },
    {
      "alignedWord": "emily",
      "case": "success",
      "end": 3.31,
      "endOffset": 48,
      "phones": [
        {
          "duration": 0.13,
          "phone": "eh_B"
        },
        {
          "duration": 0.06,
          "phone": "m_I"
        },
        {
          "duration": 0.05,
          "phone": "ih_I"
        },
        {
          "duration": 0.07,
          "phone": "l_I"
        },
        {
          "duration": 0.13,
          "phone": "iy_E"
        }
      ],
      "start": 2.87,
      "startOffset": 43,
      "word": "EMILY"
    },
    {
      "alignedWord": "since",
      "case": "success",
      "end": 3.54,
      "endOffset": 54,
      "phones": [
        {
          "duration": 0.07,
          "phone": "s_B"
        },
        {
          "duration": 0.05,
          "phone": "ih_I"
        },
        {
          "duration": 0.06,
          "phone": "n_I"
        },
        {
          "duration": 0.05,
          "phone": "s_E"
        }
      ],
      "start": 3.31,
      "startOffset": 49,
      "word": "SINCE"
    },
    {
      "alignedWord": "you",
      "case": "success",
      "end": 3.7,
      "endOffset": 58,
      "phones": [
        {
          "duration": 0.08,
          "phone": "y_B"
        },
        {
          "duration": 0.06,
          "phone": "uw_E"
        }
      ],
      "start": 3.56,
      "startOffset": 55,
      "word": "YOU"
    },
    {
      "alignedWord": "wish",
      "case": "success",
      "end": 3.9800000000000004,
      "endOffset": 63,
      "phones": [
        {
          "duration": 0.1,
          "phone": "w_B"
        },
        {
          "duration": 0.07,
          "phone": "ih_I"
        },
        {
          "duration": 0.11,
          "phone": "sh_E"
        }
      ],
      "start": 3.7,
      "startOffset": 59,
      "word": "WISH"
    },
    {
      "alignedWord": "to",
      "case": "success",
      "end": 4.1,
      "endOffset": 66,
      "phones": [
        {
          "duration": 0.05,
          "phone": "t_B"
        },
        {
          "duration": 0.07,
          "phone": "ih_E"
        }
      ],
      "start": 3.98,
      "startOffset": 64,
      "word": "TO"
    },
    {
      "alignedWord": "see",
      "case": "success",
      "end": 4.35,
      "endOffset": 70,
      "phones": [
        {
          "duration": 0.13,
          "phone": "s_B"
        },
        {
          "duration": 0.12,
          "phone": "iy_E"
        }
      ],
      "start": 4.1,
      "startOffset": 67,
      "word": "SEE"
    },
    {
      "alignedWord": "him",
      "case": "success",
      "end": 4.489999999999999,
      "endOffset": 74,
      "phones": [
        {
          "duration": 0.03,
          "phone": "hh_B"
        },
        {
          "duration": 0.06,
          "phone": "ih_I"
        },
        {
          "duration": 0.05,
          "phone": "m_E"
        }
      ],
      "start": 4.35,
      "startOffset": 71,
      "word": "HIM"
    },
    {
      "alignedWord": "a",
      "case": "success",
      "end": 4.57,
      "endOffset": 76,
      "phones": [
        {
          "duration": 0.08,
          "phone": "ah_S"
        }
      ],
      "start": 4.49,
      "startOffset": 75,
      "word": "A"
    },
    {
      "alignedWord": "prisoner",
      "case": "success",
      "end": 5.33,
      "endOffset": 85,
      "phones": [
        {
          "duration": 0.13,
          "phone": "p_B"
        },
        {
          "duration": 0.06,
          "phone": "r_I"
        },
        {
          "duration": 0.11,
          "phone": "ih_I"
        },
        {
          "duration": 0.05,
          "phone": "z_I"
        },
        {
          "duration": 0.11,
          "phone": "n_I"
        },
        {
          "duration": 0.3,
          "phone": "er_E"
        }
      ],
      "start": 4.57,
      "startOffset": 77,
      "word": "PRISONER"
    },
    {
      "alignedWord": "why",
      "case": "success",
      "end": 6.83,
      "endOffset": 89,
      "phones": [
        {
          "duration": 0.13,
          "phone": "w_B"
        },
        {
          "duration": 0.2,
          "phone": "ay_E"
        }
      ],
      "start": 6.5,
      "startOffset": 86,
      "word": "WHY"
    },
    {
      "alignedWord": "no",
      "case": "success",
      "end": 7.54,
      "endOffset": 92,
      "phones": [
        {
          "duration": 0.21,
          "phone": "n_B"
        },
        {
          "duration": 0.09,
          "phone": "ow_E"
        }
      ],
      "start": 7.24,
      "startOffset": 90,
      "word": "NO"
    },
    {
      "alignedWord": "<unk>",
      "case": "success",
      "end": 8.33,
      "endOffset": 103,
      "phones": [
        {
          "duration": 0.56,
          "phone": "oov_S"
        }
      ],
      "start": 7.77,
      "startOffset": 93,
      "word": "MA'AMSELLE"
    },
    {
      "alignedWord": "not",
      "case": "success",
      "end": 8.49,
      "endOffset": 107,
      "phones": [
        {
          "duration": 0.02,
          "phone": "n_B"
        },
        {
          "duration": 0.07,
          "phone": "aa_I"
        },
        {
          "duration": 0.07,
          "phone": "t_E"
        }
      ],
      "start": 8.33,
      "startOffset": 104,
      "word": "NOT"
    },
    {
      "alignedWord": "a",
      "case": "success",
      "end": 8.540000000000001,
      "endOffset": 109,
      "phones": [
        {
          "duration": 0.05,
          "phone": "ah_S"
        }
      ],
      "start": 8.49,
      "startOffset": 108,
      "word": "A"
    },
    {
      "alignedWord": "prisoner",
      "case": "success",
      "end": 9.26,
      "endOffset": 118,
      "phones": [
        {
          "duration": 0.14,
          "phone": "p_B"
        },
        {
          "duration": 0.05,
          "phone": "r_I"
        },
        {
          "duration": 0.13,
          "phone": "ih_I"
        },
        {
          "duration": 0.06,
          "phone": "z_I"
        },
        {
          "duration": 0.05,
          "phone": "ah_I"
        },
        {
          "duration": 0.07,
          "phone": "n_I"
        },
        {
          "duration": 0.22,
          "phone": "er_E"
        }
      ],
      "start": 8.54,
      "startOffset": 110,
      "word": "PRISONER"
    },
    {
      "alignedWord": "either",
      "case": "success",
      "end": 9.839998999999999,
      "endOffset": 125,
      "phones": [
        {
          "duration": 0.26,
          "phone": "ay_B"
        },
        {
          "duration": 0.09,
          "phone": "dh_I"
        },
        {
          "duration": 0.18,
          "phone": "er_E"
        }
      ],
      "start": 9.309999,
      "startOffset": 119,
      "word": "EITHER"
    },
    {
      "alignedWord": "but",
      "case": "success",
      "end": 10.21,
      "endOffset": 129,
      "phones": [
        {
          "duration": 0.04,
          "phone": "b_B"
        },
        {
          "duration": 0.05,
          "phone": "ah_I"
        },
        {
          "duration": 0.07,
          "phone": "t_E"
        }
      ],
      "start": 10.05,
      "startOffset": 126,
      "word": "BUT"
    },
    {
      "alignedWord": "one",
      "case": "success",
      "end": 10.39,
      "endOffset": 133,
      "phones": [
        {
          "duration": 0.04,
          "phone": "w_B"
        },
        {
          "duration": 0.08,
          "phone": "ah_I"
        },
        {
          "duration": 0.06,
          "phone": "n_E"
        }
      ],
      "start": 10.21,
      "startOffset": 130,
      "word": "ONE"
    },
    {
      "alignedWord": "must",
      "case": "success",
      "end": 10.69,
      "endOffset": 138,
      "phones": [
        {
          "duration": 0.09,
          "phone": "m_B"
        },
        {
          "duration": 0.1,
          "phone": "ah_I"
        },
        {
          "duration": 0.04,
          "phone": "s_I"
        },
        {
          "duration": 0.06,
          "phone": "t_E"
        }
      ],
      "start": 10.4,
      "startOffset": 134,
      "word": "MUST"
    },
    {
      "alignedWord": "be",
      "case": "success",
      "end": 10.84,
      "endOffset": 141,
      "phones": [
        {
          "duration": 0.07,
          "phone": "b_B"
        },
        {
          "duration": 0.08,
          "phone": "iy_E"
        }
      ],
      "start": 10.69,
      "startOffset": 139,
      "word": "BE"
    },
    {
      "alignedWord": "glad",
      "case": "success",
      "end": 11.14,
      "endOffset": 146,
      "phones": [
        {
          "duration": 0.07,
          "phone": "g_B"
        },
        {
          "duration": 0.08,
          "phone": "l_I"
        },
        {
          "duration": 0.08,
          "phone": "ae_I"
        },
        {
          "duration": 0.07,
          "phone": "d_E"
        }
      ],
      "start": 10.84,
      "startOffset": 142,
      "word": "GLAD"
    },
    {
      "alignedWord": "to",
      "case": "success",
      "end": 11.259998999999999,
      "endOffset": 149,
      "phones": [
        {
          "duration": 0.02,
          "phone": "t_B"
        },
        {
          "duration": 0.1,
          "phone": "ih_E"
        }
      ],
      "start": 11.139999,
      "startOffset": 147,
      "word": "TO"
    },
    {
      "alignedWord": "see",
      "case": "success",
      "end": 11.599999,
      "endOffset": 153,
      "phones": [
        {
          "duration": 0.17,
          "phone": "s_B"
        },
        {
          "duration": 0.17,
          "phone": "iy_E"
        }
      ],
      "start": 11.259999,
      "startOffset": 150,
      "word": "SEE"
    },
    {
      "alignedWord": "him",
      "case": "success",
      "end": 11.789999,
      "endOffset": 157,
      "phones": [
        {
          "duration": 0.05,
          "phone": "hh_B"
        },
        {
          "duration": 0.07,
          "phone": "ih_I"
        },
        {
          "duration": 0.07,
          "phone": "m_E"
        }
      ],
      "start": 11.599999,
      "startOffset": 154,
      "word": "HIM"
    },
    {
      "alignedWord": "you",
      "case": "success",
      "end": 11.969999999999999,
      "endOffset": 161,
      "phones": [
        {
          "duration": 0.08,
          "phone": "y_B"
        },
        {
          "duration": 0.1,
          "phone": "uw_E"
        }
      ],
      "start": 11.79,
      "startOffset": 158,
      "word": "YOU"
    },
    {
      "alignedWord": "know",
      "case": "success",
      "end": 12.269999,
      "endOffset": 166,
      "phones": [
        {
          "duration": 0.06,
          "phone": "n_B"
        },
        {
          "duration": 0.24,
          "phone": "ow_E"
        }
      ],
      "start": 11.969999,
      "startOffset": 162,
      "word": "KNOW"
    },
    {
      "alignedWord": "and",
      "case": "success",
      "end": 12.600000000000001,
      "endOffset": 170,
      "phones": [
        {
          "duration": 0.06,
          "phone": "ae_B"
        },
        {
          "duration": 0.05,
          "phone": "n_I"
        },
        {
          "duration": 0.03,
          "phone": "d_E"
        }
      ],
      "start": 12.46,
      "startOffset": 167,
      "word": "AND"
    },
    {
      "alignedWord": "it",
      "case": "success",
      "end": 12.669999,
      "endOffset": 173,
      "phones": [
        {
          "duration": 0.01,
          "phone": "ih_B"
        },
        {
          "duration": 0.06,
          "phone": "t_E"
        }
      ],
      "start": 12.599999,
      "startOffset": 171,
      "word": "IT"
    },
    {
      "alignedWord": "was",
      "case": "success",
      "end": 12.84,
      "endOffset": 177,
      "phones": [
        {
          "duration": 0.01,
          "phone": "w_B"
        },
        {
          "duration": 0.08,
          "phone": "ah_I"
        },
        {
          "duration": 0.08,
          "phone": "z_E"
        }
      ],
      "start": 12.67,
      "startOffset": 174,
      "word": "WAS"
    },
    {
      "alignedWord": "only",
      "case": "success",
      "end": 13.08,
      "endOffset": 182,
      "phones": [
        {
          "duration": 0.06,
          "phone": "ow_B"
        },
        {
          "duration": 0.06,
          "phone": "n_I"
        },
        {
          "duration": 0.05,
          "phone": "l_I"
        },
        {
          "duration": 0.07,
          "phone": "iy_E"
        }
      ],
      "start": 12.84,
      "startOffset": 178,
      "word": "ONLY"
    },
    {
      "alignedWord": "the",
      "case": "success",
      "end": 13.21,
      "endOffset": 186,
      "phones": [
        {
          "duration": 0.07,
          "phone": "dh_B"
        },
        {
          "duration": 0.06,
          "phone": "iy_E"
        }
      ],
      "start": 13.08,
      "startOffset": 183,
      "word": "THE"
    },
    {
      "alignedWord": "other",
      "case": "success",
      "end": 13.430000000000001,
      "endOffset": 192,
      "phones": [
        {
          "duration": 0.06,
          "phone": "ah_B"
        },
        {
          "duration": 0.07,
          "phone": "dh_I"
        },
        {
          "duration": 0.09,
          "phone": "er_E"
        }
      ],
      "start": 13.21,
      "startOffset": 187,
      "word": "OTHER"
    },
    {
      "alignedWord": "night",
      "case": "success",
      "end": 13.749999,
      "endOffset": 198,
      "phones": [
        {
          "duration": 0.12,
          "phone": "n_B"
        },
        {
          "duration": 0.14,
          "phone": "ay_I"
        },
        {
          "duration": 0.06,
          "phone": "t_E"
        }
      ],
      "start": 13.429999,
      "startOffset": 193,
      "word": "NIGHT"
    },
    {
      "alignedWord": "i",
      "case": "success",
      "end": 13.899999999999999,
      "endOffset": 200,
      "phones": [
        {
          "duration": 0.11,
          "phone": "ay_S"
        }
      ],
      "start": 13.79,
      "startOffset": 199,
      "word": "I"
    },
    {
      "alignedWord": "dreamt",
      "case": "success",
      "end": 14.41,
      "endOffset": 207,
      "phones": [
        {
          "duration": 0.12,
          "phone": "d_B"
        },
        {
          "duration": 0.1,
          "phone": "r_I"
        },
        {
          "duration": 0.08,
          "phone": "eh_I"
        },
        {
          "duration": 0.07,
          "phone": "m_I"
        },
        {
          "duration": 0.14,
          "phone": "t_E"
        }
      ],
      "start": 13.9,
      "startOffset": 201,
      "word": "DREAMT"
    }
  ]
}