{
  "transcript": "UNDER CONSTRAINT OF SUPERIOR POWER DOES NOT TARNISH THE BLAZON AS IN THE CASE OF ABDOLMUMEN WHO WAS A KING ALTHOUGH HE HAD BEEN A GARDENER THAT OF JOSEPH WHO WAS A SAINT ALTHOUGH HE HAD BEEN A CARPENTER",
  "words": [
    {
      "alignedWord": "under",
      "case": "success",
      "end": 0.81,
      "endOffset": 5,
      "phones": [
        {
          "duration": 0.11,
          "phone": "ah_B"
        },
        {
          "duration": 0.06,
          "phone": "n_I"
        },
        {
          "duration": 0.07,
          "phone": "d_I"
        },
        {
          "duration": 0.07,
          "phone": "er_E"
        }
      ],
      "start": 0.5,
      "startOffset": 0,
      "word": "UNDER"
    },
    {
      "alignedWord": "constraint",
      "case": "success",
      "end": 1.34,
      "endOffset": 16,
      "phones": [
        {
          "duration": 0.05,
          "phone": "k_B"
        },
        {
          "duration": 0.05,
          "phone": "ah_I"
        },
        {
          "duration": 0.08,
          "phone": "n_I"
        },
        {
          "duration": 0.03,
          "phone": "s_I"
        },
        {
          "duration": 0.13,
          "phone": "t_I"
        },
        {
          "duration": 0.06,
          "phone": "r_I"
        },
        {
          "duration": 0.05,
          "phone": "ey_I"
        },
        {
          "duration": 0.04,
          "phone": "n_I"
        },
        {
          "duration": 0.04,
          "phone": "t_E"
        }
      ],
      "start": 0.81,
      "startOffset": 6,
      "word": "CONSTRAINT"
    },
    {
      "alignedWord": "of",
      "case": "success",
      "end": 1.4500000000000002,
      "endOffset": 19,
      "phones": [
        {
          "duration": 0.05,
          "phone": "ah_B"
        },
        {
          "duration": 0.05,
          "phone": "v_E"
        }
      ],
      "start": 1.35,
      "startOffset": 17,
      "word": "OF"
    },
    {
      "alignedWord": "superior",
      "case": "success",
      "end": 2.02,
      "endOffset": 28,
      "phones": [
        {
          "duration": 0.08,
          "phone": "s_B"
        },
        {
          "duration": 0.08,
          "phone": "uw_I"
        },
        {
          "duration": 0.08,
          "phone": "p_I"
        },
        {
          "duration": 0.1,
          "phone": "ih_I"
        },
        {
          "duration": 0.05,
          "phone": "r_I"
        },
        {
          "duration": 0.11,
          "phone": "iy_I"
        },
        {
          "duration": 0.07,
          "phone": "er_E"
        }
      ],
      "start": 1.45,
      "startOffset": 20,
      "word": "SUPERIOR"
    },
    {
      "alignedWord": "power",
      "case": "success",
      "end": 2.5300000000000002,
      "endOffset": 34,
      "phones": [
        {
          "duration": 0.11,
          "phone": "p_B"
        },
        {
          "duration": 0.21,
          "phone": "aw_I"
        },
        {
          "duration": 0.19,
          "phone": "er_E"
        }
      ],
      "start": 2.02,
      "startOffset": 29,
      "word": "POWER"
    },
    {
      "alignedWord": "does",
      "case": "success",
      "end": 2.87,
      "endOffset": 39,
      "phones": [
        {
          "duration": 0.07,
          "phone": "d_B"
        },
        {
          "duration": 0.06,
          "phone": "ih_I"
        },
        {
          "duration": 0.06,
          "phone": "z_E"
        }
      ],
      "start": 2.68,
      "startOffset": 35,
      "word": "DOES"
    },
    {
      "alignedWord": "not",
      "case": "success",
      "end": 3.13,
      "endOffset": 43,
      "phones": [
        {
          "duration": 0.05,
          "phone": "n_B"
        },
        {
          "duration": 0.13,
          "phone": "aa_I"
        },
        {
          "duration": 0.08,
          "phone": "t_E"
        }
      ],
      "start": 2.87,
      "startOffset": 40,
      "word": "NOT"
    },
    {
      "alignedWord": "tarnish",
      "case": "success",
      "end": 3.54,
      "endOffset": 51,
      "phones": [
        {
          "duration": 0.08,
          "phone": "t_B"
        },
        {
          "duration": 0.08,
          "phone": "aa_I"
        },
        {
          "duration": 0.06,
          "phone": "r_I"
        },
        {
          "duration": 0.05,
          "phone": "n_I"
        },
        {
          "duration": 0.04,
          "phone": "ih_I"
        },
        {
          "duration": 0.1,
          "phone": "sh_E"
        }
      ],
      "start": 3.13,
      "startOffset": 44,
      "word": "TARNISH"
    },
    {
      "alignedWord": "the",
      "case": "success",
      "end": 5.25,
      "endOffset": 55,
      "phones": [
        {
          "duration": 0.01,
          "phone": "dh_B"
        },
        {
          "duration": 0.01,
          "phone": "ah_E"
        }
      ],
      "start": 5.23,
      "startOffset": 52,
      "word": "THE"
    },
    {
      "alignedWord": "<unk>",
      "case": "success",
      "end": 5.27,
      "endOffset": 62,
      "phones": [
        {
          "duration": 0.02,
          "phone": "oov_S"
        }
      ],
      "start": 5.25,
      "startOffset": 56,
      "word": "BLAZON"
    },
    {
      "alignedWord": "as",
      "case": "success",
      "end": 5.489999999999999,
      "endOffset": 65,
      "phones": [
        {
          "duration": 0.15,
          "phone": "ae_B"
        },
        {
          "duration": 0.07,
          "phone": "z_E"
        }
      ],
      "start": 5.27,
      "startOffset": 63,
      "word": "AS"
    },
    {
      "alignedWord": "in",
      "case": "success",
      "end": 5.640000000000001,
      "endOffset": 68,
      "phones": [
        {
          "duration": 0.08,
          "phone": "ih_B"
        },
        {
          "duration": 0.07,
          "phone": "n_E"
        }
      ],
      "start": 5.49,
      "startOffset": 66,
      "word": "IN"
    },
    {
      "alignedWord": "the",
      "case": "success",
      "end": 5.74,
      "endOffset": 72,
      "phones": [
        {
          "duration": 0.04,
          "phone": "dh_B"
        },
        {
          "duration": 0.05,
          "phone": "iy_E"
        }
      ],
      "start": 5.65,
      "startOffset": 69,
      "word": "THE"
    },
    {
      "alignedWord": "case",
      "case": "success",
      "end": 6.05,
      "endOffset": 77,
      "phones": [
        {
          "duration": 0.12,
          "phone": "k_B"
        },
        {
          "duration": 0.1,
          "phone": "ey_I"
        },
        {
          "duration": 0.09,
          "phone": "s_E"
        }
      ],
      "start": 5.74,
      "startOffset": 73,
      "word": "CASE"
    },
    {
      "alignedWord": "of",
      "case": "success",
      "end": 6.2299999999999995,
      "endOffset": 80,
      "phones": [
        {
          "duration": 0.1,
          "phone": "ah_B"
        },
        {
          "duration": 0.08,
          "phone": "v_E"
        }
      ],
      "start": 6.05,
      "startOffset": 78,
      "word": "OF"
    },
    {
      "alignedWord": "<unk>",
      "case": "success",
      "end": 7.1,
      "endOffset": 91,
      "phones": [
        {
          "duration": 0.83,
          "phone": "oov_S"
        }
      ],
      "start": 6.27,
      "startOffset": 81,
      "word": "ABDOLMUMEN"
    },
    {
      "alignedWord": "who",
      "case": "success",
      "end": 7.5200000000000005,
      "endOffset": 95,
      "phones": [
        {
          "duration": 0.08,
          "phone": "hh_B"
        },
        {
          "duration": 0.07,
          "phone": "uw_E"
        }
      ],
      "start": 7.37,
      "startOffset": 92,
      "word": "WHO"
    },
    {
      "alignedWord": "was",
      "case": "success",
      "end": 7.68,
      "endOffset": 99,
      "phones": [
        {
          "duration": 0.04,
          "phone": "w_B"
        },
        {
          "duration": 0.06,
          "phone": "ah_I"
        },
        {
          "duration": 0.06,
          "phone": "z_E"
        }
      ],
      "start": 7.52,
      "startOffset": 96,
      "word": "WAS"
    },
    {
      "alignedWord": "a",
      "case": "success",
      "end": 7.76,
      "endOffset": 101,
      "phones": [
        {
          "duration": 0.08,
          "phone": "ah_S"
        }
      ],
      "start": 7.68,
      "startOffset": 100,
      "word": "A"
    },
    {
      "alignedWord": "king",
      "case": "success",
      "end": 8.25,
      "endOffset": 106,
      "phones": [
        {
          "duration": 0.12,
          "phone": "k_B"
        },
        {
          "duration": 0.13,
          "phone": "ih_I"
        },
        {
          "duration": 0.24,
          "phone": "ng_E"
        }
      ],
      "start": 7.76,
      "startOffset": 102,
      "word": "KING"
    },
    {
      "alignedWord": "although",
      "case": "success",
      "end": 8.799999,
      "endOffset": 115,
      "phones": [
        {
          "duration": 0.1,
          "phone": "ao_B"
        },
        {
          "duration": 0.06,
          "phone": "l_I"
        },
        {
          "duration": 0.09,
          "phone": "dh_I"
        },
        {
          "duration": 0.12,
          "phone": "ow_E"
        }
      ],
      "start": 8.429999,
      "startOffset": 107,
      "word": "ALTHOUGH"
    },
    {
      "alignedWord": "he",
      "case": "success",
      "end": 8.96,
      "endOffset": 118,
      "phones": [
        {
          "duration": 0.09,
          "phone": "hh_B"
        },
        {
          "duration": 0.07,
          "phone": "iy_E"
        }
      ],
      "start": 8.8,
      "startOffset": 116,
      "word": "HE"
    },
    {
      "alignedWord": "had",
      "case": "success",
      "end": 9.110000000000001,
      "endOffset": 122,
      "phones": [
        {
          "duration": 0.01,
          "phone": "hh_B"
        },
        {
          "duration": 0.08,
          "phone": "ae_I"
        },
        {
          "duration": 0.06,
          "phone": "d_E"
        }
      ],
      "start": 8.96,
      "startOffset": 119,
      "word": "HAD"
    },
    {
      "alignedWord": "been",
      "case": "success",
      "end": 9.27,
      "endOffset": 127,
      "phones": [
        {
          "duration": 0.05,
          "phone": "b_B"
        },
        {
          "duration": 0.04,
          "phone": "ih_I"
        },
        {
          "duration": 0.07,
          "phone": "n_E"
        }
      ],
      "start": 9.11,
      "startOffset": 123,
      "word": "BEEN"
    },
    {
      "alignedWord": "a",
      "case": "success",
      "end": 9.309999999999999,
      "endOffset": 129,
      "phones": [
        {
          "duration": 0.04,
          "phone": "ah_S"
        }
      ],
      "start": 9.27,
      "startOffset": 128,
      "word": "A"
    },
    {
      "alignedWord": "gardener",
      "case": "success",
      "end": 9.889999,
      "endOffset": 138,
      "phones": [
        {
          "duration": 0.09,
          "phone": "g_B"
        },
        {
          "duration": 0.07,
          "phone": "aa_I"
        },
        {
          "duration": 0.07,
          "phone": "r_I"
        },
        {
          "duration": 0.03,
          "phone": "d_I"
        },
        {
          "duration": 0.04,
          "phone": "ah_I"
        },
        {
          "duration": 0.06,
          "phone": "n_I"
        },
        {
          "duration": 0.22,
          "phone": "er_E"
        }
      ],
      "start": 9.309999,
      "startOffset": 130,
      "word": "GARDENER"
    },
    {
      "alignedWord": "that",
      "case": "success",
      "end": 10.959999999999999,
      "endOffset": 143,
      "phones": [
        {
          "duration": 0.07,
          "phone": "dh_B"
        },
        {
          "duration": 0.06,
          "phone": "ae_I"
        },
        {
          "duration": 0.05,
          "phone": "t_E"
        }
      ],
      "start": 10.78,
      "startOffset": 139,
      "word": "THAT"
    },
    {
      "alignedWord": "of",
      "case": "success",
      "end": 11.100000000000001,
      "endOffset": 146,
      "phones": [
        {
          "duration": 0.05,
          "phone": "ah_B"
        },
        {
          "duration": 0.09,
          "phone": "v_E"
        }
      ],
      "start": 10.96,
      "startOffset": 144,
      "word": "OF"
    },
    {
      "alignedWord": "joseph",
      "case": "success",
      "end": 11.649999000000001,
      "endOffset": 153,
      "phones": [
        {
          "duration": 0.11,
          "phone": "jh_B"
        },
        {
          "duration": 0.11,
          "phone": "ow_I"
        },
        {
          "duration": 0.11,
          "phone": "s_I"
        },
        {
          "duration": 0.12,
          "phone": "ah_I"
        },
        {
          "duration": 0.1,
          "phone": "f_E"
        }
      ],
      "start": 11.099999,
      "startOffset": 147,
      "word": "JOSEPH"
    },
    {
      "alignedWord": "who",
      "case": "success",
      "end": 12.129999999999999,
      "endOffset": 157,
      "phones": [
        {
          "duration": 0.06,
          "phone": "hh_B"
        },
        {
          "duration": 0.05,
          "phone": "uw_E"
        }
      ],
      "start": 12.02,
      "startOffset": 154,
      "word": "WHO"
    },
    {
      "alignedWord": "was",
      "case": "success",
      "end": 12.32,
      "endOffset": 161,
      "phones": [
        {
          "duration": 0.06,
          "phone": "w_B"
        },
        {
          "duration": 0.06,
          "phone": "ah_I"
        },
        {
          "duration": 0.07,
          "phone": "z_E"
        }
      ],
      "start": 12.13,
      "startOffset": 158,
      "word": "WAS"
    },
    {
      "alignedWord": "a",
      "case": "success",
      "end": 12.41,
      "endOffset": 163,
      "phones": [
        {
          "duration": 0.09,
          "phone": "ah_S"
        }
      ],
      "start": 12.32,
      "startOffset": 162,
      "word": "A"
    },
    {
      "alignedWord": "saint",
      "case": "success",
      "end": 12.95,
      "endOffset": 169,
      "phones": [
        {
          "duration": 0.19,
          "phone": "s_B"
        },
        {
          "duration": 0.1,
          "phone": "ey_I"
        },
        {
          "duration": 0.09,
          "phone": "n_I"
        },
        {
          "duration": 0.16,
          "phone": "t_E"
        }
      ],
      "start": 12.41,
      "startOffset": 164,
      "word": "SAINT"
    },
    {
      "alignedWord": "although",
      "case": "success",
      "end": 13.799999,
      "endOffset": 178,
      "phones": [
        {
          "duration": 0.11,
          "phone": "ao_B"
        },
        {
          "duration": 0.05,
          "phone": "l_I"
        },
        {
          "duration": 0.08,
          "phone": "dh_I"
        },
        {
          "duration": 0.13,
          "phone": "ow_E"
        }
      ],
      "start": 13.429999,
      "startOffset": 170,
      "word": "ALTHOUGH"
    },
    {
      "alignedWord": "he",
      "case": "success",
      "end": 13.949999,
      "endOffset": 181,
      "phones": [
        {
          "duration": 0.09,
          "phone": "hh_B"
        },
        {
          "duration": 0.06,
          "phone": "iy_E"
        }
      ],
      "start": 13.799999,
      "startOffset": 179,
      "word": "HE"
    },
    {
      "alignedWord": "had",
      "case": "success",
      "end": 14.049999999999999,
      "endOffset": 185,
      "phones": [
        {
          "duration": 0.01,
          "phone": "hh_B"
        },
        {
          "duration": 0.02,
          "phone": "ae_I"
        },
        {
          "duration": 0.07,
          "phone": "d_E"
        }
      ],
      "start": 13.95,
      "startOffset": 182,
      "word": "HAD"
    },
    {
      "alignedWord": "been",
      "case": "success",
      "end": 14.189999,
      "endOffset": 190,
      "phones": [
        {
          "duration": 0.03,
          "phone": "b_B"
        },
        {
          "duration": 0.04,
          "phone": "ih_I"
        },
        {
          "duration": 0.07,
          "phone": "n_E"
        }
      ],
      "start": 14.049999,
      "startOffset": 186,
      "word": "BEEN"
    },
    {
      "alignedWord": "a",
      "case": "success",
      "end": 14.25,
      "endOffset": 192,
      "phones": [
        {
          "duration": 0.06,
          "phone": "ah_S"
        }
      ],
      "start": 14.19,
      "startOffset": 191,
      "word": "A"
    },
    {
      "alignedWord": "carpenter",
      "case": "success",
      "end": 14.98,
      "endOffset": 202,
      "phones": [
        {
          "duration": 0.11,
          "phone": "k_B"
        },
        {
          "duration": 0.06,
          "phone": "aa_I"
        },
        {
          "duration": 0.05,
          "phone": "r_I"
        },
        {
          "duration": 0.06,
          "phone": "p_I"
        },
        {
          "duration": 0.06,
          "phone": "ah_I"
        },
        {
          "duration": 0.05,
          "phone": "n_I"
        },
        {
          "duration": 0.07,
          "phone": "t_I"
        },
        {
          "duration": 0.19,
          "phone": "er_E"
        }
      ],
      "start": 14.33,
      "startOffset": 193,
      "word": "CARPENTER"
    }
  ]
}