{
  "transcript": "THE ANGEL I SAW MAY BE A DAUGHTER A SISTER OR A NIECE BUT NEVER AN AUNT HUSH GEORGE HUSH YOUR TALKING HAS BROUGHT YOUR PULSE UP AGAIN YOU MUST OBSERVE QUIET AND PREPARE FOR A MEETING WITH YOUR OWN SISTER WHO WILL BE HERE WITHIN AN HOUR WHAT ISABELLA AND WHO SENT FOR HER",
  "words": [
    {
      "alignedWord": "the",
      "case": "success",
      "end": 0.29000000000000004,
      "endOffset": 3,
      "phones": [
        {
          "duration": 0.05,
          "phone": "dh_B"
        },
        {
          "duration": 0.12,
          "phone": "iy_E"
        }
      ],
      "start": 0.12,
      "startOffset": 0,
      "word": "THE"
    },
    {
      "alignedWord": "angel",
      "case": "success",
      "end": 0.58,
      "endOffset": 9,
      "phones": [
        {
          "duration": 0.05,
          "phone": "ey_B"
        },
        {
          "duration": 0.07,
          "phone": "n_I"
        },
        {
          "duration": 0.04,
          "phone": "jh_I"
        },
        {
          "duration": 0.05,
          "phone": "ah_I"
        },
        {
          "duration": 0.08,
          "phone": "l_E"
        }
      ],
      "start": 0.29,
      "startOffset": 4,
      "word": "ANGEL"
    },
    {
      "alignedWord": "i",
      "case": "success",
      "end": 0.6699999999999999,
      "endOffset": 11,
      "phones": [
        {
          "duration": 0.09,
          "phone": "ay_S"
        }
      ],
      "start": 0.58,
      "startOffset": 10,
      "word": "I"
    },
    {
      "alignedWord": "saw",
      "case": "success",
      "end": 0.91,
      "endOffset": 15,
      "phones": [
        {
          "duration": 0.13,
          "phone": "s_B"
        },
        {
          "duration": 0.11,
          "phone": "ao_E"
        }
      ],
      "start": 0.67,
      "startOffset": 12,
      "word": "SAW"
    },
    {
      "alignedWord": "may",
      "case": "success",
      "end": 1.11,
      "endOffset": 19,
      "phones": [
        {
          "duration": 0.1,
          "phone": "m_B"
        },
        {
          "duration": 0.1,
          "phone": "ey_E"
        }
      ],
      "start": 0.91,
      "startOffset": 16,
      "word": "MAY"
    },
    {
      "alignedWord": "be",
      "case": "success",
      "end": 1.29,
      "endOffset": 22,
      "phones": [
        {
          "duration": 0.09,
          "phone": "b_B"
        },
        {
          "duration": 0.09,
          "phone": "iy_E"
        }
      ],
      "start": 1.11,
      "startOffset": 20,
      "word": "BE"
    },
    {
      "alignedWord": "a",
      "case": "success",
      "end": 1.35,
      "endOffset": 24,
      "phones": [
        {
          "duration": 0.06,
          "phone": "ah_S"
        }
      ],
      "start": 1.29,
      "startOffset": 23,
      "word": "A"
    },
    {
      "alignedWord": "daughter",
      "case": "success",
      "end": 1.75,
      "endOffset": 33,
      "phones": [
        {
          "duration": 0.09,
          "phone": "d_B"
        },
        {
          "duration": 0.13,
          "phone": "ao_I"
        },
        {
          "duration": 0.08,
          "phone": "t_I"
        },
        {
          "duration": 0.1,
          "phone": "er_E"
        }
      ],
      "start": 1.35,
      "startOffset": 25,
      "word": "DAUGHTER"
    },
    {
      "alignedWord": "a",
      "case": "success",
      "end": 1.8800000000000001,
      "endOffset": 35,
      "phones": [
        {
          "duration": 0.09,
          "phone": "ah_S"
        }
      ],
      "start": 1.79,
      "startOffset": 34,
      "word": "A"
    },
    {
      "alignedWord": "sister",
      "case": "success",
      "end": 2.3,
      "endOffset": 42,
      "phones": [
        {
          "duration": 0.08,
          "phone": "s_B"
        },
        {
          "duration": 0.09,
          "phone": "ih_I"
        },
        {
          "duration": 0.06,
          "phone": "s_I"
        },
        {
          "duration": 0.1,
          "phone": "t_I"
        },
        {
          "duration": 0.09,
          "phone": "er_E"
        }
      ],
      "start": 1.88,
      "startOffset": 36,
      "word": "SISTER"
    },
    {
      "alignedWord": "or",
      "case": "success",
      "end": 2.4299999999999997,
      "endOffset": 45,
      "phones": [
        {
          "duration": 0.08,
          "phone": "ao_B"
        },
        {
          "duration": 0.05,
          "phone": "r_E"
        }
      ],
      "start": 2.3,
      "startOffset": 43,
      "word": "OR"
    },
    {
      "alignedWord": "a",
      "case": "success",
      "end": 2.5100000000000002,
      "endOffset": 47,
      "phones": [
        {
          "duration": 0.08,
          "phone": "ah_S"
        }
      ],
      "start": 2.43,
      "startOffset": 46,
      "word": "A"
    },
    {
      "alignedWord": "niece",
      "case": "success",
      "end": 3.0199999999999996,
      "endOffset": 53,
      "phones": [
        {
          "duration": 0.11,
          "phone": "n_B"
        },
        {
          "duration": 0.15,
          "phone": "iy_I"
        },
        {
          "duration": 0.25,
          "phone": "s_E"
        }
      ],
      "start": 2.51,
      "startOffset": 48,
      "word": "NIECE"
    },
    {
      "alignedWord": "but",
      "case": "success",
      "end": 3.37,
      "endOffset": 57,
      "phones": [
        {
          "duration": 0.07,
          "phone": "b_B"
        },
        {
          "duration": 0.06,
          "phone": "ah_I"
        },
        {
          "duration": 0.08,
          "phone": "t_E"
        }
      ],
      "start": 3.16,
      "startOffset": 54,
      "word": "BUT"
    },
    {
      "alignedWord": "never",
      "case": "success",
      "end": 3.7,
      "endOffset": 63,
      "phones": [
        {
          "duration": 0.07,
          "phone": "n_B"
        },
        {
          "duration": 0.09,
          "phone": "eh_I"
        },
        {
          "duration": 0.08,
          "phone": "v_I"
        },
        {
          "duration": 0.09,
          "phone": "er_E"
        }
      ],
      "start": 3.37,
      "startOffset": 58,
      "word": "NEVER"
    },
    {
      "alignedWord": "an",
      "case": "success",
      "end": 3.81,
      "endOffset": 66,
      "phones": [
        {
          "duration": 0.06,
          "phone": "ah_B"
        },
        {
          "duration": 0.05,
          "phone": "n_E"
        }
      ],
      "start": 3.7,
      "startOffset": 64,
      "word": "AN"
    },
    {
      "alignedWord": "aunt",
      "case": "success",
      "end": 4.12,
      "endOffset": 71,
      "phones": [
        {
          "duration": 0.17,
          "phone": "ao_B"
        },
        {
          "duration": 0.07,
          "phone": "n_I"
        },
        {
          "duration": 0.07,
          "phone": "t_E"
        }
      ],
      "start": 3.81,
      "startOffset": 67,
      "word": "AUNT"
    },
    {
      "alignedWord": "hush",
      "case": "success",
      "end": 4.98,
      "endOffset": 76,
      "phones": [
        {
          "duration": 0.13,
          "phone": "hh_B"
        },
        {
          "duration": 0.06,
          "phone": "ah_I"
        },
        {
          "duration": 0.14,
          "phone": "sh_E"
        }
      ],
      "start": 4.65,
      "startOffset": 72,
      "word": "HUSH"
    },
    {
      "alignedWord": "george",
      "case": "success",
      "end": 5.3100000000000005,
      "endOffset": 83,
      "phones": [
        {
          "duration": 0.11,
          "phone": "jh_B"
        },
        {
          "duration": 0.07,
          "phone": "ao_I"
        },
        {
          "duration": 0.06,
          "phone": "r_I"
        },
        {
          "duration": 0.09,
          "phone": "jh_E"
        }
      ],
      "start": 4.98,
      "startOffset": 77,
      "word": "GEORGE"
    },
    {
      "alignedWord": "hush",
      "case": "success",
      "end": 5.58,
      "endOffset": 88,
      "phones": [
        {
          "duration": 0.08,
          "phone": "hh_B"
        },
        {
          "duration": 0.08,
          "phone": "ah_I"
        },
        {
          "duration": 0.11,
          "phone": "sh_E"
        }
      ],
      "start": 5.31,
      "startOffset": 84,
      "word": "HUSH"
    },
    {
      "alignedWord": "your",
      "case": "success",
      "end": 5.77,
      "endOffset": 93,
      "phones": [
        {
          "duration": 0.09,
          "phone": "y_B"
        },
        {
          "duration": 0.05,
          "phone": "uh_I"
        },
        {
          "duration": 0.04,
          "phone": "r_E"
        }
      ],
      "start": 5.59,
      "startOffset": 89,
      "word": "YOUR"
    },
    {
      "alignedWord": "talking",
      "case": "success",
      "end": 6.199999999999999,
      "endOffset": 101,
      "phones": [
        {
          "duration": 0.09,
          "phone": "t_B"
        },
        {
          "duration": 0.12,
          "phone": "ao_I"
        },
        {
          "duration": 0.08,
          "phone": "k_I"
        },
        {
          "duration": 0.07,
          "phone": "ih_I"
        },
        {
          "duration": 0.07,
          "phone": "ng_E"
        }
      ],
      "start": 5.77,
      "startOffset": 94,
      "word": "TALKING"
    },
    {
      "alignedWord": "has",
      "case": "success",
      "end": 6.38,
      "endOffset": 105,
      "phones": [
        {
          "duration": 0.05,
          "phone": "hh_B"
        },
        {
          "duration": 0.06,
          "phone": "ah_I"
        },
        {
          "duration": 0.07,
          "phone": "z_E"
        }
      ],
      "start": 6.2,
      "startOffset": 102,
      "word": "HAS"
    },
    {
      "alignedWord": "brought",
      "case": "success",
      "end": 6.62,
      "endOffset": 113,
      "phones": [
        {
          "duration": 0.07,
          "phone": "b_B"
        },
        {
          "duration": 0.03,
          "phone": "r_I"
        },
        {
          "duration": 0.06,
          "phone": "ao_I"
        },
        {
          "duration": 0.08,
          "phone": "t_E"
        }
      ],
      "start": 6.38,
      "startOffset": 106,
      "word": "BROUGHT"
    },
    {
      "alignedWord": "your",
      "case": "success",
      "end": 6.73,
      "endOffset": 118,
      "phones": [
        {
          "duration": 0.01,
          "phone": "y_B"
        },
        {
          "duration": 0.06,
          "phone": "uh_I"
        },
        {
          "duration": 0.04,
          "phone": "r_E"
        }
      ],
      "start": 6.62,
      "startOffset": 114,
      "word": "YOUR"
    },
    {
      "alignedWord": "pulse",
      "case": "success",
      "end": 7.07,
      "endOffset": 124,
      "phones": [
        {
          "duration": 0.11,
          "phone": "p_B"
        },
        {
          "duration": 0.03,
          "phone": "ah_I"
        },
        {
          "duration": 0.13,
          "phone": "l_I"
        },
        {
          "duration": 0.07,
          "phone": "s_E"
        }
      ],
      "start": 6.73,
      "startOffset": 119,
      "word": "PULSE"
    },
    {
      "alignedWord": "up",
      "case": "success",
      "end": 7.260000000000001,
      "endOffset": 127,
      "phones": [
        {
          "duration": 0.1,
          "phone": "ah_B"
        },
        {
          "duration": 0.09,
          "phone": "p_E"
        }
      ],
      "start": 7.07,
      "startOffset": 125,
      "word": "UP"
    },
    {
      "alignedWord": "again",
      "case": "success",
      "end": 7.63,
      "endOffset": 133,
      "phones": [
        {
          "duration": 0.06,
          "phone": "ah_B"
        },
        {
          "duration": 0.09,
          "phone": "g_I"
        },
        {
          "duration": 0.1,
          "phone": "eh_I"
        },
        {
          "duration": 0.12,
          "phone": "n_E"
        }
      ],
      "start": 7.26,
      "startOffset": 128,
      "word": "AGAIN"
    },
    {
      "alignedWord": "you",
      "case": "success",
      "end": 8.0,
      "endOffset": 137,
      "phones": [
        {
          "duration": 0.08,
          "phone": "y_B"
        },
        {
          "duration": 0.05,
          "phone": "uw_E"
        }
      ],
      "start": 7.87,
      "startOffset": 134,
      "word": "YOU"
    },
    {
      "alignedWord": "must",
      "case": "success",
      "end": 8.27,
      "endOffset": 142,
      "phones": [
        {
          "duration": 0.05,
          "phone": "m_B"
        },
        {
          "duration": 0.1,
          "phone": "ah_I"
        },
        {
          "duration": 0.06,
          "phone": "s_I"
        },
        {
          "duration": 0.06,
          "phone": "t_E"
        }
      ],
      "start": 8.0,
      "startOffset": 138,
      "word": "MUST"
    },
    {
      "alignedWord": "observe",
      "case": "success",
      "end": 8.66,
      "endOffset": 150,
      "phones": [
        {
          "duration": 0.05,
          "phone": "ah_B"
        },
        {
          "duration": 0.07,
          "phone": "b_I"
        },
        {
          "duration": 0.09,
          "phone": "z_I"
        },
        {
          "duration": 0.09,
          "phone": "er_I"
        },
        {
          "duration": 0.09,
          "phone": "v_E"
        }
      ],
      "start": 8.27,
      "startOffset": 143,
      "word": "OBSERVE"
    },
    {
      "alignedWord": "quiet",
      "case": "success",
      "end": 9.11,
      "endOffset": 156,
      "phones": [
        {
          "duration": 0.09,
          "phone": "k_B"
        },
        {
          "duration": 0.08,
          "phone": "w_I"
        },
        {
          "duration": 0.13,
          "phone": "ay_I"
        },
        {
          "duration": 0.06,
          "phone": "ah_I"
        },
        {
          "duration": 0.09,
          "phone": "t_E"
        }
      ],
      "start": 8.66,
      "startOffset": 151,
      "word": "QUIET"
    },
    {
      "alignedWord": "and",
      "case": "success",
      "end": 9.44,
      "endOffset": 160,
      "phones": [
        {
          "duration": 0.07,
          "phone": "ae_B"
        },
        {
          "duration": 0.04,
          "phone": "n_I"
        },
        {
          "duration": 0.04,
          "phone": "d_E"
        }
      ],
      "start": 9.29,
      "startOffset": 157,
      "word": "AND"
    },
    {
      "alignedWord": "prepare",
      "case": "success",
      "end": 9.799999999999999,
      "endOffset": 168,
      "phones": [
        {
          "duration": 0.06,
          "phone": "p_B"
        },
        {
          "duration": 0.02,
          "phone": "r_I"
        },
        {
          "duration": 0.06,
          "phone": "iy_I"
        },
        {
          "duration": 0.06,
          "phone": "p_I"
        },
        {
          "duration": 0.08,
          "phone": "eh_I"
        },
        {
          "duration": 0.08,
          "phone": "r_E"
        }
      ],
      "start": 9.44,
      "startOffset": 161,
      "word": "PREPARE"
    },
    {
      "alignedWord": "for",
      "case": "success",
      "end": 9.97,
      "endOffset": 172,
      "phones": [
        {
          "duration": 0.07,
          "phone": "f_B"
        },
        {
          "duration": 0.1,
          "phone": "er_E"
        }
      ],
      "start": 9.8,
      "startOffset": 169,
      "word": "FOR"
    },
    {
      "alignedWord": "a",
      "case": "success",
      "end": 10.019999,
      "endOffset": 174,
      "phones": [
        {
          "duration": 0.05,
          "phone": "ah_S"
        }
      ],
      "start": 9.969999,
      "startOffset": 173,
      "word": "A"
    },
    {
      "alignedWord": "meeting",
      "case": "success",
      "end": 10.36,
      "endOffset": 182,
      "phones": [
        {
          "duration": 0.08,
          "phone": "m_B"
        },
        {
          "duration": 0.08,
          "phone": "iy_I"
        },
        {
          "duration": 0.05,
          "phone": "t_I"
        },
        {
          "duration": 0.05,
          "phone": "ih_I"
        },
        {
          "duration": 0.08,
          "phone": "ng_E"
        }
      ],
      "start": 10.02,
      "startOffset": 175,
      "word": "MEETING"
    },
    {
      "alignedWord": "with",
      "case": "success",
      "end": 10.54,
      "endOffset": 187,
      "phones": [
        {
          "duration": 0.04,
          "phone": "w_B"
        },
        {
          "duration": 0.05,
          "phone": "ih_I"
        },
        {
          "duration": 0.09,
          "phone": "th_E"
        }
      ],
      "start": 10.36,
      "startOffset": 183,
      "word": "WITH"
    },
    {
      "alignedWord": "your",
      "case": "success",
      "end": 10.659999999999998,
      "endOffset": 192,
      "phones": [
        {
          "duration": 0.01,
          "phone": "y_B"
        },
        {
          "duration": 0.03,
          "phone": "uh_I"
        },
        {
          "duration": 0.08,
          "phone": "r_E"
        }
      ],
      "start": 10.54,
      "startOffset": 188,
      "word": "YOUR"
    },
    {
      "alignedWord": "own",
      "case": "success",
      "end": 10.88,
      "endOffset": 196,
      "phones": [
        {
          "duration": 0.12,
          "phone": "ow_B"
        },
        {
          "duration": 0.1,
          "phone": "n_E"
        }
      ],
      "start": 10.66,
      "startOffset": 193,
      "word": "OWN"
    },
    {
      "alignedWord": "sister",
      "case": "success",
      "end": 11.360000000000001,
      "endOffset": 203,
      "phones": [
        {
          "duration": 0.09,
          "phone": "s_B"
        },
        {
          "duration": 0.1,
          "phone": "ih_I"
        },
        {
          "duration": 0.07,
          "phone": "s_I"
        },
        {
          "duration": 0.08,
          "phone": "t_I"
        },
        {
          "duration": 0.14,
          "phone": "er_E"
        }
      ],
      "start": 10.88,
      "startOffset": 197,
      "word": "SISTER"
    },
    {
      "alignedWord": "who",
      "case": "success",
      "end": 11.65,
      "endOffset": 207,
      "phones": [
        {
          "duration": 0.07,
          "phone": "hh_B"
        },
        {
          "duration": 0.09,
          "phone": "uw_E"
        }
      ],
      "start": 11.49,
      "startOffset": 204,
      "word": "WHO"
    },
    {
      "alignedWord": "will",
      "case": "success",
      "end": 11.77,
      "endOffset": 212,
      "phones": [
        {
          "duration": 0.01,
          "phone": "w_B"
        },
        {
          "duration": 0.06,
          "phone": "ih_I"
        },
        {
          "duration": 0.05,
          "phone": "l_E"
        }
      ],
      "start": 11.65,
      "startOffset": 208,
      "word": "WILL"
    },
    {
      "alignedWord": "be",
      "case": "success",
      "end": 11.94,
      "endOffset": 215,
      "phones": [
        {
          "duration": 0.07,
          "phone": "b_B"
        },
        {
          "duration": 0.1,
          "phone": "iy_E"
        }
      ],
      "start": 11.77,
      "startOffset": 213,
      "word": "BE"
    },
    {
      "alignedWord": "here",
      "case": "success",
      "end": 12.07,
      "endOffset": 220,
      "phones": [
        {
          "duration": 0.03,
          "phone": "hh_B"
        },
        {
          "duration": 0.05,
          "phone": "iy_I"
        },
        {
          "duration": 0.05,
          "phone": "r_E"
        }
      ],
      "start": 11.94,
      "startOffset": 216,
      "word": "HERE"
    },
    {
      "alignedWord": "within",
      "case": "success",
      "end": 12.36,
      "endOffset": 227,
      "phones": [
        {
          "duration": 0.06,
          "phone": "w_B"
        },
        {
          "duration": 0.05,
          "phone": "ih_I"
        },
        {
          "duration": 0.08,
          "phone": "th_I"
        },
        {
          "duration": 0.04,
          "phone": "ih_I"
        },
        {
          "duration": 0.06,
          "phone": "n_E"
        }
      ],
      "start": 12.07,
      "startOffset": 221,
      "word": "WITHIN"
    },
    {
      "alignedWord": "an",
      "case": "success",
      "end": 12.51,
      "endOffset": 230,
      "phones": [
        {
          "duration": 0.06,
          "phone": "ah_B"
        },
        {
          "duration": 0.09,
          "phone": "n_E"
        }
      ],
      "start": 12.36,
      "startOffset": 228,
      "word": "AN"
    },
    {
      "alignedWord": "hour",
      "case": "success",
      "end": 12.889999999999999,
      "endOffset": 235,
      "phones": [
        {
          "duration": 0.21,
          "phone": "aw_B"
        },
        {
          "duration": 0.16,
          "phone": "er_E"
        }
      ],
      "start": 12.52,
      "startOffset": 231,
      "word": "HOUR"
    },
    {
      "alignedWord": "what",
      "case": "success",
      "end": 13.649999,
      "endOffset": 240,
      "phones": [
        {
          "duration": 0.07,
          "phone": "hh_B"
        },
        {
          "duration": 0.08,
          "phone": "w_I"
        },
        {
          "duration": 0.06,
          "phone": "ah_I"
        },
        {
          "duration": 0.05,
          "phone": "t_E"
        }
      ],
      "start": 13.389999,
      "startOffset": 236,
      "word": "WHAT"
    },
    {
      "alignedWord": "isabella",
      "case": "success",
      "end": 14.349999,
      "endOffset": 249,
      "phones": [
        {
          "duration": 0.1,
          "phone": "ih_B"
        },
        {
          "duration": 0.08,
          "phone": "z_I"
        },
        {
          "duration": 0.06,
          "phone": "ah_I"
        },
        {
          "duration": 0.07,
          "phone": "b_I"
        },
        {
          "duration": 0.09,
          "phone": "eh_I"
        },
        {
          "duration": 0.09,
          "phone": "l_I"
        },
        {
          "duration": 0.18,
          "phone": "ah_E"
        }
      ],
      "start": 13.679999,
      "startOffset": 241,
      "word": "ISABELLA"
    },
    {
      "alignedWord": "and",
      "case": "success",
      "end": 14.58,
      "endOffset": 253,
      "phones": [
        {
          "duration": 0.08,
          "phone": "ae_B"
        },
        {
          "duration": 0.04,
          "phone": "n_I"
        },
        {
          "duration": 0.04,
          "phone": "d_E"
        }
      ],
      "start": 14.42,
      "startOffset": 250,
      "word": "AND"
    },
    {
      "alignedWord": "who",
      "case": "success",
      "end": 14.72,
      "endOffset": 257,
      "phones": [
        {
          "duration": 0.06,
          "phone": "hh_B"
        },
        {
          "duration": 0.08,
          "phone": "uw_E"
        }
      ],
      "start": 14.58,
      "startOffset": 254,
      "word": "WHO"
    },
    {
      "alignedWord": "sent",
      "case": "success",
      "end": 14.949999,
      "endOffset": 262,
      "phones": [
        {
          "duration": 0.08,
          "phone": "s_B"
        },
        {
          "duration": 0.06,
          "phone": "eh_I"
        },
        {
          "duration": 0.03,
          "phone": "n_I"
        },
        {
          "duration": 0.06,
          "phone": "t_E"
        }
      ],
      "start": 14.719999,
      "startOffset": 258,
      "word": "SENT"
    },
    {
      "alignedWord": "for",
      "case": "success",
      "end": 15.069999999999999,
      "endOffset": 266,
      "phones": [
        {
          "duration": 0.05,
          "phone": "f_B"
        },
        {
          "duration": 0.07,
          "phone": "er_E"
        }
      ],
      "start": 14.95,
      "startOffset": 263,
      "word": "FOR"
    },
    {
      "alignedWord": "her",
      "case": "success",
      "end": 15.47,
      "endOffset": 270,
      "phones": [
        {
          "duration": 0.11,
          "phone": "hh_B"
        },
        {
          "duration": 0.29,
          "phone": "er_E"
        }
      ],
      "start": 15.07,
      "startOffset": 267,
      "word": "HER"
    }
  ]
}