{
  "transcript": "WHEN HER UNCLE RETURNED FROM HIS VISIT TO THE PIGS LOUISE SAID TO HIM I'VE BEEN THINKING DEAR THAT WE OUGHT TO CALL UPON THAT YOUNG LADY WHO ARRANGED OUR ROOMS AND THANK HER FOR HER KINDNESS THAT'S TRUE HE REPLIED",
  "words": [
    {
      "alignedWord": "when",
      "case": "success",
      "end": 0.52,
      "endOffset": 4,
      "phones": [
        {
          "duration": 0.08,
          "phone": "w_B"
        },
        {
          "duration": 0.05,
          "phone": "eh_I"
        },
        {
          "duration": 0.06,
          "phone": "n_E"
        }
      ],
      "start": 0.33,
      "startOffset": 0,
      "word": "WHEN"
    },
    {
      "alignedWord": "her",
      "case": "success",
      "end": 0.66,
      "endOffset": 8,
      "phones": [
        {
          "duration": 0.07,
          "phone": "hh_B"
        },
        {
          "duration": 0.06,
          "phone": "er_E"
        }
      ],
      "start": 0.53,
      "startOffset": 5,
      "word": "HER"
    },
    {
      "alignedWord": "uncle",
      "case": "success",
      "end": 1.02,
      "endOffset": 14,
      "phones": [
        {
          "duration": 0.09,
          "phone": "ah_B"
        },
        {
          "duration": 0.11,
          "phone": "ng_I"
        },
        {
          "duration": 0.02,
          "phone": "k_I"
        },
        {
          "duration": 0.06,
          "phone": "ah_I"
        },
        {
          "duration": 0.08,
          "phone": "l_E"
        }
      ],
      "start": 0.66,
      "startOffset": 9,
      "word": "UNCLE"
    },
    {
      "alignedWord": "returned",
      "case": "success",
      "end": 1.48,
      "endOffset": 23,
      "phones": [
        {
          "duration": 0.05,
          "phone": "r_B"
        },
        {
          "duration": 0.07,
          "phone": "iy_I"
        },
        {
          "duration": 0.12,
          "phone": "t_I"
        },
        {
          "duration": 0.13,
          "phone": "er_I"
        },
        {
          "duration": 0.03,
          "phone": "n_I"
        },
        {
          "duration": 0.06,
          "phone": "d_E"
        }
      ],
      "start": 1.02,
      "startOffset": 15,
      "word": "RETURNED"
    },
    {
      "alignedWord": "from",
      "case": "success",
      "end": 1.68,
      "endOffset": 28,
      "phones": [
        {
          "duration": 0.06,
          "phone": "f_B"
        },
        {
          "duration": 0.06,
          "phone": "er_I"
        },
        {
          "duration": 0.07,
          "phone": "m_E"
        }
      ],
      "start": 1.49,
      "startOffset": 24,
      "word": "FROM"
    },
    {
      "alignedWord": "his",
      "case": "success",
      "end": 1.8599999999999999,
      "endOffset": 32,
      "phones": [
        {
          "duration": 0.04,
          "phone": "hh_B"
        },
        {
          "duration": 0.06,
          "phone": "ih_I"
        },
        {
          "duration": 0.08,
          "phone": "z_E"
        }
      ],
      "start": 1.68,
      "startOffset": 29,
      "word": "HIS"
    },
    {
      "alignedWord": "visit",
      "case": "success",
      "end": 2.19,
      "endOffset": 38,
      "phones": [
        {
          "duration": 0.06,
          "phone": "v_B"
        },
        {
          "duration": 0.07,
          "phone": "ih_I"
        },
        {
          "duration": 0.05,
          "phone": "z_I"
        },
        {
          "duration": 0.07,
          "phone": "ih_I"
        },
        {
          "duration": 0.08,
          "phone": "t_E"
        }
      ],
      "start": 1.86,
      "startOffset": 33,
      "word": "VISIT"
    },
    {
      "alignedWord": "to",
      "case": "success",
      "end": 2.28,
      "endOffset": 41,
      "phones": [
        {
          "duration": 0.03,
          "phone": "t_B"
        },
        {
          "duration": 0.06,
          "phone": "uw_E"
        }
      ],
      "start": 2.19,
      "startOffset": 39,
      "word": "TO"
    },
    {
      "alignedWord": "the",
      "case": "success",
      "end": 2.4,
      "endOffset": 45,
      "phones": [
        {
          "duration": 0.06,
          "phone": "dh_B"
        },
        {
          "duration": 0.06,
          "phone": "ah_E"
        }
      ],
      "start": 2.28,
      "startOffset": 42,
      "word": "THE"
    },
    {
      "alignedWord": "pigs",
      "case": "success",
      "end": 2.91,
      "endOffset": 50,
      "phones": [
        {
          "duration": 0.1,
          "phone": "p_B"
        },
        {
          "duration": 0.13,
          "phone": "ih_I"
        },
        {
          "duration": 0.09,
          "phone": "g_I"
        },
        {
          "duration": 0.19,
          "phone": "z_E"
        }
      ],
      "start": 2.4,
      "startOffset": 46,
      "word": "PIGS"
    },
    {
      "alignedWord": "louise",
      "case": "success",
      "end": 3.59,
      "endOffset": 57,
      "phones": [
        {
          "duration": 0.1,
          "phone": "l_B"
        },
        {
          "duration": 0.18,
          "phone": "uw_I"
        },
        {
          "duration": 0.09,
          "phone": "iy_I"
        },
        {
          "duration": 0.07,
          "phone": "z_E"
        }
      ],
      "start": 3.15,
      "startOffset": 51,
      "word": "LOUISE"
    },
    {
      "alignedWord": "said",
      "case": "success",
      "end": 3.87,
      "endOffset": 62,
      "phones": [
        {
          "duration": 0.11,
          "phone": "s_B"
        },
        {
          "duration": 0.08,
          "phone": "eh_I"
        },
        {
          "duration": 0.08,
          "phone": "d_E"
        }
      ],
      "start": 3.6,
      "startOffset": 58,
      "word": "SAID"
    },
    {
      "alignedWord": "to",
      "case": "success",
      "end": 4.03,
      "endOffset": 65,
      "phones": [
        {
          "duration": 0.07,
          "phone": "t_B"
        },
        {
          "duration": 0.09,
          "phone": "uw_E"
        }
      ],
      "start": 3.87,
      "startOffset": 63,
      "word": "TO"
    },
    {
      "alignedWord": "him",
      "case": "success",
      "end": 4.3100000000000005,
      "endOffset": 69,
      "phones": [
        {
          "duration": 0.06,
          "phone": "hh_B"
        },
        {
          "duration": 0.06,
          "phone": "ih_I"
        },
        {
          "duration": 0.16,
          "phone": "m_E"
        }
      ],
      "start": 4.03,
      "startOffset": 66,
      "word": "HIM"
    },
    {
      "alignedWord": "i've",
      "case": "success",
      "end": 5.359999999999999,
      "endOffset": 74,
      "phones": [
        {
          "duration": 0.19,
          "phone": "ay_B"
        },
        {
          "duration": 0.08,
          "phone": "v_E"
        }
      ],
      "start": 5.09,
      "startOffset": 70,
      "word": "I'VE"
    },
    {
      "alignedWord": "been",
      "case": "success",
      "end": 5.54,
      "endOffset": 79,
      "phones": [
        {
          "duration": 0.04,
          "phone": "b_B"
        },
        {
          "duration": 0.06,
          "phone": "ih_I"
        },
        {
          "duration": 0.08,
          "phone": "n_E"
        }
      ],
      "start": 5.36,
      "startOffset": 75,
      "word": "BEEN"
    },
    {
      "alignedWord": "thinking",
      "case": "success",
      "end": 5.93,
      "endOffset": 88,
      "phones": [
        {
          "duration": 0.08,
          "phone": "th_B"
        },
        {
          "duration": 0.06,
          "phone": "ih_I"
        },
        {
          "duration": 0.05,
          "phone": "ng_I"
        },
        {
          "duration": 0.05,
          "phone": "k_I"
        },
        {
          "duration": 0.07,
          "phone": "ih_I"
        },
        {
          "duration": 0.07,
          "phone": "ng_E"
        }
      ],
      "start": 5.55,
      "startOffset": 80,
      "word": "THINKING"
    },
    {
      "alignedWord": "dear",
      "case": "success",
      "end": 6.25,
      "endOffset": 93,
      "phones": [
        {
          "duration": 0.08,
          "phone": "d_B"
        },
        {
          "duration": 0.11,
          "phone": "ih_I"
        },
        {
          "duration": 0.13,
          "phone": "r_E"
        }
      ],
      "start": 5.93,
      "startOffset": 89,
      "word": "DEAR"
    },
    {
      "alignedWord": "that",
      "case": "success",
      "end": 6.569999999999999,
      "endOffset": 98,
      "phones": [
        {
          "duration": 0.1,
          "phone": "dh_B"
        },
        {
          "duration": 0.04,
          "phone": "ah_I"
        },
        {
          "duration": 0.08,
          "phone": "t_E"
        }
      ],
      "start": 6.35,
      "startOffset": 94,
      "word": "THAT"
    },
    {
      "alignedWord": "we",
      "case": "success",
      "end": 6.7700000000000005,
      "endOffset": 101,
      "phones": [
        {
          "duration": 0.08,
          "phone": "w_B"
        },
        {
          "duration": 0.12,
          "phone": "iy_E"
        }
      ],
      "start": 6.57,
      "startOffset": 99,
      "word": "WE"
    },
    {
      "alignedWord": "ought",
      "case": "success",
      "end": 6.93,
      "endOffset": 107,
      "phones": [
        {
          "duration": 0.08,
          "phone": "ao_B"
        },
        {
          "duration": 0.08,
          "phone": "t_E"
        }
      ],
      "start": 6.77,
      "startOffset": 102,
      "word": "OUGHT"
    },
    {
      "alignedWord": "to",
      "case": "success",
      "end": 7.06,
      "endOffset": 110,
      "phones": [
        {
          "duration": 0.04,
          "phone": "t_B"
        },
        {
          "duration": 0.09,
          "phone": "uw_E"
        }
      ],
      "start": 6.93,
      "startOffset": 108,
      "word": "TO"
    },
    {
      "alignedWord": "call",
      "case": "success",
      "end": 7.42,
      "endOffset": 115,
      "phones": [
        {
          "duration": 0.11,
          "phone": "k_B"
        },
        {
          "duration": 0.11,
          "phone": "ao_I"
        },
        {
          "duration": 0.11,
          "phone": "l_E"
        }
      ],
      "start": 7.09,
      "startOffset": 111,
      "word": "CALL"
    },
    {
      "alignedWord": "upon",
      "case": "success",
      "end": 7.72,
      "endOffset": 120,
      "phones": [
        {
          "duration": 0.05,
          "phone": "ah_B"
        },
        {
          "duration": 0.1,
          "phone": "p_I"
        },
        {
          "duration": 0.08,
          "phone": "aa_I"
        },
        {
          "duration": 0.07,
          "phone": "n_E"
        }
      ],
      "start": 7.42,
      "startOffset": 116,
      "word": "UPON"
    },
    {
      "alignedWord": "that",
      "case": "success",
      "end": 7.91,
      "endOffset": 125,
      "phones": [
        {
          "duration": 0.06,
          "phone": "dh_B"
        },
        {
          "duration": 0.06,
          "phone": "ae_I"
        },
        {
          "duration": 0.07,
          "phone": "t_E"
        }
      ],
      "start": 7.72,
      "startOffset": 121,
      "word": "THAT"
    },
    {
      "alignedWord": "young",
      "case": "success",
      "end": 8.22,
      "endOffset": 131,
      "phones": [
        {
          "duration": 0.09,
          "phone": "y_B"
        },
        {
          "duration": 0.09,
          "phone": "ah_I"
        },
        {
          "duration": 0.13,
          "phone": "ng_E"
        }
      ],
      "start": 7.91,
      "startOffset": 126,
      "word": "YOUNG"
    },
    {
      "alignedWord": "lady",
      "case": "success",
      "end": 8.59,
      "endOffset": 136,
      "phones": [
        {
          "duration": 0.09,
          "phone": "l_B"
        },
        {
          "duration": 0.14,
          "phone": "ey_I"
        },
        {
          "duration": 0.06,
          "phone": "d_I"
        },
        {
          "duration": 0.08,
          "phone": "iy_E"
        }
      ],
      "start": 8.22,
      "startOffset": 132,
      "word": "LADY"
    },
    {
      "alignedWord": "who",
      "case": "success",
      "end": 8.74,
      "endOffset": 140,
      "phones": [
        {
          "duration": 0.08,
          "phone": "hh_B"
        },
        {
          "duration": 0.07,
          "phone": "uw_E"
        }
      ],
      "start": 8.59,
      "startOffset": 137,
      "word": "WHO"
    },
    {
      "alignedWord": "arranged",
      "case": "success",
      "end": 9.200000000000001,
      "endOffset": 149,
      "phones": [
        {
          "duration": 0.14,
          "phone": "er_B"
        },
        {
          "duration": 0.12,
          "phone": "ey_I"
        },
        {
          "duration": 0.06,
          "phone": "n_I"
        },
        {
          "duration": 0.07,
          "phone": "jh_I"
        },
        {
          "duration": 0.07,
          "phone": "d_E"
        }
      ],
      "start": 8.74,
      "startOffset": 141,
      "word": "ARRANGED"
    },
    {
      "alignedWord": "our",
      "case": "success",
      "end": 9.379999999999999,
      "endOffset": 153,
      "phones": [
        {
          "duration": 0.13,
          "phone": "aw_B"
        },
        {
          "duration": 0.05,
          "phone": "r_E"
        }
      ],
      "start": 9.2,
      "startOffset": 150,
      "word": "OUR"
    },
    {
      "alignedWord": "rooms",
      "case": "success",
      "end": 9.860000000000001,
      "endOffset": 159,
      "phones": [
        {
          "duration": 0.07,
          "phone": "r_B"
        },
        {
          "duration": 0.17,
          "phone": "uw_I"
        },
        {
          "duration": 0.08,
          "phone": "m_I"
        },
        {
          "duration": 0.16,
          "phone": "z_E"
        }
      ],
      "start": 9.38,
      "startOffset": 154,
      "word": "ROOMS"
    },
    {
      "alignedWord": "and",
      "case": "success",
      "end": 10.23,
      "endOffset": 163,
      "phones": [
        {
          "duration": 0.1,
          "phone": "ae_B"
        },
        {
          "duration": 0.07,
          "phone": "n_I"
        },
        {
          "duration": 0.07,
          "phone": "d_E"
        }
      ],
      "start": 9.99,
      "startOffset": 160,
      "word": "AND"
    },
    {
      "alignedWord": "thank",
      "case": "success",
      "end": 10.59,
      "endOffset": 169,
      "phones": [
        {
          "duration": 0.12,
          "phone": "th_B"
        },
        {
          "duration": 0.08,
          "phone": "ae_I"
        },
        {
          "duration": 0.08,
          "phone": "ng_I"
        },
        {
          "duration": 0.07,
          "phone": "k_E"
        }
      ],
      "start": 10.24,
      "startOffset": 164,
      "word": "THANK"
    },
    {
      "alignedWord": "her",
      "case": "success",
      "end": 10.77,
      "endOffset": 173,
      "phones": [
        {
          "duration": 0.07,
          "phone": "hh_B"
        },
        {
          "duration": 0.11,
          "phone": "er_E"
        }
      ],
      "start": 10.59,
      "startOffset": 170,
      "word": "HER"
    },
    {
      "alignedWord": "for",
      "case": "success",
      "end": 10.95,
      "endOffset": 177,
      "phones": [
        {
          "duration": 0.08,
          "phone": "f_B"
        },
        {
          "duration": 0.07,
          "phone": "ao_I"
        },
        {
          "duration": 0.03,
          "phone": "r_E"
        }
      ],
      "start": 10.77,
      "startOffset": 174,
      "word": "FOR"
    },
    {
      "alignedWord": "her",
      "case": "success",
      "end": 11.11,
      "endOffset": 181,
      "phones": [
        {
          "duration": 0.09,
          "phone": "hh_B"
        },
        {
          "duration": 0.07,
          "phone": "er_E"
        }
      ],
      "start": 10.95,
      "startOffset": 178,
      "word": "HER"
    },
    {
      "alignedWord": "kindness",
      "case": "success",
      "end": 11.84,
      "endOffset": 190,
      "phones": [
        {
          "duration": 0.1,
          "phone": "k_B"
        },
        {
          "duration": 0.14,
          "phone": "ay_I"
        },
        {
          "duration": 0.06,
          "phone": "n_I"
        },
        {
          "duration": 0.04,
          "phone": "d_I"
        },
        {
          "duration": 0.05,
          "phone": "n_I"
        },
        {
          "duration": 0.09,
          "phone": "ah_I"
        },
        {
          "duration": 0.25,
          "phone": "s_E"
        }
      ],
      "start": 11.11,
      "startOffset": 182,
      "word": "KINDNESS"
    },
    {
      "alignedWord": "that's",
      "case": "success",
      "end": 12.68,
      "endOffset": 197,
      "phones": [
        {
          "duration": 0.17,
          "phone": "dh_B"
        },
        {
          "duration": 0.12,
          "phone": "ae_I"
        },
        {
          "duration": 0.07,
          "phone": "t_I"
        },
        {
          "duration": 0.08,
          "phone": "s_E"
        }
      ],
      "start": 12.24,
      "startOffset": 191,
      "word": "THAT'S"
    },
    {
      "alignedWord": "true",
      "case": "success",
      "end": 13.19,
      "endOffset": 202,
      "phones": [
        {
          "duration": 0.11,
          "phone": "t_B"
        },
        {
          "duration": 0.1,
          "phone": "r_I"
        },
        {
          "duration": 0.29,
          "phone": "uw_E"
        }
      ],
      "start": 12.69,
      "startOffset": 198,
      "word": "TRUE"
    },
    {
      "alignedWord": "he",
      "case": "success",
      "end": 13.59,
      "endOffset": 205,
      "phones": [
        {
          "duration": 0.1,
          "phone": "hh_B"
        },
        {
          "duration": 0.08,
          "phone": "iy_E"
        }
      ],
      "start": 13.41,
      "startOffset": 203,
      "word": "HE"
    },
    {
      "alignedWord": "replied",
      "case": "success",
      "end": 14.16,
      "endOffset": 213,
      "phones": [
        {
          "duration": 0.07,
          "phone": "r_B"
        },
        {
          "duration": 0.07,
          "phone": "iy_I"
        },
        {
          "duration": 0.08,
          "phone": "p_I"
        },
        {
          "duration": 0.08,
          "phone": "l_I"
        },
        {
          "duration": 0.16,
          "phone": "ay_I"
        },
        {
          "duration": 0.11,
          "phone": "d_E"
        }
      ],
      "start": 13.59,
      "startOffset": 206,
      "word": "REPLIED"
    }
  ]
}