{
  "transcript": "HE TRUSTED HOWEVER THAT AN OPPORTUNITY MIGHT ERE LONG OCCUR OF SELECTING ONE THOUGH NOT FOR HIMSELF CATHERINE WAS PROBABLY THE ONLY ONE OF THE PARTY WHO DID NOT UNDERSTAND HIM",
  "words": [
    {
      "alignedWord": "he",
      "case": "success",
      "end": 0.43000000000000005,
      "endOffset": 2,
      "phones": [
        {
          "duration": 0.1,
          "phone": "hh_B"
        },
        {
          "duration": 0.06,
          "phone": "iy_E"
        }
      ],
      "start": 0.27,
      "startOffset": 0,
      "word": "HE"
    },
    {
      "alignedWord": "trusted",
      "case": "success",
      "end": 0.85,
      "endOffset": 10,
      "phones": [
        {
          "duration": 0.07,
          "phone": "t_B"
        },
        {
          "duration": 0.06,
          "phone": "r_I"
        },
        {
          "duration": 0.06,
          "phone": "ah_I"
        },
        {
          "duration": 0.04,
          "phone": "s_I"
        },
        {
          "duration": 0.08,
          "phone": "t_I"
        },
        {
          "duration": 0.04,
          "phone": "ih_I"
        },
        {
          "duration": 0.07,
          "phone": "d_E"
        }
      ],
      "start": 0.43,
      "startOffset": 3,
      "word": "TRUSTED"
    },
    {
      "alignedWord": "however",
      "case": "success",
      "end": 1.23,
      "endOffset": 18,
      "phones": [
        {
          "duration": 0.04,
          "phone": "hh_B"
        },
        {
          "duration": 0.11,
          "phone": "aw_I"
        },
        {
          "duration": 0.1,
          "phone": "eh_I"
        },
        {
          "duration": 0.04,
          "phone": "v_I"
        },
        {
          "duration": 0.09,
          "phone": "er_E"
        }
      ],
      "start": 0.85,
      "startOffset": 11,
      "word": "HOWEVER"
    },
    {
      "alignedWord": "that",
      "case": "success",
      "end": 1.3599999999999999,
      "endOffset": 23,
      "phones": [
        {
          "duration": 0.03,
          "phone": "dh_B"
        },
        {
          "duration": 0.06,
          "phone": "ah_I"
        },
        {
          "duration": 0.04,
          "phone": "t_E"
        }
      ],
      "start": 1.23,
      "startOffset": 19,
      "word": "THAT"
    },
    {
      "alignedWord": "an",
      "case": "success",
      "end": 1.4700000000000002,
      "endOffset": 26,
      "phones": [
        {
          "duration": 0.05,
          "phone": "ah_B"
        },
        {
          "duration": 0.06,
          "phone": "n_E"
        }
      ],
      "start": 1.36,
      "startOffset": 24,
      "word": "AN"
    },
    {
      "alignedWord": "opportunity",
      "case": "success",
      "end": 2.13,
      "endOffset": 38,
      "phones": [
        {
          "duration": 0.08,
          "phone": "aa_B"
        },
        {
          "duration": 0.1,
          "phone": "p_I"
        },
        {
          "duration": 0.04,
          "phone": "er_I"
        },
        {
          "duration": 0.09,
          "phone": "t_I"
        },
        {
          "duration": 0.08,
          "phone": "uw_I"
        },
        {
          "duration": 0.02,
          "phone": "n_I"
        },
        {
          "duration": 0.08,
          "phone": "ah_I"
        },
        {
          "duration": 0.06,
          "phone": "t_I"
        },
        {
          "duration": 0.09,
          "phone": "iy_E"
        }
      ],
      "start": 1.49,
      "startOffset": 27,
      "word": "OPPORTUNITY"
    },
    {
      "alignedWord": "might",
      "case": "success",
      "end": 2.32,
      "endOffset": 44,
      "phones": [
        {
          "duration": 0.04,
          "phone": "m_B"
        },
        {
          "duration": 0.1,
          "phone": "ay_I"
        },
        {
          "duration": 0.05,
          "phone": "t_E"
        }
      ],
      "start": 2.13,
      "startOffset": 39,
      "word": "MIGHT"
    },
    {
      "alignedWord": "ere",
      "case": "success",
      "end": 2.5500000000000003,
      "endOffset": 48,
      "phones": [
        {
          "duration": 0.11,
          "phone": "eh_B"
        },
        {
          "duration": 0.09,
          "phone": "r_E"
        }
      ],
      "start": 2.35,
      "startOffset": 45,
      "word": "ERE"
    },
    {
      "alignedWord": "long",
      "case": "success",
      "end": 2.9099999999999997,
      "endOffset": 53,
      "phones": [
        {
          "duration": 0.08,
          "phone": "l_B"
        },
        {
          "duration": 0.14,
          "phone": "ao_I"
        },
        {
          "duration": 0.14,
          "phone": "ng_E"
        }
      ],
      "start": 2.55,
      "startOffset": 49,
      "word": "LONG"
    },
    {
      "alignedWord": "occur",
      "case": "success",
      "end": 3.25,
      "endOffset": 59,
      "phones": [
        {
          "duration": 0.07,
          "phone": "ah_B"
        },
        {
          "duration": 0.15,
          "phone": "k_I"
        },
        {
          "duration": 0.11,
          "phone": "er_E"
        }
      ],
      "start": 2.92,
      "startOffset": 54,
      "word": "OCCUR"
    },
    {
      "alignedWord": "of",
      "case": "success",
      "end": 3.38,
      "endOffset": 62,
      "phones": [
        {
          "duration": 0.05,
          "phone": "ah_B"
        },
        {
          "duration": 0.08,
          "phone": "v_E"
        }
      ],
      "start": 3.25,
      "startOffset": 60,
      "word": "OF"
    },
    {
      "alignedWord": "selecting",
      "case": "success",
      "end": 3.88,
      "endOffset": 72,
      "phones": [
        {
          "duration": 0.04,
          "phone": "s_B"
        },
        {
          "duration": 0.07,
          "phone": "ah_I"
        },
        {
          "duration": 0.08,
          "phone": "l_I"
        },
        {
          "duration": 0.05,
          "phone": "eh_I"
        },
        {
          "duration": 0.07,
          "phone": "k_I"
        },
        {
          "duration": 0.05,
          "phone": "t_I"
        },
        {
          "duration": 0.07,
          "phone": "ih_I"
        },
        {
          "duration": 0.07,
          "phone": "ng_E"
        }
      ],
      "start": 3.38,
      "startOffset": 63,
      "word": "SELECTING"
    },
    {
      "alignedWord": "one",
      "case": "success",
      "end": 4.12,
      "endOffset": 76,
      "phones": [
        {
          "duration": 0.06,
          "phone": "w_B"
        },
        {
          "duration": 0.08,
          "phone": "ah_I"
        },
        {
          "duration": 0.1,
          "phone": "n_E"
        }
      ],
      "start": 3.88,
      "startOffset": 73,
      "word": "ONE"
    },
    {
      "alignedWord": "though",
      "case": "success",
      "end": 4.62,
      "endOffset": 83,
      "phones": [
        {
          "duration": 0.11,
          "phone": "dh_B"
        },
        {
          "duration": 0.08,
          "phone": "ow_E"
        }
      ],
      "start": 4.43,
      "startOffset": 77,
      "word": "THOUGH"
    },
    {
      "alignedWord": "not",
      "case": "success",
      "end": 4.86,
      "endOffset": 87,
      "phones": [
        {
          "duration": 0.07,
          "phone": "n_B"
        },
        {
          "duration": 0.09,
          "phone": "aa_I"
        },
        {
          "duration": 0.08,
          "phone": "t_E"
        }
      ],
      "start": 4.62,
      "startOffset": 84,
      "word": "NOT"
    },
    {
      "alignedWord": "for",
      "case": "success",
      "end": 5.0200000000000005,
      "endOffset": 91,
      "phones": [
        {
          "duration": 0.09,
          "phone": "f_B"
        },
        {
          "duration": 0.06,
          "phone": "er_E"
        }
      ],
      "start": 4.87,
      "startOffset": 88,
      "word": "FOR"
    },
    {
      "alignedWord": "himself",
      "case": "success",
      "end": 5.659999999999999,
      "endOffset": 99,
      "phones": [
        {
          "duration": 0.05,
          "phone": "hh_B"
        },
        {
          "duration": 0.03,
          "phone": "ih_I"
        },
        {
          "duration": 0.06,
          "phone": "m_I"
        },
        {
          "duration": 0.07,
          "phone": "s_I"
        },
        {
          "duration": 0.13,
          "phone": "eh_I"
        },
        {
          "duration": 0.11,
          "phone": "l_I"
        },
        {
          "duration": 0.19,
          "phone": "f_E"
        }
      ],
      "start": 5.02,
      "startOffset": 92,
      "word": "HIMSELF"
    },
    {
      "alignedWord": "catherine",
      "case": "success",
      "end": 6.6,
      "endOffset": 109,
      "phones": [
        {
          "duration": 0.12,
          "phone": "k_B"
        },
        {
          "duration": 0.07,
          "phone": "ae_I"
        },
        {
          "duration": 0.08,
          "phone": "th_I"
        },
        {
          "duration": 0.05,
          "phone": "er_I"
        },
        {
          "duration": 0.01,
          "phone": "ah_I"
        },
        {
          "duration": 0.05,
          "phone": "n_E"
        }
      ],
      "start": 6.22,
      "startOffset": 100,
      "word": "CATHERINE"
    },
    {
      "alignedWord": "was",
      "case": "success",
      "end": 6.76,
      "endOffset": 113,
      "phones": [
        {
          "duration": 0.05,
          "phone": "w_B"
        },
        {
          "duration": 0.03,
          "phone": "ah_I"
        },
        {
          "duration": 0.08,
          "phone": "z_E"
        }
      ],
      "start": 6.6,
      "startOffset": 110,
      "word": "WAS"
    },
    {
      "alignedWord": "probably",
      "case": "success",
      "end": 7.31,
      "endOffset": 122,
      "phones": [
        {
          "duration": 0.07,
          "phone": "p_B"
        },
        {
          "duration": 0.04,
          "phone": "r_I"
        },
        {
          "duration": 0.06,
          "phone": "aa_I"
        },
        {
          "duration": 0.02,
          "phone": "b_I"
        },
        {
          "duration": 0.15,
          "phone": "ah_I"
        },
        {
          "duration": 0.07,
          "phone": "b_I"
        },
        {
          "duration": 0.06,
          "phone": "l_I"
        },
        {
          "duration": 0.07,
          "phone": "iy_E"
        }
      ],
      "start": 6.77,
      "startOffset": 114,
      "word": "PROBABLY"
    },
    {
      "alignedWord": "the",
      "case": "success",
      "end": 7.47,
      "endOffset": 126,
      "phones": [
        {
          "duration": 0.06,
          "phone": "dh_B"
        },
        {
          "duration": 0.1,
          "phone": "iy_E"
        }
      ],
      "start": 7.31,
      "startOffset": 123,
      "word": "THE"
    },
    {
      "alignedWord": "only",
      "case": "success",
      "end": 7.86,
      "endOffset": 131,
      "phones": [
        {
          "duration": 0.13,
          "phone": "ow_B"
        },
        {
          "duration": 0.08,
          "phone": "n_I"
        },
        {
          "duration": 0.05,
          "phone": "l_I"
        },
        {
          "duration": 0.07,
          "phone": "iy_E"
        }
      ],
      "start": 7.53,
      "startOffset": 127,
      "word": "ONLY"
    },
    {
      "alignedWord": "one",
      "case": "success",
      "end": 8.01,
      "endOffset": 135,
      "phones": [
        {
          "duration": 0.04,
          "phone": "w_B"
        },
        {
          "duration": 0.07,
          "phone": "ah_I"
        },
        {
          "duration": 0.04,
          "phone": "n_E"
        }
      ],
      "start": 7.86,
      "startOffset": 132,
      "word": "ONE"
    },
    {
      "alignedWord": "of",
      "case": "success",
      "end": 8.09,
      "endOffset": 138,
      "phones": [
        {
          "duration": 0.03,
          "phone": "ah_B"
        },
        {
          "duration": 0.05,
          "phone": "v_E"
        }
      ],
      "start": 8.01,
      "startOffset": 136,
      "word": "OF"
    },
    {
      "alignedWord": "the",
      "case": "success",
      "end": 8.16,
      "endOffset": 142,
      "phones": [
        {
          "duration": 0.01,
          "phone": "dh_B"
        },
        {
          "duration": 0.06,
          "phone": "ah_E"
        }
      ],
      "start": 8.09,
      "startOffset": 139,
      "word": "THE"
    },
    {
      "alignedWord": "party",
      "case": "success",
      "end": 8.6,
      "endOffset": 148,
      "phones": [
        {
          "duration": 0.07,
          "phone": "p_B"
        },
        {
          "duration": 0.08,
          "phone": "aa_I"
        },
        {
          "duration": 0.07,
          "phone": "r_I"
        },
        {
          "duration": 0.06,
          "phone": "t_I"
        },
        {
          "duration": 0.16,
          "phone": "iy_E"
        }
      ],
      "start": 8.16,
      "startOffset": 143,
      "word": "PARTY"
    },
    {
      "alignedWord": "who",
      "case": "success",
      "end": 8.89,
      "endOffset": 152,
      "phones": [
        {
          "duration": 0.09,
          "phone": "hh_B"
        },
        {
          "duration": 0.07,
          "phone": "uw_E"
        }
      ],
      "start": 8.73,
      "startOffset": 149,
      "word": "WHO"
    },
    {
      "alignedWord": "did",
      "case": "success",
      "end": 9.079998999999999,
      "endOffset": 156,
      "phones": [
        {
          "duration": 0.06,
          "phone": "d_B"
        },
        {
          "duration": 0.07,
          "phone": "ih_I"
        },
        {
          "duration": 0.06,
          "phone": "d_E"
        }
      ],
      "start": 8.889999,
      "startOffset": 153,
      "word": "DID"
    },
    {
      "alignedWord": "not",
      "case": "success",
      "end": 9.290000000000001,
      "endOffset": 160,
      "phones": [
        {
          "duration": 0.03,
          "phone": "n_B"
        },
        {
          "duration": 0.13,
          "phone": "aa_I"
        },
        {
          "duration": 0.05,
          "phone": "t_E"
        }
      ],
      "start": 9.08,
      "startOffset": 157,
      "word": "NOT"
    },
    {
      "alignedWord": "understand",
      "case": "success",
      "end": 9.879999,
      "endOffset": 171,
      "phones": [
        {
          "duration": 0.04,
          "phone": "ah_B"
        },
        {
          "duration": 0.05,
          "phone": "n_I"
        },
        {
          "duration": 0.06,
          "phone": "d_I"
        },
        {
          "duration": 0.06,
          "phone": "er_I"
        },
        {
          "duration": 0.08,
          "phone": "s_I"
        },
        {
          "duration": 0.06,
          "phone": "t_I"
        },
        {
          "duration": 0.11,
          "phone": "ae_I"
        },
        {
          "duration": 0.06,
          "phone": "n_I"
        },
        {
          "duration": 0.05,
          "phone": "d_E"
        }
      ],
      "start": 9.309999,
      "startOffset": 161,
      "word": "UNDERSTAND"
    },
    {
      "alignedWord": "him",
      "case": "success",
      "end": 10.15,
      "endOffset": 175,
      "phones": [
        {
          "duration": 0.06,
          "phone": "hh_B"
        },
        {
          "duration": 0.07,
          "phone": "ih_I"
        },
        {
          "duration": 0.14,
          "phone": "m_E"
        }
      ],
      "start": 9.88,
      "startOffset": 172,
      "word": "HIM"
    }
  ]
}