{
  "transcript": "IT IS VERY LIKE HERE WAS ANOTHER PROOF A PORTRAIT VERY LIKE OF A DEPARTED WIFE NOT VALUED BY THE HUSBAND HE MUST HAVE BEEN DREADFULLY CRUEL TO HER",
  "words": [
    {
      "alignedWord": "it",
      "case": "success",
      "end": 0.32,
      "endOffset": 2,
      "phones": [
        {
          "duration": 0.1,
          "phone": "ih_B"
        },
        {
          "duration": 0.05,
          "phone": "t_E"
        }
      ],
      "start": 0.17,
      "startOffset": 0,
      "word": "IT"
    },
    {
      "alignedWord": "is",
      "case": "success",
      "end": 0.44,
      "endOffset": 5,
      "phones": [
        {
          "duration": 0.07,
          "phone": "ih_B"
        },
        {
          "duration": 0.05,
          "phone": "z_E"
        }
      ],
      "start": 0.32,
      "startOffset": 3,
      "word": "IS"
    },
    {
      "alignedWord": "very",
      "case": "success",
      "end": 0.74,
      "endOffset": 10,
      "phones": [
        {
          "duration": 0.04,
          "phone": "v_B"
        },
        {
          "duration": 0.09,
          "phone": "eh_I"
        },
        {
          "duration": 0.09,
          "phone": "r_I"
        },
        {
          "duration": 0.08,
          "phone": "iy_E"
        }
      ],
      "start": 0.44,
      "startOffset": 6,
      "word": "VERY"
    },
    {
      "alignedWord": "like",
      "case": "success",
      "end": 1.18,
      "endOffset": 15,
      "phones": [
        {
          "duration": 0.09,
          "phone": "l_B"
        },
        {
          "duration": 0.15,
          "phone": "ay_I"
        },
        {
          "duration": 0.2,
          "phone": "k_E"
        }
      ],
      "start": 0.74,
      "startOffset": 11,
      "word": "LIKE"
    },
    {
      "alignedWord": "here",
      "case": "success",
      "end": 2.27,
      "endOffset": 20,
      "phones": [
        {
          "duration": 0.09,
          "phone": "hh_B"
        },
        {
          "duration": 0.05,
          "phone": "iy_I"
        },
        {
          "duration": 0.05,
          "phone": "r_E"
        }
      ],
      "start": 2.08,
      "startOffset": 16,
      "word": "HERE"
    },
    {
      "alignedWord": "was",
      "case": "success",
      "end": 2.41,
      "endOffset": 24,
      "phones": [
        {
          "duration": 0.01,
          "phone": "w_B"
        },
        {
          "duration": 0.08,
          "phone": "ah_I"
        },
        {
          "duration": 0.05,
          "phone": "z_E"
        }
      ],
      "start": 2.27,
      "startOffset": 21,
      "word": "WAS"
    },
    {
      "alignedWord": "another",
      "case": "success",
      "end": 2.71,
      "endOffset": 32,
      "phones": [
        {
          "duration": 0.04,
          "phone": "ah_B"
        },
        {
          "duration": 0.06,
          "phone": "n_I"
        },
        {
          "duration": 0.07,
          "phone": "ah_I"
        },
        {
          "duration": 0.07,
          "phone": "dh_I"
        },
        {
          "duration": 0.06,
          "phone": "er_E"
        }
      ],
      "start": 2.41,
      "startOffset": 25,
      "word": "ANOTHER"
    },
    {
      "alignedWord": "proof",
      "case": "success",
      "end": 3.0,
      "endOffset": 38,
      "phones": [
        {
          "duration": 0.08,
          "phone": "p_B"
        },
        {
          "duration": 0.07,
          "phone": "r_I"
        },
        {
          "duration": 0.07,
          "phone": "uw_I"
        },
        {
          "duration": 0.07,
          "phone": "f_E"
        }
      ],
      "start": 2.71,
      "startOffset": 33,
      "word": "PROOF"
    },
    {
      "alignedWord": "a",
      "case": "success",
      "end": 3.15,
      "endOffset": 40,
      "phones": [
        {
          "duration": 0.09,
          "phone": "ah_S"
        }
      ],
      "start": 3.06,
      "startOffset": 39,
      "word": "A"
    },
    {
      "alignedWord": "portrait",
      "case": "success",
      "end": 3.55,
      "endOffset": 49,
      "phones": [
        {
          "duration": 0.09,
          "phone": "p_B"
        },
        {
          "duration": 0.07,
          "phone": "ao_I"
        },
        {
          "duration": 0.03,
          "phone": "r_I"
        },
        {
          "duration": 0.09,
          "phone": "t_I"
        },
        {
          "duration": 0.04,
          "phone": "r_I"
        },
        {
          "duration": 0.05,
          "phone": "ah_I"
        },
        {
          "duration": 0.03,
          "phone": "t_E"
        }
      ],
      "start": 3.15,
      "startOffset": 41,
      "word": "PORTRAIT"
    },
    {
      "alignedWord": "very",
      "case": "success",
      "end": 4.04,
      "endOffset": 54,
      "phones": [
        {
          "duration": 0.14,
          "phone": "v_B"
        },
        {
          "duration": 0.1,
          "phone": "eh_I"
        },
        {
          "duration": 0.11,
          "phone": "r_I"
        },
        {
          "duration": 0.09,
          "phone": "iy_E"
        }
      ],
      "start": 3.6,
      "startOffset": 50,
      "word": "VERY"
    },
    {
      "alignedWord": "like",
      "case": "success",
      "end": 4.35,
      "endOffset": 59,
      "phones": [
        {
          "duration": 0.11,
          "phone": "l_B"
        },
        {
          "duration": 0.11,
          "phone": "ay_I"
        },
        {
          "duration": 0.09,
          "phone": "k_E"
        }
      ],
      "start": 4.04,
      "startOffset": 55,
      "word": "LIKE"
    },
    {
      "alignedWord": "of",
      "case": "success",
      "end": 4.470000000000001,
      "endOffset": 62,
      "phones": [
        {
          "duration": 0.06,
          "phone": "ah_B"
        },
        {
          "duration": 0.05,
          "phone": "v_E"
        }
      ],
      "start": 4.36,
      "startOffset": 60,
      "word": "OF"
    },
    {
      "alignedWord": "a",
      "case": "success",
      "end": 4.5,
      "endOffset": 64,
      "phones": [
        {
          "duration": 0.03,
          "phone": "ah_S"
        }
      ],
      "start": 4.47,
      "startOffset": 63,
      "word": "A"
    },
    {
      "alignedWord": "departed",
      "case": "success",
      "end": 4.99,
      "endOffset": 73,
      "phones": [
        {
          "duration": 0.06,
          "phone": "d_B"
        },
        {
          "duration": 0.04,
          "phone": "ih_I"
        },
        {
          "duration": 0.08,
          "phone": "p_I"
        },
        {
          "duration": 0.06,
          "phone": "aa_I"
        },
        {
          "duration": 0.07,
          "phone": "r_I"
        },
        {
          "duration": 0.02,
          "phone": "t_I"
        },
        {
          "duration": 0.08,
          "phone": "ih_I"
        },
        {
          "duration": 0.08,
          "phone": "d_E"
        }
      ],
      "start": 4.5,
      "startOffset": 65,
      "word": "DEPARTED"
    },
    {
      "alignedWord": "wife",
      "case": "success",
      "end": 5.29,
      "endOffset": 78,
      "phones": [
        {
          "duration": 0.08,
          "phone": "w_B"
        },
        {
          "duration": 0.11,
          "phone": "ay_I"
        },
        {
          "duration": 0.11,
          "phone": "f_E"
        }
      ],
      "start": 4.99,
      "startOffset": 74,
      "word": "WIFE"
    },
    {
      "alignedWord": "not",
      "case": "success",
      "end": 5.72,
      "endOffset": 82,
      "phones": [
        {
          "duration": 0.14,
          "phone": "n_B"
        },
        {
          "duration": 0.12,
          "phone": "aa_I"
        },
        {
          "duration": 0.08,
          "phone": "t_E"
        }
      ],
      "start": 5.38,
      "startOffset": 79,
      "word": "NOT"
    },
    {
      "alignedWord": "valued",
      "case": "success",
      "end": 6.12,
      "endOffset": 89,
      "phones": [
        {
          "duration": 0.06,
          "phone": "v_B"
        },
        {
          "duration": 0.09,
          "phone": "ae_I"
        },
        {
          "duration": 0.06,
          "phone": "l_I"
        },
        {
          "duration": 0.07,
          "phone": "y_I"
        },
        {
          "duration": 0.05,
          "phone": "uw_I"
        },
        {
          "duration": 0.05,
          "phone": "d_E"
        }
      ],
      "start": 5.74,
      "startOffset": 83,
      "word": "VALUED"
    },
    {
      "alignedWord": "by",
      "case": "success",
      "end": 6.22,
      "endOffset": 92,
      "phones": [
        {
          "duration": 0.05,
          "phone": "b_B"
        },
        {
          "duration": 0.05,
          "phone": "ay_E"
        }
      ],
      "start": 6.12,
      "startOffset": 90,
      "word": "BY"
    },
    {
      "alignedWord": "the",
      "case": "success",
      "end": 6.33,
      "endOffset": 96,
      "phones": [
        {
          "duration": 0.09,
          "phone": "dh_B"
        },
        {
          "duration": 0.02,
          "phone": "ah_E"
        }
      ],
      "start": 6.22,
      "startOffset": 93,
      "word": "THE"
    },
    {
      "alignedWord": "husband",
      "case": "success",
      "end": 6.890000000000001,
      "endOffset": 104,
      "phones": [
        {
          "duration": 0.08,
          "phone": "hh_B"
        },
        {
          "duration": 0.08,
          "phone": "ah_I"
        },
        {
          "duration": 0.1,
          "phone": "z_I"
        },
        {
          "duration": 0.01,
          "phone": "b_I"
        },
        {
          "duration": 0.08,
          "phone": "ah_I"
        },
        {
          "duration": 0.08,
          "phone": "n_I"
        },
        {
          "duration": 0.13,
          "phone": "d_E"
        }
      ],
      "start": 6.33,
      "startOffset": 97,
      "word": "HUSBAND"
    },
    {
      "alignedWord": "he",
      "case": "success",
      "end": 7.38,
      "endOffset": 107,
      "phones": [
        {
          "duration": 0.22,
          "phone": "hh_B"
        },
        {
          "duration": 0.08,
          "phone": "iy_E"
        }
      ],
      "start": 7.08,
      "startOffset": 105,
      "word": "HE"
    },
    {
      "alignedWord": "must",
      "case": "success",
      "end": 7.67,
      "endOffset": 112,
      "phones": [
        {
          "duration": 0.07,
          "phone": "m_B"
        },
        {
          "duration": 0.09,
          "phone": "ah_I"
        },
        {
          "duration": 0.04,
          "phone": "s_I"
        },
        {
          "duration": 0.09,
          "phone": "t_E"
        }
      ],
      "start": 7.38,
      "startOffset": 108,
      "word": "MUST"
    },
    {
      "alignedWord": "have",
      "case": "success",
      "end": 7.79,
      "endOffset": 117,
      "phones": [
        {
          "duration": 0.04,
          "phone": "hh_B"
        },
        {
          "duration": 0.01,
          "phone": "ae_I"
        },
        {
          "duration": 0.07,
          "phone": "v_E"
        }
      ],
      "start": 7.67,
      "startOffset": 113,
      "word": "HAVE"
    },
    {
      "alignedWord": "been",
      "case": "success",
      "end": 7.97,
      "endOffset": 122,
      "phones": [
        {
          "duration": 0.04,
          "phone": "b_B"
        },
        {
          "duration": 0.06,
          "phone": "ih_I"
        },
        {
          "duration": 0.08,
          "phone": "n_E"
        }
      ],
      "start": 7.79,
      "startOffset": 118,
      "word": "BEEN"
    },
    {
      "alignedWord": "dreadfully",
      "case": "success",
      "end": 8.67,
      "endOffset": 133,
      "phones": [
        {
          "duration": 0.11,
          "phone": "d_B"
        },
        {
          "duration": 0.14,
          "phone": "r_I"
        },
        {
          "duration": 0.09,
          "phone": "eh_I"
        },
        {
          "duration": 0.09,
          "phone": "d_I"
        },
        {
          "duration": 0.07,
          "phone": "f_I"
        },
        {
          "duration": 0.05,
          "phone": "ah_I"
        },
        {
          "duration": 0.06,
          "phone": "l_I"
        },
        {
          "duration": 0.07,
          "phone": "iy_E"
        }
      ],
      "start": 7.99,
      "startOffset": 123,
      "word": "DREADFULLY"
    },
    {
      "alignedWord": "cruel",
      "case": "success",
      "end": 8.94,
      "endOffset": 139,
      "phones": [
        {
          "duration": 0.08,
          "phone": "k_B"
        },
        {
          "duration": 0.04,
          "phone": "r_I"
        },
        {
          "duration": 0.08,
          "phone": "uw_I"
        },
        {
          "duration": 0.07,
          "phone": "l_E"
        }
      ],
      "start": 8.67,
      "startOffset": 134,
      "word": "CRUEL"
    },
    {
      "alignedWord": "to",
      "case": "success",
      "end": 9.07,
      "endOffset": 142,
      "phones": [
        {
          "duration": 0.06,
          "phone": "t_B"
        },
        {
          "duration": 0.07,
          "phone": "ih_E"
        }
      ],
      "start": 8.94,
      "startOffset": 140,
      "word": "TO"
    },
    {
      "alignedWord": "her",
      "case": "success",
      "end": 9.32,
      "endOffset": 146,
      "phones": [
        {
          "duration": 0.08,
          "phone": "hh_B"
        },
        {
          "duration": 0.17,
          "phone": "er_E"
        }
      ],
      "start": 9.07,
      "startOffset": 143,
      "word": "HER"
    }
  ]
}