{
  "transcript": "CHAPTER FIVE AT RANDOM FOR SOME WHILE THE VOYAGE OF THE ABRAHAM LINCOLN WAS MARKED BY NO INCIDENT BUT ONE CIRCUMSTANCE AROSE THAT DISPLAYED NED LAND'S MARVELOUS SKILLS AND SHOWED JUST HOW MUCH CONFIDENCE WE COULD PLACE IN HIM",
  "words": [
    {
      "alignedWord": "chapter",
      "case": "success",
      "end": 0.6799999999999999,
      "endOffset": 7,
      "phones": [
        {
          "duration": 0.13,
          "phone": "ch_B"
        },
        {
          "duration": 0.06,
          "phone": "ae_I"
        },
        {
          "duration": 0.06,
          "phone": "p_I"
        },
        {
          "duration": 0.09,
          "phone": "t_I"
        },
        {
          "duration": 0.09,
          "phone": "er_E"
        }
      ],
      "start": 0.25,
      "startOffset": 0,
      "word": "CHAPTER"
    },
    {
      "alignedWord": "five",
      "case": "success",
      "end": 1.2000000000000002,
      "endOffset": 12,
      "phones": [
        {
          "duration": 0.12,
          "phone": "f_B"
        },
        {
          "duration": 0.22,
          "phone": "ay_I"
        },
        {
          "duration": 0.18,
          "phone": "v_E"
        }
      ],
      "start": 0.68,
      "startOffset": 8,
      "word": "FIVE"
    },
    {
      "alignedWord": "at",
      "case": "success",
      "end": 1.55,
      "endOffset": 15,
      "phones": [
        {
          "duration": 0.18,
          "phone": "ae_B"
        },
        {
          "duration": 0.1,
          "phone": "t_E"
        }
      ],
      "start": 1.27,
      "startOffset": 13,
      "word": "AT"
    },
    {
      "alignedWord": "random",
      "case": "success",
      "end": 2.1,
      "endOffset": 22,
      "phones": [
        {
          "duration": 0.06,
          "phone": "r_B"
        },
        {
          "duration": 0.09,
          "phone": "ae_I"
        },
        {
          "duration": 0.03,
          "phone": "n_I"
        },
        {
          "duration": 0.07,
          "phone": "d_I"
        },
        {
          "duration": 0.1,
          "phone": "ah_I"
        },
        {
          "duration": 0.2,
          "phone": "m_E"
        }
      ],
      "start": 1.55,
      "startOffset": 16,
      "word": "RANDOM"
    },
    {
      "alignedWord": "for",
      "case": "success",
      "end": 3.4000000000000004,
      "endOffset": 26,
      "phones": [
        {
          "duration": 0.11,
          "phone": "f_B"
        },
        {
          "duration": 0.07,
          "phone": "er_E"
        }
      ],
      "start": 3.22,
      "startOffset": 23,
      "word": "FOR"
    },
    {
      "alignedWord": "some",
      "case": "success",
      "end": 3.6399999999999997,
      "endOffset": 31,
      "phones": [
        {
          "duration": 0.08,
          "phone": "s_B"
        },
        {
          "duration": 0.08,
          "phone": "ah_I"
        },
        {
          "duration": 0.08,
          "phone": "m_E"
        }
      ],
      "start": 3.4,
      "startOffset": 27,
      "word": "SOME"
    },
    {
      "alignedWord": "while",
      "case": "success",
      "end": 3.99,
      "endOffset": 37,
      "phones": [
        {
          "duration": 0.09,
          "phone": "w_B"
        },
        {
          "duration": 0.17,
          "phone": "ay_I"
        },
        {
          "duration": 0.09,
          "phone": "l_E"
        }
      ],
      "start": 3.64,
      "startOffset": 32,
      "word": "WHILE"
    },
    {
      "alignedWord": "the",
      "case": "success",
      "end": 4.0600000000000005,
      "endOffset": 41,
      "phones": [
        {
          "duration": 0.03,
          "phone": "dh_B"
        },
        {
          "duration": 0.04,
          "phone": "ah_E"
        }
      ],
      "start": 3.99,
      "startOffset": 38,
      "word": "THE"
    },
    {
      "alignedWord": "voyage",
      "case": "success",
      "end": 4.3999999999999995,
      "endOffset": 48,
      "phones": [
        {
          "duration": 0.08,
          "phone": "v_B"
        },
        {
          "duration": 0.14,
          "phone": "oy_I"
        },
        {
          "duration": 0.04,
          "phone": "ih_I"
        },
        {
          "duration": 0.08,
          "phone": "jh_E"
        }
      ],
      "start": 4.06,
      "startOffset": 42,
      "word": "VOYAGE"
    },
    {
      "alignedWord": "of",
      "case": "success",
      "end": 4.5200000000000005,
      "endOffset": 51,
      "phones": [
        {
          "duration": 0.05,
          "phone": "ah_B"
        },
        {
          "duration": 0.07,
          "phone": "v_E"
        }
      ],
      "start": 4.4,
      "startOffset": 49,
      "word": "OF"
    },
    {
      "alignedWord": "the",
      "case": "success",
      "end": 4.569999999999999,
      "endOffset": 55,
      "phones": [
        {
          "duration": 0.01,
          "phone": "dh_B"
        },
        {
          "duration": 0.04,
          "phone": "ah_E"
        }
      ],
      "start": 4.52,
      "startOffset": 52,
      "word": "THE"
    },
    {
      "alignedWord": "abraham",
      "case": "success",
      "end": 4.970000000000001,
      "endOffset": 63,
      "phones": [
        {
          "duration": 0.1,
          "phone": "ey_B"
        },
        {
          "duration": 0.08,
          "phone": "b_I"
        },
        {
          "duration": 0.05,
          "phone": "r_I"
        },
        {
          "duration": 0.01,
          "phone": "ah_I"
        },
        {
          "duration": 0.04,
          "phone": "hh_I"
        },
        {
          "duration": 0.06,
          "phone": "ae_I"
        },
        {
          "duration": 0.06,
          "phone": "m_E"
        }
      ],
      "start": 4.57,
      "startOffset": 56,
      "word": "ABRAHAM"
    },
    {
      "alignedWord": "lincoln",
      "case": "success",
      "end": 5.37,
      "endOffset": 71,
      "phones": [
        {
          "duration": 0.04,
          "phone": "l_B"
        },
        {
          "duration": 0.07,
          "phone": "ih_I"
        },
        {
          "duration": 0.06,
          "phone": "ng_I"
        },
        {
          "duration": 0.04,
          "phone": "k_I"
        },
        {
          "duration": 0.09,
          "phone": "ah_I"
        },
        {
          "duration": 0.1,
          "phone": "n_E"
        }
      ],
      "start": 4.97,
      "startOffset": 64,
      "word": "LINCOLN"
    },
    {
      "alignedWord": "was",
      "case": "success",
      "end": 5.54,
      "endOffset": 75,
      "phones": [
        {
          "duration": 0.05,
          "phone": "w_B"
        },
        {
          "duration": 0.04,
          "phone": "ah_I"
        },
        {
          "duration": 0.08,
          "phone": "z_E"
        }
      ],
      "start": 5.37,
      "startOffset": 72,
      "word": "WAS"
    },
    {
      "alignedWord": "marked",
      "case": "success",
      "end": 5.8100000000000005,
      "endOffset": 82,
      "phones": [
        {
          "duration": 0.04,
          "phone": "m_B"
        },
        {
          "duration": 0.06,
          "phone": "aa_I"
        },
        {
          "duration": 0.07,
          "phone": "r_I"
        },
        {
          "duration": 0.05,
          "phone": "k_I"
        },
        {
          "duration": 0.05,
          "phone": "t_E"
        }
      ],
      "start": 5.54,
      "startOffset": 76,
      "word": "MARKED"
    },
    {
      "alignedWord": "by",
      "case": "success",
      "end": 5.949999999999999,
      "endOffset": 85,
      "phones": [
        {
          "duration": 0.07,
          "phone": "b_B"
        },
        {
          "duration": 0.07,
          "phone": "ay_E"
        }
      ],
      "start": 5.81,
      "startOffset": 83,
      "word": "BY"
    },
    {
      "alignedWord": "no",
      "case": "success",
      "end": 6.140000000000001,
      "endOffset": 88,
      "phones": [
        {
          "duration": 0.1,
          "phone": "n_B"
        },
        {
          "duration": 0.09,
          "phone": "ow_E"
        }
      ],
      "start": 5.95,
      "startOffset": 86,
      "word": "NO"
    },
    {
      "alignedWord": "incident",
      "case": "success",
      "end": 6.699999999999999,
      "endOffset": 97,
      "phones": [
        {
          "duration": 0.08,
          "phone": "ih_B"
        },
        {
          "duration": 0.07,
          "phone": "n_I"
        },
        {
          "duration": 0.05,
          "phone": "s_I"
        },
        {
          "duration": 0.08,
          "phone": "ah_I"
        },
        {
          "duration": 0.01,
          "phone": "d_I"
        },
        {
          "duration": 0.11,
          "phone": "ah_I"
        },
        {
          "duration": 0.08,
          "phone": "n_I"
        },
        {
          "duration": 0.08,
          "phone": "t_E"
        }
      ],
      "start": 6.14,
      "startOffset": 89,
      "word": "INCIDENT"
    },
    {
      "alignedWord": "but",
      "case": "success",
      "end": 7.44,
      "endOffset": 101,
      "phones": [
        {
          "duration": 0.06,
          "phone": "b_B"
        },
        {
          "duration": 0.04,
          "phone": "ah_I"
        },
        {
          "duration": 0.06,
          "phone": "t_E"
        }
      ],
      "start": 7.28,
      "startOffset": 98,
      "word": "BUT"
    },
    {
      "alignedWord": "one",
      "case": "success",
      "end": 7.6000000000000005,
      "endOffset": 105,
      "phones": [
        {
          "duration": 0.03,
          "phone": "w_B"
        },
        {
          "duration": 0.06,
          "phone": "ah_I"
        },
        {
          "duration": 0.07,
          "phone": "n_E"
        }
      ],
      "start": 7.44,
      "startOffset": 102,
      "word": "ONE"
    },
    {
      "alignedWord": "circumstance",
      "case": "success",
      "end": 8.209999999999999,
      "endOffset": 118,
      "phones": [
        {
          "duration": 0.1,
          "phone": "s_B"
        },
        {
          "duration": 0.09,
          "phone": "er_I"
        },
        {
          "duration": 0.03,
          "phone": "k_I"
        },
        {
          "duration": 0.05,
          "phone": "ah_I"
        },
        {
          "duration": 0.04,
          "phone": "m_I"
        },
        {
          "duration": 0.04,
          "phone": "s_I"
        },
        {
          "duration": 0.06,
          "phone": "t_I"
        },
        {
          "duration": 0.05,
          "phone": "ae_I"
        },
        {
          "duration": 0.07,
          "phone": "n_I"
        },
        {
          "duration": 0.08,
          "phone": "s_E"
        }
      ],
      "start": 7.6,
      "startOffset": 106,
      "word": "CIRCUMSTANCE"
    },
    {
      "alignedWord": "arose",
      "case": "success",
      "end": 8.520000000000001,
      "endOffset": 124,
      "phones": [
        {
          "duration": 0.12,
          "phone": "er_B"
        },
        {
          "duration": 0.12,
          "phone": "ow_I"
        },
        {
          "duration": 0.07,
          "phone": "z_E"
        }
      ],
      "start": 8.21,
      "startOffset": 119,
      "word": "AROSE"
    },
    {
      "alignedWord": "that",
      "case": "success",
      "end": 8.629999999999999,
      "endOffset": 129,
      "phones": [
        {
          "duration": 0.05,
          "phone": "dh_B"
        },
        {
          "duration": 0.02,
          "phone": "ah_I"
        },
        {
          "duration": 0.04,
          "phone": "t_E"
        }
      ],
      "start": 8.52,
      "startOffset": 125,
      "word": "THAT"
    },
    {
      "alignedWord": "displayed",
      "case": "success",
      "end": 9.020000000000001,
      "endOffset": 139,
      "phones": [
        {
          "duration": 0.03,
          "phone": "d_B"
        },
        {
          "duration": 0.06,
          "phone": "ih_I"
        },
        {
          "duration": 0.04,
          "phone": "s_I"
        },
        {
          "duration": 0.07,
          "phone": "p_I"
        },
        {
          "duration": 0.07,
          "phone": "l_I"
        },
        {
          "duration": 0.06,
          "phone": "ey_I"
        },
        {
          "duration": 0.06,
          "phone": "d_E"
        }
      ],
      "start": 8.63,
      "startOffset": 130,
      "word": "DISPLAYED"
    },
    {
      "alignedWord": "ned",
      "case": "success",
      "end": 9.23,
      "endOffset": 143,
      "phones": [
        {
          "duration": 0.06,
          "phone": "n_B"
        },
        {
          "duration": 0.07,
          "phone": "eh_I"
        },
        {
          "duration": 0.08,
          "phone": "d_E"
        }
      ],
      "start": 9.02,
      "startOffset": 140,
      "word": "NED"
    },
    {
      "alignedWord": "land's",
      "case": "success",
      "end": 9.5,
      "endOffset": 150,
      "phones": [
        {
          "duration": 0.05,
          "phone": "l_B"
        },
        {
          "duration": 0.08,
          "phone": "ae_I"
        },
        {
          "duration": 0.05,
          "phone": "n_I"
        },
        {
          "duration": 0.01,
          "phone": "d_I"
        },
        {
          "duration": 0.08,
          "phone": "z_E"
        }
      ],
      "start": 9.23,
      "startOffset": 144,
      "word": "LAND'S"
    },
    {
      "alignedWord": "marvelous",
      "case": "success",
      "end": 9.94,
      "endOffset": 160,
      "phones": [
        {
          "duration": 0.04,
          "phone": "m_B"
        },
        {
          "duration": 0.08,
          "phone": "aa_I"
        },
        {
          "duration": 0.06,
          "phone": "r_I"
        },
        {
          "duration": 0.06,
          "phone": "v_I"
        },
        {
          "duration": 0.05,
          "phone": "ah_I"
        },
        {
          "duration": 0.05,
          "phone": "l_I"
        },
        {
          "duration": 0.06,
          "phone": "ah_I"
        },
        {
          "duration": 0.04,
          "phone": "s_E"
        }
      ],
      "start": 9.5,
      "startOffset": 151,
      "word": "MARVELOUS"
    },
    {
      "alignedWord": "skills",
      "case": "success",
      "end": 10.459999999999999,
      "endOffset": 167,
      "phones": [
        {
          "duration": 0.06,
          "phone": "s_B"
        },
        {
          "duration": 0.07,
          "phone": "k_I"
        },
        {
          "duration": 0.08,
          "phone": "ih_I"
        },
        {
          "duration": 0.18,
          "phone": "l_I"
        },
        {
          "duration": 0.13,
          "phone": "z_E"
        }
      ],
      "start": 9.94,
      "startOffset": 161,
      "word": "SKILLS"
    },
    {
      "alignedWord": "and",
      "case": "success",
      "end": 10.82,
      "endOffset": 171,
      "phones": [
        {
          "duration": 0.05,
          "phone": "ae_B"
        },
        {
          "duration": 0.03,
          "phone": "n_I"
        },
        {
          "duration": 0.07,
          "phone": "d_E"
        }
      ],
      "start": 10.67,
      "startOffset": 168,
      "word": "AND"
    },
    {
      "alignedWord": "showed",
      "case": "success",
      "end": 10.99,
      "endOffset": 178,
      "phones": [
        {
          "duration": 0.08,
          "phone": "sh_B"
        },
        {
          "duration": 0.07,
          "phone": "ow_I"
        },
        {
          "duration": 0.02,
          "phone": "d_E"
        }
      ],
      "start": 10.82,
      "startOffset": 172,
      "word": "SHOWED"
    },
    {
      "alignedWord": "just",
      "case": "success",
      "end": 11.209999999999999,
      "endOffset": 183,
      "phones": [
        {
          "duration": 0.06,
          "phone": "jh_B"
        },
        {
          "duration": 0.05,
          "phone": "ah_I"
        },
        {
          "duration": 0.04,
          "phone": "s_I"
        },
        {
          "duration": 0.05,
          "phone": "t_E"
        }
      ],
      "start": 11.01,
      "startOffset": 179,
      "word": "JUST"
    },
    {
      "alignedWord": "how",
      "case": "success",
      "end": 11.290000000000001,
      "endOffset": 187,
      "phones": [
        {
          "duration": 0.02,
          "phone": "hh_B"
        },
        {
          "duration": 0.06,
          "phone": "aw_E"
        }
      ],
      "start": 11.21,
      "startOffset": 184,
      "word": "HOW"
    },
    {
      "alignedWord": "much",
      "case": "success",
      "end": 11.459999999999999,
      "endOffset": 192,
      "phones": [
        {
          "duration": 0.06,
          "phone": "m_B"
        },
        {
          "duration": 0.04,
          "phone": "ah_I"
        },
        {
          "duration": 0.07,
          "phone": "ch_E"
        }
      ],
      "start": 11.29,
      "startOffset": 188,
      "word": "MUCH"
    },
    {
      "alignedWord": "confidence",
      "case": "success",
      "end": 12.040000000000001,
      "endOffset": 203,
      "phones": [
        {
          "duration": 0.08,
          "phone": "k_B"
        },
        {
          "duration": 0.1,
          "phone": "aa_I"
        },
        {
          "duration": 0.06,
          "phone": "n_I"
        },
        {
          "duration": 0.08,
          "phone": "f_I"
        },
        {
          "duration": 0.06,
          "phone": "ah_I"
        },
        {
          "duration": 0.01,
          "phone": "d_I"
        },
        {
          "duration": 0.06,
          "phone": "ah_I"
        },
        {
          "duration": 0.07,
          "phone": "n_I"
        },
        {
          "duration": 0.06,
          "phone": "s_E"
        }
      ],
      "start": 11.46,
      "startOffset": 193,
      "word": "CONFIDENCE"
    },
    {
      "alignedWord": "we",
      "case": "success",
      "end": 12.18,
      "endOffset": 206,
      "phones": [
        {
          "duration": 0.06,
          "phone": "w_B"
        },
        {
          "duration": 0.08,
          "phone": "iy_E"
        }
      ],
      "start": 12.04,
      "startOffset": 204,
      "word": "WE"
    },
    {
      "alignedWord": "could",
      "case": "success",
      "end": 12.299999,
      "endOffset": 212,
      "phones": [
        {
          "duration": 0.04,
          "phone": "k_B"
        },
        {
          "duration": 0.04,
          "phone": "uh_I"
        },
        {
          "duration": 0.04,
          "phone": "d_E"
        }
      ],
      "start": 12.179999,
      "startOffset": 207,
      "word": "COULD"
    },
    {
      "alignedWord": "place",
      "case": "success",
      "end": 12.59,
      "endOffset": 218,
      "phones": [
        {
          "duration": 0.07,
          "phone": "p_B"
        },
        {
          "duration": 0.08,
          "phone": "l_I"
        },
        {
          "duration": 0.07,
          "phone": "ey_I"
        },
        {
          "duration": 0.07,
          "phone": "s_E"
        }
      ],
      "start": 12.3,
      "startOffset": 213,
      "word": "PLACE"
    },
    {
      "alignedWord": "in",
      "case": "success",
      "end": 12.709999999999999,
      "endOffset": 221,
      "phones": [
        {
          "duration": 0.06,
          "phone": "ih_B"
        },
        {
          "duration": 0.06,
          "phone": "n_E"
        }
      ],
      "start": 12.59,
      "startOffset": 219,
      "word": "IN"
    },
    {
      "alignedWord": "him",
      "case": "success",
      "end": 13.05,
      "endOffset": 225,
      "phones": [
        {
          "duration": 0.03,
          "phone": "hh_B"
        },
        {
          "duration": 0.11,
          "phone": "ih_I"
        },
        {
          "duration": 0.2,
          "phone": "m_E"
        }
      ],
      "start": 12.71,
      "startOffset": 222,
      "word": "HIM"
    }
  ]
}